{
  "bomFormat": "CycloneDX",
  "specVersion": "1.3",
  "version": 2,
  "metadata": {
    "tools": [
      {
        "vendor": "CycloneDX",
        "name": "Node.js module",
        "version": "3.0.3"
      },
      {
        "vendor": "AppThreat",
        "name": "cdxgen",
        "version": "3.0.10"
      },
      {
        "vendor": "Fortress Information Security",
        "name": "Github Extractor",
        "version": "1.15.1"
      }
    ],
    "authors": [
      {
        "name": "Fortress Information Security",
        "email": "sales@fortressinfosec.com",
        "phone": "1-407-573-6800"
      }
    ],
    "timestamp": "2022-07-26T23:34:10Z",
    "component": {
      "type": "application",
      "name": "staytus",
      "version": "",
      "group": "adamcooke",
      "externalReferences": [
        {
          "url": "https://github.com/adamcooke/staytus.git",
          "type": "distribution"
        },
        {
          "type": "website",
          "url": "http://staytus.co",
          "comment": "As set via `homepage` in Github API"
        }
      ]
    }
  },
  "components": [
    {
      "type": "library",
      "bom-ref": "pkg:rubygems/actioncable@5.2.6",
      "group": "",
      "name": "actioncable",
      "version": "5.2.6",
      "description": "",
      "purl": "pkg:rubygems/actioncable@5.2.6"
    },
    {
      "type": "library",
      "bom-ref": "pkg:rubygems/actionmailer@5.2.6",
      "group": "",
      "name": "actionmailer",
      "version": "5.2.6",
      "description": "",
      "purl": "pkg:rubygems/actionmailer@5.2.6"
    },
    {
      "type": "library",
      "bom-ref": "pkg:rubygems/actionpack@5.2.6",
      "group": "",
      "name": "actionpack",
      "version": "5.2.6",
      "description": "",
      "purl": "pkg:rubygems/actionpack@5.2.6"
    },
    {
      "type": "library",
      "bom-ref": "pkg:rubygems/actionview@5.2.6",
      "group": "",
      "name": "actionview",
      "version": "5.2.6",
      "description": "",
      "purl": "pkg:rubygems/actionview@5.2.6"
    },
    {
      "type": "library",
      "bom-ref": "pkg:rubygems/activejob@5.2.6",
      "group": "",
      "name": "activejob",
      "version": "5.2.6",
      "description": "",
      "purl": "pkg:rubygems/activejob@5.2.6"
    },
    {
      "type": "library",
      "bom-ref": "pkg:rubygems/activemodel@5.2.6",
      "group": "",
      "name": "activemodel",
      "version": "5.2.6",
      "description": "",
      "purl": "pkg:rubygems/activemodel@5.2.6"
    },
    {
      "type": "library",
      "bom-ref": "pkg:rubygems/activerecord@5.2.6",
      "group": "",
      "name": "activerecord",
      "version": "5.2.6",
      "description": "",
      "purl": "pkg:rubygems/activerecord@5.2.6"
    },
    {
      "type": "library",
      "bom-ref": "pkg:rubygems/activestorage@5.2.6",
      "group": "",
      "name": "activestorage",
      "version": "5.2.6",
      "description": "",
      "purl": "pkg:rubygems/activestorage@5.2.6"
    },
    {
      "type": "library",
      "bom-ref": "pkg:rubygems/activesupport@5.2.6",
      "group": "",
      "name": "activesupport",
      "version": "5.2.6",
      "description": "",
      "purl": "pkg:rubygems/activesupport@5.2.6"
    },
    {
      "type": "library",
      "bom-ref": "pkg:rubygems/activevalidators@4.1.0",
      "group": "",
      "name": "activevalidators",
      "version": "4.1.0",
      "description": "",
      "purl": "pkg:rubygems/activevalidators@4.1.0"
    },
    {
      "type": "library",
      "bom-ref": "pkg:rubygems/addressable@2.5.2",
      "group": "",
      "name": "addressable",
      "version": "2.5.2",
      "description": "",
      "purl": "pkg:rubygems/addressable@2.5.2"
    },
    {
      "type": "library",
      "bom-ref": "pkg:rubygems/annotate@3.1.1",
      "group": "",
      "name": "annotate",
      "version": "3.1.1",
      "description": "",
      "purl": "pkg:rubygems/annotate@3.1.1"
    },
    {
      "type": "library",
      "bom-ref": "pkg:rubygems/arel@9.0.0",
      "group": "",
      "name": "arel",
      "version": "9.0.0",
      "description": "",
      "purl": "pkg:rubygems/arel@9.0.0"
    },
    {
      "type": "library",
      "bom-ref": "pkg:rubygems/authie@3.1.5",
      "group": "",
      "name": "authie",
      "version": "3.1.5",
      "description": "",
      "purl": "pkg:rubygems/authie@3.1.5"
    },
    {
      "type": "library",
      "bom-ref": "pkg:rubygems/bcrypt@3.1.11",
      "group": "",
      "name": "bcrypt",
      "version": "3.1.11",
      "description": "",
      "purl": "pkg:rubygems/bcrypt@3.1.11"
    },
    {
      "type": "library",
      "bom-ref": "pkg:rubygems/builder@3.2.4",
      "group": "",
      "name": "builder",
      "version": "3.2.4",
      "description": "",
      "purl": "pkg:rubygems/builder@3.2.4"
    },
    {
      "type": "library",
      "bom-ref": "pkg:rubygems/chronic@0.10.2",
      "group": "",
      "name": "chronic",
      "version": "0.10.2",
      "description": "",
      "purl": "pkg:rubygems/chronic@0.10.2"
    },
    {
      "type": "library",
      "bom-ref": "pkg:rubygems/chronic_duration@0.10.6",
      "group": "",
      "name": "chronic_duration",
      "version": "0.10.6",
      "description": "",
      "purl": "pkg:rubygems/chronic_duration@0.10.6"
    },
    {
      "type": "library",
      "bom-ref": "pkg:rubygems/coffee-rails@5.0.0",
      "group": "",
      "name": "coffee-rails",
      "version": "5.0.0",
      "description": "",
      "purl": "pkg:rubygems/coffee-rails@5.0.0"
    },
    {
      "type": "library",
      "bom-ref": "pkg:rubygems/coffee-script@2.4.1",
      "group": "",
      "name": "coffee-script",
      "version": "2.4.1",
      "description": "",
      "purl": "pkg:rubygems/coffee-script@2.4.1"
    },
    {
      "type": "library",
      "bom-ref": "pkg:rubygems/coffee-script-source@1.12.2",
      "group": "",
      "name": "coffee-script-source",
      "version": "1.12.2",
      "description": "",
      "purl": "pkg:rubygems/coffee-script-source@1.12.2"
    },
    {
      "type": "library",
      "bom-ref": "pkg:rubygems/concurrent-ruby@1.1.9",
      "group": "",
      "name": "concurrent-ruby",
      "version": "1.1.9",
      "description": "",
      "purl": "pkg:rubygems/concurrent-ruby@1.1.9"
    },
    {
      "type": "library",
      "bom-ref": "pkg:rubygems/countries@2.1.4",
      "group": "",
      "name": "countries",
      "version": "2.1.4",
      "description": "",
      "purl": "pkg:rubygems/countries@2.1.4"
    },
    {
      "type": "library",
      "bom-ref": "pkg:rubygems/crass@1.0.6",
      "group": "",
      "name": "crass",
      "version": "1.0.6",
      "description": "",
      "purl": "pkg:rubygems/crass@1.0.6"
    },
    {
      "type": "library",
      "bom-ref": "pkg:rubygems/credit_card_validations@3.4.0",
      "group": "",
      "name": "credit_card_validations",
      "version": "3.4.0",
      "description": "",
      "purl": "pkg:rubygems/credit_card_validations@3.4.0"
    },
    {
      "type": "library",
      "bom-ref": "pkg:rubygems/css_parser@1.6.0",
      "group": "",
      "name": "css_parser",
      "version": "1.6.0",
      "description": "",
      "purl": "pkg:rubygems/css_parser@1.6.0"
    },
    {
      "type": "library",
      "bom-ref": "pkg:rubygems/date_validator@0.9.0",
      "group": "",
      "name": "date_validator",
      "version": "0.9.0",
      "description": "",
      "purl": "pkg:rubygems/date_validator@0.9.0"
    },
    {
      "type": "library",
      "bom-ref": "pkg:rubygems/datey@1.1.0",
      "group": "",
      "name": "datey",
      "version": "1.1.0",
      "description": "",
      "purl": "pkg:rubygems/datey@1.1.0"
    },
    {
      "type": "library",
      "bom-ref": "pkg:rubygems/deep_merge@1.2.1",
      "group": "",
      "name": "deep_merge",
      "version": "1.2.1",
      "description": "",
      "purl": "pkg:rubygems/deep_merge@1.2.1"
    },
    {
      "type": "library",
      "bom-ref": "pkg:rubygems/delayed_job@4.1.8",
      "group": "",
      "name": "delayed_job",
      "version": "4.1.8",
      "description": "",
      "purl": "pkg:rubygems/delayed_job@4.1.8"
    },
    {
      "type": "library",
      "bom-ref": "pkg:rubygems/delayed_job_active_record@4.1.4",
      "group": "",
      "name": "delayed_job_active_record",
      "version": "4.1.4",
      "description": "",
      "purl": "pkg:rubygems/delayed_job_active_record@4.1.4"
    },
    {
      "type": "library",
      "bom-ref": "pkg:rubygems/dynamic_form@1.1.4",
      "group": "",
      "name": "dynamic_form",
      "version": "1.1.4",
      "description": "",
      "purl": "pkg:rubygems/dynamic_form@1.1.4"
    },
    {
      "type": "library",
      "bom-ref": "pkg:rubygems/erubi@1.10.0",
      "group": "",
      "name": "erubi",
      "version": "1.10.0",
      "description": "",
      "purl": "pkg:rubygems/erubi@1.10.0"
    },
    {
      "type": "library",
      "bom-ref": "pkg:rubygems/execjs@2.7.0",
      "group": "",
      "name": "execjs",
      "version": "2.7.0",
      "description": "",
      "purl": "pkg:rubygems/execjs@2.7.0"
    },
    {
      "type": "library",
      "bom-ref": "pkg:rubygems/ffi@1.13.1",
      "group": "",
      "name": "ffi",
      "version": "1.13.1",
      "description": "",
      "purl": "pkg:rubygems/ffi@1.13.1"
    },
    {
      "type": "library",
      "bom-ref": "pkg:rubygems/florrick@1.1.3",
      "group": "",
      "name": "florrick",
      "version": "1.1.3",
      "description": "",
      "purl": "pkg:rubygems/florrick@1.1.3"
    },
    {
      "type": "library",
      "bom-ref": "pkg:rubygems/foreman@0.84.0",
      "group": "",
      "name": "foreman",
      "version": "0.84.0",
      "description": "",
      "purl": "pkg:rubygems/foreman@0.84.0"
    },
    {
      "type": "library",
      "bom-ref": "pkg:rubygems/globalid@0.5.2",
      "group": "",
      "name": "globalid",
      "version": "0.5.2",
      "description": "",
      "purl": "pkg:rubygems/globalid@0.5.2"
    },
    {
      "type": "library",
      "bom-ref": "pkg:rubygems/haml@5.0.4",
      "group": "",
      "name": "haml",
      "version": "5.0.4",
      "description": "",
      "purl": "pkg:rubygems/haml@5.0.4"
    },
    {
      "type": "library",
      "bom-ref": "pkg:rubygems/htmlentities@4.3.4",
      "group": "",
      "name": "htmlentities",
      "version": "4.3.4",
      "description": "",
      "purl": "pkg:rubygems/htmlentities@4.3.4"
    },
    {
      "type": "library",
      "bom-ref": "pkg:rubygems/i18n@0.9.5",
      "group": "",
      "name": "i18n",
      "version": "0.9.5",
      "description": "",
      "purl": "pkg:rubygems/i18n@0.9.5"
    },
    {
      "type": "library",
      "bom-ref": "pkg:rubygems/i18n_data@0.8.0",
      "group": "",
      "name": "i18n_data",
      "version": "0.8.0",
      "description": "",
      "purl": "pkg:rubygems/i18n_data@0.8.0"
    },
    {
      "type": "library",
      "bom-ref": "pkg:rubygems/jquery-rails@4.4.0",
      "group": "",
      "name": "jquery-rails",
      "version": "4.4.0",
      "description": "",
      "purl": "pkg:rubygems/jquery-rails@4.4.0"
    },
    {
      "type": "library",
      "bom-ref": "pkg:rubygems/json@2.3.1",
      "group": "",
      "name": "json",
      "version": "2.3.1",
      "description": "",
      "purl": "pkg:rubygems/json@2.3.1"
    },
    {
      "type": "library",
      "bom-ref": "pkg:rubygems/kaminari@1.2.1",
      "group": "",
      "name": "kaminari",
      "version": "1.2.1",
      "description": "",
      "purl": "pkg:rubygems/kaminari@1.2.1"
    },
    {
      "type": "library",
      "bom-ref": "pkg:rubygems/kaminari-actionview@1.2.1",
      "group": "",
      "name": "kaminari-actionview",
      "version": "1.2.1",
      "description": "",
      "purl": "pkg:rubygems/kaminari-actionview@1.2.1"
    },
    {
      "type": "library",
      "bom-ref": "pkg:rubygems/kaminari-activerecord@1.2.1",
      "group": "",
      "name": "kaminari-activerecord",
      "version": "1.2.1",
      "description": "",
      "purl": "pkg:rubygems/kaminari-activerecord@1.2.1"
    },
    {
      "type": "library",
      "bom-ref": "pkg:rubygems/kaminari-core@1.2.1",
      "group": "",
      "name": "kaminari-core",
      "version": "1.2.1",
      "description": "",
      "purl": "pkg:rubygems/kaminari-core@1.2.1"
    },
    {
      "type": "library",
      "bom-ref": "pkg:rubygems/log_logins@1.0.2",
      "group": "",
      "name": "log_logins",
      "version": "1.0.2",
      "description": "",
      "purl": "pkg:rubygems/log_logins@1.0.2"
    },
    {
      "type": "library",
      "bom-ref": "pkg:rubygems/loofah@2.12.0",
      "group": "",
      "name": "loofah",
      "version": "2.12.0",
      "description": "",
      "purl": "pkg:rubygems/loofah@2.12.0"
    },
    {
      "type": "library",
      "bom-ref": "pkg:rubygems/mail@2.7.1",
      "group": "",
      "name": "mail",
      "version": "2.7.1",
      "description": "",
      "purl": "pkg:rubygems/mail@2.7.1"
    },
    {
      "type": "library",
      "bom-ref": "pkg:rubygems/marcel@1.0.1",
      "group": "",
      "name": "marcel",
      "version": "1.0.1",
      "description": "",
      "purl": "pkg:rubygems/marcel@1.0.1"
    },
    {
      "type": "library",
      "bom-ref": "pkg:rubygems/method_source@1.0.0",
      "group": "",
      "name": "method_source",
      "version": "1.0.0",
      "description": "",
      "purl": "pkg:rubygems/method_source@1.0.0"
    },
    {
      "type": "library",
      "bom-ref": "pkg:rubygems/mini_mime@1.1.1",
      "group": "",
      "name": "mini_mime",
      "version": "1.1.1",
      "description": "",
      "purl": "pkg:rubygems/mini_mime@1.1.1"
    },
    {
      "type": "library",
      "bom-ref": "pkg:rubygems/mini_portile2@2.6.1",
      "group": "",
      "name": "mini_portile2",
      "version": "2.6.1",
      "description": "",
      "purl": "pkg:rubygems/mini_portile2@2.6.1"
    },
    {
      "type": "library",
      "bom-ref": "pkg:rubygems/minitest@5.14.4",
      "group": "",
      "name": "minitest",
      "version": "5.14.4",
      "description": "",
      "purl": "pkg:rubygems/minitest@5.14.4"
    },
    {
      "type": "library",
      "bom-ref": "pkg:rubygems/money@6.10.1",
      "group": "",
      "name": "money",
      "version": "6.10.1",
      "description": "",
      "purl": "pkg:rubygems/money@6.10.1"
    },
    {
      "type": "library",
      "bom-ref": "pkg:rubygems/moonrope@2.0.2",
      "group": "",
      "name": "moonrope",
      "version": "2.0.2",
      "description": "",
      "purl": "pkg:rubygems/moonrope@2.0.2"
    },
    {
      "type": "library",
      "bom-ref": "pkg:rubygems/mysql2@0.4.10",
      "group": "",
      "name": "mysql2",
      "version": "0.4.10",
      "description": "",
      "purl": "pkg:rubygems/mysql2@0.4.10"
    },
    {
      "type": "library",
      "bom-ref": "pkg:rubygems/nifty-attachments@1.0.4",
      "group": "",
      "name": "nifty-attachments",
      "version": "1.0.4",
      "description": "",
      "purl": "pkg:rubygems/nifty-attachments@1.0.4"
    },
    {
      "type": "library",
      "bom-ref": "pkg:rubygems/nifty-utils@1.1.7",
      "group": "",
      "name": "nifty-utils",
      "version": "1.1.7",
      "description": "",
      "purl": "pkg:rubygems/nifty-utils@1.1.7"
    },
    {
      "type": "library",
      "bom-ref": "pkg:rubygems/nilify_blanks@1.3.0",
      "group": "",
      "name": "nilify_blanks",
      "version": "1.3.0",
      "description": "",
      "purl": "pkg:rubygems/nilify_blanks@1.3.0"
    },
    {
      "type": "library",
      "bom-ref": "pkg:rubygems/nio4r@2.5.8",
      "group": "",
      "name": "nio4r",
      "version": "2.5.8",
      "description": "",
      "purl": "pkg:rubygems/nio4r@2.5.8"
    },
    {
      "type": "library",
      "bom-ref": "pkg:rubygems/nokogiri@1.12.4",
      "group": "",
      "name": "nokogiri",
      "version": "1.12.4",
      "description": "",
      "purl": "pkg:rubygems/nokogiri@1.12.4"
    },
    {
      "type": "library",
      "bom-ref": "pkg:rubygems/numerizer@0.1.1",
      "group": "",
      "name": "numerizer",
      "version": "0.1.1",
      "description": "",
      "purl": "pkg:rubygems/numerizer@0.1.1"
    },
    {
      "type": "library",
      "bom-ref": "pkg:rubygems/phony@2.16.3",
      "group": "",
      "name": "phony",
      "version": "2.16.3",
      "description": "",
      "purl": "pkg:rubygems/phony@2.16.3"
    },
    {
      "type": "library",
      "bom-ref": "pkg:rubygems/premailer@1.11.1",
      "group": "",
      "name": "premailer",
      "version": "1.11.1",
      "description": "",
      "purl": "pkg:rubygems/premailer@1.11.1"
    },
    {
      "type": "library",
      "bom-ref": "pkg:rubygems/public_suffix@3.0.2",
      "group": "",
      "name": "public_suffix",
      "version": "3.0.2",
      "description": "",
      "purl": "pkg:rubygems/public_suffix@3.0.2"
    },
    {
      "type": "library",
      "bom-ref": "pkg:rubygems/puma@5.1.0",
      "group": "",
      "name": "puma",
      "version": "5.1.0",
      "description": "",
      "purl": "pkg:rubygems/puma@5.1.0"
    },
    {
      "type": "library",
      "bom-ref": "pkg:rubygems/racc@1.5.2",
      "group": "",
      "name": "racc",
      "version": "1.5.2",
      "description": "",
      "purl": "pkg:rubygems/racc@1.5.2"
    },
    {
      "type": "library",
      "bom-ref": "pkg:rubygems/rack@2.2.3",
      "group": "",
      "name": "rack",
      "version": "2.2.3",
      "description": "",
      "purl": "pkg:rubygems/rack@2.2.3"
    },
    {
      "type": "library",
      "bom-ref": "pkg:rubygems/rack-custom-proxies@1.0.1",
      "group": "",
      "name": "rack-custom-proxies",
      "version": "1.0.1",
      "description": "",
      "purl": "pkg:rubygems/rack-custom-proxies@1.0.1"
    },
    {
      "type": "library",
      "bom-ref": "pkg:rubygems/rack-test@1.1.0",
      "group": "",
      "name": "rack-test",
      "version": "1.1.0",
      "description": "",
      "purl": "pkg:rubygems/rack-test@1.1.0"
    },
    {
      "type": "library",
      "bom-ref": "pkg:rubygems/rails@5.2.6",
      "group": "",
      "name": "rails",
      "version": "5.2.6",
      "description": "",
      "purl": "pkg:rubygems/rails@5.2.6"
    },
    {
      "type": "library",
      "bom-ref": "pkg:rubygems/rails-dom-testing@2.0.3",
      "group": "",
      "name": "rails-dom-testing",
      "version": "2.0.3",
      "description": "",
      "purl": "pkg:rubygems/rails-dom-testing@2.0.3"
    },
    {
      "type": "library",
      "bom-ref": "pkg:rubygems/rails-html-sanitizer@1.4.2",
      "group": "",
      "name": "rails-html-sanitizer",
      "version": "1.4.2",
      "description": "",
      "purl": "pkg:rubygems/rails-html-sanitizer@1.4.2"
    },
    {
      "type": "library",
      "bom-ref": "pkg:rubygems/rails_env_config@1.1.1",
      "group": "",
      "name": "rails_env_config",
      "version": "1.1.1",
      "description": "",
      "purl": "pkg:rubygems/rails_env_config@1.1.1"
    },
    {
      "type": "library",
      "bom-ref": "pkg:rubygems/railties@5.2.6",
      "group": "",
      "name": "railties",
      "version": "5.2.6",
      "description": "",
      "purl": "pkg:rubygems/railties@5.2.6"
    },
    {
      "type": "library",
      "bom-ref": "pkg:rubygems/rake@13.0.6",
      "group": "",
      "name": "rake",
      "version": "13.0.6",
      "description": "",
      "purl": "pkg:rubygems/rake@13.0.6"
    },
    {
      "type": "library",
      "bom-ref": "pkg:rubygems/redcarpet@3.4.0",
      "group": "",
      "name": "redcarpet",
      "version": "3.4.0",
      "description": "",
      "purl": "pkg:rubygems/redcarpet@3.4.0"
    },
    {
      "type": "library",
      "bom-ref": "pkg:rubygems/sass-rails@6.0.0",
      "group": "",
      "name": "sass-rails",
      "version": "6.0.0",
      "description": "",
      "purl": "pkg:rubygems/sass-rails@6.0.0"
    },
    {
      "type": "library",
      "bom-ref": "pkg:rubygems/sassc@2.4.0",
      "group": "",
      "name": "sassc",
      "version": "2.4.0",
      "description": "",
      "purl": "pkg:rubygems/sassc@2.4.0"
    },
    {
      "type": "library",
      "bom-ref": "pkg:rubygems/sassc-rails@2.1.2",
      "group": "",
      "name": "sassc-rails",
      "version": "2.1.2",
      "description": "",
      "purl": "pkg:rubygems/sassc-rails@2.1.2"
    },
    {
      "type": "library",
      "bom-ref": "pkg:rubygems/sixarm_ruby_unaccent@1.2.0",
      "group": "",
      "name": "sixarm_ruby_unaccent",
      "version": "1.2.0",
      "description": "",
      "purl": "pkg:rubygems/sixarm_ruby_unaccent@1.2.0"
    },
    {
      "type": "library",
      "bom-ref": "pkg:rubygems/sprockets@4.0.2",
      "group": "",
      "name": "sprockets",
      "version": "4.0.2",
      "description": "",
      "purl": "pkg:rubygems/sprockets@4.0.2"
    },
    {
      "type": "library",
      "bom-ref": "pkg:rubygems/sprockets-rails@3.2.2",
      "group": "",
      "name": "sprockets-rails",
      "version": "3.2.2",
      "description": "",
      "purl": "pkg:rubygems/sprockets-rails@3.2.2"
    },
    {
      "type": "library",
      "bom-ref": "pkg:rubygems/temple@0.8.0",
      "group": "",
      "name": "temple",
      "version": "0.8.0",
      "description": "",
      "purl": "pkg:rubygems/temple@0.8.0"
    },
    {
      "type": "library",
      "bom-ref": "pkg:rubygems/thor@0.19.4",
      "group": "",
      "name": "thor",
      "version": "0.19.4",
      "description": "",
      "purl": "pkg:rubygems/thor@0.19.4"
    },
    {
      "type": "library",
      "bom-ref": "pkg:rubygems/thread_safe@0.3.6",
      "group": "",
      "name": "thread_safe",
      "version": "0.3.6",
      "description": "",
      "purl": "pkg:rubygems/thread_safe@0.3.6"
    },
    {
      "type": "library",
      "bom-ref": "pkg:rubygems/tilt@2.0.10",
      "group": "",
      "name": "tilt",
      "version": "2.0.10",
      "description": "",
      "purl": "pkg:rubygems/tilt@2.0.10"
    },
    {
      "type": "library",
      "bom-ref": "pkg:rubygems/tzinfo@1.2.9",
      "group": "",
      "name": "tzinfo",
      "version": "1.2.9",
      "description": "",
      "purl": "pkg:rubygems/tzinfo@1.2.9"
    },
    {
      "type": "library",
      "bom-ref": "pkg:rubygems/uglifier@4.1.6",
      "group": "",
      "name": "uglifier",
      "version": "4.1.6",
      "description": "",
      "purl": "pkg:rubygems/uglifier@4.1.6"
    },
    {
      "type": "library",
      "bom-ref": "pkg:rubygems/unicode_utils@1.4.0",
      "group": "",
      "name": "unicode_utils",
      "version": "1.4.0",
      "description": "",
      "purl": "pkg:rubygems/unicode_utils@1.4.0"
    },
    {
      "type": "library",
      "bom-ref": "pkg:rubygems/websocket-driver@0.7.5",
      "group": "",
      "name": "websocket-driver",
      "version": "0.7.5",
      "description": "",
      "purl": "pkg:rubygems/websocket-driver@0.7.5"
    },
    {
      "type": "library",
      "bom-ref": "pkg:rubygems/websocket-extensions@0.1.5",
      "group": "",
      "name": "websocket-extensions",
      "version": "0.1.5",
      "description": "",
      "purl": "pkg:rubygems/websocket-extensions@0.1.5"
    }
  ]
}
