{
  "bomFormat": "CycloneDX",
  "specVersion": "1.3",
  "serialNumber": "urn:uuid:958554c8-e209-467e-bd8f-13c636be5286",
  "version": 1,
  "metadata": {
    "timestamp": "2022-06-06T18:30:15Z",
    "tools": [
      {
        "vendor": "AppThreat",
        "name": "cdxgen",
        "version": "3.0.10"
      },
      {
        "vendor": "Fortress Information Security",
        "name": "Github Extractor",
        "version": "1.15.1"
      }
    ],
    "authors": [
      {
        "name": "Team AppThreat",
        "email": "cloud@appthreat.com"
      },
      {
        "name": "Fortress Information Security",
        "email": "sales@fortressinfosec.com",
        "phone": "1-407-573-6800"
      }
    ],
    "component": {
      "type": "application",
      "name": "toml-rs",
      "version": "0.5.9",
      "group": "alexcrichton",
      "externalReferences": [
        {
          "url": "https://github.com/alexcrichton/toml-rs.git",
          "type": "distribution"
        },
        {
          "type": "website",
          "url": "https://docs.rs/toml",
          "comment": "As set via `homepage` in Github API"
        }
      ]
    }
  },
  "components": [
    {
      "type": "library",
      "bom-ref": "pkg:crates/toml@0.5.9",
      "group": "",
      "name": "toml",
      "version": "0.5.9",
      "description": "",
      "purl": "pkg:crates/toml@0.5.9"
    },
    {
      "type": "library",
      "bom-ref": "pkg:crates/serde@1.0.97",
      "group": "",
      "name": "serde",
      "version": "1.0.97",
      "description": "",
      "purl": "pkg:crates/serde@1.0.97"
    },
    {
      "type": "library",
      "bom-ref": "pkg:crates/indexmap@1.0",
      "group": "",
      "name": "indexmap",
      "version": "1.0",
      "description": "",
      "purl": "pkg:crates/indexmap@1.0"
    },
    {
      "type": "library",
      "bom-ref": "pkg:crates/serde_derive@1.0",
      "group": "",
      "name": "serde_derive",
      "version": "1.0",
      "description": "",
      "purl": "pkg:crates/serde_derive@1.0"
    },
    {
      "type": "library",
      "bom-ref": "pkg:crates/serde_json@1.0",
      "group": "",
      "name": "serde_json",
      "version": "1.0",
      "description": "",
      "purl": "pkg:crates/serde_json@1.0"
    },
    {
      "type": "library",
      "bom-ref": "pkg:crates/default@[]",
      "group": "",
      "name": "default",
      "version": "[]",
      "description": "",
      "purl": "pkg:crates/default@[]"
    },
    {
      "type": "library",
      "bom-ref": "pkg:crates/preserve_order@[indexmap]",
      "group": "",
      "name": "preserve_order",
      "version": "[indexmap]",
      "description": "",
      "purl": "pkg:crates/preserve_order@[indexmap]"
    },
    {
      "type": "library",
      "bom-ref": "pkg:crates/linear@0.0.0",
      "group": "",
      "name": "linear",
      "version": "0.0.0",
      "description": "",
      "purl": "pkg:crates/linear@0.0.0"
    }
  ],
  "externalReferences": [
    {
      "url": "/project/src",
      "type": "other",
      "comment": "Base path"
    },
    {
      "url": "/project/src/Cargo.toml, /project/src/test-suite/Cargo.toml",
      "type": "other",
      "comment": "Package file"
    }
  ]
}
