{
  "bomFormat": "CycloneDX",
  "specVersion": "1.3",
  "serialNumber": "urn:uuid:a4484660-2d09-4753-9f0b-9f4b568c79fa",
  "version": 1,
  "metadata": {
    "timestamp": "2022-06-06T21:03:33Z",
    "tools": [
      {
        "vendor": "AppThreat",
        "name": "cdxgen",
        "version": "3.0.10"
      },
      {
        "vendor": "Fortress Information Security",
        "name": "Github Extractor",
        "version": "1.15.1"
      }
    ],
    "authors": [
      {
        "name": "Team AppThreat",
        "email": "cloud@appthreat.com"
      },
      {
        "name": "Fortress Information Security",
        "email": "sales@fortressinfosec.com",
        "phone": "1-407-573-6800"
      }
    ],
    "component": {
      "type": "application",
      "name": "proptest",
      "version": "0.9.6",
      "group": "AltSysrq",
      "externalReferences": [
        {
          "url": "https://github.com/AltSysrq/proptest.git",
          "type": "distribution"
        },
        {
          "type": "website",
          "url": "null",
          "comment": "As set via `homepage` in Github API"
        }
      ]
    }
  },
  "components": [
    {
      "type": "library",
      "bom-ref": "pkg:crates/proptest-derive@0.3.0",
      "group": "",
      "name": "proptest-derive",
      "version": "0.3.0",
      "description": "",
      "purl": "pkg:crates/proptest-derive@0.3.0"
    },
    {
      "type": "library",
      "bom-ref": "pkg:crates/proc-macro2@0.4",
      "group": "",
      "name": "proc-macro2",
      "version": "0.4",
      "description": "",
      "purl": "pkg:crates/proc-macro2@0.4"
    },
    {
      "type": "library",
      "bom-ref": "pkg:crates/syn@0.15.17",
      "group": "",
      "name": "syn",
      "version": "0.15.17",
      "description": "",
      "purl": "pkg:crates/syn@0.15.17"
    },
    {
      "type": "library",
      "bom-ref": "pkg:crates/quote@0.6",
      "group": "",
      "name": "quote",
      "version": "0.6",
      "description": "",
      "purl": "pkg:crates/quote@0.6"
    },
    {
      "type": "library",
      "bom-ref": "pkg:crates/name@large_enum",
      "group": "",
      "name": "name",
      "version": "large_enum",
      "description": "",
      "purl": "pkg:crates/name@large_enum"
    },
    {
      "type": "library",
      "bom-ref": "pkg:crates/harness@false",
      "group": "",
      "name": "harness",
      "version": "false",
      "description": "",
      "purl": "pkg:crates/harness@false"
    },
    {
      "type": "library",
      "bom-ref": "pkg:crates/proptest@1.0.0",
      "group": "",
      "name": "proptest",
      "version": "1.0.0",
      "description": "",
      "purl": "pkg:crates/proptest@1.0.0"
    },
    {
      "type": "library",
      "bom-ref": "pkg:crates/bitflags@1.0.1",
      "group": "",
      "name": "bitflags",
      "version": "1.0.1",
      "description": "",
      "purl": "pkg:crates/bitflags@1.0.1"
    },
    {
      "type": "library",
      "bom-ref": "pkg:crates/# optional@true",
      "group": "",
      "name": "# optional",
      "version": "true",
      "description": "",
      "purl": "pkg:crates/# optional@true"
    },
    {
      "type": "library",
      "bom-ref": "pkg:crates/optional@true",
      "group": "",
      "name": "optional",
      "version": "true",
      "description": "",
      "purl": "pkg:crates/optional@true"
    },
    {
      "type": "library",
      "bom-ref": "pkg:crates/default-features@false",
      "group": "",
      "name": "default-features",
      "version": "false",
      "description": "",
      "purl": "pkg:crates/default-features@false"
    },
    {
      "type": "library",
      "bom-ref": "pkg:crates/# default-features@false",
      "group": "",
      "name": "# default-features",
      "version": "false",
      "description": "",
      "purl": "pkg:crates/# default-features@false"
    },
    {
      "type": "library",
      "bom-ref": "pkg:crates/features@[alloc]",
      "group": "",
      "name": "features",
      "version": "[alloc]",
      "description": "",
      "purl": "pkg:crates/features@[alloc]"
    },
    {
      "type": "library",
      "bom-ref": "pkg:crates/regex@1.0",
      "group": "",
      "name": "regex",
      "version": "1.0",
      "description": "",
      "purl": "pkg:crates/regex@1.0"
    },
    {
      "type": "library",
      "bom-ref": "pkg:crates/single-crate@0.0.0",
      "group": "",
      "name": "single-crate",
      "version": "0.0.0",
      "description": "",
      "purl": "pkg:crates/single-crate@0.0.0"
    },
    {
      "type": "library",
      "bom-ref": "pkg:crates/member@0.0.0",
      "group": "",
      "name": "member",
      "version": "0.0.0",
      "description": "",
      "purl": "pkg:crates/member@0.0.0"
    }
  ],
  "externalReferences": [
    {
      "url": "/project/src",
      "type": "other",
      "comment": "Base path"
    },
    {
      "url": "/project/src/Cargo.toml, /project/src/proptest-derive/Cargo.toml, /project/src/proptest/Cargo.toml, /project/src/proptest/test-persistence-location/single-crate/Cargo.toml, /project/src/proptest/test-persistence-location/workspace/Cargo.toml, /project/src/proptest/test-persistence-location/workspace/member/Cargo.toml",
      "type": "other",
      "comment": "Package file"
    }
  ]
}
