{
  "bomFormat": "CycloneDX",
  "specVersion": "1.3",
  "serialNumber": "urn:uuid:bbb85a03-5b35-4485-bbd9-0f849a1c8a81",
  "version": 1,
  "metadata": {
    "timestamp": "2022-05-30T18:48:39Z",
    "tools": [
      {
        "vendor": "AppThreat",
        "name": "cdxgen",
        "version": "3.0.10"
      },
      {
        "vendor": "Fortress Information Security",
        "name": "Github Extractor",
        "version": "1.15.1"
      }
    ],
    "authors": [
      {
        "name": "Team AppThreat",
        "email": "cloud@appthreat.com"
      },
      {
        "name": "Fortress Information Security",
        "email": "sales@fortressinfosec.com",
        "phone": "1-407-573-6800"
      }
    ],
    "component": {
      "type": "application",
      "name": "recaptcha",
      "version": "report",
      "group": "ambethia",
      "externalReferences": [
        {
          "url": "https://github.com/ambethia/recaptcha.git",
          "type": "distribution"
        },
        {
          "type": "website",
          "url": "http://github.com/ambethia/recaptcha",
          "comment": "As set via `homepage` in Github API"
        }
      ]
    }
  },
  "components": [
    {
      "type": "library",
      "bom-ref": "pkg:rubygems/recaptcha@5.10.0",
      "group": "",
      "name": "recaptcha",
      "version": "5.10.0",
      "description": "",
      "purl": "pkg:rubygems/recaptcha@5.10.0"
    },
    {
      "type": "library",
      "bom-ref": "pkg:rubygems/remote:@https://rubygems.org/",
      "group": "",
      "name": "remote:",
      "version": "https://rubygems.org/",
      "description": "",
      "purl": "pkg:rubygems/remote:@https://rubygems.org/"
    },
    {
      "type": "library",
      "bom-ref": "pkg:rubygems/addressable@2.6.0",
      "group": "",
      "name": "addressable",
      "version": "2.6.0",
      "description": "",
      "purl": "pkg:rubygems/addressable@2.6.0"
    },
    {
      "type": "library",
      "bom-ref": "pkg:rubygems/ast@2.4.2",
      "group": "",
      "name": "ast",
      "version": "2.4.2",
      "description": "",
      "purl": "pkg:rubygems/ast@2.4.2"
    },
    {
      "type": "library",
      "bom-ref": "pkg:rubygems/bump@0.8.0",
      "group": "",
      "name": "bump",
      "version": "0.8.0",
      "description": "",
      "purl": "pkg:rubygems/bump@0.8.0"
    },
    {
      "type": "library",
      "bom-ref": "pkg:rubygems/byebug@11.0.1",
      "group": "",
      "name": "byebug",
      "version": "11.0.1",
      "description": "",
      "purl": "pkg:rubygems/byebug@11.0.1"
    },
    {
      "type": "library",
      "bom-ref": "pkg:rubygems/coderay@1.1.2",
      "group": "",
      "name": "coderay",
      "version": "1.1.2",
      "description": "",
      "purl": "pkg:rubygems/coderay@1.1.2"
    },
    {
      "type": "library",
      "bom-ref": "pkg:rubygems/concurrent-ruby@1.1.5",
      "group": "",
      "name": "concurrent-ruby",
      "version": "1.1.5",
      "description": "",
      "purl": "pkg:rubygems/concurrent-ruby@1.1.5"
    },
    {
      "type": "library",
      "bom-ref": "pkg:rubygems/crack@0.4.3",
      "group": "",
      "name": "crack",
      "version": "0.4.3",
      "description": "",
      "purl": "pkg:rubygems/crack@0.4.3"
    },
    {
      "type": "library",
      "bom-ref": "pkg:rubygems/hashdiff@0.3.9",
      "group": "",
      "name": "hashdiff",
      "version": "0.3.9",
      "description": "",
      "purl": "pkg:rubygems/hashdiff@0.3.9"
    },
    {
      "type": "library",
      "bom-ref": "pkg:rubygems/i18n@1.6.0",
      "group": "",
      "name": "i18n",
      "version": "1.6.0",
      "description": "",
      "purl": "pkg:rubygems/i18n@1.6.0"
    },
    {
      "type": "library",
      "bom-ref": "pkg:rubygems/json@2.6.1",
      "group": "",
      "name": "json",
      "version": "2.6.1",
      "description": "",
      "purl": "pkg:rubygems/json@2.6.1"
    },
    {
      "type": "library",
      "bom-ref": "pkg:rubygems/maxitest@3.1.0",
      "group": "",
      "name": "maxitest",
      "version": "3.1.0",
      "description": "",
      "purl": "pkg:rubygems/maxitest@3.1.0"
    },
    {
      "type": "library",
      "bom-ref": "pkg:rubygems/metaclass@0.0.4",
      "group": "",
      "name": "metaclass",
      "version": "0.0.4",
      "description": "",
      "purl": "pkg:rubygems/metaclass@0.0.4"
    },
    {
      "type": "library",
      "bom-ref": "pkg:rubygems/method_source@0.9.2",
      "group": "",
      "name": "method_source",
      "version": "0.9.2",
      "description": "",
      "purl": "pkg:rubygems/method_source@0.9.2"
    },
    {
      "type": "library",
      "bom-ref": "pkg:rubygems/minitest@5.11.3",
      "group": "",
      "name": "minitest",
      "version": "5.11.3",
      "description": "",
      "purl": "pkg:rubygems/minitest@5.11.3"
    },
    {
      "type": "library",
      "bom-ref": "pkg:rubygems/mocha@1.8.0",
      "group": "",
      "name": "mocha",
      "version": "1.8.0",
      "description": "",
      "purl": "pkg:rubygems/mocha@1.8.0"
    },
    {
      "type": "library",
      "bom-ref": "pkg:rubygems/parallel@1.22.1",
      "group": "",
      "name": "parallel",
      "version": "1.22.1",
      "description": "",
      "purl": "pkg:rubygems/parallel@1.22.1"
    },
    {
      "type": "library",
      "bom-ref": "pkg:rubygems/parser@3.1.2.0",
      "group": "",
      "name": "parser",
      "version": "3.1.2.0",
      "description": "",
      "purl": "pkg:rubygems/parser@3.1.2.0"
    },
    {
      "type": "library",
      "bom-ref": "pkg:rubygems/pry@0.12.2",
      "group": "",
      "name": "pry",
      "version": "0.12.2",
      "description": "",
      "purl": "pkg:rubygems/pry@0.12.2"
    },
    {
      "type": "library",
      "bom-ref": "pkg:rubygems/pry-byebug@3.7.0",
      "group": "",
      "name": "pry-byebug",
      "version": "3.7.0",
      "description": "",
      "purl": "pkg:rubygems/pry-byebug@3.7.0"
    },
    {
      "type": "library",
      "bom-ref": "pkg:rubygems/public_suffix@3.0.3",
      "group": "",
      "name": "public_suffix",
      "version": "3.0.3",
      "description": "",
      "purl": "pkg:rubygems/public_suffix@3.0.3"
    },
    {
      "type": "library",
      "bom-ref": "pkg:rubygems/rainbow@3.1.1",
      "group": "",
      "name": "rainbow",
      "version": "3.1.1",
      "description": "",
      "purl": "pkg:rubygems/rainbow@3.1.1"
    },
    {
      "type": "library",
      "bom-ref": "pkg:rubygems/rake@12.3.2",
      "group": "",
      "name": "rake",
      "version": "12.3.2",
      "description": "",
      "purl": "pkg:rubygems/rake@12.3.2"
    },
    {
      "type": "library",
      "bom-ref": "pkg:rubygems/regexp_parser@2.3.0",
      "group": "",
      "name": "regexp_parser",
      "version": "2.3.0",
      "description": "",
      "purl": "pkg:rubygems/regexp_parser@2.3.0"
    },
    {
      "type": "library",
      "bom-ref": "pkg:rubygems/rexml@3.2.5",
      "group": "",
      "name": "rexml",
      "version": "3.2.5",
      "description": "",
      "purl": "pkg:rubygems/rexml@3.2.5"
    },
    {
      "type": "library",
      "bom-ref": "pkg:rubygems/rubocop@1.27.0",
      "group": "",
      "name": "rubocop",
      "version": "1.27.0",
      "description": "",
      "purl": "pkg:rubygems/rubocop@1.27.0"
    },
    {
      "type": "library",
      "bom-ref": "pkg:rubygems/rubocop-ast@1.17.0",
      "group": "",
      "name": "rubocop-ast",
      "version": "1.17.0",
      "description": "",
      "purl": "pkg:rubygems/rubocop-ast@1.17.0"
    },
    {
      "type": "library",
      "bom-ref": "pkg:rubygems/ruby-progressbar@1.11.0",
      "group": "",
      "name": "ruby-progressbar",
      "version": "1.11.0",
      "description": "",
      "purl": "pkg:rubygems/ruby-progressbar@1.11.0"
    },
    {
      "type": "library",
      "bom-ref": "pkg:rubygems/safe_yaml@1.0.5",
      "group": "",
      "name": "safe_yaml",
      "version": "1.0.5",
      "description": "",
      "purl": "pkg:rubygems/safe_yaml@1.0.5"
    },
    {
      "type": "library",
      "bom-ref": "pkg:rubygems/unicode-display_width@2.1.0",
      "group": "",
      "name": "unicode-display_width",
      "version": "2.1.0",
      "description": "",
      "purl": "pkg:rubygems/unicode-display_width@2.1.0"
    },
    {
      "type": "library",
      "bom-ref": "pkg:rubygems/webmock@3.5.1",
      "group": "",
      "name": "webmock",
      "version": "3.5.1",
      "description": "",
      "purl": "pkg:rubygems/webmock@3.5.1"
    }
  ],
  "externalReferences": [
    {
      "url": "/project/src",
      "type": "other",
      "comment": "Base path"
    },
    {
      "url": "/project/src/Gemfile.lock",
      "type": "other",
      "comment": "Package file"
    }
  ]
}
