{
  "bomFormat": "CycloneDX",
  "specVersion": "1.3",
  "version": 1,
  "metadata": {
    "tools": [
      {
        "vendor": "CycloneDX",
        "name": "Node.js module",
        "version": "3.0.3"
      },
      {
        "vendor": "Fortress Information Security",
        "name": "Github Extractor",
        "version": "1.15.1"
      }
    ],
    "authors": [
      {
        "name": "Fortress Information Security",
        "email": "sales@fortressinfosec.com",
        "phone": "1-407-573-6800"
      }
    ],
    "timestamp": "2022-06-01T21:00:00Z",
    "component": {
      "type": "application",
      "name": "incubator-linkis",
      "version": "release-1.1.1",
      "group": "apache",
      "externalReferences": [
        {
          "url": "https://github.com/apache/incubator-linkis.git",
          "type": "distribution"
        },
        {
          "type": "website",
          "url": "https://linkis.apache.org/",
          "comment": "As set via `homepage` in Github API"
        }
      ]
    }
  },
  "components": [
    {
      "type": "library",
      "publisher": "Barthelemy Dagenais",
      "name": "py4j",
      "version": "0.10.9.5",
      "description": "Enables Python programs to dynamically access arbitrary Java objects",
      "hashes": [
        {
          "alg": "MD5",
          "content": "ec1ae294919472eab40808bcb68febf8"
        },
        {
          "alg": "SHA-256",
          "content": "52d171a6a2b031d8a5d1de6efe451cf4f5baff1a2819aabc3741c8406539ba04"
        }
      ],
      "licenses": [
        {
          "license": {
            "name": "BSD License"
          }
        }
      ],
      "purl": "pkg:pypi/py4j@0.10.9.5",
      "modified": false
    },
    {
      "type": "library",
      "publisher": "Spark Developers",
      "name": "pyspark",
      "version": "3.2.1",
      "description": "Apache Spark Python API",
      "hashes": [
        {
          "alg": "MD5",
          "content": "2bec578f9d1ab92762a095ec9e7cd86f"
        },
        {
          "alg": "SHA-256",
          "content": "0b81359262ec6e9ac78c353344e7de026027d140c6def949ff0d80ab70f89a54"
        }
      ],
      "licenses": [
        {
          "license": {
            "name": "http://www.apache.org/licenses/LICENSE-2.0"
          }
        }
      ],
      "purl": "pkg:pypi/pyspark@3.2.1",
      "modified": false
    },
    {
      "type": "library",
      "publisher": "Yijun Yu",
      "name": "ast",
      "version": "0.0.2",
      "description": "Conversion between protobuf3 and srcML.",
      "hashes": [
        {
          "alg": "MD5",
          "content": "866a45bda3dc0b19f8da494f6a548a8d"
        },
        {
          "alg": "SHA-256",
          "content": "04cf2827c4048d18635ca8f85357a4285d140424ac26028be0dc585f824e07cd"
        }
      ],
      "licenses": [
        {
          "license": {
            "name": "MIT"
          }
        }
      ],
      "purl": "pkg:pypi/ast@0.0.2",
      "modified": false
    },
    {
      "type": "library",
      "publisher": "Stephan Klein",
      "name": "signal",
      "version": "0.1",
      "description": "Send SMS messages via ADB and your Android phone. Comes with a CLI.",
      "licenses": [
        {
          "license": {
            "name": "MIT"
          }
        }
      ],
      "purl": "pkg:pypi/signal@0.1",
      "modified": false
    },
    {
      "type": "library",
      "publisher": "The Pandas Development Team",
      "name": "pandas",
      "version": "1.4.2",
      "description": "Powerful data structures for data analysis, time series, and statistics",
      "hashes": [
        {
          "alg": "MD5",
          "content": "d03e1ba43fac967c83ca8223248cc32f"
        },
        {
          "alg": "SHA-256",
          "content": "09d8be7dd9e1c4c98224c4dfe8abd60d145d934e9fc1f5f411266308ae683e6a"
        }
      ],
      "licenses": [
        {
          "license": {
            "name": "BSD-3-Clause"
          }
        }
      ],
      "purl": "pkg:pypi/pandas@1.4.2",
      "modified": false
    }
  ]
}
