{
  "bomFormat": "CycloneDX",
  "specVersion": "1.3",
  "version": 1,
  "metadata": {
    "tools": [
      {
        "vendor": "CycloneDX",
        "name": "Node.js module",
        "version": "3.0.3"
      },
      {
        "vendor": "AppThreat",
        "name": "cdxgen",
        "version": "3.0.10"
      },
      {
        "vendor": "Fortress Information Security",
        "name": "Github Extractor",
        "version": "1.15.1"
      }
    ],
    "authors": [
      {
        "name": "Fortress Information Security",
        "email": "sales@fortressinfosec.com",
        "phone": "1-407-573-6800"
      }
    ],
    "timestamp": "2022-06-01T21:00:00Z",
    "component": {
      "type": "application",
      "name": "druid",
      "version": "druid-0.22.1",
      "group": "apache",
      "externalReferences": [
        {
          "url": "https://github.com/apache/druid.git",
          "type": "distribution"
        },
        {
          "type": "website",
          "url": "https://druid.apache.org/",
          "comment": "As set via `homepage` in Github API"
        }
      ]
    }
  },
  "components": [
    {
      "type": "library",
      "publisher": "Michael Foord",
      "name": "unittest",
      "version": "0.0",
      "hashes": [
        {
          "alg": "MD5",
          "content": "2a416384f814604ed854d40f352f1191"
        },
        {
          "alg": "SHA-256",
          "content": "1b492484bea7f68abda5fcc61412e77b6a105e5842355d630f8b75f01add3555"
        }
      ],
      "purl": "pkg:pypi/unittest@0.0",
      "modified": false
    },
    {
      "type": "library",
      "publisher": "Richard Jones",
      "name": "html",
      "version": "1.16",
      "description": "simple, elegant HTML, XHTML and XML generation",
      "hashes": [
        {
          "alg": "MD5",
          "content": "39b9db7cdcc84607828be021172d441f"
        },
        {
          "alg": "SHA-256",
          "content": "ebc768f23b54a71350d731a75f2ef3a4a4dbdad9ae68d58b527664b66088e456"
        }
      ],
      "purl": "pkg:pypi/html@1.16",
      "modified": false
    },
    {
      "type": "library",
      "publisher": "Thomas Waldmann",
      "name": "argparse",
      "version": "1.4.0",
      "description": "Python command-line parsing library",
      "hashes": [
        {
          "alg": "MD5",
          "content": "c37216a954c8669054e2b2c54853dd49"
        },
        {
          "alg": "SHA-256",
          "content": "c31647edb69fd3d465a847ea3157d37bed1f95f19760b11a47aa91c04b666314"
        }
      ],
      "licenses": [
        {
          "license": {
            "name": "Python Software Foundation License"
          }
        }
      ],
      "purl": "pkg:pypi/argparse@1.4.0",
      "modified": false
    },
    {
      "type": "library",
      "publisher": "Kenneth Reitz",
      "name": "requests",
      "version": "2.27.1",
      "description": "Python HTTP for Humans.",
      "hashes": [
        {
          "alg": "MD5",
          "content": "435db0f122c83decd27524f690e89650"
        },
        {
          "alg": "SHA-256",
          "content": "f22fa1e554c9ddfd16e6e41ac79759e17be9e492b3587efa038054674760e72d"
        }
      ],
      "licenses": [
        {
          "license": {
            "name": "Apache 2.0"
          }
        }
      ],
      "purl": "pkg:pypi/requests@2.27.1",
      "modified": false
    },
    {
      "type": "library",
      "publisher": "Dana Powers",
      "name": "kafka",
      "version": "1.3.5",
      "description": "Pure Python client for Apache Kafka",
      "hashes": [
        {
          "alg": "MD5",
          "content": "202922991a486f6057a8867143ab3909"
        },
        {
          "alg": "SHA-256",
          "content": "35a49e9a432f6792aad48b2ab09d03867357aaa06eacba2678b7fd0808156e5c"
        }
      ],
      "licenses": [
        {
          "license": {
            "name": "Apache License 2.0"
          }
        }
      ],
      "purl": "pkg:pypi/kafka@1.3.5",
      "modified": false
    },
    {
      "type": "library",
      "publisher": "Mario Vilas",
      "name": "google",
      "version": "3.0.0",
      "description": "Python bindings to the Google search engine.",
      "hashes": [
        {
          "alg": "MD5",
          "content": "30c719790d3e7e57e9482d108eda355c"
        },
        {
          "alg": "SHA-256",
          "content": "889cf695f84e4ae2c55fbc0cfdaf4c1e729417fa52ab1db0485202ba173e4935"
        }
      ],
      "purl": "pkg:pypi/google@3.0.0",
      "modified": false
    },
    {
      "type": "library",
      "bom-ref": "pkg:maven/org.apache.druid/distribution@0.24.0-SNAPSHOT?type=jar",
      "group": "org.apache.druid",
      "name": "distribution",
      "version": "0.24.0-SNAPSHOT",
      "description": "",
      "purl": "pkg:maven/org.apache.druid/distribution@0.24.0-SNAPSHOT?type=jar"
    },
    {
      "type": "library",
      "bom-ref": "pkg:maven/org.apache.druid/druid-services@0.24.0-SNAPSHOT?type=jar",
      "group": "org.apache.druid",
      "name": "druid-services",
      "version": "0.24.0-SNAPSHOT",
      "description": "",
      "purl": "pkg:maven/org.apache.druid/druid-services@0.24.0-SNAPSHOT?type=jar"
    },
    {
      "type": "library",
      "bom-ref": "pkg:maven/org.apache.druid/druid-core@0.24.0-SNAPSHOT?type=jar",
      "group": "org.apache.druid",
      "name": "druid-core",
      "version": "0.24.0-SNAPSHOT",
      "description": "",
      "purl": "pkg:maven/org.apache.druid/druid-core@0.24.0-SNAPSHOT?type=jar"
    },
    {
      "type": "library",
      "bom-ref": "pkg:maven/org.apache.datasketches/datasketches-java@3.1.0?type=jar",
      "group": "org.apache.datasketches",
      "name": "datasketches-java",
      "version": "3.1.0",
      "description": "",
      "purl": "pkg:maven/org.apache.datasketches/datasketches-java@3.1.0?type=jar"
    },
    {
      "type": "library",
      "bom-ref": "pkg:maven/org.apache.datasketches/datasketches-memory@2.0.0?type=jar",
      "group": "org.apache.datasketches",
      "name": "datasketches-memory",
      "version": "2.0.0",
      "description": "",
      "purl": "pkg:maven/org.apache.datasketches/datasketches-memory@2.0.0?type=jar"
    },
    {
      "type": "library",
      "bom-ref": "pkg:maven/org.apache.commons/commons-compress@1.21?type=jar",
      "group": "org.apache.commons",
      "name": "commons-compress",
      "version": "1.21",
      "description": "",
      "purl": "pkg:maven/org.apache.commons/commons-compress@1.21?type=jar"
    },
    {
      "type": "library",
      "bom-ref": "pkg:maven/org.skife.config/config-magic@0.9?type=jar",
      "group": "org.skife.config",
      "name": "config-magic",
      "version": "0.9",
      "description": "",
      "purl": "pkg:maven/org.skife.config/config-magic@0.9?type=jar"
    },
    {
      "type": "library",
      "bom-ref": "pkg:maven/org.hibernate/hibernate-validator@5.2.5.Final?type=jar",
      "group": "org.hibernate",
      "name": "hibernate-validator",
      "version": "5.2.5.Final",
      "description": "",
      "purl": "pkg:maven/org.hibernate/hibernate-validator@5.2.5.Final?type=jar"
    },
    {
      "type": "library",
      "bom-ref": "pkg:maven/org.jboss.logging/jboss-logging@3.2.1.Final?type=jar",
      "group": "org.jboss.logging",
      "name": "jboss-logging",
      "version": "3.2.1.Final",
      "description": "",
      "purl": "pkg:maven/org.jboss.logging/jboss-logging@3.2.1.Final?type=jar"
    },
    {
      "type": "library",
      "bom-ref": "pkg:maven/com.fasterxml/classmate@1.1.0?type=jar",
      "group": "com.fasterxml",
      "name": "classmate",
      "version": "1.1.0",
      "description": "",
      "purl": "pkg:maven/com.fasterxml/classmate@1.1.0?type=jar"
    },
    {
      "type": "library",
      "bom-ref": "pkg:maven/javax.el/javax.el-api@3.0.0?type=jar",
      "group": "javax.el",
      "name": "javax.el-api",
      "version": "3.0.0",
      "description": "",
      "purl": "pkg:maven/javax.el/javax.el-api@3.0.0?type=jar"
    },
    {
      "type": "library",
      "bom-ref": "pkg:maven/org.glassfish/javax.el@3.0.0?type=jar",
      "group": "org.glassfish",
      "name": "javax.el",
      "version": "3.0.0",
      "description": "",
      "purl": "pkg:maven/org.glassfish/javax.el@3.0.0?type=jar"
    },
    {
      "type": "library",
      "bom-ref": "pkg:maven/com.fasterxml.jackson.datatype/jackson-datatype-guava@2.10.5?type=jar",
      "group": "com.fasterxml.jackson.datatype",
      "name": "jackson-datatype-guava",
      "version": "2.10.5",
      "description": "",
      "purl": "pkg:maven/com.fasterxml.jackson.datatype/jackson-datatype-guava@2.10.5?type=jar"
    },
    {
      "type": "library",
      "bom-ref": "pkg:maven/com.fasterxml.jackson.datatype/jackson-datatype-joda@2.10.5?type=jar",
      "group": "com.fasterxml.jackson.datatype",
      "name": "jackson-datatype-joda",
      "version": "2.10.5",
      "description": "",
      "purl": "pkg:maven/com.fasterxml.jackson.datatype/jackson-datatype-joda@2.10.5?type=jar"
    },
    {
      "type": "library",
      "bom-ref": "pkg:maven/com.fasterxml.jackson.dataformat/jackson-dataformat-smile@2.10.5?type=jar",
      "group": "com.fasterxml.jackson.dataformat",
      "name": "jackson-dataformat-smile",
      "version": "2.10.5",
      "description": "",
      "purl": "pkg:maven/com.fasterxml.jackson.dataformat/jackson-dataformat-smile@2.10.5?type=jar"
    },
    {
      "type": "library",
      "bom-ref": "pkg:maven/org.jdbi/jdbi@2.63.1?type=jar",
      "group": "org.jdbi",
      "name": "jdbi",
      "version": "2.63.1",
      "description": "",
      "purl": "pkg:maven/org.jdbi/jdbi@2.63.1?type=jar"
    },
    {
      "type": "library",
      "bom-ref": "pkg:maven/org.apache.logging.log4j/log4j-api@2.17.1?type=jar",
      "group": "org.apache.logging.log4j",
      "name": "log4j-api",
      "version": "2.17.1",
      "description": "",
      "purl": "pkg:maven/org.apache.logging.log4j/log4j-api@2.17.1?type=jar"
    },
    {
      "type": "library",
      "bom-ref": "pkg:maven/org.apache.logging.log4j/log4j-core@2.17.1?type=jar",
      "group": "org.apache.logging.log4j",
      "name": "log4j-core",
      "version": "2.17.1",
      "description": "",
      "purl": "pkg:maven/org.apache.logging.log4j/log4j-core@2.17.1?type=jar"
    },
    {
      "type": "library",
      "bom-ref": "pkg:maven/org.apache.logging.log4j/log4j-slf4j-impl@2.17.1?type=jar",
      "group": "org.apache.logging.log4j",
      "name": "log4j-slf4j-impl",
      "version": "2.17.1",
      "description": "",
      "purl": "pkg:maven/org.apache.logging.log4j/log4j-slf4j-impl@2.17.1?type=jar"
    },
    {
      "type": "library",
      "bom-ref": "pkg:maven/org.apache.logging.log4j/log4j-jul@2.17.1?type=jar",
      "group": "org.apache.logging.log4j",
      "name": "log4j-jul",
      "version": "2.17.1",
      "description": "",
      "purl": "pkg:maven/org.apache.logging.log4j/log4j-jul@2.17.1?type=jar"
    },
    {
      "type": "library",
      "bom-ref": "pkg:maven/org.apache.logging.log4j/log4j-1.2-api@2.17.1?type=jar",
      "group": "org.apache.logging.log4j",
      "name": "log4j-1.2-api",
      "version": "2.17.1",
      "description": "",
      "purl": "pkg:maven/org.apache.logging.log4j/log4j-1.2-api@2.17.1?type=jar"
    },
    {
      "type": "library",
      "bom-ref": "pkg:maven/org.slf4j/slf4j-api@1.7.36?type=jar",
      "group": "org.slf4j",
      "name": "slf4j-api",
      "version": "1.7.36",
      "description": "",
      "purl": "pkg:maven/org.slf4j/slf4j-api@1.7.36?type=jar"
    },
    {
      "type": "library",
      "bom-ref": "pkg:maven/org.slf4j/jcl-over-slf4j@1.7.36?type=jar",
      "group": "org.slf4j",
      "name": "jcl-over-slf4j",
      "version": "1.7.36",
      "description": "",
      "purl": "pkg:maven/org.slf4j/jcl-over-slf4j@1.7.36?type=jar"
    },
    {
      "type": "library",
      "bom-ref": "pkg:maven/net.thisptr/jackson-jq@0.0.10?type=jar",
      "group": "net.thisptr",
      "name": "jackson-jq",
      "version": "0.0.10",
      "description": "",
      "purl": "pkg:maven/net.thisptr/jackson-jq@0.0.10?type=jar"
    },
    {
      "type": "library",
      "bom-ref": "pkg:maven/org.jruby.joni/joni@2.1.27?type=jar",
      "group": "org.jruby.joni",
      "name": "joni",
      "version": "2.1.27",
      "description": "",
      "purl": "pkg:maven/org.jruby.joni/joni@2.1.27?type=jar"
    },
    {
      "type": "library",
      "bom-ref": "pkg:maven/org.jruby.jcodings/jcodings@1.0.43?type=jar",
      "group": "org.jruby.jcodings",
      "name": "jcodings",
      "version": "1.0.43",
      "description": "",
      "purl": "pkg:maven/org.jruby.jcodings/jcodings@1.0.43?type=jar"
    },
    {
      "type": "library",
      "bom-ref": "pkg:maven/it.unimi.dsi/fastutil@8.5.4?type=jar",
      "group": "it.unimi.dsi",
      "name": "fastutil",
      "version": "8.5.4",
      "description": "",
      "purl": "pkg:maven/it.unimi.dsi/fastutil@8.5.4?type=jar"
    },
    {
      "type": "library",
      "bom-ref": "pkg:maven/it.unimi.dsi/fastutil-extra@8.5.4?type=jar",
      "group": "it.unimi.dsi",
      "name": "fastutil-extra",
      "version": "8.5.4",
      "description": "",
      "purl": "pkg:maven/it.unimi.dsi/fastutil-extra@8.5.4?type=jar"
    },
    {
      "type": "library",
      "bom-ref": "pkg:maven/it.unimi.dsi/fastutil-core@8.5.4?type=jar",
      "group": "it.unimi.dsi",
      "name": "fastutil-core",
      "version": "8.5.4",
      "description": "",
      "purl": "pkg:maven/it.unimi.dsi/fastutil-core@8.5.4?type=jar"
    },
    {
      "type": "library",
      "bom-ref": "pkg:maven/io.netty/netty-buffer@4.1.68.Final?type=jar",
      "group": "io.netty",
      "name": "netty-buffer",
      "version": "4.1.68.Final",
      "description": "",
      "purl": "pkg:maven/io.netty/netty-buffer@4.1.68.Final?type=jar"
    },
    {
      "type": "library",
      "bom-ref": "pkg:maven/io.netty/netty-codec-http@4.1.68.Final?type=jar",
      "group": "io.netty",
      "name": "netty-codec-http",
      "version": "4.1.68.Final",
      "description": "",
      "purl": "pkg:maven/io.netty/netty-codec-http@4.1.68.Final?type=jar"
    },
    {
      "type": "library",
      "bom-ref": "pkg:maven/io.netty/netty-transport@4.1.68.Final?type=jar",
      "group": "io.netty",
      "name": "netty-transport",
      "version": "4.1.68.Final",
      "description": "",
      "purl": "pkg:maven/io.netty/netty-transport@4.1.68.Final?type=jar"
    },
    {
      "type": "library",
      "bom-ref": "pkg:maven/io.netty/netty-codec@4.1.68.Final?type=jar",
      "group": "io.netty",
      "name": "netty-codec",
      "version": "4.1.68.Final",
      "description": "",
      "purl": "pkg:maven/io.netty/netty-codec@4.1.68.Final?type=jar"
    },
    {
      "type": "library",
      "bom-ref": "pkg:maven/org.mozilla/rhino@1.7.11?type=jar",
      "group": "org.mozilla",
      "name": "rhino",
      "version": "1.7.11",
      "description": "",
      "purl": "pkg:maven/org.mozilla/rhino@1.7.11?type=jar"
    },
    {
      "type": "library",
      "bom-ref": "pkg:maven/org.tukaani/xz@1.8?type=jar",
      "group": "org.tukaani",
      "name": "xz",
      "version": "1.8",
      "description": "",
      "purl": "pkg:maven/org.tukaani/xz@1.8?type=jar"
    },
    {
      "type": "library",
      "bom-ref": "pkg:maven/com.github.luben/zstd-jni@1.3.3-1?type=jar",
      "group": "com.github.luben",
      "name": "zstd-jni",
      "version": "1.3.3-1",
      "description": "",
      "purl": "pkg:maven/com.github.luben/zstd-jni@1.3.3-1?type=jar"
    },
    {
      "type": "library",
      "bom-ref": "pkg:maven/com.jayway.jsonpath/json-path@2.3.0?type=jar",
      "group": "com.jayway.jsonpath",
      "name": "json-path",
      "version": "2.3.0",
      "description": "",
      "purl": "pkg:maven/com.jayway.jsonpath/json-path@2.3.0?type=jar"
    },
    {
      "type": "library",
      "bom-ref": "pkg:maven/net.minidev/json-smart@2.3?type=jar",
      "group": "net.minidev",
      "name": "json-smart",
      "version": "2.3",
      "description": "",
      "purl": "pkg:maven/net.minidev/json-smart@2.3?type=jar"
    },
    {
      "type": "library",
      "bom-ref": "pkg:maven/net.minidev/accessors-smart@1.2?type=jar",
      "group": "net.minidev",
      "name": "accessors-smart",
      "version": "1.2",
      "description": "",
      "purl": "pkg:maven/net.minidev/accessors-smart@1.2?type=jar"
    },
    {
      "type": "library",
      "bom-ref": "pkg:maven/org.antlr/antlr4-runtime@4.5.1?type=jar",
      "group": "org.antlr",
      "name": "antlr4-runtime",
      "version": "4.5.1",
      "description": "",
      "purl": "pkg:maven/org.antlr/antlr4-runtime@4.5.1?type=jar"
    },
    {
      "type": "library",
      "bom-ref": "pkg:maven/io.timeandspace/cron-scheduler@0.1?type=jar",
      "group": "io.timeandspace",
      "name": "cron-scheduler",
      "version": "0.1",
      "description": "",
      "purl": "pkg:maven/io.timeandspace/cron-scheduler@0.1?type=jar"
    },
    {
      "type": "library",
      "bom-ref": "pkg:maven/com.lmax/disruptor@3.3.6?type=jar",
      "group": "com.lmax",
      "name": "disruptor",
      "version": "3.3.6",
      "description": "",
      "purl": "pkg:maven/com.lmax/disruptor@3.3.6?type=jar"
    },
    {
      "type": "library",
      "bom-ref": "pkg:maven/net.java.dev.jna/jna@4.5.1?type=jar",
      "group": "net.java.dev.jna",
      "name": "jna",
      "version": "4.5.1",
      "description": "",
      "purl": "pkg:maven/net.java.dev.jna/jna@4.5.1?type=jar"
    },
    {
      "type": "library",
      "bom-ref": "pkg:maven/org.asynchttpclient/async-http-client@2.5.3?type=jar",
      "group": "org.asynchttpclient",
      "name": "async-http-client",
      "version": "2.5.3",
      "description": "",
      "purl": "pkg:maven/org.asynchttpclient/async-http-client@2.5.3?type=jar"
    },
    {
      "type": "library",
      "bom-ref": "pkg:maven/org.asynchttpclient/async-http-client-netty-utils@2.5.3?type=jar",
      "group": "org.asynchttpclient",
      "name": "async-http-client-netty-utils",
      "version": "2.5.3",
      "description": "",
      "purl": "pkg:maven/org.asynchttpclient/async-http-client-netty-utils@2.5.3?type=jar"
    },
    {
      "type": "library",
      "bom-ref": "pkg:maven/io.netty/netty-codec-socks@4.1.68.Final?type=jar",
      "group": "io.netty",
      "name": "netty-codec-socks",
      "version": "4.1.68.Final",
      "description": "",
      "purl": "pkg:maven/io.netty/netty-codec-socks@4.1.68.Final?type=jar"
    },
    {
      "type": "library",
      "bom-ref": "pkg:maven/io.netty/netty-handler-proxy@4.1.68.Final?type=jar",
      "group": "io.netty",
      "name": "netty-handler-proxy",
      "version": "4.1.68.Final",
      "description": "",
      "purl": "pkg:maven/io.netty/netty-handler-proxy@4.1.68.Final?type=jar"
    },
    {
      "type": "library",
      "bom-ref": "pkg:maven/io.netty/netty-transport-native-epoll@4.1.68.Final?type=jar",
      "group": "io.netty",
      "name": "netty-transport-native-epoll",
      "version": "4.1.68.Final",
      "description": "",
      "purl": "pkg:maven/io.netty/netty-transport-native-epoll@4.1.68.Final?type=jar"
    },
    {
      "type": "library",
      "bom-ref": "pkg:maven/io.netty/netty-transport-native-unix-common@4.1.68.Final?type=jar",
      "group": "io.netty",
      "name": "netty-transport-native-unix-common",
      "version": "4.1.68.Final",
      "description": "",
      "purl": "pkg:maven/io.netty/netty-transport-native-unix-common@4.1.68.Final?type=jar"
    },
    {
      "type": "library",
      "bom-ref": "pkg:maven/io.netty/netty-resolver-dns@4.1.68.Final?type=jar",
      "group": "io.netty",
      "name": "netty-resolver-dns",
      "version": "4.1.68.Final",
      "description": "",
      "purl": "pkg:maven/io.netty/netty-resolver-dns@4.1.68.Final?type=jar"
    },
    {
      "type": "library",
      "bom-ref": "pkg:maven/io.netty/netty-codec-dns@4.1.68.Final?type=jar",
      "group": "io.netty",
      "name": "netty-codec-dns",
      "version": "4.1.68.Final",
      "description": "",
      "purl": "pkg:maven/io.netty/netty-codec-dns@4.1.68.Final?type=jar"
    },
    {
      "type": "library",
      "bom-ref": "pkg:maven/org.reactivestreams/reactive-streams@1.0.2?type=jar",
      "group": "org.reactivestreams",
      "name": "reactive-streams",
      "version": "1.0.2",
      "description": "",
      "purl": "pkg:maven/org.reactivestreams/reactive-streams@1.0.2?type=jar"
    },
    {
      "type": "library",
      "bom-ref": "pkg:maven/com.typesafe.netty/netty-reactive-streams@2.0.0?type=jar",
      "group": "com.typesafe.netty",
      "name": "netty-reactive-streams",
      "version": "2.0.0",
      "description": "",
      "purl": "pkg:maven/com.typesafe.netty/netty-reactive-streams@2.0.0?type=jar"
    },
    {
      "type": "library",
      "bom-ref": "pkg:maven/com.sun.activation/javax.activation@1.2.0?type=jar",
      "group": "com.sun.activation",
      "name": "javax.activation",
      "version": "1.2.0",
      "description": "",
      "purl": "pkg:maven/com.sun.activation/javax.activation@1.2.0?type=jar"
    },
    {
      "type": "library",
      "bom-ref": "pkg:maven/org.hyperic/sigar@1.6.5.132?type=jar",
      "group": "org.hyperic",
      "name": "sigar",
      "version": "1.6.5.132",
      "description": "",
      "purl": "pkg:maven/org.hyperic/sigar@1.6.5.132?type=jar"
    },
    {
      "type": "library",
      "bom-ref": "pkg:maven/org.gridkit.lab/jvm-attach-api@1.5?type=jar",
      "group": "org.gridkit.lab",
      "name": "jvm-attach-api",
      "version": "1.5",
      "description": "",
      "purl": "pkg:maven/org.gridkit.lab/jvm-attach-api@1.5?type=jar"
    },
    {
      "type": "library",
      "bom-ref": "pkg:maven/org.apache.druid/druid-processing@0.24.0-SNAPSHOT?type=jar",
      "group": "org.apache.druid",
      "name": "druid-processing",
      "version": "0.24.0-SNAPSHOT",
      "description": "",
      "purl": "pkg:maven/org.apache.druid/druid-processing@0.24.0-SNAPSHOT?type=jar"
    },
    {
      "type": "library",
      "bom-ref": "pkg:maven/org.apache.druid/druid-hll@0.24.0-SNAPSHOT?type=jar",
      "group": "org.apache.druid",
      "name": "druid-hll",
      "version": "0.24.0-SNAPSHOT",
      "description": "",
      "purl": "pkg:maven/org.apache.druid/druid-hll@0.24.0-SNAPSHOT?type=jar"
    },
    {
      "type": "library",
      "bom-ref": "pkg:maven/org.apache.druid/extendedset@0.24.0-SNAPSHOT?type=jar",
      "group": "org.apache.druid",
      "name": "extendedset",
      "version": "0.24.0-SNAPSHOT",
      "description": "",
      "purl": "pkg:maven/org.apache.druid/extendedset@0.24.0-SNAPSHOT?type=jar"
    },
    {
      "type": "library",
      "bom-ref": "pkg:maven/com.ning/compress-lzf@1.0.4?type=jar",
      "group": "com.ning",
      "name": "compress-lzf",
      "version": "1.0.4",
      "description": "",
      "purl": "pkg:maven/com.ning/compress-lzf@1.0.4?type=jar"
    },
    {
      "type": "library",
      "bom-ref": "pkg:maven/org.apache.commons/commons-math3@3.6.1?type=jar",
      "group": "org.apache.commons",
      "name": "commons-math3",
      "version": "3.6.1",
      "description": "",
      "purl": "pkg:maven/org.apache.commons/commons-math3@3.6.1?type=jar"
    },
    {
      "type": "library",
      "bom-ref": "pkg:maven/commons-net/commons-net@3.6?type=jar",
      "group": "commons-net",
      "name": "commons-net",
      "version": "3.6",
      "description": "",
      "purl": "pkg:maven/commons-net/commons-net@3.6?type=jar"
    },
    {
      "type": "library",
      "bom-ref": "pkg:maven/com.ibm.icu/icu4j@55.1?type=jar",
      "group": "com.ibm.icu",
      "name": "icu4j",
      "version": "55.1",
      "description": "",
      "purl": "pkg:maven/com.ibm.icu/icu4j@55.1?type=jar"
    },
    {
      "type": "library",
      "bom-ref": "pkg:maven/org.lz4/lz4-java@1.7.1?type=jar",
      "group": "org.lz4",
      "name": "lz4-java",
      "version": "1.7.1",
      "description": "",
      "purl": "pkg:maven/org.lz4/lz4-java@1.7.1?type=jar"
    },
    {
      "type": "library",
      "bom-ref": "pkg:maven/org.ow2.asm/asm@7.1?type=jar",
      "group": "org.ow2.asm",
      "name": "asm",
      "version": "7.1",
      "description": "",
      "purl": "pkg:maven/org.ow2.asm/asm@7.1?type=jar"
    },
    {
      "type": "library",
      "bom-ref": "pkg:maven/org.ow2.asm/asm-commons@7.1?type=jar",
      "group": "org.ow2.asm",
      "name": "asm-commons",
      "version": "7.1",
      "description": "",
      "purl": "pkg:maven/org.ow2.asm/asm-commons@7.1?type=jar"
    },
    {
      "type": "library",
      "bom-ref": "pkg:maven/org.ow2.asm/asm-tree@7.1?type=jar",
      "group": "org.ow2.asm",
      "name": "asm-tree",
      "version": "7.1",
      "description": "",
      "purl": "pkg:maven/org.ow2.asm/asm-tree@7.1?type=jar"
    },
    {
      "type": "library",
      "bom-ref": "pkg:maven/org.ow2.asm/asm-analysis@7.1?type=jar",
      "group": "org.ow2.asm",
      "name": "asm-analysis",
      "version": "7.1",
      "description": "",
      "purl": "pkg:maven/org.ow2.asm/asm-analysis@7.1?type=jar"
    },
    {
      "type": "library",
      "bom-ref": "pkg:maven/org.checkerframework/checker-qual@2.5.7?type=jar",
      "group": "org.checkerframework",
      "name": "checker-qual",
      "version": "2.5.7",
      "description": "",
      "purl": "pkg:maven/org.checkerframework/checker-qual@2.5.7?type=jar"
    },
    {
      "type": "library",
      "bom-ref": "pkg:maven/org.apache.maven/maven-artifact@3.6.0?type=jar",
      "group": "org.apache.maven",
      "name": "maven-artifact",
      "version": "3.6.0",
      "description": "",
      "purl": "pkg:maven/org.apache.maven/maven-artifact@3.6.0?type=jar"
    },
    {
      "type": "library",
      "bom-ref": "pkg:maven/org.codehaus.plexus/plexus-utils@3.0.24?type=jar",
      "group": "org.codehaus.plexus",
      "name": "plexus-utils",
      "version": "3.0.24",
      "description": "",
      "purl": "pkg:maven/org.codehaus.plexus/plexus-utils@3.0.24?type=jar"
    },
    {
      "type": "library",
      "bom-ref": "pkg:maven/jakarta.inject/jakarta.inject-api@1.0.3?type=jar",
      "group": "jakarta.inject",
      "name": "jakarta.inject-api",
      "version": "1.0.3",
      "description": "",
      "purl": "pkg:maven/jakarta.inject/jakarta.inject-api@1.0.3?type=jar"
    },
    {
      "type": "library",
      "bom-ref": "pkg:maven/org.apache.druid/druid-server@0.24.0-SNAPSHOT?type=jar",
      "group": "org.apache.druid",
      "name": "druid-server",
      "version": "0.24.0-SNAPSHOT",
      "description": "",
      "purl": "pkg:maven/org.apache.druid/druid-server@0.24.0-SNAPSHOT?type=jar"
    },
    {
      "type": "library",
      "bom-ref": "pkg:maven/org.apache.druid/druid-aws-common@0.24.0-SNAPSHOT?type=jar",
      "group": "org.apache.druid",
      "name": "druid-aws-common",
      "version": "0.24.0-SNAPSHOT",
      "description": "",
      "purl": "pkg:maven/org.apache.druid/druid-aws-common@0.24.0-SNAPSHOT?type=jar"
    },
    {
      "type": "library",
      "bom-ref": "pkg:maven/com.amazonaws/aws-java-sdk-ec2@1.12.37?type=jar",
      "group": "com.amazonaws",
      "name": "aws-java-sdk-ec2",
      "version": "1.12.37",
      "description": "",
      "purl": "pkg:maven/com.amazonaws/aws-java-sdk-ec2@1.12.37?type=jar"
    },
    {
      "type": "library",
      "bom-ref": "pkg:maven/com.amazonaws/jmespath-java@1.12.37?type=jar",
      "group": "com.amazonaws",
      "name": "jmespath-java",
      "version": "1.12.37",
      "description": "",
      "purl": "pkg:maven/com.amazonaws/jmespath-java@1.12.37?type=jar"
    },
    {
      "type": "library",
      "bom-ref": "pkg:maven/com.amazonaws/aws-java-sdk-s3@1.12.37?type=jar",
      "group": "com.amazonaws",
      "name": "aws-java-sdk-s3",
      "version": "1.12.37",
      "description": "",
      "purl": "pkg:maven/com.amazonaws/aws-java-sdk-s3@1.12.37?type=jar"
    },
    {
      "type": "library",
      "bom-ref": "pkg:maven/com.amazonaws/aws-java-sdk-kms@1.12.37?type=jar",
      "group": "com.amazonaws",
      "name": "aws-java-sdk-kms",
      "version": "1.12.37",
      "description": "",
      "purl": "pkg:maven/com.amazonaws/aws-java-sdk-kms@1.12.37?type=jar"
    },
    {
      "type": "library",
      "bom-ref": "pkg:maven/com.amazonaws/aws-java-sdk-core@1.12.37?type=jar",
      "group": "com.amazonaws",
      "name": "aws-java-sdk-core",
      "version": "1.12.37",
      "description": "",
      "purl": "pkg:maven/com.amazonaws/aws-java-sdk-core@1.12.37?type=jar"
    },
    {
      "type": "library",
      "bom-ref": "pkg:maven/software.amazon.ion/ion-java@1.0.2?type=jar",
      "group": "software.amazon.ion",
      "name": "ion-java",
      "version": "1.0.2",
      "description": "",
      "purl": "pkg:maven/software.amazon.ion/ion-java@1.0.2?type=jar"
    },
    {
      "type": "library",
      "bom-ref": "pkg:maven/com.fasterxml.jackson.dataformat/jackson-dataformat-cbor@2.10.5?type=jar",
      "group": "com.fasterxml.jackson.dataformat",
      "name": "jackson-dataformat-cbor",
      "version": "2.10.5",
      "description": "",
      "purl": "pkg:maven/com.fasterxml.jackson.dataformat/jackson-dataformat-cbor@2.10.5?type=jar"
    },
    {
      "type": "library",
      "bom-ref": "pkg:maven/com.amazonaws/aws-java-sdk-sts@1.12.37?type=jar",
      "group": "com.amazonaws",
      "name": "aws-java-sdk-sts",
      "version": "1.12.37",
      "description": "",
      "purl": "pkg:maven/com.amazonaws/aws-java-sdk-sts@1.12.37?type=jar"
    },
    {
      "type": "library",
      "bom-ref": "pkg:maven/org.apache.druid/druid-gcp-common@0.24.0-SNAPSHOT?type=jar",
      "group": "org.apache.druid",
      "name": "druid-gcp-common",
      "version": "0.24.0-SNAPSHOT",
      "description": "",
      "purl": "pkg:maven/org.apache.druid/druid-gcp-common@0.24.0-SNAPSHOT?type=jar"
    },
    {
      "type": "library",
      "bom-ref": "pkg:maven/com.google.api-client/google-api-client@1.26.0?type=jar",
      "group": "com.google.api-client",
      "name": "google-api-client",
      "version": "1.26.0",
      "description": "",
      "purl": "pkg:maven/com.google.api-client/google-api-client@1.26.0?type=jar"
    },
    {
      "type": "library",
      "bom-ref": "pkg:maven/com.google.oauth-client/google-oauth-client@1.26.0?type=jar",
      "group": "com.google.oauth-client",
      "name": "google-oauth-client",
      "version": "1.26.0",
      "description": "",
      "purl": "pkg:maven/com.google.oauth-client/google-oauth-client@1.26.0?type=jar"
    },
    {
      "type": "library",
      "bom-ref": "pkg:maven/com.google.http-client/google-http-client-jackson2@1.26.0?type=jar",
      "group": "com.google.http-client",
      "name": "google-http-client-jackson2",
      "version": "1.26.0",
      "description": "",
      "purl": "pkg:maven/com.google.http-client/google-http-client-jackson2@1.26.0?type=jar"
    },
    {
      "type": "library",
      "bom-ref": "pkg:maven/com.google.http-client/google-http-client@1.26.0?type=jar",
      "group": "com.google.http-client",
      "name": "google-http-client",
      "version": "1.26.0",
      "description": "",
      "purl": "pkg:maven/com.google.http-client/google-http-client@1.26.0?type=jar"
    },
    {
      "type": "library",
      "bom-ref": "pkg:maven/com.google.j2objc/j2objc-annotations@1.1?type=jar",
      "group": "com.google.j2objc",
      "name": "j2objc-annotations",
      "version": "1.1",
      "description": "",
      "purl": "pkg:maven/com.google.j2objc/j2objc-annotations@1.1?type=jar"
    },
    {
      "type": "library",
      "bom-ref": "pkg:maven/org.apache.druid/druid-console@0.24.0-SNAPSHOT?type=jar",
      "group": "org.apache.druid",
      "name": "druid-console",
      "version": "0.24.0-SNAPSHOT",
      "description": "",
      "purl": "pkg:maven/org.apache.druid/druid-console@0.24.0-SNAPSHOT?type=jar"
    },
    {
      "type": "library",
      "bom-ref": "pkg:maven/org.apache.zookeeper/zookeeper@3.5.9?type=jar",
      "group": "org.apache.zookeeper",
      "name": "zookeeper",
      "version": "3.5.9",
      "description": "",
      "purl": "pkg:maven/org.apache.zookeeper/zookeeper@3.5.9?type=jar"
    },
    {
      "type": "library",
      "bom-ref": "pkg:maven/org.apache.yetus/audience-annotations@0.5.0?type=jar",
      "group": "org.apache.yetus",
      "name": "audience-annotations",
      "version": "0.5.0",
      "description": "",
      "purl": "pkg:maven/org.apache.yetus/audience-annotations@0.5.0?type=jar"
    },
    {
      "type": "library",
      "bom-ref": "pkg:maven/org.apache.zookeeper/zookeeper-jute@3.5.9?type=jar",
      "group": "org.apache.zookeeper",
      "name": "zookeeper-jute",
      "version": "3.5.9",
      "description": "",
      "purl": "pkg:maven/org.apache.zookeeper/zookeeper-jute@3.5.9?type=jar"
    },
    {
      "type": "library",
      "bom-ref": "pkg:maven/org.apache.curator/curator-x-discovery@4.3.0?type=jar",
      "group": "org.apache.curator",
      "name": "curator-x-discovery",
      "version": "4.3.0",
      "description": "",
      "purl": "pkg:maven/org.apache.curator/curator-x-discovery@4.3.0?type=jar"
    },
    {
      "type": "library",
      "bom-ref": "pkg:maven/com.fasterxml.jackson.jaxrs/jackson-jaxrs-json-provider@2.10.5?type=jar",
      "group": "com.fasterxml.jackson.jaxrs",
      "name": "jackson-jaxrs-json-provider",
      "version": "2.10.5",
      "description": "",
      "purl": "pkg:maven/com.fasterxml.jackson.jaxrs/jackson-jaxrs-json-provider@2.10.5?type=jar"
    },
    {
      "type": "library",
      "bom-ref": "pkg:maven/com.sun.jersey/jersey-core@1.19.4?type=jar",
      "group": "com.sun.jersey",
      "name": "jersey-core",
      "version": "1.19.4",
      "description": "",
      "purl": "pkg:maven/com.sun.jersey/jersey-core@1.19.4?type=jar"
    },
    {
      "type": "library",
      "bom-ref": "pkg:maven/com.sun.jersey.contribs/jersey-guice@1.19.4?type=jar",
      "group": "com.sun.jersey.contribs",
      "name": "jersey-guice",
      "version": "1.19.4",
      "description": "",
      "purl": "pkg:maven/com.sun.jersey.contribs/jersey-guice@1.19.4?type=jar"
    },
    {
      "type": "library",
      "bom-ref": "pkg:maven/net.spy/spymemcached@2.12.3?type=jar",
      "group": "net.spy",
      "name": "spymemcached",
      "version": "2.12.3",
      "description": "",
      "purl": "pkg:maven/net.spy/spymemcached@2.12.3?type=jar"
    },
    {
      "type": "library",
      "bom-ref": "pkg:maven/org.eclipse.jetty/jetty-servlets@9.4.40.v20210413?type=jar",
      "group": "org.eclipse.jetty",
      "name": "jetty-servlets",
      "version": "9.4.40.v20210413",
      "description": "",
      "purl": "pkg:maven/org.eclipse.jetty/jetty-servlets@9.4.40.v20210413?type=jar"
    },
    {
      "type": "library",
      "bom-ref": "pkg:maven/org.eclipse.jetty/jetty-continuation@9.4.40.v20210413?type=jar",
      "group": "org.eclipse.jetty",
      "name": "jetty-continuation",
      "version": "9.4.40.v20210413",
      "description": "",
      "purl": "pkg:maven/org.eclipse.jetty/jetty-continuation@9.4.40.v20210413?type=jar"
    },
    {
      "type": "library",
      "bom-ref": "pkg:maven/org.apache.derby/derby@10.14.2.0?type=jar",
      "group": "org.apache.derby",
      "name": "derby",
      "version": "10.14.2.0",
      "description": "",
      "purl": "pkg:maven/org.apache.derby/derby@10.14.2.0?type=jar"
    },
    {
      "type": "library",
      "bom-ref": "pkg:maven/org.apache.derby/derbynet@10.14.2.0?type=jar",
      "group": "org.apache.derby",
      "name": "derbynet",
      "version": "10.14.2.0",
      "description": "",
      "purl": "pkg:maven/org.apache.derby/derbynet@10.14.2.0?type=jar"
    },
    {
      "type": "library",
      "bom-ref": "pkg:maven/org.apache.derby/derbyclient@10.14.2.0?type=jar",
      "group": "org.apache.derby",
      "name": "derbyclient",
      "version": "10.14.2.0",
      "description": "",
      "purl": "pkg:maven/org.apache.derby/derbyclient@10.14.2.0?type=jar"
    },
    {
      "type": "library",
      "bom-ref": "pkg:maven/com.github.ben-manes.caffeine/caffeine@2.8.0?type=jar",
      "group": "com.github.ben-manes.caffeine",
      "name": "caffeine",
      "version": "2.8.0",
      "description": "",
      "purl": "pkg:maven/com.github.ben-manes.caffeine/caffeine@2.8.0?type=jar"
    },
    {
      "type": "library",
      "bom-ref": "pkg:maven/org.apache.commons/commons-dbcp2@2.0.1?type=jar",
      "group": "org.apache.commons",
      "name": "commons-dbcp2",
      "version": "2.0.1",
      "description": "",
      "purl": "pkg:maven/org.apache.commons/commons-dbcp2@2.0.1?type=jar"
    },
    {
      "type": "library",
      "bom-ref": "pkg:maven/org.apache.commons/commons-pool2@2.2?type=jar",
      "group": "org.apache.commons",
      "name": "commons-pool2",
      "version": "2.2",
      "description": "",
      "purl": "pkg:maven/org.apache.commons/commons-pool2@2.2?type=jar"
    },
    {
      "type": "library",
      "bom-ref": "pkg:maven/commons-logging/commons-logging@1.1.1?type=jar",
      "group": "commons-logging",
      "name": "commons-logging",
      "version": "1.1.1",
      "description": "",
      "purl": "pkg:maven/commons-logging/commons-logging@1.1.1?type=jar"
    },
    {
      "type": "library",
      "bom-ref": "pkg:maven/org.apache.curator/curator-client@4.3.0?type=jar",
      "group": "org.apache.curator",
      "name": "curator-client",
      "version": "4.3.0",
      "description": "",
      "purl": "pkg:maven/org.apache.curator/curator-client@4.3.0?type=jar"
    },
    {
      "type": "library",
      "bom-ref": "pkg:maven/commons-codec/commons-codec@1.13?type=jar",
      "group": "commons-codec",
      "name": "commons-codec",
      "version": "1.13",
      "description": "",
      "purl": "pkg:maven/commons-codec/commons-codec@1.13?type=jar"
    },
    {
      "type": "library",
      "bom-ref": "pkg:maven/org.eclipse.jetty/jetty-io@9.4.40.v20210413?type=jar",
      "group": "org.eclipse.jetty",
      "name": "jetty-io",
      "version": "9.4.40.v20210413",
      "description": "",
      "purl": "pkg:maven/org.eclipse.jetty/jetty-io@9.4.40.v20210413?type=jar"
    },
    {
      "type": "library",
      "bom-ref": "pkg:maven/io.netty/netty-handler@4.1.68.Final?type=jar",
      "group": "io.netty",
      "name": "netty-handler",
      "version": "4.1.68.Final",
      "description": "",
      "purl": "pkg:maven/io.netty/netty-handler@4.1.68.Final?type=jar"
    },
    {
      "type": "library",
      "bom-ref": "pkg:maven/io.netty/netty-resolver@4.1.68.Final?type=jar",
      "group": "io.netty",
      "name": "netty-resolver",
      "version": "4.1.68.Final",
      "description": "",
      "purl": "pkg:maven/io.netty/netty-resolver@4.1.68.Final?type=jar"
    },
    {
      "type": "library",
      "bom-ref": "pkg:maven/org.apache.curator/curator-recipes@4.3.0?type=jar",
      "group": "org.apache.curator",
      "name": "curator-recipes",
      "version": "4.3.0",
      "description": "",
      "purl": "pkg:maven/org.apache.curator/curator-recipes@4.3.0?type=jar"
    },
    {
      "type": "library",
      "bom-ref": "pkg:maven/com.sun.jersey/jersey-servlet@1.19.4?type=jar",
      "group": "com.sun.jersey",
      "name": "jersey-servlet",
      "version": "1.19.4",
      "description": "",
      "purl": "pkg:maven/com.sun.jersey/jersey-servlet@1.19.4?type=jar"
    },
    {
      "type": "library",
      "bom-ref": "pkg:maven/io.github.resilience4j/resilience4j-bulkhead@1.3.1?type=jar",
      "group": "io.github.resilience4j",
      "name": "resilience4j-bulkhead",
      "version": "1.3.1",
      "description": "",
      "purl": "pkg:maven/io.github.resilience4j/resilience4j-bulkhead@1.3.1?type=jar"
    },
    {
      "type": "library",
      "bom-ref": "pkg:maven/io.vavr/vavr@0.10.2?type=jar",
      "group": "io.vavr",
      "name": "vavr",
      "version": "0.10.2",
      "description": "",
      "purl": "pkg:maven/io.vavr/vavr@0.10.2?type=jar"
    },
    {
      "type": "library",
      "bom-ref": "pkg:maven/io.vavr/vavr-match@0.10.2?type=jar",
      "group": "io.vavr",
      "name": "vavr-match",
      "version": "0.10.2",
      "description": "",
      "purl": "pkg:maven/io.vavr/vavr-match@0.10.2?type=jar"
    },
    {
      "type": "library",
      "bom-ref": "pkg:maven/io.github.resilience4j/resilience4j-core@1.3.1?type=jar",
      "group": "io.github.resilience4j",
      "name": "resilience4j-core",
      "version": "1.3.1",
      "description": "",
      "purl": "pkg:maven/io.github.resilience4j/resilience4j-core@1.3.1?type=jar"
    },
    {
      "type": "library",
      "bom-ref": "pkg:maven/com.fasterxml.jackson.module/jackson-module-guice@2.10.5?type=jar",
      "group": "com.fasterxml.jackson.module",
      "name": "jackson-module-guice",
      "version": "2.10.5",
      "description": "",
      "purl": "pkg:maven/com.fasterxml.jackson.module/jackson-module-guice@2.10.5?type=jar"
    },
    {
      "type": "library",
      "bom-ref": "pkg:maven/org.apache.druid/druid-indexing-hadoop@0.24.0-SNAPSHOT?type=jar",
      "group": "org.apache.druid",
      "name": "druid-indexing-hadoop",
      "version": "0.24.0-SNAPSHOT",
      "description": "",
      "purl": "pkg:maven/org.apache.druid/druid-indexing-hadoop@0.24.0-SNAPSHOT?type=jar"
    },
    {
      "type": "library",
      "bom-ref": "pkg:maven/org.apache.druid/druid-indexing-service@0.24.0-SNAPSHOT?type=jar",
      "group": "org.apache.druid",
      "name": "druid-indexing-service",
      "version": "0.24.0-SNAPSHOT",
      "description": "",
      "purl": "pkg:maven/org.apache.druid/druid-indexing-service@0.24.0-SNAPSHOT?type=jar"
    },
    {
      "type": "library",
      "bom-ref": "pkg:maven/io.dropwizard.metrics/metrics-core@4.0.0?type=jar",
      "group": "io.dropwizard.metrics",
      "name": "metrics-core",
      "version": "4.0.0",
      "description": "",
      "purl": "pkg:maven/io.dropwizard.metrics/metrics-core@4.0.0?type=jar"
    },
    {
      "type": "library",
      "bom-ref": "pkg:maven/org.apache.commons/commons-lang3@3.8.1?type=jar",
      "group": "org.apache.commons",
      "name": "commons-lang3",
      "version": "3.8.1",
      "description": "",
      "purl": "pkg:maven/org.apache.commons/commons-lang3@3.8.1?type=jar"
    },
    {
      "type": "library",
      "bom-ref": "pkg:maven/org.apache.druid/druid-sql@0.24.0-SNAPSHOT?type=jar",
      "group": "org.apache.druid",
      "name": "druid-sql",
      "version": "0.24.0-SNAPSHOT",
      "description": "",
      "purl": "pkg:maven/org.apache.druid/druid-sql@0.24.0-SNAPSHOT?type=jar"
    },
    {
      "type": "library",
      "bom-ref": "pkg:maven/org.apache.calcite/calcite-core@1.21.0?type=jar",
      "group": "org.apache.calcite",
      "name": "calcite-core",
      "version": "1.21.0",
      "description": "",
      "purl": "pkg:maven/org.apache.calcite/calcite-core@1.21.0?type=jar"
    },
    {
      "type": "library",
      "bom-ref": "pkg:maven/com.esri.geometry/esri-geometry-api@2.2.0?type=jar",
      "group": "com.esri.geometry",
      "name": "esri-geometry-api",
      "version": "2.2.0",
      "description": "",
      "purl": "pkg:maven/com.esri.geometry/esri-geometry-api@2.2.0?type=jar"
    },
    {
      "type": "library",
      "bom-ref": "pkg:maven/net.hydromatic/aggdesigner-algorithm@6.0?type=jar",
      "group": "net.hydromatic",
      "name": "aggdesigner-algorithm",
      "version": "6.0",
      "description": "",
      "purl": "pkg:maven/net.hydromatic/aggdesigner-algorithm@6.0?type=jar"
    },
    {
      "type": "library",
      "bom-ref": "pkg:maven/org.codehaus.janino/janino@3.0.11?type=jar",
      "group": "org.codehaus.janino",
      "name": "janino",
      "version": "3.0.11",
      "description": "",
      "purl": "pkg:maven/org.codehaus.janino/janino@3.0.11?type=jar"
    },
    {
      "type": "library",
      "bom-ref": "pkg:maven/org.codehaus.janino/commons-compiler@3.0.11?type=jar",
      "group": "org.codehaus.janino",
      "name": "commons-compiler",
      "version": "3.0.11",
      "description": "",
      "purl": "pkg:maven/org.codehaus.janino/commons-compiler@3.0.11?type=jar"
    },
    {
      "type": "library",
      "bom-ref": "pkg:maven/org.apache.calcite/calcite-linq4j@1.21.0?type=jar",
      "group": "org.apache.calcite",
      "name": "calcite-linq4j",
      "version": "1.21.0",
      "description": "",
      "purl": "pkg:maven/org.apache.calcite/calcite-linq4j@1.21.0?type=jar"
    },
    {
      "type": "library",
      "bom-ref": "pkg:maven/org.apache.calcite.avatica/avatica-server@1.17.0?type=jar",
      "group": "org.apache.calcite.avatica",
      "name": "avatica-server",
      "version": "1.17.0",
      "description": "",
      "purl": "pkg:maven/org.apache.calcite.avatica/avatica-server@1.17.0?type=jar"
    },
    {
      "type": "library",
      "bom-ref": "pkg:maven/com.google.inject.extensions/guice-assistedinject@4.1.0?type=jar",
      "group": "com.google.inject.extensions",
      "name": "guice-assistedinject",
      "version": "4.1.0",
      "description": "",
      "purl": "pkg:maven/com.google.inject.extensions/guice-assistedinject@4.1.0?type=jar"
    },
    {
      "type": "library",
      "bom-ref": "pkg:maven/org.apache.calcite.avatica/avatica-metrics@1.17.0?type=jar",
      "group": "org.apache.calcite.avatica",
      "name": "avatica-metrics",
      "version": "1.17.0",
      "description": "",
      "purl": "pkg:maven/org.apache.calcite.avatica/avatica-metrics@1.17.0?type=jar"
    },
    {
      "type": "library",
      "bom-ref": "pkg:maven/com.github.rvesse/airline@2.8.4?type=jar",
      "group": "com.github.rvesse",
      "name": "airline",
      "version": "2.8.4",
      "description": "",
      "purl": "pkg:maven/com.github.rvesse/airline@2.8.4?type=jar"
    },
    {
      "type": "library",
      "bom-ref": "pkg:maven/com.github.rvesse/airline-io@2.8.4?type=jar",
      "group": "com.github.rvesse",
      "name": "airline-io",
      "version": "2.8.4",
      "description": "",
      "purl": "pkg:maven/com.github.rvesse/airline-io@2.8.4?type=jar"
    },
    {
      "type": "library",
      "bom-ref": "pkg:maven/org.apache.commons/commons-collections4@4.2?type=jar",
      "group": "org.apache.commons",
      "name": "commons-collections4",
      "version": "4.2",
      "description": "",
      "purl": "pkg:maven/org.apache.commons/commons-collections4@4.2?type=jar"
    },
    {
      "type": "library",
      "bom-ref": "pkg:maven/org.glassfish.jaxb/jaxb-runtime@2.3.1?type=jar",
      "group": "org.glassfish.jaxb",
      "name": "jaxb-runtime",
      "version": "2.3.1",
      "description": "",
      "purl": "pkg:maven/org.glassfish.jaxb/jaxb-runtime@2.3.1?type=jar"
    },
    {
      "type": "library",
      "bom-ref": "pkg:maven/org.glassfish.jaxb/txw2@2.3.1?type=jar",
      "group": "org.glassfish.jaxb",
      "name": "txw2",
      "version": "2.3.1",
      "description": "",
      "purl": "pkg:maven/org.glassfish.jaxb/txw2@2.3.1?type=jar"
    },
    {
      "type": "library",
      "bom-ref": "pkg:maven/com.sun.istack/istack-commons-runtime@3.0.7?type=jar",
      "group": "com.sun.istack",
      "name": "istack-commons-runtime",
      "version": "3.0.7",
      "description": "",
      "purl": "pkg:maven/com.sun.istack/istack-commons-runtime@3.0.7?type=jar"
    },
    {
      "type": "library",
      "bom-ref": "pkg:maven/org.jvnet.staxex/stax-ex@1.8?type=jar",
      "group": "org.jvnet.staxex",
      "name": "stax-ex",
      "version": "1.8",
      "description": "",
      "purl": "pkg:maven/org.jvnet.staxex/stax-ex@1.8?type=jar"
    },
    {
      "type": "library",
      "bom-ref": "pkg:maven/com.sun.xml.fastinfoset/FastInfoset@1.2.15?type=jar",
      "group": "com.sun.xml.fastinfoset",
      "name": "FastInfoset",
      "version": "1.2.15",
      "description": "",
      "purl": "pkg:maven/com.sun.xml.fastinfoset/FastInfoset@1.2.15?type=jar"
    },
    {
      "type": "library",
      "bom-ref": "pkg:maven/javax.activation/javax.activation-api@1.2.0?type=jar",
      "group": "javax.activation",
      "name": "javax.activation-api",
      "version": "1.2.0",
      "description": "",
      "purl": "pkg:maven/javax.activation/javax.activation-api@1.2.0?type=jar"
    },
    {
      "type": "library",
      "bom-ref": "pkg:maven/com.google.code.findbugs/jsr305@2.0.1?type=jar",
      "group": "com.google.code.findbugs",
      "name": "jsr305",
      "version": "2.0.1",
      "description": "",
      "purl": "pkg:maven/com.google.code.findbugs/jsr305@2.0.1?type=jar"
    },
    {
      "type": "library",
      "bom-ref": "pkg:maven/commons-io/commons-io@2.11.0?type=jar",
      "group": "commons-io",
      "name": "commons-io",
      "version": "2.11.0",
      "description": "",
      "purl": "pkg:maven/commons-io/commons-io@2.11.0?type=jar"
    },
    {
      "type": "library",
      "bom-ref": "pkg:maven/org.eclipse.jetty/jetty-client@9.4.40.v20210413?type=jar",
      "group": "org.eclipse.jetty",
      "name": "jetty-client",
      "version": "9.4.40.v20210413",
      "description": "",
      "purl": "pkg:maven/org.eclipse.jetty/jetty-client@9.4.40.v20210413?type=jar"
    },
    {
      "type": "library",
      "bom-ref": "pkg:maven/org.eclipse.jetty/jetty-http@9.4.40.v20210413?type=jar",
      "group": "org.eclipse.jetty",
      "name": "jetty-http",
      "version": "9.4.40.v20210413",
      "description": "",
      "purl": "pkg:maven/org.eclipse.jetty/jetty-http@9.4.40.v20210413?type=jar"
    },
    {
      "type": "library",
      "bom-ref": "pkg:maven/org.eclipse.jetty/jetty-proxy@9.4.40.v20210413?type=jar",
      "group": "org.eclipse.jetty",
      "name": "jetty-proxy",
      "version": "9.4.40.v20210413",
      "description": "",
      "purl": "pkg:maven/org.eclipse.jetty/jetty-proxy@9.4.40.v20210413?type=jar"
    },
    {
      "type": "library",
      "bom-ref": "pkg:maven/org.eclipse.jetty/jetty-server@9.4.40.v20210413?type=jar",
      "group": "org.eclipse.jetty",
      "name": "jetty-server",
      "version": "9.4.40.v20210413",
      "description": "",
      "purl": "pkg:maven/org.eclipse.jetty/jetty-server@9.4.40.v20210413?type=jar"
    },
    {
      "type": "library",
      "bom-ref": "pkg:maven/org.apache.curator/curator-framework@4.3.0?type=jar",
      "group": "org.apache.curator",
      "name": "curator-framework",
      "version": "4.3.0",
      "description": "",
      "purl": "pkg:maven/org.apache.curator/curator-framework@4.3.0?type=jar"
    },
    {
      "type": "library",
      "bom-ref": "pkg:maven/org.apache.calcite.avatica/avatica-core@1.17.0?type=jar",
      "group": "org.apache.calcite.avatica",
      "name": "avatica-core",
      "version": "1.17.0",
      "description": "",
      "purl": "pkg:maven/org.apache.calcite.avatica/avatica-core@1.17.0?type=jar"
    },
    {
      "type": "library",
      "bom-ref": "pkg:maven/com.google.protobuf/protobuf-java@3.11.0?type=jar",
      "group": "com.google.protobuf",
      "name": "protobuf-java",
      "version": "3.11.0",
      "description": "",
      "purl": "pkg:maven/com.google.protobuf/protobuf-java@3.11.0?type=jar"
    },
    {
      "type": "library",
      "bom-ref": "pkg:maven/org.apache.httpcomponents/httpclient@4.5.13?type=jar",
      "group": "org.apache.httpcomponents",
      "name": "httpclient",
      "version": "4.5.13",
      "description": "",
      "purl": "pkg:maven/org.apache.httpcomponents/httpclient@4.5.13?type=jar"
    },
    {
      "type": "library",
      "bom-ref": "pkg:maven/org.apache.httpcomponents/httpcore@4.4.11?type=jar",
      "group": "org.apache.httpcomponents",
      "name": "httpcore",
      "version": "4.4.11",
      "description": "",
      "purl": "pkg:maven/org.apache.httpcomponents/httpcore@4.4.11?type=jar"
    },
    {
      "type": "library",
      "bom-ref": "pkg:maven/joda-time/joda-time@2.10.5?type=jar",
      "group": "joda-time",
      "name": "joda-time",
      "version": "2.10.5",
      "description": "",
      "purl": "pkg:maven/joda-time/joda-time@2.10.5?type=jar"
    },
    {
      "type": "library",
      "bom-ref": "pkg:maven/com.google.inject/guice@4.1.0?type=jar",
      "group": "com.google.inject",
      "name": "guice",
      "version": "4.1.0",
      "description": "",
      "purl": "pkg:maven/com.google.inject/guice@4.1.0?type=jar"
    },
    {
      "type": "library",
      "bom-ref": "pkg:maven/javax.inject/javax.inject@1?type=jar",
      "group": "javax.inject",
      "name": "javax.inject",
      "version": "1",
      "description": "",
      "purl": "pkg:maven/javax.inject/javax.inject@1?type=jar"
    },
    {
      "type": "library",
      "bom-ref": "pkg:maven/aopalliance/aopalliance@1.0?type=jar",
      "group": "aopalliance",
      "name": "aopalliance",
      "version": "1.0",
      "description": "",
      "purl": "pkg:maven/aopalliance/aopalliance@1.0?type=jar"
    },
    {
      "type": "library",
      "bom-ref": "pkg:maven/com.fasterxml.jackson.core/jackson-annotations@2.10.5?type=jar",
      "group": "com.fasterxml.jackson.core",
      "name": "jackson-annotations",
      "version": "2.10.5",
      "description": "",
      "purl": "pkg:maven/com.fasterxml.jackson.core/jackson-annotations@2.10.5?type=jar"
    },
    {
      "type": "library",
      "bom-ref": "pkg:maven/com.fasterxml.jackson.core/jackson-databind@2.10.5.1?type=jar",
      "group": "com.fasterxml.jackson.core",
      "name": "jackson-databind",
      "version": "2.10.5.1",
      "description": "",
      "purl": "pkg:maven/com.fasterxml.jackson.core/jackson-databind@2.10.5.1?type=jar"
    },
    {
      "type": "library",
      "bom-ref": "pkg:maven/com.fasterxml.jackson.jaxrs/jackson-jaxrs-smile-provider@2.10.5?type=jar",
      "group": "com.fasterxml.jackson.jaxrs",
      "name": "jackson-jaxrs-smile-provider",
      "version": "2.10.5",
      "description": "",
      "purl": "pkg:maven/com.fasterxml.jackson.jaxrs/jackson-jaxrs-smile-provider@2.10.5?type=jar"
    },
    {
      "type": "library",
      "bom-ref": "pkg:maven/com.fasterxml.jackson.jaxrs/jackson-jaxrs-base@2.10.5?type=jar",
      "group": "com.fasterxml.jackson.jaxrs",
      "name": "jackson-jaxrs-base",
      "version": "2.10.5",
      "description": "",
      "purl": "pkg:maven/com.fasterxml.jackson.jaxrs/jackson-jaxrs-base@2.10.5?type=jar"
    },
    {
      "type": "library",
      "bom-ref": "pkg:maven/com.fasterxml.jackson.module/jackson-module-jaxb-annotations@2.10.5?type=jar",
      "group": "com.fasterxml.jackson.module",
      "name": "jackson-module-jaxb-annotations",
      "version": "2.10.5",
      "description": "",
      "purl": "pkg:maven/com.fasterxml.jackson.module/jackson-module-jaxb-annotations@2.10.5?type=jar"
    },
    {
      "type": "library",
      "bom-ref": "pkg:maven/jakarta.xml.bind/jakarta.xml.bind-api@2.3.2?type=jar",
      "group": "jakarta.xml.bind",
      "name": "jakarta.xml.bind-api",
      "version": "2.3.2",
      "description": "",
      "purl": "pkg:maven/jakarta.xml.bind/jakarta.xml.bind-api@2.3.2?type=jar"
    },
    {
      "type": "library",
      "bom-ref": "pkg:maven/jakarta.activation/jakarta.activation-api@1.2.1?type=jar",
      "group": "jakarta.activation",
      "name": "jakarta.activation-api",
      "version": "1.2.1",
      "description": "",
      "purl": "pkg:maven/jakarta.activation/jakarta.activation-api@1.2.1?type=jar"
    },
    {
      "type": "library",
      "bom-ref": "pkg:maven/com.opencsv/opencsv@4.6?type=jar",
      "group": "com.opencsv",
      "name": "opencsv",
      "version": "4.6",
      "description": "",
      "purl": "pkg:maven/com.opencsv/opencsv@4.6?type=jar"
    },
    {
      "type": "library",
      "bom-ref": "pkg:maven/org.apache.commons/commons-text@1.3?type=jar",
      "group": "org.apache.commons",
      "name": "commons-text",
      "version": "1.3",
      "description": "",
      "purl": "pkg:maven/org.apache.commons/commons-text@1.3?type=jar"
    },
    {
      "type": "library",
      "bom-ref": "pkg:maven/commons-beanutils/commons-beanutils@1.9.4?type=jar",
      "group": "commons-beanutils",
      "name": "commons-beanutils",
      "version": "1.9.4",
      "description": "",
      "purl": "pkg:maven/commons-beanutils/commons-beanutils@1.9.4?type=jar"
    },
    {
      "type": "library",
      "bom-ref": "pkg:maven/commons-collections/commons-collections@3.2.2?type=jar",
      "group": "commons-collections",
      "name": "commons-collections",
      "version": "3.2.2",
      "description": "",
      "purl": "pkg:maven/commons-collections/commons-collections@3.2.2?type=jar"
    },
    {
      "type": "library",
      "bom-ref": "pkg:maven/javax.validation/validation-api@1.1.0.Final?type=jar",
      "group": "javax.validation",
      "name": "validation-api",
      "version": "1.1.0.Final",
      "description": "",
      "purl": "pkg:maven/javax.validation/validation-api@1.1.0.Final?type=jar"
    },
    {
      "type": "library",
      "bom-ref": "pkg:maven/com.google.errorprone/error_prone_annotations@2.11.0?type=jar",
      "group": "com.google.errorprone",
      "name": "error_prone_annotations",
      "version": "2.11.0",
      "description": "",
      "purl": "pkg:maven/com.google.errorprone/error_prone_annotations@2.11.0?type=jar"
    },
    {
      "type": "library",
      "bom-ref": "pkg:maven/commons-lang/commons-lang@2.6?type=jar",
      "group": "commons-lang",
      "name": "commons-lang",
      "version": "2.6",
      "description": "",
      "purl": "pkg:maven/commons-lang/commons-lang@2.6?type=jar"
    },
    {
      "type": "library",
      "bom-ref": "pkg:maven/javax.ws.rs/jsr311-api@1.1.1?type=jar",
      "group": "javax.ws.rs",
      "name": "jsr311-api",
      "version": "1.1.1",
      "description": "",
      "purl": "pkg:maven/javax.ws.rs/jsr311-api@1.1.1?type=jar"
    },
    {
      "type": "library",
      "bom-ref": "pkg:maven/org.eclipse.jetty/jetty-servlet@9.4.40.v20210413?type=jar",
      "group": "org.eclipse.jetty",
      "name": "jetty-servlet",
      "version": "9.4.40.v20210413",
      "description": "",
      "purl": "pkg:maven/org.eclipse.jetty/jetty-servlet@9.4.40.v20210413?type=jar"
    },
    {
      "type": "library",
      "bom-ref": "pkg:maven/org.eclipse.jetty/jetty-security@9.4.40.v20210413?type=jar",
      "group": "org.eclipse.jetty",
      "name": "jetty-security",
      "version": "9.4.40.v20210413",
      "description": "",
      "purl": "pkg:maven/org.eclipse.jetty/jetty-security@9.4.40.v20210413?type=jar"
    },
    {
      "type": "library",
      "bom-ref": "pkg:maven/org.eclipse.jetty/jetty-util-ajax@9.4.40.v20210413?type=jar",
      "group": "org.eclipse.jetty",
      "name": "jetty-util-ajax",
      "version": "9.4.40.v20210413",
      "description": "",
      "purl": "pkg:maven/org.eclipse.jetty/jetty-util-ajax@9.4.40.v20210413?type=jar"
    },
    {
      "type": "library",
      "bom-ref": "pkg:maven/org.eclipse.jetty/jetty-rewrite@9.4.40.v20210413?type=jar",
      "group": "org.eclipse.jetty",
      "name": "jetty-rewrite",
      "version": "9.4.40.v20210413",
      "description": "",
      "purl": "pkg:maven/org.eclipse.jetty/jetty-rewrite@9.4.40.v20210413?type=jar"
    },
    {
      "type": "library",
      "bom-ref": "pkg:maven/com.sun.jersey/jersey-server@1.19.4?type=jar",
      "group": "com.sun.jersey",
      "name": "jersey-server",
      "version": "1.19.4",
      "description": "",
      "purl": "pkg:maven/com.sun.jersey/jersey-server@1.19.4?type=jar"
    },
    {
      "type": "library",
      "bom-ref": "pkg:maven/com.google.inject.extensions/guice-multibindings@4.1.0?type=jar",
      "group": "com.google.inject.extensions",
      "name": "guice-multibindings",
      "version": "4.1.0",
      "description": "",
      "purl": "pkg:maven/com.google.inject.extensions/guice-multibindings@4.1.0?type=jar"
    },
    {
      "type": "library",
      "bom-ref": "pkg:maven/org.roaringbitmap/RoaringBitmap@0.9.0?type=jar",
      "group": "org.roaringbitmap",
      "name": "RoaringBitmap",
      "version": "0.9.0",
      "description": "",
      "purl": "pkg:maven/org.roaringbitmap/RoaringBitmap@0.9.0?type=jar"
    },
    {
      "type": "library",
      "bom-ref": "pkg:maven/org.roaringbitmap/shims@0.9.0?type=jar",
      "group": "org.roaringbitmap",
      "name": "shims",
      "version": "0.9.0",
      "description": "",
      "purl": "pkg:maven/org.roaringbitmap/shims@0.9.0?type=jar"
    },
    {
      "type": "library",
      "bom-ref": "pkg:maven/org.eclipse.jetty/jetty-util@9.4.40.v20210413?type=jar",
      "group": "org.eclipse.jetty",
      "name": "jetty-util",
      "version": "9.4.40.v20210413",
      "description": "",
      "purl": "pkg:maven/org.eclipse.jetty/jetty-util@9.4.40.v20210413?type=jar"
    },
    {
      "type": "library",
      "bom-ref": "pkg:maven/io.netty/netty@3.10.6.Final?type=jar",
      "group": "io.netty",
      "name": "netty",
      "version": "3.10.6.Final",
      "description": "",
      "purl": "pkg:maven/io.netty/netty@3.10.6.Final?type=jar"
    },
    {
      "type": "library",
      "bom-ref": "pkg:maven/io.netty/netty-common@4.1.68.Final?type=jar",
      "group": "io.netty",
      "name": "netty-common",
      "version": "4.1.68.Final",
      "description": "",
      "purl": "pkg:maven/io.netty/netty-common@4.1.68.Final?type=jar"
    },
    {
      "type": "library",
      "bom-ref": "pkg:maven/org.eclipse.aether/aether-api@0.9.0.M2?type=jar",
      "group": "org.eclipse.aether",
      "name": "aether-api",
      "version": "0.9.0.M2",
      "description": "",
      "purl": "pkg:maven/org.eclipse.aether/aether-api@0.9.0.M2?type=jar"
    },
    {
      "type": "library",
      "bom-ref": "pkg:maven/javax.servlet/javax.servlet-api@3.1.0?type=jar",
      "group": "javax.servlet",
      "name": "javax.servlet-api",
      "version": "3.1.0",
      "description": "",
      "purl": "pkg:maven/javax.servlet/javax.servlet-api@3.1.0?type=jar"
    },
    {
      "type": "library",
      "bom-ref": "pkg:maven/com.fasterxml.jackson.core/jackson-core@2.10.5?type=jar",
      "group": "com.fasterxml.jackson.core",
      "name": "jackson-core",
      "version": "2.10.5",
      "description": "",
      "purl": "pkg:maven/com.fasterxml.jackson.core/jackson-core@2.10.5?type=jar"
    },
    {
      "type": "library",
      "bom-ref": "pkg:maven/com.google.guava/guava@16.0.1?type=jar",
      "group": "com.google.guava",
      "name": "guava",
      "version": "16.0.1",
      "description": "",
      "purl": "pkg:maven/com.google.guava/guava@16.0.1?type=jar"
    },
    {
      "type": "library",
      "bom-ref": "pkg:maven/org.eclipse.aether/aether-util@0.9.0.M2?type=jar",
      "group": "org.eclipse.aether",
      "name": "aether-util",
      "version": "0.9.0.M2",
      "description": "",
      "purl": "pkg:maven/org.eclipse.aether/aether-util@0.9.0.M2?type=jar"
    },
    {
      "type": "library",
      "bom-ref": "pkg:maven/com.google.inject.extensions/guice-servlet@4.1.0?type=jar",
      "group": "com.google.inject.extensions",
      "name": "guice-servlet",
      "version": "4.1.0",
      "description": "",
      "purl": "pkg:maven/com.google.inject.extensions/guice-servlet@4.1.0?type=jar"
    },
    {
      "type": "library",
      "bom-ref": "pkg:maven/io.tesla.aether/tesla-aether@0.0.5?type=jar",
      "group": "io.tesla.aether",
      "name": "tesla-aether",
      "version": "0.0.5",
      "description": "",
      "purl": "pkg:maven/io.tesla.aether/tesla-aether@0.0.5?type=jar"
    },
    {
      "type": "library",
      "bom-ref": "pkg:maven/org.eclipse.aether/aether-spi@0.9.0.M2?type=jar",
      "group": "org.eclipse.aether",
      "name": "aether-spi",
      "version": "0.9.0.M2",
      "description": "",
      "purl": "pkg:maven/org.eclipse.aether/aether-spi@0.9.0.M2?type=jar"
    },
    {
      "type": "library",
      "bom-ref": "pkg:maven/org.eclipse.aether/aether-impl@0.9.0.M2?type=jar",
      "group": "org.eclipse.aether",
      "name": "aether-impl",
      "version": "0.9.0.M2",
      "description": "",
      "purl": "pkg:maven/org.eclipse.aether/aether-impl@0.9.0.M2?type=jar"
    },
    {
      "type": "library",
      "bom-ref": "pkg:maven/org.eclipse.aether/aether-connector-file@0.9.0.M2?type=jar",
      "group": "org.eclipse.aether",
      "name": "aether-connector-file",
      "version": "0.9.0.M2",
      "description": "",
      "purl": "pkg:maven/org.eclipse.aether/aether-connector-file@0.9.0.M2?type=jar"
    },
    {
      "type": "library",
      "bom-ref": "pkg:maven/io.tesla.aether/aether-connector-okhttp@0.0.9?type=jar",
      "group": "io.tesla.aether",
      "name": "aether-connector-okhttp",
      "version": "0.0.9",
      "description": "",
      "purl": "pkg:maven/io.tesla.aether/aether-connector-okhttp@0.0.9?type=jar"
    },
    {
      "type": "library",
      "bom-ref": "pkg:maven/com.squareup.okhttp/okhttp@1.0.2?type=jar",
      "group": "com.squareup.okhttp",
      "name": "okhttp",
      "version": "1.0.2",
      "description": "",
      "purl": "pkg:maven/com.squareup.okhttp/okhttp@1.0.2?type=jar"
    },
    {
      "type": "library",
      "bom-ref": "pkg:maven/org.apache.maven.wagon/wagon-provider-api@2.4?type=jar",
      "group": "org.apache.maven.wagon",
      "name": "wagon-provider-api",
      "version": "2.4",
      "description": "",
      "purl": "pkg:maven/org.apache.maven.wagon/wagon-provider-api@2.4?type=jar"
    },
    {
      "type": "library",
      "bom-ref": "pkg:maven/org.apache.maven/maven-aether-provider@3.1.1?type=jar",
      "group": "org.apache.maven",
      "name": "maven-aether-provider",
      "version": "3.1.1",
      "description": "",
      "purl": "pkg:maven/org.apache.maven/maven-aether-provider@3.1.1?type=jar"
    },
    {
      "type": "library",
      "bom-ref": "pkg:maven/org.apache.maven/maven-model@3.1.1?type=jar",
      "group": "org.apache.maven",
      "name": "maven-model",
      "version": "3.1.1",
      "description": "",
      "purl": "pkg:maven/org.apache.maven/maven-model@3.1.1?type=jar"
    },
    {
      "type": "library",
      "bom-ref": "pkg:maven/org.apache.maven/maven-model-builder@3.1.1?type=jar",
      "group": "org.apache.maven",
      "name": "maven-model-builder",
      "version": "3.1.1",
      "description": "",
      "purl": "pkg:maven/org.apache.maven/maven-model-builder@3.1.1?type=jar"
    },
    {
      "type": "library",
      "bom-ref": "pkg:maven/org.apache.maven/maven-repository-metadata@3.1.1?type=jar",
      "group": "org.apache.maven",
      "name": "maven-repository-metadata",
      "version": "3.1.1",
      "description": "",
      "purl": "pkg:maven/org.apache.maven/maven-repository-metadata@3.1.1?type=jar"
    },
    {
      "type": "library",
      "bom-ref": "pkg:maven/org.apache.maven/maven-settings-builder@3.1.1?type=jar",
      "group": "org.apache.maven",
      "name": "maven-settings-builder",
      "version": "3.1.1",
      "description": "",
      "purl": "pkg:maven/org.apache.maven/maven-settings-builder@3.1.1?type=jar"
    },
    {
      "type": "library",
      "bom-ref": "pkg:maven/org.codehaus.plexus/plexus-interpolation@1.19?type=jar",
      "group": "org.codehaus.plexus",
      "name": "plexus-interpolation",
      "version": "1.19",
      "description": "",
      "purl": "pkg:maven/org.codehaus.plexus/plexus-interpolation@1.19?type=jar"
    },
    {
      "type": "library",
      "bom-ref": "pkg:maven/org.apache.maven/maven-settings@3.1.1?type=jar",
      "group": "org.apache.maven",
      "name": "maven-settings",
      "version": "3.1.1",
      "description": "",
      "purl": "pkg:maven/org.apache.maven/maven-settings@3.1.1?type=jar"
    },
    {
      "type": "library",
      "bom-ref": "pkg:maven/javax.xml.bind/jaxb-api@2.3.1?type=jar",
      "group": "javax.xml.bind",
      "name": "jaxb-api",
      "version": "2.3.1",
      "description": "",
      "purl": "pkg:maven/javax.xml.bind/jaxb-api@2.3.1?type=jar"
    }
  ]
}
