{
  "bomFormat": "CycloneDX",
  "specVersion": "1.3",
  "version": 1,
  "metadata": {
    "tools": [
      {
        "vendor": "CycloneDX",
        "name": "cyclonedx-gomod",
        "version": "v0.0.0-unset",
        "hashes": [
          {
            "alg": "MD5",
            "content": "a35776fc9417e8071d3f1dcfa2f1dd19"
          },
          {
            "alg": "SHA-1",
            "content": "a19a8eed713eff5a2092e5283c201a146f19421d"
          },
          {
            "alg": "SHA-256",
            "content": "17b3b980b9a5d0f48ad52043dee5b31aff3ae6599a36bc94224dc7b6a46759ef"
          },
          {
            "alg": "SHA-512",
            "content": "9d4f06aab20cede94a1aedf11a300ae9de98871235c68c72e421cd6d45495910861b39e743ee0eceb11bbdcd2c9acc3312c19064cfe90177243fb43127fcfa46"
          }
        ]
      },
      {
        "vendor": "CycloneDX",
        "name": "Node.js module",
        "version": "3.0.3"
      },
      {
        "vendor": "AppThreat",
        "name": "cdxgen",
        "version": "3.0.10"
      },
      {
        "vendor": "Fortress Information Security",
        "name": "Github Extractor",
        "version": "1.15.1"
      }
    ],
    "authors": [
      {
        "name": "Fortress Information Security",
        "email": "sales@fortressinfosec.com",
        "phone": "1-407-573-6800"
      }
    ],
    "timestamp": "2022-06-01T21:00:00Z",
    "component": {
      "type": "application",
      "name": "up",
      "version": "v1.7.1",
      "group": "apex",
      "externalReferences": [
        {
          "url": "https://github.com/apex/up.git",
          "type": "distribution"
        },
        {
          "type": "website",
          "url": "https://up.docs.apex.sh",
          "comment": "As set via `homepage` in Github API"
        }
      ]
    }
  },
  "components": [
    {
      "type": "library",
      "bom-ref": "pkg:golang/github.com/NYTimes/gziphandler@v0.0.0-20170916004738-97ae7fbaf816",
      "name": "github.com/NYTimes/gziphandler",
      "version": "v0.0.0-20170916004738-97ae7fbaf816",
      "scope": "required",
      "hashes": [
        {
          "alg": "SHA-256",
          "content": "c016989b9adafa9ea310a920f46ded0a299d3b0a7f75c08f49f91e3eb5a873ac"
        }
      ],
      "purl": "pkg:golang/github.com/NYTimes/gziphandler@v0.0.0-20170916004738-97ae7fbaf816",
      "externalReferences": [
        {
          "url": "https://github.com/NYTimes/gziphandler",
          "type": "vcs"
        }
      ]
    },
    {
      "type": "library",
      "bom-ref": "pkg:golang/github.com/alecthomas/template@v0.0.0-20160405071501-a0175ee3bccc",
      "name": "github.com/alecthomas/template",
      "version": "v0.0.0-20160405071501-a0175ee3bccc",
      "scope": "required",
      "hashes": [
        {
          "alg": "SHA-256",
          "content": "7002837d6879569760321268b1f2679f9fc5a0dd92459e29edf24d5f9f183da5"
        }
      ],
      "purl": "pkg:golang/github.com/alecthomas/template@v0.0.0-20160405071501-a0175ee3bccc",
      "externalReferences": [
        {
          "url": "https://github.com/alecthomas/template",
          "type": "vcs"
        }
      ]
    },
    {
      "type": "library",
      "bom-ref": "pkg:golang/github.com/alecthomas/units@v0.0.0-20151022065526-2efee857e7cf",
      "name": "github.com/alecthomas/units",
      "version": "v0.0.0-20151022065526-2efee857e7cf",
      "scope": "required",
      "hashes": [
        {
          "alg": "SHA-256",
          "content": "a9eb7540d7d7b10c5366a2c6e2813ada6273c0f201f3e4de7b844d08bf6e96b6"
        }
      ],
      "purl": "pkg:golang/github.com/alecthomas/units@v0.0.0-20151022065526-2efee857e7cf",
      "externalReferences": [
        {
          "url": "https://github.com/alecthomas/units",
          "type": "vcs"
        }
      ]
    },
    {
      "type": "library",
      "bom-ref": "pkg:golang/github.com/apex/go-apex@v1.0.0",
      "name": "github.com/apex/go-apex",
      "version": "v1.0.0",
      "scope": "required",
      "hashes": [
        {
          "alg": "SHA-256",
          "content": "126f3ebe8e165c4429ec67cd0d3af7e47467139b0561c469913383a558d4dfd0"
        }
      ],
      "purl": "pkg:golang/github.com/apex/go-apex@v1.0.0",
      "externalReferences": [
        {
          "url": "https://github.com/apex/go-apex",
          "type": "vcs"
        }
      ]
    },
    {
      "type": "library",
      "bom-ref": "pkg:golang/github.com/apex/log@v1.3.0",
      "name": "github.com/apex/log",
      "version": "v1.3.0",
      "scope": "required",
      "hashes": [
        {
          "alg": "SHA-256",
          "content": "d5fc9f6cfbd4c03d749cca21de163a317cef652849427f7f724ec04e002de690"
        }
      ],
      "purl": "pkg:golang/github.com/apex/log@v1.3.0",
      "externalReferences": [
        {
          "url": "https://github.com/apex/log",
          "type": "vcs"
        }
      ]
    },
    {
      "type": "library",
      "bom-ref": "pkg:golang/github.com/atotto/clipboard@v0.1.2",
      "name": "github.com/atotto/clipboard",
      "version": "v0.1.2",
      "scope": "required",
      "hashes": [
        {
          "alg": "SHA-256",
          "content": "6190ad16ee487bca97d959954c19eba8b4a253d5ce5b0a8d466753de0210cdb6"
        }
      ],
      "purl": "pkg:golang/github.com/atotto/clipboard@v0.1.2",
      "externalReferences": [
        {
          "url": "https://github.com/atotto/clipboard",
          "type": "vcs"
        }
      ]
    },
    {
      "type": "library",
      "bom-ref": "pkg:golang/github.com/aws/aws-sdk-go@v1.31.9",
      "name": "github.com/aws/aws-sdk-go",
      "version": "v1.31.9",
      "scope": "required",
      "hashes": [
        {
          "alg": "SHA-256",
          "content": "9fe6f7e327557e00b7d23d109baf7269aa668de8d03d6d81a03057ed4cbfb4b2"
        }
      ],
      "purl": "pkg:golang/github.com/aws/aws-sdk-go@v1.31.9",
      "externalReferences": [
        {
          "url": "https://github.com/aws/aws-sdk-go",
          "type": "vcs"
        }
      ]
    },
    {
      "type": "library",
      "bom-ref": "pkg:golang/github.com/aybabtme/rgbterm@v0.0.0-20170906152045-cc83f3b3ce59",
      "name": "github.com/aybabtme/rgbterm",
      "version": "v0.0.0-20170906152045-cc83f3b3ce59",
      "scope": "required",
      "hashes": [
        {
          "alg": "SHA-256",
          "content": "596079efa04de7335265cfccf5dff5d29a84c79547361690ff23950249a3e58a"
        }
      ],
      "purl": "pkg:golang/github.com/aybabtme/rgbterm@v0.0.0-20170906152045-cc83f3b3ce59",
      "externalReferences": [
        {
          "url": "https://github.com/aybabtme/rgbterm",
          "type": "vcs"
        }
      ]
    },
    {
      "type": "library",
      "bom-ref": "pkg:golang/github.com/buger/goterm@v0.0.0-20181115115552-c206103e1f37",
      "name": "github.com/buger/goterm",
      "version": "v0.0.0-20181115115552-c206103e1f37",
      "scope": "required",
      "hashes": [
        {
          "alg": "SHA-256",
          "content": "bb1c6dae7002a88f732b810d0cc7f45a95df52c1cfe55f258aeab941d8032125"
        }
      ],
      "purl": "pkg:golang/github.com/buger/goterm@v0.0.0-20181115115552-c206103e1f37",
      "externalReferences": [
        {
          "url": "https://github.com/buger/goterm",
          "type": "vcs"
        }
      ]
    },
    {
      "type": "library",
      "bom-ref": "pkg:golang/github.com/c4milo/unpackit@v0.0.0-20170704181138-4ed373e9ef1c",
      "name": "github.com/c4milo/unpackit",
      "version": "v0.0.0-20170704181138-4ed373e9ef1c",
      "scope": "required",
      "hashes": [
        {
          "alg": "SHA-256",
          "content": "6a9acba8c9fb8123d3faf7434a5fbf13a34b12e02bc03fc9ec859df1b26de654"
        }
      ],
      "purl": "pkg:golang/github.com/c4milo/unpackit@v0.0.0-20170704181138-4ed373e9ef1c",
      "externalReferences": [
        {
          "url": "https://github.com/c4milo/unpackit",
          "type": "vcs"
        }
      ]
    },
    {
      "type": "library",
      "bom-ref": "pkg:golang/github.com/danwakefield/fnmatch@v0.0.0-20160403171240-cbb64ac3d964",
      "name": "github.com/danwakefield/fnmatch",
      "version": "v0.0.0-20160403171240-cbb64ac3d964",
      "scope": "required",
      "hashes": [
        {
          "alg": "SHA-256",
          "content": "cb91c2f6ff771f910f2aa692d54615835b986a1e577f9d6605f22859e8429544"
        }
      ],
      "purl": "pkg:golang/github.com/danwakefield/fnmatch@v0.0.0-20160403171240-cbb64ac3d964",
      "externalReferences": [
        {
          "url": "https://github.com/danwakefield/fnmatch",
          "type": "vcs"
        }
      ]
    },
    {
      "type": "library",
      "bom-ref": "pkg:golang/github.com/dchest/uniuri@v0.0.0-20160212164326-8902c56451e9",
      "name": "github.com/dchest/uniuri",
      "version": "v0.0.0-20160212164326-8902c56451e9",
      "scope": "required",
      "hashes": [
        {
          "alg": "SHA-256",
          "content": "ef894b351cefb1d22591381f0d232e68f8c1af871fea4ee9c10400366ff22ca5"
        }
      ],
      "purl": "pkg:golang/github.com/dchest/uniuri@v0.0.0-20160212164326-8902c56451e9",
      "externalReferences": [
        {
          "url": "https://github.com/dchest/uniuri",
          "type": "vcs"
        }
      ]
    },
    {
      "type": "library",
      "bom-ref": "pkg:golang/github.com/denormal/go-gitignore@v0.0.0-20170315120618-40de3d33f668",
      "name": "github.com/denormal/go-gitignore",
      "version": "v0.0.0-20170315120618-40de3d33f668",
      "scope": "required",
      "hashes": [
        {
          "alg": "SHA-256",
          "content": "249735c02243fa68dab80eae586287830c29a2a9ee1ec1510959c60d0bb201b2"
        }
      ],
      "purl": "pkg:golang/github.com/denormal/go-gitignore@v0.0.0-20170315120618-40de3d33f668",
      "externalReferences": [
        {
          "url": "https://github.com/denormal/go-gitignore",
          "type": "vcs"
        }
      ]
    },
    {
      "type": "library",
      "bom-ref": "pkg:golang/github.com/dsnet/compress@v0.0.0-20171208185109-cc9eb1d7ad76",
      "name": "github.com/dsnet/compress",
      "version": "v0.0.0-20171208185109-cc9eb1d7ad76",
      "scope": "required",
      "hashes": [
        {
          "alg": "SHA-256",
          "content": "797fa974f3e50f6efd39681dc7b7fa2aa21148e36e2bb7a093e8c3c7b38cdc07"
        }
      ],
      "purl": "pkg:golang/github.com/dsnet/compress@v0.0.0-20171208185109-cc9eb1d7ad76",
      "externalReferences": [
        {
          "url": "https://github.com/dsnet/compress",
          "type": "vcs"
        }
      ]
    },
    {
      "type": "library",
      "bom-ref": "pkg:golang/github.com/dustin/go-humanize@v0.0.0-20171012181109-77ed807830b4",
      "name": "github.com/dustin/go-humanize",
      "version": "v0.0.0-20171012181109-77ed807830b4",
      "scope": "required",
      "hashes": [
        {
          "alg": "SHA-256",
          "content": "2386037ef1d73d877c3966a5f5fe028316ea347d816dcaa4eb0b8b4f2fa27b0c"
        }
      ],
      "purl": "pkg:golang/github.com/dustin/go-humanize@v0.0.0-20171012181109-77ed807830b4",
      "externalReferences": [
        {
          "url": "https://github.com/dustin/go-humanize",
          "type": "vcs"
        }
      ]
    },
    {
      "type": "library",
      "bom-ref": "pkg:golang/github.com/facebookgo/freeport@v0.0.0-20150612182905-d4adf43b75b9",
      "name": "github.com/facebookgo/freeport",
      "version": "v0.0.0-20150612182905-d4adf43b75b9",
      "scope": "required",
      "hashes": [
        {
          "alg": "SHA-256",
          "content": "c1691efd150297b5518d08703e547fbf4825657358cc11dd354cdffc09b63668"
        }
      ],
      "purl": "pkg:golang/github.com/facebookgo/freeport@v0.0.0-20150612182905-d4adf43b75b9",
      "externalReferences": [
        {
          "url": "https://github.com/facebookgo/freeport",
          "type": "vcs"
        }
      ]
    },
    {
      "type": "library",
      "bom-ref": "pkg:golang/github.com/fanyang01/radix@v0.0.0-20160415095728-e1747dd9eeac",
      "name": "github.com/fanyang01/radix",
      "version": "v0.0.0-20160415095728-e1747dd9eeac",
      "scope": "required",
      "hashes": [
        {
          "alg": "SHA-256",
          "content": "7d8456efcc47fcd7a9301e7efb490eef8917adaecc7320502ac9d695167285a4"
        }
      ],
      "purl": "pkg:golang/github.com/fanyang01/radix@v0.0.0-20160415095728-e1747dd9eeac",
      "externalReferences": [
        {
          "url": "https://github.com/fanyang01/radix",
          "type": "vcs"
        }
      ]
    },
    {
      "type": "library",
      "bom-ref": "pkg:golang/github.com/fatih/color@v1.7.0",
      "name": "github.com/fatih/color",
      "version": "v1.7.0",
      "scope": "required",
      "hashes": [
        {
          "alg": "SHA-256",
          "content": "0e4583e284b60fc2c61a04d0e88bf02495d22f9569d9f7dc420e7c9c5577f18b"
        }
      ],
      "purl": "pkg:golang/github.com/fatih/color@v1.7.0",
      "externalReferences": [
        {
          "url": "https://github.com/fatih/color",
          "type": "vcs"
        }
      ]
    },
    {
      "type": "library",
      "bom-ref": "pkg:golang/github.com/golang/sync@v0.0.0-20170927054112-8e0aa688b654",
      "name": "github.com/golang/sync",
      "version": "v0.0.0-20170927054112-8e0aa688b654",
      "scope": "required",
      "hashes": [
        {
          "alg": "SHA-256",
          "content": "6f34758aceee4bc139238bc017b42ed936920e862a9de3289939c0b9eb1a307c"
        }
      ],
      "purl": "pkg:golang/github.com/golang/sync@v0.0.0-20170927054112-8e0aa688b654",
      "externalReferences": [
        {
          "url": "https://github.com/golang/sync",
          "type": "vcs"
        }
      ]
    },
    {
      "type": "library",
      "bom-ref": "pkg:golang/github.com/google/go-github@v14.0.0",
      "name": "github.com/google/go-github",
      "version": "v14.0.0",
      "scope": "required",
      "hashes": [
        {
          "alg": "SHA-256",
          "content": "b6307d9488226fbc5fb37e0b72d4b62a7d7bcc127366f1e20f91ab4f233c64ed"
        }
      ],
      "purl": "pkg:golang/github.com/google/go-github@v14.0.0",
      "externalReferences": [
        {
          "url": "https://github.com/google/go-github",
          "type": "vcs"
        }
      ]
    },
    {
      "type": "library",
      "bom-ref": "pkg:golang/github.com/google/go-querystring@v0.0.0-20170111101155-53e6ce116135",
      "name": "github.com/google/go-querystring",
      "version": "v0.0.0-20170111101155-53e6ce116135",
      "scope": "required",
      "hashes": [
        {
          "alg": "SHA-256",
          "content": "ccb4cb8e468e1441483b16390562c52f087e70bf2f3815b85c9d9aa8b13f4dfd"
        }
      ],
      "purl": "pkg:golang/github.com/google/go-querystring@v0.0.0-20170111101155-53e6ce116135",
      "externalReferences": [
        {
          "url": "https://github.com/google/go-querystring",
          "type": "vcs"
        }
      ]
    },
    {
      "type": "library",
      "bom-ref": "pkg:golang/github.com/hashicorp/go-uuid@v0.0.0-20160717022140-64130c7a86d7",
      "name": "github.com/hashicorp/go-uuid",
      "version": "v0.0.0-20160717022140-64130c7a86d7",
      "scope": "required",
      "hashes": [
        {
          "alg": "SHA-256",
          "content": "c3c733b840de159a3b09d67600f2cedb8b536e3ccee1c3574df0a405db54fb08"
        }
      ],
      "purl": "pkg:golang/github.com/hashicorp/go-uuid@v0.0.0-20160717022140-64130c7a86d7",
      "externalReferences": [
        {
          "url": "https://github.com/hashicorp/go-uuid",
          "type": "vcs"
        }
      ]
    },
    {
      "type": "library",
      "bom-ref": "pkg:golang/github.com/jehiah/go-strftime@v0.0.0-20151206194810-2efbe75097a5",
      "name": "github.com/jehiah/go-strftime",
      "version": "v0.0.0-20151206194810-2efbe75097a5",
      "scope": "required",
      "hashes": [
        {
          "alg": "SHA-256",
          "content": "1356e9c9c7f381f74958adf6f863890d856b7a9d9f6d7e9c37ab5889777e0866"
        }
      ],
      "purl": "pkg:golang/github.com/jehiah/go-strftime@v0.0.0-20151206194810-2efbe75097a5",
      "externalReferences": [
        {
          "url": "https://github.com/jehiah/go-strftime",
          "type": "vcs"
        }
      ]
    },
    {
      "type": "library",
      "bom-ref": "pkg:golang/github.com/jmespath/go-jmespath@v0.3.0",
      "name": "github.com/jmespath/go-jmespath",
      "version": "v0.3.0",
      "scope": "required",
      "hashes": [
        {
          "alg": "SHA-256",
          "content": "392d7689e1bad5fb02839faa2c9f92b16f4d89cc4d920ddbdb93b24f6c827947"
        }
      ],
      "purl": "pkg:golang/github.com/jmespath/go-jmespath@v0.3.0",
      "externalReferences": [
        {
          "url": "https://github.com/jmespath/go-jmespath",
          "type": "vcs"
        }
      ]
    },
    {
      "type": "library",
      "bom-ref": "pkg:golang/github.com/klauspost/compress@v1.2.1",
      "name": "github.com/klauspost/compress",
      "version": "v1.2.1",
      "scope": "required",
      "hashes": [
        {
          "alg": "SHA-256",
          "content": "cf545ae882a83ed21e540f06574482421ba8e93e0406394bf55c289d9f0d601a"
        }
      ],
      "purl": "pkg:golang/github.com/klauspost/compress@v1.2.1",
      "externalReferences": [
        {
          "url": "https://github.com/klauspost/compress",
          "type": "vcs"
        }
      ]
    },
    {
      "type": "library",
      "bom-ref": "pkg:golang/github.com/klauspost/cpuid@v0.0.0-20170728055534-ae7887de9fa5",
      "name": "github.com/klauspost/cpuid",
      "version": "v0.0.0-20170728055534-ae7887de9fa5",
      "scope": "required",
      "hashes": [
        {
          "alg": "SHA-256",
          "content": "d94d07cd8f0127c855c03288ce9ef2e2fa11f425ff9ef71fca62e68365223a2a"
        }
      ],
      "purl": "pkg:golang/github.com/klauspost/cpuid@v0.0.0-20170728055534-ae7887de9fa5",
      "externalReferences": [
        {
          "url": "https://github.com/klauspost/cpuid",
          "type": "vcs"
        }
      ]
    },
    {
      "type": "library",
      "bom-ref": "pkg:golang/github.com/klauspost/crc32@v0.0.0-20161016154125-cb6bfca970f6",
      "name": "github.com/klauspost/crc32",
      "version": "v0.0.0-20161016154125-cb6bfca970f6",
      "scope": "required",
      "hashes": [
        {
          "alg": "SHA-256",
          "content": "280675056d930a64fa3d18a10cfa68708cb5413b6c02caf1e939de53fe3e08c8"
        }
      ],
      "purl": "pkg:golang/github.com/klauspost/crc32@v0.0.0-20161016154125-cb6bfca970f6",
      "externalReferences": [
        {
          "url": "https://github.com/klauspost/crc32",
          "type": "vcs"
        }
      ]
    },
    {
      "type": "library",
      "bom-ref": "pkg:golang/github.com/klauspost/pgzip@v0.0.0-20170402124221-0bf5dcad4ada",
      "name": "github.com/klauspost/pgzip",
      "version": "v0.0.0-20170402124221-0bf5dcad4ada",
      "scope": "required",
      "hashes": [
        {
          "alg": "SHA-256",
          "content": "647860472afef4b6307ee5828694930827bfd3b576e8b1049532945e3fb67c08"
        }
      ],
      "purl": "pkg:golang/github.com/klauspost/pgzip@v0.0.0-20170402124221-0bf5dcad4ada",
      "externalReferences": [
        {
          "url": "https://github.com/klauspost/pgzip",
          "type": "vcs"
        }
      ]
    },
    {
      "type": "library",
      "bom-ref": "pkg:golang/github.com/mattn/go-colorable@v0.1.2",
      "name": "github.com/mattn/go-colorable",
      "version": "v0.1.2",
      "scope": "required",
      "hashes": [
        {
          "alg": "SHA-256",
          "content": "fdb0bdc968a465700bf6e25dba56d27f254d211de7dedad797ebfcfb5b31f265"
        }
      ],
      "purl": "pkg:golang/github.com/mattn/go-colorable@v0.1.2",
      "externalReferences": [
        {
          "url": "https://github.com/mattn/go-colorable",
          "type": "vcs"
        }
      ]
    },
    {
      "type": "library",
      "bom-ref": "pkg:golang/github.com/mattn/go-isatty@v0.0.9",
      "name": "github.com/mattn/go-isatty",
      "version": "v0.0.9",
      "scope": "required",
      "hashes": [
        {
          "alg": "SHA-256",
          "content": "779512fe60eca204865b7ec8576f7787ffd915a79a8dbebd87e10716cbf6c468"
        }
      ],
      "purl": "pkg:golang/github.com/mattn/go-isatty@v0.0.9",
      "externalReferences": [
        {
          "url": "https://github.com/mattn/go-isatty",
          "type": "vcs"
        }
      ]
    },
    {
      "type": "library",
      "bom-ref": "pkg:golang/github.com/mgutz/ansi@v0.0.0-20170206155736-9520e82c474b",
      "name": "github.com/mgutz/ansi",
      "version": "v0.0.0-20170206155736-9520e82c474b",
      "scope": "required",
      "hashes": [
        {
          "alg": "SHA-256",
          "content": "8fbfb51e90054b5cf2e7e438ab1d5f5a1f748132b088de10086a18f535b2c8ee"
        }
      ],
      "purl": "pkg:golang/github.com/mgutz/ansi@v0.0.0-20170206155736-9520e82c474b",
      "externalReferences": [
        {
          "url": "https://github.com/mgutz/ansi",
          "type": "vcs"
        }
      ]
    },
    {
      "type": "library",
      "bom-ref": "pkg:golang/github.com/mitchellh/go-homedir@v0.0.0-20161203194507-b8bc1bf76747",
      "name": "github.com/mitchellh/go-homedir",
      "version": "v0.0.0-20161203194507-b8bc1bf76747",
      "scope": "required",
      "hashes": [
        {
          "alg": "SHA-256",
          "content": "790a31e118787b0245fa6a983f10a4981022ad19cf687101dba52436e3f28e59"
        }
      ],
      "purl": "pkg:golang/github.com/mitchellh/go-homedir@v0.0.0-20161203194507-b8bc1bf76747",
      "externalReferences": [
        {
          "url": "https://github.com/mitchellh/go-homedir",
          "type": "vcs"
        }
      ]
    },
    {
      "type": "library",
      "bom-ref": "pkg:golang/github.com/pascaldekloe/name@v0.0.0-20170812100307-81013e77fe79",
      "name": "github.com/pascaldekloe/name",
      "version": "v0.0.0-20170812100307-81013e77fe79",
      "scope": "required",
      "hashes": [
        {
          "alg": "SHA-256",
          "content": "d351f6e104e3ad8e7a99557a32ce1b6e44fecf7ea70be735df70afc5edfdd6f4"
        }
      ],
      "purl": "pkg:golang/github.com/pascaldekloe/name@v0.0.0-20170812100307-81013e77fe79",
      "externalReferences": [
        {
          "url": "https://github.com/pascaldekloe/name",
          "type": "vcs"
        }
      ]
    },
    {
      "type": "library",
      "bom-ref": "pkg:golang/github.com/pkg/browser@v0.0.0-20180916011732-0a3d74bf9ce4",
      "name": "github.com/pkg/browser",
      "version": "v0.0.0-20180916011732-0a3d74bf9ce4",
      "scope": "required",
      "hashes": [
        {
          "alg": "SHA-256",
          "content": "e3d94e5e619a52957d173de077b4c5658d74e8a5653d56b98dc603d606907fdf"
        }
      ],
      "purl": "pkg:golang/github.com/pkg/browser@v0.0.0-20180916011732-0a3d74bf9ce4",
      "externalReferences": [
        {
          "url": "https://github.com/pkg/browser",
          "type": "vcs"
        }
      ]
    },
    {
      "type": "library",
      "bom-ref": "pkg:golang/github.com/pkg/errors@v0.9.1",
      "name": "github.com/pkg/errors",
      "version": "v0.9.1",
      "scope": "required",
      "hashes": [
        {
          "alg": "SHA-256",
          "content": "14404bc75cd2db5e28c298f2eeab017a2c5b51192e850030acae54c0b193c2de"
        }
      ],
      "purl": "pkg:golang/github.com/pkg/errors@v0.9.1",
      "externalReferences": [
        {
          "url": "https://github.com/pkg/errors",
          "type": "vcs"
        }
      ]
    },
    {
      "type": "library",
      "bom-ref": "pkg:golang/github.com/rs/cors@v0.0.0-20180726230524-02026070ea74",
      "name": "github.com/rs/cors",
      "version": "v0.0.0-20180726230524-02026070ea74",
      "scope": "required",
      "hashes": [
        {
          "alg": "SHA-256",
          "content": "d94aa80ea6b8306040336fc3b0795912fce9b9b579b388dc322f2d5e42ed4af1"
        }
      ],
      "purl": "pkg:golang/github.com/rs/cors@v0.0.0-20180726230524-02026070ea74",
      "externalReferences": [
        {
          "url": "https://github.com/rs/cors",
          "type": "vcs"
        }
      ]
    },
    {
      "type": "library",
      "bom-ref": "pkg:golang/github.com/segmentio/analytics-go@v0.0.0-20160426181448-2d840d861c32",
      "name": "github.com/segmentio/analytics-go",
      "version": "v0.0.0-20160426181448-2d840d861c32",
      "scope": "required",
      "hashes": [
        {
          "alg": "SHA-256",
          "content": "fb4b03047b88b1495eadf3469a0829adcfda080150e59bcf45e40e1c74d5654b"
        }
      ],
      "purl": "pkg:golang/github.com/segmentio/analytics-go@v0.0.0-20160426181448-2d840d861c32",
      "externalReferences": [
        {
          "url": "https://github.com/segmentio/analytics-go",
          "type": "vcs"
        }
      ]
    },
    {
      "type": "library",
      "bom-ref": "pkg:golang/github.com/segmentio/backo-go@v0.0.0-20160424052352-204274ad699c",
      "name": "github.com/segmentio/backo-go",
      "version": "v0.0.0-20160424052352-204274ad699c",
      "scope": "required",
      "hashes": [
        {
          "alg": "SHA-256",
          "content": "aec45301c091e4278d2e4be00554a34280c6451b7a92082c13a5d806a0afd8a4"
        }
      ],
      "purl": "pkg:golang/github.com/segmentio/backo-go@v0.0.0-20160424052352-204274ad699c",
      "externalReferences": [
        {
          "url": "https://github.com/segmentio/backo-go",
          "type": "vcs"
        }
      ]
    },
    {
      "type": "library",
      "bom-ref": "pkg:golang/github.com/segmentio/go-snakecase@v1.0.0",
      "name": "github.com/segmentio/go-snakecase",
      "version": "v1.0.0",
      "scope": "required",
      "hashes": [
        {
          "alg": "SHA-256",
          "content": "152787a4fd2c04bdcef8c0a9c6f419ad2e5ae75580922ea0a68b19bb0544f4be"
        }
      ],
      "purl": "pkg:golang/github.com/segmentio/go-snakecase@v1.0.0",
      "externalReferences": [
        {
          "url": "https://github.com/segmentio/go-snakecase",
          "type": "vcs"
        }
      ]
    },
    {
      "type": "library",
      "bom-ref": "pkg:golang/github.com/stripe/stripe-go@v28.5.0",
      "name": "github.com/stripe/stripe-go",
      "version": "v28.5.0",
      "scope": "required",
      "hashes": [
        {
          "alg": "SHA-256",
          "content": "a41b5a407de3ed454628d3745178f143077d0b202c3a5416262d2f083a01d8f4"
        }
      ],
      "purl": "pkg:golang/github.com/stripe/stripe-go@v28.5.0",
      "externalReferences": [
        {
          "url": "https://github.com/stripe/stripe-go",
          "type": "vcs"
        }
      ]
    },
    {
      "type": "library",
      "bom-ref": "pkg:golang/github.com/timewasted/go-accept-headers@v0.0.0-20130320203746-c78f304b1b09",
      "name": "github.com/timewasted/go-accept-headers",
      "version": "v0.0.0-20130320203746-c78f304b1b09",
      "scope": "required",
      "hashes": [
        {
          "alg": "SHA-256",
          "content": "415c5bc7997fd29cdc89660eca78b140cb5484f602dd8283e8471494eb201aac"
        }
      ],
      "purl": "pkg:golang/github.com/timewasted/go-accept-headers@v0.0.0-20130320203746-c78f304b1b09",
      "externalReferences": [
        {
          "url": "https://github.com/timewasted/go-accept-headers",
          "type": "vcs"
        }
      ]
    },
    {
      "type": "library",
      "bom-ref": "pkg:golang/github.com/tj/aws@v0.1.4",
      "name": "github.com/tj/aws",
      "version": "v0.1.4",
      "scope": "required",
      "hashes": [
        {
          "alg": "SHA-256",
          "content": "0d9240ae68ee83437b12f4314acf16de0203cf553317c3de104d8c6d33e103cd"
        }
      ],
      "purl": "pkg:golang/github.com/tj/aws@v0.1.4",
      "externalReferences": [
        {
          "url": "https://github.com/tj/aws",
          "type": "vcs"
        }
      ]
    },
    {
      "type": "library",
      "bom-ref": "pkg:golang/github.com/tj/backoff@v1.0.0",
      "name": "github.com/tj/backoff",
      "version": "v1.0.0",
      "scope": "required",
      "hashes": [
        {
          "alg": "SHA-256",
          "content": "662e63affff47ff66d157cd7036b31e2977f9f729330ae9bdf13b60f5cb9d08e"
        }
      ],
      "purl": "pkg:golang/github.com/tj/backoff@v1.0.0",
      "externalReferences": [
        {
          "url": "https://github.com/tj/backoff",
          "type": "vcs"
        }
      ]
    },
    {
      "type": "library",
      "bom-ref": "pkg:golang/github.com/tj/go@v1.8.6",
      "name": "github.com/tj/go",
      "version": "v1.8.6",
      "scope": "required",
      "hashes": [
        {
          "alg": "SHA-256",
          "content": "1d9f9757ec01e2fa8de72e552e866a614b94253045fb691b941aeeeda51ae381"
        }
      ],
      "purl": "pkg:golang/github.com/tj/go@v1.8.6",
      "externalReferences": [
        {
          "url": "https://github.com/tj/go",
          "type": "vcs"
        }
      ]
    },
    {
      "type": "library",
      "bom-ref": "pkg:golang/github.com/tj/go-archive@v1.0.2",
      "name": "github.com/tj/go-archive",
      "version": "v1.0.2",
      "scope": "required",
      "hashes": [
        {
          "alg": "SHA-256",
          "content": "aabb42f410f5aebc6e694003dec8336aa92df7c61e19e944d9a240c199452f6e"
        }
      ],
      "purl": "pkg:golang/github.com/tj/go-archive@v1.0.2",
      "externalReferences": [
        {
          "url": "https://github.com/tj/go-archive",
          "type": "vcs"
        }
      ]
    },
    {
      "type": "library",
      "bom-ref": "pkg:golang/github.com/tj/go-cli-analytics@v1.0.0",
      "name": "github.com/tj/go-cli-analytics",
      "version": "v1.0.0",
      "scope": "required",
      "hashes": [
        {
          "alg": "SHA-256",
          "content": "68e7ff9932a8c8c4b2f159ef2ce4cd3c3c089a3c53ee6342ee2be6a53991b5d8"
        }
      ],
      "purl": "pkg:golang/github.com/tj/go-cli-analytics@v1.0.0",
      "externalReferences": [
        {
          "url": "https://github.com/tj/go-cli-analytics",
          "type": "vcs"
        }
      ]
    },
    {
      "type": "library",
      "bom-ref": "pkg:golang/github.com/tj/go-headers@v0.0.0-20170630155323-711a635412ca",
      "name": "github.com/tj/go-headers",
      "version": "v0.0.0-20170630155323-711a635412ca",
      "scope": "required",
      "hashes": [
        {
          "alg": "SHA-256",
          "content": "c5c02ba99d4fad5cff607f409c477cbc2b84558e2f18aa9e0bacc53734b9e8c8"
        }
      ],
      "purl": "pkg:golang/github.com/tj/go-headers@v0.0.0-20170630155323-711a635412ca",
      "externalReferences": [
        {
          "url": "https://github.com/tj/go-headers",
          "type": "vcs"
        }
      ]
    },
    {
      "type": "library",
      "bom-ref": "pkg:golang/github.com/tj/go-progress@v0.0.0-20171031175334-333acdb6fe9f",
      "name": "github.com/tj/go-progress",
      "version": "v0.0.0-20171031175334-333acdb6fe9f",
      "scope": "required",
      "hashes": [
        {
          "alg": "SHA-256",
          "content": "69dacd25e8e7fb5e53dcf3effccdac70270571cf56cc265874bc36e672e5efa6"
        }
      ],
      "purl": "pkg:golang/github.com/tj/go-progress@v0.0.0-20171031175334-333acdb6fe9f",
      "externalReferences": [
        {
          "url": "https://github.com/tj/go-progress",
          "type": "vcs"
        }
      ]
    },
    {
      "type": "library",
      "bom-ref": "pkg:golang/github.com/tj/go-spin@v1.1.0",
      "name": "github.com/tj/go-spin",
      "version": "v1.1.0",
      "scope": "required",
      "hashes": [
        {
          "alg": "SHA-256",
          "content": "96175666cbc89b1bd9dead42e4e201eddef60ee3b03f83b635d060f4fcb335db"
        }
      ],
      "purl": "pkg:golang/github.com/tj/go-spin@v1.1.0",
      "externalReferences": [
        {
          "url": "https://github.com/tj/go-spin",
          "type": "vcs"
        }
      ]
    },
    {
      "type": "library",
      "bom-ref": "pkg:golang/github.com/tj/go-update@v2.2.4",
      "name": "github.com/tj/go-update",
      "version": "v2.2.4",
      "scope": "required",
      "hashes": [
        {
          "alg": "SHA-256",
          "content": "03a042d3eec8e39a6c5173a60ff2ce459e1b34822b05f8c93cd79acbf7e72770"
        }
      ],
      "purl": "pkg:golang/github.com/tj/go-update@v2.2.4",
      "externalReferences": [
        {
          "url": "https://github.com/tj/go-update",
          "type": "vcs"
        }
      ]
    },
    {
      "type": "library",
      "bom-ref": "pkg:golang/github.com/tj/kingpin@v2.5.0",
      "name": "github.com/tj/kingpin",
      "version": "v2.5.0",
      "scope": "required",
      "hashes": [
        {
          "alg": "SHA-256",
          "content": "3fe8ce7eca63caac4d9cbf7da3fe329770e80753a9a1026c58c714c6b445fb62"
        }
      ],
      "purl": "pkg:golang/github.com/tj/kingpin@v2.5.0",
      "externalReferences": [
        {
          "url": "https://github.com/tj/kingpin",
          "type": "vcs"
        }
      ]
    },
    {
      "type": "library",
      "bom-ref": "pkg:golang/github.com/tj/survey@v2.0.6",
      "name": "github.com/tj/survey",
      "version": "v2.0.6",
      "scope": "required",
      "hashes": [
        {
          "alg": "SHA-256",
          "content": "06673aa68d866e3ae4464bb0f2e411797c8501ebb2b86bdf2380d504caaf84fb"
        }
      ],
      "purl": "pkg:golang/github.com/tj/survey@v2.0.6",
      "externalReferences": [
        {
          "url": "https://github.com/tj/survey",
          "type": "vcs"
        }
      ]
    },
    {
      "type": "library",
      "bom-ref": "pkg:golang/github.com/ulikunitz/xz@v0.5.4",
      "name": "github.com/ulikunitz/xz",
      "version": "v0.5.4",
      "scope": "required",
      "hashes": [
        {
          "alg": "SHA-256",
          "content": "cc04c2d8ea19f07d536659771696d7fa293099a75b3baf7d3c4d3a708926f685"
        }
      ],
      "purl": "pkg:golang/github.com/ulikunitz/xz@v0.5.4",
      "externalReferences": [
        {
          "url": "https://github.com/ulikunitz/xz",
          "type": "vcs"
        }
      ]
    },
    {
      "type": "library",
      "bom-ref": "pkg:golang/github.com/xtgo/uuid@v0.0.0-20140804021211-a0b114877d4c",
      "name": "github.com/xtgo/uuid",
      "version": "v0.0.0-20140804021211-a0b114877d4c",
      "scope": "required",
      "hashes": [
        {
          "alg": "SHA-256",
          "content": "de56d950c6cc886516fcb3247ec10006c739ccd4fdf9bd42bec271e3b27327c8"
        }
      ],
      "purl": "pkg:golang/github.com/xtgo/uuid@v0.0.0-20140804021211-a0b114877d4c",
      "externalReferences": [
        {
          "url": "https://github.com/xtgo/uuid",
          "type": "vcs"
        }
      ]
    },
    {
      "type": "library",
      "bom-ref": "pkg:golang/golang.org/x/net@v0.0.0-20200202094626-16171245cfb2",
      "name": "golang.org/x/net",
      "version": "v0.0.0-20200202094626-16171245cfb2",
      "scope": "required",
      "hashes": [
        {
          "alg": "SHA-256",
          "content": "0821f820e4d37dec168c63a54a9fb319c8eeb512a5044650eb04e7f28cc8fe72"
        }
      ],
      "purl": "pkg:golang/golang.org/x/net@v0.0.0-20200202094626-16171245cfb2"
    },
    {
      "type": "library",
      "bom-ref": "pkg:golang/golang.org/x/sys@v0.0.0-20190813064441-fde4db37ae7a",
      "name": "golang.org/x/sys",
      "version": "v0.0.0-20190813064441-fde4db37ae7a",
      "scope": "required",
      "hashes": [
        {
          "alg": "SHA-256",
          "content": "69839a6ce405a7a563e96d45f3469f7d352f3bd531989471f0ad20b1f0010724"
        }
      ],
      "purl": "pkg:golang/golang.org/x/sys@v0.0.0-20190813064441-fde4db37ae7a"
    },
    {
      "type": "library",
      "bom-ref": "pkg:golang/github.com/apex/up",
      "group": "github.com/apex",
      "name": "up",
      "version": "",
      "description": "",
      "scope": "required",
      "purl": "pkg:golang/github.com/apex/up"
    },
    {
      "type": "library",
      "bom-ref": "pkg:golang/github.com/tj/kingpin@v2.5.0+incompatible",
      "group": "github.com/tj",
      "name": "kingpin",
      "version": "v2.5.0+incompatible",
      "description": "",
      "scope": "required",
      "hashes": [
        {
          "alg": "SHA-256",
          "content": "fdb69b466b509de2fea69f988b6e2cda0ba4b30a2468a091e207e319b9e31c19"
        }
      ],
      "purl": "pkg:golang/github.com/tj/kingpin@v2.5.0+incompatible"
    },
    {
      "type": "library",
      "bom-ref": "pkg:golang/github.com/tj/survey@v2.0.6+incompatible",
      "group": "github.com/tj",
      "name": "survey",
      "version": "v2.0.6+incompatible",
      "description": "",
      "scope": "required",
      "hashes": [
        {
          "alg": "SHA-256",
          "content": "bcb3f341800e296817aabe6357d96e41726ea172873a0d25b67e45130d4dcf47"
        }
      ],
      "purl": "pkg:golang/github.com/tj/survey@v2.0.6+incompatible"
    },
    {
      "type": "library",
      "bom-ref": "pkg:golang/github.com/stripe/stripe-go@v28.5.0+incompatible",
      "group": "github.com/stripe",
      "name": "stripe-go",
      "version": "v28.5.0+incompatible",
      "description": "",
      "scope": "required",
      "hashes": [
        {
          "alg": "SHA-256",
          "content": "0357506663bf432a579ac2f44fc6b161991237fb80fd3fc0eb8a5f29d0403226"
        }
      ],
      "purl": "pkg:golang/github.com/stripe/stripe-go@v28.5.0+incompatible"
    },
    {
      "type": "library",
      "bom-ref": "pkg:golang/github.com/tj/go-update@v2.2.4+incompatible",
      "group": "github.com/tj",
      "name": "go-update",
      "version": "v2.2.4+incompatible",
      "description": "",
      "scope": "required",
      "hashes": [
        {
          "alg": "SHA-256",
          "content": "c1a170c328808467b2d9ef9d368610fe22e121c16a8425bbccbffebc353558ba"
        }
      ],
      "purl": "pkg:golang/github.com/tj/go-update@v2.2.4+incompatible"
    },
    {
      "type": "library",
      "bom-ref": "pkg:golang/github.com/google/go-github@v14.0.0+incompatible",
      "group": "github.com/google",
      "name": "go-github",
      "version": "v14.0.0+incompatible",
      "description": "",
      "scope": "optional",
      "hashes": [
        {
          "alg": "SHA-256",
          "content": "ccb80e2e2f7c1f77e27d99fee389beba65eb4b9da5a151200b6000a678a0ad54"
        }
      ],
      "purl": "pkg:golang/github.com/google/go-github@v14.0.0+incompatible"
    }
  ],
  "dependencies": [
    {
      "ref": "pkg:golang/github.com/NYTimes/gziphandler@v0.0.0-20170916004738-97ae7fbaf816"
    },
    {
      "ref": "pkg:golang/github.com/alecthomas/template@v0.0.0-20160405071501-a0175ee3bccc"
    },
    {
      "ref": "pkg:golang/github.com/alecthomas/units@v0.0.0-20151022065526-2efee857e7cf"
    },
    {
      "ref": "pkg:golang/github.com/apex/go-apex@v1.0.0"
    },
    {
      "ref": "pkg:golang/github.com/apex/log@v1.3.0",
      "dependsOn": [
        "pkg:golang/github.com/aws/aws-sdk-go@v1.31.9",
        "pkg:golang/github.com/aybabtme/rgbterm@v0.0.0-20170906152045-cc83f3b3ce59",
        "pkg:golang/github.com/fatih/color@v1.7.0",
        "pkg:golang/github.com/mattn/go-colorable@v0.1.2",
        "pkg:golang/github.com/pkg/errors@v0.9.1",
        "pkg:golang/github.com/tj/go-spin@v1.1.0",
        "pkg:golang/golang.org/x/net@v0.0.0-20200202094626-16171245cfb2"
      ]
    },
    {
      "ref": "pkg:golang/github.com/atotto/clipboard@v0.1.2"
    },
    {
      "ref": "pkg:golang/github.com/aws/aws-sdk-go@v1.31.9",
      "dependsOn": [
        "pkg:golang/github.com/jmespath/go-jmespath@v0.3.0",
        "pkg:golang/github.com/pkg/errors@v0.9.1",
        "pkg:golang/golang.org/x/net@v0.0.0-20200202094626-16171245cfb2"
      ]
    },
    {
      "ref": "pkg:golang/github.com/aybabtme/rgbterm@v0.0.0-20170906152045-cc83f3b3ce59"
    },
    {
      "ref": "pkg:golang/github.com/buger/goterm@v0.0.0-20181115115552-c206103e1f37"
    },
    {
      "ref": "pkg:golang/github.com/c4milo/unpackit@v0.0.0-20170704181138-4ed373e9ef1c"
    },
    {
      "ref": "pkg:golang/github.com/danwakefield/fnmatch@v0.0.0-20160403171240-cbb64ac3d964"
    },
    {
      "ref": "pkg:golang/github.com/dchest/uniuri@v0.0.0-20160212164326-8902c56451e9"
    },
    {
      "ref": "pkg:golang/github.com/denormal/go-gitignore@v0.0.0-20170315120618-40de3d33f668"
    },
    {
      "ref": "pkg:golang/github.com/dsnet/compress@v0.0.0-20171208185109-cc9eb1d7ad76"
    },
    {
      "ref": "pkg:golang/github.com/dustin/go-humanize@v0.0.0-20171012181109-77ed807830b4"
    },
    {
      "ref": "pkg:golang/github.com/facebookgo/freeport@v0.0.0-20150612182905-d4adf43b75b9"
    },
    {
      "ref": "pkg:golang/github.com/fanyang01/radix@v0.0.0-20160415095728-e1747dd9eeac"
    },
    {
      "ref": "pkg:golang/github.com/fatih/color@v1.7.0"
    },
    {
      "ref": "pkg:golang/github.com/golang/sync@v0.0.0-20170927054112-8e0aa688b654"
    },
    {
      "ref": "pkg:golang/github.com/google/go-github@v14.0.0"
    },
    {
      "ref": "pkg:golang/github.com/google/go-querystring@v0.0.0-20170111101155-53e6ce116135"
    },
    {
      "ref": "pkg:golang/github.com/hashicorp/go-uuid@v0.0.0-20160717022140-64130c7a86d7"
    },
    {
      "ref": "pkg:golang/github.com/jehiah/go-strftime@v0.0.0-20151206194810-2efbe75097a5"
    },
    {
      "ref": "pkg:golang/github.com/jmespath/go-jmespath@v0.3.0"
    },
    {
      "ref": "pkg:golang/github.com/klauspost/compress@v1.2.1"
    },
    {
      "ref": "pkg:golang/github.com/klauspost/cpuid@v0.0.0-20170728055534-ae7887de9fa5"
    },
    {
      "ref": "pkg:golang/github.com/klauspost/crc32@v0.0.0-20161016154125-cb6bfca970f6"
    },
    {
      "ref": "pkg:golang/github.com/klauspost/pgzip@v0.0.0-20170402124221-0bf5dcad4ada"
    },
    {
      "ref": "pkg:golang/github.com/mattn/go-colorable@v0.1.2",
      "dependsOn": [
        "pkg:golang/github.com/mattn/go-isatty@v0.0.9"
      ]
    },
    {
      "ref": "pkg:golang/github.com/mattn/go-isatty@v0.0.9",
      "dependsOn": [
        "pkg:golang/golang.org/x/sys@v0.0.0-20190813064441-fde4db37ae7a"
      ]
    },
    {
      "ref": "pkg:golang/github.com/mgutz/ansi@v0.0.0-20170206155736-9520e82c474b"
    },
    {
      "ref": "pkg:golang/github.com/mitchellh/go-homedir@v0.0.0-20161203194507-b8bc1bf76747"
    },
    {
      "ref": "pkg:golang/github.com/pascaldekloe/name@v0.0.0-20170812100307-81013e77fe79"
    },
    {
      "ref": "pkg:golang/github.com/pkg/browser@v0.0.0-20180916011732-0a3d74bf9ce4"
    },
    {
      "ref": "pkg:golang/github.com/pkg/errors@v0.9.1"
    },
    {
      "ref": "pkg:golang/github.com/rs/cors@v0.0.0-20180726230524-02026070ea74"
    },
    {
      "ref": "pkg:golang/github.com/segmentio/analytics-go@v0.0.0-20160426181448-2d840d861c32"
    },
    {
      "ref": "pkg:golang/github.com/segmentio/backo-go@v0.0.0-20160424052352-204274ad699c"
    },
    {
      "ref": "pkg:golang/github.com/segmentio/go-snakecase@v1.0.0"
    },
    {
      "ref": "pkg:golang/github.com/stripe/stripe-go@v28.5.0"
    },
    {
      "ref": "pkg:golang/github.com/timewasted/go-accept-headers@v0.0.0-20130320203746-c78f304b1b09"
    },
    {
      "ref": "pkg:golang/github.com/tj/aws@v0.1.4",
      "dependsOn": [
        "pkg:golang/github.com/apex/log@v1.3.0",
        "pkg:golang/github.com/aws/aws-sdk-go@v1.31.9",
        "pkg:golang/github.com/pkg/errors@v0.9.1"
      ]
    },
    {
      "ref": "pkg:golang/github.com/tj/backoff@v1.0.0"
    },
    {
      "ref": "pkg:golang/github.com/tj/go@v1.8.6"
    },
    {
      "ref": "pkg:golang/github.com/tj/go-archive@v1.0.2"
    },
    {
      "ref": "pkg:golang/github.com/tj/go-cli-analytics@v1.0.0"
    },
    {
      "ref": "pkg:golang/github.com/tj/go-headers@v0.0.0-20170630155323-711a635412ca"
    },
    {
      "ref": "pkg:golang/github.com/tj/go-progress@v0.0.0-20171031175334-333acdb6fe9f"
    },
    {
      "ref": "pkg:golang/github.com/tj/go-spin@v1.1.0"
    },
    {
      "ref": "pkg:golang/github.com/tj/go-update@v2.2.4"
    },
    {
      "ref": "pkg:golang/github.com/tj/kingpin@v2.5.0"
    },
    {
      "ref": "pkg:golang/github.com/tj/survey@v2.0.6"
    },
    {
      "ref": "pkg:golang/github.com/ulikunitz/xz@v0.5.4"
    },
    {
      "ref": "pkg:golang/github.com/xtgo/uuid@v0.0.0-20140804021211-a0b114877d4c"
    },
    {
      "ref": "pkg:golang/golang.org/x/net@v0.0.0-20200202094626-16171245cfb2",
      "dependsOn": [
        "pkg:golang/golang.org/x/sys@v0.0.0-20190813064441-fde4db37ae7a"
      ]
    },
    {
      "ref": "pkg:golang/golang.org/x/sys@v0.0.0-20190813064441-fde4db37ae7a"
    },
    {
      "ref": "pkg:golang/github.com/apex/up@v0.0.0-20210927120410-66dbf6d5e836",
      "dependsOn": [
        "pkg:golang/github.com/NYTimes/gziphandler@v0.0.0-20170916004738-97ae7fbaf816",
        "pkg:golang/github.com/alecthomas/template@v0.0.0-20160405071501-a0175ee3bccc",
        "pkg:golang/github.com/alecthomas/units@v0.0.0-20151022065526-2efee857e7cf",
        "pkg:golang/github.com/apex/go-apex@v1.0.0",
        "pkg:golang/github.com/apex/log@v1.3.0",
        "pkg:golang/github.com/atotto/clipboard@v0.1.2",
        "pkg:golang/github.com/aws/aws-sdk-go@v1.31.9",
        "pkg:golang/github.com/aybabtme/rgbterm@v0.0.0-20170906152045-cc83f3b3ce59",
        "pkg:golang/github.com/buger/goterm@v0.0.0-20181115115552-c206103e1f37",
        "pkg:golang/github.com/c4milo/unpackit@v0.0.0-20170704181138-4ed373e9ef1c",
        "pkg:golang/github.com/danwakefield/fnmatch@v0.0.0-20160403171240-cbb64ac3d964",
        "pkg:golang/github.com/dchest/uniuri@v0.0.0-20160212164326-8902c56451e9",
        "pkg:golang/github.com/denormal/go-gitignore@v0.0.0-20170315120618-40de3d33f668",
        "pkg:golang/github.com/dsnet/compress@v0.0.0-20171208185109-cc9eb1d7ad76",
        "pkg:golang/github.com/dustin/go-humanize@v0.0.0-20171012181109-77ed807830b4",
        "pkg:golang/github.com/facebookgo/freeport@v0.0.0-20150612182905-d4adf43b75b9",
        "pkg:golang/github.com/fanyang01/radix@v0.0.0-20160415095728-e1747dd9eeac",
        "pkg:golang/github.com/fatih/color@v1.7.0",
        "pkg:golang/github.com/golang/sync@v0.0.0-20170927054112-8e0aa688b654",
        "pkg:golang/github.com/google/go-github@v14.0.0",
        "pkg:golang/github.com/google/go-querystring@v0.0.0-20170111101155-53e6ce116135",
        "pkg:golang/github.com/hashicorp/go-uuid@v0.0.0-20160717022140-64130c7a86d7",
        "pkg:golang/github.com/jehiah/go-strftime@v0.0.0-20151206194810-2efbe75097a5",
        "pkg:golang/github.com/klauspost/compress@v1.2.1",
        "pkg:golang/github.com/klauspost/cpuid@v0.0.0-20170728055534-ae7887de9fa5",
        "pkg:golang/github.com/klauspost/crc32@v0.0.0-20161016154125-cb6bfca970f6",
        "pkg:golang/github.com/klauspost/pgzip@v0.0.0-20170402124221-0bf5dcad4ada",
        "pkg:golang/github.com/mattn/go-isatty@v0.0.9",
        "pkg:golang/github.com/mgutz/ansi@v0.0.0-20170206155736-9520e82c474b",
        "pkg:golang/github.com/mitchellh/go-homedir@v0.0.0-20161203194507-b8bc1bf76747",
        "pkg:golang/github.com/pascaldekloe/name@v0.0.0-20170812100307-81013e77fe79",
        "pkg:golang/github.com/pkg/browser@v0.0.0-20180916011732-0a3d74bf9ce4",
        "pkg:golang/github.com/pkg/errors@v0.9.1",
        "pkg:golang/github.com/rs/cors@v0.0.0-20180726230524-02026070ea74",
        "pkg:golang/github.com/segmentio/analytics-go@v0.0.0-20160426181448-2d840d861c32",
        "pkg:golang/github.com/segmentio/backo-go@v0.0.0-20160424052352-204274ad699c",
        "pkg:golang/github.com/segmentio/go-snakecase@v1.0.0",
        "pkg:golang/github.com/stripe/stripe-go@v28.5.0",
        "pkg:golang/github.com/timewasted/go-accept-headers@v0.0.0-20130320203746-c78f304b1b09",
        "pkg:golang/github.com/tj/aws@v0.1.4",
        "pkg:golang/github.com/tj/backoff@v1.0.0",
        "pkg:golang/github.com/tj/go@v1.8.6",
        "pkg:golang/github.com/tj/go-archive@v1.0.2",
        "pkg:golang/github.com/tj/go-cli-analytics@v1.0.0",
        "pkg:golang/github.com/tj/go-headers@v0.0.0-20170630155323-711a635412ca",
        "pkg:golang/github.com/tj/go-progress@v0.0.0-20171031175334-333acdb6fe9f",
        "pkg:golang/github.com/tj/go-spin@v1.1.0",
        "pkg:golang/github.com/tj/go-update@v2.2.4",
        "pkg:golang/github.com/tj/kingpin@v2.5.0",
        "pkg:golang/github.com/tj/survey@v2.0.6",
        "pkg:golang/github.com/ulikunitz/xz@v0.5.4",
        "pkg:golang/github.com/xtgo/uuid@v0.0.0-20140804021211-a0b114877d4c",
        "pkg:golang/golang.org/x/net@v0.0.0-20200202094626-16171245cfb2"
      ]
    }
  ]
}
