{
  "bomFormat": "CycloneDX",
  "specVersion": "1.3",
  "version": 1,
  "metadata": {
    "tools": [
      {
        "vendor": "AppThreat",
        "name": "cdxgen",
        "version": "3.0.10"
      },
      {
        "vendor": "Fortress Information Security",
        "name": "Github Extractor",
        "version": "1.15.1"
      }
    ],
    "authors": [
      {
        "name": "Fortress Information Security",
        "email": "sales@fortressinfosec.com",
        "phone": "1-407-573-6800"
      }
    ],
    "timestamp": "2022-06-01T21:00:00Z",
    "component": {
      "type": "application",
      "name": "bpytop",
      "version": "",
      "group": "aristocratos",
      "externalReferences": [
        {
          "url": "https://github.com/aristocratos/bpytop.git",
          "type": "distribution"
        },
        {
          "type": "website",
          "url": "null",
          "comment": "As set via `homepage` in Github API"
        }
      ]
    }
  },
  "components": [
    {
      "type": "library",
      "name": "io",
      "version": "0.0.1",
      "purl": "pkg:pypi/io@0.0.1",
      "modified": false
    },
    {
      "type": "library",
      "publisher": "Stephan Klein",
      "name": "signal",
      "version": "0.1",
      "description": "Send SMS messages via ADB and your Android phone. Comes with a CLI.",
      "licenses": [
        {
          "license": {
            "name": "MIT"
          }
        }
      ],
      "purl": "pkg:pypi/signal@0.1",
      "modified": false
    },
    {
      "type": "library",
      "publisher": "Vinay Sajip",
      "name": "logging",
      "version": "0.4.9.6",
      "description": "A logging module for Python",
      "hashes": [
        {
          "alg": "MD5",
          "content": "dc0a7ebc8b8970263911e11e7b7e1ca8"
        },
        {
          "alg": "SHA-256",
          "content": "26f6b50773f085042d301085bd1bf5d9f3735704db9f37c1ce6d8b85c38f2417"
        }
      ],
      "licenses": [
        {
          "license": {
            "name": "Copyright (C) 2001-2005 by Vinay Sajip. All Rights Reserved. See LICENSE for license."
          }
        }
      ],
      "purl": "pkg:pypi/logging@0.4.9.6",
      "modified": false
    },
    {
      "type": "library",
      "publisher": "Thomas Waldmann",
      "name": "argparse",
      "version": "1.4.0",
      "description": "Python command-line parsing library",
      "hashes": [
        {
          "alg": "MD5",
          "content": "c37216a954c8669054e2b2c54853dd49"
        },
        {
          "alg": "SHA-256",
          "content": "c31647edb69fd3d465a847ea3157d37bed1f95f19760b11a47aa91c04b666314"
        }
      ],
      "licenses": [
        {
          "license": {
            "name": "Python Software Foundation License"
          }
        }
      ],
      "purl": "pkg:pypi/argparse@1.4.0",
      "modified": false
    },
    {
      "type": "library",
      "publisher": "Zope Foundation and Contributors",
      "name": "datetime",
      "version": "4.4",
      "description": "This package provides a DateTime data type, as known from Zope. Unless you need to communicate with Zope APIs, you're probably better off using Python's built-in datetime module.",
      "hashes": [
        {
          "alg": "MD5",
          "content": "ad1e82d858ed7c8cd2ea437b4cb695ed"
        },
        {
          "alg": "SHA-256",
          "content": "4fcca115ddb466a1104df08d5c2a2f5805d14ca317800e1bfcea8f3d69f66e57"
        }
      ],
      "licenses": [
        {
          "license": {
            "name": "ZPL 2.1"
          }
        }
      ],
      "purl": "pkg:pypi/datetime@4.4",
      "modified": false
    },
    {
      "type": "library",
      "publisher": "Guido van Rossum, Jukka Lehtosalo, Łukasz Langa, Ivan Levkivskyi",
      "name": "typing",
      "version": "3.10.0.0",
      "description": "Type Hints for Python",
      "hashes": [
        {
          "alg": "MD5",
          "content": "cf38139027dc160e3ecd8e5ccf151da9"
        },
        {
          "alg": "SHA-256",
          "content": "12fbdfbe7d6cca1a42e485229afcb0b0c8259258cfb919b8a5e2a5c953742f89"
        }
      ],
      "licenses": [
        {
          "license": {
            "name": "PSF"
          }
        }
      ],
      "purl": "pkg:pypi/typing@3.10.0.0",
      "modified": false
    },
    {
      "type": "library",
      "publisher": "Holger Krekel, Bruno Oliveira, Ronny Pfannschmidt, Floris Bruynooghe, Brianna Laugher, Florian Bruhin and others",
      "name": "pytest",
      "version": "7.1.2",
      "description": "pytest: simple powerful testing with Python",
      "hashes": [
        {
          "alg": "MD5",
          "content": "6f5a9e12007a2529cb00d3b5a8af33a1"
        },
        {
          "alg": "SHA-256",
          "content": "13d0e3ccfc2b6e26be000cb6568c832ba67ba32e719443bfe725814d3c42433c"
        }
      ],
      "licenses": [
        {
          "license": {
            "name": "MIT"
          }
        }
      ],
      "purl": "pkg:pypi/pytest@7.1.2",
      "modified": false
    },
    {
      "type": "library",
      "name": "more_itertools",
      "version": "8.13.0",
      "description": "More routines for operating on iterables, beyond itertools",
      "hashes": [
        {
          "alg": "MD5",
          "content": "46d8b92e5ee89b7f22a15ddf6b1042fe"
        },
        {
          "alg": "SHA-256",
          "content": "c5122bffc5f104d37c1626b8615b511f3427aa5389b94d61e5ef8236bfbc3ddb"
        }
      ],
      "purl": "pkg:pypi/more-itertools@8.13.0",
      "modified": false
    },
    {
      "type": "library",
      "publisher": "Michael Foord",
      "name": "unittest",
      "version": "0.0",
      "hashes": [
        {
          "alg": "MD5",
          "content": "2a416384f814604ed854d40f352f1191"
        },
        {
          "alg": "SHA-256",
          "content": "1b492484bea7f68abda5fcc61412e77b6a105e5842355d630f8b75f01add3555"
        }
      ],
      "purl": "pkg:pypi/unittest@0.0",
      "modified": false
    },
    {
      "type": "library",
      "bom-ref": "pkg:pypi/astroid@2.9.3",
      "group": "",
      "name": "astroid",
      "version": "2.9.3",
      "description": "An abstract syntax tree for Python with inference support.",
      "hashes": [
        {
          "alg": "SHA-256",
          "content": "506daabe5edffb7e696ad82483ad0228245a9742ed7d2d8c9cdb31537decf9f6"
        }
      ],
      "licenses": [
        {
          "license": {
            "id": "LGPL-2.1-or-later",
            "url": "https://opensource.org/licenses/LGPL-2.1-or-later"
          }
        }
      ],
      "purl": "pkg:pypi/astroid@2.9.3",
      "externalReferences": [
        {
          "url": "https://github.com/PyCQA/astroid",
          "type": "vcs"
        }
      ]
    },
    {
      "type": "library",
      "bom-ref": "pkg:pypi/atomicwrites@1.4.0",
      "group": "",
      "name": "atomicwrites",
      "version": "1.4.0",
      "description": "Atomic file writes.",
      "hashes": [
        {
          "alg": "SHA-256",
          "content": "6d1784dea7c0c8d4a5172b6c620f40b6e4cbfdf96d783691f2e1302a7b88e197"
        }
      ],
      "licenses": [
        {
          "license": {
            "id": "MIT",
            "url": "https://opensource.org/licenses/MIT"
          }
        }
      ],
      "purl": "pkg:pypi/atomicwrites@1.4.0",
      "externalReferences": [
        {
          "url": "https://github.com/untitaker/python-atomicwrites",
          "type": "vcs"
        }
      ]
    },
    {
      "type": "library",
      "bom-ref": "pkg:pypi/attrs@21.4.0",
      "group": "",
      "name": "attrs",
      "version": "21.4.0",
      "description": "Classes Without Boilerplate",
      "hashes": [
        {
          "alg": "SHA-256",
          "content": "2d27e3784d7a565d36ab851fe94887c5eccd6a463168875832a1be79c82828b4"
        }
      ],
      "licenses": [
        {
          "license": {
            "id": "MIT",
            "url": "https://opensource.org/licenses/MIT"
          }
        }
      ],
      "purl": "pkg:pypi/attrs@21.4.0",
      "externalReferences": [
        {
          "url": "https://www.attrs.org/",
          "type": "website"
        }
      ]
    },
    {
      "type": "library",
      "bom-ref": "pkg:pypi/colorama@0.4.4",
      "group": "",
      "name": "colorama",
      "version": "0.4.4",
      "description": "Cross-platform colored terminal text.",
      "hashes": [
        {
          "alg": "SHA-256",
          "content": "9f47eda37229f68eee03b24b9748937c7dc3868f906e8ba69fbcbdd3bc5dc3e2"
        }
      ],
      "licenses": [
        {
          "license": {
            "id": "0BSD",
            "url": "https://opensource.org/licenses/0BSD"
          }
        }
      ],
      "purl": "pkg:pypi/colorama@0.4.4",
      "externalReferences": [
        {
          "url": "https://github.com/tartley/colorama",
          "type": "vcs"
        }
      ]
    },
    {
      "type": "library",
      "bom-ref": "pkg:pypi/importlib-metadata@4.11.2",
      "group": "",
      "name": "importlib-metadata",
      "version": "4.11.2",
      "description": "Read metadata from Python packages",
      "hashes": [
        {
          "alg": "SHA-256",
          "content": "d16e8c1deb60de41b8e8ed21c1a7b947b0bc62fab7e1d470bcdf331cea2e6735"
        }
      ],
      "purl": "pkg:pypi/importlib-metadata@4.11.2",
      "externalReferences": [
        {
          "url": "https://github.com/python/importlib_metadata",
          "type": "vcs"
        }
      ]
    },
    {
      "type": "library",
      "bom-ref": "pkg:pypi/iniconfig@1.1.1",
      "group": "",
      "name": "iniconfig",
      "version": "1.1.1",
      "description": "iniconfig: brain-dead simple config-ini parsing",
      "hashes": [
        {
          "alg": "SHA-256",
          "content": "011e24c64b7f47f6ebd835bb12a743f2fbe9a26d4cecaa7f53bc4f35ee9da8b3"
        }
      ],
      "licenses": [
        {
          "license": {
            "id": "MIT",
            "url": "https://opensource.org/licenses/MIT"
          }
        }
      ],
      "purl": "pkg:pypi/iniconfig@1.1.1",
      "externalReferences": [
        {
          "url": "http://github.com/RonnyPfannschmidt/iniconfig",
          "type": "vcs"
        }
      ]
    },
    {
      "type": "library",
      "bom-ref": "pkg:pypi/isort@5.10.1",
      "group": "",
      "name": "isort",
      "version": "5.10.1",
      "description": "A Python utility / library to sort Python imports.",
      "hashes": [
        {
          "alg": "SHA-256",
          "content": "6f62d78e2f89b4500b080fe3a81690850cd254227f27f75c3a0c491a1f351ba7"
        }
      ],
      "licenses": [
        {
          "license": {
            "id": "MIT",
            "url": "https://opensource.org/licenses/MIT"
          }
        }
      ],
      "purl": "pkg:pypi/isort@5.10.1",
      "externalReferences": [
        {
          "url": "https://pycqa.github.io/isort/",
          "type": "vcs"
        }
      ]
    },
    {
      "type": "library",
      "bom-ref": "pkg:pypi/lazy-object-proxy@1.7.1",
      "group": "",
      "name": "lazy-object-proxy",
      "version": "1.7.1",
      "description": "A fast and thorough lazy object proxy.",
      "hashes": [
        {
          "alg": "SHA-256",
          "content": "bb8c5fd1684d60a9902c60ebe276da1f2281a318ca16c1d0a96db28f62e9166b"
        }
      ],
      "licenses": [
        {
          "license": {
            "id": "BSD-2-Clause",
            "url": "https://opensource.org/licenses/BSD-2-Clause"
          }
        }
      ],
      "purl": "pkg:pypi/lazy-object-proxy@1.7.1",
      "externalReferences": [
        {
          "url": "https://github.com/ionelmc/python-lazy-object-proxy",
          "type": "vcs"
        }
      ]
    },
    {
      "type": "library",
      "bom-ref": "pkg:pypi/mccabe@0.6.1",
      "group": "",
      "name": "mccabe",
      "version": "0.6.1",
      "description": "McCabe checker, plugin for flake8",
      "hashes": [
        {
          "alg": "SHA-256",
          "content": "ab8a6258860da4b6677da4bd2fe5dc2c659cff31b3ee4f7f5d64e79735b80d42"
        }
      ],
      "licenses": [
        {
          "license": {
            "name": "Expat license"
          }
        }
      ],
      "purl": "pkg:pypi/mccabe@0.6.1",
      "externalReferences": [
        {
          "url": "https://github.com/pycqa/mccabe",
          "type": "vcs"
        }
      ]
    },
    {
      "type": "library",
      "bom-ref": "pkg:pypi/more-itertools@8.12.0",
      "group": "",
      "name": "more-itertools",
      "version": "8.12.0",
      "description": "More routines for operating on iterables, beyond itertools",
      "hashes": [
        {
          "alg": "SHA-256",
          "content": "43e6dd9942dffd72661a2c4ef383ad7da1e6a3e968a927ad7a6083ab410a688b"
        }
      ],
      "purl": "pkg:pypi/more-itertools@8.12.0"
    },
    {
      "type": "library",
      "bom-ref": "pkg:pypi/mypy@0.790",
      "group": "",
      "name": "mypy",
      "version": "0.790",
      "description": "Optional static typing for Python",
      "hashes": [
        {
          "alg": "SHA-256",
          "content": "bd03b3cf666bff8d710d633d1c56ab7facbdc204d567715cb3b9f85c6e94f669"
        }
      ],
      "licenses": [
        {
          "license": {
            "id": "MIT",
            "url": "https://opensource.org/licenses/MIT"
          }
        }
      ],
      "purl": "pkg:pypi/mypy@0.790",
      "externalReferences": [
        {
          "url": "http://www.mypy-lang.org/",
          "type": "website"
        }
      ]
    },
    {
      "type": "library",
      "bom-ref": "pkg:pypi/mypy-extensions@0.4.3",
      "group": "",
      "name": "mypy-extensions",
      "version": "0.4.3",
      "description": "Experimental type system extensions for programs checked with the mypy typechecker.",
      "hashes": [
        {
          "alg": "SHA-256",
          "content": "090fedd75945a69ae91ce1303b5824f428daf5a028d2f6ab8a299250a846f15d"
        }
      ],
      "licenses": [
        {
          "license": {
            "id": "MIT",
            "url": "https://opensource.org/licenses/MIT"
          }
        }
      ],
      "purl": "pkg:pypi/mypy-extensions@0.4.3",
      "externalReferences": [
        {
          "url": "https://github.com/python/mypy_extensions",
          "type": "vcs"
        }
      ]
    },
    {
      "type": "library",
      "bom-ref": "pkg:pypi/packaging@21.3",
      "group": "",
      "name": "packaging",
      "version": "21.3",
      "description": "Core utilities for Python packages",
      "hashes": [
        {
          "alg": "SHA-256",
          "content": "ef103e05f519cdc783ae24ea4e2e0f508a9c99b2d4969652eed6a2e1ea5bd522"
        }
      ],
      "licenses": [
        {
          "license": {
            "name": "BSD-2-Clause or Apache-2.0"
          }
        }
      ],
      "purl": "pkg:pypi/packaging@21.3",
      "externalReferences": [
        {
          "url": "https://github.com/pypa/packaging",
          "type": "vcs"
        }
      ]
    },
    {
      "type": "library",
      "bom-ref": "pkg:pypi/platformdirs@2.5.1",
      "group": "",
      "name": "platformdirs",
      "version": "2.5.1",
      "description": "A small Python module for determining appropriate platform-specific dirs, e.g. a \"user data dir\".",
      "hashes": [
        {
          "alg": "SHA-256",
          "content": "bcae7cab893c2d310a711b70b24efb93334febe65f8de776ee320b517471e227"
        }
      ],
      "purl": "pkg:pypi/platformdirs@2.5.1"
    },
    {
      "type": "library",
      "bom-ref": "pkg:pypi/pluggy@1.0.0",
      "group": "",
      "name": "pluggy",
      "version": "1.0.0",
      "description": "plugin and hook calling mechanisms for python",
      "hashes": [
        {
          "alg": "SHA-256",
          "content": "74134bbf457f031a36d68416e1509f34bd5ccc019f0bcc952c7b909d06b37bd3"
        }
      ],
      "licenses": [
        {
          "license": {
            "id": "MIT",
            "url": "https://opensource.org/licenses/MIT"
          }
        }
      ],
      "purl": "pkg:pypi/pluggy@1.0.0",
      "externalReferences": [
        {
          "url": "https://github.com/pytest-dev/pluggy",
          "type": "vcs"
        }
      ]
    },
    {
      "type": "library",
      "bom-ref": "pkg:pypi/psutil@5.9.0",
      "group": "",
      "name": "psutil",
      "version": "5.9.0",
      "description": "Cross-platform lib for process and system monitoring in Python.",
      "hashes": [
        {
          "alg": "SHA-256",
          "content": "55ce319452e3d139e25d6c3f85a1acf12d1607ddedea5e35fb47a552c051161b"
        }
      ],
      "licenses": [
        {
          "license": {
            "id": "0BSD",
            "url": "https://opensource.org/licenses/0BSD"
          }
        }
      ],
      "purl": "pkg:pypi/psutil@5.9.0",
      "externalReferences": [
        {
          "url": "https://github.com/giampaolo/psutil",
          "type": "vcs"
        }
      ]
    },
    {
      "type": "library",
      "bom-ref": "pkg:pypi/py@1.11.0",
      "group": "",
      "name": "py",
      "version": "1.11.0",
      "description": "library with cross-python path, ini-parsing, io, code, log facilities",
      "hashes": [
        {
          "alg": "SHA-256",
          "content": "607c53218732647dff4acdfcd50cb62615cedf612e72d1724fb1a0cc6405b378"
        }
      ],
      "licenses": [
        {
          "license": {
            "id": "MIT",
            "url": "https://opensource.org/licenses/MIT"
          }
        }
      ],
      "purl": "pkg:pypi/py@1.11.0",
      "externalReferences": [
        {
          "url": "https://py.readthedocs.io/",
          "type": "website"
        }
      ]
    },
    {
      "type": "library",
      "bom-ref": "pkg:pypi/pylint@2.12.2",
      "group": "",
      "name": "pylint",
      "version": "2.12.2",
      "description": "python code static checker",
      "hashes": [
        {
          "alg": "SHA-256",
          "content": "daabda3f7ed9d1c60f52d563b1b854632fd90035bcf01443e234d3dc794e3b74"
        }
      ],
      "licenses": [
        {
          "license": {
            "id": "GPL-2.0-or-later",
            "url": "https://opensource.org/licenses/GPL-2.0-or-later"
          }
        }
      ],
      "purl": "pkg:pypi/pylint@2.12.2"
    },
    {
      "type": "library",
      "bom-ref": "pkg:pypi/pyparsing@3.0.7",
      "group": "",
      "name": "pyparsing",
      "version": "3.0.7",
      "description": "pyparsing module - Classes and methods to define and execute parsing grammars",
      "hashes": [
        {
          "alg": "SHA-256",
          "content": "a6c06a88f252e6c322f65faf8f418b16213b51bdfaece0524c1c1bc30c63c484"
        }
      ],
      "purl": "pkg:pypi/pyparsing@3.0.7"
    },
    {
      "type": "library",
      "bom-ref": "pkg:pypi/pytest@6.2.5",
      "group": "",
      "name": "pytest",
      "version": "6.2.5",
      "description": "pytest: simple powerful testing with Python",
      "hashes": [
        {
          "alg": "SHA-256",
          "content": "7310f8d27bc79ced999e760ca304d69f6ba6c6649c0b60fb0e04a4a77cacc134"
        }
      ],
      "licenses": [
        {
          "license": {
            "id": "MIT",
            "url": "https://opensource.org/licenses/MIT"
          }
        }
      ],
      "purl": "pkg:pypi/pytest@6.2.5",
      "externalReferences": [
        {
          "url": "https://docs.pytest.org/en/latest/",
          "type": "website"
        }
      ]
    },
    {
      "type": "library",
      "bom-ref": "pkg:pypi/toml@0.10.2",
      "group": "",
      "name": "toml",
      "version": "0.10.2",
      "description": "Python Library for Tom's Obvious, Minimal Language",
      "hashes": [
        {
          "alg": "SHA-256",
          "content": "806143ae5bfb6a3c6e736a764057db0e6a0e05e338b5630894a5f779cabb4f9b"
        }
      ],
      "licenses": [
        {
          "license": {
            "id": "MIT",
            "url": "https://opensource.org/licenses/MIT"
          }
        }
      ],
      "purl": "pkg:pypi/toml@0.10.2",
      "externalReferences": [
        {
          "url": "https://github.com/uiri/toml",
          "type": "vcs"
        }
      ]
    },
    {
      "type": "library",
      "bom-ref": "pkg:pypi/typed-ast@1.4.3",
      "group": "",
      "name": "typed-ast",
      "version": "1.4.3",
      "description": "a fork of Python 2 and 3 ast modules with type comment support",
      "hashes": [
        {
          "alg": "SHA-256",
          "content": "2068531575a125b87a41802130fa7e29f26c09a2833fea68d9a40cf33902eba6"
        }
      ],
      "licenses": [
        {
          "license": {
            "id": "Apache-2.0",
            "url": "https://opensource.org/licenses/Apache-2.0"
          }
        }
      ],
      "purl": "pkg:pypi/typed-ast@1.4.3",
      "externalReferences": [
        {
          "url": "https://github.com/python/typed_ast",
          "type": "vcs"
        }
      ]
    },
    {
      "type": "library",
      "bom-ref": "pkg:pypi/typing-extensions@4.1.1",
      "group": "",
      "name": "typing-extensions",
      "version": "4.1.1",
      "description": "Backported and Experimental Type Hints for Python 3.7+",
      "hashes": [
        {
          "alg": "SHA-256",
          "content": "21c85e0fe4b9a155d0799430b0ad741cdce7e359660ccbd8b530613e8df88ce2"
        }
      ],
      "purl": "pkg:pypi/typing-extensions@4.1.1"
    },
    {
      "type": "library",
      "bom-ref": "pkg:pypi/wrapt@1.13.3",
      "group": "",
      "name": "wrapt",
      "version": "1.13.3",
      "description": "Module for decorators, wrappers and monkey patching.",
      "hashes": [
        {
          "alg": "SHA-256",
          "content": "e05e60ff3b2b0342153be4d1b597bbcfd8330890056b9619f4ad6b8d5c96a81a"
        }
      ],
      "licenses": [
        {
          "license": {
            "id": "0BSD",
            "url": "https://opensource.org/licenses/0BSD"
          }
        }
      ],
      "purl": "pkg:pypi/wrapt@1.13.3",
      "externalReferences": [
        {
          "url": "https://github.com/GrahamDumpleton/wrapt",
          "type": "vcs"
        }
      ]
    }
  ]
}
