{
  "bomFormat": "CycloneDX",
  "specVersion": "1.3",
  "serialNumber": "urn:uuid:c1036025-3565-47e3-b13e-b8073c284f22",
  "version": 1,
  "metadata": {
    "timestamp": "2022-05-16T23:46:05Z",
    "tools": [
      {
        "vendor": "AppThreat",
        "name": "cdxgen",
        "version": "3.0.10"
      },
      {
        "vendor": "Fortress Information Security",
        "name": "Github Extractor",
        "version": "1.15.1"
      }
    ],
    "authors": [
      {
        "name": "Team AppThreat",
        "email": "cloud@appthreat.com"
      },
      {
        "name": "Fortress Information Security",
        "email": "sales@fortressinfosec.com",
        "phone": "1-407-573-6800"
      }
    ],
    "component": {
      "type": "application",
      "name": "cli-table",
      "version": "",
      "group": "Automattic",
      "externalReferences": [
        {
          "url": "https://github.com/Automattic/cli-table.git",
          "type": "distribution"
        },
        {
          "type": "website",
          "url": "null",
          "comment": "As set via `homepage` in Github API"
        }
      ]
    }
  },
  "components": [
    {
      "type": "library",
      "bom-ref": "pkg:npm/colors@1.0.3",
      "group": "",
      "name": "colors",
      "version": "1.0.3",
      "description": "",
      "scope": "required",
      "hashes": [
        {
          "alg": "SHA-1",
          "content": "0433f44d809680fdeb60ed260f1b0c262e82a40b"
        }
      ],
      "purl": "pkg:npm/colors@1.0.3"
    },
    {
      "type": "library",
      "bom-ref": "pkg:npm/expresso@0.9.2",
      "group": "",
      "name": "expresso",
      "version": "0.9.2",
      "description": "",
      "scope": "optional",
      "hashes": [
        {
          "alg": "SHA-1",
          "content": "177b260908acaebe45ee16ddf74495a3f55862e8"
        }
      ],
      "purl": "pkg:npm/expresso@0.9.2"
    },
    {
      "type": "library",
      "bom-ref": "pkg:npm/should@0.6.3",
      "group": "",
      "name": "should",
      "version": "0.6.3",
      "description": "",
      "scope": "optional",
      "hashes": [
        {
          "alg": "SHA-1",
          "content": "d4b55335c8908f3a6c47970b687f750372acdc73"
        }
      ],
      "purl": "pkg:npm/should@0.6.3"
    }
  ],
  "externalReferences": [
    {
      "url": "/project/src",
      "type": "other",
      "comment": "Base path"
    },
    {
      "url": "/project/src/package-lock.json",
      "type": "other",
      "comment": "Package file"
    }
  ]
}
