{
  "bomFormat": "CycloneDX",
  "specVersion": "1.3",
  "version": 1,
  "components": [
    {
      "type": "library",
      "name": "io",
      "version": "0.0.1",
      "purl": "pkg:pypi/io@0.0.1",
      "modified": false
    },
    {
      "type": "library",
      "publisher": "Python Packaging Authority",
      "name": "setuptools",
      "version": "62.1.0",
      "description": "Easily download, build, install, upgrade, and uninstall Python packages",
      "hashes": [
        {
          "alg": "MD5",
          "content": "101d2e2bf9b7682ab90d9a7bd487bdbe"
        },
        {
          "alg": "SHA-256",
          "content": "26ead7d1f93efc0f8c804d9fafafbe4a44b179580a7105754b245155f9af05a8"
        }
      ],
      "purl": "pkg:pypi/setuptools@62.1.0",
      "modified": false
    },
    {
      "type": "library",
      "publisher": "Hartmut Goebel, Giovanni Bajo, David Vierra, David Cortesi, Martin Zibricky",
      "name": "PyInstaller",
      "version": "5.0.1",
      "description": "PyInstaller bundles a Python application and all its dependencies into a single package.",
      "hashes": [
        {
          "alg": "MD5",
          "content": "e7bd3bec69b2a27a5235719f57df4455"
        },
        {
          "alg": "SHA-256",
          "content": "bf6148a6eb005e1106d57271681cd7799b56f7b41efa6c78ce4d375fc1cd829e"
        }
      ],
      "licenses": [
        {
          "license": {
            "name": "GPLv2-or-later with a special exception which allows to use PyInstaller to build and distribute non-free programs (including commercial ones)"
          }
        }
      ],
      "purl": "pkg:pypi/pyinstaller@5.0.1",
      "modified": false
    },
    {
      "type": "library",
      "publisher": "Vinay Sajip",
      "name": "logging",
      "version": "0.4.9.6",
      "description": "A logging module for Python",
      "hashes": [
        {
          "alg": "MD5",
          "content": "dc0a7ebc8b8970263911e11e7b7e1ca8"
        },
        {
          "alg": "SHA-256",
          "content": "26f6b50773f085042d301085bd1bf5d9f3735704db9f37c1ce6d8b85c38f2417"
        }
      ],
      "licenses": [
        {
          "license": {
            "name": "Copyright (C) 2001-2005 by Vinay Sajip. All Rights Reserved. See LICENSE for license."
          }
        }
      ],
      "purl": "pkg:pypi/logging@0.4.9.6",
      "modified": false
    },
    {
      "type": "library",
      "publisher": "Guido van Rossum, Jukka Lehtosalo, Łukasz Langa, Ivan Levkivskyi",
      "name": "typing",
      "version": "3.10.0.0",
      "description": "Type Hints for Python",
      "hashes": [
        {
          "alg": "MD5",
          "content": "cf38139027dc160e3ecd8e5ccf151da9"
        },
        {
          "alg": "SHA-256",
          "content": "12fbdfbe7d6cca1a42e485229afcb0b0c8259258cfb919b8a5e2a5c953742f89"
        }
      ],
      "licenses": [
        {
          "license": {
            "name": "PSF"
          }
        }
      ],
      "purl": "pkg:pypi/typing@3.10.0.0",
      "modified": false
    },
    {
      "type": "library",
      "publisher": "Ka-Ping Yee",
      "name": "uuid",
      "version": "1.30",
      "description": "UUID object and generation functions (Python 2.3 or higher)",
      "hashes": [
        {
          "alg": "MD5",
          "content": "639b310f1fe6800e4bf8aa1dd9333117"
        },
        {
          "alg": "SHA-256",
          "content": "1f87cc004ac5120466f36c5beae48b4c48cc411968eed0eaecd3da82aa96193f"
        }
      ],
      "purl": "pkg:pypi/uuid@1.30",
      "modified": false
    },
    {
      "type": "library",
      "publisher": "Giampaolo Rodola",
      "name": "psutil",
      "version": "5.9.0",
      "description": "Cross-platform lib for process and system monitoring in Python.",
      "hashes": [
        {
          "alg": "MD5",
          "content": "75d0c4cf515a5acd882fd30e87f6d13f"
        },
        {
          "alg": "SHA-256",
          "content": "7d190ee2eaef7831163f254dc58f6d2e2a22e27382b936aab51c835fc080c3d3"
        }
      ],
      "licenses": [
        {
          "license": {
            "name": "BSD"
          }
        }
      ],
      "purl": "pkg:pypi/psutil@5.9.0",
      "modified": false
    },
    {
      "type": "library",
      "publisher": "Michael Foord",
      "name": "unittest",
      "version": "0.0",
      "hashes": [
        {
          "alg": "MD5",
          "content": "2a416384f814604ed854d40f352f1191"
        },
        {
          "alg": "SHA-256",
          "content": "1b492484bea7f68abda5fcc61412e77b6a105e5842355d630f8b75f01add3555"
        }
      ],
      "purl": "pkg:pypi/unittest@0.0",
      "modified": false
    },
    {
      "type": "library",
      "publisher": "Amazon Web Services",
      "name": "boto3",
      "version": "1.22.8",
      "description": "The AWS SDK for Python",
      "hashes": [
        {
          "alg": "MD5",
          "content": "63228ba15eb07d3c5d680faf96acab5d"
        },
        {
          "alg": "SHA-256",
          "content": "a6925fe88cc9cd6aab35ea950cdb1678a88210ece5271bb64c1593a46ed6de6c"
        }
      ],
      "licenses": [
        {
          "license": {
            "name": "Apache License 2.0"
          }
        }
      ],
      "purl": "pkg:pypi/boto3@1.22.8",
      "modified": false
    },
    {
      "type": "library",
      "publisher": "David Wolever",
      "name": "parameterized",
      "version": "0.8.1",
      "description": "Parameterized testing with any Python test framework",
      "hashes": [
        {
          "alg": "MD5",
          "content": "c4969d09c87200cf06cd6e969e216057"
        },
        {
          "alg": "SHA-256",
          "content": "9cbb0b69a03e8695d68b3399a8a5825200976536fe1cb79db60ed6a4c8c9efe9"
        }
      ],
      "licenses": [
        {
          "license": {
            "name": "FreeBSD"
          }
        }
      ],
      "purl": "pkg:pypi/parameterized@0.8.1",
      "modified": false
    },
    {
      "type": "library",
      "publisher": "Antoine Pitrou",
      "name": "pathlib",
      "version": "1.0.1",
      "description": "Object-oriented filesystem paths",
      "hashes": [
        {
          "alg": "MD5",
          "content": "f26b13acf298a15cdb46a3dffc8eb0de"
        },
        {
          "alg": "SHA-256",
          "content": "f35f95ab8b0f59e6d354090350b44a80a80635d22efdedfa84c7ad1cf0a74147"
        }
      ],
      "licenses": [
        {
          "license": {
            "name": "MIT License"
          }
        }
      ],
      "purl": "pkg:pypi/pathlib@1.0.1",
      "modified": false
    },
    {
      "type": "library",
      "name": "docker",
      "version": "5.0.3",
      "description": "A Python library for the Docker Engine API.",
      "hashes": [
        {
          "alg": "MD5",
          "content": "09d415649b96158c55eeced07b86bc84"
        },
        {
          "alg": "SHA-256",
          "content": "7a79bb439e3df59d0a72621775d600bc8bc8b422d285824cb37103eab91d1ce0"
        }
      ],
      "licenses": [
        {
          "license": {
            "name": "Apache License 2.0"
          }
        }
      ],
      "purl": "pkg:pypi/docker@5.0.3",
      "modified": false
    },
    {
      "type": "library",
      "publisher": "James Saryerwinnie",
      "name": "jmespath",
      "version": "1.0.0",
      "description": "JSON Matching Expressions",
      "hashes": [
        {
          "alg": "MD5",
          "content": "eb9776346d72c2e0fb394f7b7d64dbe4"
        },
        {
          "alg": "SHA-256",
          "content": "e8dcd576ed616f14ec02eed0005c85973b5890083313860136657e24784e4c04"
        }
      ],
      "licenses": [
        {
          "license": {
            "name": "MIT"
          }
        }
      ],
      "purl": "pkg:pypi/jmespath@1.0.0",
      "modified": false
    },
    {
      "type": "library",
      "publisher": "Holger Krekel, Bruno Oliveira, Ronny Pfannschmidt, Floris Bruynooghe, Brianna Laugher, Florian Bruhin and others",
      "name": "pytest",
      "version": "7.1.2",
      "description": "pytest: simple powerful testing with Python",
      "hashes": [
        {
          "alg": "MD5",
          "content": "6f5a9e12007a2529cb00d3b5a8af33a1"
        },
        {
          "alg": "SHA-256",
          "content": "13d0e3ccfc2b6e26be000cb6568c832ba67ba32e719443bfe725814d3c42433c"
        }
      ],
      "licenses": [
        {
          "license": {
            "name": "MIT"
          }
        }
      ],
      "purl": "pkg:pypi/pytest@7.1.2",
      "modified": false
    },
    {
      "type": "library",
      "publisher": "Kenneth Reitz",
      "name": "requests",
      "version": "2.27.1",
      "description": "Python HTTP for Humans.",
      "hashes": [
        {
          "alg": "MD5",
          "content": "435db0f122c83decd27524f690e89650"
        },
        {
          "alg": "SHA-256",
          "content": "f22fa1e554c9ddfd16e6e41ac79759e17be9e492b3587efa038054674760e72d"
        }
      ],
      "licenses": [
        {
          "license": {
            "name": "Apache 2.0"
          }
        }
      ],
      "purl": "pkg:pypi/requests@2.27.1",
      "modified": false
    },
    {
      "type": "library",
      "publisher": "Armin Ronacher",
      "name": "flask",
      "version": "2.1.2",
      "description": "A simple framework for building complex web applications.",
      "hashes": [
        {
          "alg": "MD5",
          "content": "07aede47b441c019aeebbeaed6a76215"
        },
        {
          "alg": "SHA-256",
          "content": "fad5b446feb0d6db6aec0c3184d16a8c1f6c3e464b511649c8918a9be100b4fe"
        }
      ],
      "licenses": [
        {
          "license": {
            "name": "BSD-3-Clause"
          }
        }
      ],
      "purl": "pkg:pypi/flask@2.1.2",
      "modified": false
    },
    {
      "type": "library",
      "publisher": "Ben Finney",
      "name": "enum",
      "version": "0.4.7",
      "description": "Robust enumerated type support in Python.",
      "hashes": [
        {
          "alg": "MD5",
          "content": "e7d170e3f84435b77058de625c96ef58"
        },
        {
          "alg": "SHA-256",
          "content": "8c7cf3587eda51008bcc1eed99ea2c331ccd265c231dbaa95ec5258d3dc03100"
        }
      ],
      "licenses": [
        {
          "license": {
            "name": "GPL-3.0+"
          }
        }
      ],
      "purl": "pkg:pypi/enum@0.4.7",
      "modified": false
    },
    {
      "type": "library",
      "publisher": "Travis E. Oliphant et al.",
      "name": "numpy",
      "version": "1.22.3",
      "description": "NumPy is the fundamental package for array computing with Python.",
      "hashes": [
        {
          "alg": "MD5",
          "content": "99d2dfb943327b108b2c3b923bd42000"
        },
        {
          "alg": "SHA-256",
          "content": "c34ea7e9d13a70bf2ab64a2532fe149a9aced424cd05a2c4ba662fd989e3e45f"
        }
      ],
      "licenses": [
        {
          "license": {
            "name": "BSD"
          }
        }
      ],
      "purl": "pkg:pypi/numpy@1.22.3",
      "modified": false
    },
    {
      "type": "library",
      "publisher": "The Layer Team",
      "name": "layer",
      "version": "0.9.354115",
      "description": "The Layer SDK",
      "hashes": [
        {
          "alg": "MD5",
          "content": "5b6d5fc0d12c3cae9401af3b363e2b3a"
        },
        {
          "alg": "SHA-256",
          "content": "cfde504c4c45043d2ee1e80624516485e577b1439aa1f955937a5aae5d98b48a"
        }
      ],
      "licenses": [
        {
          "license": {
            "name": "Apache 2"
          }
        }
      ],
      "purl": "pkg:pypi/layer@0.9.354115",
      "modified": false
    },
    {
      "type": "library",
      "publisher": "Amazon Web Services",
      "name": "botocore",
      "version": "1.25.8",
      "description": "Low-level, data-driven core of boto 3.",
      "hashes": [
        {
          "alg": "MD5",
          "content": "a4cecefed30974f1bc5876404b7c0d6b"
        },
        {
          "alg": "SHA-256",
          "content": "5b342da3487e5669801f5589cc15e379fc9f7803a426584d08a6329575644da3"
        }
      ],
      "licenses": [
        {
          "license": {
            "name": "Apache License 2.0"
          }
        }
      ],
      "purl": "pkg:pypi/botocore@1.25.8",
      "modified": false
    },
    {
      "type": "library",
      "publisher": "Armin Ronacher",
      "name": "click",
      "version": "8.1.3",
      "description": "Composable command line interface toolkit",
      "hashes": [
        {
          "alg": "MD5",
          "content": "7a8260e7bdac219be27f0bdda48e79ce"
        },
        {
          "alg": "SHA-256",
          "content": "bb4d8133cb15a609f44e8213d9b391b0809795062913b383c62be0ee95b1db48"
        }
      ],
      "licenses": [
        {
          "license": {
            "name": "BSD-3-Clause"
          }
        }
      ],
      "purl": "pkg:pypi/click@8.1.3",
      "modified": false
    },
    {
      "type": "library",
      "publisher": "Zope Foundation and Contributors",
      "name": "datetime",
      "version": "4.4",
      "description": "This package provides a DateTime data type, as known from Zope. Unless you need to communicate with Zope APIs, you're probably better off using Python's built-in datetime module.",
      "hashes": [
        {
          "alg": "MD5",
          "content": "ad1e82d858ed7c8cd2ea437b4cb695ed"
        },
        {
          "alg": "SHA-256",
          "content": "4fcca115ddb466a1104df08d5c2a2f5805d14ca317800e1bfcea8f3d69f66e57"
        }
      ],
      "licenses": [
        {
          "license": {
            "name": "ZPL 2.1"
          }
        }
      ],
      "purl": "pkg:pypi/datetime@4.4",
      "modified": false
    },
    {
      "type": "library",
      "publisher": "Brett Cannon",
      "name": "importlib",
      "version": "1.0.4",
      "description": "Backport of importlib.import_module() from Python 2.7",
      "hashes": [
        {
          "alg": "MD5",
          "content": "5f9a0803bca7ba95f670d1464984296f"
        },
        {
          "alg": "SHA-256",
          "content": "b6ee7066fea66e35f8d0acee24d98006de1a0a8a94a8ce6efe73a9a23c8d9826"
        }
      ],
      "purl": "pkg:pypi/importlib@1.0.4",
      "modified": false
    },
    {
      "type": "library",
      "publisher": "Armin Ronacher",
      "name": "werkzeug",
      "version": "2.1.2",
      "description": "The comprehensive WSGI web application library.",
      "hashes": [
        {
          "alg": "MD5",
          "content": "efb5ba74b1048640df0036b7b74ddf46"
        },
        {
          "alg": "SHA-256",
          "content": "72a4b735692dd3135217911cbeaa1be5fa3f62bffb8745c5215420a03dc55255"
        }
      ],
      "licenses": [
        {
          "license": {
            "name": "BSD-3-Clause"
          }
        }
      ],
      "purl": "pkg:pypi/werkzeug@2.1.2",
      "modified": false
    },
    {
      "type": "library",
      "publisher": "Sébastien Eustace",
      "name": "tomlkit",
      "version": "0.10.2",
      "description": "Style preserving TOML library",
      "hashes": [
        {
          "alg": "MD5",
          "content": "be73caa397eec6669191e89dc8491abb"
        },
        {
          "alg": "SHA-256",
          "content": "905cf92c2111ef80d355708f47ac24ad1b6fc2adc5107455940088c9bbecaedb"
        }
      ],
      "licenses": [
        {
          "license": {
            "name": "MIT"
          }
        }
      ],
      "purl": "pkg:pypi/tomlkit@0.10.2",
      "modified": false
    },
    {
      "type": "library",
      "publisher": "Audrey Roy",
      "name": "cookiecutter",
      "version": "1.7.3",
      "description": "A command-line utility that creates projects from project templates, e.g. creating a Python package project from a Python package project template.",
      "hashes": [
        {
          "alg": "MD5",
          "content": "ee2049c065fa4767038fa4c47f8581bd"
        },
        {
          "alg": "SHA-256",
          "content": "f8671531fa96ab14339d0c59b4f662a4f12a2ecacd94a0f70a3500843da588e2"
        }
      ],
      "licenses": [
        {
          "license": {
            "name": "BSD"
          }
        }
      ],
      "purl": "pkg:pypi/cookiecutter@1.7.3",
      "modified": false
    },
    {
      "type": "library",
      "publisher": "Christian Heimes",
      "name": "multiprocessing",
      "version": "2.6.2.1",
      "description": "Backport of the multiprocessing package to Python 2.4 and 2.5",
      "hashes": [
        {
          "alg": "MD5",
          "content": "5cc484396c040102116ccc2355379c72"
        },
        {
          "alg": "SHA-256",
          "content": "ef3b81ad85d7de252e5491b1daac028e17f9741cbe3625032e6eaa4ad4c79900"
        }
      ],
      "licenses": [
        {
          "license": {
            "name": "BSD Licence"
          }
        }
      ],
      "purl": "pkg:pypi/multiprocessing@2.6.2.1",
      "modified": false
    },
    {
      "type": "library",
      "name": "hashlib",
      "version": "20081119",
      "description": "Secure hash and message digest algorithm library",
      "hashes": [
        {
          "alg": "MD5",
          "content": "46e59db6d5cac34b3344ef0c30d0897f"
        },
        {
          "alg": "SHA-256",
          "content": "419de2fd10ae71ed9c6adcb55903f116abd1d8acc8c814dfd5f839b4d5013e38"
        }
      ],
      "purl": "pkg:pypi/hashlib@20081119",
      "modified": false
    },
    {
      "type": "library",
      "publisher": "Amazon Web Services",
      "name": "serverlessrepo",
      "version": "0.1.10",
      "description": "A Python library with convenience helpers for working with the AWS Serverless Application Repository.",
      "hashes": [
        {
          "alg": "MD5",
          "content": "646777b8e419300bbd469e270d1efe87"
        },
        {
          "alg": "SHA-256",
          "content": "b99c69be8ce87ccc48103fbe371ba7b148c3374c57862e59118c402522e5ed52"
        }
      ],
      "licenses": [
        {
          "license": {
            "name": "Apache 2.0"
          }
        }
      ],
      "purl": "pkg:pypi/serverlessrepo@0.1.10",
      "modified": false
    },
    {
      "type": "library",
      "publisher": "Ramiro Gómez",
      "name": "geonamescache",
      "version": "1.3.0",
      "description": "Geonames data for continents, cities and US states.",
      "hashes": [
        {
          "alg": "MD5",
          "content": "5b36ee2ca6faea479df1c79dd6d56c53"
        },
        {
          "alg": "SHA-256",
          "content": "efa1dd28a87632303c5d882cc52718f04cf28e85f1cc7d6afdf8a6ba7c5ab1dc"
        }
      ],
      "licenses": [
        {
          "license": {
            "name": "MIT"
          }
        }
      ],
      "purl": "pkg:pypi/geonamescache@1.3.0",
      "modified": false
    },
    {
      "type": "library",
      "publisher": "Sepand Haghighi",
      "name": "art",
      "version": "5.6",
      "description": "ASCII Art Library For Python",
      "hashes": [
        {
          "alg": "MD5",
          "content": "43e157a1cfdf5bf77d16e4832428d46e"
        },
        {
          "alg": "SHA-256",
          "content": "8dcbf6d7e047f7754515213313574c617329a1683219e5da8bdb83f5d0c58e0c"
        }
      ],
      "licenses": [
        {
          "license": {
            "name": "MIT"
          }
        }
      ],
      "purl": "pkg:pypi/art@5.6",
      "modified": false
    },
    {
      "type": "library",
      "publisher": "Amazon Web Services",
      "name": "constructs",
      "version": "10.1.1",
      "description": "A programming model for software-defined state",
      "hashes": [
        {
          "alg": "MD5",
          "content": "bb1c8301a823716a81ac8985ff51a319"
        },
        {
          "alg": "SHA-256",
          "content": "c1f3deb196f54e070ded3c92c4339f73ef2b6022d35fb34908c0ebfa7ef8a640"
        }
      ],
      "licenses": [
        {
          "license": {
            "name": "Apache-2.0"
          }
        }
      ],
      "purl": "pkg:pypi/constructs@10.1.1",
      "modified": false
    },
    {
      "type": "library",
      "publisher": "Thomas Waldmann",
      "name": "argparse",
      "version": "1.4.0",
      "description": "Python command-line parsing library",
      "hashes": [
        {
          "alg": "MD5",
          "content": "c37216a954c8669054e2b2c54853dd49"
        },
        {
          "alg": "SHA-256",
          "content": "c31647edb69fd3d465a847ea3157d37bed1f95f19760b11a47aa91c04b666314"
        }
      ],
      "licenses": [
        {
          "license": {
            "name": "Python Software Foundation License"
          }
        }
      ],
      "purl": "pkg:pypi/argparse@1.4.0",
      "modified": false
    },
    {
      "type": "library",
      "publisher": "Stephan Klein",
      "name": "signal",
      "version": "0.1",
      "description": "Send SMS messages via ADB and your Android phone. Comes with a CLI.",
      "licenses": [
        {
          "license": {
            "name": "MIT"
          }
        }
      ],
      "purl": "pkg:pypi/signal@0.1",
      "modified": false
    },
    {
      "type": "library",
      "publisher": "Dima Dorfman",
      "name": "functools",
      "version": "0.5",
      "description": "Fast tools for functional programming",
      "hashes": [
        {
          "alg": "MD5",
          "content": "91111c28ee685a2f89f1a41e6f0ce8ea"
        },
        {
          "alg": "SHA-256",
          "content": "596ed8999dee419c0749a41bfdd82e4697e80ea27ee01c716003ef55be9a54c5"
        }
      ],
      "licenses": [
        {
          "license": {
            "name": "BSD"
          }
        }
      ],
      "purl": "pkg:pypi/functools@0.5",
      "modified": false
    },
    {
      "type": "library",
      "name": "hello_world",
      "version": "0.2",
      "hashes": [
        {
          "alg": "MD5",
          "content": "bdabc7df935911977d3426661627694a"
        },
        {
          "alg": "SHA-256",
          "content": "f236ab36224613dff8db190dc4a02b3787c3d19e95f7e0876e3098966118bc1e"
        }
      ],
      "purl": "pkg:pypi/hello-world@0.2",
      "modified": false
    },
    {
      "type": "library",
      "publisher": "noah morrison",
      "name": "chevron",
      "version": "0.14.0",
      "description": "Mustache templating language renderer",
      "hashes": [
        {
          "alg": "MD5",
          "content": "0d0866d1bf57265bdb22619ca071a4e7"
        },
        {
          "alg": "SHA-256",
          "content": "fbf996a709f8da2e745ef763f482ce2d311aa817d287593a5b990d6d6e4f0443"
        }
      ],
      "licenses": [
        {
          "license": {
            "name": "MIT"
          }
        }
      ],
      "purl": "pkg:pypi/chevron@0.14.0",
      "modified": false
    },
    {
      "type": "library",
      "publisher": "Eric V. Smith",
      "name": "dataclasses",
      "version": "0.8",
      "description": "A backport of the dataclasses module for Python 3.6",
      "hashes": [
        {
          "alg": "MD5",
          "content": "0d6e5bb7adcc8fb0de3ef1ace1b32999"
        },
        {
          "alg": "SHA-256",
          "content": "0201d89fa866f68c8ebd9d08ee6ff50c0b255f8ec63a71c16fda7af82bb887bf"
        }
      ],
      "licenses": [
        {
          "license": {
            "name": "Apache"
          }
        }
      ],
      "purl": "pkg:pypi/dataclasses@0.8",
      "modified": false
    },
    {
      "type": "library",
      "publisher": "Amazon Web Services",
      "name": "aws_lambda_builders",
      "version": "1.15.0",
      "description": "Python library to compile, build & package AWS Lambda functions for several runtimes & frameworks.",
      "hashes": [
        {
          "alg": "MD5",
          "content": "de5a1745417cc7d88b98318a1223bebf"
        },
        {
          "alg": "SHA-256",
          "content": "91ebb75148aec315190eb65b249f6b03dcced1b654ab588bef58a4392c1e4887"
        }
      ],
      "licenses": [
        {
          "license": {
            "name": "Apache License 2.0"
          }
        }
      ],
      "purl": "pkg:pypi/aws-lambda-builders@1.15.0",
      "modified": false
    },
    {
      "type": "library",
      "publisher": "Vlad Emelianov",
      "name": "mypy_boto3_cloudformation",
      "version": "1.22.0.post1",
      "description": "Type annotations for boto3.CloudFormation 1.22.0 service generated with mypy-boto3-builder 7.5.9",
      "hashes": [
        {
          "alg": "MD5",
          "content": "afc0b030c11039760b69e68fe6f8fdb7"
        },
        {
          "alg": "SHA-256",
          "content": "0c3ced35c12d8f7903c202d96194c3f133c6173a7a478e18f81d1df8c0ff0e2f"
        }
      ],
      "licenses": [
        {
          "license": {
            "name": "MIT License"
          }
        }
      ],
      "purl": "pkg:pypi/mypy-boto3-cloudformation@1.22.0.post1",
      "modified": false
    },
    {
      "type": "library",
      "publisher": "Vlad Emelianov",
      "name": "mypy_boto3_s3",
      "version": "1.22.6",
      "description": "Type annotations for boto3.S3 1.22.6 service generated with mypy-boto3-builder 7.5.9",
      "hashes": [
        {
          "alg": "MD5",
          "content": "3e46fff3c759653dfafca48972550d87"
        },
        {
          "alg": "SHA-256",
          "content": "0e71b321d5b41d5de5b322247cb330ce9ba61e5241ddb378417752de72e42b13"
        }
      ],
      "licenses": [
        {
          "license": {
            "name": "MIT License"
          }
        }
      ],
      "purl": "pkg:pypi/mypy-boto3-s3@1.22.6",
      "modified": false
    },
    {
      "type": "library",
      "name": "typing_extensions",
      "version": "4.2.0",
      "description": "Backported and Experimental Type Hints for Python 3.7+",
      "hashes": [
        {
          "alg": "MD5",
          "content": "95fc87a08006c5249ae13b8a1c3770b9"
        },
        {
          "alg": "SHA-256",
          "content": "6657594ee297170d19f67d55c05852a874e7eb634f4f753dbd667855e07c1708"
        }
      ],
      "purl": "pkg:pypi/typing-extensions@4.2.0",
      "modified": false
    },
    {
      "type": "library",
      "publisher": "Yesudeep Mangalapilly",
      "name": "watchdog",
      "version": "2.1.7",
      "description": "Filesystem events monitoring",
      "hashes": [
        {
          "alg": "MD5",
          "content": "205b7d4e916f76489e140d99126feb12"
        },
        {
          "alg": "SHA-256",
          "content": "351e09b6d9374d5bcb947e6ac47a608ec25b9d70583e9db00b2fcdb97b00b572"
        }
      ],
      "licenses": [
        {
          "license": {
            "name": "Apache License 2.0"
          }
        }
      ],
      "purl": "pkg:pypi/watchdog@2.1.7",
      "modified": false
    },
    {
      "type": "library",
      "publisher": "Guido van Rossum (and others)",
      "name": "asyncio",
      "version": "3.4.3",
      "description": "reference implementation of PEP 3156",
      "hashes": [
        {
          "alg": "MD5",
          "content": "82ea7f22832529b1d68109f077c3e977"
        },
        {
          "alg": "SHA-256",
          "content": "c4d18b22701821de07bd6aea8b53d21449ec0ec5680645e5317062ea21817d2d"
        }
      ],
      "licenses": [
        {
          "license": {
            "name": "PSF"
          }
        }
      ],
      "purl": "pkg:pypi/asyncio@3.4.3",
      "modified": false
    },
    {
      "type": "library",
      "publisher": "Scrapinghub",
      "name": "dateparser",
      "version": "1.1.1",
      "description": "Date parsing library designed to parse dates from HTML pages",
      "hashes": [
        {
          "alg": "MD5",
          "content": "05d7fd2097c99d267375195f193e82a4"
        },
        {
          "alg": "SHA-256",
          "content": "9600874312ff28a41f96ec7ccdc73be1d1c44435719da47fea3339d55ff5a628"
        }
      ],
      "licenses": [
        {
          "license": {
            "name": "BSD"
          }
        }
      ],
      "purl": "pkg:pypi/dateparser@1.1.1",
      "modified": false
    }
  ],
  "metadata": {
    "tools": [
      {
        "vendor": "Fortress Information Security",
        "name": "Github Extractor",
        "version": "1.15.1"
      }
    ],
    "authors": [
      {
        "name": "Fortress Information Security",
        "email": "sales@fortressinfosec.com",
        "phone": "1-407-573-6800"
      }
    ],
    "timestamp": "2022-06-01T21:00:00Z",
    "component": {
      "type": "application",
      "name": "aws-sam-cli",
      "version": "v1.52.0",
      "group": "aws",
      "externalReferences": [
        {
          "url": "https://github.com/aws/aws-sam-cli.git",
          "type": "distribution"
        },
        {
          "type": "website",
          "url": "https://aws.amazon.com/serverless/sam/",
          "comment": "As set via `homepage` in Github API"
        }
      ]
    }
  }
}
