{
  "bomFormat": "CycloneDX",
  "specVersion": "1.3",
  "version": 1,
  "metadata": {
    "tools": [
      {
        "vendor": "AppThreat",
        "name": "cdxgen",
        "version": "3.0.10"
      },
      {
        "vendor": "Fortress Information Security",
        "name": "Github Extractor",
        "version": "1.15.1"
      }
    ],
    "authors": [
      {
        "name": "Fortress Information Security",
        "email": "sales@fortressinfosec.com",
        "phone": "1-407-573-6800"
      }
    ],
    "timestamp": "2022-06-01T21:00:00Z",
    "component": {
      "type": "application",
      "name": "toga",
      "version": "",
      "group": "beeware",
      "externalReferences": [
        {
          "url": "https://github.com/beeware/toga.git",
          "type": "distribution"
        },
        {
          "type": "website",
          "url": "https://toga.readthedocs.io/en/latest/",
          "comment": "As set via `homepage` in Github API"
        }
      ]
    }
  },
  "components": [
    {
      "type": "library",
      "publisher": "Python Packaging Authority",
      "name": "setuptools",
      "version": "62.1.0",
      "description": "Easily download, build, install, upgrade, and uninstall Python packages",
      "hashes": [
        {
          "alg": "MD5",
          "content": "101d2e2bf9b7682ab90d9a7bd487bdbe"
        },
        {
          "alg": "SHA-256",
          "content": "26ead7d1f93efc0f8c804d9fafafbe4a44b179580a7105754b245155f9af05a8"
        }
      ],
      "purl": "pkg:pypi/setuptools@62.1.0",
      "modified": false
    },
    {
      "type": "library",
      "publisher": "Russell Keith-Magee",
      "name": "toga_dummy",
      "version": "0.2.12",
      "description": "An Dummy backend for the Toga widget toolkit.",
      "hashes": [
        {
          "alg": "MD5",
          "content": "12fc32f8c557aec7edc388f4d247cc52"
        },
        {
          "alg": "SHA-256",
          "content": "fa7aa9e636d455b7393f24cfc5644c112e82712d8b3dc5e9fb439a48eb460d86"
        }
      ],
      "licenses": [
        {
          "license": {
            "name": "New BSD"
          }
        }
      ],
      "purl": "pkg:pypi/toga-dummy@0.2.12",
      "modified": false
    },
    {
      "type": "library",
      "name": "io",
      "version": "0.0.1",
      "purl": "pkg:pypi/io@0.0.1",
      "modified": false
    },
    {
      "type": "library",
      "publisher": "Russell Keith-Magee",
      "name": "toga",
      "version": "0.2.15",
      "description": "A Python native, OS native GUI toolkit.",
      "hashes": [
        {
          "alg": "MD5",
          "content": "8f18e5c3cd697b923f37c694fe0c868c"
        },
        {
          "alg": "SHA-256",
          "content": "8cd2b2a084998ea28b96a34315a86abdbe596958acfe721f8fe1520645060620"
        }
      ],
      "licenses": [
        {
          "license": {
            "name": "New BSD"
          }
        }
      ],
      "purl": "pkg:pypi/toga@0.2.15",
      "modified": false
    },
    {
      "type": "library",
      "publisher": "Antoine Pitrou",
      "name": "pathlib",
      "version": "1.0.1",
      "description": "Object-oriented filesystem paths",
      "hashes": [
        {
          "alg": "MD5",
          "content": "f26b13acf298a15cdb46a3dffc8eb0de"
        },
        {
          "alg": "SHA-256",
          "content": "f35f95ab8b0f59e6d354090350b44a80a80635d22efdedfa84c7ad1cf0a74147"
        }
      ],
      "licenses": [
        {
          "license": {
            "name": "MIT License"
          }
        }
      ],
      "purl": "pkg:pypi/pathlib@1.0.1",
      "modified": false
    },
    {
      "type": "library",
      "publisher": "Guido van Rossum (and others)",
      "name": "asyncio",
      "version": "3.4.3",
      "description": "reference implementation of PEP 3156",
      "hashes": [
        {
          "alg": "MD5",
          "content": "82ea7f22832529b1d68109f077c3e977"
        },
        {
          "alg": "SHA-256",
          "content": "c4d18b22701821de07bd6aea8b53d21449ec0ec5680645e5317062ea21817d2d"
        }
      ],
      "licenses": [
        {
          "license": {
            "name": "PSF"
          }
        }
      ],
      "purl": "pkg:pypi/asyncio@3.4.3",
      "modified": false
    },
    {
      "type": "library",
      "publisher": "Russell Keith-Magee",
      "name": "rubicon",
      "version": "0.0.0",
      "description": "A collection of tools to bridge between Python and other language environments.",
      "licenses": [
        {
          "license": {
            "name": "New BSD"
          }
        }
      ],
      "purl": "pkg:pypi/rubicon@0.0.0",
      "modified": false
    },
    {
      "type": "library",
      "publisher": "Thomas Heller",
      "name": "ctypes",
      "version": "1.0.2",
      "description": "create and manipulate C data types in Python, call functions in shared libraries",
      "licenses": [
        {
          "license": {
            "name": "MIT License"
          }
        }
      ],
      "purl": "pkg:pypi/ctypes@1.0.2",
      "modified": false
    },
    {
      "type": "library",
      "publisher": "Ben Finney",
      "name": "enum",
      "version": "0.4.7",
      "description": "Robust enumerated type support in Python.",
      "hashes": [
        {
          "alg": "MD5",
          "content": "e7d170e3f84435b77058de625c96ef58"
        },
        {
          "alg": "SHA-256",
          "content": "8c7cf3587eda51008bcc1eed99ea2c331ccd265c231dbaa95ec5258d3dc03100"
        }
      ],
      "licenses": [
        {
          "license": {
            "name": "GPL-3.0+"
          }
        }
      ],
      "purl": "pkg:pypi/enum@0.4.7",
      "modified": false
    },
    {
      "type": "library",
      "publisher": "Russell Keith-Magee",
      "name": "travertino",
      "version": "0.1.3",
      "description": "Travertino is a set of constants and utilities for describing user interfaces",
      "hashes": [
        {
          "alg": "MD5",
          "content": "346957d842675cf701000618fcb6942a"
        },
        {
          "alg": "SHA-256",
          "content": "8a982063382308d66700a63363fe3a422a1fcbbad78506dda522a5204358cea3"
        }
      ],
      "licenses": [
        {
          "license": {
            "name": "New BSD"
          }
        }
      ],
      "purl": "pkg:pypi/travertino@0.1.3",
      "modified": false
    },
    {
      "type": "library",
      "publisher": "Dima Dorfman",
      "name": "functools",
      "version": "0.5",
      "description": "Fast tools for functional programming",
      "hashes": [
        {
          "alg": "MD5",
          "content": "91111c28ee685a2f89f1a41e6f0ce8ea"
        },
        {
          "alg": "SHA-256",
          "content": "596ed8999dee419c0749a41bfdd82e4697e80ea27ee01c716003ef55be9a54c5"
        }
      ],
      "licenses": [
        {
          "license": {
            "name": "BSD"
          }
        }
      ],
      "purl": "pkg:pypi/functools@0.5",
      "modified": false
    },
    {
      "type": "library",
      "publisher": "lmittmann",
      "name": "clr",
      "version": "1.0.3",
      "description": "🌈 Terminal string styling",
      "hashes": [
        {
          "alg": "MD5",
          "content": "008d74bf1e4ddc400fe91b9bc67de0ba"
        },
        {
          "alg": "SHA-256",
          "content": "7553f81f7ddc5579e45616ced5fcbdae3941ec817dacf5972d39a156c7cdba1a"
        }
      ],
      "licenses": [
        {
          "license": {
            "name": "MIT"
          }
        }
      ],
      "purl": "pkg:pypi/clr@1.0.3",
      "modified": false
    },
    {
      "type": "library",
      "publisher": "Microsoft Corporation",
      "name": "Microsoft",
      "version": "0.1.2",
      "description": "This package name is reserved by Microsoft Corporation",
      "hashes": [
        {
          "alg": "MD5",
          "content": "ccab948178344c56647519b8353ece2e"
        },
        {
          "alg": "SHA-256",
          "content": "de48aafb3329126904d0edb4c8f351351df29cf03ebd347e5c822e74960df11e"
        }
      ],
      "purl": "pkg:pypi/microsoft@0.1.2",
      "modified": false
    },
    {
      "type": "library",
      "publisher": "Zope Foundation and Contributors",
      "name": "datetime",
      "version": "4.4",
      "description": "This package provides a DateTime data type, as known from Zope. Unless you need to communicate with Zope APIs, you're probably better off using Python's built-in datetime module.",
      "hashes": [
        {
          "alg": "MD5",
          "content": "ad1e82d858ed7c8cd2ea437b4cb695ed"
        },
        {
          "alg": "SHA-256",
          "content": "4fcca115ddb466a1104df08d5c2a2f5805d14ca317800e1bfcea8f3d69f66e57"
        }
      ],
      "licenses": [
        {
          "license": {
            "name": "ZPL 2.1"
          }
        }
      ],
      "purl": "pkg:pypi/datetime@4.4",
      "modified": false
    },
    {
      "type": "library",
      "publisher": "Russell Keith-Magee",
      "name": "toga_android",
      "version": "0.2.15",
      "description": "An Android backend for the Toga widget toolkit.",
      "hashes": [
        {
          "alg": "MD5",
          "content": "24e9d0f51df89eaaddb8d796ddc0e413"
        },
        {
          "alg": "SHA-256",
          "content": "c4913a04312e5dcf8c4839915927d331a5b70515ccd42b880da540a632a3b57f"
        }
      ],
      "licenses": [
        {
          "license": {
            "name": "New BSD"
          }
        }
      ],
      "purl": "pkg:pypi/toga-android@0.2.15",
      "modified": false
    },
    {
      "type": "library",
      "publisher": "Russell Keith-Magee",
      "name": "toga_cocoa",
      "version": "0.2.15",
      "description": "A Cocoa (macOS) backend for the Toga widget toolkit.",
      "hashes": [
        {
          "alg": "MD5",
          "content": "003bced6faf47e753a3bbb31a2e261b5"
        },
        {
          "alg": "SHA-256",
          "content": "5e5f6461582abf8cfecad8d3cdc47423dd4f6c4e4ee78b1f349b5018e590b2f3"
        }
      ],
      "licenses": [
        {
          "license": {
            "name": "New BSD"
          }
        }
      ],
      "purl": "pkg:pypi/toga-cocoa@0.2.15",
      "modified": false
    },
    {
      "type": "library",
      "publisher": "Russell Keith-Magee",
      "name": "toga_iOS",
      "version": "0.2.15",
      "description": "An iOS backend for the Toga widget toolkit.",
      "hashes": [
        {
          "alg": "MD5",
          "content": "206aa9c0a1ea82d492b056812931a550"
        },
        {
          "alg": "SHA-256",
          "content": "4dd29aad4f46726bb471efbfe3be7b0c4bdf129186f6f0e315a5d7e8d21488f3"
        }
      ],
      "licenses": [
        {
          "license": {
            "name": "New BSD"
          }
        }
      ],
      "purl": "pkg:pypi/toga-ios@0.2.15",
      "modified": false
    },
    {
      "type": "library",
      "publisher": "Russell Keith-Magee",
      "name": "toga_gtk",
      "version": "0.2.15",
      "description": "A GTK+ backend for the Toga widget toolkit.",
      "hashes": [
        {
          "alg": "MD5",
          "content": "83b101b201c04d6d9b6fa949ed5d2f85"
        },
        {
          "alg": "SHA-256",
          "content": "a5b8bcff69a8e30fae054163310d010b5aeaf7dc57ac4dabe4c572dc5c4fb321"
        }
      ],
      "licenses": [
        {
          "license": {
            "name": "New BSD"
          }
        }
      ],
      "purl": "pkg:pypi/toga-gtk@0.2.15",
      "modified": false
    },
    {
      "type": "library",
      "publisher": "Russell Keith-Magee",
      "name": "toga_tvOS",
      "version": "0.0.0",
      "description": "An Apple watchOS backend for the Toga widget toolkit.",
      "hashes": [
        {
          "alg": "MD5",
          "content": "4d4fb005d0c6806d1d06e24dc2e4bf8f"
        },
        {
          "alg": "SHA-256",
          "content": "caf481ff78061b1df2fa1d9f62dee8df51f976d16c521911338e42784f60fb8a"
        }
      ],
      "licenses": [
        {
          "license": {
            "name": "New BSD"
          }
        }
      ],
      "purl": "pkg:pypi/toga-tvos@0.0.0",
      "modified": false
    },
    {
      "type": "library",
      "publisher": "Russell Keith-Magee",
      "name": "toga_watchOS",
      "version": "0.0.0",
      "description": "An Apple watchOS backend for the Toga widget toolkit.",
      "hashes": [
        {
          "alg": "MD5",
          "content": "02574ba6bf48c0b78e575e98542a7a33"
        },
        {
          "alg": "SHA-256",
          "content": "c458457590ec1bb07f59af934c3fadb343c5283b4b8eacafeff766bbbfcd4350"
        }
      ],
      "licenses": [
        {
          "license": {
            "name": "New BSD"
          }
        }
      ],
      "purl": "pkg:pypi/toga-watchos@0.0.0",
      "modified": false
    },
    {
      "type": "library",
      "publisher": "Russell Keith-Magee",
      "name": "toga_web",
      "version": "0.0.0",
      "description": "A common backend for the Toga widget toolkit on web platforms.",
      "hashes": [
        {
          "alg": "MD5",
          "content": "b8778eda7e74ebed881ede340d5f7a99"
        },
        {
          "alg": "SHA-256",
          "content": "263392fbdaf0b8dc59158bb104c80699b5a325aac18f7d11eb774319d24db1e4"
        }
      ],
      "licenses": [
        {
          "license": {
            "name": "New BSD"
          }
        }
      ],
      "purl": "pkg:pypi/toga-web@0.0.0",
      "modified": false
    },
    {
      "type": "library",
      "publisher": "Russell Keith-Magee",
      "name": "toga_winforms",
      "version": "0.2.15",
      "description": "A Microsoft .Net backend for the Toga widget toolkit using the WinForms API.",
      "hashes": [
        {
          "alg": "MD5",
          "content": "2809c1411ec655b94a543e5c56f906d5"
        },
        {
          "alg": "SHA-256",
          "content": "af19cb89cc4791a9b16aff4b195cfd810bc760a0bd48ef4564eae355d2e02401"
        }
      ],
      "licenses": [
        {
          "license": {
            "name": "New BSD"
          }
        }
      ],
      "purl": "pkg:pypi/toga-winforms@0.2.15",
      "modified": false
    },
    {
      "type": "library",
      "publisher": "Guido van Rossum, Jukka Lehtosalo, Łukasz Langa, Ivan Levkivskyi",
      "name": "typing",
      "version": "3.10.0.0",
      "description": "Type Hints for Python",
      "hashes": [
        {
          "alg": "MD5",
          "content": "cf38139027dc160e3ecd8e5ccf151da9"
        },
        {
          "alg": "SHA-256",
          "content": "12fbdfbe7d6cca1a42e485229afcb0b0c8259258cfb919b8a5e2a5c953742f89"
        }
      ],
      "licenses": [
        {
          "license": {
            "name": "PSF"
          }
        }
      ],
      "purl": "pkg:pypi/typing@3.10.0.0",
      "modified": false
    },
    {
      "type": "library",
      "publisher": "Stephan Klein",
      "name": "signal",
      "version": "0.1",
      "description": "Send SMS messages via ADB and your Android phone. Comes with a CLI.",
      "licenses": [
        {
          "license": {
            "name": "MIT"
          }
        }
      ],
      "purl": "pkg:pypi/signal@0.1",
      "modified": false
    },
    {
      "type": "library",
      "name": "email",
      "version": "4.0.2",
      "description": "Standalone email package",
      "hashes": [
        {
          "alg": "MD5",
          "content": "67707dc0fab874edc5ac45f95ec9ec87"
        },
        {
          "alg": "SHA-256",
          "content": "e2254c9b4e4cf33553f7dfc85b500eea4c3e96733736f38c9dbfc3dcc6303705"
        }
      ],
      "purl": "pkg:pypi/email@4.0.2",
      "modified": false
    },
    {
      "type": "library",
      "publisher": "Michael Foord",
      "name": "unittest",
      "version": "0.0",
      "hashes": [
        {
          "alg": "MD5",
          "content": "2a416384f814604ed854d40f352f1191"
        },
        {
          "alg": "SHA-256",
          "content": "1b492484bea7f68abda5fcc61412e77b6a105e5842355d630f8b75f01add3555"
        }
      ],
      "purl": "pkg:pypi/unittest@0.0",
      "modified": false
    },
    {
      "type": "library",
      "publisher": "Yijun Yu",
      "name": "ast",
      "version": "0.0.2",
      "description": "Conversion between protobuf3 and srcML.",
      "hashes": [
        {
          "alg": "MD5",
          "content": "866a45bda3dc0b19f8da494f6a548a8d"
        },
        {
          "alg": "SHA-256",
          "content": "04cf2827c4048d18635ca8f85357a4285d140424ac26028be0dc585f824e07cd"
        }
      ],
      "licenses": [
        {
          "license": {
            "name": "MIT"
          }
        }
      ],
      "purl": "pkg:pypi/ast@0.0.2",
      "modified": false
    },
    {
      "type": "library",
      "publisher": "Russell Keith-Magee",
      "name": "gbulb",
      "version": "0.6.3",
      "description": "GLib event loop for tulip (PEP 3156)",
      "hashes": [
        {
          "alg": "MD5",
          "content": "9cdc1580093963588733dbd1783bb79d"
        },
        {
          "alg": "SHA-256",
          "content": "05128081beaba915de8ab0245ace86b8cb27c701df016e2134dccf3ad7e170b6"
        }
      ],
      "licenses": [
        {
          "license": {
            "name": "Apache 2.0"
          }
        }
      ],
      "purl": "pkg:pypi/gbulb@0.6.3",
      "modified": false
    },
    {
      "type": "library",
      "publisher": "Richard Jones",
      "name": "html",
      "version": "1.16",
      "description": "simple, elegant HTML, XHTML and XML generation",
      "hashes": [
        {
          "alg": "MD5",
          "content": "39b9db7cdcc84607828be021172d441f"
        },
        {
          "alg": "SHA-256",
          "content": "ebc768f23b54a71350d731a75f2ef3a4a4dbdad9ae68d58b527664b66088e456"
        }
      ],
      "purl": "pkg:pypi/html@1.16",
      "modified": false
    },
    {
      "type": "library",
      "publisher": "Russell Keith-Magee",
      "name": "toga_cassowary",
      "version": "0.1.2",
      "description": "A helper layer for the Toga widget toolkit for backends using the Cassowary contraint algorithm for layout.",
      "hashes": [
        {
          "alg": "MD5",
          "content": "d05f6ff80b100a87527e540edc09d7af"
        },
        {
          "alg": "SHA-256",
          "content": "986533fbd482318ecb679da411f6b765965ca9fe730dd3dd7e23dce107b1d66c"
        }
      ],
      "licenses": [
        {
          "license": {
            "name": "New BSD"
          }
        }
      ],
      "purl": "pkg:pypi/toga-cassowary@0.1.2",
      "modified": false
    },
    {
      "type": "library",
      "bom-ref": "pkg:pypi/sphinx@4.5.0",
      "group": "",
      "name": "sphinx",
      "version": "4.5.0",
      "description": "Python documentation generator",
      "hashes": [
        {
          "alg": "SHA-256",
          "content": "ebf612653238bcc8f4359627a9b7ce44ede6fdd75d9d30f68255c7383d3a6226"
        }
      ],
      "licenses": [
        {
          "license": {
            "id": "0BSD",
            "url": "https://opensource.org/licenses/0BSD"
          }
        }
      ],
      "purl": "pkg:pypi/sphinx@4.5.0",
      "externalReferences": [
        {
          "url": "https://www.sphinx-doc.org/",
          "type": "website"
        }
      ]
    },
    {
      "type": "library",
      "bom-ref": "pkg:pypi/sphinxcontrib-spelling@7.3.3",
      "group": "",
      "name": "sphinxcontrib-spelling",
      "version": "7.3.3",
      "description": "Sphinx spelling extension",
      "hashes": [
        {
          "alg": "SHA-256",
          "content": "8809d5dc175f43f00628134a41ef9fec56db9f794f4eab701f9a5a87f8c69bb0"
        }
      ],
      "purl": "pkg:pypi/sphinxcontrib-spelling@7.3.3",
      "externalReferences": [
        {
          "url": "https://github.com/sphinx-contrib/spelling",
          "type": "vcs"
        }
      ]
    },
    {
      "type": "library",
      "bom-ref": "pkg:pypi/pyenchant@3.2.2",
      "group": "",
      "name": "pyenchant",
      "version": "3.2.2",
      "description": "Python bindings for the Enchant spellchecking system",
      "hashes": [
        {
          "alg": "SHA-256",
          "content": "5facc821ece957208a81423af7d6ec7810dad29697cb0d77aae81e4e11c8e5a6"
        }
      ],
      "licenses": [
        {
          "license": {
            "name": "LGPL"
          }
        }
      ],
      "purl": "pkg:pypi/pyenchant@3.2.2",
      "externalReferences": [
        {
          "url": "https://pyenchant.github.io/pyenchant/",
          "type": "vcs"
        }
      ]
    },
    {
      "type": "library",
      "bom-ref": "pkg:pypi/sphinx-autobuild@2021.3.14",
      "group": "",
      "name": "sphinx-autobuild",
      "version": "2021.3.14",
      "description": "Rebuild Sphinx documentation on changes, with live-reload in the browser.",
      "hashes": [
        {
          "alg": "SHA-256",
          "content": "8fe8cbfdb75db04475232f05187c776f46f6e9e04cacf1e49ce81bdac649ccac"
        }
      ],
      "licenses": [
        {
          "license": {
            "id": "MIT",
            "url": "https://opensource.org/licenses/MIT"
          }
        }
      ],
      "purl": "pkg:pypi/sphinx-autobuild@2021.3.14",
      "externalReferences": [
        {
          "url": "https://github.com/executablebooks/sphinx-autobuild",
          "type": "vcs"
        }
      ]
    },
    {
      "type": "library",
      "bom-ref": "pkg:pypi/sphinx-rtd_theme@1.0.0",
      "group": "",
      "name": "sphinx_rtd_theme",
      "version": "1.0.0",
      "description": "Read the Docs theme for Sphinx",
      "hashes": [
        {
          "alg": "SHA-256",
          "content": "4d35a56f4508cfee4c4fb604373ede6feae2a306731d533f409ef5c3496fdbd8"
        }
      ],
      "licenses": [
        {
          "license": {
            "id": "MIT",
            "url": "https://opensource.org/licenses/MIT"
          }
        }
      ],
      "purl": "pkg:pypi/sphinx-rtd_theme@1.0.0",
      "externalReferences": [
        {
          "url": "https://github.com/readthedocs/sphinx_rtd_theme",
          "type": "vcs"
        }
      ]
    },
    {
      "type": "library",
      "bom-ref": "pkg:pypi/sphinx-csv-filter@0.3.0",
      "group": "",
      "name": "sphinx-csv-filter",
      "version": "0.3.0",
      "description": "Sphinx CSV filter extension for Crate Documentation",
      "hashes": [
        {
          "alg": "SHA-256",
          "content": "73777c02739fb1329ecbfc012bc8e3a9a8b35706670bf2f6b270f56649b11890"
        }
      ],
      "licenses": [
        {
          "license": {
            "id": "Apache-2.0",
            "url": "https://opensource.org/licenses/Apache-2.0"
          }
        }
      ],
      "purl": "pkg:pypi/sphinx-csv-filter@0.3.0",
      "externalReferences": [
        {
          "url": "https://github.com/crate/sphinx_csv_filter",
          "type": "vcs"
        }
      ]
    },
    {
      "type": "library",
      "bom-ref": "pkg:pypi/sphinx-tabs@3.3.1",
      "group": "",
      "name": "sphinx_tabs",
      "version": "3.3.1",
      "description": "Tabbed views for Sphinx",
      "hashes": [
        {
          "alg": "SHA-256",
          "content": "73209aa769246501f6de9e33051cfd2d54f5900e0cc28a63367d8e4af4c0db5d"
        }
      ],
      "licenses": [
        {
          "license": {
            "id": "MIT",
            "url": "https://opensource.org/licenses/MIT"
          }
        }
      ],
      "purl": "pkg:pypi/sphinx-tabs@3.3.1",
      "externalReferences": [
        {
          "url": "https://github.com/executablebooks/sphinx-tabs",
          "type": "vcs"
        }
      ]
    }
  ]
}
