{
  "bomFormat": "CycloneDX",
  "specVersion": "1.3",
  "version": 1,
  "metadata": {
    "tools": [
      {
        "vendor": "CycloneDX",
        "name": "Node.js module",
        "version": "3.0.3"
      },
      {
        "vendor": "AppThreat",
        "name": "cdxgen",
        "version": "3.0.10"
      },
      {
        "vendor": "Fortress Information Security",
        "name": "Github Extractor",
        "version": "1.15.1"
      }
    ],
    "authors": [
      {
        "name": "Fortress Information Security",
        "email": "sales@fortressinfosec.com",
        "phone": "1-407-573-6800"
      }
    ],
    "timestamp": "2022-06-01T21:00:00Z",
    "component": {
      "type": "application",
      "name": "qiandao",
      "version": "",
      "group": "binux",
      "externalReferences": [
        {
          "url": "https://github.com/binux/qiandao.git",
          "type": "distribution"
        },
        {
          "type": "website",
          "url": "https://qiandao.today",
          "comment": "As set via `homepage` in Github API"
        }
      ]
    }
  },
  "components": [
    {
      "type": "library",
      "publisher": "Vinay Sajip",
      "name": "logging",
      "version": "0.4.9.6",
      "description": "A logging module for Python",
      "hashes": [
        {
          "alg": "MD5",
          "content": "dc0a7ebc8b8970263911e11e7b7e1ca8"
        },
        {
          "alg": "SHA-256",
          "content": "26f6b50773f085042d301085bd1bf5d9f3735704db9f37c1ce6d8b85c38f2417"
        }
      ],
      "licenses": [
        {
          "license": {
            "name": "Copyright (C) 2001-2005 by Vinay Sajip. All Rights Reserved. See LICENSE for license."
          }
        }
      ],
      "purl": "pkg:pypi/logging@0.4.9.6",
      "modified": false
    },
    {
      "type": "library",
      "publisher": "Facebook",
      "name": "tornado",
      "version": "6.1",
      "description": "Tornado is a Python web framework and asynchronous networking library, originally developed at FriendFeed.",
      "hashes": [
        {
          "alg": "MD5",
          "content": "20495caae481252995557144c93164b5"
        },
        {
          "alg": "SHA-256",
          "content": "548430be2740e327b3fe0201abe471f314741efcb0067ec4f2d7dcfb4825f3e4"
        }
      ],
      "licenses": [
        {
          "license": {
            "name": "http://www.apache.org/licenses/LICENSE-2.0"
          }
        }
      ],
      "purl": "pkg:pypi/tornado@6.1",
      "modified": false
    },
    {
      "type": "library",
      "name": "hashlib",
      "version": "20081119",
      "description": "Secure hash and message digest algorithm library",
      "hashes": [
        {
          "alg": "MD5",
          "content": "46e59db6d5cac34b3344ef0c30d0897f"
        },
        {
          "alg": "SHA-256",
          "content": "419de2fd10ae71ed9c6adcb55903f116abd1d8acc8c814dfd5f839b4d5013e38"
        }
      ],
      "purl": "pkg:pypi/hashlib@20081119",
      "modified": false
    },
    {
      "type": "library",
      "publisher": "Min RK",
      "name": "umsgpack",
      "version": "0.1.0",
      "description": "DEPRECATED",
      "hashes": [
        {
          "alg": "MD5",
          "content": "13bf61777879e6337e06e31200aed86f"
        },
        {
          "alg": "SHA-256",
          "content": "9a3c1b599379439327d9a8d0a5f940ef56048d522b3f089163c79269484cc932"
        }
      ],
      "licenses": [
        {
          "license": {
            "name": "BSD"
          }
        }
      ],
      "purl": "pkg:pypi/umsgpack@0.1.0",
      "modified": false
    },
    {
      "type": "library",
      "publisher": "Dwayne C. Litzenberger",
      "name": "pbkdf2",
      "version": "1.3",
      "description": "PKCS#5 v2.0 PBKDF2 Module",
      "hashes": [
        {
          "alg": "MD5",
          "content": "40cda566f61420490206597243dd869f"
        },
        {
          "alg": "SHA-256",
          "content": "ac6397369f128212c43064a2b4878038dab78dab41875364554aaf2a684e6979"
        }
      ],
      "purl": "pkg:pypi/pbkdf2@1.3",
      "modified": false
    },
    {
      "type": "library",
      "publisher": "Christopher Simpkins",
      "name": "Crypto",
      "version": "1.4.1",
      "description": "Simple symmetric GPG file encryption and decryption",
      "hashes": [
        {
          "alg": "MD5",
          "content": "39e5154b6b1fc3811ed359628f0f2def"
        },
        {
          "alg": "SHA-256",
          "content": "985120aa86f71545388199f96a2a0e00f7ccfe5ecd14c56355eb399e1a63d164"
        }
      ],
      "licenses": [
        {
          "license": {
            "name": "MIT license"
          }
        }
      ],
      "purl": "pkg:pypi/crypto@1.4.1",
      "modified": false
    },
    {
      "type": "library",
      "publisher": "Zope Foundation and Contributors",
      "name": "datetime",
      "version": "4.4",
      "description": "This package provides a DateTime data type, as known from Zope. Unless you need to communicate with Zope APIs, you're probably better off using Python's built-in datetime module.",
      "hashes": [
        {
          "alg": "MD5",
          "content": "ad1e82d858ed7c8cd2ea437b4cb695ed"
        },
        {
          "alg": "SHA-256",
          "content": "4fcca115ddb466a1104df08d5c2a2f5805d14ca317800e1bfcea8f3d69f66e57"
        }
      ],
      "licenses": [
        {
          "license": {
            "name": "ZPL 2.1"
          }
        }
      ],
      "purl": "pkg:pypi/datetime@4.4",
      "modified": false
    },
    {
      "type": "library",
      "publisher": "Armin Ronacher",
      "name": "jinja2",
      "version": "3.1.2",
      "description": "A very fast and expressive template engine.",
      "hashes": [
        {
          "alg": "MD5",
          "content": "00ccdb509d3592cc2163b286177d75c8"
        },
        {
          "alg": "SHA-256",
          "content": "6088930bfe239f0e6710546ab9c19c9ef35e29792895fed6e6e31a023a182a61"
        }
      ],
      "licenses": [
        {
          "license": {
            "name": "BSD-3-Clause"
          }
        }
      ],
      "purl": "pkg:pypi/jinja2@3.1.2",
      "modified": false
    },
    {
      "type": "library",
      "publisher": "Merlijn van Deen",
      "name": "mysql",
      "version": "0.0.3",
      "description": "Virtual package for MySQL-python",
      "hashes": [
        {
          "alg": "MD5",
          "content": "aed975ffb2e5ab0faed2bbf94a2a925e"
        },
        {
          "alg": "SHA-256",
          "content": "8893cb143a5ac525c49ef358a23b8a0dc9721a95646f7bab6ca2f384c18a6a9a"
        }
      ],
      "licenses": [
        {
          "license": {
            "name": "MIT"
          }
        }
      ],
      "purl": "pkg:pypi/mysql@0.0.3",
      "modified": false
    },
    {
      "type": "library",
      "bom-ref": "pkg:pypi/tornado@4.5.3",
      "group": "",
      "name": "tornado",
      "version": "4.5.3",
      "description": "Tornado is a Python web framework and asynchronous networking library, originally developed at FriendFeed.",
      "hashes": [
        {
          "alg": "SHA-256",
          "content": "92b7ca81e18ba9ec3031a7ee73d4577ac21d41a0c9b775a9182f43301c3b5f8e"
        }
      ],
      "licenses": [
        {
          "license": {
            "name": "CUSTOM",
            "url": "http://www.apache.org/licenses/LICENSE-2.0"
          }
        }
      ],
      "purl": "pkg:pypi/tornado@4.5.3",
      "externalReferences": [
        {
          "url": "http://www.tornadoweb.org/",
          "type": "website"
        }
      ]
    },
    {
      "type": "library",
      "bom-ref": "pkg:pypi/u-msgpack-python@2.7.1",
      "group": "",
      "name": "u-msgpack-python",
      "version": "2.7.1",
      "description": "A portable, lightweight MessagePack serializer and deserializer written in pure Python.",
      "hashes": [
        {
          "alg": "SHA-256",
          "content": "0eb339ae27ec3085945244d17b74fd1ed875e866974d63caaa85d90fca9060a7"
        }
      ],
      "licenses": [
        {
          "license": {
            "id": "MIT",
            "url": "https://opensource.org/licenses/MIT"
          }
        }
      ],
      "purl": "pkg:pypi/u-msgpack-python@2.7.1",
      "externalReferences": [
        {
          "url": "https://github.com/vsergeev/u-msgpack-python",
          "type": "vcs"
        }
      ]
    },
    {
      "type": "library",
      "bom-ref": "pkg:pypi/chardet@4.0.0",
      "group": "",
      "name": "chardet",
      "version": "4.0.0",
      "description": "Universal encoding detector for Python 2 and 3",
      "hashes": [
        {
          "alg": "SHA-256",
          "content": "f864054d66fd9118f2e67044ac8981a54775ec5b67aed0441892edb553d21da5"
        }
      ],
      "licenses": [
        {
          "license": {
            "name": "LGPL"
          }
        }
      ],
      "purl": "pkg:pypi/chardet@4.0.0",
      "externalReferences": [
        {
          "url": "https://github.com/chardet/chardet",
          "type": "vcs"
        }
      ]
    },
    {
      "type": "library",
      "bom-ref": "pkg:pypi/requests@2.27.1",
      "group": "",
      "name": "requests",
      "version": "2.27.1",
      "description": "Python HTTP for Humans.",
      "hashes": [
        {
          "alg": "SHA-256",
          "content": "f22fa1e554c9ddfd16e6e41ac79759e17be9e492b3587efa038054674760e72d"
        }
      ],
      "licenses": [
        {
          "license": {
            "id": "Apache-2.0",
            "url": "https://opensource.org/licenses/Apache-2.0"
          }
        }
      ],
      "purl": "pkg:pypi/requests@2.27.1",
      "externalReferences": [
        {
          "url": "https://requests.readthedocs.io",
          "type": "website"
        }
      ]
    },
    {
      "type": "library",
      "bom-ref": "pkg:pypi/redis@4.3.1",
      "group": "",
      "name": "redis",
      "version": "4.3.1",
      "description": "Python client for Redis database and key-value store",
      "hashes": [
        {
          "alg": "SHA-256",
          "content": "84316970995a7adb907a56754d2b92d88fc2d252963dc5ac34c88f0f1a22c25d"
        }
      ],
      "licenses": [
        {
          "license": {
            "id": "MIT",
            "url": "https://opensource.org/licenses/MIT"
          }
        }
      ],
      "purl": "pkg:pypi/redis@4.3.1",
      "externalReferences": [
        {
          "url": "https://github.com/redis/redis-py",
          "type": "vcs"
        }
      ]
    },
    {
      "type": "library",
      "bom-ref": "pkg:pypi/pycrypto@2.6.1",
      "group": "",
      "name": "pycrypto",
      "version": "2.6.1",
      "description": "Cryptographic modules for Python.",
      "hashes": [
        {
          "alg": "SHA-256",
          "content": "f2ce1e989b272cfcb677616763e0a2e7ec659effa67a88aa92b3a65528f60a3c"
        }
      ],
      "licenses": [
        {
          "license": {
            "name": "Public domain"
          }
        }
      ],
      "purl": "pkg:pypi/pycrypto@2.6.1",
      "externalReferences": [
        {
          "url": "http://www.pycrypto.org/",
          "type": "website"
        }
      ]
    }
  ]
}
