{
  "bomFormat": "CycloneDX",
  "specVersion": "1.3",
  "version": 1,
  "metadata": {
    "tools": [
      {
        "vendor": "cyclonedx",
        "name": "cyclonedx-php-composer",
        "version": "3.10.0"
      },
      {
        "vendor": "AppThreat",
        "name": "cdxgen",
        "version": "3.0.10"
      },
      {
        "vendor": "Fortress Information Security",
        "name": "Github Extractor",
        "version": "1.15.1"
      }
    ],
    "authors": [
      {
        "name": "Fortress Information Security",
        "email": "sales@fortressinfosec.com",
        "phone": "1-407-573-6800"
      }
    ],
    "timestamp": "2022-06-01T21:00:00Z",
    "component": {
      "type": "application",
      "name": "oauth2-server-php",
      "version": "v1.12.1",
      "group": "bshaffer",
      "externalReferences": [
        {
          "url": "https://github.com/bshaffer/oauth2-server-php.git",
          "type": "distribution"
        },
        {
          "type": "website",
          "url": "http://bshaffer.github.io/oauth2-server-php-docs",
          "comment": "As set via `homepage` in Github API"
        }
      ]
    }
  },
  "components": [
    {
      "type": "library",
      "bom-ref": "pkg:composer/aws/aws-sdk-php@2.8.31",
      "group": "aws",
      "name": "aws-sdk-php",
      "version": "2.8.31",
      "description": "AWS SDK for PHP - Use Amazon Web Services in your PHP project",
      "licenses": [
        {
          "license": {
            "id": "Apache-2.0"
          }
        }
      ],
      "purl": "pkg:composer/aws/aws-sdk-php@2.8.31",
      "externalReferences": [
        {
          "url": "https://github.com/aws/aws-sdk-php.git",
          "type": "distribution",
          "comment": "As detected by composer's `getSourceUrls()` (type=git & reference=64fa4b07f056e338a5f0f29eece75babaa83af68)"
        },
        {
          "url": "https://api.github.com/repos/aws/aws-sdk-php/zipball/64fa4b07f056e338a5f0f29eece75babaa83af68",
          "type": "distribution",
          "comment": "As detected by composer's `getDistUrls()` (type=zip & reference=64fa4b07f056e338a5f0f29eece75babaa83af68 & sha1=UNDEFINED)"
        },
        {
          "url": "http://aws.amazon.com/sdkforphp",
          "type": "website",
          "comment": "As set via `homepage` in composer package definition."
        },
        {
          "url": "https://forums.aws.amazon.com/forum.jspa?forumID=80",
          "type": "support",
          "comment": "As set via `support.forum` in composer package definition."
        },
        {
          "url": "https://github.com/aws/aws-sdk-php/issues",
          "type": "issue-tracker",
          "comment": "As set via `support.issues` in composer package definition."
        },
        {
          "url": "https://github.com/aws/aws-sdk-php/tree/2.8.31",
          "type": "distribution",
          "comment": "As set via `support.source` in composer package definition."
        }
      ]
    },
    {
      "type": "library",
      "bom-ref": "pkg:composer/cyclonedx/cyclonedx-library@1.5.0",
      "group": "cyclonedx",
      "name": "cyclonedx-library",
      "version": "1.5.0",
      "description": "Work with CycloneDX Software Bill-of-Materials (SBOM)",
      "licenses": [
        {
          "license": {
            "id": "Apache-2.0"
          }
        }
      ],
      "purl": "pkg:composer/cyclonedx/cyclonedx-library@1.5.0",
      "externalReferences": [
        {
          "url": "https://github.com/CycloneDX/cyclonedx-php-library.git",
          "type": "distribution",
          "comment": "As detected by composer's `getSourceUrls()` (type=git & reference=f41632e1d47001700ef93fa899e6dc49779aa784)"
        },
        {
          "url": "https://api.github.com/repos/CycloneDX/cyclonedx-php-library/zipball/f41632e1d47001700ef93fa899e6dc49779aa784",
          "type": "distribution",
          "comment": "As detected by composer's `getDistUrls()` (type=zip & reference=f41632e1d47001700ef93fa899e6dc49779aa784 & sha1=UNDEFINED)"
        },
        {
          "url": "https://github.com/CycloneDX/cyclonedx-php-library/",
          "type": "website",
          "comment": "As set via `homepage` in composer package definition."
        },
        {
          "url": "https://github.com/CycloneDX/cyclonedx-php-library/issues",
          "type": "issue-tracker",
          "comment": "As set via `support.issues` in composer package definition."
        },
        {
          "url": "https://github.com/CycloneDX/cyclonedx-php-library/tree/v1.5.0",
          "type": "distribution",
          "comment": "As set via `support.source` in composer package definition."
        }
      ]
    },
    {
      "type": "application",
      "bom-ref": "pkg:composer/cyclonedx/cyclonedx-php-composer@3.10.0",
      "group": "cyclonedx",
      "name": "cyclonedx-php-composer",
      "version": "3.10.0",
      "description": "Creates CycloneDX Software Bill-of-Materials (SBOM) from PHP Composer projects",
      "licenses": [
        {
          "license": {
            "id": "Apache-2.0"
          }
        }
      ],
      "purl": "pkg:composer/cyclonedx/cyclonedx-php-composer@3.10.0",
      "externalReferences": [
        {
          "url": "https://github.com/CycloneDX/cyclonedx-php-composer.git",
          "type": "distribution",
          "comment": "As detected by composer's `getSourceUrls()` (type=git & reference=341792df609deab6131ffa65f2f3b273f2e6128a)"
        },
        {
          "url": "https://api.github.com/repos/CycloneDX/cyclonedx-php-composer/zipball/341792df609deab6131ffa65f2f3b273f2e6128a",
          "type": "distribution",
          "comment": "As detected by composer's `getDistUrls()` (type=zip & reference=341792df609deab6131ffa65f2f3b273f2e6128a & sha1=UNDEFINED)"
        },
        {
          "url": "https://github.com/CycloneDX/cyclonedx-php-composer/",
          "type": "website",
          "comment": "As set via `homepage` in composer package definition."
        },
        {
          "url": "https://github.com/CycloneDX/cyclonedx-php-composer/issues",
          "type": "issue-tracker",
          "comment": "As set via `support.issues` in composer package definition."
        },
        {
          "url": "https://github.com/CycloneDX/cyclonedx-php-composer/tree/v3.10.0",
          "type": "distribution",
          "comment": "As set via `support.source` in composer package definition."
        }
      ]
    },
    {
      "type": "library",
      "bom-ref": "pkg:composer/doctrine/instantiator@1.4.1",
      "group": "doctrine",
      "name": "instantiator",
      "version": "1.4.1",
      "description": "A small, lightweight utility to instantiate objects in PHP without invoking their constructors",
      "licenses": [
        {
          "license": {
            "id": "MIT"
          }
        }
      ],
      "purl": "pkg:composer/doctrine/instantiator@1.4.1",
      "externalReferences": [
        {
          "url": "https://github.com/doctrine/instantiator.git",
          "type": "distribution",
          "comment": "As detected by composer's `getSourceUrls()` (type=git & reference=10dcfce151b967d20fde1b34ae6640712c3891bc)"
        },
        {
          "url": "https://api.github.com/repos/doctrine/instantiator/zipball/10dcfce151b967d20fde1b34ae6640712c3891bc",
          "type": "distribution",
          "comment": "As detected by composer's `getDistUrls()` (type=zip & reference=10dcfce151b967d20fde1b34ae6640712c3891bc & sha1=UNDEFINED)"
        },
        {
          "url": "https://www.doctrine-project.org/projects/instantiator.html",
          "type": "website",
          "comment": "As set via `homepage` in composer package definition."
        },
        {
          "url": "https://github.com/doctrine/instantiator/issues",
          "type": "issue-tracker",
          "comment": "As set via `support.issues` in composer package definition."
        },
        {
          "url": "https://github.com/doctrine/instantiator/tree/1.4.1",
          "type": "distribution",
          "comment": "As set via `support.source` in composer package definition."
        },
        {
          "url": "https://www.doctrine-project.org/sponsorship.html",
          "type": "other",
          "comment": "As set via `funding` in composer package definition. (type=custom)"
        },
        {
          "url": "https://www.patreon.com/phpdoctrine",
          "type": "other",
          "comment": "As set via `funding` in composer package definition. (type=patreon)"
        },
        {
          "url": "https://tidelift.com/funding/github/packagist/doctrine%2Finstantiator",
          "type": "other",
          "comment": "As set via `funding` in composer package definition. (type=tidelift)"
        }
      ]
    },
    {
      "type": "library",
      "bom-ref": "pkg:composer/firebase/php-jwt@2.2.0",
      "group": "firebase",
      "name": "php-jwt",
      "version": "2.2.0",
      "description": "A simple library to encode and decode JSON Web Tokens (JWT) in PHP. Should conform to the current spec.",
      "licenses": [
        {
          "license": {
            "id": "BSD-3-Clause"
          }
        }
      ],
      "purl": "pkg:composer/firebase/php-jwt@2.2.0",
      "externalReferences": [
        {
          "url": "https://github.com/firebase/php-jwt.git",
          "type": "distribution",
          "comment": "As detected by composer's `getSourceUrls()` (type=git & reference=e0a75bfb6413f22092c99b70f310ccb2cca3efa5)"
        },
        {
          "url": "https://api.github.com/repos/firebase/php-jwt/zipball/e0a75bfb6413f22092c99b70f310ccb2cca3efa5",
          "type": "distribution",
          "comment": "As detected by composer's `getDistUrls()` (type=zip & reference=e0a75bfb6413f22092c99b70f310ccb2cca3efa5 & sha1=UNDEFINED)"
        },
        {
          "url": "https://github.com/firebase/php-jwt",
          "type": "website",
          "comment": "As set via `homepage` in composer package definition."
        },
        {
          "url": "https://github.com/firebase/php-jwt/issues",
          "type": "issue-tracker",
          "comment": "As set via `support.issues` in composer package definition."
        },
        {
          "url": "https://github.com/firebase/php-jwt/tree/v2.2.0",
          "type": "distribution",
          "comment": "As set via `support.source` in composer package definition."
        }
      ]
    },
    {
      "type": "library",
      "bom-ref": "pkg:composer/guzzle/guzzle@3.9.3",
      "group": "guzzle",
      "name": "guzzle",
      "version": "3.9.3",
      "description": "PHP HTTP client. This library is deprecated in favor of https://packagist.org/packages/guzzlehttp/guzzle",
      "licenses": [
        {
          "license": {
            "id": "MIT"
          }
        }
      ],
      "purl": "pkg:composer/guzzle/guzzle@3.9.3",
      "externalReferences": [
        {
          "url": "https://github.com/guzzle/guzzle3.git",
          "type": "distribution",
          "comment": "As detected by composer's `getSourceUrls()` (type=git & reference=0645b70d953bc1c067bbc8d5bc53194706b628d9)"
        },
        {
          "url": "https://api.github.com/repos/guzzle/guzzle3/zipball/0645b70d953bc1c067bbc8d5bc53194706b628d9",
          "type": "distribution",
          "comment": "As detected by composer's `getDistUrls()` (type=zip & reference=0645b70d953bc1c067bbc8d5bc53194706b628d9 & sha1=UNDEFINED)"
        },
        {
          "url": "http://guzzlephp.org/",
          "type": "website",
          "comment": "As set via `homepage` in composer package definition."
        },
        {
          "url": "https://github.com/guzzle/guzzle3/issues",
          "type": "issue-tracker",
          "comment": "As set via `support.issues` in composer package definition."
        },
        {
          "url": "https://github.com/guzzle/guzzle3/tree/master",
          "type": "distribution",
          "comment": "As set via `support.source` in composer package definition."
        }
      ]
    },
    {
      "type": "library",
      "bom-ref": "pkg:composer/jean85/pretty-package-versions@2.0.5",
      "group": "jean85",
      "name": "pretty-package-versions",
      "version": "2.0.5",
      "description": "A library to get pretty versions strings of installed dependencies",
      "licenses": [
        {
          "license": {
            "id": "MIT"
          }
        }
      ],
      "purl": "pkg:composer/jean85/pretty-package-versions@2.0.5",
      "externalReferences": [
        {
          "url": "https://github.com/Jean85/pretty-package-versions.git",
          "type": "distribution",
          "comment": "As detected by composer's `getSourceUrls()` (type=git & reference=ae547e455a3d8babd07b96966b17d7fd21d9c6af)"
        },
        {
          "url": "https://api.github.com/repos/Jean85/pretty-package-versions/zipball/ae547e455a3d8babd07b96966b17d7fd21d9c6af",
          "type": "distribution",
          "comment": "As detected by composer's `getDistUrls()` (type=zip & reference=ae547e455a3d8babd07b96966b17d7fd21d9c6af & sha1=UNDEFINED)"
        },
        {
          "url": "https://github.com/Jean85/pretty-package-versions/issues",
          "type": "issue-tracker",
          "comment": "As set via `support.issues` in composer package definition."
        },
        {
          "url": "https://github.com/Jean85/pretty-package-versions/tree/2.0.5",
          "type": "distribution",
          "comment": "As set via `support.source` in composer package definition."
        }
      ]
    },
    {
      "type": "library",
      "bom-ref": "pkg:composer/mongodb/mongodb@1.12.0",
      "group": "mongodb",
      "name": "mongodb",
      "version": "1.12.0",
      "description": "MongoDB driver library",
      "licenses": [
        {
          "license": {
            "id": "Apache-2.0"
          }
        }
      ],
      "purl": "pkg:composer/mongodb/mongodb@1.12.0",
      "externalReferences": [
        {
          "url": "https://github.com/mongodb/mongo-php-library.git",
          "type": "distribution",
          "comment": "As detected by composer's `getSourceUrls()` (type=git & reference=e4a7594ac4b31635fa77455c4038a7013024ba28)"
        },
        {
          "url": "https://api.github.com/repos/mongodb/mongo-php-library/zipball/e4a7594ac4b31635fa77455c4038a7013024ba28",
          "type": "distribution",
          "comment": "As detected by composer's `getDistUrls()` (type=zip & reference=e4a7594ac4b31635fa77455c4038a7013024ba28 & sha1=UNDEFINED)"
        },
        {
          "url": "https://jira.mongodb.org/browse/PHPLIB",
          "type": "website",
          "comment": "As set via `homepage` in composer package definition."
        },
        {
          "url": "https://github.com/mongodb/mongo-php-library/issues",
          "type": "issue-tracker",
          "comment": "As set via `support.issues` in composer package definition."
        },
        {
          "url": "https://github.com/mongodb/mongo-php-library/tree/1.12.0",
          "type": "distribution",
          "comment": "As set via `support.source` in composer package definition."
        }
      ]
    },
    {
      "type": "library",
      "bom-ref": "pkg:composer/myclabs/deep-copy@1.11.0",
      "group": "myclabs",
      "name": "deep-copy",
      "version": "1.11.0",
      "description": "Create deep copies (clones) of your objects",
      "licenses": [
        {
          "license": {
            "id": "MIT"
          }
        }
      ],
      "purl": "pkg:composer/myclabs/deep-copy@1.11.0",
      "externalReferences": [
        {
          "url": "https://github.com/myclabs/DeepCopy.git",
          "type": "distribution",
          "comment": "As detected by composer's `getSourceUrls()` (type=git & reference=14daed4296fae74d9e3201d2c4925d1acb7aa614)"
        },
        {
          "url": "https://api.github.com/repos/myclabs/DeepCopy/zipball/14daed4296fae74d9e3201d2c4925d1acb7aa614",
          "type": "distribution",
          "comment": "As detected by composer's `getDistUrls()` (type=zip & reference=14daed4296fae74d9e3201d2c4925d1acb7aa614 & sha1=UNDEFINED)"
        },
        {
          "url": "https://github.com/myclabs/DeepCopy/issues",
          "type": "issue-tracker",
          "comment": "As set via `support.issues` in composer package definition."
        },
        {
          "url": "https://github.com/myclabs/DeepCopy/tree/1.11.0",
          "type": "distribution",
          "comment": "As set via `support.source` in composer package definition."
        },
        {
          "url": "https://tidelift.com/funding/github/packagist/myclabs/deep-copy",
          "type": "other",
          "comment": "As set via `funding` in composer package definition. (type=tidelift)"
        }
      ]
    },
    {
      "type": "library",
      "bom-ref": "pkg:composer/package-url/packageurl-php@1.0.4",
      "group": "package-url",
      "name": "packageurl-php",
      "version": "1.0.4",
      "description": "A parser and builder based on the package url spec.",
      "licenses": [
        {
          "license": {
            "id": "MIT"
          }
        }
      ],
      "purl": "pkg:composer/package-url/packageurl-php@1.0.4",
      "externalReferences": [
        {
          "url": "https://github.com/package-url/packageurl-php.git",
          "type": "distribution",
          "comment": "As detected by composer's `getSourceUrls()` (type=git & reference=c45953babed516d27a0cf6c1a2d9f7e883ce214f)"
        },
        {
          "url": "https://api.github.com/repos/package-url/packageurl-php/zipball/c45953babed516d27a0cf6c1a2d9f7e883ce214f",
          "type": "distribution",
          "comment": "As detected by composer's `getDistUrls()` (type=zip & reference=c45953babed516d27a0cf6c1a2d9f7e883ce214f & sha1=UNDEFINED)"
        },
        {
          "url": "https://github.com/package-url/packageurl-php",
          "type": "website",
          "comment": "As set via `homepage` in composer package definition."
        },
        {
          "url": "https://github.com/package-url/packageurl-php/issues",
          "type": "issue-tracker",
          "comment": "As set via `support.issues` in composer package definition."
        },
        {
          "url": "https://github.com/package-url/packageurl-php/tree/1.0.4",
          "type": "distribution",
          "comment": "As set via `support.source` in composer package definition."
        }
      ]
    },
    {
      "type": "library",
      "bom-ref": "pkg:composer/phar-io/manifest@2.0.3",
      "group": "phar-io",
      "name": "manifest",
      "version": "2.0.3",
      "description": "Component for reading phar.io manifest information from a PHP Archive (PHAR)",
      "licenses": [
        {
          "license": {
            "id": "BSD-3-Clause"
          }
        }
      ],
      "purl": "pkg:composer/phar-io/manifest@2.0.3",
      "externalReferences": [
        {
          "url": "https://github.com/phar-io/manifest.git",
          "type": "distribution",
          "comment": "As detected by composer's `getSourceUrls()` (type=git & reference=97803eca37d319dfa7826cc2437fc020857acb53)"
        },
        {
          "url": "https://api.github.com/repos/phar-io/manifest/zipball/97803eca37d319dfa7826cc2437fc020857acb53",
          "type": "distribution",
          "comment": "As detected by composer's `getDistUrls()` (type=zip & reference=97803eca37d319dfa7826cc2437fc020857acb53 & sha1=UNDEFINED)"
        },
        {
          "url": "https://github.com/phar-io/manifest/issues",
          "type": "issue-tracker",
          "comment": "As set via `support.issues` in composer package definition."
        },
        {
          "url": "https://github.com/phar-io/manifest/tree/2.0.3",
          "type": "distribution",
          "comment": "As set via `support.source` in composer package definition."
        }
      ]
    },
    {
      "type": "library",
      "bom-ref": "pkg:composer/phar-io/version@3.2.1",
      "group": "phar-io",
      "name": "version",
      "version": "3.2.1",
      "description": "Library for handling version information and constraints",
      "licenses": [
        {
          "license": {
            "id": "BSD-3-Clause"
          }
        }
      ],
      "purl": "pkg:composer/phar-io/version@3.2.1",
      "externalReferences": [
        {
          "url": "https://github.com/phar-io/version.git",
          "type": "distribution",
          "comment": "As detected by composer's `getSourceUrls()` (type=git & reference=4f7fd7836c6f332bb2933569e566a0d6c4cbed74)"
        },
        {
          "url": "https://api.github.com/repos/phar-io/version/zipball/4f7fd7836c6f332bb2933569e566a0d6c4cbed74",
          "type": "distribution",
          "comment": "As detected by composer's `getDistUrls()` (type=zip & reference=4f7fd7836c6f332bb2933569e566a0d6c4cbed74 & sha1=UNDEFINED)"
        },
        {
          "url": "https://github.com/phar-io/version/issues",
          "type": "issue-tracker",
          "comment": "As set via `support.issues` in composer package definition."
        },
        {
          "url": "https://github.com/phar-io/version/tree/3.2.1",
          "type": "distribution",
          "comment": "As set via `support.source` in composer package definition."
        }
      ]
    },
    {
      "type": "library",
      "bom-ref": "pkg:composer/phpdocumentor/reflection-common@2.2.0",
      "group": "phpdocumentor",
      "name": "reflection-common",
      "version": "2.2.0",
      "description": "Common reflection classes used by phpdocumentor to reflect the code structure",
      "licenses": [
        {
          "license": {
            "id": "MIT"
          }
        }
      ],
      "purl": "pkg:composer/phpdocumentor/reflection-common@2.2.0",
      "externalReferences": [
        {
          "url": "https://github.com/phpDocumentor/ReflectionCommon.git",
          "type": "distribution",
          "comment": "As detected by composer's `getSourceUrls()` (type=git & reference=1d01c49d4ed62f25aa84a747ad35d5a16924662b)"
        },
        {
          "url": "https://api.github.com/repos/phpDocumentor/ReflectionCommon/zipball/1d01c49d4ed62f25aa84a747ad35d5a16924662b",
          "type": "distribution",
          "comment": "As detected by composer's `getDistUrls()` (type=zip & reference=1d01c49d4ed62f25aa84a747ad35d5a16924662b & sha1=UNDEFINED)"
        },
        {
          "url": "http://www.phpdoc.org",
          "type": "website",
          "comment": "As set via `homepage` in composer package definition."
        },
        {
          "url": "https://github.com/phpDocumentor/ReflectionCommon/issues",
          "type": "issue-tracker",
          "comment": "As set via `support.issues` in composer package definition."
        },
        {
          "url": "https://github.com/phpDocumentor/ReflectionCommon/tree/2.x",
          "type": "distribution",
          "comment": "As set via `support.source` in composer package definition."
        }
      ]
    },
    {
      "type": "library",
      "bom-ref": "pkg:composer/phpdocumentor/reflection-docblock@5.3.0",
      "group": "phpdocumentor",
      "name": "reflection-docblock",
      "version": "5.3.0",
      "description": "With this component, a library can provide support for annotations via DocBlocks or otherwise retrieve information that is embedded in a DocBlock.",
      "licenses": [
        {
          "license": {
            "id": "MIT"
          }
        }
      ],
      "purl": "pkg:composer/phpdocumentor/reflection-docblock@5.3.0",
      "externalReferences": [
        {
          "url": "https://github.com/phpDocumentor/ReflectionDocBlock.git",
          "type": "distribution",
          "comment": "As detected by composer's `getSourceUrls()` (type=git & reference=622548b623e81ca6d78b721c5e029f4ce664f170)"
        },
        {
          "url": "https://api.github.com/repos/phpDocumentor/ReflectionDocBlock/zipball/622548b623e81ca6d78b721c5e029f4ce664f170",
          "type": "distribution",
          "comment": "As detected by composer's `getDistUrls()` (type=zip & reference=622548b623e81ca6d78b721c5e029f4ce664f170 & sha1=UNDEFINED)"
        },
        {
          "url": "https://github.com/phpDocumentor/ReflectionDocBlock/issues",
          "type": "issue-tracker",
          "comment": "As set via `support.issues` in composer package definition."
        },
        {
          "url": "https://github.com/phpDocumentor/ReflectionDocBlock/tree/5.3.0",
          "type": "distribution",
          "comment": "As set via `support.source` in composer package definition."
        }
      ]
    },
    {
      "type": "library",
      "bom-ref": "pkg:composer/phpdocumentor/type-resolver@1.6.1",
      "group": "phpdocumentor",
      "name": "type-resolver",
      "version": "1.6.1",
      "description": "A PSR-5 based resolver of Class names, Types and Structural Element Names",
      "licenses": [
        {
          "license": {
            "id": "MIT"
          }
        }
      ],
      "purl": "pkg:composer/phpdocumentor/type-resolver@1.6.1",
      "externalReferences": [
        {
          "url": "https://github.com/phpDocumentor/TypeResolver.git",
          "type": "distribution",
          "comment": "As detected by composer's `getSourceUrls()` (type=git & reference=77a32518733312af16a44300404e945338981de3)"
        },
        {
          "url": "https://api.github.com/repos/phpDocumentor/TypeResolver/zipball/77a32518733312af16a44300404e945338981de3",
          "type": "distribution",
          "comment": "As detected by composer's `getDistUrls()` (type=zip & reference=77a32518733312af16a44300404e945338981de3 & sha1=UNDEFINED)"
        },
        {
          "url": "https://github.com/phpDocumentor/TypeResolver/issues",
          "type": "issue-tracker",
          "comment": "As set via `support.issues` in composer package definition."
        },
        {
          "url": "https://github.com/phpDocumentor/TypeResolver/tree/1.6.1",
          "type": "distribution",
          "comment": "As set via `support.source` in composer package definition."
        }
      ]
    },
    {
      "type": "library",
      "bom-ref": "pkg:composer/phplang/scope-exit@1.0.0",
      "group": "phplang",
      "name": "scope-exit",
      "version": "1.0.0",
      "description": "Emulation of SCOPE_EXIT construct from C++",
      "licenses": [
        {
          "license": {
            "name": "BSD"
          }
        }
      ],
      "purl": "pkg:composer/phplang/scope-exit@1.0.0",
      "externalReferences": [
        {
          "url": "https://github.com/phplang/scope-exit.git",
          "type": "distribution",
          "comment": "As detected by composer's `getSourceUrls()` (type=git & reference=239b73abe89f9414aa85a7ca075ec9445629192b)"
        },
        {
          "url": "https://api.github.com/repos/phplang/scope-exit/zipball/239b73abe89f9414aa85a7ca075ec9445629192b",
          "type": "distribution",
          "comment": "As detected by composer's `getDistUrls()` (type=zip & reference=239b73abe89f9414aa85a7ca075ec9445629192b & sha1=UNDEFINED)"
        },
        {
          "url": "https://github.com/phplang/scope-exit",
          "type": "website",
          "comment": "As set via `homepage` in composer package definition."
        },
        {
          "url": "https://github.com/phplang/scope-exit/issues",
          "type": "issue-tracker",
          "comment": "As set via `support.issues` in composer package definition."
        },
        {
          "url": "https://github.com/phplang/scope-exit/tree/master",
          "type": "distribution",
          "comment": "As set via `support.source` in composer package definition."
        }
      ]
    },
    {
      "type": "library",
      "bom-ref": "pkg:composer/phpspec/prophecy@1.15.0",
      "group": "phpspec",
      "name": "prophecy",
      "version": "1.15.0",
      "description": "Highly opinionated mocking framework for PHP 5.3+",
      "licenses": [
        {
          "license": {
            "id": "MIT"
          }
        }
      ],
      "purl": "pkg:composer/phpspec/prophecy@1.15.0",
      "externalReferences": [
        {
          "url": "https://github.com/phpspec/prophecy.git",
          "type": "distribution",
          "comment": "As detected by composer's `getSourceUrls()` (type=git & reference=bbcd7380b0ebf3961ee21409db7b38bc31d69a13)"
        },
        {
          "url": "https://api.github.com/repos/phpspec/prophecy/zipball/bbcd7380b0ebf3961ee21409db7b38bc31d69a13",
          "type": "distribution",
          "comment": "As detected by composer's `getDistUrls()` (type=zip & reference=bbcd7380b0ebf3961ee21409db7b38bc31d69a13 & sha1=UNDEFINED)"
        },
        {
          "url": "https://github.com/phpspec/prophecy",
          "type": "website",
          "comment": "As set via `homepage` in composer package definition."
        },
        {
          "url": "https://github.com/phpspec/prophecy/issues",
          "type": "issue-tracker",
          "comment": "As set via `support.issues` in composer package definition."
        },
        {
          "url": "https://github.com/phpspec/prophecy/tree/v1.15.0",
          "type": "distribution",
          "comment": "As set via `support.source` in composer package definition."
        }
      ]
    },
    {
      "type": "library",
      "bom-ref": "pkg:composer/phpunit/php-code-coverage@7.0.15",
      "group": "phpunit",
      "name": "php-code-coverage",
      "version": "7.0.15",
      "description": "Library that provides collection, processing, and rendering functionality for PHP code coverage information.",
      "licenses": [
        {
          "license": {
            "id": "BSD-3-Clause"
          }
        }
      ],
      "purl": "pkg:composer/phpunit/php-code-coverage@7.0.15",
      "externalReferences": [
        {
          "url": "https://github.com/sebastianbergmann/php-code-coverage.git",
          "type": "distribution",
          "comment": "As detected by composer's `getSourceUrls()` (type=git & reference=819f92bba8b001d4363065928088de22f25a3a48)"
        },
        {
          "url": "https://api.github.com/repos/sebastianbergmann/php-code-coverage/zipball/819f92bba8b001d4363065928088de22f25a3a48",
          "type": "distribution",
          "comment": "As detected by composer's `getDistUrls()` (type=zip & reference=819f92bba8b001d4363065928088de22f25a3a48 & sha1=UNDEFINED)"
        },
        {
          "url": "https://github.com/sebastianbergmann/php-code-coverage",
          "type": "website",
          "comment": "As set via `homepage` in composer package definition."
        },
        {
          "url": "https://github.com/sebastianbergmann/php-code-coverage/issues",
          "type": "issue-tracker",
          "comment": "As set via `support.issues` in composer package definition."
        },
        {
          "url": "https://github.com/sebastianbergmann/php-code-coverage/tree/7.0.15",
          "type": "distribution",
          "comment": "As set via `support.source` in composer package definition."
        },
        {
          "url": "https://github.com/sebastianbergmann",
          "type": "other",
          "comment": "As set via `funding` in composer package definition. (type=github)"
        }
      ]
    },
    {
      "type": "library",
      "bom-ref": "pkg:composer/phpunit/php-file-iterator@2.0.5",
      "group": "phpunit",
      "name": "php-file-iterator",
      "version": "2.0.5",
      "description": "FilterIterator implementation that filters files based on a list of suffixes.",
      "licenses": [
        {
          "license": {
            "id": "BSD-3-Clause"
          }
        }
      ],
      "purl": "pkg:composer/phpunit/php-file-iterator@2.0.5",
      "externalReferences": [
        {
          "url": "https://github.com/sebastianbergmann/php-file-iterator.git",
          "type": "distribution",
          "comment": "As detected by composer's `getSourceUrls()` (type=git & reference=42c5ba5220e6904cbfe8b1a1bda7c0cfdc8c12f5)"
        },
        {
          "url": "https://api.github.com/repos/sebastianbergmann/php-file-iterator/zipball/42c5ba5220e6904cbfe8b1a1bda7c0cfdc8c12f5",
          "type": "distribution",
          "comment": "As detected by composer's `getDistUrls()` (type=zip & reference=42c5ba5220e6904cbfe8b1a1bda7c0cfdc8c12f5 & sha1=UNDEFINED)"
        },
        {
          "url": "https://github.com/sebastianbergmann/php-file-iterator/",
          "type": "website",
          "comment": "As set via `homepage` in composer package definition."
        },
        {
          "url": "https://github.com/sebastianbergmann/php-file-iterator/issues",
          "type": "issue-tracker",
          "comment": "As set via `support.issues` in composer package definition."
        },
        {
          "url": "https://github.com/sebastianbergmann/php-file-iterator/tree/2.0.5",
          "type": "distribution",
          "comment": "As set via `support.source` in composer package definition."
        },
        {
          "url": "https://github.com/sebastianbergmann",
          "type": "other",
          "comment": "As set via `funding` in composer package definition. (type=github)"
        }
      ]
    },
    {
      "type": "library",
      "bom-ref": "pkg:composer/phpunit/php-text-template@1.2.1",
      "group": "phpunit",
      "name": "php-text-template",
      "version": "1.2.1",
      "description": "Simple template engine.",
      "licenses": [
        {
          "license": {
            "id": "BSD-3-Clause"
          }
        }
      ],
      "purl": "pkg:composer/phpunit/php-text-template@1.2.1",
      "externalReferences": [
        {
          "url": "https://github.com/sebastianbergmann/php-text-template.git",
          "type": "distribution",
          "comment": "As detected by composer's `getSourceUrls()` (type=git & reference=31f8b717e51d9a2afca6c9f046f5d69fc27c8686)"
        },
        {
          "url": "https://api.github.com/repos/sebastianbergmann/php-text-template/zipball/31f8b717e51d9a2afca6c9f046f5d69fc27c8686",
          "type": "distribution",
          "comment": "As detected by composer's `getDistUrls()` (type=zip & reference=31f8b717e51d9a2afca6c9f046f5d69fc27c8686 & sha1=UNDEFINED)"
        },
        {
          "url": "https://github.com/sebastianbergmann/php-text-template/",
          "type": "website",
          "comment": "As set via `homepage` in composer package definition."
        },
        {
          "url": "https://github.com/sebastianbergmann/php-text-template/issues",
          "type": "issue-tracker",
          "comment": "As set via `support.issues` in composer package definition."
        },
        {
          "url": "https://github.com/sebastianbergmann/php-text-template/tree/1.2.1",
          "type": "distribution",
          "comment": "As set via `support.source` in composer package definition."
        }
      ]
    },
    {
      "type": "library",
      "bom-ref": "pkg:composer/phpunit/php-timer@2.1.3",
      "group": "phpunit",
      "name": "php-timer",
      "version": "2.1.3",
      "description": "Utility class for timing",
      "licenses": [
        {
          "license": {
            "id": "BSD-3-Clause"
          }
        }
      ],
      "purl": "pkg:composer/phpunit/php-timer@2.1.3",
      "externalReferences": [
        {
          "url": "https://github.com/sebastianbergmann/php-timer.git",
          "type": "distribution",
          "comment": "As detected by composer's `getSourceUrls()` (type=git & reference=2454ae1765516d20c4ffe103d85a58a9a3bd5662)"
        },
        {
          "url": "https://api.github.com/repos/sebastianbergmann/php-timer/zipball/2454ae1765516d20c4ffe103d85a58a9a3bd5662",
          "type": "distribution",
          "comment": "As detected by composer's `getDistUrls()` (type=zip & reference=2454ae1765516d20c4ffe103d85a58a9a3bd5662 & sha1=UNDEFINED)"
        },
        {
          "url": "https://github.com/sebastianbergmann/php-timer/",
          "type": "website",
          "comment": "As set via `homepage` in composer package definition."
        },
        {
          "url": "https://github.com/sebastianbergmann/php-timer/issues",
          "type": "issue-tracker",
          "comment": "As set via `support.issues` in composer package definition."
        },
        {
          "url": "https://github.com/sebastianbergmann/php-timer/tree/2.1.3",
          "type": "distribution",
          "comment": "As set via `support.source` in composer package definition."
        },
        {
          "url": "https://github.com/sebastianbergmann",
          "type": "other",
          "comment": "As set via `funding` in composer package definition. (type=github)"
        }
      ]
    },
    {
      "type": "library",
      "bom-ref": "pkg:composer/phpunit/php-token-stream@4.0.4",
      "group": "phpunit",
      "name": "php-token-stream",
      "version": "4.0.4",
      "description": "Wrapper around PHP's tokenizer extension.",
      "licenses": [
        {
          "license": {
            "id": "BSD-3-Clause"
          }
        }
      ],
      "purl": "pkg:composer/phpunit/php-token-stream@4.0.4",
      "externalReferences": [
        {
          "url": "https://github.com/sebastianbergmann/php-token-stream.git",
          "type": "distribution",
          "comment": "As detected by composer's `getSourceUrls()` (type=git & reference=a853a0e183b9db7eed023d7933a858fa1c8d25a3)"
        },
        {
          "url": "https://api.github.com/repos/sebastianbergmann/php-token-stream/zipball/a853a0e183b9db7eed023d7933a858fa1c8d25a3",
          "type": "distribution",
          "comment": "As detected by composer's `getDistUrls()` (type=zip & reference=a853a0e183b9db7eed023d7933a858fa1c8d25a3 & sha1=UNDEFINED)"
        },
        {
          "url": "https://github.com/sebastianbergmann/php-token-stream/",
          "type": "website",
          "comment": "As set via `homepage` in composer package definition."
        },
        {
          "url": "https://github.com/sebastianbergmann/php-token-stream/issues",
          "type": "issue-tracker",
          "comment": "As set via `support.issues` in composer package definition."
        },
        {
          "url": "https://github.com/sebastianbergmann/php-token-stream/tree/master",
          "type": "distribution",
          "comment": "As set via `support.source` in composer package definition."
        },
        {
          "url": "https://github.com/sebastianbergmann",
          "type": "other",
          "comment": "As set via `funding` in composer package definition. (type=github)"
        }
      ]
    },
    {
      "type": "library",
      "bom-ref": "pkg:composer/phpunit/phpunit@8.5.26",
      "group": "phpunit",
      "name": "phpunit",
      "version": "8.5.26",
      "description": "The PHP Unit Testing framework.",
      "licenses": [
        {
          "license": {
            "id": "BSD-3-Clause"
          }
        }
      ],
      "purl": "pkg:composer/phpunit/phpunit@8.5.26",
      "externalReferences": [
        {
          "url": "https://github.com/sebastianbergmann/phpunit.git",
          "type": "distribution",
          "comment": "As detected by composer's `getSourceUrls()` (type=git & reference=ef117c59fc4c54a979021b26d08a3373e386606d)"
        },
        {
          "url": "https://api.github.com/repos/sebastianbergmann/phpunit/zipball/ef117c59fc4c54a979021b26d08a3373e386606d",
          "type": "distribution",
          "comment": "As detected by composer's `getDistUrls()` (type=zip & reference=ef117c59fc4c54a979021b26d08a3373e386606d & sha1=UNDEFINED)"
        },
        {
          "url": "https://phpunit.de/",
          "type": "website",
          "comment": "As set via `homepage` in composer package definition."
        },
        {
          "url": "https://github.com/sebastianbergmann/phpunit/issues",
          "type": "issue-tracker",
          "comment": "As set via `support.issues` in composer package definition."
        },
        {
          "url": "https://github.com/sebastianbergmann/phpunit/tree/8.5.26",
          "type": "distribution",
          "comment": "As set via `support.source` in composer package definition."
        },
        {
          "url": "https://phpunit.de/sponsors.html",
          "type": "other",
          "comment": "As set via `funding` in composer package definition. (type=custom)"
        },
        {
          "url": "https://github.com/sebastianbergmann",
          "type": "other",
          "comment": "As set via `funding` in composer package definition. (type=github)"
        }
      ]
    },
    {
      "type": "library",
      "bom-ref": "pkg:composer/predis/predis@1.1.10",
      "group": "predis",
      "name": "predis",
      "version": "1.1.10",
      "description": "Flexible and feature-complete Redis client for PHP and HHVM",
      "licenses": [
        {
          "license": {
            "id": "MIT"
          }
        }
      ],
      "purl": "pkg:composer/predis/predis@1.1.10",
      "externalReferences": [
        {
          "url": "https://github.com/predis/predis.git",
          "type": "distribution",
          "comment": "As detected by composer's `getSourceUrls()` (type=git & reference=a2fb02d738bedadcffdbb07efa3a5e7bd57f8d6e)"
        },
        {
          "url": "https://api.github.com/repos/predis/predis/zipball/a2fb02d738bedadcffdbb07efa3a5e7bd57f8d6e",
          "type": "distribution",
          "comment": "As detected by composer's `getDistUrls()` (type=zip & reference=a2fb02d738bedadcffdbb07efa3a5e7bd57f8d6e & sha1=UNDEFINED)"
        },
        {
          "url": "http://github.com/predis/predis",
          "type": "website",
          "comment": "As set via `homepage` in composer package definition."
        },
        {
          "url": "https://github.com/predis/predis/issues",
          "type": "issue-tracker",
          "comment": "As set via `support.issues` in composer package definition."
        },
        {
          "url": "https://github.com/predis/predis/tree/v1.1.10",
          "type": "distribution",
          "comment": "As set via `support.source` in composer package definition."
        },
        {
          "url": "https://github.com/sponsors/tillkruss",
          "type": "other",
          "comment": "As set via `funding` in composer package definition. (type=github)"
        }
      ]
    },
    {
      "type": "library",
      "bom-ref": "pkg:composer/sebastian/code-unit-reverse-lookup@1.0.2",
      "group": "sebastian",
      "name": "code-unit-reverse-lookup",
      "version": "1.0.2",
      "description": "Looks up which function or method a line of code belongs to",
      "licenses": [
        {
          "license": {
            "id": "BSD-3-Clause"
          }
        }
      ],
      "purl": "pkg:composer/sebastian/code-unit-reverse-lookup@1.0.2",
      "externalReferences": [
        {
          "url": "https://github.com/sebastianbergmann/code-unit-reverse-lookup.git",
          "type": "distribution",
          "comment": "As detected by composer's `getSourceUrls()` (type=git & reference=1de8cd5c010cb153fcd68b8d0f64606f523f7619)"
        },
        {
          "url": "https://api.github.com/repos/sebastianbergmann/code-unit-reverse-lookup/zipball/1de8cd5c010cb153fcd68b8d0f64606f523f7619",
          "type": "distribution",
          "comment": "As detected by composer's `getDistUrls()` (type=zip & reference=1de8cd5c010cb153fcd68b8d0f64606f523f7619 & sha1=UNDEFINED)"
        },
        {
          "url": "https://github.com/sebastianbergmann/code-unit-reverse-lookup/",
          "type": "website",
          "comment": "As set via `homepage` in composer package definition."
        },
        {
          "url": "https://github.com/sebastianbergmann/code-unit-reverse-lookup/issues",
          "type": "issue-tracker",
          "comment": "As set via `support.issues` in composer package definition."
        },
        {
          "url": "https://github.com/sebastianbergmann/code-unit-reverse-lookup/tree/1.0.2",
          "type": "distribution",
          "comment": "As set via `support.source` in composer package definition."
        },
        {
          "url": "https://github.com/sebastianbergmann",
          "type": "other",
          "comment": "As set via `funding` in composer package definition. (type=github)"
        }
      ]
    },
    {
      "type": "library",
      "bom-ref": "pkg:composer/sebastian/comparator@3.0.3",
      "group": "sebastian",
      "name": "comparator",
      "version": "3.0.3",
      "description": "Provides the functionality to compare PHP values for equality",
      "licenses": [
        {
          "license": {
            "id": "BSD-3-Clause"
          }
        }
      ],
      "purl": "pkg:composer/sebastian/comparator@3.0.3",
      "externalReferences": [
        {
          "url": "https://github.com/sebastianbergmann/comparator.git",
          "type": "distribution",
          "comment": "As detected by composer's `getSourceUrls()` (type=git & reference=1071dfcef776a57013124ff35e1fc41ccd294758)"
        },
        {
          "url": "https://api.github.com/repos/sebastianbergmann/comparator/zipball/1071dfcef776a57013124ff35e1fc41ccd294758",
          "type": "distribution",
          "comment": "As detected by composer's `getDistUrls()` (type=zip & reference=1071dfcef776a57013124ff35e1fc41ccd294758 & sha1=UNDEFINED)"
        },
        {
          "url": "https://github.com/sebastianbergmann/comparator",
          "type": "website",
          "comment": "As set via `homepage` in composer package definition."
        },
        {
          "url": "https://github.com/sebastianbergmann/comparator/issues",
          "type": "issue-tracker",
          "comment": "As set via `support.issues` in composer package definition."
        },
        {
          "url": "https://github.com/sebastianbergmann/comparator/tree/3.0.3",
          "type": "distribution",
          "comment": "As set via `support.source` in composer package definition."
        },
        {
          "url": "https://github.com/sebastianbergmann",
          "type": "other",
          "comment": "As set via `funding` in composer package definition. (type=github)"
        }
      ]
    },
    {
      "type": "library",
      "bom-ref": "pkg:composer/sebastian/diff@3.0.3",
      "group": "sebastian",
      "name": "diff",
      "version": "3.0.3",
      "description": "Diff implementation",
      "licenses": [
        {
          "license": {
            "id": "BSD-3-Clause"
          }
        }
      ],
      "purl": "pkg:composer/sebastian/diff@3.0.3",
      "externalReferences": [
        {
          "url": "https://github.com/sebastianbergmann/diff.git",
          "type": "distribution",
          "comment": "As detected by composer's `getSourceUrls()` (type=git & reference=14f72dd46eaf2f2293cbe79c93cc0bc43161a211)"
        },
        {
          "url": "https://api.github.com/repos/sebastianbergmann/diff/zipball/14f72dd46eaf2f2293cbe79c93cc0bc43161a211",
          "type": "distribution",
          "comment": "As detected by composer's `getDistUrls()` (type=zip & reference=14f72dd46eaf2f2293cbe79c93cc0bc43161a211 & sha1=UNDEFINED)"
        },
        {
          "url": "https://github.com/sebastianbergmann/diff",
          "type": "website",
          "comment": "As set via `homepage` in composer package definition."
        },
        {
          "url": "https://github.com/sebastianbergmann/diff/issues",
          "type": "issue-tracker",
          "comment": "As set via `support.issues` in composer package definition."
        },
        {
          "url": "https://github.com/sebastianbergmann/diff/tree/3.0.3",
          "type": "distribution",
          "comment": "As set via `support.source` in composer package definition."
        },
        {
          "url": "https://github.com/sebastianbergmann",
          "type": "other",
          "comment": "As set via `funding` in composer package definition. (type=github)"
        }
      ]
    },
    {
      "type": "library",
      "bom-ref": "pkg:composer/sebastian/environment@4.2.4",
      "group": "sebastian",
      "name": "environment",
      "version": "4.2.4",
      "description": "Provides functionality to handle HHVM/PHP environments",
      "licenses": [
        {
          "license": {
            "id": "BSD-3-Clause"
          }
        }
      ],
      "purl": "pkg:composer/sebastian/environment@4.2.4",
      "externalReferences": [
        {
          "url": "https://github.com/sebastianbergmann/environment.git",
          "type": "distribution",
          "comment": "As detected by composer's `getSourceUrls()` (type=git & reference=d47bbbad83711771f167c72d4e3f25f7fcc1f8b0)"
        },
        {
          "url": "https://api.github.com/repos/sebastianbergmann/environment/zipball/d47bbbad83711771f167c72d4e3f25f7fcc1f8b0",
          "type": "distribution",
          "comment": "As detected by composer's `getDistUrls()` (type=zip & reference=d47bbbad83711771f167c72d4e3f25f7fcc1f8b0 & sha1=UNDEFINED)"
        },
        {
          "url": "http://www.github.com/sebastianbergmann/environment",
          "type": "website",
          "comment": "As set via `homepage` in composer package definition."
        },
        {
          "url": "https://github.com/sebastianbergmann/environment/issues",
          "type": "issue-tracker",
          "comment": "As set via `support.issues` in composer package definition."
        },
        {
          "url": "https://github.com/sebastianbergmann/environment/tree/4.2.4",
          "type": "distribution",
          "comment": "As set via `support.source` in composer package definition."
        },
        {
          "url": "https://github.com/sebastianbergmann",
          "type": "other",
          "comment": "As set via `funding` in composer package definition. (type=github)"
        }
      ]
    },
    {
      "type": "library",
      "bom-ref": "pkg:composer/sebastian/exporter@3.1.4",
      "group": "sebastian",
      "name": "exporter",
      "version": "3.1.4",
      "description": "Provides the functionality to export PHP variables for visualization",
      "licenses": [
        {
          "license": {
            "id": "BSD-3-Clause"
          }
        }
      ],
      "purl": "pkg:composer/sebastian/exporter@3.1.4",
      "externalReferences": [
        {
          "url": "https://github.com/sebastianbergmann/exporter.git",
          "type": "distribution",
          "comment": "As detected by composer's `getSourceUrls()` (type=git & reference=0c32ea2e40dbf59de29f3b49bf375176ce7dd8db)"
        },
        {
          "url": "https://api.github.com/repos/sebastianbergmann/exporter/zipball/0c32ea2e40dbf59de29f3b49bf375176ce7dd8db",
          "type": "distribution",
          "comment": "As detected by composer's `getDistUrls()` (type=zip & reference=0c32ea2e40dbf59de29f3b49bf375176ce7dd8db & sha1=UNDEFINED)"
        },
        {
          "url": "http://www.github.com/sebastianbergmann/exporter",
          "type": "website",
          "comment": "As set via `homepage` in composer package definition."
        },
        {
          "url": "https://github.com/sebastianbergmann/exporter/issues",
          "type": "issue-tracker",
          "comment": "As set via `support.issues` in composer package definition."
        },
        {
          "url": "https://github.com/sebastianbergmann/exporter/tree/3.1.4",
          "type": "distribution",
          "comment": "As set via `support.source` in composer package definition."
        },
        {
          "url": "https://github.com/sebastianbergmann",
          "type": "other",
          "comment": "As set via `funding` in composer package definition. (type=github)"
        }
      ]
    },
    {
      "type": "library",
      "bom-ref": "pkg:composer/sebastian/global-state@3.0.2",
      "group": "sebastian",
      "name": "global-state",
      "version": "3.0.2",
      "description": "Snapshotting of global state",
      "licenses": [
        {
          "license": {
            "id": "BSD-3-Clause"
          }
        }
      ],
      "purl": "pkg:composer/sebastian/global-state@3.0.2",
      "externalReferences": [
        {
          "url": "https://github.com/sebastianbergmann/global-state.git",
          "type": "distribution",
          "comment": "As detected by composer's `getSourceUrls()` (type=git & reference=de036ec91d55d2a9e0db2ba975b512cdb1c23921)"
        },
        {
          "url": "https://api.github.com/repos/sebastianbergmann/global-state/zipball/de036ec91d55d2a9e0db2ba975b512cdb1c23921",
          "type": "distribution",
          "comment": "As detected by composer's `getDistUrls()` (type=zip & reference=de036ec91d55d2a9e0db2ba975b512cdb1c23921 & sha1=UNDEFINED)"
        },
        {
          "url": "http://www.github.com/sebastianbergmann/global-state",
          "type": "website",
          "comment": "As set via `homepage` in composer package definition."
        },
        {
          "url": "https://github.com/sebastianbergmann/global-state/issues",
          "type": "issue-tracker",
          "comment": "As set via `support.issues` in composer package definition."
        },
        {
          "url": "https://github.com/sebastianbergmann/global-state/tree/3.0.2",
          "type": "distribution",
          "comment": "As set via `support.source` in composer package definition."
        },
        {
          "url": "https://github.com/sebastianbergmann",
          "type": "other",
          "comment": "As set via `funding` in composer package definition. (type=github)"
        }
      ]
    },
    {
      "type": "library",
      "bom-ref": "pkg:composer/sebastian/object-enumerator@3.0.4",
      "group": "sebastian",
      "name": "object-enumerator",
      "version": "3.0.4",
      "description": "Traverses array structures and object graphs to enumerate all referenced objects",
      "licenses": [
        {
          "license": {
            "id": "BSD-3-Clause"
          }
        }
      ],
      "purl": "pkg:composer/sebastian/object-enumerator@3.0.4",
      "externalReferences": [
        {
          "url": "https://github.com/sebastianbergmann/object-enumerator.git",
          "type": "distribution",
          "comment": "As detected by composer's `getSourceUrls()` (type=git & reference=e67f6d32ebd0c749cf9d1dbd9f226c727043cdf2)"
        },
        {
          "url": "https://api.github.com/repos/sebastianbergmann/object-enumerator/zipball/e67f6d32ebd0c749cf9d1dbd9f226c727043cdf2",
          "type": "distribution",
          "comment": "As detected by composer's `getDistUrls()` (type=zip & reference=e67f6d32ebd0c749cf9d1dbd9f226c727043cdf2 & sha1=UNDEFINED)"
        },
        {
          "url": "https://github.com/sebastianbergmann/object-enumerator/",
          "type": "website",
          "comment": "As set via `homepage` in composer package definition."
        },
        {
          "url": "https://github.com/sebastianbergmann/object-enumerator/issues",
          "type": "issue-tracker",
          "comment": "As set via `support.issues` in composer package definition."
        },
        {
          "url": "https://github.com/sebastianbergmann/object-enumerator/tree/3.0.4",
          "type": "distribution",
          "comment": "As set via `support.source` in composer package definition."
        },
        {
          "url": "https://github.com/sebastianbergmann",
          "type": "other",
          "comment": "As set via `funding` in composer package definition. (type=github)"
        }
      ]
    },
    {
      "type": "library",
      "bom-ref": "pkg:composer/sebastian/object-reflector@1.1.2",
      "group": "sebastian",
      "name": "object-reflector",
      "version": "1.1.2",
      "description": "Allows reflection of object attributes, including inherited and non-public ones",
      "licenses": [
        {
          "license": {
            "id": "BSD-3-Clause"
          }
        }
      ],
      "purl": "pkg:composer/sebastian/object-reflector@1.1.2",
      "externalReferences": [
        {
          "url": "https://github.com/sebastianbergmann/object-reflector.git",
          "type": "distribution",
          "comment": "As detected by composer's `getSourceUrls()` (type=git & reference=9b8772b9cbd456ab45d4a598d2dd1a1bced6363d)"
        },
        {
          "url": "https://api.github.com/repos/sebastianbergmann/object-reflector/zipball/9b8772b9cbd456ab45d4a598d2dd1a1bced6363d",
          "type": "distribution",
          "comment": "As detected by composer's `getDistUrls()` (type=zip & reference=9b8772b9cbd456ab45d4a598d2dd1a1bced6363d & sha1=UNDEFINED)"
        },
        {
          "url": "https://github.com/sebastianbergmann/object-reflector/",
          "type": "website",
          "comment": "As set via `homepage` in composer package definition."
        },
        {
          "url": "https://github.com/sebastianbergmann/object-reflector/issues",
          "type": "issue-tracker",
          "comment": "As set via `support.issues` in composer package definition."
        },
        {
          "url": "https://github.com/sebastianbergmann/object-reflector/tree/1.1.2",
          "type": "distribution",
          "comment": "As set via `support.source` in composer package definition."
        },
        {
          "url": "https://github.com/sebastianbergmann",
          "type": "other",
          "comment": "As set via `funding` in composer package definition. (type=github)"
        }
      ]
    },
    {
      "type": "library",
      "bom-ref": "pkg:composer/sebastian/recursion-context@3.0.1",
      "group": "sebastian",
      "name": "recursion-context",
      "version": "3.0.1",
      "description": "Provides functionality to recursively process PHP variables",
      "licenses": [
        {
          "license": {
            "id": "BSD-3-Clause"
          }
        }
      ],
      "purl": "pkg:composer/sebastian/recursion-context@3.0.1",
      "externalReferences": [
        {
          "url": "https://github.com/sebastianbergmann/recursion-context.git",
          "type": "distribution",
          "comment": "As detected by composer's `getSourceUrls()` (type=git & reference=367dcba38d6e1977be014dc4b22f47a484dac7fb)"
        },
        {
          "url": "https://api.github.com/repos/sebastianbergmann/recursion-context/zipball/367dcba38d6e1977be014dc4b22f47a484dac7fb",
          "type": "distribution",
          "comment": "As detected by composer's `getDistUrls()` (type=zip & reference=367dcba38d6e1977be014dc4b22f47a484dac7fb & sha1=UNDEFINED)"
        },
        {
          "url": "http://www.github.com/sebastianbergmann/recursion-context",
          "type": "website",
          "comment": "As set via `homepage` in composer package definition."
        },
        {
          "url": "https://github.com/sebastianbergmann/recursion-context/issues",
          "type": "issue-tracker",
          "comment": "As set via `support.issues` in composer package definition."
        },
        {
          "url": "https://github.com/sebastianbergmann/recursion-context/tree/3.0.1",
          "type": "distribution",
          "comment": "As set via `support.source` in composer package definition."
        },
        {
          "url": "https://github.com/sebastianbergmann",
          "type": "other",
          "comment": "As set via `funding` in composer package definition. (type=github)"
        }
      ]
    },
    {
      "type": "library",
      "bom-ref": "pkg:composer/sebastian/resource-operations@2.0.2",
      "group": "sebastian",
      "name": "resource-operations",
      "version": "2.0.2",
      "description": "Provides a list of PHP built-in functions that operate on resources",
      "licenses": [
        {
          "license": {
            "id": "BSD-3-Clause"
          }
        }
      ],
      "purl": "pkg:composer/sebastian/resource-operations@2.0.2",
      "externalReferences": [
        {
          "url": "https://github.com/sebastianbergmann/resource-operations.git",
          "type": "distribution",
          "comment": "As detected by composer's `getSourceUrls()` (type=git & reference=31d35ca87926450c44eae7e2611d45a7a65ea8b3)"
        },
        {
          "url": "https://api.github.com/repos/sebastianbergmann/resource-operations/zipball/31d35ca87926450c44eae7e2611d45a7a65ea8b3",
          "type": "distribution",
          "comment": "As detected by composer's `getDistUrls()` (type=zip & reference=31d35ca87926450c44eae7e2611d45a7a65ea8b3 & sha1=UNDEFINED)"
        },
        {
          "url": "https://www.github.com/sebastianbergmann/resource-operations",
          "type": "website",
          "comment": "As set via `homepage` in composer package definition."
        },
        {
          "url": "https://github.com/sebastianbergmann/resource-operations/issues",
          "type": "issue-tracker",
          "comment": "As set via `support.issues` in composer package definition."
        },
        {
          "url": "https://github.com/sebastianbergmann/resource-operations/tree/2.0.2",
          "type": "distribution",
          "comment": "As set via `support.source` in composer package definition."
        },
        {
          "url": "https://github.com/sebastianbergmann",
          "type": "other",
          "comment": "As set via `funding` in composer package definition. (type=github)"
        }
      ]
    },
    {
      "type": "library",
      "bom-ref": "pkg:composer/sebastian/type@1.1.4",
      "group": "sebastian",
      "name": "type",
      "version": "1.1.4",
      "description": "Collection of value objects that represent the types of the PHP type system",
      "licenses": [
        {
          "license": {
            "id": "BSD-3-Clause"
          }
        }
      ],
      "purl": "pkg:composer/sebastian/type@1.1.4",
      "externalReferences": [
        {
          "url": "https://github.com/sebastianbergmann/type.git",
          "type": "distribution",
          "comment": "As detected by composer's `getSourceUrls()` (type=git & reference=0150cfbc4495ed2df3872fb31b26781e4e077eb4)"
        },
        {
          "url": "https://api.github.com/repos/sebastianbergmann/type/zipball/0150cfbc4495ed2df3872fb31b26781e4e077eb4",
          "type": "distribution",
          "comment": "As detected by composer's `getDistUrls()` (type=zip & reference=0150cfbc4495ed2df3872fb31b26781e4e077eb4 & sha1=UNDEFINED)"
        },
        {
          "url": "https://github.com/sebastianbergmann/type",
          "type": "website",
          "comment": "As set via `homepage` in composer package definition."
        },
        {
          "url": "https://github.com/sebastianbergmann/type/issues",
          "type": "issue-tracker",
          "comment": "As set via `support.issues` in composer package definition."
        },
        {
          "url": "https://github.com/sebastianbergmann/type/tree/1.1.4",
          "type": "distribution",
          "comment": "As set via `support.source` in composer package definition."
        },
        {
          "url": "https://github.com/sebastianbergmann",
          "type": "other",
          "comment": "As set via `funding` in composer package definition. (type=github)"
        }
      ]
    },
    {
      "type": "library",
      "bom-ref": "pkg:composer/sebastian/version@2.0.1",
      "group": "sebastian",
      "name": "version",
      "version": "2.0.1",
      "description": "Library that helps with managing the version number of Git-hosted PHP projects",
      "licenses": [
        {
          "license": {
            "id": "BSD-3-Clause"
          }
        }
      ],
      "purl": "pkg:composer/sebastian/version@2.0.1",
      "externalReferences": [
        {
          "url": "https://github.com/sebastianbergmann/version.git",
          "type": "distribution",
          "comment": "As detected by composer's `getSourceUrls()` (type=git & reference=99732be0ddb3361e16ad77b68ba41efc8e979019)"
        },
        {
          "url": "https://api.github.com/repos/sebastianbergmann/version/zipball/99732be0ddb3361e16ad77b68ba41efc8e979019",
          "type": "distribution",
          "comment": "As detected by composer's `getDistUrls()` (type=zip & reference=99732be0ddb3361e16ad77b68ba41efc8e979019 & sha1=UNDEFINED)"
        },
        {
          "url": "https://github.com/sebastianbergmann/version",
          "type": "website",
          "comment": "As set via `homepage` in composer package definition."
        },
        {
          "url": "https://github.com/sebastianbergmann/version/issues",
          "type": "issue-tracker",
          "comment": "As set via `support.issues` in composer package definition."
        },
        {
          "url": "https://github.com/sebastianbergmann/version/tree/master",
          "type": "distribution",
          "comment": "As set via `support.source` in composer package definition."
        }
      ]
    },
    {
      "type": "library",
      "bom-ref": "pkg:composer/swaggest/json-diff@3.8.3",
      "group": "swaggest",
      "name": "json-diff",
      "version": "3.8.3",
      "description": "JSON diff/rearrange/patch/pointer library for PHP",
      "licenses": [
        {
          "license": {
            "id": "MIT"
          }
        }
      ],
      "purl": "pkg:composer/swaggest/json-diff@3.8.3",
      "externalReferences": [
        {
          "url": "https://github.com/swaggest/json-diff.git",
          "type": "distribution",
          "comment": "As detected by composer's `getSourceUrls()` (type=git & reference=bb3e3b4e9d842bb2e48f31ea568d0459968d1d42)"
        },
        {
          "url": "https://api.github.com/repos/swaggest/json-diff/zipball/bb3e3b4e9d842bb2e48f31ea568d0459968d1d42",
          "type": "distribution",
          "comment": "As detected by composer's `getDistUrls()` (type=zip & reference=bb3e3b4e9d842bb2e48f31ea568d0459968d1d42 & sha1=UNDEFINED)"
        },
        {
          "url": "https://github.com/swaggest/json-diff/issues",
          "type": "issue-tracker",
          "comment": "As set via `support.issues` in composer package definition."
        },
        {
          "url": "https://github.com/swaggest/json-diff/tree/v3.8.3",
          "type": "distribution",
          "comment": "As set via `support.source` in composer package definition."
        }
      ]
    },
    {
      "type": "library",
      "bom-ref": "pkg:composer/swaggest/json-schema@0.12.39",
      "group": "swaggest",
      "name": "json-schema",
      "version": "0.12.39",
      "description": "High definition PHP structures with JSON-schema based validation",
      "licenses": [
        {
          "license": {
            "id": "MIT"
          }
        }
      ],
      "purl": "pkg:composer/swaggest/json-schema@0.12.39",
      "externalReferences": [
        {
          "url": "https://github.com/swaggest/php-json-schema.git",
          "type": "distribution",
          "comment": "As detected by composer's `getSourceUrls()` (type=git & reference=193ba39cce1ffa2d55ddd5445315e945a63298a2)"
        },
        {
          "url": "https://api.github.com/repos/swaggest/php-json-schema/zipball/193ba39cce1ffa2d55ddd5445315e945a63298a2",
          "type": "distribution",
          "comment": "As detected by composer's `getDistUrls()` (type=zip & reference=193ba39cce1ffa2d55ddd5445315e945a63298a2 & sha1=UNDEFINED)"
        },
        {
          "url": "mailto:vearutop@gmail.com",
          "type": "other",
          "comment": "As set via `support.email` in composer package definition."
        },
        {
          "url": "https://github.com/swaggest/php-json-schema/issues",
          "type": "issue-tracker",
          "comment": "As set via `support.issues` in composer package definition."
        },
        {
          "url": "https://github.com/swaggest/php-json-schema/tree/v0.12.39",
          "type": "distribution",
          "comment": "As set via `support.source` in composer package definition."
        }
      ]
    },
    {
      "type": "library",
      "bom-ref": "pkg:composer/symfony/event-dispatcher@2.8.52",
      "group": "symfony",
      "name": "event-dispatcher",
      "version": "2.8.52",
      "description": "Symfony EventDispatcher Component",
      "licenses": [
        {
          "license": {
            "id": "MIT"
          }
        }
      ],
      "purl": "pkg:composer/symfony/event-dispatcher@2.8.52",
      "externalReferences": [
        {
          "url": "https://github.com/symfony/event-dispatcher.git",
          "type": "distribution",
          "comment": "As detected by composer's `getSourceUrls()` (type=git & reference=a77e974a5fecb4398833b0709210e3d5e334ffb0)"
        },
        {
          "url": "https://api.github.com/repos/symfony/event-dispatcher/zipball/a77e974a5fecb4398833b0709210e3d5e334ffb0",
          "type": "distribution",
          "comment": "As detected by composer's `getDistUrls()` (type=zip & reference=a77e974a5fecb4398833b0709210e3d5e334ffb0 & sha1=UNDEFINED)"
        },
        {
          "url": "https://symfony.com",
          "type": "website",
          "comment": "As set via `homepage` in composer package definition."
        },
        {
          "url": "https://github.com/symfony/event-dispatcher/tree/v2.8.50",
          "type": "distribution",
          "comment": "As set via `support.source` in composer package definition."
        }
      ]
    },
    {
      "type": "library",
      "bom-ref": "pkg:composer/symfony/polyfill-ctype@1.25.0",
      "group": "symfony",
      "name": "polyfill-ctype",
      "version": "1.25.0",
      "description": "Symfony polyfill for ctype functions",
      "licenses": [
        {
          "license": {
            "id": "MIT"
          }
        }
      ],
      "purl": "pkg:composer/symfony/polyfill-ctype@1.25.0",
      "externalReferences": [
        {
          "url": "https://github.com/symfony/polyfill-ctype.git",
          "type": "distribution",
          "comment": "As detected by composer's `getSourceUrls()` (type=git & reference=30885182c981ab175d4d034db0f6f469898070ab)"
        },
        {
          "url": "https://api.github.com/repos/symfony/polyfill-ctype/zipball/30885182c981ab175d4d034db0f6f469898070ab",
          "type": "distribution",
          "comment": "As detected by composer's `getDistUrls()` (type=zip & reference=30885182c981ab175d4d034db0f6f469898070ab & sha1=UNDEFINED)"
        },
        {
          "url": "https://symfony.com",
          "type": "website",
          "comment": "As set via `homepage` in composer package definition."
        },
        {
          "url": "https://github.com/symfony/polyfill-ctype/tree/v1.25.0",
          "type": "distribution",
          "comment": "As set via `support.source` in composer package definition."
        },
        {
          "url": "https://symfony.com/sponsor",
          "type": "other",
          "comment": "As set via `funding` in composer package definition. (type=custom)"
        },
        {
          "url": "https://github.com/fabpot",
          "type": "other",
          "comment": "As set via `funding` in composer package definition. (type=github)"
        },
        {
          "url": "https://tidelift.com/funding/github/packagist/symfony/symfony",
          "type": "other",
          "comment": "As set via `funding` in composer package definition. (type=tidelift)"
        }
      ]
    },
    {
      "type": "library",
      "bom-ref": "pkg:composer/symfony/polyfill-mbstring@1.25.0",
      "group": "symfony",
      "name": "polyfill-mbstring",
      "version": "1.25.0",
      "description": "Symfony polyfill for the Mbstring extension",
      "licenses": [
        {
          "license": {
            "id": "MIT"
          }
        }
      ],
      "purl": "pkg:composer/symfony/polyfill-mbstring@1.25.0",
      "externalReferences": [
        {
          "url": "https://github.com/symfony/polyfill-mbstring.git",
          "type": "distribution",
          "comment": "As detected by composer's `getSourceUrls()` (type=git & reference=0abb51d2f102e00a4eefcf46ba7fec406d245825)"
        },
        {
          "url": "https://api.github.com/repos/symfony/polyfill-mbstring/zipball/0abb51d2f102e00a4eefcf46ba7fec406d245825",
          "type": "distribution",
          "comment": "As detected by composer's `getDistUrls()` (type=zip & reference=0abb51d2f102e00a4eefcf46ba7fec406d245825 & sha1=UNDEFINED)"
        },
        {
          "url": "https://symfony.com",
          "type": "website",
          "comment": "As set via `homepage` in composer package definition."
        },
        {
          "url": "https://github.com/symfony/polyfill-mbstring/tree/v1.25.0",
          "type": "distribution",
          "comment": "As set via `support.source` in composer package definition."
        },
        {
          "url": "https://symfony.com/sponsor",
          "type": "other",
          "comment": "As set via `funding` in composer package definition. (type=custom)"
        },
        {
          "url": "https://github.com/fabpot",
          "type": "other",
          "comment": "As set via `funding` in composer package definition. (type=github)"
        },
        {
          "url": "https://tidelift.com/funding/github/packagist/symfony/symfony",
          "type": "other",
          "comment": "As set via `funding` in composer package definition. (type=tidelift)"
        }
      ]
    },
    {
      "type": "library",
      "bom-ref": "pkg:composer/symfony/polyfill-php80@1.25.0",
      "group": "symfony",
      "name": "polyfill-php80",
      "version": "1.25.0",
      "description": "Symfony polyfill backporting some PHP 8.0+ features to lower PHP versions",
      "licenses": [
        {
          "license": {
            "id": "MIT"
          }
        }
      ],
      "purl": "pkg:composer/symfony/polyfill-php80@1.25.0",
      "externalReferences": [
        {
          "url": "https://github.com/symfony/polyfill-php80.git",
          "type": "distribution",
          "comment": "As detected by composer's `getSourceUrls()` (type=git & reference=4407588e0d3f1f52efb65fbe92babe41f37fe50c)"
        },
        {
          "url": "https://api.github.com/repos/symfony/polyfill-php80/zipball/4407588e0d3f1f52efb65fbe92babe41f37fe50c",
          "type": "distribution",
          "comment": "As detected by composer's `getDistUrls()` (type=zip & reference=4407588e0d3f1f52efb65fbe92babe41f37fe50c & sha1=UNDEFINED)"
        },
        {
          "url": "https://symfony.com",
          "type": "website",
          "comment": "As set via `homepage` in composer package definition."
        },
        {
          "url": "https://github.com/symfony/polyfill-php80/tree/v1.25.0",
          "type": "distribution",
          "comment": "As set via `support.source` in composer package definition."
        },
        {
          "url": "https://symfony.com/sponsor",
          "type": "other",
          "comment": "As set via `funding` in composer package definition. (type=custom)"
        },
        {
          "url": "https://github.com/fabpot",
          "type": "other",
          "comment": "As set via `funding` in composer package definition. (type=github)"
        },
        {
          "url": "https://tidelift.com/funding/github/packagist/symfony/symfony",
          "type": "other",
          "comment": "As set via `funding` in composer package definition. (type=tidelift)"
        }
      ]
    },
    {
      "type": "library",
      "bom-ref": "pkg:composer/theseer/tokenizer@1.2.1",
      "group": "theseer",
      "name": "tokenizer",
      "version": "1.2.1",
      "description": "A small library for converting tokenized PHP source code into XML and potentially other formats",
      "licenses": [
        {
          "license": {
            "id": "BSD-3-Clause"
          }
        }
      ],
      "purl": "pkg:composer/theseer/tokenizer@1.2.1",
      "externalReferences": [
        {
          "url": "https://github.com/theseer/tokenizer.git",
          "type": "distribution",
          "comment": "As detected by composer's `getSourceUrls()` (type=git & reference=34a41e998c2183e22995f158c581e7b5e755ab9e)"
        },
        {
          "url": "https://api.github.com/repos/theseer/tokenizer/zipball/34a41e998c2183e22995f158c581e7b5e755ab9e",
          "type": "distribution",
          "comment": "As detected by composer's `getDistUrls()` (type=zip & reference=34a41e998c2183e22995f158c581e7b5e755ab9e & sha1=UNDEFINED)"
        },
        {
          "url": "https://github.com/theseer/tokenizer/issues",
          "type": "issue-tracker",
          "comment": "As set via `support.issues` in composer package definition."
        },
        {
          "url": "https://github.com/theseer/tokenizer/tree/1.2.1",
          "type": "distribution",
          "comment": "As set via `support.source` in composer package definition."
        },
        {
          "url": "https://github.com/theseer",
          "type": "other",
          "comment": "As set via `funding` in composer package definition. (type=github)"
        }
      ]
    },
    {
      "type": "library",
      "bom-ref": "pkg:composer/thobbs/phpcassa@dev-master",
      "group": "thobbs",
      "name": "phpcassa",
      "version": "dev-master",
      "description": "PHP Cassandra Library",
      "licenses": [
        {
          "license": {
            "id": "MIT"
          }
        }
      ],
      "purl": "pkg:composer/thobbs/phpcassa@dev-master",
      "externalReferences": [
        {
          "url": "https://github.com/thobbs/phpcassa.git",
          "type": "distribution",
          "comment": "As detected by composer's `getSourceUrls()` (type=git & reference=787ecce4501d519de5c7448dd74f67c5cba0c5d5)"
        },
        {
          "url": "https://api.github.com/repos/thobbs/phpcassa/zipball/787ecce4501d519de5c7448dd74f67c5cba0c5d5",
          "type": "distribution",
          "comment": "As detected by composer's `getDistUrls()` (type=zip & reference=787ecce4501d519de5c7448dd74f67c5cba0c5d5 & sha1=UNDEFINED)"
        },
        {
          "url": "https://github.com/thobbs/phpcassa",
          "type": "website",
          "comment": "As set via `homepage` in composer package definition."
        },
        {
          "url": "https://github.com/thobbs/phpcassa/issues",
          "type": "issue-tracker",
          "comment": "As set via `support.issues` in composer package definition."
        },
        {
          "url": "https://github.com/thobbs/phpcassa/tree/master",
          "type": "distribution",
          "comment": "As set via `support.source` in composer package definition."
        }
      ]
    },
    {
      "type": "library",
      "bom-ref": "pkg:composer/webmozart/assert@1.10.0",
      "group": "webmozart",
      "name": "assert",
      "version": "1.10.0",
      "description": "Assertions to validate method input/output with nice error messages.",
      "licenses": [
        {
          "license": {
            "id": "MIT"
          }
        }
      ],
      "purl": "pkg:composer/webmozart/assert@1.10.0",
      "externalReferences": [
        {
          "url": "https://github.com/webmozarts/assert.git",
          "type": "distribution",
          "comment": "As detected by composer's `getSourceUrls()` (type=git & reference=6964c76c7804814a842473e0c8fd15bab0f18e25)"
        },
        {
          "url": "https://api.github.com/repos/webmozarts/assert/zipball/6964c76c7804814a842473e0c8fd15bab0f18e25",
          "type": "distribution",
          "comment": "As detected by composer's `getDistUrls()` (type=zip & reference=6964c76c7804814a842473e0c8fd15bab0f18e25 & sha1=UNDEFINED)"
        },
        {
          "url": "https://github.com/webmozarts/assert/issues",
          "type": "issue-tracker",
          "comment": "As set via `support.issues` in composer package definition."
        },
        {
          "url": "https://github.com/webmozarts/assert/tree/1.10.0",
          "type": "distribution",
          "comment": "As set via `support.source` in composer package definition."
        }
      ]
    },
    {
      "type": "library",
      "bom-ref": "pkg:composer/yoast/phpunit-polyfills@1.0.3",
      "group": "yoast",
      "name": "phpunit-polyfills",
      "version": "1.0.3",
      "description": "Set of polyfills for changed PHPUnit functionality to allow for creating PHPUnit cross-version compatible tests",
      "licenses": [
        {
          "license": {
            "id": "BSD-3-Clause"
          }
        }
      ],
      "purl": "pkg:composer/yoast/phpunit-polyfills@1.0.3",
      "externalReferences": [
        {
          "url": "https://github.com/Yoast/PHPUnit-Polyfills.git",
          "type": "distribution",
          "comment": "As detected by composer's `getSourceUrls()` (type=git & reference=5ea3536428944955f969bc764bbe09738e151ada)"
        },
        {
          "url": "https://api.github.com/repos/Yoast/PHPUnit-Polyfills/zipball/5ea3536428944955f969bc764bbe09738e151ada",
          "type": "distribution",
          "comment": "As detected by composer's `getDistUrls()` (type=zip & reference=5ea3536428944955f969bc764bbe09738e151ada & sha1=UNDEFINED)"
        },
        {
          "url": "https://github.com/Yoast/PHPUnit-Polyfills",
          "type": "website",
          "comment": "As set via `homepage` in composer package definition."
        },
        {
          "url": "https://github.com/Yoast/PHPUnit-Polyfills/issues",
          "type": "issue-tracker",
          "comment": "As set via `support.issues` in composer package definition."
        },
        {
          "url": "https://github.com/Yoast/PHPUnit-Polyfills",
          "type": "distribution",
          "comment": "As set via `support.source` in composer package definition."
        }
      ]
    },
    {
      "type": "library",
      "bom-ref": "pkg:pypi/sphinx@1.2b1",
      "group": "",
      "name": "Sphinx",
      "version": "1.2b1",
      "description": "Python documentation generator",
      "hashes": [
        {
          "alg": "SHA-256",
          "content": "dffb0977ed1bf2becce57d77f043d9b4682e7760ee4745b6f413c86e664b0edf"
        }
      ],
      "licenses": [
        {
          "license": {
            "id": "0BSD",
            "url": "https://opensource.org/licenses/0BSD"
          }
        }
      ],
      "purl": "pkg:pypi/sphinx@1.2b1",
      "externalReferences": [
        {
          "url": "https://www.sphinx-doc.org/",
          "type": "website"
        }
      ]
    },
    {
      "type": "library",
      "bom-ref": "pkg:pypi/guzzle-sphinx_theme@0.5.0",
      "group": "",
      "name": "guzzle_sphinx_theme",
      "version": "0.5.0",
      "description": "Sphinx theme used by Guzzle.",
      "hashes": [
        {
          "alg": "SHA-256",
          "content": "ddcc7c20a612207d3943a754b8949d1d06ced8cf65af32c295606b049898543c"
        }
      ],
      "licenses": [
        {
          "license": {
            "name": "UNKNOWN"
          }
        }
      ],
      "purl": "pkg:pypi/guzzle-sphinx_theme@0.5.0",
      "externalReferences": [
        {
          "url": "https://github.com/guzzle/guzzle_sphinx_theme",
          "type": "vcs"
        }
      ]
    }
  ],
  "dependencies": [
    {
      "ref": "pkg:composer/aws/aws-sdk-php@2.8.31",
      "dependsOn": [
        "pkg:composer/guzzle/guzzle@3.9.3"
      ]
    },
    {
      "ref": "pkg:composer/cyclonedx/cyclonedx-library@1.5.0",
      "dependsOn": [
        "pkg:composer/package-url/packageurl-php@1.0.4",
        "pkg:composer/swaggest/json-schema@0.12.39"
      ]
    },
    {
      "ref": "pkg:composer/cyclonedx/cyclonedx-php-composer@3.10.0",
      "dependsOn": [
        "pkg:composer/cyclonedx/cyclonedx-library@1.5.0",
        "pkg:composer/package-url/packageurl-php@1.0.4"
      ]
    },
    {
      "ref": "pkg:composer/doctrine/instantiator@1.4.1"
    },
    {
      "ref": "pkg:composer/firebase/php-jwt@2.2.0"
    },
    {
      "ref": "pkg:composer/guzzle/guzzle@3.9.3",
      "dependsOn": [
        "pkg:composer/symfony/event-dispatcher@2.8.52"
      ]
    },
    {
      "ref": "pkg:composer/jean85/pretty-package-versions@2.0.5"
    },
    {
      "ref": "pkg:composer/mongodb/mongodb@1.12.0",
      "dependsOn": [
        "pkg:composer/jean85/pretty-package-versions@2.0.5",
        "pkg:composer/symfony/polyfill-php80@1.25.0"
      ]
    },
    {
      "ref": "pkg:composer/myclabs/deep-copy@1.11.0"
    },
    {
      "ref": "pkg:composer/package-url/packageurl-php@1.0.4"
    },
    {
      "ref": "pkg:composer/phar-io/manifest@2.0.3",
      "dependsOn": [
        "pkg:composer/phar-io/version@3.2.1"
      ]
    },
    {
      "ref": "pkg:composer/phar-io/version@3.2.1"
    },
    {
      "ref": "pkg:composer/phpdocumentor/reflection-common@2.2.0"
    },
    {
      "ref": "pkg:composer/phpdocumentor/reflection-docblock@5.3.0",
      "dependsOn": [
        "pkg:composer/phpdocumentor/reflection-common@2.2.0",
        "pkg:composer/phpdocumentor/type-resolver@1.6.1",
        "pkg:composer/webmozart/assert@1.10.0"
      ]
    },
    {
      "ref": "pkg:composer/phpdocumentor/type-resolver@1.6.1",
      "dependsOn": [
        "pkg:composer/phpdocumentor/reflection-common@2.2.0"
      ]
    },
    {
      "ref": "pkg:composer/phplang/scope-exit@1.0.0"
    },
    {
      "ref": "pkg:composer/phpspec/prophecy@1.15.0",
      "dependsOn": [
        "pkg:composer/doctrine/instantiator@1.4.1",
        "pkg:composer/phpdocumentor/reflection-docblock@5.3.0",
        "pkg:composer/sebastian/comparator@3.0.3",
        "pkg:composer/sebastian/recursion-context@3.0.1"
      ]
    },
    {
      "ref": "pkg:composer/phpunit/php-code-coverage@7.0.15",
      "dependsOn": [
        "pkg:composer/phpunit/php-file-iterator@2.0.5",
        "pkg:composer/phpunit/php-text-template@1.2.1",
        "pkg:composer/phpunit/php-token-stream@4.0.4",
        "pkg:composer/sebastian/code-unit-reverse-lookup@1.0.2",
        "pkg:composer/sebastian/environment@4.2.4",
        "pkg:composer/sebastian/version@2.0.1",
        "pkg:composer/theseer/tokenizer@1.2.1"
      ]
    },
    {
      "ref": "pkg:composer/phpunit/php-file-iterator@2.0.5"
    },
    {
      "ref": "pkg:composer/phpunit/php-text-template@1.2.1"
    },
    {
      "ref": "pkg:composer/phpunit/php-timer@2.1.3"
    },
    {
      "ref": "pkg:composer/phpunit/php-token-stream@4.0.4"
    },
    {
      "ref": "pkg:composer/phpunit/phpunit@8.5.26",
      "dependsOn": [
        "pkg:composer/doctrine/instantiator@1.4.1",
        "pkg:composer/myclabs/deep-copy@1.11.0",
        "pkg:composer/phar-io/manifest@2.0.3",
        "pkg:composer/phar-io/version@3.2.1",
        "pkg:composer/phpspec/prophecy@1.15.0",
        "pkg:composer/phpunit/php-code-coverage@7.0.15",
        "pkg:composer/phpunit/php-file-iterator@2.0.5",
        "pkg:composer/phpunit/php-text-template@1.2.1",
        "pkg:composer/phpunit/php-timer@2.1.3",
        "pkg:composer/sebastian/comparator@3.0.3",
        "pkg:composer/sebastian/diff@3.0.3",
        "pkg:composer/sebastian/environment@4.2.4",
        "pkg:composer/sebastian/exporter@3.1.4",
        "pkg:composer/sebastian/global-state@3.0.2",
        "pkg:composer/sebastian/object-enumerator@3.0.4",
        "pkg:composer/sebastian/resource-operations@2.0.2",
        "pkg:composer/sebastian/type@1.1.4",
        "pkg:composer/sebastian/version@2.0.1"
      ]
    },
    {
      "ref": "pkg:composer/predis/predis@1.1.10"
    },
    {
      "ref": "pkg:composer/sebastian/code-unit-reverse-lookup@1.0.2"
    },
    {
      "ref": "pkg:composer/sebastian/comparator@3.0.3",
      "dependsOn": [
        "pkg:composer/sebastian/diff@3.0.3",
        "pkg:composer/sebastian/exporter@3.1.4"
      ]
    },
    {
      "ref": "pkg:composer/sebastian/diff@3.0.3"
    },
    {
      "ref": "pkg:composer/sebastian/environment@4.2.4"
    },
    {
      "ref": "pkg:composer/sebastian/exporter@3.1.4",
      "dependsOn": [
        "pkg:composer/sebastian/recursion-context@3.0.1"
      ]
    },
    {
      "ref": "pkg:composer/sebastian/global-state@3.0.2",
      "dependsOn": [
        "pkg:composer/sebastian/object-reflector@1.1.2",
        "pkg:composer/sebastian/recursion-context@3.0.1"
      ]
    },
    {
      "ref": "pkg:composer/sebastian/object-enumerator@3.0.4",
      "dependsOn": [
        "pkg:composer/sebastian/object-reflector@1.1.2",
        "pkg:composer/sebastian/recursion-context@3.0.1"
      ]
    },
    {
      "ref": "pkg:composer/sebastian/object-reflector@1.1.2"
    },
    {
      "ref": "pkg:composer/sebastian/recursion-context@3.0.1"
    },
    {
      "ref": "pkg:composer/sebastian/resource-operations@2.0.2"
    },
    {
      "ref": "pkg:composer/sebastian/type@1.1.4"
    },
    {
      "ref": "pkg:composer/sebastian/version@2.0.1"
    },
    {
      "ref": "pkg:composer/swaggest/json-diff@3.8.3"
    },
    {
      "ref": "pkg:composer/swaggest/json-schema@0.12.39",
      "dependsOn": [
        "pkg:composer/phplang/scope-exit@1.0.0",
        "pkg:composer/swaggest/json-diff@3.8.3",
        "pkg:composer/symfony/polyfill-mbstring@1.25.0"
      ]
    },
    {
      "ref": "pkg:composer/symfony/event-dispatcher@2.8.52"
    },
    {
      "ref": "pkg:composer/symfony/polyfill-ctype@1.25.0"
    },
    {
      "ref": "pkg:composer/symfony/polyfill-mbstring@1.25.0"
    },
    {
      "ref": "pkg:composer/symfony/polyfill-php80@1.25.0"
    },
    {
      "ref": "pkg:composer/theseer/tokenizer@1.2.1"
    },
    {
      "ref": "pkg:composer/thobbs/phpcassa@dev-master"
    },
    {
      "ref": "pkg:composer/webmozart/assert@1.10.0",
      "dependsOn": [
        "pkg:composer/symfony/polyfill-ctype@1.25.0"
      ]
    },
    {
      "ref": "pkg:composer/yoast/phpunit-polyfills@1.0.3",
      "dependsOn": [
        "pkg:composer/phpunit/phpunit@8.5.26"
      ]
    },
    {
      "ref": "pkg:composer/bshaffer/oauth2-server-php@dev-master",
      "dependsOn": [
        "pkg:composer/phpunit/phpunit@8.5.26",
        "pkg:composer/aws/aws-sdk-php@2.8.31",
        "pkg:composer/firebase/php-jwt@2.2.0",
        "pkg:composer/predis/predis@1.1.10",
        "pkg:composer/thobbs/phpcassa@dev-master",
        "pkg:composer/mongodb/mongodb@1.12.0",
        "pkg:composer/yoast/phpunit-polyfills@1.0.3",
        "pkg:composer/cyclonedx/cyclonedx-php-composer@3.10.0"
      ]
    }
  ]
}
