{
  "bomFormat": "CycloneDX",
  "specVersion": "1.3",
  "version": 1,
  "metadata": {
    "tools": [
      {
        "vendor": "CycloneDX",
        "name": "Node.js module",
        "version": "3.0.3"
      },
      {
        "vendor": "AppThreat",
        "name": "cdxgen",
        "version": "3.0.10"
      },
      {
        "vendor": "Fortress Information Security",
        "name": "GitHub Extractor",
        "version": "1.15.1"
      }
    ],
    "authors": [
      {
        "name": "Fortress Information Security",
        "email": "sales@fortressinfosec.com",
        "phone": "1-407-573-6800"
      }
    ],
    "timestamp": "2022-06-28T22:03:21Z",
    "component": {
      "type": "application",
      "name": "docker-android",
      "version": "v1.10-p6",
      "group": "budtmo",
      "externalReferences": [
        {
          "url": "https://github.com/budtmo/docker-android.git",
          "type": "distribution"
        }
      ]
    }
  },
  "components": [
    {
      "type": "library",
      "publisher": "Michael Foord",
      "name": "unittest",
      "version": "0.0",
      "hashes": [
        {
          "alg": "MD5",
          "content": "2a416384f814604ed854d40f352f1191"
        },
        {
          "alg": "SHA-256",
          "content": "1b492484bea7f68abda5fcc61412e77b6a105e5842355d630f8b75f01add3555"
        }
      ],
      "purl": "pkg:pypi/unittest@0.0",
      "modified": false
    },
    {
      "type": "library",
      "publisher": "Vinay Sajip",
      "name": "logging",
      "version": "0.4.9.6",
      "description": "A logging module for Python",
      "hashes": [
        {
          "alg": "MD5",
          "content": "dc0a7ebc8b8970263911e11e7b7e1ca8"
        },
        {
          "alg": "SHA-256",
          "content": "26f6b50773f085042d301085bd1bf5d9f3735704db9f37c1ce6d8b85c38f2417"
        }
      ],
      "licenses": [
        {
          "license": {
            "name": "Copyright (C) 2001-2005 by Vinay Sajip. All Rights Reserved. See LICENSE for license."
          }
        }
      ],
      "purl": "pkg:pypi/logging@0.4.9.6",
      "modified": false
    },
    {
      "type": "library",
      "publisher": "Ka-Ping Yee",
      "name": "uuid",
      "version": "1.30",
      "description": "UUID object and generation functions (Python 2.3 or higher)",
      "hashes": [
        {
          "alg": "MD5",
          "content": "639b310f1fe6800e4bf8aa1dd9333117"
        },
        {
          "alg": "SHA-256",
          "content": "1f87cc004ac5120466f36c5beae48b4c48cc411968eed0eaecd3da82aa96193f"
        }
      ],
      "purl": "pkg:pypi/uuid@1.30",
      "modified": false
    },
    {
      "type": "library",
      "publisher": "Testing Cabal",
      "name": "mock",
      "version": "4.0.3",
      "description": "Rolling backport of unittest.mock for all Pythons",
      "hashes": [
        {
          "alg": "MD5",
          "content": "510ed2443516623e5bf3d07d52cf87e4"
        },
        {
          "alg": "SHA-256",
          "content": "122fcb64ee37cfad5b3f48d7a7d51875d7031aaf3d8be7c42e2bee25044eee62"
        }
      ],
      "purl": "pkg:pypi/mock@4.0.3",
      "modified": false
    },
    {
      "type": "library",
      "bom-ref": "pkg:pypi/appium-python-client@0.24",
      "group": "",
      "name": "Appium-Python-Client",
      "version": "0.24",
      "description": "Python client for Appium",
      "hashes": [
        {
          "alg": "SHA-256",
          "content": "e4d86d7b324eb7b0f58337077b75043f68b01bc4b578ff42b425ce3f28f76716"
        }
      ],
      "licenses": [
        {
          "license": {
            "id": "Apache-2.0",
            "url": "https://opensource.org/licenses/Apache-2.0"
          }
        }
      ],
      "purl": "pkg:pypi/appium-python-client@0.24",
      "externalReferences": [
        {
          "url": "http://appium.io/",
          "type": "website"
        }
      ]
    },
    {
      "type": "library",
      "bom-ref": "pkg:pypi/selenium@3.3.1",
      "group": "",
      "name": "selenium",
      "version": "3.3.1",
      "description": "",
      "hashes": [
        {
          "alg": "SHA-256",
          "content": "1ca1c6afef1fd66e8094c495224950d5d56279d5b22227e5c5b9c65b32206161"
        }
      ],
      "licenses": [
        {
          "license": {
            "id": "Apache-2.0",
            "url": "https://opensource.org/licenses/Apache-2.0"
          }
        }
      ],
      "purl": "pkg:pypi/selenium@3.3.1",
      "externalReferences": [
        {
          "url": "https://www.selenium.dev",
          "type": "website"
        }
      ]
    },
    {
      "type": "library",
      "bom-ref": "pkg:pypi/coverage@4.2",
      "group": "",
      "name": "coverage",
      "version": "4.2",
      "description": "Code coverage measurement for Python",
      "hashes": [
        {
          "alg": "SHA-256",
          "content": "9d1c398f14290bc4ae4bc5ce01c283cabe734a068ba39e6a20b3eb4d3a412b52"
        }
      ],
      "licenses": [
        {
          "license": {
            "id": "Apache-2.0",
            "url": "https://opensource.org/licenses/Apache-2.0"
          }
        }
      ],
      "purl": "pkg:pypi/coverage@4.2",
      "externalReferences": [
        {
          "url": "https://github.com/nedbat/coveragepy",
          "type": "vcs"
        }
      ]
    },
    {
      "type": "library",
      "bom-ref": "pkg:pypi/mock@2.0.0",
      "group": "",
      "name": "mock",
      "version": "2.0.0",
      "description": "Rolling backport of unittest.mock for all Pythons",
      "hashes": [
        {
          "alg": "SHA-256",
          "content": "5ce3c71c5545b472da17b72268978914d0252980348636840bd34a00b5cc96c1"
        }
      ],
      "purl": "pkg:pypi/mock@2.0.0",
      "externalReferences": [
        {
          "url": "http://mock.readthedocs.org/en/latest/",
          "type": "website"
        }
      ]
    },
    {
      "type": "library",
      "bom-ref": "pkg:pypi/nose@1.3.7",
      "group": "",
      "name": "nose",
      "version": "1.3.7",
      "description": "nose extends unittest to make testing easier",
      "hashes": [
        {
          "alg": "SHA-256",
          "content": "dadcddc0aefbf99eea214e0f1232b94f2fa9bd98fa8353711dacb112bfcbbb2a"
        }
      ],
      "licenses": [
        {
          "license": {
            "name": "GNU LGPL"
          }
        }
      ],
      "purl": "pkg:pypi/nose@1.3.7",
      "externalReferences": [
        {
          "url": "http://readthedocs.org/docs/nose/",
          "type": "website"
        }
      ]
    }
  ]
}
