{
  "bomFormat": "CycloneDX",
  "specVersion": "1.3",
  "version": 1,
  "metadata": {
    "tools": [
      {
        "vendor": "AppThreat",
        "name": "cdxgen",
        "version": "3.0.10"
      },
      {
        "vendor": "Fortress Information Security",
        "name": "Github Extractor",
        "version": "1.15.1"
      }
    ],
    "authors": [
      {
        "name": "Fortress Information Security",
        "email": "sales@fortressinfosec.com",
        "phone": "1-407-573-6800"
      }
    ],
    "timestamp": "2022-06-01T21:00:00Z",
    "component": {
      "type": "application",
      "name": "fst",
      "version": "",
      "group": "BurntSushi",
      "externalReferences": [
        {
          "url": "https://github.com/BurntSushi/fst.git",
          "type": "distribution"
        },
        {
          "type": "website",
          "url": "null",
          "comment": "As set via `homepage` in Github API"
        }
      ]
    }
  },
  "components": [
    {
      "type": "library",
      "bom-ref": "pkg:crates/fst@0.0.1",
      "group": "",
      "name": "fst",
      "version": "0.0.1",
      "description": "",
      "purl": "pkg:crates/fst@0.0.1"
    },
    {
      "type": "library",
      "bom-ref": "pkg:crates/criterion@0.3.1",
      "group": "",
      "name": "criterion",
      "version": "0.3.1",
      "description": "",
      "purl": "pkg:crates/criterion@0.3.1"
    },
    {
      "type": "library",
      "bom-ref": "pkg:crates/fnv@1.0.6",
      "group": "",
      "name": "fnv",
      "version": "1.0.6",
      "description": "",
      "purl": "pkg:crates/fnv@1.0.6"
    },
    {
      "type": "library",
      "bom-ref": "pkg:crates/fst@0.4.7 #:version",
      "group": "",
      "name": "fst",
      "version": "0.4.7 #:version",
      "description": "",
      "purl": "pkg:crates/fst@0.4.7 #:version"
    },
    {
      "type": "library",
      "bom-ref": "pkg:crates/utf8-ranges@1.0.4",
      "group": "",
      "name": "utf8-ranges",
      "version": "1.0.4",
      "description": "",
      "purl": "pkg:crates/utf8-ranges@1.0.4"
    },
    {
      "type": "library",
      "bom-ref": "pkg:crates/doc-comment@0.3.1",
      "group": "",
      "name": "doc-comment",
      "version": "0.3.1",
      "description": "",
      "purl": "pkg:crates/doc-comment@0.3.1"
    },
    {
      "type": "library",
      "bom-ref": "pkg:crates/memmap@0.7",
      "group": "",
      "name": "memmap",
      "version": "0.7",
      "description": "",
      "purl": "pkg:crates/memmap@0.7"
    },
    {
      "type": "library",
      "bom-ref": "pkg:crates/quickcheck@0.9.2",
      "group": "",
      "name": "quickcheck",
      "version": "0.9.2",
      "description": "",
      "purl": "pkg:crates/quickcheck@0.9.2"
    },
    {
      "type": "library",
      "bom-ref": "pkg:crates/rand@0.7.3",
      "group": "",
      "name": "rand",
      "version": "0.7.3",
      "description": "",
      "purl": "pkg:crates/rand@0.7.3"
    },
    {
      "type": "library",
      "bom-ref": "pkg:crates/debug@true",
      "group": "",
      "name": "debug",
      "version": "true",
      "description": "",
      "purl": "pkg:crates/debug@true"
    },
    {
      "type": "library",
      "bom-ref": "pkg:crates/features@[levenshtein]",
      "group": "",
      "name": "features",
      "version": "[levenshtein]",
      "description": "",
      "purl": "pkg:crates/features@[levenshtein]"
    },
    {
      "type": "library",
      "bom-ref": "pkg:crates/fst@0.4.2 #:version",
      "group": "",
      "name": "fst",
      "version": "0.4.2 #:version",
      "description": "",
      "purl": "pkg:crates/fst@0.4.2 #:version"
    },
    {
      "type": "library",
      "bom-ref": "pkg:crates/anyhow@1.0.26",
      "group": "",
      "name": "anyhow",
      "version": "1.0.26",
      "description": "",
      "purl": "pkg:crates/anyhow@1.0.26"
    },
    {
      "type": "library",
      "bom-ref": "pkg:crates/bit-set@0.5.1",
      "group": "",
      "name": "bit-set",
      "version": "0.5.1",
      "description": "",
      "purl": "pkg:crates/bit-set@0.5.1"
    },
    {
      "type": "library",
      "bom-ref": "pkg:crates/bstr@0.2.11",
      "group": "",
      "name": "bstr",
      "version": "0.2.11",
      "description": "",
      "purl": "pkg:crates/bstr@0.2.11"
    },
    {
      "type": "library",
      "bom-ref": "pkg:crates/clap@2.33.0",
      "group": "",
      "name": "clap",
      "version": "2.33.0",
      "description": "",
      "purl": "pkg:crates/clap@2.33.0"
    },
    {
      "type": "library",
      "bom-ref": "pkg:crates/crossbeam-channel@0.4.2",
      "group": "",
      "name": "crossbeam-channel",
      "version": "0.4.2",
      "description": "",
      "purl": "pkg:crates/crossbeam-channel@0.4.2"
    },
    {
      "type": "library",
      "bom-ref": "pkg:crates/csv@1.1.3",
      "group": "",
      "name": "csv",
      "version": "1.1.3",
      "description": "",
      "purl": "pkg:crates/csv@1.1.3"
    },
    {
      "type": "library",
      "bom-ref": "pkg:crates/fst@0.4.6",
      "group": "",
      "name": "fst",
      "version": "0.4.6",
      "description": "",
      "purl": "pkg:crates/fst@0.4.6"
    },
    {
      "type": "library",
      "bom-ref": "pkg:crates/num_cpus@1.5",
      "group": "",
      "name": "num_cpus",
      "version": "1.5",
      "description": "",
      "purl": "pkg:crates/num_cpus@1.5"
    },
    {
      "type": "library",
      "bom-ref": "pkg:crates/regex-automata@0.1.9",
      "group": "",
      "name": "regex-automata",
      "version": "0.1.9",
      "description": "",
      "purl": "pkg:crates/regex-automata@0.1.9"
    },
    {
      "type": "library",
      "bom-ref": "pkg:crates/serde@1.0.104",
      "group": "",
      "name": "serde",
      "version": "1.0.104",
      "description": "",
      "purl": "pkg:crates/serde@1.0.104"
    },
    {
      "type": "library",
      "bom-ref": "pkg:crates/tempfile@3.1.0",
      "group": "",
      "name": "tempfile",
      "version": "3.1.0",
      "description": "",
      "purl": "pkg:crates/tempfile@3.1.0"
    },
    {
      "type": "library",
      "bom-ref": "pkg:crates/fst-levenshtein@0.3.0 #:version",
      "group": "",
      "name": "fst-levenshtein",
      "version": "0.3.0 #:version",
      "description": "",
      "purl": "pkg:crates/fst-levenshtein@0.3.0 #:version"
    },
    {
      "type": "library",
      "bom-ref": "pkg:crates/fst@0.3.1",
      "group": "",
      "name": "fst",
      "version": "0.3.1",
      "description": "",
      "purl": "pkg:crates/fst@0.3.1"
    },
    {
      "type": "library",
      "bom-ref": "pkg:crates/utf8-ranges@1",
      "group": "",
      "name": "utf8-ranges",
      "version": "1",
      "description": "",
      "purl": "pkg:crates/utf8-ranges@1"
    },
    {
      "type": "library",
      "bom-ref": "pkg:crates/fst-regex@0.3.0 #:version",
      "group": "",
      "name": "fst-regex",
      "version": "0.3.0 #:version",
      "description": "",
      "purl": "pkg:crates/fst-regex@0.3.0 #:version"
    },
    {
      "type": "library",
      "bom-ref": "pkg:crates/regex-syntax@0.3",
      "group": "",
      "name": "regex-syntax",
      "version": "0.3",
      "description": "",
      "purl": "pkg:crates/regex-syntax@0.3"
    }
  ]
}
