{
  "bomFormat": "CycloneDX",
  "specVersion": "1.3",
  "version": 1,
  "components": [
    {
      "type": "library",
      "publisher": "Holger Krekel, Bruno Oliveira, Ronny Pfannschmidt, Floris Bruynooghe, Brianna Laugher, Florian Bruhin and others",
      "name": "pytest",
      "version": "7.1.2",
      "description": "pytest: simple powerful testing with Python",
      "hashes": [
        {
          "alg": "MD5",
          "content": "6f5a9e12007a2529cb00d3b5a8af33a1"
        },
        {
          "alg": "SHA-256",
          "content": "13d0e3ccfc2b6e26be000cb6568c832ba67ba32e719443bfe725814d3c42433c"
        }
      ],
      "licenses": [
        {
          "license": {
            "name": "MIT"
          }
        }
      ],
      "purl": "pkg:pypi/pytest@7.1.2",
      "modified": false
    },
    {
      "type": "library",
      "publisher": "Guido van Rossum, Jukka Lehtosalo, Łukasz Langa, Ivan Levkivskyi",
      "name": "typing",
      "version": "3.10.0.0",
      "description": "Type Hints for Python",
      "hashes": [
        {
          "alg": "MD5",
          "content": "cf38139027dc160e3ecd8e5ccf151da9"
        },
        {
          "alg": "SHA-256",
          "content": "12fbdfbe7d6cca1a42e485229afcb0b0c8259258cfb919b8a5e2a5c953742f89"
        }
      ],
      "licenses": [
        {
          "license": {
            "name": "PSF"
          }
        }
      ],
      "purl": "pkg:pypi/typing@3.10.0.0",
      "modified": false
    },
    {
      "type": "library",
      "publisher": "Vinay Sajip",
      "name": "logging",
      "version": "0.4.9.6",
      "description": "A logging module for Python",
      "hashes": [
        {
          "alg": "MD5",
          "content": "dc0a7ebc8b8970263911e11e7b7e1ca8"
        },
        {
          "alg": "SHA-256",
          "content": "26f6b50773f085042d301085bd1bf5d9f3735704db9f37c1ce6d8b85c38f2417"
        }
      ],
      "licenses": [
        {
          "license": {
            "name": "Copyright (C) 2001-2005 by Vinay Sajip. All Rights Reserved. See LICENSE for license."
          }
        }
      ],
      "purl": "pkg:pypi/logging@0.4.9.6",
      "modified": false
    },
    {
      "type": "library",
      "publisher": "Jean Pimentel",
      "name": "numbers",
      "version": "0.1",
      "description": "interesting numbers!",
      "purl": "pkg:pypi/numbers@0.1",
      "modified": false
    },
    {
      "type": "library",
      "name": "io",
      "version": "0.0.1",
      "purl": "pkg:pypi/io@0.0.1",
      "modified": false
    },
    {
      "type": "library",
      "publisher": "Ka-Ping Yee",
      "name": "uuid",
      "version": "1.30",
      "description": "UUID object and generation functions (Python 2.3 or higher)",
      "hashes": [
        {
          "alg": "MD5",
          "content": "639b310f1fe6800e4bf8aa1dd9333117"
        },
        {
          "alg": "SHA-256",
          "content": "1f87cc004ac5120466f36c5beae48b4c48cc411968eed0eaecd3da82aa96193f"
        }
      ],
      "purl": "pkg:pypi/uuid@1.30",
      "modified": false
    },
    {
      "type": "library",
      "publisher": "Ask Solem",
      "name": "vine",
      "version": "5.0.0",
      "description": "Promises, promises, promises.",
      "hashes": [
        {
          "alg": "MD5",
          "content": "0ba931873ea78f72c8c9a1aada6cde4f"
        },
        {
          "alg": "SHA-256",
          "content": "4c9dceab6f76ed92105027c49c823800dd33cacce13bdedc5b914e3514b7fb30"
        }
      ],
      "licenses": [
        {
          "license": {
            "name": "BSD"
          }
        }
      ],
      "purl": "pkg:pypi/vine@5.0.0",
      "modified": false
    },
    {
      "type": "library",
      "publisher": "Ask Solem",
      "name": "librabbitmq",
      "version": "2.0.0",
      "description": "AMQP Client using the rabbitmq-c library.",
      "hashes": [
        {
          "alg": "MD5",
          "content": "a460ca38aac94e5646f940655f0a17c2"
        },
        {
          "alg": "SHA-256",
          "content": "5cdfb473573396d43d54cef9e9b4c74fa3d1516da51d04a7b261f6ef4e0bd8be"
        }
      ],
      "licenses": [
        {
          "license": {
            "name": "MPL"
          }
        }
      ],
      "purl": "pkg:pypi/librabbitmq@2.0.0",
      "modified": false
    },
    {
      "type": "library",
      "publisher": "Antoine Pitrou",
      "name": "pathlib",
      "version": "1.0.1",
      "description": "Object-oriented filesystem paths",
      "hashes": [
        {
          "alg": "MD5",
          "content": "f26b13acf298a15cdb46a3dffc8eb0de"
        },
        {
          "alg": "SHA-256",
          "content": "f35f95ab8b0f59e6d354090350b44a80a80635d22efdedfa84c7ad1cf0a74147"
        }
      ],
      "licenses": [
        {
          "license": {
            "name": "MIT License"
          }
        }
      ],
      "purl": "pkg:pypi/pathlib@1.0.1",
      "modified": false
    },
    {
      "type": "library",
      "publisher": "Zope Foundation and Contributors",
      "name": "datetime",
      "version": "4.4",
      "description": "This package provides a DateTime data type, as known from Zope. Unless you need to communicate with Zope APIs, you're probably better off using Python's built-in datetime module.",
      "hashes": [
        {
          "alg": "MD5",
          "content": "ad1e82d858ed7c8cd2ea437b4cb695ed"
        },
        {
          "alg": "SHA-256",
          "content": "4fcca115ddb466a1104df08d5c2a2f5805d14ca317800e1bfcea8f3d69f66e57"
        }
      ],
      "licenses": [
        {
          "license": {
            "name": "ZPL 2.1"
          }
        }
      ],
      "purl": "pkg:pypi/datetime@4.4",
      "modified": false
    },
    {
      "type": "library",
      "publisher": "The MongoDB Python Team",
      "name": "pymongo",
      "version": "4.1.1",
      "description": "Python driver for MongoDB <http://www.mongodb.org>",
      "hashes": [
        {
          "alg": "MD5",
          "content": "bf45930d7ad49fdfe07b8d4221ccd380"
        },
        {
          "alg": "SHA-256",
          "content": "f0aea377b9dfc166c8fa05bb158c30ee3d53d73f0ed2fc05ba6c638d9563422f"
        }
      ],
      "licenses": [
        {
          "license": {
            "name": "Apache License, Version 2.0"
          }
        }
      ],
      "purl": "pkg:pypi/pymongo@4.1.1",
      "modified": false
    },
    {
      "type": "library",
      "publisher": "Gerhard Weis",
      "name": "isodate",
      "version": "0.6.1",
      "description": "An ISO 8601 date/time/duration parser and formatter",
      "hashes": [
        {
          "alg": "MD5",
          "content": "c8a5fcd645030db98daa82b8e56fda89"
        },
        {
          "alg": "SHA-256",
          "content": "0751eece944162659049d35f4f549ed815792b38793f07cf73381c1c87cbed96"
        }
      ],
      "licenses": [
        {
          "license": {
            "name": "BSD"
          }
        }
      ],
      "purl": "pkg:pypi/isodate@0.6.1",
      "modified": false
    },
    {
      "type": "library",
      "publisher": "Ask Solem",
      "name": "celery",
      "version": "5.2.6",
      "description": "Distributed Task Queue.",
      "hashes": [
        {
          "alg": "MD5",
          "content": "f526b6f3b6a4270d764dab8f7a5769b2"
        },
        {
          "alg": "SHA-256",
          "content": "da31f8eae7607b1582e5ee2d3f2d6f58450585afd23379491e3d9229d08102d0"
        }
      ],
      "licenses": [
        {
          "license": {
            "name": "BSD"
          }
        }
      ],
      "purl": "pkg:pypi/celery@5.2.6",
      "modified": false
    },
    {
      "type": "library",
      "publisher": "Brian K. Jones",
      "name": "pyrabbit",
      "version": "1.1.0",
      "description": "A Pythonic interface to the RabbitMQ Management HTTP API",
      "hashes": [
        {
          "alg": "MD5",
          "content": "625013ba47fe79d296b76a74200c3312"
        },
        {
          "alg": "SHA-256",
          "content": "50b8995fbfde14820ddc97292312c8f0c77054748c2b018138d03d94e400c39c"
        }
      ],
      "licenses": [
        {
          "license": {
            "name": "MIT"
          }
        }
      ],
      "purl": "pkg:pypi/pyrabbit@1.1.0",
      "modified": false
    },
    {
      "type": "library",
      "name": "typing_extensions",
      "version": "4.2.0",
      "description": "Backported and Experimental Type Hints for Python 3.7+",
      "hashes": [
        {
          "alg": "MD5",
          "content": "95fc87a08006c5249ae13b8a1c3770b9"
        },
        {
          "alg": "SHA-256",
          "content": "6657594ee297170d19f67d55c05852a874e7eb634f4f753dbd667855e07c1708"
        }
      ],
      "purl": "pkg:pypi/typing-extensions@4.2.0",
      "modified": false
    },
    {
      "type": "library",
      "name": "email",
      "version": "4.0.2",
      "description": "Standalone email package",
      "hashes": [
        {
          "alg": "MD5",
          "content": "67707dc0fab874edc5ac45f95ec9ec87"
        },
        {
          "alg": "SHA-256",
          "content": "e2254c9b4e4cf33553f7dfc85b500eea4c3e96733736f38c9dbfc3dcc6303705"
        }
      ],
      "purl": "pkg:pypi/email@4.0.2",
      "modified": false
    },
    {
      "type": "library",
      "publisher": "Ask Solem",
      "name": "sphinx_celery",
      "version": "2.0.0",
      "description": "Sphinx Celery Theme.",
      "hashes": [
        {
          "alg": "MD5",
          "content": "df6f9fad3f402ce66edde7fe6da3fab2"
        },
        {
          "alg": "SHA-256",
          "content": "9326c150600e2c8299f356283e6397f15493370368c4b68697edd98beac9f868"
        }
      ],
      "licenses": [
        {
          "license": {
            "name": "BSD"
          }
        }
      ],
      "purl": "pkg:pypi/sphinx-celery@2.0.0",
      "modified": false
    },
    {
      "type": "library",
      "publisher": "Michael Foord",
      "name": "unittest",
      "version": "0.0",
      "hashes": [
        {
          "alg": "MD5",
          "content": "2a416384f814604ed854d40f352f1191"
        },
        {
          "alg": "SHA-256",
          "content": "1b492484bea7f68abda5fcc61412e77b6a105e5842355d630f8b75f01add3555"
        }
      ],
      "purl": "pkg:pypi/unittest@0.0",
      "modified": false
    },
    {
      "type": "library",
      "publisher": "David R. MacIver and Zac Hatfield-Dodds",
      "name": "hypothesis",
      "version": "6.46.2",
      "description": "A library for property-based testing",
      "hashes": [
        {
          "alg": "MD5",
          "content": "90e30a14eb200ecf49ba80c694cb59ad"
        },
        {
          "alg": "SHA-256",
          "content": "37ca37f61939d0a92c18b5e17ab8088dccc5fc077c913d6619bbe1d233dfca1e"
        }
      ],
      "licenses": [
        {
          "license": {
            "name": "MPL-2.0"
          }
        }
      ],
      "purl": "pkg:pypi/hypothesis@6.46.2",
      "modified": false
    }
  ],
  "metadata": {
    "tools": [
      {
        "vendor": "Fortress Information Security",
        "name": "Github Extractor",
        "version": "1.15.1"
      }
    ],
    "authors": [
      {
        "name": "Fortress Information Security",
        "email": "sales@fortressinfosec.com",
        "phone": "1-407-573-6800"
      }
    ],
    "timestamp": "2022-06-01T21:00:00Z",
    "component": {
      "type": "application",
      "name": "kombu",
      "version": "v5.2.4",
      "group": "celery",
      "externalReferences": [
        {
          "url": "https://github.com/celery/kombu.git",
          "type": "distribution"
        },
        {
          "type": "website",
          "url": "http://kombu.readthedocs.org/",
          "comment": "As set via `homepage` in Github API"
        }
      ]
    }
  }
}
