{
  "bomFormat": "CycloneDX",
  "specVersion": "1.3",
  "version": 1,
  "metadata": {
    "tools": [
      {
        "vendor": "AppThreat",
        "name": "cdxgen",
        "version": "3.0.10"
      },
      {
        "vendor": "Fortress Information Security",
        "name": "Github Extractor",
        "version": "1.15.1"
      }
    ],
    "authors": [
      {
        "name": "Fortress Information Security",
        "email": "sales@fortressinfosec.com",
        "phone": "1-407-573-6800"
      }
    ],
    "timestamp": "2022-06-01T21:00:00Z",
    "component": {
      "type": "application",
      "name": "Gooey",
      "version": "1.0.8.1",
      "group": "chriskiehl",
      "externalReferences": [
        {
          "url": "https://github.com/chriskiehl/Gooey.git",
          "type": "distribution"
        },
        {
          "type": "website",
          "url": "null",
          "comment": "As set via `homepage` in Github API"
        }
      ]
    }
  },
  "components": [
    {
      "type": "library",
      "publisher": "Python Packaging Authority",
      "name": "setuptools",
      "version": "62.1.0",
      "description": "Easily download, build, install, upgrade, and uninstall Python packages",
      "hashes": [
        {
          "alg": "MD5",
          "content": "101d2e2bf9b7682ab90d9a7bd487bdbe"
        },
        {
          "alg": "SHA-256",
          "content": "26ead7d1f93efc0f8c804d9fafafbe4a44b179580a7105754b245155f9af05a8"
        }
      ],
      "purl": "pkg:pypi/setuptools@62.1.0",
      "modified": false
    },
    {
      "type": "library",
      "publisher": "Stephan Klein",
      "name": "signal",
      "version": "0.1",
      "description": "Send SMS messages via ADB and your Android phone. Comes with a CLI.",
      "licenses": [
        {
          "license": {
            "name": "MIT"
          }
        }
      ],
      "purl": "pkg:pypi/signal@0.1",
      "modified": false
    },
    {
      "type": "library",
      "publisher": "Guido van Rossum, Jukka Lehtosalo, Łukasz Langa, Ivan Levkivskyi",
      "name": "typing",
      "version": "3.10.0.0",
      "description": "Type Hints for Python",
      "hashes": [
        {
          "alg": "MD5",
          "content": "cf38139027dc160e3ecd8e5ccf151da9"
        },
        {
          "alg": "SHA-256",
          "content": "12fbdfbe7d6cca1a42e485229afcb0b0c8259258cfb919b8a5e2a5c953742f89"
        }
      ],
      "licenses": [
        {
          "license": {
            "name": "PSF"
          }
        }
      ],
      "purl": "pkg:pypi/typing@3.10.0.0",
      "modified": false
    },
    {
      "type": "library",
      "publisher": "Thomas Heller",
      "name": "ctypes",
      "version": "1.0.2",
      "description": "create and manipulate C data types in Python, call functions in shared libraries",
      "licenses": [
        {
          "license": {
            "name": "MIT License"
          }
        }
      ],
      "purl": "pkg:pypi/ctypes@1.0.2",
      "modified": false
    },
    {
      "type": "library",
      "publisher": "Thomas Waldmann",
      "name": "argparse",
      "version": "1.4.0",
      "description": "Python command-line parsing library",
      "hashes": [
        {
          "alg": "MD5",
          "content": "c37216a954c8669054e2b2c54853dd49"
        },
        {
          "alg": "SHA-256",
          "content": "c31647edb69fd3d465a847ea3157d37bed1f95f19760b11a47aa91c04b666314"
        }
      ],
      "licenses": [
        {
          "license": {
            "name": "Python Software Foundation License"
          }
        }
      ],
      "purl": "pkg:pypi/argparse@1.4.0",
      "modified": false
    },
    {
      "type": "library",
      "publisher": "Dima Dorfman",
      "name": "functools",
      "version": "0.5",
      "description": "Fast tools for functional programming",
      "hashes": [
        {
          "alg": "MD5",
          "content": "91111c28ee685a2f89f1a41e6f0ce8ea"
        },
        {
          "alg": "SHA-256",
          "content": "596ed8999dee419c0749a41bfdd82e4697e80ea27ee01c716003ef55be9a54c5"
        }
      ],
      "licenses": [
        {
          "license": {
            "name": "BSD"
          }
        }
      ],
      "purl": "pkg:pypi/functools@0.5",
      "modified": false
    },
    {
      "type": "library",
      "publisher": "Ka-Ping Yee",
      "name": "uuid",
      "version": "1.30",
      "description": "UUID object and generation functions (Python 2.3 or higher)",
      "hashes": [
        {
          "alg": "MD5",
          "content": "639b310f1fe6800e4bf8aa1dd9333117"
        },
        {
          "alg": "SHA-256",
          "content": "1f87cc004ac5120466f36c5beae48b4c48cc411968eed0eaecd3da82aa96193f"
        }
      ],
      "purl": "pkg:pypi/uuid@1.30",
      "modified": false
    },
    {
      "type": "library",
      "publisher": "Eric V. Smith",
      "name": "dataclasses",
      "version": "0.8",
      "description": "A backport of the dataclasses module for Python 3.6",
      "hashes": [
        {
          "alg": "MD5",
          "content": "0d6e5bb7adcc8fb0de3ef1ace1b32999"
        },
        {
          "alg": "SHA-256",
          "content": "0201d89fa866f68c8ebd9d08ee6ff50c0b255f8ec63a71c16fda7af82bb887bf"
        }
      ],
      "licenses": [
        {
          "license": {
            "name": "Apache"
          }
        }
      ],
      "purl": "pkg:pypi/dataclasses@0.8",
      "modified": false
    },
    {
      "type": "library",
      "name": "typing_extensions",
      "version": "4.2.0",
      "description": "Backported and Experimental Type Hints for Python 3.7+",
      "hashes": [
        {
          "alg": "MD5",
          "content": "95fc87a08006c5249ae13b8a1c3770b9"
        },
        {
          "alg": "SHA-256",
          "content": "6657594ee297170d19f67d55c05852a874e7eb634f4f753dbd667855e07c1708"
        }
      ],
      "purl": "pkg:pypi/typing-extensions@4.2.0",
      "modified": false
    },
    {
      "type": "library",
      "publisher": "Benjamin Peterson",
      "name": "six",
      "version": "1.16.0",
      "description": "Python 2 and 3 compatibility utilities",
      "hashes": [
        {
          "alg": "MD5",
          "content": "529d7fd7e14612ccde86417b4402d6f3"
        },
        {
          "alg": "SHA-256",
          "content": "8abb2f1d86890a2dfb989f9a77cfcfd3e47c2a354b01111771326f8aa26e0254"
        }
      ],
      "licenses": [
        {
          "license": {
            "name": "MIT"
          }
        }
      ],
      "purl": "pkg:pypi/six@1.16.0",
      "modified": false
    },
    {
      "type": "library",
      "publisher": "Secret Labs AB (PythonWare)",
      "name": "PIL",
      "version": "1.1.6",
      "description": "Python Imaging Library",
      "licenses": [
        {
          "license": {
            "name": "Python (MIT style)"
          }
        }
      ],
      "purl": "pkg:pypi/pil@1.1.6",
      "modified": false
    },
    {
      "type": "library",
      "publisher": "Giampaolo Rodola",
      "name": "psutil",
      "version": "5.9.0",
      "description": "Cross-platform lib for process and system monitoring in Python.",
      "hashes": [
        {
          "alg": "MD5",
          "content": "75d0c4cf515a5acd882fd30e87f6d13f"
        },
        {
          "alg": "SHA-256",
          "content": "7d190ee2eaef7831163f254dc58f6d2e2a22e27382b936aab51c835fc080c3d3"
        }
      ],
      "licenses": [
        {
          "license": {
            "name": "BSD"
          }
        }
      ],
      "purl": "pkg:pypi/psutil@5.9.0",
      "modified": false
    },
    {
      "type": "library",
      "publisher": "Michal Nazarewicz",
      "name": "pygtrie",
      "version": "2.4.2",
      "description": "A pure Python trie data structure implementation.",
      "hashes": [
        {
          "alg": "MD5",
          "content": "f870035253c9290c9797a6c4dce03842"
        },
        {
          "alg": "SHA-256",
          "content": "43205559d28863358dbbf25045029f58e2ab357317a59b11f11ade278ac64692"
        }
      ],
      "licenses": [
        {
          "license": {
            "name": "Apache-2.0"
          }
        }
      ],
      "purl": "pkg:pypi/pygtrie@2.4.2",
      "modified": false
    },
    {
      "type": "library",
      "publisher": "dslackw",
      "name": "colored",
      "version": "1.4.3",
      "description": "Simple library for color and formatting to terminal",
      "hashes": [
        {
          "alg": "MD5",
          "content": "6430386361211470cb27b8612647b4d4"
        },
        {
          "alg": "SHA-256",
          "content": "b7b48b9f40e8a65bbb54813d5d79dd008dc8b8c5638d5bbfd30fc5a82e6def7a"
        }
      ],
      "purl": "pkg:pypi/colored@1.4.3",
      "modified": false
    },
    {
      "type": "library",
      "name": "io",
      "version": "0.0.1",
      "purl": "pkg:pypi/io@0.0.1",
      "modified": false
    },
    {
      "type": "library",
      "publisher": "Michael Foord",
      "name": "unittest",
      "version": "0.0",
      "hashes": [
        {
          "alg": "MD5",
          "content": "2a416384f814604ed854d40f352f1191"
        },
        {
          "alg": "SHA-256",
          "content": "1b492484bea7f68abda5fcc61412e77b6a105e5842355d630f8b75f01add3555"
        }
      ],
      "purl": "pkg:pypi/unittest@0.0",
      "modified": false
    },
    {
      "type": "library",
      "bom-ref": "pkg:pypi/wxpython@4.1.0",
      "group": "",
      "name": "wxpython",
      "version": "4.1.0",
      "description": "Cross platform GUI toolkit for Python, \"Phoenix\" version",
      "hashes": [
        {
          "alg": "SHA-256",
          "content": "25ca6acdb11c7af681c1d0c0936f831c3bf403b0bcf59452d34d6540de77c8f2"
        }
      ],
      "licenses": [
        {
          "license": {
            "name": "wxWindows Library License (https://opensource.org/licenses/wxwindows.php)"
          }
        }
      ],
      "purl": "pkg:pypi/wxpython@4.1.0",
      "externalReferences": [
        {
          "url": "http://wxPython.org/",
          "type": "website"
        }
      ]
    },
    {
      "type": "library",
      "bom-ref": "pkg:pypi/pillow@4.3.0",
      "group": "",
      "name": "Pillow",
      "version": "4.3.0",
      "description": "Python Imaging Library (Fork)",
      "hashes": [
        {
          "alg": "SHA-256",
          "content": "cc6a5ed5b8f9d2f25e4e42d562e0ec4df3ce838f9e9b9d9d9b65fac6fe93a4cc"
        }
      ],
      "licenses": [
        {
          "license": {
            "id": "HPND",
            "url": "https://opensource.org/licenses/HPND"
          }
        }
      ],
      "purl": "pkg:pypi/pillow@4.3.0",
      "externalReferences": [
        {
          "url": "https://python-pillow.org",
          "type": "website"
        }
      ]
    },
    {
      "type": "library",
      "bom-ref": "pkg:pypi/psutil@5.4.2",
      "group": "",
      "name": "psutil",
      "version": "5.4.2",
      "description": "Cross-platform lib for process and system monitoring in Python.",
      "hashes": [
        {
          "alg": "SHA-256",
          "content": "2fbbc7dce43c5240b9dc6d56302d57412f1c5a0d665d1f04eb05a6b7279f4e9b"
        }
      ],
      "licenses": [
        {
          "license": {
            "id": "0BSD",
            "url": "https://opensource.org/licenses/0BSD"
          }
        }
      ],
      "purl": "pkg:pypi/psutil@5.4.2",
      "externalReferences": [
        {
          "url": "https://github.com/giampaolo/psutil",
          "type": "vcs"
        }
      ]
    },
    {
      "type": "library",
      "bom-ref": "pkg:pypi/colored@1.3.93",
      "group": "",
      "name": "colored",
      "version": "1.3.93",
      "description": "Simple library for color and formatting to terminal",
      "hashes": [
        {
          "alg": "SHA-256",
          "content": "8296ea990e3f6b7822f44eec21408b126dfb9c1c031306b859e3f7d46cc27075"
        }
      ],
      "purl": "pkg:pypi/colored@1.3.93",
      "externalReferences": [
        {
          "url": "https://gitlab.com/dslackw/colored",
          "type": "vcs"
        }
      ]
    },
    {
      "type": "library",
      "bom-ref": "pkg:pypi/pygtrie@2.3.3",
      "group": "",
      "name": "pygtrie",
      "version": "2.3.3",
      "description": "A pure Python trie data structure implementation.",
      "hashes": [
        {
          "alg": "SHA-256",
          "content": "2204dbd95584f67821da5b3771c4305ac5585552b3230b210f1f05322608db2c"
        }
      ],
      "licenses": [
        {
          "license": {
            "id": "Apache-2.0",
            "url": "https://opensource.org/licenses/Apache-2.0"
          }
        }
      ],
      "purl": "pkg:pypi/pygtrie@2.3.3",
      "externalReferences": [
        {
          "url": "https://github.com/mina86/pygtrie",
          "type": "vcs"
        }
      ]
    },
    {
      "type": "library",
      "bom-ref": "pkg:pypi/re-wx@0.0.2",
      "group": "",
      "name": "re-wx",
      "version": "0.0.2",
      "description": "A library for building modern declarative desktop applications in WX",
      "hashes": [
        {
          "alg": "SHA-256",
          "content": "c606b32eb3d152bddab0376f6924e857ab25616cd1583debdac08865e00812d0"
        }
      ],
      "purl": "pkg:pypi/re-wx@0.0.2",
      "externalReferences": [
        {
          "url": "https://github.com/chriskiehl/re-wx",
          "type": "vcs"
        }
      ]
    },
    {
      "type": "library",
      "bom-ref": "pkg:pypi/typing-extensions@3.10.0.2",
      "group": "",
      "name": "typing-extensions",
      "version": "3.10.0.2",
      "description": "Backported and Experimental Type Hints for Python 3.7+",
      "hashes": [
        {
          "alg": "SHA-256",
          "content": "d8226d10bc02a29bcc81df19a26e56a9647f8b0a6d4a83924139f4a8b01f17b7"
        }
      ],
      "purl": "pkg:pypi/typing-extensions@3.10.0.2"
    },
    {
      "type": "library",
      "bom-ref": "pkg:pypi/mypy-extensions@0.4.3",
      "group": "",
      "name": "mypy-extensions",
      "version": "0.4.3",
      "description": "Experimental type system extensions for programs checked with the mypy typechecker.",
      "hashes": [
        {
          "alg": "SHA-256",
          "content": "090fedd75945a69ae91ce1303b5824f428daf5a028d2f6ab8a299250a846f15d"
        }
      ],
      "licenses": [
        {
          "license": {
            "id": "MIT",
            "url": "https://opensource.org/licenses/MIT"
          }
        }
      ],
      "purl": "pkg:pypi/mypy-extensions@0.4.3",
      "externalReferences": [
        {
          "url": "https://github.com/python/mypy_extensions",
          "type": "vcs"
        }
      ]
    }
  ]
}
