{
  "bomFormat": "CycloneDX",
  "specVersion": "1.3",
  "version": 1,
  "metadata": {
    "tools": [
      {
        "vendor": "CycloneDX",
        "name": "Node.js module",
        "version": "3.0.3"
      },
      {
        "vendor": "AppThreat",
        "name": "cdxgen",
        "version": "3.0.10"
      },
      {
        "vendor": "Fortress Information Security",
        "name": "Github Extractor",
        "version": "1.15.1"
      }
    ],
    "authors": [
      {
        "name": "Fortress Information Security",
        "email": "sales@fortressinfosec.com",
        "phone": "1-407-573-6800"
      }
    ],
    "timestamp": "2022-06-01T21:00:00Z",
    "component": {
      "type": "application",
      "name": "clap",
      "version": "v3.2.5",
      "group": "clap-rs",
      "externalReferences": [
        {
          "url": "https://github.com/clap-rs/clap.git",
          "type": "distribution"
        },
        {
          "type": "website",
          "url": "docs.rs/clap",
          "comment": "As set via `homepage` in Github API"
        }
      ]
    }
  },
  "components": [
    {
      "type": "library",
      "publisher": "Thomas Waldmann",
      "name": "argparse",
      "version": "1.4.0",
      "description": "Python command-line parsing library",
      "hashes": [
        {
          "alg": "MD5",
          "content": "c37216a954c8669054e2b2c54853dd49"
        },
        {
          "alg": "SHA-256",
          "content": "c31647edb69fd3d465a847ea3157d37bed1f95f19760b11a47aa91c04b666314"
        }
      ],
      "licenses": [
        {
          "license": {
            "name": "Python Software Foundation License"
          }
        }
      ],
      "purl": "pkg:pypi/argparse@1.4.0",
      "modified": false
    },
    {
      "type": "library",
      "publisher": "Antoine Pitrou",
      "name": "pathlib",
      "version": "1.0.1",
      "description": "Object-oriented filesystem paths",
      "hashes": [
        {
          "alg": "MD5",
          "content": "f26b13acf298a15cdb46a3dffc8eb0de"
        },
        {
          "alg": "SHA-256",
          "content": "f35f95ab8b0f59e6d354090350b44a80a80635d22efdedfa84c7ad1cf0a74147"
        }
      ],
      "licenses": [
        {
          "license": {
            "name": "MIT License"
          }
        }
      ],
      "purl": "pkg:pypi/pathlib@1.0.1",
      "modified": false
    },
    {
      "type": "library",
      "bom-ref": "pkg:crates/clap@3.1.18",
      "group": "",
      "name": "clap",
      "version": "3.1.18",
      "description": "",
      "purl": "pkg:crates/clap@3.1.18"
    },
    {
      "type": "library",
      "bom-ref": "pkg:crates/bitflags@1.2",
      "group": "",
      "name": "bitflags",
      "version": "1.2",
      "description": "",
      "purl": "pkg:crates/bitflags@1.2"
    },
    {
      "type": "library",
      "bom-ref": "pkg:crates/textwrap@0.15.0",
      "group": "",
      "name": "textwrap",
      "version": "0.15.0",
      "description": "",
      "purl": "pkg:crates/textwrap@0.15.0"
    },
    {
      "type": "library",
      "bom-ref": "pkg:crates/unicase@2.6",
      "group": "",
      "name": "unicase",
      "version": "2.6",
      "description": "",
      "purl": "pkg:crates/unicase@2.6"
    },
    {
      "type": "library",
      "bom-ref": "pkg:crates/indexmap@1.0",
      "group": "",
      "name": "indexmap",
      "version": "1.0",
      "description": "",
      "purl": "pkg:crates/indexmap@1.0"
    },
    {
      "type": "library",
      "bom-ref": "pkg:crates/strsim@0.10",
      "group": "",
      "name": "strsim",
      "version": "0.10",
      "description": "",
      "purl": "pkg:crates/strsim@0.10"
    },
    {
      "type": "library",
      "bom-ref": "pkg:crates/yaml-rust@0.4.1",
      "group": "",
      "name": "yaml-rust",
      "version": "0.4.1",
      "description": "",
      "purl": "pkg:crates/yaml-rust@0.4.1"
    },
    {
      "type": "library",
      "bom-ref": "pkg:crates/atty@0.2",
      "group": "",
      "name": "atty",
      "version": "0.2",
      "description": "",
      "purl": "pkg:crates/atty@0.2"
    },
    {
      "type": "library",
      "bom-ref": "pkg:crates/termcolor@1.1.1",
      "group": "",
      "name": "termcolor",
      "version": "1.1.1",
      "description": "",
      "purl": "pkg:crates/termcolor@1.1.1"
    },
    {
      "type": "library",
      "bom-ref": "pkg:crates/terminal_size@0.1.12",
      "group": "",
      "name": "terminal_size",
      "version": "0.1.12",
      "description": "",
      "purl": "pkg:crates/terminal_size@0.1.12"
    },
    {
      "type": "library",
      "bom-ref": "pkg:crates/lazy_static@1",
      "group": "",
      "name": "lazy_static",
      "version": "1",
      "description": "",
      "purl": "pkg:crates/lazy_static@1"
    },
    {
      "type": "library",
      "bom-ref": "pkg:crates/regex@1.0",
      "group": "",
      "name": "regex",
      "version": "1.0",
      "description": "",
      "purl": "pkg:crates/regex@1.0"
    },
    {
      "type": "library",
      "bom-ref": "pkg:crates/backtrace@0.3",
      "group": "",
      "name": "backtrace",
      "version": "0.3",
      "description": "",
      "purl": "pkg:crates/backtrace@0.3"
    },
    {
      "type": "library",
      "bom-ref": "pkg:crates/trybuild@1.0.18",
      "group": "",
      "name": "trybuild",
      "version": "1.0.18",
      "description": "",
      "purl": "pkg:crates/trybuild@1.0.18"
    },
    {
      "type": "library",
      "bom-ref": "pkg:crates/trycmd@0.13",
      "group": "",
      "name": "trycmd",
      "version": "0.13",
      "description": "",
      "purl": "pkg:crates/trycmd@0.13"
    },
    {
      "type": "library",
      "bom-ref": "pkg:crates/humantime@2",
      "group": "",
      "name": "humantime",
      "version": "2",
      "description": "",
      "purl": "pkg:crates/humantime@2"
    },
    {
      "type": "library",
      "bom-ref": "pkg:crates/snapbox@0.2.9",
      "group": "",
      "name": "snapbox",
      "version": "0.2.9",
      "description": "",
      "purl": "pkg:crates/snapbox@0.2.9"
    },
    {
      "type": "library",
      "bom-ref": "pkg:crates/shlex@1.1.0",
      "group": "",
      "name": "shlex",
      "version": "1.1.0",
      "description": "",
      "purl": "pkg:crates/shlex@1.1.0"
    },
    {
      "type": "library",
      "bom-ref": "pkg:crates/name@demo",
      "group": "",
      "name": "name",
      "version": "demo",
      "description": "",
      "purl": "pkg:crates/name@demo"
    },
    {
      "type": "library",
      "bom-ref": "pkg:crates/required-features@[derive]",
      "group": "",
      "name": "required-features",
      "version": "[derive]",
      "description": "",
      "purl": "pkg:crates/required-features@[derive]"
    },
    {
      "type": "library",
      "bom-ref": "pkg:crates/name@cargo-example",
      "group": "",
      "name": "name",
      "version": "cargo-example",
      "description": "",
      "purl": "pkg:crates/name@cargo-example"
    },
    {
      "type": "library",
      "bom-ref": "pkg:crates/required-features@[cargo]",
      "group": "",
      "name": "required-features",
      "version": "[cargo]",
      "description": "",
      "purl": "pkg:crates/required-features@[cargo]"
    },
    {
      "type": "library",
      "bom-ref": "pkg:crates/name@cargo-example-derive",
      "group": "",
      "name": "name",
      "version": "cargo-example-derive",
      "description": "",
      "purl": "pkg:crates/name@cargo-example-derive"
    },
    {
      "type": "library",
      "bom-ref": "pkg:crates/name@escaped-positional",
      "group": "",
      "name": "name",
      "version": "escaped-positional",
      "description": "",
      "purl": "pkg:crates/name@escaped-positional"
    },
    {
      "type": "library",
      "bom-ref": "pkg:crates/name@escaped-positional-derive",
      "group": "",
      "name": "name",
      "version": "escaped-positional-derive",
      "description": "",
      "purl": "pkg:crates/name@escaped-positional-derive"
    },
    {
      "type": "library",
      "bom-ref": "pkg:crates/name@git-derive",
      "group": "",
      "name": "name",
      "version": "git-derive",
      "description": "",
      "purl": "pkg:crates/name@git-derive"
    },
    {
      "type": "library",
      "bom-ref": "pkg:crates/name@typed-derive",
      "group": "",
      "name": "name",
      "version": "typed-derive",
      "description": "",
      "purl": "pkg:crates/name@typed-derive"
    },
    {
      "type": "library",
      "bom-ref": "pkg:crates/name@busybox",
      "group": "",
      "name": "name",
      "version": "busybox",
      "description": "",
      "purl": "pkg:crates/name@busybox"
    },
    {
      "type": "library",
      "bom-ref": "pkg:crates/name@hostname",
      "group": "",
      "name": "name",
      "version": "hostname",
      "description": "",
      "purl": "pkg:crates/name@hostname"
    },
    {
      "type": "library",
      "bom-ref": "pkg:crates/name@repl",
      "group": "",
      "name": "name",
      "version": "repl",
      "description": "",
      "purl": "pkg:crates/name@repl"
    },
    {
      "type": "library",
      "bom-ref": "pkg:crates/name@01_quick",
      "group": "",
      "name": "name",
      "version": "01_quick",
      "description": "",
      "purl": "pkg:crates/name@01_quick"
    },
    {
      "type": "library",
      "bom-ref": "pkg:crates/name@02_apps",
      "group": "",
      "name": "name",
      "version": "02_apps",
      "description": "",
      "purl": "pkg:crates/name@02_apps"
    },
    {
      "type": "library",
      "bom-ref": "pkg:crates/name@02_crate",
      "group": "",
      "name": "name",
      "version": "02_crate",
      "description": "",
      "purl": "pkg:crates/name@02_crate"
    },
    {
      "type": "library",
      "bom-ref": "pkg:crates/name@02_app_settings",
      "group": "",
      "name": "name",
      "version": "02_app_settings",
      "description": "",
      "purl": "pkg:crates/name@02_app_settings"
    },
    {
      "type": "library",
      "bom-ref": "pkg:crates/name@03_01_flag_bool",
      "group": "",
      "name": "name",
      "version": "03_01_flag_bool",
      "description": "",
      "purl": "pkg:crates/name@03_01_flag_bool"
    },
    {
      "type": "library",
      "bom-ref": "pkg:crates/name@03_01_flag_count",
      "group": "",
      "name": "name",
      "version": "03_01_flag_count",
      "description": "",
      "purl": "pkg:crates/name@03_01_flag_count"
    },
    {
      "type": "library",
      "bom-ref": "pkg:crates/name@03_02_option",
      "group": "",
      "name": "name",
      "version": "03_02_option",
      "description": "",
      "purl": "pkg:crates/name@03_02_option"
    },
    {
      "type": "library",
      "bom-ref": "pkg:crates/name@03_03_positional",
      "group": "",
      "name": "name",
      "version": "03_03_positional",
      "description": "",
      "purl": "pkg:crates/name@03_03_positional"
    },
    {
      "type": "library",
      "bom-ref": "pkg:crates/name@03_04_subcommands",
      "group": "",
      "name": "name",
      "version": "03_04_subcommands",
      "description": "",
      "purl": "pkg:crates/name@03_04_subcommands"
    },
    {
      "type": "library",
      "bom-ref": "pkg:crates/name@03_05_default_values",
      "group": "",
      "name": "name",
      "version": "03_05_default_values",
      "description": "",
      "purl": "pkg:crates/name@03_05_default_values"
    },
    {
      "type": "library",
      "bom-ref": "pkg:crates/name@04_01_possible",
      "group": "",
      "name": "name",
      "version": "04_01_possible",
      "description": "",
      "purl": "pkg:crates/name@04_01_possible"
    },
    {
      "type": "library",
      "bom-ref": "pkg:crates/name@04_01_enum",
      "group": "",
      "name": "name",
      "version": "04_01_enum",
      "description": "",
      "purl": "pkg:crates/name@04_01_enum"
    },
    {
      "type": "library",
      "bom-ref": "pkg:crates/required-features@[cargo, derive]",
      "group": "",
      "name": "required-features",
      "version": "[cargo, derive]",
      "description": "",
      "purl": "pkg:crates/required-features@[cargo, derive]"
    },
    {
      "type": "library",
      "bom-ref": "pkg:crates/name@04_02_parse",
      "group": "",
      "name": "name",
      "version": "04_02_parse",
      "description": "",
      "purl": "pkg:crates/name@04_02_parse"
    },
    {
      "type": "library",
      "bom-ref": "pkg:crates/name@04_02_validate",
      "group": "",
      "name": "name",
      "version": "04_02_validate",
      "description": "",
      "purl": "pkg:crates/name@04_02_validate"
    },
    {
      "type": "library",
      "bom-ref": "pkg:crates/name@04_03_relations",
      "group": "",
      "name": "name",
      "version": "04_03_relations",
      "description": "",
      "purl": "pkg:crates/name@04_03_relations"
    },
    {
      "type": "library",
      "bom-ref": "pkg:crates/name@04_04_custom",
      "group": "",
      "name": "name",
      "version": "04_04_custom",
      "description": "",
      "purl": "pkg:crates/name@04_04_custom"
    },
    {
      "type": "library",
      "bom-ref": "pkg:crates/name@05_01_assert",
      "group": "",
      "name": "name",
      "version": "05_01_assert",
      "description": "",
      "purl": "pkg:crates/name@05_01_assert"
    },
    {
      "type": "library",
      "bom-ref": "pkg:crates/test@true",
      "group": "",
      "name": "test",
      "version": "true",
      "description": "",
      "purl": "pkg:crates/test@true"
    },
    {
      "type": "library",
      "bom-ref": "pkg:crates/name@01_quick_derive",
      "group": "",
      "name": "name",
      "version": "01_quick_derive",
      "description": "",
      "purl": "pkg:crates/name@01_quick_derive"
    },
    {
      "type": "library",
      "bom-ref": "pkg:crates/name@02_apps_derive",
      "group": "",
      "name": "name",
      "version": "02_apps_derive",
      "description": "",
      "purl": "pkg:crates/name@02_apps_derive"
    },
    {
      "type": "library",
      "bom-ref": "pkg:crates/name@02_crate_derive",
      "group": "",
      "name": "name",
      "version": "02_crate_derive",
      "description": "",
      "purl": "pkg:crates/name@02_crate_derive"
    },
    {
      "type": "library",
      "bom-ref": "pkg:crates/name@02_app_settings_derive",
      "group": "",
      "name": "name",
      "version": "02_app_settings_derive",
      "description": "",
      "purl": "pkg:crates/name@02_app_settings_derive"
    },
    {
      "type": "library",
      "bom-ref": "pkg:crates/name@03_01_flag_bool_derive",
      "group": "",
      "name": "name",
      "version": "03_01_flag_bool_derive",
      "description": "",
      "purl": "pkg:crates/name@03_01_flag_bool_derive"
    },
    {
      "type": "library",
      "bom-ref": "pkg:crates/name@03_01_flag_count_derive",
      "group": "",
      "name": "name",
      "version": "03_01_flag_count_derive",
      "description": "",
      "purl": "pkg:crates/name@03_01_flag_count_derive"
    },
    {
      "type": "library",
      "bom-ref": "pkg:crates/name@03_02_option_derive",
      "group": "",
      "name": "name",
      "version": "03_02_option_derive",
      "description": "",
      "purl": "pkg:crates/name@03_02_option_derive"
    },
    {
      "type": "library",
      "bom-ref": "pkg:crates/name@03_03_positional_derive",
      "group": "",
      "name": "name",
      "version": "03_03_positional_derive",
      "description": "",
      "purl": "pkg:crates/name@03_03_positional_derive"
    },
    {
      "type": "library",
      "bom-ref": "pkg:crates/name@03_04_subcommands_derive",
      "group": "",
      "name": "name",
      "version": "03_04_subcommands_derive",
      "description": "",
      "purl": "pkg:crates/name@03_04_subcommands_derive"
    },
    {
      "type": "library",
      "bom-ref": "pkg:crates/name@03_04_subcommands_alt_derive",
      "group": "",
      "name": "name",
      "version": "03_04_subcommands_alt_derive",
      "description": "",
      "purl": "pkg:crates/name@03_04_subcommands_alt_derive"
    },
    {
      "type": "library",
      "bom-ref": "pkg:crates/name@03_05_default_values_derive",
      "group": "",
      "name": "name",
      "version": "03_05_default_values_derive",
      "description": "",
      "purl": "pkg:crates/name@03_05_default_values_derive"
    },
    {
      "type": "library",
      "bom-ref": "pkg:crates/name@04_01_enum_derive",
      "group": "",
      "name": "name",
      "version": "04_01_enum_derive",
      "description": "",
      "purl": "pkg:crates/name@04_01_enum_derive"
    },
    {
      "type": "library",
      "bom-ref": "pkg:crates/name@04_02_parse_derive",
      "group": "",
      "name": "name",
      "version": "04_02_parse_derive",
      "description": "",
      "purl": "pkg:crates/name@04_02_parse_derive"
    },
    {
      "type": "library",
      "bom-ref": "pkg:crates/name@04_02_validate_derive",
      "group": "",
      "name": "name",
      "version": "04_02_validate_derive",
      "description": "",
      "purl": "pkg:crates/name@04_02_validate_derive"
    },
    {
      "type": "library",
      "bom-ref": "pkg:crates/name@04_03_relations_derive",
      "group": "",
      "name": "name",
      "version": "04_03_relations_derive",
      "description": "",
      "purl": "pkg:crates/name@04_03_relations_derive"
    },
    {
      "type": "library",
      "bom-ref": "pkg:crates/name@04_04_custom_derive",
      "group": "",
      "name": "name",
      "version": "04_04_custom_derive",
      "description": "",
      "purl": "pkg:crates/name@04_04_custom_derive"
    },
    {
      "type": "library",
      "bom-ref": "pkg:crates/name@05_01_assert_derive",
      "group": "",
      "name": "name",
      "version": "05_01_assert_derive",
      "description": "",
      "purl": "pkg:crates/name@05_01_assert_derive"
    },
    {
      "type": "library",
      "bom-ref": "pkg:crates/name@custom-bool",
      "group": "",
      "name": "name",
      "version": "custom-bool",
      "description": "",
      "purl": "pkg:crates/name@custom-bool"
    },
    {
      "type": "library",
      "bom-ref": "pkg:crates/name@interop_augment_args",
      "group": "",
      "name": "name",
      "version": "interop_augment_args",
      "description": "",
      "purl": "pkg:crates/name@interop_augment_args"
    },
    {
      "type": "library",
      "bom-ref": "pkg:crates/name@interop_augment_subcommands",
      "group": "",
      "name": "name",
      "version": "interop_augment_subcommands",
      "description": "",
      "purl": "pkg:crates/name@interop_augment_subcommands"
    },
    {
      "type": "library",
      "bom-ref": "pkg:crates/name@interop_hand_subcommand",
      "group": "",
      "name": "name",
      "version": "interop_hand_subcommand",
      "description": "",
      "purl": "pkg:crates/name@interop_hand_subcommand"
    },
    {
      "type": "library",
      "bom-ref": "pkg:crates/name@interop_flatten_hand_args",
      "group": "",
      "name": "name",
      "version": "interop_flatten_hand_args",
      "description": "",
      "purl": "pkg:crates/name@interop_flatten_hand_args"
    },
    {
      "type": "library",
      "bom-ref": "pkg:crates/opt-level@1",
      "group": "",
      "name": "opt-level",
      "version": "1",
      "description": "",
      "purl": "pkg:crates/opt-level@1"
    },
    {
      "type": "library",
      "bom-ref": "pkg:crates/lto@true",
      "group": "",
      "name": "lto",
      "version": "true",
      "description": "",
      "purl": "pkg:crates/lto@true"
    },
    {
      "type": "library",
      "bom-ref": "pkg:crates/codegen-units@1",
      "group": "",
      "name": "codegen-units",
      "version": "1",
      "description": "",
      "purl": "pkg:crates/codegen-units@1"
    },
    {
      "type": "library",
      "bom-ref": "pkg:crates/06_rustup@0.0.0",
      "group": "",
      "name": "06_rustup",
      "version": "0.0.0",
      "description": "",
      "purl": "pkg:crates/06_rustup@0.0.0"
    },
    {
      "type": "library",
      "bom-ref": "pkg:crates/clap_complete_fig@3.1.5",
      "group": "",
      "name": "clap_complete_fig",
      "version": "3.1.5",
      "description": "",
      "purl": "pkg:crates/clap_complete_fig@3.1.5"
    },
    {
      "type": "library",
      "bom-ref": "pkg:crates/snapbox@0.2",
      "group": "",
      "name": "snapbox",
      "version": "0.2",
      "description": "",
      "purl": "pkg:crates/snapbox@0.2"
    },
    {
      "type": "library",
      "bom-ref": "pkg:crates/clap_complete@3.1.4",
      "group": "",
      "name": "clap_complete",
      "version": "3.1.4",
      "description": "",
      "purl": "pkg:crates/clap_complete@3.1.4"
    },
    {
      "type": "library",
      "bom-ref": "pkg:crates/is_executable@1.0.1",
      "group": "",
      "name": "is_executable",
      "version": "1.0.1",
      "description": "",
      "purl": "pkg:crates/is_executable@1.0.1"
    },
    {
      "type": "library",
      "bom-ref": "pkg:crates/os_str_bytes@6.0",
      "group": "",
      "name": "os_str_bytes",
      "version": "6.0",
      "description": "",
      "purl": "pkg:crates/os_str_bytes@6.0"
    },
    {
      "type": "library",
      "bom-ref": "pkg:crates/pathdiff@0.2.1",
      "group": "",
      "name": "pathdiff",
      "version": "0.2.1",
      "description": "",
      "purl": "pkg:crates/pathdiff@0.2.1"
    },
    {
      "type": "library",
      "bom-ref": "pkg:crates/unicode-xid@0.2.2",
      "group": "",
      "name": "unicode-xid",
      "version": "0.2.2",
      "description": "",
      "purl": "pkg:crates/unicode-xid@0.2.2"
    },
    {
      "type": "library",
      "bom-ref": "pkg:crates/pretty_assertions@1.0",
      "group": "",
      "name": "pretty_assertions",
      "version": "1.0",
      "description": "",
      "purl": "pkg:crates/pretty_assertions@1.0"
    },
    {
      "type": "library",
      "bom-ref": "pkg:crates/name@dynamic",
      "group": "",
      "name": "name",
      "version": "dynamic",
      "description": "",
      "purl": "pkg:crates/name@dynamic"
    },
    {
      "type": "library",
      "bom-ref": "pkg:crates/required-features@[unstable-dynamic]",
      "group": "",
      "name": "required-features",
      "version": "[unstable-dynamic]",
      "description": "",
      "purl": "pkg:crates/required-features@[unstable-dynamic]"
    },
    {
      "type": "library",
      "bom-ref": "pkg:crates/default@[]",
      "group": "",
      "name": "default",
      "version": "[]",
      "description": "",
      "purl": "pkg:crates/default@[]"
    },
    {
      "type": "library",
      "bom-ref": "pkg:crates/unstable-dynamic@[clap_lex, shlex, unicode-xid, os_str_bytes, clap/derive, is_executable, pathdiff]",
      "group": "",
      "name": "unstable-dynamic",
      "version": "[clap_lex, shlex, unicode-xid, os_str_bytes, clap/derive, is_executable, pathdiff]",
      "description": "",
      "purl": "pkg:crates/unstable-dynamic@[clap_lex, shlex, unicode-xid, os_str_bytes, clap/derive, is_executable, pathdiff]"
    },
    {
      "type": "library",
      "bom-ref": "pkg:crates/debug@[clap/debug]",
      "group": "",
      "name": "debug",
      "version": "[clap/debug]",
      "description": "",
      "purl": "pkg:crates/debug@[clap/debug]"
    },
    {
      "type": "library",
      "bom-ref": "pkg:crates/clap_derive@3.1.18",
      "group": "",
      "name": "clap_derive",
      "version": "3.1.18",
      "description": "",
      "purl": "pkg:crates/clap_derive@3.1.18"
    },
    {
      "type": "library",
      "bom-ref": "pkg:crates/syn@1.0.74",
      "group": "",
      "name": "syn",
      "version": "1.0.74",
      "description": "",
      "purl": "pkg:crates/syn@1.0.74"
    },
    {
      "type": "library",
      "bom-ref": "pkg:crates/quote@1.0.9",
      "group": "",
      "name": "quote",
      "version": "1.0.9",
      "description": "",
      "purl": "pkg:crates/quote@1.0.9"
    },
    {
      "type": "library",
      "bom-ref": "pkg:crates/proc-macro2@1.0.28",
      "group": "",
      "name": "proc-macro2",
      "version": "1.0.28",
      "description": "",
      "purl": "pkg:crates/proc-macro2@1.0.28"
    },
    {
      "type": "library",
      "bom-ref": "pkg:crates/heck@0.4.0",
      "group": "",
      "name": "heck",
      "version": "0.4.0",
      "description": "",
      "purl": "pkg:crates/heck@0.4.0"
    },
    {
      "type": "library",
      "bom-ref": "pkg:crates/proc-macro-error@1",
      "group": "",
      "name": "proc-macro-error",
      "version": "1",
      "description": "",
      "purl": "pkg:crates/proc-macro-error@1"
    },
    {
      "type": "library",
      "bom-ref": "pkg:crates/debug@[]",
      "group": "",
      "name": "debug",
      "version": "[]",
      "description": "",
      "purl": "pkg:crates/debug@[]"
    },
    {
      "type": "library",
      "bom-ref": "pkg:crates/unstable-v4@[]",
      "group": "",
      "name": "unstable-v4",
      "version": "[]",
      "description": "",
      "purl": "pkg:crates/unstable-v4@[]"
    },
    {
      "type": "library",
      "bom-ref": "pkg:crates/clap_lex@0.2.0",
      "group": "",
      "name": "clap_lex",
      "version": "0.2.0",
      "description": "",
      "purl": "pkg:crates/clap_lex@0.2.0"
    },
    {
      "type": "library",
      "bom-ref": "pkg:crates/clap_mangen@0.1.6",
      "group": "",
      "name": "clap_mangen",
      "version": "0.1.6",
      "description": "",
      "purl": "pkg:crates/clap_mangen@0.1.6"
    },
    {
      "type": "library",
      "bom-ref": "pkg:crates/roff@0.2.1",
      "group": "",
      "name": "roff",
      "version": "0.2.1",
      "description": "",
      "purl": "pkg:crates/roff@0.2.1"
    }
  ]
}
