{
  "bomFormat": "CycloneDX",
  "specVersion": "1.3",
  "version": 1,
  "metadata": {
    "tools": [
      {
        "vendor": "CycloneDX",
        "name": "cyclonedx-gomod",
        "version": "v0.0.0-unset",
        "hashes": [
          {
            "alg": "MD5",
            "content": "a35776fc9417e8071d3f1dcfa2f1dd19"
          },
          {
            "alg": "SHA-1",
            "content": "a19a8eed713eff5a2092e5283c201a146f19421d"
          },
          {
            "alg": "SHA-256",
            "content": "17b3b980b9a5d0f48ad52043dee5b31aff3ae6599a36bc94224dc7b6a46759ef"
          },
          {
            "alg": "SHA-512",
            "content": "9d4f06aab20cede94a1aedf11a300ae9de98871235c68c72e421cd6d45495910861b39e743ee0eceb11bbdcd2c9acc3312c19064cfe90177243fb43127fcfa46"
          }
        ]
      },
      {
        "vendor": "CycloneDX",
        "name": "Node.js module",
        "version": "3.0.3"
      },
      {
        "vendor": "AppThreat",
        "name": "cdxgen",
        "version": "3.0.10"
      },
      {
        "vendor": "Fortress Information Security",
        "name": "Github Extractor",
        "version": "1.15.1"
      }
    ],
    "authors": [
      {
        "name": "Fortress Information Security",
        "email": "sales@fortressinfosec.com",
        "phone": "1-407-573-6800"
      }
    ],
    "timestamp": "2022-06-01T21:00:00Z",
    "component": {
      "type": "application",
      "name": "pebble",
      "version": "",
      "group": "cockroachdb",
      "externalReferences": [
        {
          "url": "https://github.com/cockroachdb/pebble.git",
          "type": "distribution"
        },
        {
          "type": "website",
          "url": "null",
          "comment": "As set via `homepage` in Github API"
        }
      ]
    }
  },
  "components": [
    {
      "type": "library",
      "bom-ref": "pkg:golang/github.com/DataDog/zstd@v1.4.5",
      "name": "github.com/DataDog/zstd",
      "version": "v1.4.5",
      "scope": "required",
      "purl": "pkg:golang/github.com/DataDog/zstd@v1.4.5",
      "externalReferences": [
        {
          "url": "https://github.com/DataDog/zstd",
          "type": "vcs"
        }
      ]
    },
    {
      "type": "library",
      "bom-ref": "pkg:golang/github.com/cespare/xxhash/v2@v2.1.1",
      "name": "github.com/cespare/xxhash/v2",
      "version": "v2.1.1",
      "scope": "required",
      "purl": "pkg:golang/github.com/cespare/xxhash/v2@v2.1.1",
      "externalReferences": [
        {
          "url": "https://github.com/cespare/xxhash",
          "type": "vcs"
        }
      ]
    },
    {
      "type": "library",
      "bom-ref": "pkg:golang/github.com/cockroachdb/errors@v1.8.1",
      "name": "github.com/cockroachdb/errors",
      "version": "v1.8.1",
      "scope": "required",
      "purl": "pkg:golang/github.com/cockroachdb/errors@v1.8.1",
      "externalReferences": [
        {
          "url": "https://github.com/cockroachdb/errors",
          "type": "vcs"
        }
      ]
    },
    {
      "type": "library",
      "bom-ref": "pkg:golang/github.com/cockroachdb/logtags@v0.0.0-20190617123548-eb05cc24525f",
      "name": "github.com/cockroachdb/logtags",
      "version": "v0.0.0-20190617123548-eb05cc24525f",
      "scope": "required",
      "purl": "pkg:golang/github.com/cockroachdb/logtags@v0.0.0-20190617123548-eb05cc24525f",
      "externalReferences": [
        {
          "url": "https://github.com/cockroachdb/logtags",
          "type": "vcs"
        }
      ]
    },
    {
      "type": "library",
      "bom-ref": "pkg:golang/github.com/cockroachdb/redact@v1.0.8",
      "name": "github.com/cockroachdb/redact",
      "version": "v1.0.8",
      "scope": "required",
      "purl": "pkg:golang/github.com/cockroachdb/redact@v1.0.8",
      "externalReferences": [
        {
          "url": "https://github.com/cockroachdb/redact",
          "type": "vcs"
        }
      ]
    },
    {
      "type": "library",
      "bom-ref": "pkg:golang/github.com/cockroachdb/sentry-go@v0.6.1-cockroachdb.2",
      "name": "github.com/cockroachdb/sentry-go",
      "version": "v0.6.1-cockroachdb.2",
      "scope": "required",
      "purl": "pkg:golang/github.com/cockroachdb/sentry-go@v0.6.1-cockroachdb.2",
      "externalReferences": [
        {
          "url": "https://github.com/cockroachdb/sentry-go",
          "type": "vcs"
        }
      ]
    },
    {
      "type": "library",
      "bom-ref": "pkg:golang/github.com/codahale/hdrhistogram@v0.0.0-20161010025455-3a0bb77429bd",
      "name": "github.com/codahale/hdrhistogram",
      "version": "v0.0.0-20161010025455-3a0bb77429bd",
      "scope": "required",
      "purl": "pkg:golang/github.com/codahale/hdrhistogram@v0.0.0-20161010025455-3a0bb77429bd",
      "externalReferences": [
        {
          "url": "https://github.com/codahale/hdrhistogram",
          "type": "vcs"
        }
      ]
    },
    {
      "type": "library",
      "bom-ref": "pkg:golang/github.com/davecgh/go-spew@v1.1.1",
      "name": "github.com/davecgh/go-spew",
      "version": "v1.1.1",
      "scope": "required",
      "purl": "pkg:golang/github.com/davecgh/go-spew@v1.1.1",
      "externalReferences": [
        {
          "url": "https://github.com/davecgh/go-spew",
          "type": "vcs"
        }
      ]
    },
    {
      "type": "library",
      "bom-ref": "pkg:golang/github.com/gogo/protobuf@v1.3.1",
      "name": "github.com/gogo/protobuf",
      "version": "v1.3.1",
      "scope": "required",
      "purl": "pkg:golang/github.com/gogo/protobuf@v1.3.1",
      "externalReferences": [
        {
          "url": "https://github.com/gogo/protobuf",
          "type": "vcs"
        }
      ]
    },
    {
      "type": "library",
      "bom-ref": "pkg:golang/github.com/golang/snappy@v0.0.3",
      "name": "github.com/golang/snappy",
      "version": "v0.0.3",
      "scope": "required",
      "purl": "pkg:golang/github.com/golang/snappy@v0.0.3",
      "externalReferences": [
        {
          "url": "https://github.com/golang/snappy",
          "type": "vcs"
        }
      ]
    },
    {
      "type": "library",
      "bom-ref": "pkg:golang/github.com/inconshreveable/mousetrap@v1.0.0",
      "name": "github.com/inconshreveable/mousetrap",
      "version": "v1.0.0",
      "scope": "required",
      "purl": "pkg:golang/github.com/inconshreveable/mousetrap@v1.0.0",
      "externalReferences": [
        {
          "url": "https://github.com/inconshreveable/mousetrap",
          "type": "vcs"
        }
      ]
    },
    {
      "type": "library",
      "bom-ref": "pkg:golang/github.com/klauspost/compress@v1.11.7",
      "name": "github.com/klauspost/compress",
      "version": "v1.11.7",
      "scope": "required",
      "purl": "pkg:golang/github.com/klauspost/compress@v1.11.7",
      "externalReferences": [
        {
          "url": "https://github.com/klauspost/compress",
          "type": "vcs"
        }
      ]
    },
    {
      "type": "library",
      "bom-ref": "pkg:golang/github.com/pkg/errors@v0.9.1",
      "name": "github.com/pkg/errors",
      "version": "v0.9.1",
      "scope": "required",
      "purl": "pkg:golang/github.com/pkg/errors@v0.9.1",
      "externalReferences": [
        {
          "url": "https://github.com/pkg/errors",
          "type": "vcs"
        }
      ]
    },
    {
      "type": "library",
      "bom-ref": "pkg:golang/github.com/pmezard/go-difflib@v1.0.0",
      "name": "github.com/pmezard/go-difflib",
      "version": "v1.0.0",
      "scope": "required",
      "purl": "pkg:golang/github.com/pmezard/go-difflib@v1.0.0",
      "externalReferences": [
        {
          "url": "https://github.com/pmezard/go-difflib",
          "type": "vcs"
        }
      ]
    },
    {
      "type": "library",
      "bom-ref": "pkg:golang/github.com/spf13/cobra@v0.0.5",
      "name": "github.com/spf13/cobra",
      "version": "v0.0.5",
      "scope": "required",
      "purl": "pkg:golang/github.com/spf13/cobra@v0.0.5",
      "externalReferences": [
        {
          "url": "https://github.com/spf13/cobra",
          "type": "vcs"
        }
      ]
    },
    {
      "type": "library",
      "bom-ref": "pkg:golang/github.com/spf13/pflag@v1.0.3",
      "name": "github.com/spf13/pflag",
      "version": "v1.0.3",
      "scope": "required",
      "purl": "pkg:golang/github.com/spf13/pflag@v1.0.3",
      "externalReferences": [
        {
          "url": "https://github.com/spf13/pflag",
          "type": "vcs"
        }
      ]
    },
    {
      "type": "library",
      "bom-ref": "pkg:golang/github.com/stretchr/testify@v1.6.1",
      "name": "github.com/stretchr/testify",
      "version": "v1.6.1",
      "scope": "required",
      "purl": "pkg:golang/github.com/stretchr/testify@v1.6.1",
      "externalReferences": [
        {
          "url": "https://github.com/stretchr/testify",
          "type": "vcs"
        }
      ]
    },
    {
      "type": "library",
      "bom-ref": "pkg:golang/golang.org/x/exp@v0.0.0-20200513190911-00229845015e",
      "name": "golang.org/x/exp",
      "version": "v0.0.0-20200513190911-00229845015e",
      "scope": "required",
      "purl": "pkg:golang/golang.org/x/exp@v0.0.0-20200513190911-00229845015e"
    },
    {
      "type": "library",
      "bom-ref": "pkg:golang/golang.org/x/sys@v0.0.0-20210909193231-528a39cd75f3",
      "name": "golang.org/x/sys",
      "version": "v0.0.0-20210909193231-528a39cd75f3",
      "scope": "required",
      "purl": "pkg:golang/golang.org/x/sys@v0.0.0-20210909193231-528a39cd75f3"
    },
    {
      "type": "library",
      "bom-ref": "pkg:golang/gopkg.in/yaml.v3@v3.0.0-20200313102051-9f266ea9e77c",
      "name": "gopkg.in/yaml.v3",
      "version": "v3.0.0-20200313102051-9f266ea9e77c",
      "scope": "required",
      "purl": "pkg:golang/gopkg.in/yaml.v3@v3.0.0-20200313102051-9f266ea9e77c",
      "externalReferences": [
        {
          "url": "https://github.com/go-yaml/yaml",
          "type": "vcs"
        }
      ]
    },
    {
      "type": "library",
      "bom-ref": "pkg:golang/github.com/kr/text@v0.1.0",
      "group": "github.com/kr",
      "name": "text",
      "version": "v0.1.0",
      "description": "",
      "scope": "required",
      "hashes": [
        {
          "alg": "SHA-256",
          "content": "e096eff83256dd44ff2e23b025e6107b579faad531fe25616a6ff8bdf740acd2"
        }
      ],
      "purl": "pkg:golang/github.com/kr/text@v0.1.0"
    },
    {
      "type": "library",
      "bom-ref": "pkg:golang/github.com/kr/pretty@v0.1.0",
      "group": "github.com/kr",
      "name": "pretty",
      "version": "v0.1.0",
      "description": "",
      "scope": "required",
      "hashes": [
        {
          "alg": "SHA-256",
          "content": "740cb795dee5f5fd226c334e40e1c731860821b85f6c74a6dc2e19b2824e44da"
        }
      ],
      "purl": "pkg:golang/github.com/kr/pretty@v0.1.0"
    },
    {
      "type": "library",
      "bom-ref": "pkg:golang/github.com/cockroachdb/pebble",
      "group": "github.com/cockroachdb",
      "name": "pebble",
      "version": "",
      "description": "",
      "scope": "required",
      "purl": "pkg:golang/github.com/cockroachdb/pebble"
    }
  ],
  "dependencies": [
    {
      "ref": "pkg:golang/github.com/DataDog/zstd@v1.4.5"
    },
    {
      "ref": "pkg:golang/github.com/cespare/xxhash/v2@v2.1.1"
    },
    {
      "ref": "pkg:golang/github.com/cockroachdb/errors@v1.8.1",
      "dependsOn": [
        "pkg:golang/github.com/cockroachdb/logtags@v0.0.0-20190617123548-eb05cc24525f",
        "pkg:golang/github.com/cockroachdb/redact@v1.0.8",
        "pkg:golang/github.com/cockroachdb/sentry-go@v0.6.1-cockroachdb.2",
        "pkg:golang/github.com/gogo/protobuf@v1.3.1",
        "pkg:golang/github.com/pkg/errors@v0.9.1"
      ]
    },
    {
      "ref": "pkg:golang/github.com/cockroachdb/logtags@v0.0.0-20190617123548-eb05cc24525f"
    },
    {
      "ref": "pkg:golang/github.com/cockroachdb/redact@v1.0.8"
    },
    {
      "ref": "pkg:golang/github.com/cockroachdb/sentry-go@v0.6.1-cockroachdb.2",
      "dependsOn": [
        "pkg:golang/github.com/pkg/errors@v0.9.1"
      ]
    },
    {
      "ref": "pkg:golang/github.com/codahale/hdrhistogram@v0.0.0-20161010025455-3a0bb77429bd"
    },
    {
      "ref": "pkg:golang/github.com/davecgh/go-spew@v1.1.1"
    },
    {
      "ref": "pkg:golang/github.com/gogo/protobuf@v1.3.1"
    },
    {
      "ref": "pkg:golang/github.com/golang/snappy@v0.0.3"
    },
    {
      "ref": "pkg:golang/github.com/inconshreveable/mousetrap@v1.0.0"
    },
    {
      "ref": "pkg:golang/github.com/klauspost/compress@v1.11.7"
    },
    {
      "ref": "pkg:golang/github.com/pkg/errors@v0.9.1"
    },
    {
      "ref": "pkg:golang/github.com/pmezard/go-difflib@v1.0.0"
    },
    {
      "ref": "pkg:golang/github.com/spf13/cobra@v0.0.5",
      "dependsOn": [
        "pkg:golang/github.com/inconshreveable/mousetrap@v1.0.0",
        "pkg:golang/github.com/spf13/pflag@v1.0.3"
      ]
    },
    {
      "ref": "pkg:golang/github.com/spf13/pflag@v1.0.3"
    },
    {
      "ref": "pkg:golang/github.com/stretchr/testify@v1.6.1",
      "dependsOn": [
        "pkg:golang/github.com/davecgh/go-spew@v1.1.1",
        "pkg:golang/github.com/pmezard/go-difflib@v1.0.0",
        "pkg:golang/gopkg.in/yaml.v3@v3.0.0-20200313102051-9f266ea9e77c"
      ]
    },
    {
      "ref": "pkg:golang/golang.org/x/exp@v0.0.0-20200513190911-00229845015e",
      "dependsOn": [
        "pkg:golang/golang.org/x/sys@v0.0.0-20210909193231-528a39cd75f3"
      ]
    },
    {
      "ref": "pkg:golang/golang.org/x/sys@v0.0.0-20210909193231-528a39cd75f3"
    },
    {
      "ref": "pkg:golang/gopkg.in/yaml.v3@v3.0.0-20200313102051-9f266ea9e77c"
    },
    {
      "ref": "pkg:golang/github.com/cockroachdb/pebble@v0.0.0-20220505092923-f8897076324b",
      "dependsOn": [
        "pkg:golang/github.com/DataDog/zstd@v1.4.5",
        "pkg:golang/github.com/cespare/xxhash/v2@v2.1.1",
        "pkg:golang/github.com/cockroachdb/errors@v1.8.1",
        "pkg:golang/github.com/cockroachdb/redact@v1.0.8",
        "pkg:golang/github.com/codahale/hdrhistogram@v0.0.0-20161010025455-3a0bb77429bd",
        "pkg:golang/github.com/golang/snappy@v0.0.3",
        "pkg:golang/github.com/klauspost/compress@v1.11.7",
        "pkg:golang/github.com/pmezard/go-difflib@v1.0.0",
        "pkg:golang/github.com/spf13/cobra@v0.0.5",
        "pkg:golang/github.com/stretchr/testify@v1.6.1",
        "pkg:golang/golang.org/x/exp@v0.0.0-20200513190911-00229845015e",
        "pkg:golang/golang.org/x/sys@v0.0.0-20210909193231-528a39cd75f3"
      ]
    }
  ]
}
