{
  "bomFormat": "CycloneDX",
  "specVersion": "1.3",
  "serialNumber": "urn:uuid:84661ec5-3c67-4068-9229-bc8071ab4816",
  "version": 1,
  "metadata": {
    "timestamp": "2022-05-17T10:26:31Z",
    "tools": [
      {
        "vendor": "AppThreat",
        "name": "cdxgen",
        "version": "3.0.10"
      },
      {
        "vendor": "Fortress Information Security",
        "name": "Github Extractor",
        "version": "1.15.1"
      }
    ],
    "authors": [
      {
        "name": "Team AppThreat",
        "email": "cloud@appthreat.com"
      },
      {
        "name": "Fortress Information Security",
        "email": "sales@fortressinfosec.com",
        "phone": "1-407-573-6800"
      }
    ],
    "component": {
      "type": "application",
      "name": "fast.js",
      "version": "",
      "group": "codemix",
      "externalReferences": [
        {
          "url": "https://github.com/codemix/fast.js.git",
          "type": "distribution"
        },
        {
          "type": "website",
          "url": "null",
          "comment": "As set via `homepage` in Github API"
        }
      ]
    }
  },
  "components": [
    {
      "type": "library",
      "bom-ref": "pkg:npm/Base64@0.2.1",
      "group": "",
      "name": "Base64",
      "version": "0.2.1",
      "description": "",
      "scope": "optional",
      "hashes": [
        {
          "alg": "SHA-1",
          "content": "ba3a4230708e186705065e66babdd4c35cf60028"
        }
      ],
      "purl": "pkg:npm/Base64@0.2.1"
    },
    {
      "type": "library",
      "bom-ref": "pkg:npm/JSONStream@0.7.4",
      "group": "",
      "name": "JSONStream",
      "version": "0.7.4",
      "description": "",
      "scope": "optional",
      "hashes": [
        {
          "alg": "SHA-1",
          "content": "734290e41511eea7c2cfe151fbf9a563a97b9786"
        }
      ],
      "purl": "pkg:npm/JSONStream@0.7.4"
    },
    {
      "type": "library",
      "bom-ref": "pkg:npm/abbrev@1.0.9",
      "group": "",
      "name": "abbrev",
      "version": "1.0.9",
      "description": "",
      "scope": "optional",
      "hashes": [
        {
          "alg": "SHA-1",
          "content": "91b4792588a7738c25f35dd6f63752a2f8776135"
        }
      ],
      "purl": "pkg:npm/abbrev@1.0.9"
    },
    {
      "type": "library",
      "bom-ref": "pkg:npm/acorn@4.0.13",
      "group": "",
      "name": "acorn",
      "version": "4.0.13",
      "description": "",
      "scope": "optional",
      "hashes": [
        {
          "alg": "SHA-1",
          "content": "105495ae5361d697bd195c825192e1ad7f253787"
        }
      ],
      "purl": "pkg:npm/acorn@4.0.13"
    },
    {
      "type": "library",
      "bom-ref": "pkg:npm/amdefine@1.0.1",
      "group": "",
      "name": "amdefine",
      "version": "1.0.1",
      "description": "",
      "scope": "optional",
      "hashes": [
        {
          "alg": "SHA-1",
          "content": "4a5282ac164729e93619bcfd3ad151f817ce91f5"
        }
      ],
      "purl": "pkg:npm/amdefine@1.0.1"
    },
    {
      "type": "library",
      "bom-ref": "pkg:npm/ansi-regex@2.1.1",
      "group": "",
      "name": "ansi-regex",
      "version": "2.1.1",
      "description": "",
      "scope": "optional",
      "hashes": [
        {
          "alg": "SHA-1",
          "content": "c3b33ab5ee360d86e0e628f0468ae7ef27d654df"
        }
      ],
      "purl": "pkg:npm/ansi-regex@2.1.1"
    },
    {
      "type": "library",
      "bom-ref": "pkg:npm/aproba@1.2.0",
      "group": "",
      "name": "aproba",
      "version": "1.2.0",
      "description": "",
      "scope": "optional",
      "hashes": [
        {
          "alg": "SHA-512",
          "content": "63d27a6635eda1887c4675d508c394fedb439a4d5a063ba7abdbced2d6b9c7ce560d08907d417db083c121375b8a2215701a34dc78b78ccc62801b6c75d95747"
        }
      ],
      "purl": "pkg:npm/aproba@1.2.0"
    },
    {
      "type": "library",
      "bom-ref": "pkg:npm/are-we-there-yet@1.1.5",
      "group": "",
      "name": "are-we-there-yet",
      "version": "1.1.5",
      "description": "",
      "scope": "optional",
      "hashes": [
        {
          "alg": "SHA-512",
          "content": "e6161d024665706f2d38bba35434e0093fae3d7d159e9007dbc816b0b7f3a57626ef03fa9a9e50fe063247b610d1c29525c5c99e5de3da4a416a7d773ed41feb"
        }
      ],
      "purl": "pkg:npm/are-we-there-yet@1.1.5"
    },
    {
      "type": "library",
      "bom-ref": "pkg:npm/isarray@1.0.0",
      "group": "",
      "name": "isarray",
      "version": "1.0.0",
      "description": "",
      "scope": "optional",
      "hashes": [
        {
          "alg": "SHA-1",
          "content": "bb935d48582cba168c06834957a54a3e07124f11"
        }
      ],
      "purl": "pkg:npm/isarray@1.0.0"
    },
    {
      "type": "library",
      "bom-ref": "pkg:npm/readable-stream@2.3.6",
      "group": "",
      "name": "readable-stream",
      "version": "2.3.6",
      "description": "",
      "scope": "optional",
      "hashes": [
        {
          "alg": "SHA-512",
          "content": "b50b4a03d588021045dfe54b02c7b232a65e0635b4007268c4eb58a92519349c5ab84ae62db566d855b5cbe27f600f5d52b002dfd2137a39595a1548c1ac242b"
        }
      ],
      "purl": "pkg:npm/readable-stream@2.3.6"
    },
    {
      "type": "library",
      "bom-ref": "pkg:npm/string_decoder@1.1.1",
      "group": "",
      "name": "string_decoder",
      "version": "1.1.1",
      "description": "",
      "scope": "optional",
      "hashes": [
        {
          "alg": "SHA-512",
          "content": "9ff4a19ef0e2e851db6d57ef8aba3e5a88e2173bfeb3c30f30705ccd578f7d4a4324bc282d3d21b759786300426e2f29240bde104767907c8fc933ff9b345fc2"
        }
      ],
      "purl": "pkg:npm/string_decoder@1.1.1"
    },
    {
      "type": "library",
      "bom-ref": "pkg:npm/argparse@1.0.10",
      "group": "",
      "name": "argparse",
      "version": "1.0.10",
      "description": "",
      "scope": "optional",
      "hashes": [
        {
          "alg": "SHA-512",
          "content": "a39468cbab4d1b848bfc53a408037a4738e26a4652db944b605adc32db49a9b75df015ab9c0f9f1b3e7b88de4f6f4ea9bc11af979810d01e3c74996c957be84e"
        }
      ],
      "purl": "pkg:npm/argparse@1.0.10"
    },
    {
      "type": "library",
      "bom-ref": "pkg:npm/assert@1.1.2",
      "group": "",
      "name": "assert",
      "version": "1.1.2",
      "description": "",
      "scope": "optional",
      "hashes": [
        {
          "alg": "SHA-1",
          "content": "adaa04c46bb58c6dd1f294da3eb26e6228eb6e44"
        }
      ],
      "purl": "pkg:npm/assert@1.1.2"
    },
    {
      "type": "library",
      "bom-ref": "pkg:npm/inherits@2.0.1",
      "group": "",
      "name": "inherits",
      "version": "2.0.1",
      "description": "",
      "scope": "optional",
      "hashes": [
        {
          "alg": "SHA-1",
          "content": "b17d08d326b4423e568eff719f91b0b1cbdf69f1"
        }
      ],
      "purl": "pkg:npm/inherits@2.0.1"
    },
    {
      "type": "library",
      "bom-ref": "pkg:npm/util@0.10.3",
      "group": "",
      "name": "util",
      "version": "0.10.3",
      "description": "",
      "scope": "optional",
      "hashes": [
        {
          "alg": "SHA-1",
          "content": "7afb1afe50805246489e3db7fe0ed379336ac0f9"
        }
      ],
      "purl": "pkg:npm/util@0.10.3"
    },
    {
      "type": "library",
      "bom-ref": "pkg:npm/astw@2.2.0",
      "group": "",
      "name": "astw",
      "version": "2.2.0",
      "description": "",
      "scope": "optional",
      "hashes": [
        {
          "alg": "SHA-1",
          "content": "7bd41784d32493987aeb239b6b4e1c57a873b917"
        }
      ],
      "purl": "pkg:npm/astw@2.2.0"
    },
    {
      "type": "library",
      "bom-ref": "pkg:npm/async@0.2.10",
      "group": "",
      "name": "async",
      "version": "0.2.10",
      "description": "",
      "scope": "optional",
      "hashes": [
        {
          "alg": "SHA-1",
          "content": "b6bbe0b0674b9d719708ca38de8c237cb526c3d1"
        }
      ],
      "purl": "pkg:npm/async@0.2.10"
    },
    {
      "type": "library",
      "bom-ref": "pkg:npm/base64-js@0.0.7",
      "group": "",
      "name": "base64-js",
      "version": "0.0.7",
      "description": "",
      "scope": "optional",
      "hashes": [
        {
          "alg": "SHA-1",
          "content": "54400dc91d696cec32a8a47902f971522fee8f48"
        }
      ],
      "purl": "pkg:npm/base64-js@0.0.7"
    },
    {
      "type": "library",
      "bom-ref": "pkg:npm/benchmark@1.0.0",
      "group": "",
      "name": "benchmark",
      "version": "1.0.0",
      "description": "",
      "scope": "optional",
      "hashes": [
        {
          "alg": "SHA-1",
          "content": "2f1e2fa4c359f11122aa183082218e957e390c73"
        }
      ],
      "purl": "pkg:npm/benchmark@1.0.0"
    },
    {
      "type": "library",
      "bom-ref": "pkg:npm/bindings@1.3.0",
      "group": "",
      "name": "bindings",
      "version": "1.3.0",
      "description": "",
      "scope": "optional",
      "hashes": [
        {
          "alg": "SHA-512",
          "content": "0e92e1e44ccc476933bd7d4a225542d15902de266d1ca4e076d6746b7a6094165d690163b794bd83dc5dd6513e62f5f27ddea6b427919eb51f38b6224cc94d4b"
        }
      ],
      "purl": "pkg:npm/bindings@1.3.0"
    },
    {
      "type": "library",
      "bom-ref": "pkg:npm/bl@1.2.2",
      "group": "",
      "name": "bl",
      "version": "1.2.2",
      "description": "",
      "scope": "optional",
      "hashes": [
        {
          "alg": "SHA-512",
          "content": "7bcb5062766876679b6035861fb28c46fb732976891f1dc16e296b81909fbf22d461d2a92b5b793d23e6a649f2fd28224d20a78df2d6eefe6b94e35754591010"
        }
      ],
      "purl": "pkg:npm/bl@1.2.2"
    },
    {
      "type": "library",
      "bom-ref": "pkg:npm/browser-pack@2.0.1",
      "group": "",
      "name": "browser-pack",
      "version": "2.0.1",
      "description": "",
      "scope": "optional",
      "hashes": [
        {
          "alg": "SHA-1",
          "content": "5d1c527f56c582677411c4db2a128648ff6bf150"
        }
      ],
      "purl": "pkg:npm/browser-pack@2.0.1"
    },
    {
      "type": "library",
      "bom-ref": "pkg:npm/JSONStream@0.6.4",
      "group": "",
      "name": "JSONStream",
      "version": "0.6.4",
      "description": "",
      "scope": "optional",
      "hashes": [
        {
          "alg": "SHA-1",
          "content": "4b2c8063f8f512787b2375f7ee9db69208fa2dcb"
        }
      ],
      "purl": "pkg:npm/JSONStream@0.6.4"
    },
    {
      "type": "library",
      "bom-ref": "pkg:npm/through@2.2.7",
      "group": "",
      "name": "through",
      "version": "2.2.7",
      "description": "",
      "scope": "optional",
      "hashes": [
        {
          "alg": "SHA-1",
          "content": "6e8e21200191d4eb6a99f6f010df46aa1c6eb2bd"
        }
      ],
      "purl": "pkg:npm/through@2.2.7"
    },
    {
      "type": "library",
      "bom-ref": "pkg:npm/browser-resolve@1.11.3",
      "group": "",
      "name": "browser-resolve",
      "version": "1.11.3",
      "description": "",
      "scope": "optional",
      "hashes": [
        {
          "alg": "SHA-512",
          "content": "7b10e2d4161607feab68a1e60d30a27107d392ac0de5f8a83055788fc06c7cc5384760cafd07d97caee439592658234035fd2c9e4073a86a802416a8f6064c75"
        }
      ],
      "purl": "pkg:npm/browser-resolve@1.11.3"
    },
    {
      "type": "library",
      "bom-ref": "pkg:npm/resolve@1.1.7",
      "group": "",
      "name": "resolve",
      "version": "1.1.7",
      "description": "",
      "scope": "optional",
      "hashes": [
        {
          "alg": "SHA-1",
          "content": "203114d82ad2c5ed9e8e0411b3932875e889e97b"
        }
      ],
      "purl": "pkg:npm/resolve@1.1.7"
    },
    {
      "type": "library",
      "bom-ref": "pkg:npm/browserify@4.1.11",
      "group": "",
      "name": "browserify",
      "version": "4.1.11",
      "description": "",
      "scope": "optional",
      "hashes": [
        {
          "alg": "SHA-1",
          "content": "91652e0eabb43a8a69661f566ea35e356abbf6d1"
        }
      ],
      "purl": "pkg:npm/browserify@4.1.11"
    },
    {
      "type": "library",
      "bom-ref": "pkg:npm/browserify-zlib@0.1.4",
      "group": "",
      "name": "browserify-zlib",
      "version": "0.1.4",
      "description": "",
      "scope": "optional",
      "hashes": [
        {
          "alg": "SHA-1",
          "content": "bb35f8a519f600e0fa6b8485241c979d0141fb2d"
        }
      ],
      "purl": "pkg:npm/browserify-zlib@0.1.4"
    },
    {
      "type": "library",
      "bom-ref": "pkg:npm/buffer@2.8.2",
      "group": "",
      "name": "buffer",
      "version": "2.8.2",
      "description": "",
      "scope": "optional",
      "hashes": [
        {
          "alg": "SHA-1",
          "content": "d73c214c0334384dc29b04ee0ff5f5527c7974e7"
        }
      ],
      "purl": "pkg:npm/buffer@2.8.2"
    },
    {
      "type": "library",
      "bom-ref": "pkg:npm/buffer-alloc@1.2.0",
      "group": "",
      "name": "buffer-alloc",
      "version": "1.2.0",
      "description": "",
      "scope": "optional",
      "hashes": [
        {
          "alg": "SHA-512",
          "content": "085b074208ed5b550285d5e06f2246b679be3bfb8b41e65db5b0e8f267d48185c21d2335c20ad5c579ba6d2cab52e12b11bfb8b185460b3012051a2def3caba3"
        }
      ],
      "purl": "pkg:npm/buffer-alloc@1.2.0"
    },
    {
      "type": "library",
      "bom-ref": "pkg:npm/buffer-alloc-unsafe@1.1.0",
      "group": "",
      "name": "buffer-alloc-unsafe",
      "version": "1.1.0",
      "description": "",
      "scope": "optional",
      "hashes": [
        {
          "alg": "SHA-512",
          "content": "4c433688c20441d276ca33c9a1222c95d9e5795680935a16dc305553293238bb04b0598473d927f921453f3fa0979e0a40dc650e7030097a2c392f4e931db102"
        }
      ],
      "purl": "pkg:npm/buffer-alloc-unsafe@1.1.0"
    },
    {
      "type": "library",
      "bom-ref": "pkg:npm/buffer-fill@1.0.0",
      "group": "",
      "name": "buffer-fill",
      "version": "1.0.0",
      "description": "",
      "scope": "optional",
      "hashes": [
        {
          "alg": "SHA-1",
          "content": "f8f78b76789888ef39f205cd637f68e702122b2c"
        }
      ],
      "purl": "pkg:npm/buffer-fill@1.0.0"
    },
    {
      "type": "library",
      "bom-ref": "pkg:npm/builtins@0.0.7",
      "group": "",
      "name": "builtins",
      "version": "0.0.7",
      "description": "",
      "scope": "optional",
      "hashes": [
        {
          "alg": "SHA-1",
          "content": "355219cd6cf18dbe7c01cc7fd2dce765cfdc549a"
        }
      ],
      "purl": "pkg:npm/builtins@0.0.7"
    },
    {
      "type": "library",
      "bom-ref": "pkg:npm/callsite@1.0.0",
      "group": "",
      "name": "callsite",
      "version": "1.0.0",
      "description": "",
      "scope": "optional",
      "hashes": [
        {
          "alg": "SHA-1",
          "content": "280398e5d664bd74038b6f0905153e6e8af1bc20"
        }
      ],
      "purl": "pkg:npm/callsite@1.0.0"
    },
    {
      "type": "library",
      "bom-ref": "pkg:npm/camelcase@1.2.1",
      "group": "",
      "name": "camelcase",
      "version": "1.2.1",
      "description": "",
      "scope": "optional",
      "hashes": [
        {
          "alg": "SHA-1",
          "content": "9bb5304d2e0b56698b2c758b08a3eaa9daa58a39"
        }
      ],
      "purl": "pkg:npm/camelcase@1.2.1"
    },
    {
      "type": "library",
      "bom-ref": "pkg:npm/chownr@1.0.1",
      "group": "",
      "name": "chownr",
      "version": "1.0.1",
      "description": "",
      "scope": "optional",
      "hashes": [
        {
          "alg": "SHA-1",
          "content": "e2a75042a9551908bebd25b8523d5f9769d79181"
        }
      ],
      "purl": "pkg:npm/chownr@1.0.1"
    },
    {
      "type": "library",
      "bom-ref": "pkg:npm/cli@0.6.6",
      "group": "",
      "name": "cli",
      "version": "0.6.6",
      "description": "",
      "scope": "optional",
      "hashes": [
        {
          "alg": "SHA-1",
          "content": "02ad44a380abf27adac5e6f0cdd7b043d74c53e3"
        }
      ],
      "purl": "pkg:npm/cli@0.6.6"
    },
    {
      "type": "library",
      "bom-ref": "pkg:npm/code-point-at@1.1.0",
      "group": "",
      "name": "code-point-at",
      "version": "1.1.0",
      "description": "",
      "scope": "optional",
      "hashes": [
        {
          "alg": "SHA-1",
          "content": "0d070b4d043a5bea33a2f1a40e2edb3d9a4ccf77"
        }
      ],
      "purl": "pkg:npm/code-point-at@1.1.0"
    },
    {
      "type": "library",
      "bom-ref": "pkg:npm/combine-source-map@0.3.0",
      "group": "",
      "name": "combine-source-map",
      "version": "0.3.0",
      "description": "",
      "scope": "optional",
      "hashes": [
        {
          "alg": "SHA-1",
          "content": "d9e74f593d9cd43807312cb5d846d451efaa9eb7"
        }
      ],
      "purl": "pkg:npm/combine-source-map@0.3.0"
    },
    {
      "type": "library",
      "bom-ref": "pkg:npm/commander@2.0.0",
      "group": "",
      "name": "commander",
      "version": "2.0.0",
      "description": "",
      "scope": "optional",
      "hashes": [
        {
          "alg": "SHA-1",
          "content": "d1b86f901f8b64bd941bdeadaf924530393be928"
        }
      ],
      "purl": "pkg:npm/commander@2.0.0"
    },
    {
      "type": "library",
      "bom-ref": "pkg:npm/commondir@0.0.1",
      "group": "",
      "name": "commondir",
      "version": "0.0.1",
      "description": "",
      "scope": "optional",
      "hashes": [
        {
          "alg": "SHA-1",
          "content": "89f00fdcd51b519c578733fec563e6a6da7f5be2"
        }
      ],
      "purl": "pkg:npm/commondir@0.0.1"
    },
    {
      "type": "library",
      "bom-ref": "pkg:npm/concat-stream@1.4.11",
      "group": "",
      "name": "concat-stream",
      "version": "1.4.11",
      "description": "",
      "scope": "optional",
      "hashes": [
        {
          "alg": "SHA-512",
          "content": "5f724c87cfb88dedd4d5c4291bcefe7fd9571c3aea71bd8c54b83d2fba3c6f5519d03ce146b529767eb9b6dceed743e924f3c8dcc40d922b3ea216ba4d203d33"
        }
      ],
      "purl": "pkg:npm/concat-stream@1.4.11"
    },
    {
      "type": "library",
      "bom-ref": "pkg:npm/console-browserify@1.0.3",
      "group": "",
      "name": "console-browserify",
      "version": "1.0.3",
      "description": "",
      "scope": "optional",
      "hashes": [
        {
          "alg": "SHA-1",
          "content": "d3898d2c3a93102f364197f8874b4f92b5286a8e"
        }
      ],
      "purl": "pkg:npm/console-browserify@1.0.3"
    },
    {
      "type": "library",
      "bom-ref": "pkg:npm/console-control-strings@1.1.0",
      "group": "",
      "name": "console-control-strings",
      "version": "1.1.0",
      "description": "",
      "scope": "optional",
      "hashes": [
        {
          "alg": "SHA-1",
          "content": "3d7cf4464db6446ea644bf4b39507f9851008e8e"
        }
      ],
      "purl": "pkg:npm/console-control-strings@1.1.0"
    },
    {
      "type": "library",
      "bom-ref": "pkg:npm/constants-browserify@0.0.1",
      "group": "",
      "name": "constants-browserify",
      "version": "0.0.1",
      "description": "",
      "scope": "optional",
      "hashes": [
        {
          "alg": "SHA-1",
          "content": "92577db527ba6c4cf0a4568d84bc031f441e21f2"
        }
      ],
      "purl": "pkg:npm/constants-browserify@0.0.1"
    },
    {
      "type": "library",
      "bom-ref": "pkg:npm/convert-source-map@0.3.5",
      "group": "",
      "name": "convert-source-map",
      "version": "0.3.5",
      "description": "",
      "scope": "optional",
      "hashes": [
        {
          "alg": "SHA-1",
          "content": "f1d802950af7dd2631a1febe0596550c86ab3190"
        }
      ],
      "purl": "pkg:npm/convert-source-map@0.3.5"
    },
    {
      "type": "library",
      "bom-ref": "pkg:npm/core-util-is@1.0.2",
      "group": "",
      "name": "core-util-is",
      "version": "1.0.2",
      "description": "",
      "scope": "optional",
      "hashes": [
        {
          "alg": "SHA-1",
          "content": "b5fd54220aa2bc5ab57aab7140c940754503c1a7"
        }
      ],
      "purl": "pkg:npm/core-util-is@1.0.2"
    },
    {
      "type": "library",
      "bom-ref": "pkg:npm/crypto-browserify@1.0.9",
      "group": "",
      "name": "crypto-browserify",
      "version": "1.0.9",
      "description": "",
      "scope": "optional",
      "hashes": [
        {
          "alg": "SHA-1",
          "content": "cc5449685dfb85eb11c9828acc7cb87ab5bbfcc0"
        }
      ],
      "purl": "pkg:npm/crypto-browserify@1.0.9"
    },
    {
      "type": "library",
      "bom-ref": "pkg:npm/date-now@0.1.4",
      "group": "",
      "name": "date-now",
      "version": "0.1.4",
      "description": "",
      "scope": "optional",
      "hashes": [
        {
          "alg": "SHA-1",
          "content": "eaf439fd4d4848ad74e5cc7dbef200672b9e345b"
        }
      ],
      "purl": "pkg:npm/date-now@0.1.4"
    },
    {
      "type": "library",
      "bom-ref": "pkg:npm/debug@3.1.0",
      "group": "",
      "name": "debug",
      "version": "3.1.0",
      "description": "",
      "scope": "optional",
      "hashes": [
        {
          "alg": "SHA-512",
          "content": "397f17a8feffd5af5caa4c58c36c97b2cd797f6e8d2960690d741dd3fb8afca3ea7508716cf6bdf78867ce3704d95a90a43b257f9e7bdb770a3d43864a6318de"
        }
      ],
      "purl": "pkg:npm/debug@3.1.0"
    },
    {
      "type": "library",
      "bom-ref": "pkg:npm/decamelize@1.2.0",
      "group": "",
      "name": "decamelize",
      "version": "1.2.0",
      "description": "",
      "scope": "optional",
      "hashes": [
        {
          "alg": "SHA-1",
          "content": "f6534d15148269b20352e7bee26f501f9a191290"
        }
      ],
      "purl": "pkg:npm/decamelize@1.2.0"
    },
    {
      "type": "library",
      "bom-ref": "pkg:npm/decompress-response@3.3.0",
      "group": "",
      "name": "decompress-response",
      "version": "3.3.0",
      "description": "",
      "scope": "optional",
      "hashes": [
        {
          "alg": "SHA-1",
          "content": "80a4dd323748384bfa248083622aedec982adff3"
        }
      ],
      "purl": "pkg:npm/decompress-response@3.3.0"
    },
    {
      "type": "library",
      "bom-ref": "pkg:npm/deep-equal@0.1.2",
      "group": "",
      "name": "deep-equal",
      "version": "0.1.2",
      "description": "",
      "scope": "optional",
      "hashes": [
        {
          "alg": "SHA-1",
          "content": "b246c2b80a570a47c11be1d9bd1070ec878b87ce"
        }
      ],
      "purl": "pkg:npm/deep-equal@0.1.2"
    },
    {
      "type": "library",
      "bom-ref": "pkg:npm/deep-extend@0.6.0",
      "group": "",
      "name": "deep-extend",
      "version": "0.6.0",
      "description": "",
      "scope": "optional",
      "hashes": [
        {
          "alg": "SHA-512",
          "content": "2ce1f120e68f61d1e5251b4241f0c8559b5fc3fb9f33cfab563eb8f51207cdc9bfbc6c1045716de8e3ea2055ac9b65c432b34812d591eb8b18d4b10a0f6bc038"
        }
      ],
      "purl": "pkg:npm/deep-extend@0.6.0"
    },
    {
      "type": "library",
      "bom-ref": "pkg:npm/defined@0.0.0",
      "group": "",
      "name": "defined",
      "version": "0.0.0",
      "description": "",
      "scope": "optional",
      "hashes": [
        {
          "alg": "SHA-1",
          "content": "f35eea7d705e933baf13b2f03b3f83d921403b3e"
        }
      ],
      "purl": "pkg:npm/defined@0.0.0"
    },
    {
      "type": "library",
      "bom-ref": "pkg:npm/delegates@1.0.0",
      "group": "",
      "name": "delegates",
      "version": "1.0.0",
      "description": "",
      "scope": "optional",
      "hashes": [
        {
          "alg": "SHA-1",
          "content": "84c6e159b81904fdca59a0ef44cd870d31250f9a"
        }
      ],
      "purl": "pkg:npm/delegates@1.0.0"
    },
    {
      "type": "library",
      "bom-ref": "pkg:npm/deps-sort@0.1.2",
      "group": "",
      "name": "deps-sort",
      "version": "0.1.2",
      "description": "",
      "scope": "optional",
      "hashes": [
        {
          "alg": "SHA-1",
          "content": "daa2fb614a17c9637d801e2f55339ae370f3611a"
        }
      ],
      "purl": "pkg:npm/deps-sort@0.1.2"
    },
    {
      "type": "library",
      "bom-ref": "pkg:npm/derequire@0.8.0",
      "group": "",
      "name": "derequire",
      "version": "0.8.0",
      "description": "",
      "scope": "optional",
      "hashes": [
        {
          "alg": "SHA-1",
          "content": "c1f7f1da2cede44adede047378f03f444e9c4c0d"
        }
      ],
      "purl": "pkg:npm/derequire@0.8.0"
    },
    {
      "type": "library",
      "bom-ref": "pkg:npm/detect-libc@1.0.3",
      "group": "",
      "name": "detect-libc",
      "version": "1.0.3",
      "description": "",
      "scope": "optional",
      "hashes": [
        {
          "alg": "SHA-1",
          "content": "fa137c4bd698edf55cd5cd02ac559f91a4c4ba9b"
        }
      ],
      "purl": "pkg:npm/detect-libc@1.0.3"
    },
    {
      "type": "library",
      "bom-ref": "pkg:npm/detective@3.1.0",
      "group": "",
      "name": "detective",
      "version": "3.1.0",
      "description": "",
      "scope": "optional",
      "hashes": [
        {
          "alg": "SHA-1",
          "content": "77782444ab752b88ca1be2e9d0a0395f1da25eed"
        }
      ],
      "purl": "pkg:npm/detective@3.1.0"
    },
    {
      "type": "library",
      "bom-ref": "pkg:npm/diff@1.0.7",
      "group": "",
      "name": "diff",
      "version": "1.0.7",
      "description": "",
      "scope": "optional",
      "hashes": [
        {
          "alg": "SHA-1",
          "content": "24bbb001c4a7d5522169e7cabdb2c2814ed91cf4"
        }
      ],
      "purl": "pkg:npm/diff@1.0.7"
    },
    {
      "type": "library",
      "bom-ref": "pkg:npm/dom-serializer@0.1.0",
      "group": "",
      "name": "dom-serializer",
      "version": "0.1.0",
      "description": "",
      "scope": "optional",
      "hashes": [
        {
          "alg": "SHA-1",
          "content": "073c697546ce0780ce23be4a28e293e40bc30c82"
        }
      ],
      "purl": "pkg:npm/dom-serializer@0.1.0"
    },
    {
      "type": "library",
      "bom-ref": "pkg:npm/domelementtype@1.1.3",
      "group": "",
      "name": "domelementtype",
      "version": "1.1.3",
      "description": "",
      "scope": "optional",
      "hashes": [
        {
          "alg": "SHA-1",
          "content": "bd28773e2642881aec51544924299c5cd822185b"
        }
      ],
      "purl": "pkg:npm/domelementtype@1.1.3"
    },
    {
      "type": "library",
      "bom-ref": "pkg:npm/entities@1.1.1",
      "group": "",
      "name": "entities",
      "version": "1.1.1",
      "description": "",
      "scope": "optional",
      "hashes": [
        {
          "alg": "SHA-1",
          "content": "6e5c2d0a5621b5dadaecef80b90edfb5cd7772f0"
        }
      ],
      "purl": "pkg:npm/entities@1.1.1"
    },
    {
      "type": "library",
      "bom-ref": "pkg:npm/domain-browser@1.1.7",
      "group": "",
      "name": "domain-browser",
      "version": "1.1.7",
      "description": "",
      "scope": "optional",
      "hashes": [
        {
          "alg": "SHA-1",
          "content": "867aa4b093faa05f1de08c06f4d7b21fdf8698bc"
        }
      ],
      "purl": "pkg:npm/domain-browser@1.1.7"
    },
    {
      "type": "library",
      "bom-ref": "pkg:npm/domelementtype@1.3.0",
      "group": "",
      "name": "domelementtype",
      "version": "1.3.0",
      "description": "",
      "scope": "optional",
      "hashes": [
        {
          "alg": "SHA-1",
          "content": "b17aed82e8ab59e52dd9c19b1756e0fc187204c2"
        }
      ],
      "purl": "pkg:npm/domelementtype@1.3.0"
    },
    {
      "type": "library",
      "bom-ref": "pkg:npm/domhandler@2.3.0",
      "group": "",
      "name": "domhandler",
      "version": "2.3.0",
      "description": "",
      "scope": "optional",
      "hashes": [
        {
          "alg": "SHA-1",
          "content": "2de59a0822d5027fabff6f032c2b25a2a8abe738"
        }
      ],
      "purl": "pkg:npm/domhandler@2.3.0"
    },
    {
      "type": "library",
      "bom-ref": "pkg:npm/domutils@1.5.1",
      "group": "",
      "name": "domutils",
      "version": "1.5.1",
      "description": "",
      "scope": "optional",
      "hashes": [
        {
          "alg": "SHA-1",
          "content": "dcd8488a26f563d61079e48c9f7b7e32373682cf"
        }
      ],
      "purl": "pkg:npm/domutils@1.5.1"
    },
    {
      "type": "library",
      "bom-ref": "pkg:npm/duplexer@0.1.1",
      "group": "",
      "name": "duplexer",
      "version": "0.1.1",
      "description": "",
      "scope": "optional",
      "hashes": [
        {
          "alg": "SHA-1",
          "content": "ace6ff808c1ce66b57d1ebf97977acb02334cfc1"
        }
      ],
      "purl": "pkg:npm/duplexer@0.1.1"
    },
    {
      "type": "library",
      "bom-ref": "pkg:npm/duplexer2@0.0.2",
      "group": "",
      "name": "duplexer2",
      "version": "0.0.2",
      "description": "",
      "scope": "optional",
      "hashes": [
        {
          "alg": "SHA-1",
          "content": "c614dcf67e2fb14995a91711e5a617e8a60a31db"
        }
      ],
      "purl": "pkg:npm/duplexer2@0.0.2"
    },
    {
      "type": "library",
      "bom-ref": "pkg:npm/end-of-stream@1.4.1",
      "group": "",
      "name": "end-of-stream",
      "version": "1.4.1",
      "description": "",
      "scope": "optional",
      "hashes": [
        {
          "alg": "SHA-512",
          "content": "d4c92b64dbd64ca09a8a06e7f96d797a5ab6041fcbdb69eaad26390ca968dd7ebebdc9499bc05be5d8d72419845fa7d2dfecc287f1785412b96762b126de2cd9"
        }
      ],
      "purl": "pkg:npm/end-of-stream@1.4.1"
    },
    {
      "type": "library",
      "bom-ref": "pkg:npm/entities@1.0.0",
      "group": "",
      "name": "entities",
      "version": "1.0.0",
      "description": "",
      "scope": "optional",
      "hashes": [
        {
          "alg": "SHA-1",
          "content": "b2987aa3821347fcde642b24fdfc9e4fb712bf26"
        }
      ],
      "purl": "pkg:npm/entities@1.0.0"
    },
    {
      "type": "library",
      "bom-ref": "pkg:npm/escodegen@1.1.0",
      "group": "",
      "name": "escodegen",
      "version": "1.1.0",
      "description": "",
      "scope": "optional",
      "hashes": [
        {
          "alg": "SHA-1",
          "content": "c663923f6e20aad48d0c0fa49f31c6d4f49360cf"
        }
      ],
      "purl": "pkg:npm/escodegen@1.1.0"
    },
    {
      "type": "library",
      "bom-ref": "pkg:npm/esprima@1.0.4",
      "group": "",
      "name": "esprima",
      "version": "1.0.4",
      "description": "",
      "scope": "optional",
      "hashes": [
        {
          "alg": "SHA-1",
          "content": "9f557e08fc3b4d26ece9dd34f8fbf476b62585ad"
        }
      ],
      "purl": "pkg:npm/esprima@1.0.4"
    },
    {
      "type": "library",
      "bom-ref": "pkg:npm/escope@0.0.16",
      "group": "",
      "name": "escope",
      "version": "0.0.16",
      "description": "",
      "scope": "optional",
      "hashes": [
        {
          "alg": "SHA-1",
          "content": "418c7a0afca721dafe659193fd986283e746538f"
        }
      ],
      "purl": "pkg:npm/escope@0.0.16"
    },
    {
      "type": "library",
      "bom-ref": "pkg:npm/esprima-fb@3001.1.0-dev-harmony-fb",
      "group": "",
      "name": "esprima-fb",
      "version": "3001.1.0-dev-harmony-fb",
      "description": "",
      "scope": "optional",
      "hashes": [
        {
          "alg": "SHA-1",
          "content": "b77d37abcd38ea0b77426bb8bc2922ce6b426411"
        }
      ],
      "purl": "pkg:npm/esprima-fb@3001.1.0-dev-harmony-fb"
    },
    {
      "type": "library",
      "bom-ref": "pkg:npm/esrefactor@0.1.0",
      "group": "",
      "name": "esrefactor",
      "version": "0.1.0",
      "description": "",
      "scope": "optional",
      "hashes": [
        {
          "alg": "SHA-1",
          "content": "d142795a282339ab81e936b5b7a21b11bf197b13"
        }
      ],
      "purl": "pkg:npm/esrefactor@0.1.0"
    },
    {
      "type": "library",
      "bom-ref": "pkg:npm/estraverse@0.0.4",
      "group": "",
      "name": "estraverse",
      "version": "0.0.4",
      "description": "",
      "scope": "optional",
      "hashes": [
        {
          "alg": "SHA-1",
          "content": "01a0932dfee574684a598af5a67c3bf9b6428db2"
        }
      ],
      "purl": "pkg:npm/estraverse@0.0.4"
    },
    {
      "type": "library",
      "bom-ref": "pkg:npm/estraverse@1.5.1",
      "group": "",
      "name": "estraverse",
      "version": "1.5.1",
      "description": "",
      "scope": "optional",
      "hashes": [
        {
          "alg": "SHA-1",
          "content": "867a3e8e58a9f84618afb6c2ddbcd916b7cbaf71"
        }
      ],
      "purl": "pkg:npm/estraverse@1.5.1"
    },
    {
      "type": "library",
      "bom-ref": "pkg:npm/esutils@1.0.0",
      "group": "",
      "name": "esutils",
      "version": "1.0.0",
      "description": "",
      "scope": "optional",
      "hashes": [
        {
          "alg": "SHA-1",
          "content": "8151d358e20c8acc7fb745e7472c0025fe496570"
        }
      ],
      "purl": "pkg:npm/esutils@1.0.0"
    },
    {
      "type": "library",
      "bom-ref": "pkg:npm/events@1.0.2",
      "group": "",
      "name": "events",
      "version": "1.0.2",
      "description": "",
      "scope": "optional",
      "hashes": [
        {
          "alg": "SHA-1",
          "content": "75849dcfe93d10fb057c30055afdbd51d06a8e24"
        }
      ],
      "purl": "pkg:npm/events@1.0.2"
    },
    {
      "type": "library",
      "bom-ref": "pkg:npm/exit@0.1.2",
      "group": "",
      "name": "exit",
      "version": "0.1.2",
      "description": "",
      "scope": "optional",
      "hashes": [
        {
          "alg": "SHA-1",
          "content": "0632638f8d877cc82107d30a0fff1a17cba1cd0c"
        }
      ],
      "purl": "pkg:npm/exit@0.1.2"
    },
    {
      "type": "library",
      "bom-ref": "pkg:npm/expand-template@1.1.1",
      "group": "",
      "name": "expand-template",
      "version": "1.1.1",
      "description": "",
      "scope": "optional",
      "hashes": [
        {
          "alg": "SHA-512",
          "content": "71e6ea2ed57c28e65fc34508f131055b1b5ccf1c42d63bf252fc7a1f87f2a752b514dec0e10fae82055494eb08d4af00194d2bc0e1aa3fc9c26a976bc3c09842"
        }
      ],
      "purl": "pkg:npm/expand-template@1.1.1"
    },
    {
      "type": "library",
      "bom-ref": "pkg:npm/expect.js@0.3.1",
      "group": "",
      "name": "expect.js",
      "version": "0.3.1",
      "description": "",
      "scope": "optional",
      "hashes": [
        {
          "alg": "SHA-1",
          "content": "b0a59a0d2eff5437544ebf0ceaa6015841d09b5b"
        }
      ],
      "purl": "pkg:npm/expect.js@0.3.1"
    },
    {
      "type": "library",
      "bom-ref": "pkg:npm/fileset@0.1.8",
      "group": "",
      "name": "fileset",
      "version": "0.1.8",
      "description": "",
      "scope": "optional",
      "hashes": [
        {
          "alg": "SHA-1",
          "content": "506b91a9396eaa7e32fb42a84077c7a0c736b741"
        }
      ],
      "purl": "pkg:npm/fileset@0.1.8"
    },
    {
      "type": "library",
      "bom-ref": "pkg:npm/fs-constants@1.0.0",
      "group": "",
      "name": "fs-constants",
      "version": "1.0.0",
      "description": "",
      "scope": "optional",
      "hashes": [
        {
          "alg": "SHA-512",
          "content": "cba380c284887fb1728cc22ff78bbe6f9add85e6448f347adc64f26499b9aa1e018bed988302c2708fdf3c56642f93d28b13ade9934a9bec3e1dfa7f05c8b0a3"
        }
      ],
      "purl": "pkg:npm/fs-constants@1.0.0"
    },
    {
      "type": "library",
      "bom-ref": "pkg:npm/gauge@2.7.4",
      "group": "",
      "name": "gauge",
      "version": "2.7.4",
      "description": "",
      "scope": "optional",
      "hashes": [
        {
          "alg": "SHA-1",
          "content": "2c03405c7538c39d7eb37b317022e325fb018bf7"
        }
      ],
      "purl": "pkg:npm/gauge@2.7.4"
    },
    {
      "type": "library",
      "bom-ref": "pkg:npm/github-from-package@0.0.0",
      "group": "",
      "name": "github-from-package",
      "version": "0.0.0",
      "description": "",
      "scope": "optional",
      "hashes": [
        {
          "alg": "SHA-1",
          "content": "97fb5d96bfde8973313f20e8288ef9a167fa64ce"
        }
      ],
      "purl": "pkg:npm/github-from-package@0.0.0"
    },
    {
      "type": "library",
      "bom-ref": "pkg:npm/glob@3.2.11",
      "group": "",
      "name": "glob",
      "version": "3.2.11",
      "description": "",
      "scope": "optional",
      "hashes": [
        {
          "alg": "SHA-1",
          "content": "4a973f635b9190f715d10987d5c00fd2815ebe3d"
        }
      ],
      "purl": "pkg:npm/glob@3.2.11"
    },
    {
      "type": "library",
      "bom-ref": "pkg:npm/graceful-fs@2.0.3",
      "group": "",
      "name": "graceful-fs",
      "version": "2.0.3",
      "description": "",
      "scope": "optional",
      "hashes": [
        {
          "alg": "SHA-1",
          "content": "7cd2cdb228a4a3f36e95efa6cc142de7d1a136d0"
        }
      ],
      "purl": "pkg:npm/graceful-fs@2.0.3"
    },
    {
      "type": "library",
      "bom-ref": "pkg:npm/growl@1.7.0",
      "group": "",
      "name": "growl",
      "version": "1.7.0",
      "description": "",
      "scope": "optional",
      "hashes": [
        {
          "alg": "SHA-1",
          "content": "de2d66136d002e112ba70f3f10c31cf7c350b2da"
        }
      ],
      "purl": "pkg:npm/growl@1.7.0"
    },
    {
      "type": "library",
      "bom-ref": "pkg:npm/handlebars@1.3.0",
      "group": "",
      "name": "handlebars",
      "version": "1.3.0",
      "description": "",
      "scope": "optional",
      "hashes": [
        {
          "alg": "SHA-1",
          "content": "9e9b130a93e389491322d975cf3ec1818c37ce34"
        }
      ],
      "purl": "pkg:npm/handlebars@1.3.0"
    },
    {
      "type": "library",
      "bom-ref": "pkg:npm/has-unicode@2.0.1",
      "group": "",
      "name": "has-unicode",
      "version": "2.0.1",
      "description": "",
      "scope": "optional",
      "hashes": [
        {
          "alg": "SHA-1",
          "content": "e0e6fe6a28cf51138855e086d1691e771de2a8b9"
        }
      ],
      "purl": "pkg:npm/has-unicode@2.0.1"
    },
    {
      "type": "library",
      "bom-ref": "pkg:npm/htmlparser2@3.8.3",
      "group": "",
      "name": "htmlparser2",
      "version": "3.8.3",
      "description": "",
      "scope": "optional",
      "hashes": [
        {
          "alg": "SHA-1",
          "content": "996c28b191516a8be86501a7d79757e5c70c1068"
        }
      ],
      "purl": "pkg:npm/htmlparser2@3.8.3"
    },
    {
      "type": "library",
      "bom-ref": "pkg:npm/http-browserify@1.3.2",
      "group": "",
      "name": "http-browserify",
      "version": "1.3.2",
      "description": "",
      "scope": "optional",
      "hashes": [
        {
          "alg": "SHA-1",
          "content": "b562c34479349a690d7a6597df495aefa8c604f5"
        }
      ],
      "purl": "pkg:npm/http-browserify@1.3.2"
    },
    {
      "type": "library",
      "bom-ref": "pkg:npm/https-browserify@0.0.1",
      "group": "",
      "name": "https-browserify",
      "version": "0.0.1",
      "description": "",
      "scope": "optional",
      "hashes": [
        {
          "alg": "SHA-1",
          "content": "3f91365cabe60b77ed0ebba24b454e3e09d95a82"
        }
      ],
      "purl": "pkg:npm/https-browserify@0.0.1"
    },
    {
      "type": "library",
      "bom-ref": "pkg:npm/ieee754@1.1.12",
      "group": "",
      "name": "ieee754",
      "version": "1.1.12",
      "description": "",
      "scope": "optional",
      "hashes": [
        {
          "alg": "SHA-512",
          "content": "1a0b8ff83458fa9277b28c888863d3bdd8955e367e0db5cec46a579f778cbcd5b8c788ab8ea5e6e301cab1c0be4dfc52274cb0fd2d45db8b6a74c36c3194e22c"
        }
      ],
      "purl": "pkg:npm/ieee754@1.1.12"
    },
    {
      "type": "library",
      "bom-ref": "pkg:npm/indexof@0.0.1",
      "group": "",
      "name": "indexof",
      "version": "0.0.1",
      "description": "",
      "scope": "optional",
      "hashes": [
        {
          "alg": "SHA-1",
          "content": "82dc336d232b9062179d05ab3293a66059fd435d"
        }
      ],
      "purl": "pkg:npm/indexof@0.0.1"
    },
    {
      "type": "library",
      "bom-ref": "pkg:npm/inherits@2.0.3",
      "group": "",
      "name": "inherits",
      "version": "2.0.3",
      "description": "",
      "scope": "optional",
      "hashes": [
        {
          "alg": "SHA-1",
          "content": "633c2c83e3da42a502f52466022480f4208261de"
        }
      ],
      "purl": "pkg:npm/inherits@2.0.3"
    },
    {
      "type": "library",
      "bom-ref": "pkg:npm/ini@1.3.5",
      "group": "",
      "name": "ini",
      "version": "1.3.5",
      "description": "",
      "scope": "optional",
      "hashes": [
        {
          "alg": "SHA-512",
          "content": "45963986e20a08c4560d4a999448bbd9ffe599728cbeeb3370c05dba5890de79d66f1f57fd90503bb0e28cc1184bd1211c16f6a9a71150cb42eecbcbc1ed2573"
        }
      ],
      "purl": "pkg:npm/ini@1.3.5"
    },
    {
      "type": "library",
      "bom-ref": "pkg:npm/inline-source-map@0.3.1",
      "group": "",
      "name": "inline-source-map",
      "version": "0.3.1",
      "description": "",
      "scope": "optional",
      "hashes": [
        {
          "alg": "SHA-1",
          "content": "a528b514e689fce90db3089e870d92f527acb5eb"
        }
      ],
      "purl": "pkg:npm/inline-source-map@0.3.1"
    },
    {
      "type": "library",
      "bom-ref": "pkg:npm/source-map@0.3.0",
      "group": "",
      "name": "source-map",
      "version": "0.3.0",
      "description": "",
      "scope": "optional",
      "hashes": [
        {
          "alg": "SHA-1",
          "content": "8586fb9a5a005e5b501e21cd18b6f21b457ad1f9"
        }
      ],
      "purl": "pkg:npm/source-map@0.3.0"
    },
    {
      "type": "library",
      "bom-ref": "pkg:npm/insert-module-globals@6.0.0",
      "group": "",
      "name": "insert-module-globals",
      "version": "6.0.0",
      "description": "",
      "scope": "optional",
      "hashes": [
        {
          "alg": "SHA-1",
          "content": "ee8aeb9dee16819e33aa14588a558824af0c15dc"
        }
      ],
      "purl": "pkg:npm/insert-module-globals@6.0.0"
    },
    {
      "type": "library",
      "bom-ref": "pkg:npm/process@0.6.0",
      "group": "",
      "name": "process",
      "version": "0.6.0",
      "description": "",
      "scope": "optional",
      "hashes": [
        {
          "alg": "SHA-1",
          "content": "7dd9be80ffaaedd4cb628f1827f1cbab6dc0918f"
        }
      ],
      "purl": "pkg:npm/process@0.6.0"
    },
    {
      "type": "library",
      "bom-ref": "pkg:npm/is-array@1.0.1",
      "group": "",
      "name": "is-array",
      "version": "1.0.1",
      "description": "",
      "scope": "optional",
      "hashes": [
        {
          "alg": "SHA-1",
          "content": "e9850cc2cc860c3bc0977e84ccf0dd464584279a"
        }
      ],
      "purl": "pkg:npm/is-array@1.0.1"
    },
    {
      "type": "library",
      "bom-ref": "pkg:npm/is-fullwidth-code-point@1.0.0",
      "group": "",
      "name": "is-fullwidth-code-point",
      "version": "1.0.0",
      "description": "",
      "scope": "optional",
      "hashes": [
        {
          "alg": "SHA-1",
          "content": "ef9e31386f031a7f0d643af82fde50c457ef00cb"
        }
      ],
      "purl": "pkg:npm/is-fullwidth-code-point@1.0.0"
    },
    {
      "type": "library",
      "bom-ref": "pkg:npm/isarray@0.0.1",
      "group": "",
      "name": "isarray",
      "version": "0.0.1",
      "description": "",
      "scope": "optional",
      "hashes": [
        {
          "alg": "SHA-1",
          "content": "8a18acfca9a8f4177e09abfc6038939b05d1eedf"
        }
      ],
      "purl": "pkg:npm/isarray@0.0.1"
    },
    {
      "type": "library",
      "bom-ref": "pkg:npm/istanbul@0.2.16",
      "group": "",
      "name": "istanbul",
      "version": "0.2.16",
      "description": "",
      "scope": "optional",
      "hashes": [
        {
          "alg": "SHA-1",
          "content": "870545a0d4f4b4ce161039e9e805a98c2c700bd9"
        }
      ],
      "purl": "pkg:npm/istanbul@0.2.16"
    },
    {
      "type": "library",
      "bom-ref": "pkg:npm/async@0.9.2",
      "group": "",
      "name": "async",
      "version": "0.9.2",
      "description": "",
      "scope": "optional",
      "hashes": [
        {
          "alg": "SHA-1",
          "content": "aea74d5e61c1f899613bf64bda66d4c78f2fd17d"
        }
      ],
      "purl": "pkg:npm/async@0.9.2"
    },
    {
      "type": "library",
      "bom-ref": "pkg:npm/escodegen@1.3.3",
      "group": "",
      "name": "escodegen",
      "version": "1.3.3",
      "description": "",
      "scope": "optional",
      "hashes": [
        {
          "alg": "SHA-1",
          "content": "f024016f5a88e046fd12005055e939802e6c5f23"
        }
      ],
      "purl": "pkg:npm/escodegen@1.3.3"
    },
    {
      "type": "library",
      "bom-ref": "pkg:npm/esprima@1.1.1",
      "group": "",
      "name": "esprima",
      "version": "1.1.1",
      "description": "",
      "scope": "optional",
      "hashes": [
        {
          "alg": "SHA-1",
          "content": "5b6f1547f4d102e670e140c509be6771d6aeb549"
        }
      ],
      "purl": "pkg:npm/esprima@1.1.1"
    },
    {
      "type": "library",
      "bom-ref": "pkg:npm/esprima@1.2.5",
      "group": "",
      "name": "esprima",
      "version": "1.2.5",
      "description": "",
      "scope": "optional",
      "hashes": [
        {
          "alg": "SHA-1",
          "content": "0993502feaf668138325756f30f9a51feeec11e9"
        }
      ],
      "purl": "pkg:npm/esprima@1.2.5"
    },
    {
      "type": "library",
      "bom-ref": "pkg:npm/jade@0.26.3",
      "group": "",
      "name": "jade",
      "version": "0.26.3",
      "description": "",
      "scope": "optional",
      "hashes": [
        {
          "alg": "SHA-1",
          "content": "8f10d7977d8d79f2f6ff862a81b0513ccb25686c"
        }
      ],
      "purl": "pkg:npm/jade@0.26.3"
    },
    {
      "type": "library",
      "bom-ref": "pkg:npm/commander@0.6.1",
      "group": "",
      "name": "commander",
      "version": "0.6.1",
      "description": "",
      "scope": "optional",
      "hashes": [
        {
          "alg": "SHA-1",
          "content": "fa68a14f6a945d54dbbe50d8cdb3320e9e3b1a06"
        }
      ],
      "purl": "pkg:npm/commander@0.6.1"
    },
    {
      "type": "library",
      "bom-ref": "pkg:npm/mkdirp@0.3.0",
      "group": "",
      "name": "mkdirp",
      "version": "0.3.0",
      "description": "",
      "scope": "optional",
      "hashes": [
        {
          "alg": "SHA-1",
          "content": "1bbf5ab1ba827af23575143490426455f481fe1e"
        }
      ],
      "purl": "pkg:npm/mkdirp@0.3.0"
    },
    {
      "type": "library",
      "bom-ref": "pkg:npm/js-yaml@3.12.0",
      "group": "",
      "name": "js-yaml",
      "version": "3.12.0",
      "description": "",
      "scope": "optional",
      "hashes": [
        {
          "alg": "SHA-512",
          "content": "3c8b76727c263df2f884a370a9e8aecf86ca7e7cc74c1bfa1f25608da840ea63cbc0f0f38c35aba652413231d417192efcddc5966adbc8f72569df88fb8989dc"
        }
      ],
      "purl": "pkg:npm/js-yaml@3.12.0"
    },
    {
      "type": "library",
      "bom-ref": "pkg:npm/esprima@4.0.1",
      "group": "",
      "name": "esprima",
      "version": "4.0.1",
      "description": "",
      "scope": "optional",
      "hashes": [
        {
          "alg": "SHA-512",
          "content": "786b85170ed4a5d6be838a7e407be75b44724d7fd255e2410ccfe00ad30044ed1c2ee4f61dc10a9d33ef86357a6867aaac207fb1b368a742acce6d23b1a594e0"
        }
      ],
      "purl": "pkg:npm/esprima@4.0.1"
    },
    {
      "type": "library",
      "bom-ref": "pkg:npm/jshint@2.5.11",
      "group": "",
      "name": "jshint",
      "version": "2.5.11",
      "description": "",
      "scope": "optional",
      "hashes": [
        {
          "alg": "SHA-1",
          "content": "e2d95858bbb1aa78300108a2e81099fb095622e0"
        }
      ],
      "purl": "pkg:npm/jshint@2.5.11"
    },
    {
      "type": "library",
      "bom-ref": "pkg:npm/console-browserify@1.1.0",
      "group": "",
      "name": "console-browserify",
      "version": "1.1.0",
      "description": "",
      "scope": "optional",
      "hashes": [
        {
          "alg": "SHA-1",
          "content": "f0241c45730a9fc6323b206dbf38edc741d0bb10"
        }
      ],
      "purl": "pkg:npm/console-browserify@1.1.0"
    },
    {
      "type": "library",
      "bom-ref": "pkg:npm/minimatch@1.0.0",
      "group": "",
      "name": "minimatch",
      "version": "1.0.0",
      "description": "",
      "scope": "optional",
      "hashes": [
        {
          "alg": "SHA-1",
          "content": "e0dd2120b49e1b724ce8d714c520822a9438576d"
        }
      ],
      "purl": "pkg:npm/minimatch@1.0.0"
    },
    {
      "type": "library",
      "bom-ref": "pkg:npm/underscore@1.6.0",
      "group": "",
      "name": "underscore",
      "version": "1.6.0",
      "description": "",
      "scope": "required",
      "hashes": [
        {
          "alg": "SHA-1",
          "content": "8b38b10cacdef63337b8b24e4ff86d45aea529a8"
        }
      ],
      "purl": "pkg:npm/underscore@1.6.0"
    },
    {
      "type": "library",
      "bom-ref": "pkg:npm/jsonparse@0.0.5",
      "group": "",
      "name": "jsonparse",
      "version": "0.0.5",
      "description": "",
      "scope": "optional",
      "hashes": [
        {
          "alg": "SHA-1",
          "content": "330542ad3f0a654665b778f3eb2d9a9fa507ac64"
        }
      ],
      "purl": "pkg:npm/jsonparse@0.0.5"
    },
    {
      "type": "library",
      "bom-ref": "pkg:npm/lexical-scope@1.1.1",
      "group": "",
      "name": "lexical-scope",
      "version": "1.1.1",
      "description": "",
      "scope": "optional",
      "hashes": [
        {
          "alg": "SHA-1",
          "content": "debac1067435f1359d90fcfd9e94bcb2ee47b2bf"
        }
      ],
      "purl": "pkg:npm/lexical-scope@1.1.1"
    },
    {
      "type": "library",
      "bom-ref": "pkg:npm/lodash@git://github.com/lodash/lodash.git#6018350ac10d5ce6a5b7db625140b82aeab804df",
      "group": "",
      "name": "lodash",
      "version": "git://github.com/lodash/lodash.git#6018350ac10d5ce6a5b7db625140b82aeab804df",
      "description": "",
      "scope": "required",
      "purl": "pkg:npm/lodash@git://github.com/lodash/lodash.git#6018350ac10d5ce6a5b7db625140b82aeab804df"
    },
    {
      "type": "library",
      "bom-ref": "pkg:npm/lru-cache@2.7.3",
      "group": "",
      "name": "lru-cache",
      "version": "2.7.3",
      "description": "",
      "scope": "optional",
      "hashes": [
        {
          "alg": "SHA-1",
          "content": "6d4524e8b955f95d4f5b58851ce21dd72fb4e952"
        }
      ],
      "purl": "pkg:npm/lru-cache@2.7.3"
    },
    {
      "type": "library",
      "bom-ref": "pkg:npm/microtime@2.1.8",
      "group": "",
      "name": "microtime",
      "version": "2.1.8",
      "description": "",
      "scope": "optional",
      "hashes": [
        {
          "alg": "SHA-1",
          "content": "b43c4c5ab13e527e173370d0306d9e0a4bbf410d"
        }
      ],
      "purl": "pkg:npm/microtime@2.1.8"
    },
    {
      "type": "library",
      "bom-ref": "pkg:npm/mimic-response@1.0.1",
      "group": "",
      "name": "mimic-response",
      "version": "1.0.1",
      "description": "",
      "scope": "optional",
      "hashes": [
        {
          "alg": "SHA-512",
          "content": "8f911cb67907eda99f57fab91e09a86a5d60d901c5251ada3ad9b1d09a48aa4c6106123f9494a5d67329438e6155aaf03444cea161229a7759e102b4447c6ec5"
        }
      ],
      "purl": "pkg:npm/mimic-response@1.0.1"
    },
    {
      "type": "library",
      "bom-ref": "pkg:npm/minimatch@0.3.0",
      "group": "",
      "name": "minimatch",
      "version": "0.3.0",
      "description": "",
      "scope": "optional",
      "hashes": [
        {
          "alg": "SHA-1",
          "content": "275d8edaac4f1bb3326472089e7949c8394699dd"
        }
      ],
      "purl": "pkg:npm/minimatch@0.3.0"
    },
    {
      "type": "library",
      "bom-ref": "pkg:npm/minimist@0.0.10",
      "group": "",
      "name": "minimist",
      "version": "0.0.10",
      "description": "",
      "scope": "optional",
      "hashes": [
        {
          "alg": "SHA-1",
          "content": "de3f98543dbf96082be48ad1a0c7cda836301dcf"
        }
      ],
      "purl": "pkg:npm/minimist@0.0.10"
    },
    {
      "type": "library",
      "bom-ref": "pkg:npm/mkdirp@0.5.1",
      "group": "",
      "name": "mkdirp",
      "version": "0.5.1",
      "description": "",
      "scope": "optional",
      "hashes": [
        {
          "alg": "SHA-1",
          "content": "30057438eac6cf7f8c4767f38648d6697d75c903"
        }
      ],
      "purl": "pkg:npm/mkdirp@0.5.1"
    },
    {
      "type": "library",
      "bom-ref": "pkg:npm/minimist@0.0.8",
      "group": "",
      "name": "minimist",
      "version": "0.0.8",
      "description": "",
      "scope": "optional",
      "hashes": [
        {
          "alg": "SHA-1",
          "content": "857fcabfc3397d2625b8228262e86aa7a011b05d"
        }
      ],
      "purl": "pkg:npm/minimist@0.0.8"
    },
    {
      "type": "library",
      "bom-ref": "pkg:npm/mocha@1.20.1",
      "group": "",
      "name": "mocha",
      "version": "1.20.1",
      "description": "",
      "scope": "optional",
      "hashes": [
        {
          "alg": "SHA-1",
          "content": "f343832d9fe0c7d97c64fc70448f5136df9fed5b"
        }
      ],
      "purl": "pkg:npm/mocha@1.20.1"
    },
    {
      "type": "library",
      "bom-ref": "pkg:npm/glob@3.2.3",
      "group": "",
      "name": "glob",
      "version": "3.2.3",
      "description": "",
      "scope": "optional",
      "hashes": [
        {
          "alg": "SHA-1",
          "content": "e313eeb249c7affaa5c475286b0e115b59839467"
        }
      ],
      "purl": "pkg:npm/glob@3.2.3"
    },
    {
      "type": "library",
      "bom-ref": "pkg:npm/minimatch@0.2.14",
      "group": "",
      "name": "minimatch",
      "version": "0.2.14",
      "description": "",
      "scope": "optional",
      "hashes": [
        {
          "alg": "SHA-1",
          "content": "c74e780574f63c6f9a090e90efbe6ef53a6a756a"
        }
      ],
      "purl": "pkg:npm/minimatch@0.2.14"
    },
    {
      "type": "library",
      "bom-ref": "pkg:npm/mkdirp@0.3.5",
      "group": "",
      "name": "mkdirp",
      "version": "0.3.5",
      "description": "",
      "scope": "optional",
      "hashes": [
        {
          "alg": "SHA-1",
          "content": "de3e5f8961c88c787ee1368df849ac4413eca8d7"
        }
      ],
      "purl": "pkg:npm/mkdirp@0.3.5"
    },
    {
      "type": "library",
      "bom-ref": "pkg:npm/module-deps@2.1.5",
      "group": "",
      "name": "module-deps",
      "version": "2.1.5",
      "description": "",
      "scope": "optional",
      "hashes": [
        {
          "alg": "SHA-1",
          "content": "375a9bc804ccd64cebb3c62ee643755f0b3ccf29"
        }
      ],
      "purl": "pkg:npm/module-deps@2.1.5"
    },
    {
      "type": "library",
      "bom-ref": "pkg:npm/browser-resolve@1.2.4",
      "group": "",
      "name": "browser-resolve",
      "version": "1.2.4",
      "description": "",
      "scope": "optional",
      "hashes": [
        {
          "alg": "SHA-1",
          "content": "59ae7820a82955ecd32f5fb7c468ac21c4723806"
        }
      ],
      "purl": "pkg:npm/browser-resolve@1.2.4"
    },
    {
      "type": "library",
      "bom-ref": "pkg:npm/parents@0.0.2",
      "group": "",
      "name": "parents",
      "version": "0.0.2",
      "description": "",
      "scope": "optional",
      "hashes": [
        {
          "alg": "SHA-1",
          "content": "67147826e497d40759aaf5ba4c99659b6034d302"
        }
      ],
      "purl": "pkg:npm/parents@0.0.2"
    },
    {
      "type": "library",
      "bom-ref": "pkg:npm/resolve@0.6.3",
      "group": "",
      "name": "resolve",
      "version": "0.6.3",
      "description": "",
      "scope": "optional",
      "hashes": [
        {
          "alg": "SHA-1",
          "content": "dd957982e7e736debdf53b58a4dd91754575dd46"
        }
      ],
      "purl": "pkg:npm/resolve@0.6.3"
    },
    {
      "type": "library",
      "bom-ref": "pkg:npm/stream-combiner@0.1.0",
      "group": "",
      "name": "stream-combiner",
      "version": "0.1.0",
      "description": "",
      "scope": "optional",
      "hashes": [
        {
          "alg": "SHA-1",
          "content": "0dc389a3c203f8f4d56368f95dde52eb9269b5be"
        }
      ],
      "purl": "pkg:npm/stream-combiner@0.1.0"
    },
    {
      "type": "library",
      "bom-ref": "pkg:npm/ms@2.0.0",
      "group": "",
      "name": "ms",
      "version": "2.0.0",
      "description": "",
      "scope": "optional",
      "hashes": [
        {
          "alg": "SHA-1",
          "content": "5608aeadfc00be6c2901df5f9861788de0d597c8"
        }
      ],
      "purl": "pkg:npm/ms@2.0.0"
    },
    {
      "type": "library",
      "bom-ref": "pkg:npm/nan@2.10.0",
      "group": "",
      "name": "nan",
      "version": "2.10.0",
      "description": "",
      "scope": "optional",
      "hashes": [
        {
          "alg": "SHA-512",
          "content": "6c0749bfb7c12e1582fbf065b343b36be9af4da350b4ffb547286186f0fde69814273e97339233826c4e908b49f6d9280a2a65bc09d7235b4d9a6503fde49cc8"
        }
      ],
      "purl": "pkg:npm/nan@2.10.0"
    },
    {
      "type": "library",
      "bom-ref": "pkg:npm/node-abi@2.4.3",
      "group": "",
      "name": "node-abi",
      "version": "2.4.3",
      "description": "",
      "scope": "optional",
      "hashes": [
        {
          "alg": "SHA-512",
          "content": "6fae7a5790b4eb6f2038e036930729340fdbc5d96a605f45bf127eaaa557d1cb5d5cd559a52f09eb1114622af758029ced4d011ff351952a4d6c6b32f9ace37a"
        }
      ],
      "purl": "pkg:npm/node-abi@2.4.3"
    },
    {
      "type": "library",
      "bom-ref": "pkg:npm/noop-logger@0.1.1",
      "group": "",
      "name": "noop-logger",
      "version": "0.1.1",
      "description": "",
      "scope": "optional",
      "hashes": [
        {
          "alg": "SHA-1",
          "content": "94a2b1633c4f1317553007d8966fd0e841b6a4c2"
        }
      ],
      "purl": "pkg:npm/noop-logger@0.1.1"
    },
    {
      "type": "library",
      "bom-ref": "pkg:npm/nopt@3.0.6",
      "group": "",
      "name": "nopt",
      "version": "3.0.6",
      "description": "",
      "scope": "optional",
      "hashes": [
        {
          "alg": "SHA-1",
          "content": "c6465dbf08abcd4db359317f79ac68a646b28ff9"
        }
      ],
      "purl": "pkg:npm/nopt@3.0.6"
    },
    {
      "type": "library",
      "bom-ref": "pkg:npm/npmlog@4.1.2",
      "group": "",
      "name": "npmlog",
      "version": "4.1.2",
      "description": "",
      "scope": "optional",
      "hashes": [
        {
          "alg": "SHA-512",
          "content": "dae52a6b3b8a95369223f742f00ce2714724efe22b11a3a737f7b48dddd7b6dd4a706a70c77d2fe7498bee83f2aff87d6cbdc4e1a65c715c29c0ffb95bd56392"
        }
      ],
      "purl": "pkg:npm/npmlog@4.1.2"
    },
    {
      "type": "library",
      "bom-ref": "pkg:npm/number-is-nan@1.0.1",
      "group": "",
      "name": "number-is-nan",
      "version": "1.0.1",
      "description": "",
      "scope": "optional",
      "hashes": [
        {
          "alg": "SHA-1",
          "content": "097b602b53422a522c1afb8790318336941a011d"
        }
      ],
      "purl": "pkg:npm/number-is-nan@1.0.1"
    },
    {
      "type": "library",
      "bom-ref": "pkg:npm/object-assign@4.1.1",
      "group": "",
      "name": "object-assign",
      "version": "4.1.1",
      "description": "",
      "scope": "optional",
      "hashes": [
        {
          "alg": "SHA-1",
          "content": "2109adc7965887cfc05cbbd442cac8bfbb360863"
        }
      ],
      "purl": "pkg:npm/object-assign@4.1.1"
    },
    {
      "type": "library",
      "bom-ref": "pkg:npm/object-keys@0.4.0",
      "group": "",
      "name": "object-keys",
      "version": "0.4.0",
      "description": "",
      "scope": "optional",
      "hashes": [
        {
          "alg": "SHA-1",
          "content": "28a6aae7428dd2c3a92f3d95f21335dd204e0336"
        }
      ],
      "purl": "pkg:npm/object-keys@0.4.0"
    },
    {
      "type": "library",
      "bom-ref": "pkg:npm/once@1.4.0",
      "group": "",
      "name": "once",
      "version": "1.4.0",
      "description": "",
      "scope": "optional",
      "hashes": [
        {
          "alg": "SHA-1",
          "content": "583b1aa775961d4b113ac17d9c50baef9dd76bd1"
        }
      ],
      "purl": "pkg:npm/once@1.4.0"
    },
    {
      "type": "library",
      "bom-ref": "pkg:npm/optimist@0.3.7",
      "group": "",
      "name": "optimist",
      "version": "0.3.7",
      "description": "",
      "scope": "optional",
      "hashes": [
        {
          "alg": "SHA-1",
          "content": "c90941ad59e4273328923074d2cf2e7cbc6ec0d9"
        }
      ],
      "purl": "pkg:npm/optimist@0.3.7"
    },
    {
      "type": "library",
      "bom-ref": "pkg:npm/os-browserify@0.1.2",
      "group": "",
      "name": "os-browserify",
      "version": "0.1.2",
      "description": "",
      "scope": "optional",
      "hashes": [
        {
          "alg": "SHA-1",
          "content": "49ca0293e0b19590a5f5de10c7f265a617d8fe54"
        }
      ],
      "purl": "pkg:npm/os-browserify@0.1.2"
    },
    {
      "type": "library",
      "bom-ref": "pkg:npm/os-homedir@1.0.2",
      "group": "",
      "name": "os-homedir",
      "version": "1.0.2",
      "description": "",
      "scope": "optional",
      "hashes": [
        {
          "alg": "SHA-1",
          "content": "ffbc4988336e0e833de0c168c7ef152121aa7fb3"
        }
      ],
      "purl": "pkg:npm/os-homedir@1.0.2"
    },
    {
      "type": "library",
      "bom-ref": "pkg:npm/pako@0.2.9",
      "group": "",
      "name": "pako",
      "version": "0.2.9",
      "description": "",
      "scope": "optional",
      "hashes": [
        {
          "alg": "SHA-1",
          "content": "f3f7522f4ef782348da8161bad9ecfd51bf83a75"
        }
      ],
      "purl": "pkg:npm/pako@0.2.9"
    },
    {
      "type": "library",
      "bom-ref": "pkg:npm/parents@0.0.3",
      "group": "",
      "name": "parents",
      "version": "0.0.3",
      "description": "",
      "scope": "optional",
      "hashes": [
        {
          "alg": "SHA-1",
          "content": "fa212f024d9fa6318dbb6b4ce676c8be493b9c43"
        }
      ],
      "purl": "pkg:npm/parents@0.0.3"
    },
    {
      "type": "library",
      "bom-ref": "pkg:npm/path-browserify@0.0.1",
      "group": "",
      "name": "path-browserify",
      "version": "0.0.1",
      "description": "",
      "scope": "optional",
      "hashes": [
        {
          "alg": "SHA-512",
          "content": "05aa40e34347202392f94497f52378b7286af80d91acdfd6b3917467968c1c3a7df0597cea55fc3ad8bc07bb8df772f821fbf87c738403ea50c3cee098c3bf95"
        }
      ],
      "purl": "pkg:npm/path-browserify@0.0.1"
    },
    {
      "type": "library",
      "bom-ref": "pkg:npm/path-platform@0.0.1",
      "group": "",
      "name": "path-platform",
      "version": "0.0.1",
      "description": "",
      "scope": "optional",
      "hashes": [
        {
          "alg": "SHA-1",
          "content": "b5585d7c3c463d89aa0060d86611cf1afd617e2a"
        }
      ],
      "purl": "pkg:npm/path-platform@0.0.1"
    },
    {
      "type": "library",
      "bom-ref": "pkg:npm/prebuild-install@2.5.3",
      "group": "",
      "name": "prebuild-install",
      "version": "2.5.3",
      "description": "",
      "scope": "optional",
      "hashes": [
        {
          "alg": "SHA-512",
          "content": "feb237e9c37683bbc342729637c533ba98bef8a8f2a92f624befdfa701b811af1dd0f8a9d0f4396ec854373570b7efc3d8c45f85502995830cbd62ea5ab085fe"
        }
      ],
      "purl": "pkg:npm/prebuild-install@2.5.3"
    },
    {
      "type": "library",
      "bom-ref": "pkg:npm/minimist@1.2.0",
      "group": "",
      "name": "minimist",
      "version": "1.2.0",
      "description": "",
      "scope": "optional",
      "hashes": [
        {
          "alg": "SHA-1",
          "content": "a35008b20f41383eec1fb914f4cd5df79a264284"
        }
      ],
      "purl": "pkg:npm/minimist@1.2.0"
    },
    {
      "type": "library",
      "bom-ref": "pkg:npm/process@0.7.0",
      "group": "",
      "name": "process",
      "version": "0.7.0",
      "description": "",
      "scope": "optional",
      "hashes": [
        {
          "alg": "SHA-1",
          "content": "c52208161a34adf3812344ae85d3e6150469389d"
        }
      ],
      "purl": "pkg:npm/process@0.7.0"
    },
    {
      "type": "library",
      "bom-ref": "pkg:npm/process-nextick-args@2.0.0",
      "group": "",
      "name": "process-nextick-args",
      "version": "2.0.0",
      "description": "",
      "scope": "optional",
      "hashes": [
        {
          "alg": "SHA-512",
          "content": "32d102d53a8dd045399dea61689e2b02d4e11ed0bce9d34df6a0ae121b6c86fa55064016e593bb04048df5112717d7a85c6711b9bfa916e284a4e1c4f876c433"
        }
      ],
      "purl": "pkg:npm/process-nextick-args@2.0.0"
    },
    {
      "type": "library",
      "bom-ref": "pkg:npm/pump@2.0.1",
      "group": "",
      "name": "pump",
      "version": "2.0.1",
      "description": "",
      "scope": "optional",
      "hashes": [
        {
          "alg": "SHA-512",
          "content": "aee3cc35190ddcc1cfd5c58973d396afe4ffc433f48e15d808b7c9701b97e788617c806769098050c7c3706e0333950c581c816c963af504a9866de3b4328890"
        }
      ],
      "purl": "pkg:npm/pump@2.0.1"
    },
    {
      "type": "library",
      "bom-ref": "pkg:npm/punycode@1.2.4",
      "group": "",
      "name": "punycode",
      "version": "1.2.4",
      "description": "",
      "scope": "optional",
      "hashes": [
        {
          "alg": "SHA-1",
          "content": "54008ac972aec74175def9cba6df7fa9d3918740"
        }
      ],
      "purl": "pkg:npm/punycode@1.2.4"
    },
    {
      "type": "library",
      "bom-ref": "pkg:npm/querystring@0.2.0",
      "group": "",
      "name": "querystring",
      "version": "0.2.0",
      "description": "",
      "scope": "optional",
      "hashes": [
        {
          "alg": "SHA-1",
          "content": "b209849203bb25df820da756e747005878521620"
        }
      ],
      "purl": "pkg:npm/querystring@0.2.0"
    },
    {
      "type": "library",
      "bom-ref": "pkg:npm/querystring-es3@0.2.1",
      "group": "",
      "name": "querystring-es3",
      "version": "0.2.1",
      "description": "",
      "scope": "optional",
      "hashes": [
        {
          "alg": "SHA-1",
          "content": "9ec61f79049875707d69414596fd907a4d711e73"
        }
      ],
      "purl": "pkg:npm/querystring-es3@0.2.1"
    },
    {
      "type": "library",
      "bom-ref": "pkg:npm/rc@1.2.8",
      "group": "",
      "name": "rc",
      "version": "1.2.8",
      "description": "",
      "scope": "optional",
      "hashes": [
        {
          "alg": "SHA-512",
          "content": "cb76c682a2a3dd005dc4b6cb9289a5a2192fb00f207408944254812670617e7f813f18386dceb677c4dc056d79c1abc37e07b10a071c72485c66fcb0c9060f3b"
        }
      ],
      "purl": "pkg:npm/rc@1.2.8"
    },
    {
      "type": "library",
      "bom-ref": "pkg:npm/strip-json-comments@2.0.1",
      "group": "",
      "name": "strip-json-comments",
      "version": "2.0.1",
      "description": "",
      "scope": "optional",
      "hashes": [
        {
          "alg": "SHA-1",
          "content": "3c531942e908c2697c0ec344858c286c7ca0a60a"
        }
      ],
      "purl": "pkg:npm/strip-json-comments@2.0.1"
    },
    {
      "type": "library",
      "bom-ref": "pkg:npm/readable-stream@1.1.14",
      "group": "",
      "name": "readable-stream",
      "version": "1.1.14",
      "description": "",
      "scope": "optional",
      "hashes": [
        {
          "alg": "SHA-1",
          "content": "7cf4c54ef648e3813084c636dd2079e166c081d9"
        }
      ],
      "purl": "pkg:npm/readable-stream@1.1.14"
    },
    {
      "type": "library",
      "bom-ref": "pkg:npm/string_decoder@0.10.31",
      "group": "",
      "name": "string_decoder",
      "version": "0.10.31",
      "description": "",
      "scope": "optional",
      "hashes": [
        {
          "alg": "SHA-1",
          "content": "62e203bc41766c6c28c9fc84301dab1c5310fa94"
        }
      ],
      "purl": "pkg:npm/string_decoder@0.10.31"
    },
    {
      "type": "library",
      "bom-ref": "pkg:npm/resolve@0.7.4",
      "group": "",
      "name": "resolve",
      "version": "0.7.4",
      "description": "",
      "scope": "optional",
      "hashes": [
        {
          "alg": "SHA-1",
          "content": "395a9ef9e873fbfe12bd14408bd91bb936003d69"
        }
      ],
      "purl": "pkg:npm/resolve@0.7.4"
    },
    {
      "type": "library",
      "bom-ref": "pkg:npm/rfile@1.0.0",
      "group": "",
      "name": "rfile",
      "version": "1.0.0",
      "description": "",
      "scope": "optional",
      "hashes": [
        {
          "alg": "SHA-1",
          "content": "59708cf90ca1e74c54c3cfc5c36fdb9810435261"
        }
      ],
      "purl": "pkg:npm/rfile@1.0.0"
    },
    {
      "type": "library",
      "bom-ref": "pkg:npm/resolve@0.3.1",
      "group": "",
      "name": "resolve",
      "version": "0.3.1",
      "description": "",
      "scope": "optional",
      "hashes": [
        {
          "alg": "SHA-1",
          "content": "34c63447c664c70598d1c9b126fc43b2a24310a4"
        }
      ],
      "purl": "pkg:npm/resolve@0.3.1"
    },
    {
      "type": "library",
      "bom-ref": "pkg:npm/ruglify@1.0.0",
      "group": "",
      "name": "ruglify",
      "version": "1.0.0",
      "description": "",
      "scope": "optional",
      "hashes": [
        {
          "alg": "SHA-1",
          "content": "dc8930e2a9544a274301cc9972574c0d0986b675"
        }
      ],
      "purl": "pkg:npm/ruglify@1.0.0"
    },
    {
      "type": "library",
      "bom-ref": "pkg:npm/uglify-js@2.2.5",
      "group": "",
      "name": "uglify-js",
      "version": "2.2.5",
      "description": "",
      "scope": "optional",
      "hashes": [
        {
          "alg": "SHA-1",
          "content": "a6e02a70d839792b9780488b7b8b184c095c99c7"
        }
      ],
      "purl": "pkg:npm/uglify-js@2.2.5"
    },
    {
      "type": "library",
      "bom-ref": "pkg:npm/safe-buffer@5.1.2",
      "group": "",
      "name": "safe-buffer",
      "version": "5.1.2",
      "description": "",
      "scope": "optional",
      "hashes": [
        {
          "alg": "SHA-512",
          "content": "19dd94641243917958ec66c9c5fb04f3f9ef2a45045351b7f1cd6c88de903fa6bd3d3f4c98707c1a7a6c71298c252a05f0b388aedf2e77fc0fb688f2b381bafa"
        }
      ],
      "purl": "pkg:npm/safe-buffer@5.1.2"
    },
    {
      "type": "library",
      "bom-ref": "pkg:npm/semver@5.5.1",
      "group": "",
      "name": "semver",
      "version": "5.5.1",
      "description": "",
      "scope": "optional",
      "hashes": [
        {
          "alg": "SHA-512",
          "content": "3eaa40c5fac48654945a07bc770229e2d667436e4320eb61a62687348b61b23105403e84bea50a50333b2fc3b6ad286415c718a35563251d1ca167cd902b9b47"
        }
      ],
      "purl": "pkg:npm/semver@5.5.1"
    },
    {
      "type": "library",
      "bom-ref": "pkg:npm/set-blocking@2.0.0",
      "group": "",
      "name": "set-blocking",
      "version": "2.0.0",
      "description": "",
      "scope": "optional",
      "hashes": [
        {
          "alg": "SHA-1",
          "content": "045f9782d011ae9a6803ddd382b24392b3d890f7"
        }
      ],
      "purl": "pkg:npm/set-blocking@2.0.0"
    },
    {
      "type": "library",
      "bom-ref": "pkg:npm/shallow-copy@0.0.1",
      "group": "",
      "name": "shallow-copy",
      "version": "0.0.1",
      "description": "",
      "scope": "optional",
      "hashes": [
        {
          "alg": "SHA-1",
          "content": "415f42702d73d810330292cc5ee86eae1a11a170"
        }
      ],
      "purl": "pkg:npm/shallow-copy@0.0.1"
    },
    {
      "type": "library",
      "bom-ref": "pkg:npm/shell-quote@0.0.1",
      "group": "",
      "name": "shell-quote",
      "version": "0.0.1",
      "description": "",
      "scope": "optional",
      "hashes": [
        {
          "alg": "SHA-1",
          "content": "1a41196f3c0333c482323593d6886ecf153dd986"
        }
      ],
      "purl": "pkg:npm/shell-quote@0.0.1"
    },
    {
      "type": "library",
      "bom-ref": "pkg:npm/shelljs@0.3.0",
      "group": "",
      "name": "shelljs",
      "version": "0.3.0",
      "description": "",
      "scope": "optional",
      "hashes": [
        {
          "alg": "SHA-1",
          "content": "3596e6307a781544f591f37da618360f31db57b1"
        }
      ],
      "purl": "pkg:npm/shelljs@0.3.0"
    },
    {
      "type": "library",
      "bom-ref": "pkg:npm/should@4.0.4",
      "group": "",
      "name": "should",
      "version": "4.0.4",
      "description": "",
      "scope": "optional",
      "hashes": [
        {
          "alg": "SHA-1",
          "content": "8efaa304f1f148cf3d2e955862990f9ab9ea628f"
        }
      ],
      "purl": "pkg:npm/should@4.0.4"
    },
    {
      "type": "library",
      "bom-ref": "pkg:npm/sigmund@1.0.1",
      "group": "",
      "name": "sigmund",
      "version": "1.0.1",
      "description": "",
      "scope": "optional",
      "hashes": [
        {
          "alg": "SHA-1",
          "content": "3ff21f198cad2175f9f3b781853fd94d0d19b590"
        }
      ],
      "purl": "pkg:npm/sigmund@1.0.1"
    },
    {
      "type": "library",
      "bom-ref": "pkg:npm/signal-exit@3.0.2",
      "group": "",
      "name": "signal-exit",
      "version": "3.0.2",
      "description": "",
      "scope": "optional",
      "hashes": [
        {
          "alg": "SHA-1",
          "content": "b5fdc08f1287ea1178628e415e25132b73646c6d"
        }
      ],
      "purl": "pkg:npm/signal-exit@3.0.2"
    },
    {
      "type": "library",
      "bom-ref": "pkg:npm/simple-concat@1.0.0",
      "group": "",
      "name": "simple-concat",
      "version": "1.0.0",
      "description": "",
      "scope": "optional",
      "hashes": [
        {
          "alg": "SHA-1",
          "content": "7344cbb8b6e26fb27d66b2fc86f9f6d5997521c6"
        }
      ],
      "purl": "pkg:npm/simple-concat@1.0.0"
    },
    {
      "type": "library",
      "bom-ref": "pkg:npm/simple-get@2.8.1",
      "group": "",
      "name": "simple-get",
      "version": "2.8.1",
      "description": "",
      "scope": "optional",
      "hashes": [
        {
          "alg": "SHA-512",
          "content": "952487452c3799035418f01846aa3bc72f5d84a9b11572232e3a78287a5ff7d1841f6547ec2dc033e41fc7a76eea385f522e959bb5e76c45447fb59be8df2347"
        }
      ],
      "purl": "pkg:npm/simple-get@2.8.1"
    },
    {
      "type": "library",
      "bom-ref": "pkg:npm/source-map@0.1.43",
      "group": "",
      "name": "source-map",
      "version": "0.1.43",
      "description": "",
      "scope": "optional",
      "hashes": [
        {
          "alg": "SHA-1",
          "content": "c24bc146ca517c1471f5dacbe2571b2b7f9e3346"
        }
      ],
      "purl": "pkg:npm/source-map@0.1.43"
    },
    {
      "type": "library",
      "bom-ref": "pkg:npm/sprintf-js@1.0.3",
      "group": "",
      "name": "sprintf-js",
      "version": "1.0.3",
      "description": "",
      "scope": "optional",
      "hashes": [
        {
          "alg": "SHA-1",
          "content": "04e6926f662895354f3dd015203633b857297e2c"
        }
      ],
      "purl": "pkg:npm/sprintf-js@1.0.3"
    },
    {
      "type": "library",
      "bom-ref": "pkg:npm/stream-browserify@1.0.0",
      "group": "",
      "name": "stream-browserify",
      "version": "1.0.0",
      "description": "",
      "scope": "optional",
      "hashes": [
        {
          "alg": "SHA-1",
          "content": "bf9b4abfb42b274d751479e44e0ff2656b6f1193"
        }
      ],
      "purl": "pkg:npm/stream-browserify@1.0.0"
    },
    {
      "type": "library",
      "bom-ref": "pkg:npm/stream-combiner@0.0.4",
      "group": "",
      "name": "stream-combiner",
      "version": "0.0.4",
      "description": "",
      "scope": "optional",
      "hashes": [
        {
          "alg": "SHA-1",
          "content": "4d5e433c185261dde623ca3f44c586bcf5c4ad14"
        }
      ],
      "purl": "pkg:npm/stream-combiner@0.0.4"
    },
    {
      "type": "library",
      "bom-ref": "pkg:npm/string-width@1.0.2",
      "group": "",
      "name": "string-width",
      "version": "1.0.2",
      "description": "",
      "scope": "optional",
      "hashes": [
        {
          "alg": "SHA-1",
          "content": "118bdf5b8cdc51a2a7e70d211e07e2b0b9b107d3"
        }
      ],
      "purl": "pkg:npm/string-width@1.0.2"
    },
    {
      "type": "library",
      "bom-ref": "pkg:npm/string_decoder@0.0.1",
      "group": "",
      "name": "string_decoder",
      "version": "0.0.1",
      "description": "",
      "scope": "optional",
      "hashes": [
        {
          "alg": "SHA-1",
          "content": "f5472d0a8d1650ec823752d24e6fd627b39bf141"
        }
      ],
      "purl": "pkg:npm/string_decoder@0.0.1"
    },
    {
      "type": "library",
      "bom-ref": "pkg:npm/strip-ansi@3.0.1",
      "group": "",
      "name": "strip-ansi",
      "version": "3.0.1",
      "description": "",
      "scope": "optional",
      "hashes": [
        {
          "alg": "SHA-1",
          "content": "6a385fb8853d952d5ff05d0e8aaf94278dc63dcf"
        }
      ],
      "purl": "pkg:npm/strip-ansi@3.0.1"
    },
    {
      "type": "library",
      "bom-ref": "pkg:npm/strip-json-comments@1.0.4",
      "group": "",
      "name": "strip-json-comments",
      "version": "1.0.4",
      "description": "",
      "scope": "optional",
      "hashes": [
        {
          "alg": "SHA-1",
          "content": "1e15fbcac97d3ee99bf2d73b4c656b082bbafb91"
        }
      ],
      "purl": "pkg:npm/strip-json-comments@1.0.4"
    },
    {
      "type": "library",
      "bom-ref": "pkg:npm/subarg@0.0.1",
      "group": "",
      "name": "subarg",
      "version": "0.0.1",
      "description": "",
      "scope": "optional",
      "hashes": [
        {
          "alg": "SHA-1",
          "content": "3d56b07dacfbc45bbb63f7672b43b63e46368e3a"
        }
      ],
      "purl": "pkg:npm/subarg@0.0.1"
    },
    {
      "type": "library",
      "bom-ref": "pkg:npm/syntax-error@1.1.6",
      "group": "",
      "name": "syntax-error",
      "version": "1.1.6",
      "description": "",
      "scope": "optional",
      "hashes": [
        {
          "alg": "SHA-1",
          "content": "b4549706d386cc1c1dc7c2423f18579b6cade710"
        }
      ],
      "purl": "pkg:npm/syntax-error@1.1.6"
    },
    {
      "type": "library",
      "bom-ref": "pkg:npm/acorn@2.7.0",
      "group": "",
      "name": "acorn",
      "version": "2.7.0",
      "description": "",
      "scope": "optional",
      "hashes": [
        {
          "alg": "SHA-1",
          "content": "ab6e7d9d886aaca8b085bc3312b79a198433f0e7"
        }
      ],
      "purl": "pkg:npm/acorn@2.7.0"
    },
    {
      "type": "library",
      "bom-ref": "pkg:npm/tar-fs@1.16.3",
      "group": "",
      "name": "tar-fs",
      "version": "1.16.3",
      "description": "",
      "scope": "optional",
      "hashes": [
        {
          "alg": "SHA-512",
          "content": "36f09e5e9631eceb263a1f3320e3ff79b1b9e73666c4b1347ad7d645b5a893eab6428f31fef391fc8253d6d6800d73defa3b22bbd6b10dbdd7e01fa22203652b"
        }
      ],
      "purl": "pkg:npm/tar-fs@1.16.3"
    },
    {
      "type": "library",
      "bom-ref": "pkg:npm/pump@1.0.3",
      "group": "",
      "name": "pump",
      "version": "1.0.3",
      "description": "",
      "scope": "optional",
      "hashes": [
        {
          "alg": "SHA-512",
          "content": "f24d09ba95a67b9e7ef6d09513e152e542d3dcae806e0aab19ae7c9534f8f51a727f0c1c19e747a9a0b92e540d74402e9a7ff016cbba68fc24b8f322a32f24ab"
        }
      ],
      "purl": "pkg:npm/pump@1.0.3"
    },
    {
      "type": "library",
      "bom-ref": "pkg:npm/tar-stream@1.6.1",
      "group": "",
      "name": "tar-stream",
      "version": "1.6.1",
      "description": "",
      "scope": "optional",
      "hashes": [
        {
          "alg": "SHA-512",
          "content": "2052cce70a7742b24e0d014f9bafeda372c966b38d74163fa2dc5cbc3210ceedb5ef32b27bac954778618bd9408eb0b667e9bf8f9a03c4c3dbd6a71df1c22fa4"
        }
      ],
      "purl": "pkg:npm/tar-stream@1.6.1"
    },
    {
      "type": "library",
      "bom-ref": "pkg:npm/xtend@4.0.1",
      "group": "",
      "name": "xtend",
      "version": "4.0.1",
      "description": "",
      "scope": "optional",
      "hashes": [
        {
          "alg": "SHA-1",
          "content": "a5c6d532be656e23db820efb943a1f04998d63af"
        }
      ],
      "purl": "pkg:npm/xtend@4.0.1"
    },
    {
      "type": "library",
      "bom-ref": "pkg:npm/through@2.3.8",
      "group": "",
      "name": "through",
      "version": "2.3.8",
      "description": "",
      "scope": "optional",
      "hashes": [
        {
          "alg": "SHA-1",
          "content": "0dd4c9ffaabc357960b1b724115d7e0e86a2e1f5"
        }
      ],
      "purl": "pkg:npm/through@2.3.8"
    },
    {
      "type": "library",
      "bom-ref": "pkg:npm/through2@0.4.2",
      "group": "",
      "name": "through2",
      "version": "0.4.2",
      "description": "",
      "scope": "optional",
      "hashes": [
        {
          "alg": "SHA-1",
          "content": "dbf5866031151ec8352bb6c4db64a2292a840b9b"
        }
      ],
      "purl": "pkg:npm/through2@0.4.2"
    },
    {
      "type": "library",
      "bom-ref": "pkg:npm/readable-stream@1.0.34",
      "group": "",
      "name": "readable-stream",
      "version": "1.0.34",
      "description": "",
      "scope": "optional",
      "hashes": [
        {
          "alg": "SHA-1",
          "content": "125820e34bc842d2f2aaafafe4c2916ee32c157c"
        }
      ],
      "purl": "pkg:npm/readable-stream@1.0.34"
    },
    {
      "type": "library",
      "bom-ref": "pkg:npm/xtend@2.1.2",
      "group": "",
      "name": "xtend",
      "version": "2.1.2",
      "description": "",
      "scope": "optional",
      "hashes": [
        {
          "alg": "SHA-1",
          "content": "6efecc2a4dad8e6962c4901b337ce7ba87b5d28b"
        }
      ],
      "purl": "pkg:npm/xtend@2.1.2"
    },
    {
      "type": "library",
      "bom-ref": "pkg:npm/timers-browserify@1.0.3",
      "group": "",
      "name": "timers-browserify",
      "version": "1.0.3",
      "description": "",
      "scope": "optional",
      "hashes": [
        {
          "alg": "SHA-1",
          "content": "ffba70c9c12eed916fd67318e629ac6f32295551"
        }
      ],
      "purl": "pkg:npm/timers-browserify@1.0.3"
    },
    {
      "type": "library",
      "bom-ref": "pkg:npm/process@0.5.2",
      "group": "",
      "name": "process",
      "version": "0.5.2",
      "description": "",
      "scope": "optional",
      "hashes": [
        {
          "alg": "SHA-1",
          "content": "1638d8a8e34c2f440a91db95ab9aeb677fc185cf"
        }
      ],
      "purl": "pkg:npm/process@0.5.2"
    },
    {
      "type": "library",
      "bom-ref": "pkg:npm/to-buffer@1.1.1",
      "group": "",
      "name": "to-buffer",
      "version": "1.1.1",
      "description": "",
      "scope": "optional",
      "hashes": [
        {
          "alg": "SHA-512",
          "content": "971f41e62bfb9acb85604dddcad4fe284e6d6a9fab358c3e2b88d591bf51fdab006fea5b052335ee3b6e9c7a658417ba45125d671dcf9f6269876e0edf698e56"
        }
      ],
      "purl": "pkg:npm/to-buffer@1.1.1"
    },
    {
      "type": "library",
      "bom-ref": "pkg:npm/tty-browserify@0.0.1",
      "group": "",
      "name": "tty-browserify",
      "version": "0.0.1",
      "description": "",
      "scope": "optional",
      "hashes": [
        {
          "alg": "SHA-512",
          "content": "0b74da3bb2bcd58be30a0407f50d52dd1dcfdc1b4ddd120cf27f8ebd7e229752b5ce013c661234a29ee40a5824c6dbad204f2142b72b1c15ef2217aa294502c7"
        }
      ],
      "purl": "pkg:npm/tty-browserify@0.0.1"
    },
    {
      "type": "library",
      "bom-ref": "pkg:npm/tunnel-agent@0.6.0",
      "group": "",
      "name": "tunnel-agent",
      "version": "0.6.0",
      "description": "",
      "scope": "optional",
      "hashes": [
        {
          "alg": "SHA-1",
          "content": "27a5dea06b36b04a0a9966774b290868f0fc40fd"
        }
      ],
      "purl": "pkg:npm/tunnel-agent@0.6.0"
    },
    {
      "type": "library",
      "bom-ref": "pkg:npm/typedarray@0.0.6",
      "group": "",
      "name": "typedarray",
      "version": "0.0.6",
      "description": "",
      "scope": "optional",
      "hashes": [
        {
          "alg": "SHA-1",
          "content": "867ac74e3864187b1d3d47d996a78ec5c8830777"
        }
      ],
      "purl": "pkg:npm/typedarray@0.0.6"
    },
    {
      "type": "library",
      "bom-ref": "pkg:npm/typescript@2.9.2",
      "group": "",
      "name": "typescript",
      "version": "2.9.2",
      "description": "",
      "scope": "optional",
      "hashes": [
        {
          "alg": "SHA-512",
          "content": "1abe29ea714d6a8b9f44863834c76941136683154818cb3815cbbfba37589379c066a93bb2ea73044f62766bdf648947fc2ba3fff76f8bed35f6a12e7bd955d3"
        }
      ],
      "purl": "pkg:npm/typescript@2.9.2"
    },
    {
      "type": "library",
      "bom-ref": "pkg:npm/uglify-js@2.3.6",
      "group": "",
      "name": "uglify-js",
      "version": "2.3.6",
      "description": "",
      "scope": "optional",
      "hashes": [
        {
          "alg": "SHA-1",
          "content": "fa0984770b428b7a9b2a8058f46355d14fef211a"
        }
      ],
      "purl": "pkg:npm/uglify-js@2.3.6"
    },
    {
      "type": "library",
      "bom-ref": "pkg:npm/uglify-to-browserify@1.0.2",
      "group": "",
      "name": "uglify-to-browserify",
      "version": "1.0.2",
      "description": "",
      "scope": "optional",
      "hashes": [
        {
          "alg": "SHA-1",
          "content": "6e0924d6bda6b5afe349e39a6d632850a0f882b7"
        }
      ],
      "purl": "pkg:npm/uglify-to-browserify@1.0.2"
    },
    {
      "type": "library",
      "bom-ref": "pkg:npm/umd@2.1.0",
      "group": "",
      "name": "umd",
      "version": "2.1.0",
      "description": "",
      "scope": "optional",
      "hashes": [
        {
          "alg": "SHA-1",
          "content": "4a6307b762f17f02d201b5fa154e673396c263cf"
        }
      ],
      "purl": "pkg:npm/umd@2.1.0"
    },
    {
      "type": "library",
      "bom-ref": "pkg:npm/source-map@0.1.34",
      "group": "",
      "name": "source-map",
      "version": "0.1.34",
      "description": "",
      "scope": "optional",
      "hashes": [
        {
          "alg": "SHA-1",
          "content": "a7cfe89aec7b1682c3b198d0acfb47d7d090566b"
        }
      ],
      "purl": "pkg:npm/source-map@0.1.34"
    },
    {
      "type": "library",
      "bom-ref": "pkg:npm/uglify-js@2.4.24",
      "group": "",
      "name": "uglify-js",
      "version": "2.4.24",
      "description": "",
      "scope": "optional",
      "hashes": [
        {
          "alg": "SHA-1",
          "content": "fad5755c1e1577658bb06ff9ab6e548c95bebd6e"
        }
      ],
      "purl": "pkg:npm/uglify-js@2.4.24"
    },
    {
      "type": "library",
      "bom-ref": "pkg:npm/underscore@git://github.com/jashkenas/underscore.git#d5fe0fd4060f13b40608cb9d92eda6d857e8752c",
      "group": "",
      "name": "underscore",
      "version": "git://github.com/jashkenas/underscore.git#d5fe0fd4060f13b40608cb9d92eda6d857e8752c",
      "description": "",
      "scope": "required",
      "purl": "pkg:npm/underscore@git://github.com/jashkenas/underscore.git#d5fe0fd4060f13b40608cb9d92eda6d857e8752c"
    },
    {
      "type": "library",
      "bom-ref": "pkg:npm/url@0.10.3",
      "group": "",
      "name": "url",
      "version": "0.10.3",
      "description": "",
      "scope": "optional",
      "hashes": [
        {
          "alg": "SHA-1",
          "content": "021e4d9c7705f21bbf37d03ceb58767402774c64"
        }
      ],
      "purl": "pkg:npm/url@0.10.3"
    },
    {
      "type": "library",
      "bom-ref": "pkg:npm/punycode@1.3.2",
      "group": "",
      "name": "punycode",
      "version": "1.3.2",
      "description": "",
      "scope": "optional",
      "hashes": [
        {
          "alg": "SHA-1",
          "content": "9653a036fb7c1ee42342f2325cceefea3926c48d"
        }
      ],
      "purl": "pkg:npm/punycode@1.3.2"
    },
    {
      "type": "library",
      "bom-ref": "pkg:npm/util@0.10.4",
      "group": "",
      "name": "util",
      "version": "0.10.4",
      "description": "",
      "scope": "optional",
      "hashes": [
        {
          "alg": "SHA-512",
          "content": "d0f9bd853437b1ee659755e285189cdc50c892eef40be88751d4ff5bddbaad28075794205ec61b29937c3120b7b49b52921b913b3bec42301a1443515ebfb5f4"
        }
      ],
      "purl": "pkg:npm/util@0.10.4"
    },
    {
      "type": "library",
      "bom-ref": "pkg:npm/util-deprecate@1.0.2",
      "group": "",
      "name": "util-deprecate",
      "version": "1.0.2",
      "description": "",
      "scope": "optional",
      "hashes": [
        {
          "alg": "SHA-1",
          "content": "450d4dc9fa70de732762fbd2d4a28981419a0ccf"
        }
      ],
      "purl": "pkg:npm/util-deprecate@1.0.2"
    },
    {
      "type": "library",
      "bom-ref": "pkg:npm/vm-browserify@0.0.4",
      "group": "",
      "name": "vm-browserify",
      "version": "0.0.4",
      "description": "",
      "scope": "optional",
      "hashes": [
        {
          "alg": "SHA-1",
          "content": "5d7ea45bbef9e4a6ff65f95438e0a87c357d5a73"
        }
      ],
      "purl": "pkg:npm/vm-browserify@0.0.4"
    },
    {
      "type": "library",
      "bom-ref": "pkg:npm/which@1.0.9",
      "group": "",
      "name": "which",
      "version": "1.0.9",
      "description": "",
      "scope": "optional",
      "hashes": [
        {
          "alg": "SHA-1",
          "content": "460c1da0f810103d0321a9b633af9e575e64486f"
        }
      ],
      "purl": "pkg:npm/which@1.0.9"
    },
    {
      "type": "library",
      "bom-ref": "pkg:npm/which-pm-runs@1.0.0",
      "group": "",
      "name": "which-pm-runs",
      "version": "1.0.0",
      "description": "",
      "scope": "optional",
      "hashes": [
        {
          "alg": "SHA-1",
          "content": "670b3afbc552e0b55df6b7780ca74615f23ad1cb"
        }
      ],
      "purl": "pkg:npm/which-pm-runs@1.0.0"
    },
    {
      "type": "library",
      "bom-ref": "pkg:npm/wide-align@1.1.3",
      "group": "",
      "name": "wide-align",
      "version": "1.1.3",
      "description": "",
      "scope": "optional",
      "hashes": [
        {
          "alg": "SHA-512",
          "content": "40690e41cf172fa06de4fc27b04c4a04fb8c281c671b15965b77d4e795ede1f787a3331485d50c6810a4dbdd2aa66ff01b9bbf4522b3c1d002e22e7562282284"
        }
      ],
      "purl": "pkg:npm/wide-align@1.1.3"
    },
    {
      "type": "library",
      "bom-ref": "pkg:npm/window-size@0.1.0",
      "group": "",
      "name": "window-size",
      "version": "0.1.0",
      "description": "",
      "scope": "optional",
      "hashes": [
        {
          "alg": "SHA-1",
          "content": "5438cd2ea93b202efa3a19fe8887aee7c94f9c9d"
        }
      ],
      "purl": "pkg:npm/window-size@0.1.0"
    },
    {
      "type": "library",
      "bom-ref": "pkg:npm/wordwrap@0.0.3",
      "group": "",
      "name": "wordwrap",
      "version": "0.0.3",
      "description": "",
      "scope": "optional",
      "hashes": [
        {
          "alg": "SHA-1",
          "content": "a3d5da6cd5c0bc0008d37234bbaf1bed63059107"
        }
      ],
      "purl": "pkg:npm/wordwrap@0.0.3"
    },
    {
      "type": "library",
      "bom-ref": "pkg:npm/wrappy@1.0.2",
      "group": "",
      "name": "wrappy",
      "version": "1.0.2",
      "description": "",
      "scope": "optional",
      "hashes": [
        {
          "alg": "SHA-1",
          "content": "b5243d8f3ec1aa35f1364605bc0d1036e30ab69f"
        }
      ],
      "purl": "pkg:npm/wrappy@1.0.2"
    },
    {
      "type": "library",
      "bom-ref": "pkg:npm/xtend@3.0.0",
      "group": "",
      "name": "xtend",
      "version": "3.0.0",
      "description": "",
      "scope": "optional",
      "hashes": [
        {
          "alg": "SHA-1",
          "content": "5cce7407baf642cba7becda568111c493f59665a"
        }
      ],
      "purl": "pkg:npm/xtend@3.0.0"
    },
    {
      "type": "library",
      "bom-ref": "pkg:npm/yargs@3.5.4",
      "group": "",
      "name": "yargs",
      "version": "3.5.4",
      "description": "",
      "scope": "optional",
      "hashes": [
        {
          "alg": "SHA-1",
          "content": "d8aff8f665e94c34bd259bdebd1bfaf0ddd35361"
        }
      ],
      "purl": "pkg:npm/yargs@3.5.4"
    },
    {
      "type": "library",
      "bom-ref": "pkg:npm/wordwrap@0.0.2",
      "group": "",
      "name": "wordwrap",
      "version": "0.0.2",
      "description": "",
      "scope": "optional",
      "hashes": [
        {
          "alg": "SHA-1",
          "content": "b79669bb42ecb409f83d583cad52ca17eaa1643f"
        }
      ],
      "purl": "pkg:npm/wordwrap@0.0.2"
    }
  ],
  "externalReferences": [
    {
      "url": "/project/src",
      "type": "other",
      "comment": "Base path"
    },
    {
      "url": "/project/src/package-lock.json",
      "type": "other",
      "comment": "Package file"
    }
  ]
}
