{
  "bomFormat": "CycloneDX",
  "specVersion": "1.3",
  "version": 1,
  "metadata": {
    "tools": [
      {
        "vendor": "AppThreat",
        "name": "cdxgen",
        "version": "3.0.10"
      },
      {
        "vendor": "Fortress Information Security",
        "name": "Github Extractor",
        "version": "1.15.1"
      }
    ],
    "authors": [
      {
        "name": "Fortress Information Security",
        "email": "sales@fortressinfosec.com",
        "phone": "1-407-573-6800"
      }
    ],
    "timestamp": "2022-06-01T21:00:00Z",
    "component": {
      "type": "application",
      "name": "insightface",
      "version": "",
      "group": "deepinsight",
      "externalReferences": [
        {
          "url": "https://github.com/deepinsight/insightface.git",
          "type": "distribution"
        },
        {
          "type": "website",
          "url": "https://insightface.ai",
          "comment": "As set via `homepage` in Github API"
        }
      ]
    }
  },
  "components": [
    {
      "type": "library",
      "publisher": "Mario Vilas",
      "name": "google",
      "version": "3.0.0",
      "description": "Python bindings to the Google search engine.",
      "hashes": [
        {
          "alg": "MD5",
          "content": "30c719790d3e7e57e9482d108eda355c"
        },
        {
          "alg": "SHA-256",
          "content": "889cf695f84e4ae2c55fbc0cfdaf4c1e729417fa52ab1db0485202ba173e4935"
        }
      ],
      "purl": "pkg:pypi/google@3.0.0",
      "modified": false
    },
    {
      "type": "library",
      "publisher": "Benjamin Peterson",
      "name": "six",
      "version": "1.16.0",
      "description": "Python 2 and 3 compatibility utilities",
      "hashes": [
        {
          "alg": "MD5",
          "content": "529d7fd7e14612ccde86417b4402d6f3"
        },
        {
          "alg": "SHA-256",
          "content": "8abb2f1d86890a2dfb989f9a77cfcfd3e47c2a354b01111771326f8aa26e0254"
        }
      ],
      "licenses": [
        {
          "license": {
            "name": "MIT"
          }
        }
      ],
      "purl": "pkg:pypi/six@1.16.0",
      "modified": false
    },
    {
      "type": "library",
      "publisher": "ONNX",
      "name": "onnx",
      "version": "1.11.0",
      "description": "Open Neural Network Exchange",
      "hashes": [
        {
          "alg": "MD5",
          "content": "9970a836562c746f8639d250155ed5a1"
        },
        {
          "alg": "SHA-256",
          "content": "3403884c482859f8cf2e0c276da84bd9ac2235d266726f4ddc9625d3fd263218"
        }
      ],
      "licenses": [
        {
          "license": {
            "name": "Apache License v2.0"
          }
        }
      ],
      "purl": "pkg:pypi/onnx@1.11.0",
      "modified": false
    },
    {
      "type": "library",
      "publisher": "Travis E. Oliphant et al.",
      "name": "numpy",
      "version": "1.22.3",
      "description": "NumPy is the fundamental package for array computing with Python.",
      "hashes": [
        {
          "alg": "MD5",
          "content": "99d2dfb943327b108b2c3b923bd42000"
        },
        {
          "alg": "SHA-256",
          "content": "c34ea7e9d13a70bf2ab64a2532fe149a9aced424cd05a2c4ba662fd989e3e45f"
        }
      ],
      "licenses": [
        {
          "license": {
            "name": "BSD"
          }
        }
      ],
      "purl": "pkg:pypi/numpy@1.22.3",
      "modified": false
    },
    {
      "type": "library",
      "publisher": "Brett Cannon",
      "name": "importlib",
      "version": "1.0.4",
      "description": "Backport of importlib.import_module() from Python 2.7",
      "hashes": [
        {
          "alg": "MD5",
          "content": "5f9a0803bca7ba95f670d1464984296f"
        },
        {
          "alg": "SHA-256",
          "content": "b6ee7066fea66e35f8d0acee24d98006de1a0a8a94a8ce6efe73a9a23c8d9826"
        }
      ],
      "purl": "pkg:pypi/importlib@1.0.4",
      "modified": false
    },
    {
      "type": "library",
      "publisher": "Guido van Rossum, Jukka Lehtosalo, Łukasz Langa, Ivan Levkivskyi",
      "name": "typing",
      "version": "3.10.0.0",
      "description": "Type Hints for Python",
      "hashes": [
        {
          "alg": "MD5",
          "content": "cf38139027dc160e3ecd8e5ccf151da9"
        },
        {
          "alg": "SHA-256",
          "content": "12fbdfbe7d6cca1a42e485229afcb0b0c8259258cfb919b8a5e2a5c953742f89"
        }
      ],
      "licenses": [
        {
          "license": {
            "name": "PSF"
          }
        }
      ],
      "purl": "pkg:pypi/typing@3.10.0.0",
      "modified": false
    },
    {
      "type": "library",
      "name": "typing_extensions",
      "version": "4.2.0",
      "description": "Backported and Experimental Type Hints for Python 3.7+",
      "hashes": [
        {
          "alg": "MD5",
          "content": "95fc87a08006c5249ae13b8a1c3770b9"
        },
        {
          "alg": "SHA-256",
          "content": "6657594ee297170d19f67d55c05852a874e7eb634f4f753dbd667855e07c1708"
        }
      ],
      "purl": "pkg:pypi/typing-extensions@4.2.0",
      "modified": false
    },
    {
      "type": "library",
      "publisher": "Thomas Waldmann",
      "name": "argparse",
      "version": "1.4.0",
      "description": "Python command-line parsing library",
      "hashes": [
        {
          "alg": "MD5",
          "content": "c37216a954c8669054e2b2c54853dd49"
        },
        {
          "alg": "SHA-256",
          "content": "c31647edb69fd3d465a847ea3157d37bed1f95f19760b11a47aa91c04b666314"
        }
      ],
      "licenses": [
        {
          "license": {
            "name": "Python Software Foundation License"
          }
        }
      ],
      "purl": "pkg:pypi/argparse@1.4.0",
      "modified": false
    },
    {
      "type": "library",
      "name": "mxnet",
      "version": "1.9.0",
      "description": "Apache MXNet is an ultra-scalable deep learning framework. This version uses openblas and MKLDNN.",
      "hashes": [
        {
          "alg": "MD5",
          "content": "b651639f3162e583f08fdeeeced2253d"
        },
        {
          "alg": "SHA-256",
          "content": "ee5639b9e565bd621d3a011f6df2835ded439605ef41245d65b9ac20c2dddcc1"
        }
      ],
      "licenses": [
        {
          "license": {
            "name": "Apache 2.0"
          }
        }
      ],
      "purl": "pkg:pypi/mxnet@1.9.0",
      "modified": false
    },
    {
      "type": "library",
      "publisher": "Zope Foundation and Contributors",
      "name": "datetime",
      "version": "4.4",
      "description": "This package provides a DateTime data type, as known from Zope. Unless you need to communicate with Zope APIs, you're probably better off using Python's built-in datetime module.",
      "hashes": [
        {
          "alg": "MD5",
          "content": "ad1e82d858ed7c8cd2ea437b4cb695ed"
        },
        {
          "alg": "SHA-256",
          "content": "4fcca115ddb466a1104df08d5c2a2f5805d14ca317800e1bfcea8f3d69f66e57"
        }
      ],
      "licenses": [
        {
          "license": {
            "name": "ZPL 2.1"
          }
        }
      ],
      "purl": "pkg:pypi/datetime@4.4",
      "modified": false
    },
    {
      "type": "library",
      "publisher": "InsightFace Contributors",
      "name": "insightface",
      "version": "0.6.2",
      "description": "InsightFace Python Library",
      "hashes": [
        {
          "alg": "MD5",
          "content": "85df3cd560919b8972f4d6249406841c"
        },
        {
          "alg": "SHA-256",
          "content": "9ec8877ead6e56c18b628aa2d0b2e385ff18615b4e482199b072b1f39d6d0d6f"
        }
      ],
      "licenses": [
        {
          "license": {
            "name": "MIT"
          }
        }
      ],
      "purl": "pkg:pypi/insightface@0.6.2",
      "modified": false
    },
    {
      "type": "library",
      "publisher": "Jean Pimentel",
      "name": "numbers",
      "version": "0.1",
      "description": "interesting numbers!",
      "purl": "pkg:pypi/numbers@0.1",
      "modified": false
    },
    {
      "type": "library",
      "publisher": "PyTorch Team",
      "name": "torch",
      "version": "1.11.0",
      "description": "Tensors and Dynamic neural networks in Python with strong GPU acceleration",
      "hashes": [
        {
          "alg": "MD5",
          "content": "d88113ea2a0597fd611880e93a508fe0"
        },
        {
          "alg": "SHA-256",
          "content": "0e48af66ad755f0f9c5f2664028a414f57c49d6adc37e77e06fe0004da4edb61"
        }
      ],
      "licenses": [
        {
          "license": {
            "name": "BSD-3"
          }
        }
      ],
      "purl": "pkg:pypi/torch@1.11.0",
      "modified": false
    },
    {
      "type": "library",
      "publisher": "PyTorch Core Team",
      "name": "torchvision",
      "version": "0.12.0",
      "description": "image and video datasets and models for torch deep learning",
      "hashes": [
        {
          "alg": "MD5",
          "content": "e4458886f57f6221343c4bc4121d4526"
        },
        {
          "alg": "SHA-256",
          "content": "edab05f7ba9f648c00435b384ffdbd7bde79a3b8ea893813fb50f6ccf28b1e76"
        }
      ],
      "licenses": [
        {
          "license": {
            "name": "BSD"
          }
        }
      ],
      "purl": "pkg:pypi/torchvision@0.12.0",
      "modified": false
    },
    {
      "type": "library",
      "publisher": "Mathieu Leplatre",
      "name": "easydict",
      "version": "1.9",
      "description": "Access dict values as attributes (works recursively).",
      "hashes": [
        {
          "alg": "MD5",
          "content": "8744c50bf7964bbe635011c1210a3b81"
        },
        {
          "alg": "SHA-256",
          "content": "3f3f0dab07c299f0f4df032db1f388d985bb57fa4c5be30acd25c5f9a516883b"
        }
      ],
      "licenses": [
        {
          "license": {
            "name": "LPGL, see LICENSE file."
          }
        }
      ],
      "purl": "pkg:pypi/easydict@1.9",
      "modified": false
    },
    {
      "type": "library",
      "publisher": "Kenneth Reitz",
      "name": "requests",
      "version": "2.27.1",
      "description": "Python HTTP for Humans.",
      "hashes": [
        {
          "alg": "MD5",
          "content": "435db0f122c83decd27524f690e89650"
        },
        {
          "alg": "SHA-256",
          "content": "f22fa1e554c9ddfd16e6e41ac79759e17be9e492b3587efa038054674760e72d"
        }
      ],
      "licenses": [
        {
          "license": {
            "name": "Apache 2.0"
          }
        }
      ],
      "purl": "pkg:pypi/requests@2.27.1",
      "modified": false
    },
    {
      "type": "library",
      "publisher": "Vinay Sajip",
      "name": "logging",
      "version": "0.4.9.6",
      "description": "A logging module for Python",
      "hashes": [
        {
          "alg": "MD5",
          "content": "dc0a7ebc8b8970263911e11e7b7e1ca8"
        },
        {
          "alg": "SHA-256",
          "content": "26f6b50773f085042d301085bd1bf5d9f3735704db9f37c1ce6d8b85c38f2417"
        }
      ],
      "licenses": [
        {
          "license": {
            "name": "Copyright (C) 2001-2005 by Vinay Sajip. All Rights Reserved. See LICENSE for license."
          }
        }
      ],
      "purl": "pkg:pypi/logging@0.4.9.6",
      "modified": false
    },
    {
      "type": "library",
      "publisher": "Dima Dorfman",
      "name": "functools",
      "version": "0.5",
      "description": "Fast tools for functional programming",
      "hashes": [
        {
          "alg": "MD5",
          "content": "91111c28ee685a2f89f1a41e6f0ce8ea"
        },
        {
          "alg": "SHA-256",
          "content": "596ed8999dee419c0749a41bfdd82e4697e80ea27ee01c716003ef55be9a54c5"
        }
      ],
      "licenses": [
        {
          "license": {
            "name": "BSD"
          }
        }
      ],
      "purl": "pkg:pypi/functools@0.5",
      "modified": false
    },
    {
      "type": "library",
      "name": "tqdm",
      "version": "4.64.0",
      "description": "Fast, Extensible Progress Meter",
      "hashes": [
        {
          "alg": "MD5",
          "content": "67cd3830694b2a7e577d0db9e52a7830"
        },
        {
          "alg": "SHA-256",
          "content": "74a2cdefe14d11442cedf3ba4e21a3b84ff9a2dbdc6cfae2c34addb2a14a5ea6"
        }
      ],
      "licenses": [
        {
          "license": {
            "name": "MPLv2.0, MIT Licences"
          }
        }
      ],
      "purl": "pkg:pypi/tqdm@4.64.0",
      "modified": false
    },
    {
      "type": "library",
      "publisher": "Luke Maurits",
      "name": "prettytable",
      "version": "3.3.0",
      "description": "A simple Python library for easily displaying tabular data in a visually appealing ASCII table format",
      "hashes": [
        {
          "alg": "MD5",
          "content": "35291bc7267a0799aa513d3b6da8d6c1"
        },
        {
          "alg": "SHA-256",
          "content": "d1c34d72ea2c0ffd6ce5958e71c428eb21a3d40bf3133afe319b24aeed5af407"
        }
      ],
      "licenses": [
        {
          "license": {
            "name": "BSD (3 clause)"
          }
        }
      ],
      "purl": "pkg:pypi/prettytable@3.3.0",
      "modified": false
    },
    {
      "type": "library",
      "publisher": "Secret Labs AB (PythonWare)",
      "name": "PIL",
      "version": "1.1.6",
      "description": "Python Imaging Library",
      "licenses": [
        {
          "license": {
            "name": "Python (MIT style)"
          }
        }
      ],
      "purl": "pkg:pypi/pil@1.1.6",
      "modified": false
    },
    {
      "type": "library",
      "publisher": "Curzio Basso",
      "name": "paddle",
      "version": "1.0.2",
      "description": "A package for dictionary learning",
      "hashes": [
        {
          "alg": "MD5",
          "content": "7178e80fa07f1ec61c112a237d3add6a"
        },
        {
          "alg": "SHA-256",
          "content": "aeb13606880a932f97eb1a810bc8820c7e80f943abcdb56f272b1375964ef117"
        }
      ],
      "licenses": [
        {
          "license": {
            "name": "BSD"
          }
        }
      ],
      "purl": "pkg:pypi/paddle@1.0.2",
      "modified": false
    },
    {
      "type": "library",
      "publisher": "Python Packaging Authority",
      "name": "setuptools",
      "version": "62.1.0",
      "description": "Easily download, build, install, upgrade, and uninstall Python packages",
      "hashes": [
        {
          "alg": "MD5",
          "content": "101d2e2bf9b7682ab90d9a7bd487bdbe"
        },
        {
          "alg": "SHA-256",
          "content": "26ead7d1f93efc0f8c804d9fafafbe4a44b179580a7105754b245155f9af05a8"
        }
      ],
      "purl": "pkg:pypi/setuptools@62.1.0",
      "modified": false
    },
    {
      "type": "library",
      "publisher": "Antoine Pitrou",
      "name": "pathlib",
      "version": "1.0.1",
      "description": "Object-oriented filesystem paths",
      "hashes": [
        {
          "alg": "MD5",
          "content": "f26b13acf298a15cdb46a3dffc8eb0de"
        },
        {
          "alg": "SHA-256",
          "content": "f35f95ab8b0f59e6d354090350b44a80a80635d22efdedfa84c7ad1cf0a74147"
        }
      ],
      "licenses": [
        {
          "license": {
            "name": "MIT License"
          }
        }
      ],
      "purl": "pkg:pypi/pathlib@1.0.1",
      "modified": false
    },
    {
      "type": "library",
      "publisher": "Robpol86",
      "name": "terminaltables",
      "version": "3.1.10",
      "description": "Generate simple tables in terminals from a nested list of strings.",
      "hashes": [
        {
          "alg": "MD5",
          "content": "6f125645c5a6766fa3fc01859d4a2514"
        },
        {
          "alg": "SHA-256",
          "content": "e4fdc4179c9e4aab5f674d80f09d76fa436b96fdc698a8505e0a36bf0804a874"
        }
      ],
      "licenses": [
        {
          "license": {
            "name": "MIT"
          }
        }
      ],
      "purl": "pkg:pypi/terminaltables@3.1.10",
      "modified": false
    },
    {
      "type": "library",
      "name": "scipy",
      "version": "1.8.0",
      "description": "SciPy: Scientific Library for Python",
      "hashes": [
        {
          "alg": "MD5",
          "content": "1995af4cdd1a9174dcf58beccb8d2404"
        },
        {
          "alg": "SHA-256",
          "content": "bb7088e89cd751acf66195d2f00cf009a1ea113f3019664032d9075b1e727b6c"
        }
      ],
      "licenses": [
        {
          "license": {
            "name": "BSD"
          }
        }
      ],
      "purl": "pkg:pypi/scipy@1.8.0",
      "modified": false
    },
    {
      "type": "library",
      "publisher": "Christian Heimes",
      "name": "multiprocessing",
      "version": "2.6.2.1",
      "description": "Backport of the multiprocessing package to Python 2.4 and 2.5",
      "hashes": [
        {
          "alg": "MD5",
          "content": "5cc484396c040102116ccc2355379c72"
        },
        {
          "alg": "SHA-256",
          "content": "ef3b81ad85d7de252e5491b1daac028e17f9741cbe3625032e6eaa4ad4c79900"
        }
      ],
      "licenses": [
        {
          "license": {
            "name": "BSD Licence"
          }
        }
      ],
      "purl": "pkg:pypi/multiprocessing@2.6.2.1",
      "modified": false
    },
    {
      "type": "library",
      "publisher": "Kitware Inc., Jon Crall",
      "name": "kwarray",
      "version": "0.6.0",
      "hashes": [
        {
          "alg": "MD5",
          "content": "38379e072fedf76edc8d8d541eff1e4c"
        },
        {
          "alg": "SHA-256",
          "content": "483bba4f18f5d53812aa5e9a57f691a9026ad289037fc3128ae25f6d8813da18"
        }
      ],
      "licenses": [
        {
          "license": {
            "name": "Apache 2"
          }
        }
      ],
      "purl": "pkg:pypi/kwarray@0.6.0",
      "modified": false
    },
    {
      "type": "library",
      "publisher": "Holger Krekel, Bruno Oliveira, Ronny Pfannschmidt, Floris Bruynooghe, Brianna Laugher, Florian Bruhin and others",
      "name": "pytest",
      "version": "7.1.2",
      "description": "pytest: simple powerful testing with Python",
      "hashes": [
        {
          "alg": "MD5",
          "content": "6f5a9e12007a2529cb00d3b5a8af33a1"
        },
        {
          "alg": "SHA-256",
          "content": "13d0e3ccfc2b6e26be000cb6568c832ba67ba32e719443bfe725814d3c42433c"
        }
      ],
      "licenses": [
        {
          "license": {
            "name": "MIT"
          }
        }
      ],
      "purl": "pkg:pypi/pytest@7.1.2",
      "modified": false
    },
    {
      "type": "library",
      "publisher": "Guido van Rossum (and others)",
      "name": "asyncio",
      "version": "3.4.3",
      "description": "reference implementation of PEP 3156",
      "hashes": [
        {
          "alg": "MD5",
          "content": "82ea7f22832529b1d68109f077c3e977"
        },
        {
          "alg": "SHA-256",
          "content": "c4d18b22701821de07bd6aea8b53d21449ec0ec5680645e5317062ea21817d2d"
        }
      ],
      "licenses": [
        {
          "license": {
            "name": "PSF"
          }
        }
      ],
      "purl": "pkg:pypi/asyncio@3.4.3",
      "modified": false
    },
    {
      "type": "library",
      "name": "io",
      "version": "0.0.1",
      "purl": "pkg:pypi/io@0.0.1",
      "modified": false
    },
    {
      "type": "library",
      "publisher": "Łukasz Langa",
      "name": "configparser",
      "version": "5.2.0",
      "description": "Updated configparser from Python 3.8 for Python 2.6+.",
      "hashes": [
        {
          "alg": "MD5",
          "content": "69bab6f43cd4375830a54a53a50129fa"
        },
        {
          "alg": "SHA-256",
          "content": "e8b39238fb6f0153a069aa253d349467c3c4737934f253ef6abac5fe0eca1e5d"
        }
      ],
      "purl": "pkg:pypi/configparser@5.2.0",
      "modified": false
    },
    {
      "type": "library",
      "publisher": "AutoTorch Community",
      "name": "autotorch",
      "version": "0.0.1",
      "description": "AutoTorch Package",
      "hashes": [
        {
          "alg": "MD5",
          "content": "1400536ef94d7765dba67770979fccbc"
        },
        {
          "alg": "SHA-256",
          "content": "59fdcb73427908c34c9181cefc5a124e3410711cdcd4ce936bf21a09c1374b46"
        }
      ],
      "licenses": [
        {
          "license": {
            "name": "Apache-2.0"
          }
        }
      ],
      "purl": "pkg:pypi/autotorch@0.0.1",
      "modified": false
    },
    {
      "type": "library",
      "publisher": "Greg Ward",
      "name": "distutils",
      "version": "1.0",
      "description": "Python Distribution Utilities",
      "purl": "pkg:pypi/distutils@1.0",
      "modified": false
    },
    {
      "type": "library",
      "publisher": "Robert Bradshaw, Stefan Behnel, Dag Seljebotn, Greg Ewing, et al.",
      "name": "Cython",
      "version": "0.29.28",
      "description": "The Cython compiler for writing C extensions for the Python language.",
      "hashes": [
        {
          "alg": "MD5",
          "content": "21e19cde2b618bd516926354089af6af"
        },
        {
          "alg": "SHA-256",
          "content": "26d8d0ededca42be50e0ac377c08408e18802b1391caa3aea045a72c1bff47ac"
        }
      ],
      "licenses": [
        {
          "license": {
            "name": "Apache"
          }
        }
      ],
      "purl": "pkg:pypi/cython@0.29.28",
      "modified": false
    },
    {
      "type": "library",
      "publisher": "Tzu-Wei Huang",
      "name": "tensorboardX",
      "version": "2.5",
      "description": "TensorBoardX lets you watch Tensors Flow without Tensorflow",
      "hashes": [
        {
          "alg": "MD5",
          "content": "88ab96449927800eaa2299ab1cbe6ce5"
        },
        {
          "alg": "SHA-256",
          "content": "b1d8903f8106e2f4484640a293f9680f9757d5f7d2e699e0672bb2382d988e07"
        }
      ],
      "licenses": [
        {
          "license": {
            "name": "MIT license"
          }
        }
      ],
      "purl": "pkg:pypi/tensorboardx@2.5",
      "modified": false
    },
    {
      "type": "library",
      "publisher": "Lorenzo Porzi",
      "name": "inplace_abn",
      "version": "1.1.0",
      "description": "In-Place Activate BatchNorm for Pytorch",
      "hashes": [
        {
          "alg": "MD5",
          "content": "2a85d347a67b877c34125c2c367346e2"
        },
        {
          "alg": "SHA-256",
          "content": "7c286ca53d35cb37b0d1f8b9beb5a910c694129d3d4f7b8e53188370bb260c27"
        }
      ],
      "purl": "pkg:pypi/inplace-abn@1.1.0",
      "modified": false
    },
    {
      "type": "library",
      "publisher": "Konstantin Molchanov",
      "name": "configs",
      "version": "3.0.3",
      "description": "Configuration for humans",
      "hashes": [
        {
          "alg": "MD5",
          "content": "e0f0c26c84d65197f8a1212862117983"
        },
        {
          "alg": "SHA-256",
          "content": "3aa54e99b012ece70d30b7926d9e8fa159544ca27445ec2776254e25ccc190a7"
        }
      ],
      "licenses": [
        {
          "license": {
            "name": "MIT"
          }
        }
      ],
      "purl": "pkg:pypi/configs@3.0.3",
      "modified": false
    },
    {
      "type": "library",
      "publisher": "Haak Saxberg",
      "name": "utils",
      "version": "1.0.1",
      "description": "A grab-bag of utility functions and objects",
      "hashes": [
        {
          "alg": "MD5",
          "content": "96dfa21b1739f63ca1bf073ee9d9be18"
        },
        {
          "alg": "SHA-256",
          "content": "ff04549b95deb2fd7a82ddaea077e2f41209079e2482df231c358770b27b72a7"
        }
      ],
      "purl": "pkg:pypi/utils@1.0.1",
      "modified": false
    },
    {
      "type": "library",
      "publisher": "Luke Arno",
      "name": "static",
      "version": "1.1.1",
      "description": "Serve static or templated content via WSGI or stand-alone.",
      "hashes": [
        {
          "alg": "MD5",
          "content": "75c738ed25cc69a71299b93369ee4e40"
        },
        {
          "alg": "SHA-256",
          "content": "4a2dfc165c9242304b117e80fb200eb62742a1c51dbaac50451419dccee76395"
        }
      ],
      "licenses": [
        {
          "license": {
            "name": "MIT"
          }
        }
      ],
      "purl": "pkg:pypi/static@1.1.1",
      "modified": false
    },
    {
      "type": "library",
      "publisher": "Rene Tanczos",
      "name": "dynamic",
      "version": "0.1.1",
      "description": "Class to create dynamic objects.",
      "hashes": [
        {
          "alg": "MD5",
          "content": "27e69deed16c556320f893c8a0f02949"
        },
        {
          "alg": "SHA-256",
          "content": "385a601076538274a42060b1d650fe662f7aa5b15ae95bbdd4ac6d2c49302dba"
        }
      ],
      "licenses": [
        {
          "license": {
            "name": "MIT"
          }
        }
      ],
      "purl": "pkg:pypi/dynamic@0.1.1",
      "modified": false
    },
    {
      "type": "library",
      "publisher": "HuggingFace Inc.",
      "name": "datasets",
      "version": "2.1.0",
      "description": "HuggingFace community-driven open-source library of datasets",
      "hashes": [
        {
          "alg": "MD5",
          "content": "c2b2d21632835f186cca8a62c1b5eab6"
        },
        {
          "alg": "SHA-256",
          "content": "7c186041abb980066bff4482037f41e302741bad4709885b2417569f2f6bac3a"
        }
      ],
      "licenses": [
        {
          "license": {
            "name": "Apache 2.0"
          }
        }
      ],
      "purl": "pkg:pypi/datasets@2.1.0",
      "modified": false
    },
    {
      "type": "library",
      "publisher": "PaddlePaddle and Echarts team",
      "name": "visualdl",
      "version": "2.2.3",
      "description": "Visualize Deep Learning",
      "hashes": [
        {
          "alg": "MD5",
          "content": "60177c85bffb187016685278b0fcf00e"
        },
        {
          "alg": "SHA-256",
          "content": "e2403dc376fad90b4c16ebc2777e61dae6c5682a3d65f7923668094a48e74183"
        }
      ],
      "licenses": [
        {
          "license": {
            "name": "Apache License"
          }
        }
      ],
      "purl": "pkg:pypi/visualdl@2.2.3",
      "modified": false
    },
    {
      "type": "library",
      "publisher": "paddle-infer",
      "name": "paddle2onnx",
      "version": "0.9.5",
      "description": "Export PaddlePaddle to ONNX",
      "hashes": [
        {
          "alg": "MD5",
          "content": "5cca75e5c453899dab653a510350588c"
        },
        {
          "alg": "SHA-256",
          "content": "f49a4fed068362f4e977e2232567f647a019f91c0bfa095b33162bc9bf411f89"
        }
      ],
      "licenses": [
        {
          "license": {
            "name": "Apache 2.0"
          }
        }
      ],
      "purl": "pkg:pypi/paddle2onnx@0.9.5",
      "modified": false
    },
    {
      "type": "library",
      "publisher": "Vinay Sajip",
      "name": "config",
      "version": "0.5.1",
      "description": "A hierarchical, easy-to-use, powerful configuration module for Python",
      "hashes": [
        {
          "alg": "MD5",
          "content": "d82e233b557dd6d4450f94f67ab8f4fa"
        },
        {
          "alg": "SHA-256",
          "content": "79ffa009ff2663cc8ca29e56bcec031c044609d4bafaa4f884132a413101ce84"
        }
      ],
      "licenses": [
        {
          "license": {
            "name": "Copyright (C) 2004-2020 by Vinay Sajip. All Rights Reserved. See LICENSE for license."
          }
        }
      ],
      "purl": "pkg:pypi/config@0.5.1",
      "modified": false
    },
    {
      "type": "library",
      "publisher": "Stefan van der Walt",
      "name": "skimage",
      "version": "0.0",
      "description": "Dummy package that points to scikit-image",
      "hashes": [
        {
          "alg": "MD5",
          "content": "cba2d2397f9ee986e7cfad264390b217"
        },
        {
          "alg": "SHA-256",
          "content": "6c96a11d9deea68489c9b80b38fad1dcdab582c36d4fa093b99b24a3b30c38ec"
        }
      ],
      "purl": "pkg:pypi/skimage@0.0",
      "modified": false
    },
    {
      "type": "library",
      "publisher": "HEESEUNG KIM",
      "name": "retinaface",
      "version": "0.0.6",
      "description": "face detector",
      "hashes": [
        {
          "alg": "MD5",
          "content": "943f75eec76d0b578dc9ddd0e88c291e"
        },
        {
          "alg": "SHA-256",
          "content": "9b1bd5470e9e21655d0d66a336d303a2a13548ab7a87efa23728f7146d4b9c44"
        }
      ],
      "licenses": [
        {
          "license": {
            "name": "MIT"
          }
        }
      ],
      "purl": "pkg:pypi/retinaface@0.0.6",
      "modified": false
    },
    {
      "type": "library",
      "publisher": "Erik Bernhardsson",
      "name": "annoy",
      "version": "1.17.0",
      "description": "Approximate Nearest Neighbors in C++/Python optimized for memory usage and loading/saving to disk.",
      "hashes": [
        {
          "alg": "MD5",
          "content": "0aeadef90af1f8c5933f28099eb9c933"
        },
        {
          "alg": "SHA-256",
          "content": "78df35a7c2c74b74d94b4bdc74ab4faa9a5ff67cb83d12902673d0d9bd02219d"
        }
      ],
      "licenses": [
        {
          "license": {
            "name": "Apache License 2.0"
          }
        }
      ],
      "purl": "pkg:pypi/annoy@1.17.0",
      "modified": false
    },
    {
      "type": "library",
      "name": "oneflow",
      "version": "0.7.0",
      "hashes": [
        {
          "alg": "MD5",
          "content": "fbce2d4126f034792a8ab1c9b9b7edd5"
        },
        {
          "alg": "SHA-256",
          "content": "c6192c2d3540baa7745468e7334314e064c99fe6312c6c9f3b1769f4c44191a9"
        }
      ],
      "purl": "pkg:pypi/oneflow@0.7.0",
      "modified": false
    },
    {
      "type": "library",
      "publisher": "zhangxiaoyu",
      "name": "oneflow_onnx",
      "version": "0.5.4",
      "description": "a toolkit for converting trained model of OneFlow to ONNX.",
      "hashes": [
        {
          "alg": "MD5",
          "content": "ef9461bac67ebee4fea3bc4e35671277"
        },
        {
          "alg": "SHA-256",
          "content": "bd0fc80b9fe032860b1afac226adc2764a7c7212160317b7efcb44493469a311"
        }
      ],
      "licenses": [
        {
          "license": {
            "name": "Apache 2.0"
          }
        }
      ],
      "purl": "pkg:pypi/oneflow-onnx@0.5.4",
      "modified": false
    },
    {
      "type": "library",
      "publisher": "The Pandas Development Team",
      "name": "pandas",
      "version": "1.4.2",
      "description": "Powerful data structures for data analysis, time series, and statistics",
      "hashes": [
        {
          "alg": "MD5",
          "content": "d03e1ba43fac967c83ca8223248cc32f"
        },
        {
          "alg": "SHA-256",
          "content": "09d8be7dd9e1c4c98224c4dfe8abd60d145d934e9fc1f5f411266308ae683e6a"
        }
      ],
      "licenses": [
        {
          "license": {
            "name": "BSD-3-Clause"
          }
        }
      ],
      "purl": "pkg:pypi/pandas@1.4.2",
      "modified": false
    },
    {
      "type": "library",
      "publisher": "The Menpo Team",
      "name": "menpo",
      "version": "0.11.0",
      "description": "A Python toolkit for handling annotated data",
      "hashes": [
        {
          "alg": "MD5",
          "content": "5cfd3da748853c5b43d179a9469288e5"
        },
        {
          "alg": "SHA-256",
          "content": "6298f93ab5c29331baa164c0c12453fcedf573b22c407d7caa413747404bf250"
        }
      ],
      "purl": "pkg:pypi/menpo@0.11.0",
      "modified": false
    },
    {
      "type": "library",
      "publisher": "Google Inc.",
      "name": "tensorflow",
      "version": "2.8.0",
      "description": "TensorFlow is an open source machine learning framework for everyone.",
      "hashes": [
        {
          "alg": "MD5",
          "content": "198e5d8efbc7b35d8e2b503eaeb7d2c7"
        },
        {
          "alg": "SHA-256",
          "content": "b360c13b3e58b9a5c0780cbdb6b549eea73f620275fa203f8508fe418ae02735"
        }
      ],
      "licenses": [
        {
          "license": {
            "name": "Apache 2.0"
          }
        }
      ],
      "purl": "pkg:pypi/tensorflow@2.8.0",
      "modified": false
    },
    {
      "type": "library",
      "publisher": "Google Inc.",
      "name": "tensorflow_addons",
      "version": "0.16.1",
      "description": "TensorFlow Addons.",
      "hashes": [
        {
          "alg": "MD5",
          "content": "8f6d0ceee5d09bebbc71f1a3cfe0a957"
        },
        {
          "alg": "SHA-256",
          "content": "4af94b46814769162f306deec70aaacfa73336639f1a31ee681147c0be29396a"
        }
      ],
      "licenses": [
        {
          "license": {
            "name": "Apache 2.0"
          }
        }
      ],
      "purl": "pkg:pypi/tensorflow-addons@0.16.1",
      "modified": false
    },
    {
      "type": "library",
      "publisher": "Michael Elsdoerfer",
      "name": "glob2",
      "version": "0.7",
      "description": "Version of the glob module that can capture patterns and supports recursive wildcards",
      "hashes": [
        {
          "alg": "MD5",
          "content": "762be5ff1a29c0c3a1564e949e5d1228"
        },
        {
          "alg": "SHA-256",
          "content": "85c3dbd07c8aa26d63d7aacee34fa86e9a91a3873bc30bf62ec46e531f92ab8c"
        }
      ],
      "licenses": [
        {
          "license": {
            "name": "BSD"
          }
        }
      ],
      "purl": "pkg:pypi/glob2@0.7",
      "modified": false
    },
    {
      "type": "library",
      "publisher": "The Horovod Authors",
      "name": "horovod",
      "version": "0.24.3",
      "description": "Distributed training framework for TensorFlow, Keras, PyTorch, and Apache MXNet.",
      "hashes": [
        {
          "alg": "MD5",
          "content": "259b1e91be2cbd0b5d2851026c4d92b8"
        },
        {
          "alg": "SHA-256",
          "content": "af24e4b1ed9adaa0db98f6375c023d438f65f116aa80ad5e7a321780362b3e7f"
        }
      ],
      "licenses": [
        {
          "license": {
            "name": "Apache 2.0"
          }
        }
      ],
      "purl": "pkg:pypi/horovod@0.24.3",
      "modified": false
    },
    {
      "type": "library",
      "publisher": "Amazon Web Services",
      "name": "mxboard",
      "version": "0.1.0",
      "description": "A logging tool for visualizing MXNet data in TensorBoard",
      "hashes": [
        {
          "alg": "MD5",
          "content": "7e652845e23e8148e1791a1ddf5c5f38"
        },
        {
          "alg": "SHA-256",
          "content": "4be0cad960cbc829fc4da448e0c80ad6d7b76657e1be1ad51dd6c34c374f8c06"
        }
      ],
      "licenses": [
        {
          "license": {
            "name": "Apache License 2.0"
          }
        }
      ],
      "purl": "pkg:pypi/mxboard@0.1.0",
      "modified": false
    },
    {
      "type": "library",
      "publisher": "Vladislav Sovrasov",
      "name": "ptflops",
      "version": "0.6.8",
      "description": "Flops counter for convolutional networks inpytorch framework",
      "hashes": [
        {
          "alg": "MD5",
          "content": "63f123b9204bee63c1c93f59f1258224"
        },
        {
          "alg": "SHA-256",
          "content": "acae4facf0e2044d7d56dc0540a6568f7bf9c08f58df01a43f717145ce09144a"
        }
      ],
      "licenses": [
        {
          "license": {
            "name": "MIT"
          }
        }
      ],
      "purl": "pkg:pypi/ptflops@0.6.8",
      "modified": false
    },
    {
      "type": "library",
      "publisher": "Ross Wightman",
      "name": "timm",
      "version": "0.5.4",
      "description": "(Unofficial) PyTorch Image Models",
      "hashes": [
        {
          "alg": "MD5",
          "content": "8b01fa2cf14a2909817e5d73aa07e52c"
        },
        {
          "alg": "SHA-256",
          "content": "0592c8fd2d46d0769c0b7e954b3dacea93769eee40dabb4bd7f2acb85243b588"
        }
      ],
      "purl": "pkg:pypi/timm@0.5.4",
      "modified": false
    },
    {
      "type": "library",
      "publisher": "Anders Krogh Mortensen",
      "name": "GPUtil",
      "version": "1.4.0",
      "description": "GPUtil is a Python module for getting the GPU status from NVIDA GPUs using nvidia-smi.",
      "hashes": [
        {
          "alg": "MD5",
          "content": "618fcda541d7cbf108903d1d02d111e9"
        },
        {
          "alg": "SHA-256",
          "content": "099e52c65e512cdfa8c8763fca67f5a5c2afb63469602d5dcb4d296b3661efb9"
        }
      ],
      "licenses": [
        {
          "license": {
            "name": "MIT"
          }
        }
      ],
      "purl": "pkg:pypi/gputil@1.4.0",
      "modified": false
    },
    {
      "type": "library",
      "publisher": "Francois Dang Ngoc",
      "name": "pyhocon",
      "version": "0.3.59",
      "description": "HOCON parser for Python",
      "hashes": [
        {
          "alg": "MD5",
          "content": "c44a7c6c9dcd09851db7bf3a8527e9cf"
        },
        {
          "alg": "SHA-256",
          "content": "bb0eee59b57ecea5c30d14efc7ee7e55c935d58f03025ccdfc49237e920aa48c"
        }
      ],
      "licenses": [
        {
          "license": {
            "name": "Apache License 2.0"
          }
        }
      ],
      "purl": "pkg:pypi/pyhocon@0.3.59",
      "modified": false
    },
    {
      "type": "library",
      "publisher": "Steven Diamond, Eric Chu, Stephen Boyd",
      "name": "cvxpy",
      "version": "1.2.0",
      "description": "A domain-specific language for modeling convex optimization problems in Python.",
      "hashes": [
        {
          "alg": "MD5",
          "content": "e209ac4c3d563bfbee7aa8f7dca717c5"
        },
        {
          "alg": "SHA-256",
          "content": "b83e1d8d91503842306ba8e72bec65a26663fd661b215c42c14117bc12e689df"
        }
      ],
      "licenses": [
        {
          "license": {
            "name": "Apache License, Version 2.0"
          }
        }
      ],
      "purl": "pkg:pypi/cvxpy@1.2.0",
      "modified": false
    },
    {
      "type": "library",
      "publisher": "FAIR",
      "name": "pytorch3d",
      "version": "0.6.2",
      "description": "PyTorch3D is FAIR's library of reusable components for deep Learning with 3D data.",
      "hashes": [
        {
          "alg": "MD5",
          "content": "10e083bdecf8fd8574ec8f708467be58"
        },
        {
          "alg": "SHA-256",
          "content": "81737ded7cc34c08cd7a2a09c3f7ac061b0e508aa631712f3778676200f0324d"
        }
      ],
      "purl": "pkg:pypi/pytorch3d@0.6.2",
      "modified": false
    },
    {
      "type": "library",
      "publisher": "Michael Dawson-Haggerty",
      "name": "trimesh",
      "version": "3.11.2",
      "description": "Import, export, process, analyze and view triangular meshes.",
      "hashes": [
        {
          "alg": "MD5",
          "content": "851243a9f13b1ba3781afd3d0de36287"
        },
        {
          "alg": "SHA-256",
          "content": "a2c2e3cc7014971f93ca06003dd7b6ccae49ad3cf5caaecb1093d7775d235556"
        }
      ],
      "licenses": [
        {
          "license": {
            "name": "MIT"
          }
        }
      ],
      "purl": "pkg:pypi/trimesh@3.11.2",
      "modified": false
    },
    {
      "type": "library",
      "publisher": "Chris P",
      "name": "plotly",
      "version": "5.7.0",
      "description": "An open-source, interactive data visualization library for Python",
      "hashes": [
        {
          "alg": "MD5",
          "content": "f65e4d67891f4a25c9c45e5530e43615"
        },
        {
          "alg": "SHA-256",
          "content": "3a35131762c6567813012462e1d496e1d3898f56ab3d386b32f103f7f0c79cf1"
        }
      ],
      "licenses": [
        {
          "license": {
            "name": "MIT"
          }
        }
      ],
      "purl": "pkg:pypi/plotly@5.7.0",
      "modified": false
    },
    {
      "type": "library",
      "publisher": "imageio contributors",
      "name": "imageio",
      "version": "2.19.0",
      "description": "Library for reading and writing a wide range of image, video, scientific, and volumetric data formats.",
      "hashes": [
        {
          "alg": "MD5",
          "content": "4ce303a3e877c63fc7ccaebb4b14cb11"
        },
        {
          "alg": "SHA-256",
          "content": "7e803cd50a6b271e96e18f14767f8c2e01f27b84f93768cf9f08ad5277e9d030"
        }
      ],
      "licenses": [
        {
          "license": {
            "name": "BSD-2-Clause"
          }
        }
      ],
      "purl": "pkg:pypi/imageio@2.19.0",
      "modified": false
    },
    {
      "type": "library",
      "name": "hashlib",
      "version": "20081119",
      "description": "Secure hash and message digest algorithm library",
      "hashes": [
        {
          "alg": "MD5",
          "content": "46e59db6d5cac34b3344ef0c30d0897f"
        },
        {
          "alg": "SHA-256",
          "content": "419de2fd10ae71ed9c6adcb55903f116abd1d8acc8c814dfd5f839b4d5013e38"
        }
      ],
      "purl": "pkg:pypi/hashlib@20081119",
      "modified": false
    },
    {
      "type": "library",
      "publisher": "William Falcon et al.",
      "name": "pytorch_lightning",
      "version": "1.6.3",
      "description": "PyTorch Lightning is the lightweight PyTorch wrapper for ML researchers. Scale your models. Write less boilerplate.",
      "hashes": [
        {
          "alg": "MD5",
          "content": "5a83c4904598f6403196a00227c31447"
        },
        {
          "alg": "SHA-256",
          "content": "5419adaee5bb8057b1dad69d2cbb79f823f54a94bb67cb47fe75cdf8c1bc5616"
        }
      ],
      "licenses": [
        {
          "license": {
            "name": "Apache-2.0"
          }
        }
      ],
      "purl": "pkg:pypi/pytorch-lightning@1.6.3",
      "modified": false
    },
    {
      "type": "library",
      "publisher": "Andrew Collette",
      "name": "h5py",
      "version": "3.6.0",
      "description": "Read and write HDF5 files from Python",
      "hashes": [
        {
          "alg": "MD5",
          "content": "5e5714151e127c50b6fc6aaec86fded6"
        },
        {
          "alg": "SHA-256",
          "content": "9fd8a14236fdd092a20c0bdf25c3aba3777718d266fabb0fdded4fcf252d1630"
        }
      ],
      "licenses": [
        {
          "license": {
            "name": "BSD"
          }
        }
      ],
      "purl": "pkg:pypi/h5py@3.6.0",
      "modified": false
    },
    {
      "type": "library",
      "publisher": "Keith Horwood",
      "name": "lib",
      "version": "4.0.0",
      "description": "Autocode standard library Python bindings",
      "hashes": [
        {
          "alg": "MD5",
          "content": "eaffba56dbe2fe4e80691dcae8768670"
        },
        {
          "alg": "SHA-256",
          "content": "d0a9e03b27d2b94c403f43c1af39366500032d587dcd45ffdf707131cbdf58c6"
        }
      ],
      "licenses": [
        {
          "license": {
            "name": "MIT"
          }
        }
      ],
      "purl": "pkg:pypi/lib@4.0.0",
      "modified": false
    },
    {
      "type": "library",
      "publisher": "Godefroid Chapelle",
      "name": "ipdb",
      "version": "0.13.9",
      "description": "IPython-enabled pdb",
      "hashes": [
        {
          "alg": "MD5",
          "content": "4f5ffb71cd6551319acf8cbceabd8936"
        },
        {
          "alg": "SHA-256",
          "content": "951bd9a64731c444fd907a5ce268543020086a697f6be08f7cc2c9a752a278c5"
        }
      ],
      "licenses": [
        {
          "license": {
            "name": "BSD"
          }
        }
      ],
      "purl": "pkg:pypi/ipdb@0.13.9",
      "modified": false
    },
    {
      "type": "library",
      "publisher": "Michael Waskom",
      "name": "seaborn",
      "version": "0.11.2",
      "description": "seaborn: statistical data visualization",
      "hashes": [
        {
          "alg": "MD5",
          "content": "810070dffd463ce0a251c3779a3883a9"
        },
        {
          "alg": "SHA-256",
          "content": "85a6baa9b55f81a0623abddc4a26b334653ff4c6b18c418361de19dbba0ef283"
        }
      ],
      "licenses": [
        {
          "license": {
            "name": "BSD (3-clause)"
          }
        }
      ],
      "purl": "pkg:pypi/seaborn@0.11.2",
      "modified": false
    },
    {
      "type": "library",
      "bom-ref": "pkg:pypi/torch@1.3.0",
      "group": "",
      "name": "torch",
      "version": "1.3.0",
      "description": "Tensors and Dynamic neural networks in Python with strong GPU acceleration",
      "hashes": [
        {
          "alg": "SHA-256",
          "content": "7499fbc00ebbb04b6a6cc77ba7055b3b93460da87139dd8aeb357c5446a44cf8"
        }
      ],
      "licenses": [
        {
          "license": {
            "name": "BSD-3"
          }
        }
      ],
      "purl": "pkg:pypi/torch@1.3.0",
      "externalReferences": [
        {
          "url": "https://pytorch.org/",
          "type": "website"
        }
      ]
    },
    {
      "type": "library",
      "bom-ref": "pkg:pypi/torchvision@0.5.0",
      "group": "",
      "name": "torchvision",
      "version": "0.5.0",
      "description": "image and video datasets and models for torch deep learning",
      "hashes": [
        {
          "alg": "SHA-256",
          "content": "35e9483858cf8a38debc647c74741605c5c12448d314aa96961082380aadf7e5"
        }
      ],
      "licenses": [
        {
          "license": {
            "id": "0BSD",
            "url": "https://opensource.org/licenses/0BSD"
          }
        }
      ],
      "purl": "pkg:pypi/torchvision@0.5.0",
      "externalReferences": [
        {
          "url": "https://github.com/pytorch/vision",
          "type": "vcs"
        }
      ]
    },
    {
      "type": "library",
      "bom-ref": "pkg:pypi/opencv-python@4.5.5.64",
      "group": "",
      "name": "opencv-python",
      "version": "4.5.5.64",
      "description": "Wrapper package for OpenCV python bindings.",
      "hashes": [
        {
          "alg": "SHA-256",
          "content": "a512a0c59b6fec0fac3844b2f47d6ecb1a9d18d235e6c5491ce8dbbe0663eae8"
        }
      ],
      "licenses": [
        {
          "license": {
            "id": "MIT",
            "url": "https://opensource.org/licenses/MIT"
          }
        }
      ],
      "purl": "pkg:pypi/opencv-python@4.5.5.64",
      "externalReferences": [
        {
          "url": "https://github.com/skvark/opencv-python",
          "type": "vcs"
        }
      ]
    },
    {
      "type": "library",
      "bom-ref": "pkg:pypi/scikit-learn@1.0.2",
      "group": "",
      "name": "scikit-learn",
      "version": "1.0.2",
      "description": "A set of python modules for machine learning and data mining",
      "hashes": [
        {
          "alg": "SHA-256",
          "content": "da3c84694ff693b5b3194d8752ccf935a665b8b5edc33a283122f4273ca3e687"
        }
      ],
      "licenses": [
        {
          "license": {
            "name": "new BSD"
          }
        }
      ],
      "purl": "pkg:pypi/scikit-learn@1.0.2",
      "externalReferences": [
        {
          "url": "http://scikit-learn.org",
          "type": "website"
        }
      ]
    },
    {
      "type": "library",
      "bom-ref": "pkg:pypi/matplotlib@3.5.2",
      "group": "",
      "name": "matplotlib",
      "version": "3.5.2",
      "description": "Python plotting package",
      "hashes": [
        {
          "alg": "SHA-256",
          "content": "03bbb3f5f78836855e127b5dab228d99551ad0642918ccbf3067fcd52ac7ac5e"
        }
      ],
      "licenses": [
        {
          "license": {
            "name": "PSF"
          }
        }
      ],
      "purl": "pkg:pypi/matplotlib@3.5.2",
      "externalReferences": [
        {
          "url": "https://matplotlib.org",
          "type": "website"
        }
      ]
    },
    {
      "type": "library",
      "bom-ref": "pkg:pypi/pyyaml@6.0",
      "group": "",
      "name": "pyyaml",
      "version": "6.0",
      "description": "YAML parser and emitter for Python",
      "hashes": [
        {
          "alg": "SHA-256",
          "content": "d4db7c7aef085872ef65a8fd7d6d09a14ae91f691dec3e87ee5ee0539d516f53"
        }
      ],
      "licenses": [
        {
          "license": {
            "id": "MIT",
            "url": "https://opensource.org/licenses/MIT"
          }
        }
      ],
      "purl": "pkg:pypi/pyyaml@6.0",
      "externalReferences": [
        {
          "url": "https://pyyaml.org/",
          "type": "website"
        }
      ]
    },
    {
      "type": "library",
      "bom-ref": "pkg:pypi/-r requirements/build.txt",
      "group": "",
      "name": "-r requirements/build.txt",
      "version": "0.0.0",
      "description": "",
      "purl": "pkg:pypi/-r requirements/build.txt"
    },
    {
      "type": "library",
      "bom-ref": "pkg:pypi/-r requirements/optional.txt",
      "group": "",
      "name": "-r requirements/optional.txt",
      "version": "0.0.0",
      "description": "",
      "purl": "pkg:pypi/-r requirements/optional.txt"
    },
    {
      "type": "library",
      "bom-ref": "pkg:pypi/-r requirements/runtime.txt",
      "group": "",
      "name": "-r requirements/runtime.txt",
      "version": "0.0.0",
      "description": "",
      "purl": "pkg:pypi/-r requirements/runtime.txt"
    },
    {
      "type": "library",
      "bom-ref": "pkg:pypi/-r requirements/tests.txt",
      "group": "",
      "name": "-r requirements/tests.txt",
      "version": "0.0.0",
      "description": "",
      "purl": "pkg:pypi/-r requirements/tests.txt"
    },
    {
      "type": "library",
      "bom-ref": "pkg:pypi/pillow@9.1.0",
      "group": "",
      "name": "Pillow",
      "version": "9.1.0",
      "description": "Python Imaging Library (Fork)",
      "hashes": [
        {
          "alg": "SHA-256",
          "content": "af79d3fde1fc2e33561166d62e3b63f0cc3e47b5a3a2e5fea40d4917754734ea"
        }
      ],
      "licenses": [
        {
          "license": {
            "id": "HPND",
            "url": "https://opensource.org/licenses/HPND"
          }
        }
      ],
      "purl": "pkg:pypi/pillow@9.1.0",
      "externalReferences": [
        {
          "url": "https://python-pillow.org",
          "type": "website"
        }
      ]
    },
    {
      "type": "library",
      "bom-ref": "pkg:pypi/horovod@0.24",
      "group": "",
      "name": "horovod",
      "version": "0.24",
      "description": "Distributed training framework for TensorFlow, Keras, PyTorch, and Apache MXNet.",
      "licenses": [
        {
          "license": {
            "id": "Apache-2.0",
            "url": "https://opensource.org/licenses/Apache-2.0"
          }
        }
      ],
      "purl": "pkg:pypi/horovod@0.24",
      "externalReferences": [
        {
          "url": "https://github.com/horovod/horovod",
          "type": "vcs"
        }
      ]
    },
    {
      "type": "library",
      "bom-ref": "pkg:pypi/opencv-python@4.2.0.34",
      "group": "",
      "name": "opencv-python",
      "version": "4.2.0.34",
      "description": "Wrapper package for OpenCV python bindings.",
      "hashes": [
        {
          "alg": "SHA-256",
          "content": "e3c57d6579e5bf85f564d6d48d8ee89868b92879a9232b9975d072c346625e92"
        }
      ],
      "licenses": [
        {
          "license": {
            "id": "MIT",
            "url": "https://opensource.org/licenses/MIT"
          }
        }
      ],
      "purl": "pkg:pypi/opencv-python@4.2.0.34",
      "externalReferences": [
        {
          "url": "https://github.com/skvark/opencv-python",
          "type": "vcs"
        }
      ]
    },
    {
      "type": "library",
      "bom-ref": "pkg:pypi/tqdm@4.48.2",
      "group": "",
      "name": "tqdm",
      "version": "4.48.2",
      "description": "Fast, Extensible Progress Meter",
      "hashes": [
        {
          "alg": "SHA-256",
          "content": "1a336d2b829be50e46b84668691e0a2719f26c97c62846298dd5ae2937e4d5cf"
        }
      ],
      "licenses": [
        {
          "license": {
            "name": "MPLv2.0, MIT Licences"
          }
        }
      ],
      "purl": "pkg:pypi/tqdm@4.48.2",
      "externalReferences": [
        {
          "url": "https://tqdm.github.io",
          "type": "vcs"
        }
      ]
    },
    {
      "type": "library",
      "bom-ref": "pkg:pypi/sklearn@0.0",
      "group": "",
      "name": "sklearn",
      "version": "0.0",
      "description": "A set of python modules for machine learning and data mining",
      "hashes": [
        {
          "alg": "SHA-256",
          "content": "e23001573aa194b834122d2b9562459bf5ae494a2d59ca6b8aa22c85a44c0e31"
        }
      ],
      "licenses": [
        {
          "license": {
            "name": "UNKNOWN"
          }
        }
      ],
      "purl": "pkg:pypi/sklearn@0.0",
      "externalReferences": [
        {
          "url": "https://pypi.python.org/pypi/scikit-learn/",
          "type": "website"
        }
      ]
    },
    {
      "type": "library",
      "bom-ref": "pkg:pypi/vtk@9.1.0",
      "group": "",
      "name": "vtk",
      "version": "9.1.0",
      "description": "VTK is an open-source toolkit for 3D computer graphics, image processing, and visualization",
      "hashes": [
        {
          "alg": "SHA-256",
          "content": "1807795686eb19953772f944062f1c0f028d11ba2c213eff2da85c4ba457baed"
        }
      ],
      "licenses": [
        {
          "license": {
            "id": "0BSD",
            "url": "https://opensource.org/licenses/0BSD"
          }
        }
      ],
      "purl": "pkg:pypi/vtk@9.1.0",
      "externalReferences": [
        {
          "url": "https://vtk.org",
          "type": "website"
        }
      ]
    },
    {
      "type": "library",
      "bom-ref": "pkg:pypi/scikit-image@0.19.2",
      "group": "",
      "name": "scikit-image",
      "version": "0.19.2",
      "description": "Image processing in Python",
      "hashes": [
        {
          "alg": "SHA-256",
          "content": "935c95d207c9bcaff20b69164401089ef2efd7f89dbbbf13ab75a5f65ff695b5"
        }
      ],
      "licenses": [
        {
          "license": {
            "name": "Modified BSD"
          }
        }
      ],
      "purl": "pkg:pypi/scikit-image@0.19.2",
      "externalReferences": [
        {
          "url": "https://scikit-image.org",
          "type": "website"
        }
      ]
    },
    {
      "type": "library",
      "bom-ref": "pkg:pypi/cmake@3.22.3",
      "group": "",
      "name": "cmake",
      "version": "3.22.3",
      "description": "CMake is an open-source, cross-platform family of tools designed to build, test and package software",
      "hashes": [
        {
          "alg": "SHA-256",
          "content": "d387e4062541094d302c80b3beed08cfa4f2ef98454d04f34fd1071c595152d8"
        }
      ],
      "licenses": [
        {
          "license": {
            "id": "Apache-2.0",
            "url": "https://opensource.org/licenses/Apache-2.0"
          }
        }
      ],
      "purl": "pkg:pypi/cmake@3.22.3",
      "externalReferences": [
        {
          "url": "https://cmake.org/",
          "type": "website"
        }
      ]
    }
  ]
}
