{
  "bomFormat": "CycloneDX",
  "specVersion": "1.3",
  "version": 1,
  "metadata": {
    "tools": [
      {
        "vendor": "CycloneDX",
        "name": "Node.js module",
        "version": "3.0.3"
      },
      {
        "vendor": "AppThreat",
        "name": "cdxgen",
        "version": "3.0.10"
      },
      {
        "vendor": "Fortress Information Security",
        "name": "Github Extractor",
        "version": "1.15.1"
      }
    ],
    "authors": [
      {
        "name": "Fortress Information Security",
        "email": "sales@fortressinfosec.com",
        "phone": "1-407-573-6800"
      }
    ],
    "timestamp": "2022-06-01T21:00:00Z",
    "component": {
      "type": "application",
      "name": "Hours",
      "version": "",
      "group": "DefactoSoftware",
      "externalReferences": [
        {
          "url": "https://github.com/DefactoSoftware/Hours.git",
          "type": "distribution"
        },
        {
          "type": "website",
          "url": "https://happyhours.io",
          "comment": "As set via `homepage` in Github API"
        }
      ]
    }
  },
  "components": [
    {
      "type": "library",
      "bom-ref": "pkg:rubygems/actioncable@5.0.7.2",
      "group": "",
      "name": "actioncable",
      "version": "5.0.7.2",
      "description": "",
      "purl": "pkg:rubygems/actioncable@5.0.7.2"
    },
    {
      "type": "library",
      "bom-ref": "pkg:rubygems/actionmailer@5.0.7.2",
      "group": "",
      "name": "actionmailer",
      "version": "5.0.7.2",
      "description": "",
      "purl": "pkg:rubygems/actionmailer@5.0.7.2"
    },
    {
      "type": "library",
      "bom-ref": "pkg:rubygems/actionpack@5.0.7.2",
      "group": "",
      "name": "actionpack",
      "version": "5.0.7.2",
      "description": "",
      "purl": "pkg:rubygems/actionpack@5.0.7.2"
    },
    {
      "type": "library",
      "bom-ref": "pkg:rubygems/actionview@5.0.7.2",
      "group": "",
      "name": "actionview",
      "version": "5.0.7.2",
      "description": "",
      "purl": "pkg:rubygems/actionview@5.0.7.2"
    },
    {
      "type": "library",
      "bom-ref": "pkg:rubygems/activejob@5.0.7.2",
      "group": "",
      "name": "activejob",
      "version": "5.0.7.2",
      "description": "",
      "purl": "pkg:rubygems/activejob@5.0.7.2"
    },
    {
      "type": "library",
      "bom-ref": "pkg:rubygems/activemodel@5.0.7.2",
      "group": "",
      "name": "activemodel",
      "version": "5.0.7.2",
      "description": "",
      "purl": "pkg:rubygems/activemodel@5.0.7.2"
    },
    {
      "type": "library",
      "bom-ref": "pkg:rubygems/activerecord@5.0.7.2",
      "group": "",
      "name": "activerecord",
      "version": "5.0.7.2",
      "description": "",
      "purl": "pkg:rubygems/activerecord@5.0.7.2"
    },
    {
      "type": "library",
      "bom-ref": "pkg:rubygems/activesupport@5.0.7.2",
      "group": "",
      "name": "activesupport",
      "version": "5.0.7.2",
      "description": "",
      "purl": "pkg:rubygems/activesupport@5.0.7.2"
    },
    {
      "type": "library",
      "bom-ref": "pkg:rubygems/addressable@2.7.0",
      "group": "",
      "name": "addressable",
      "version": "2.7.0",
      "description": "",
      "purl": "pkg:rubygems/addressable@2.7.0"
    },
    {
      "type": "library",
      "bom-ref": "pkg:rubygems/airbrake@8.1.2",
      "group": "",
      "name": "airbrake",
      "version": "8.1.2",
      "description": "",
      "purl": "pkg:rubygems/airbrake@8.1.2"
    },
    {
      "type": "library",
      "bom-ref": "pkg:rubygems/airbrake-ruby@3.2.4",
      "group": "",
      "name": "airbrake-ruby",
      "version": "3.2.4",
      "description": "",
      "purl": "pkg:rubygems/airbrake-ruby@3.2.4"
    },
    {
      "type": "library",
      "bom-ref": "pkg:rubygems/annotate@3.0.3",
      "group": "",
      "name": "annotate",
      "version": "3.0.3",
      "description": "",
      "purl": "pkg:rubygems/annotate@3.0.3"
    },
    {
      "type": "library",
      "bom-ref": "pkg:rubygems/apartment@2.2.1",
      "group": "",
      "name": "apartment",
      "version": "2.2.1",
      "description": "",
      "purl": "pkg:rubygems/apartment@2.2.1"
    },
    {
      "type": "library",
      "bom-ref": "pkg:rubygems/arel@7.1.4",
      "group": "",
      "name": "arel",
      "version": "7.1.4",
      "description": "",
      "purl": "pkg:rubygems/arel@7.1.4"
    },
    {
      "type": "library",
      "bom-ref": "pkg:rubygems/audited@4.9.0",
      "group": "",
      "name": "audited",
      "version": "4.9.0",
      "description": "",
      "purl": "pkg:rubygems/audited@4.9.0"
    },
    {
      "type": "library",
      "bom-ref": "pkg:rubygems/aws-partitions@1.56.0",
      "group": "",
      "name": "aws-partitions",
      "version": "1.56.0",
      "description": "",
      "purl": "pkg:rubygems/aws-partitions@1.56.0"
    },
    {
      "type": "library",
      "bom-ref": "pkg:rubygems/aws-sdk@3.0.1",
      "group": "",
      "name": "aws-sdk",
      "version": "3.0.1",
      "description": "",
      "purl": "pkg:rubygems/aws-sdk@3.0.1"
    },
    {
      "type": "library",
      "bom-ref": "pkg:rubygems/aws-sdk-acm@1.2.0",
      "group": "",
      "name": "aws-sdk-acm",
      "version": "1.2.0",
      "description": "",
      "purl": "pkg:rubygems/aws-sdk-acm@1.2.0"
    },
    {
      "type": "library",
      "bom-ref": "pkg:rubygems/aws-sdk-alexaforbusiness@1.0.0",
      "group": "",
      "name": "aws-sdk-alexaforbusiness",
      "version": "1.0.0",
      "description": "",
      "purl": "pkg:rubygems/aws-sdk-alexaforbusiness@1.0.0"
    },
    {
      "type": "library",
      "bom-ref": "pkg:rubygems/aws-sdk-apigateway@1.9.0",
      "group": "",
      "name": "aws-sdk-apigateway",
      "version": "1.9.0",
      "description": "",
      "purl": "pkg:rubygems/aws-sdk-apigateway@1.9.0"
    },
    {
      "type": "library",
      "bom-ref": "pkg:rubygems/aws-sdk-applicationautoscaling@1.7.0",
      "group": "",
      "name": "aws-sdk-applicationautoscaling",
      "version": "1.7.0",
      "description": "",
      "purl": "pkg:rubygems/aws-sdk-applicationautoscaling@1.7.0"
    },
    {
      "type": "library",
      "bom-ref": "pkg:rubygems/aws-sdk-applicationdiscoveryservice@1.1.0",
      "group": "",
      "name": "aws-sdk-applicationdiscoveryservice",
      "version": "1.1.0",
      "description": "",
      "purl": "pkg:rubygems/aws-sdk-applicationdiscoveryservice@1.1.0"
    },
    {
      "type": "library",
      "bom-ref": "pkg:rubygems/aws-sdk-appstream@1.4.0",
      "group": "",
      "name": "aws-sdk-appstream",
      "version": "1.4.0",
      "description": "",
      "purl": "pkg:rubygems/aws-sdk-appstream@1.4.0"
    },
    {
      "type": "library",
      "bom-ref": "pkg:rubygems/aws-sdk-appsync@1.0.0",
      "group": "",
      "name": "aws-sdk-appsync",
      "version": "1.0.0",
      "description": "",
      "purl": "pkg:rubygems/aws-sdk-appsync@1.0.0"
    },
    {
      "type": "library",
      "bom-ref": "pkg:rubygems/aws-sdk-athena@1.0.0",
      "group": "",
      "name": "aws-sdk-athena",
      "version": "1.0.0",
      "description": "",
      "purl": "pkg:rubygems/aws-sdk-athena@1.0.0"
    },
    {
      "type": "library",
      "bom-ref": "pkg:rubygems/aws-sdk-autoscaling@1.4.0",
      "group": "",
      "name": "aws-sdk-autoscaling",
      "version": "1.4.0",
      "description": "",
      "purl": "pkg:rubygems/aws-sdk-autoscaling@1.4.0"
    },
    {
      "type": "library",
      "bom-ref": "pkg:rubygems/aws-sdk-autoscalingplans@1.1.0",
      "group": "",
      "name": "aws-sdk-autoscalingplans",
      "version": "1.1.0",
      "description": "",
      "purl": "pkg:rubygems/aws-sdk-autoscalingplans@1.1.0"
    },
    {
      "type": "library",
      "bom-ref": "pkg:rubygems/aws-sdk-batch@1.3.0",
      "group": "",
      "name": "aws-sdk-batch",
      "version": "1.3.0",
      "description": "",
      "purl": "pkg:rubygems/aws-sdk-batch@1.3.0"
    },
    {
      "type": "library",
      "bom-ref": "pkg:rubygems/aws-sdk-budgets@1.4.0",
      "group": "",
      "name": "aws-sdk-budgets",
      "version": "1.4.0",
      "description": "",
      "purl": "pkg:rubygems/aws-sdk-budgets@1.4.0"
    },
    {
      "type": "library",
      "bom-ref": "pkg:rubygems/aws-sdk-cloud9@1.0.0",
      "group": "",
      "name": "aws-sdk-cloud9",
      "version": "1.0.0",
      "description": "",
      "purl": "pkg:rubygems/aws-sdk-cloud9@1.0.0"
    },
    {
      "type": "library",
      "bom-ref": "pkg:rubygems/aws-sdk-clouddirectory@1.1.0",
      "group": "",
      "name": "aws-sdk-clouddirectory",
      "version": "1.1.0",
      "description": "",
      "purl": "pkg:rubygems/aws-sdk-clouddirectory@1.1.0"
    },
    {
      "type": "library",
      "bom-ref": "pkg:rubygems/aws-sdk-cloudformation@1.3.0",
      "group": "",
      "name": "aws-sdk-cloudformation",
      "version": "1.3.0",
      "description": "",
      "purl": "pkg:rubygems/aws-sdk-cloudformation@1.3.0"
    },
    {
      "type": "library",
      "bom-ref": "pkg:rubygems/aws-sdk-cloudfront@1.1.0",
      "group": "",
      "name": "aws-sdk-cloudfront",
      "version": "1.1.0",
      "description": "",
      "purl": "pkg:rubygems/aws-sdk-cloudfront@1.1.0"
    },
    {
      "type": "library",
      "bom-ref": "pkg:rubygems/aws-sdk-cloudhsm@1.3.0",
      "group": "",
      "name": "aws-sdk-cloudhsm",
      "version": "1.3.0",
      "description": "",
      "purl": "pkg:rubygems/aws-sdk-cloudhsm@1.3.0"
    },
    {
      "type": "library",
      "bom-ref": "pkg:rubygems/aws-sdk-cloudhsmv2@1.1.0",
      "group": "",
      "name": "aws-sdk-cloudhsmv2",
      "version": "1.1.0",
      "description": "",
      "purl": "pkg:rubygems/aws-sdk-cloudhsmv2@1.1.0"
    },
    {
      "type": "library",
      "bom-ref": "pkg:rubygems/aws-sdk-cloudsearch@1.0.0",
      "group": "",
      "name": "aws-sdk-cloudsearch",
      "version": "1.0.0",
      "description": "",
      "purl": "pkg:rubygems/aws-sdk-cloudsearch@1.0.0"
    },
    {
      "type": "library",
      "bom-ref": "pkg:rubygems/aws-sdk-cloudsearchdomain@1.0.0",
      "group": "",
      "name": "aws-sdk-cloudsearchdomain",
      "version": "1.0.0",
      "description": "",
      "purl": "pkg:rubygems/aws-sdk-cloudsearchdomain@1.0.0"
    },
    {
      "type": "library",
      "bom-ref": "pkg:rubygems/aws-sdk-cloudtrail@1.0.0",
      "group": "",
      "name": "aws-sdk-cloudtrail",
      "version": "1.0.0",
      "description": "",
      "purl": "pkg:rubygems/aws-sdk-cloudtrail@1.0.0"
    },
    {
      "type": "library",
      "bom-ref": "pkg:rubygems/aws-sdk-cloudwatch@1.4.0",
      "group": "",
      "name": "aws-sdk-cloudwatch",
      "version": "1.4.0",
      "description": "",
      "purl": "pkg:rubygems/aws-sdk-cloudwatch@1.4.0"
    },
    {
      "type": "library",
      "bom-ref": "pkg:rubygems/aws-sdk-cloudwatchevents@1.1.0",
      "group": "",
      "name": "aws-sdk-cloudwatchevents",
      "version": "1.1.0",
      "description": "",
      "purl": "pkg:rubygems/aws-sdk-cloudwatchevents@1.1.0"
    },
    {
      "type": "library",
      "bom-ref": "pkg:rubygems/aws-sdk-cloudwatchlogs@1.2.0",
      "group": "",
      "name": "aws-sdk-cloudwatchlogs",
      "version": "1.2.0",
      "description": "",
      "purl": "pkg:rubygems/aws-sdk-cloudwatchlogs@1.2.0"
    },
    {
      "type": "library",
      "bom-ref": "pkg:rubygems/aws-sdk-codebuild@1.5.0",
      "group": "",
      "name": "aws-sdk-codebuild",
      "version": "1.5.0",
      "description": "",
      "purl": "pkg:rubygems/aws-sdk-codebuild@1.5.0"
    },
    {
      "type": "library",
      "bom-ref": "pkg:rubygems/aws-sdk-codecommit@1.2.0",
      "group": "",
      "name": "aws-sdk-codecommit",
      "version": "1.2.0",
      "description": "",
      "purl": "pkg:rubygems/aws-sdk-codecommit@1.2.0"
    },
    {
      "type": "library",
      "bom-ref": "pkg:rubygems/aws-sdk-codedeploy@1.3.0",
      "group": "",
      "name": "aws-sdk-codedeploy",
      "version": "1.3.0",
      "description": "",
      "purl": "pkg:rubygems/aws-sdk-codedeploy@1.3.0"
    },
    {
      "type": "library",
      "bom-ref": "pkg:rubygems/aws-sdk-codepipeline@1.1.0",
      "group": "",
      "name": "aws-sdk-codepipeline",
      "version": "1.1.0",
      "description": "",
      "purl": "pkg:rubygems/aws-sdk-codepipeline@1.1.0"
    },
    {
      "type": "library",
      "bom-ref": "pkg:rubygems/aws-sdk-codestar@1.1.0",
      "group": "",
      "name": "aws-sdk-codestar",
      "version": "1.1.0",
      "description": "",
      "purl": "pkg:rubygems/aws-sdk-codestar@1.1.0"
    },
    {
      "type": "library",
      "bom-ref": "pkg:rubygems/aws-sdk-cognitoidentity@1.0.0",
      "group": "",
      "name": "aws-sdk-cognitoidentity",
      "version": "1.0.0",
      "description": "",
      "purl": "pkg:rubygems/aws-sdk-cognitoidentity@1.0.0"
    },
    {
      "type": "library",
      "bom-ref": "pkg:rubygems/aws-sdk-cognitoidentityprovider@1.2.0",
      "group": "",
      "name": "aws-sdk-cognitoidentityprovider",
      "version": "1.2.0",
      "description": "",
      "purl": "pkg:rubygems/aws-sdk-cognitoidentityprovider@1.2.0"
    },
    {
      "type": "library",
      "bom-ref": "pkg:rubygems/aws-sdk-cognitosync@1.0.0",
      "group": "",
      "name": "aws-sdk-cognitosync",
      "version": "1.0.0",
      "description": "",
      "purl": "pkg:rubygems/aws-sdk-cognitosync@1.0.0"
    },
    {
      "type": "library",
      "bom-ref": "pkg:rubygems/aws-sdk-comprehend@1.0.0",
      "group": "",
      "name": "aws-sdk-comprehend",
      "version": "1.0.0",
      "description": "",
      "purl": "pkg:rubygems/aws-sdk-comprehend@1.0.0"
    },
    {
      "type": "library",
      "bom-ref": "pkg:rubygems/aws-sdk-configservice@1.5.0",
      "group": "",
      "name": "aws-sdk-configservice",
      "version": "1.5.0",
      "description": "",
      "purl": "pkg:rubygems/aws-sdk-configservice@1.5.0"
    },
    {
      "type": "library",
      "bom-ref": "pkg:rubygems/aws-sdk-core@3.14.0",
      "group": "",
      "name": "aws-sdk-core",
      "version": "3.14.0",
      "description": "",
      "purl": "pkg:rubygems/aws-sdk-core@3.14.0"
    },
    {
      "type": "library",
      "bom-ref": "pkg:rubygems/aws-sdk-costandusagereportservice@1.0.0",
      "group": "",
      "name": "aws-sdk-costandusagereportservice",
      "version": "1.0.0",
      "description": "",
      "purl": "pkg:rubygems/aws-sdk-costandusagereportservice@1.0.0"
    },
    {
      "type": "library",
      "bom-ref": "pkg:rubygems/aws-sdk-costexplorer@1.0.0",
      "group": "",
      "name": "aws-sdk-costexplorer",
      "version": "1.0.0",
      "description": "",
      "purl": "pkg:rubygems/aws-sdk-costexplorer@1.0.0"
    },
    {
      "type": "library",
      "bom-ref": "pkg:rubygems/aws-sdk-databasemigrationservice@1.3.0",
      "group": "",
      "name": "aws-sdk-databasemigrationservice",
      "version": "1.3.0",
      "description": "",
      "purl": "pkg:rubygems/aws-sdk-databasemigrationservice@1.3.0"
    },
    {
      "type": "library",
      "bom-ref": "pkg:rubygems/aws-sdk-datapipeline@1.0.0",
      "group": "",
      "name": "aws-sdk-datapipeline",
      "version": "1.0.0",
      "description": "",
      "purl": "pkg:rubygems/aws-sdk-datapipeline@1.0.0"
    },
    {
      "type": "library",
      "bom-ref": "pkg:rubygems/aws-sdk-dax@1.0.0",
      "group": "",
      "name": "aws-sdk-dax",
      "version": "1.0.0",
      "description": "",
      "purl": "pkg:rubygems/aws-sdk-dax@1.0.0"
    },
    {
      "type": "library",
      "bom-ref": "pkg:rubygems/aws-sdk-devicefarm@1.2.0",
      "group": "",
      "name": "aws-sdk-devicefarm",
      "version": "1.2.0",
      "description": "",
      "purl": "pkg:rubygems/aws-sdk-devicefarm@1.2.0"
    },
    {
      "type": "library",
      "bom-ref": "pkg:rubygems/aws-sdk-directconnect@1.1.0",
      "group": "",
      "name": "aws-sdk-directconnect",
      "version": "1.1.0",
      "description": "",
      "purl": "pkg:rubygems/aws-sdk-directconnect@1.1.0"
    },
    {
      "type": "library",
      "bom-ref": "pkg:rubygems/aws-sdk-directoryservice@1.1.0",
      "group": "",
      "name": "aws-sdk-directoryservice",
      "version": "1.1.0",
      "description": "",
      "purl": "pkg:rubygems/aws-sdk-directoryservice@1.1.0"
    },
    {
      "type": "library",
      "bom-ref": "pkg:rubygems/aws-sdk-dynamodb@1.3.0",
      "group": "",
      "name": "aws-sdk-dynamodb",
      "version": "1.3.0",
      "description": "",
      "purl": "pkg:rubygems/aws-sdk-dynamodb@1.3.0"
    },
    {
      "type": "library",
      "bom-ref": "pkg:rubygems/aws-sdk-dynamodbstreams@1.0.0",
      "group": "",
      "name": "aws-sdk-dynamodbstreams",
      "version": "1.0.0",
      "description": "",
      "purl": "pkg:rubygems/aws-sdk-dynamodbstreams@1.0.0"
    },
    {
      "type": "library",
      "bom-ref": "pkg:rubygems/aws-sdk-ec2@1.25.0",
      "group": "",
      "name": "aws-sdk-ec2",
      "version": "1.25.0",
      "description": "",
      "purl": "pkg:rubygems/aws-sdk-ec2@1.25.0"
    },
    {
      "type": "library",
      "bom-ref": "pkg:rubygems/aws-sdk-ecr@1.2.0",
      "group": "",
      "name": "aws-sdk-ecr",
      "version": "1.2.0",
      "description": "",
      "purl": "pkg:rubygems/aws-sdk-ecr@1.2.0"
    },
    {
      "type": "library",
      "bom-ref": "pkg:rubygems/aws-sdk-ecs@1.8.0",
      "group": "",
      "name": "aws-sdk-ecs",
      "version": "1.8.0",
      "description": "",
      "purl": "pkg:rubygems/aws-sdk-ecs@1.8.0"
    },
    {
      "type": "library",
      "bom-ref": "pkg:rubygems/aws-sdk-efs@1.0.0",
      "group": "",
      "name": "aws-sdk-efs",
      "version": "1.0.0",
      "description": "",
      "purl": "pkg:rubygems/aws-sdk-efs@1.0.0"
    },
    {
      "type": "library",
      "bom-ref": "pkg:rubygems/aws-sdk-elasticache@1.3.0",
      "group": "",
      "name": "aws-sdk-elasticache",
      "version": "1.3.0",
      "description": "",
      "purl": "pkg:rubygems/aws-sdk-elasticache@1.3.0"
    },
    {
      "type": "library",
      "bom-ref": "pkg:rubygems/aws-sdk-elasticbeanstalk@1.3.0",
      "group": "",
      "name": "aws-sdk-elasticbeanstalk",
      "version": "1.3.0",
      "description": "",
      "purl": "pkg:rubygems/aws-sdk-elasticbeanstalk@1.3.0"
    },
    {
      "type": "library",
      "bom-ref": "pkg:rubygems/aws-sdk-elasticloadbalancing@1.2.0",
      "group": "",
      "name": "aws-sdk-elasticloadbalancing",
      "version": "1.2.0",
      "description": "",
      "purl": "pkg:rubygems/aws-sdk-elasticloadbalancing@1.2.0"
    },
    {
      "type": "library",
      "bom-ref": "pkg:rubygems/aws-sdk-elasticloadbalancingv2@1.7.0",
      "group": "",
      "name": "aws-sdk-elasticloadbalancingv2",
      "version": "1.7.0",
      "description": "",
      "purl": "pkg:rubygems/aws-sdk-elasticloadbalancingv2@1.7.0"
    },
    {
      "type": "library",
      "bom-ref": "pkg:rubygems/aws-sdk-elasticsearchservice@1.3.0",
      "group": "",
      "name": "aws-sdk-elasticsearchservice",
      "version": "1.3.0",
      "description": "",
      "purl": "pkg:rubygems/aws-sdk-elasticsearchservice@1.3.0"
    },
    {
      "type": "library",
      "bom-ref": "pkg:rubygems/aws-sdk-elastictranscoder@1.0.0",
      "group": "",
      "name": "aws-sdk-elastictranscoder",
      "version": "1.0.0",
      "description": "",
      "purl": "pkg:rubygems/aws-sdk-elastictranscoder@1.0.0"
    },
    {
      "type": "library",
      "bom-ref": "pkg:rubygems/aws-sdk-emr@1.1.0",
      "group": "",
      "name": "aws-sdk-emr",
      "version": "1.1.0",
      "description": "",
      "purl": "pkg:rubygems/aws-sdk-emr@1.1.0"
    },
    {
      "type": "library",
      "bom-ref": "pkg:rubygems/aws-sdk-firehose@1.1.0",
      "group": "",
      "name": "aws-sdk-firehose",
      "version": "1.1.0",
      "description": "",
      "purl": "pkg:rubygems/aws-sdk-firehose@1.1.0"
    },
    {
      "type": "library",
      "bom-ref": "pkg:rubygems/aws-sdk-gamelift@1.1.0",
      "group": "",
      "name": "aws-sdk-gamelift",
      "version": "1.1.0",
      "description": "",
      "purl": "pkg:rubygems/aws-sdk-gamelift@1.1.0"
    },
    {
      "type": "library",
      "bom-ref": "pkg:rubygems/aws-sdk-glacier@1.5.0",
      "group": "",
      "name": "aws-sdk-glacier",
      "version": "1.5.0",
      "description": "",
      "purl": "pkg:rubygems/aws-sdk-glacier@1.5.0"
    },
    {
      "type": "library",
      "bom-ref": "pkg:rubygems/aws-sdk-glue@1.4.0",
      "group": "",
      "name": "aws-sdk-glue",
      "version": "1.4.0",
      "description": "",
      "purl": "pkg:rubygems/aws-sdk-glue@1.4.0"
    },
    {
      "type": "library",
      "bom-ref": "pkg:rubygems/aws-sdk-greengrass@1.2.0",
      "group": "",
      "name": "aws-sdk-greengrass",
      "version": "1.2.0",
      "description": "",
      "purl": "pkg:rubygems/aws-sdk-greengrass@1.2.0"
    },
    {
      "type": "library",
      "bom-ref": "pkg:rubygems/aws-sdk-guardduty@1.0.0",
      "group": "",
      "name": "aws-sdk-guardduty",
      "version": "1.0.0",
      "description": "",
      "purl": "pkg:rubygems/aws-sdk-guardduty@1.0.0"
    },
    {
      "type": "library",
      "bom-ref": "pkg:rubygems/aws-sdk-health@1.0.0",
      "group": "",
      "name": "aws-sdk-health",
      "version": "1.0.0",
      "description": "",
      "purl": "pkg:rubygems/aws-sdk-health@1.0.0"
    },
    {
      "type": "library",
      "bom-ref": "pkg:rubygems/aws-sdk-iam@1.3.0",
      "group": "",
      "name": "aws-sdk-iam",
      "version": "1.3.0",
      "description": "",
      "purl": "pkg:rubygems/aws-sdk-iam@1.3.0"
    },
    {
      "type": "library",
      "bom-ref": "pkg:rubygems/aws-sdk-importexport@1.0.0",
      "group": "",
      "name": "aws-sdk-importexport",
      "version": "1.0.0",
      "description": "",
      "purl": "pkg:rubygems/aws-sdk-importexport@1.0.0"
    },
    {
      "type": "library",
      "bom-ref": "pkg:rubygems/aws-sdk-inspector@1.3.0",
      "group": "",
      "name": "aws-sdk-inspector",
      "version": "1.3.0",
      "description": "",
      "purl": "pkg:rubygems/aws-sdk-inspector@1.3.0"
    },
    {
      "type": "library",
      "bom-ref": "pkg:rubygems/aws-sdk-iot@1.3.0",
      "group": "",
      "name": "aws-sdk-iot",
      "version": "1.3.0",
      "description": "",
      "purl": "pkg:rubygems/aws-sdk-iot@1.3.0"
    },
    {
      "type": "library",
      "bom-ref": "pkg:rubygems/aws-sdk-iotdataplane@1.0.0",
      "group": "",
      "name": "aws-sdk-iotdataplane",
      "version": "1.0.0",
      "description": "",
      "purl": "pkg:rubygems/aws-sdk-iotdataplane@1.0.0"
    },
    {
      "type": "library",
      "bom-ref": "pkg:rubygems/aws-sdk-iotjobsdataplane@1.0.0",
      "group": "",
      "name": "aws-sdk-iotjobsdataplane",
      "version": "1.0.0",
      "description": "",
      "purl": "pkg:rubygems/aws-sdk-iotjobsdataplane@1.0.0"
    },
    {
      "type": "library",
      "bom-ref": "pkg:rubygems/aws-sdk-kinesis@1.1.0",
      "group": "",
      "name": "aws-sdk-kinesis",
      "version": "1.1.0",
      "description": "",
      "purl": "pkg:rubygems/aws-sdk-kinesis@1.1.0"
    },
    {
      "type": "library",
      "bom-ref": "pkg:rubygems/aws-sdk-kinesisanalytics@1.2.0",
      "group": "",
      "name": "aws-sdk-kinesisanalytics",
      "version": "1.2.0",
      "description": "",
      "purl": "pkg:rubygems/aws-sdk-kinesisanalytics@1.2.0"
    },
    {
      "type": "library",
      "bom-ref": "pkg:rubygems/aws-sdk-kinesisvideo@1.0.0",
      "group": "",
      "name": "aws-sdk-kinesisvideo",
      "version": "1.0.0",
      "description": "",
      "purl": "pkg:rubygems/aws-sdk-kinesisvideo@1.0.0"
    },
    {
      "type": "library",
      "bom-ref": "pkg:rubygems/aws-sdk-kinesisvideoarchivedmedia@1.0.0",
      "group": "",
      "name": "aws-sdk-kinesisvideoarchivedmedia",
      "version": "1.0.0",
      "description": "",
      "purl": "pkg:rubygems/aws-sdk-kinesisvideoarchivedmedia@1.0.0"
    },
    {
      "type": "library",
      "bom-ref": "pkg:rubygems/aws-sdk-kinesisvideomedia@1.0.0",
      "group": "",
      "name": "aws-sdk-kinesisvideomedia",
      "version": "1.0.0",
      "description": "",
      "purl": "pkg:rubygems/aws-sdk-kinesisvideomedia@1.0.0"
    },
    {
      "type": "library",
      "bom-ref": "pkg:rubygems/aws-sdk-kms@1.4.0",
      "group": "",
      "name": "aws-sdk-kms",
      "version": "1.4.0",
      "description": "",
      "purl": "pkg:rubygems/aws-sdk-kms@1.4.0"
    },
    {
      "type": "library",
      "bom-ref": "pkg:rubygems/aws-sdk-lambda@1.3.0",
      "group": "",
      "name": "aws-sdk-lambda",
      "version": "1.3.0",
      "description": "",
      "purl": "pkg:rubygems/aws-sdk-lambda@1.3.0"
    },
    {
      "type": "library",
      "bom-ref": "pkg:rubygems/aws-sdk-lambdapreview@1.0.0",
      "group": "",
      "name": "aws-sdk-lambdapreview",
      "version": "1.0.0",
      "description": "",
      "purl": "pkg:rubygems/aws-sdk-lambdapreview@1.0.0"
    },
    {
      "type": "library",
      "bom-ref": "pkg:rubygems/aws-sdk-lex@1.2.0",
      "group": "",
      "name": "aws-sdk-lex",
      "version": "1.2.0",
      "description": "",
      "purl": "pkg:rubygems/aws-sdk-lex@1.2.0"
    },
    {
      "type": "library",
      "bom-ref": "pkg:rubygems/aws-sdk-lexmodelbuildingservice@1.3.0",
      "group": "",
      "name": "aws-sdk-lexmodelbuildingservice",
      "version": "1.3.0",
      "description": "",
      "purl": "pkg:rubygems/aws-sdk-lexmodelbuildingservice@1.3.0"
    },
    {
      "type": "library",
      "bom-ref": "pkg:rubygems/aws-sdk-lightsail@1.3.0",
      "group": "",
      "name": "aws-sdk-lightsail",
      "version": "1.3.0",
      "description": "",
      "purl": "pkg:rubygems/aws-sdk-lightsail@1.3.0"
    },
    {
      "type": "library",
      "bom-ref": "pkg:rubygems/aws-sdk-machinelearning@1.0.0",
      "group": "",
      "name": "aws-sdk-machinelearning",
      "version": "1.0.0",
      "description": "",
      "purl": "pkg:rubygems/aws-sdk-machinelearning@1.0.0"
    },
    {
      "type": "library",
      "bom-ref": "pkg:rubygems/aws-sdk-marketplacecommerceanalytics@1.0.0",
      "group": "",
      "name": "aws-sdk-marketplacecommerceanalytics",
      "version": "1.0.0",
      "description": "",
      "purl": "pkg:rubygems/aws-sdk-marketplacecommerceanalytics@1.0.0"
    },
    {
      "type": "library",
      "bom-ref": "pkg:rubygems/aws-sdk-marketplaceentitlementservice@1.0.0",
      "group": "",
      "name": "aws-sdk-marketplaceentitlementservice",
      "version": "1.0.0",
      "description": "",
      "purl": "pkg:rubygems/aws-sdk-marketplaceentitlementservice@1.0.0"
    },
    {
      "type": "library",
      "bom-ref": "pkg:rubygems/aws-sdk-marketplacemetering@1.0.0",
      "group": "",
      "name": "aws-sdk-marketplacemetering",
      "version": "1.0.0",
      "description": "",
      "purl": "pkg:rubygems/aws-sdk-marketplacemetering@1.0.0"
    },
    {
      "type": "library",
      "bom-ref": "pkg:rubygems/aws-sdk-mediaconvert@1.0.0",
      "group": "",
      "name": "aws-sdk-mediaconvert",
      "version": "1.0.0",
      "description": "",
      "purl": "pkg:rubygems/aws-sdk-mediaconvert@1.0.0"
    },
    {
      "type": "library",
      "bom-ref": "pkg:rubygems/aws-sdk-medialive@1.0.0",
      "group": "",
      "name": "aws-sdk-medialive",
      "version": "1.0.0",
      "description": "",
      "purl": "pkg:rubygems/aws-sdk-medialive@1.0.0"
    },
    {
      "type": "library",
      "bom-ref": "pkg:rubygems/aws-sdk-mediapackage@1.0.0",
      "group": "",
      "name": "aws-sdk-mediapackage",
      "version": "1.0.0",
      "description": "",
      "purl": "pkg:rubygems/aws-sdk-mediapackage@1.0.0"
    },
    {
      "type": "library",
      "bom-ref": "pkg:rubygems/aws-sdk-mediastore@1.0.0",
      "group": "",
      "name": "aws-sdk-mediastore",
      "version": "1.0.0",
      "description": "",
      "purl": "pkg:rubygems/aws-sdk-mediastore@1.0.0"
    },
    {
      "type": "library",
      "bom-ref": "pkg:rubygems/aws-sdk-mediastoredata@1.1.0",
      "group": "",
      "name": "aws-sdk-mediastoredata",
      "version": "1.1.0",
      "description": "",
      "purl": "pkg:rubygems/aws-sdk-mediastoredata@1.1.0"
    },
    {
      "type": "library",
      "bom-ref": "pkg:rubygems/aws-sdk-migrationhub@1.0.0",
      "group": "",
      "name": "aws-sdk-migrationhub",
      "version": "1.0.0",
      "description": "",
      "purl": "pkg:rubygems/aws-sdk-migrationhub@1.0.0"
    },
    {
      "type": "library",
      "bom-ref": "pkg:rubygems/aws-sdk-mobile@1.0.0",
      "group": "",
      "name": "aws-sdk-mobile",
      "version": "1.0.0",
      "description": "",
      "purl": "pkg:rubygems/aws-sdk-mobile@1.0.0"
    },
    {
      "type": "library",
      "bom-ref": "pkg:rubygems/aws-sdk-mq@1.0.0",
      "group": "",
      "name": "aws-sdk-mq",
      "version": "1.0.0",
      "description": "",
      "purl": "pkg:rubygems/aws-sdk-mq@1.0.0"
    },
    {
      "type": "library",
      "bom-ref": "pkg:rubygems/aws-sdk-mturk@1.1.0",
      "group": "",
      "name": "aws-sdk-mturk",
      "version": "1.1.0",
      "description": "",
      "purl": "pkg:rubygems/aws-sdk-mturk@1.1.0"
    },
    {
      "type": "library",
      "bom-ref": "pkg:rubygems/aws-sdk-opsworks@1.1.0",
      "group": "",
      "name": "aws-sdk-opsworks",
      "version": "1.1.0",
      "description": "",
      "purl": "pkg:rubygems/aws-sdk-opsworks@1.1.0"
    },
    {
      "type": "library",
      "bom-ref": "pkg:rubygems/aws-sdk-opsworkscm@1.2.0",
      "group": "",
      "name": "aws-sdk-opsworkscm",
      "version": "1.2.0",
      "description": "",
      "purl": "pkg:rubygems/aws-sdk-opsworkscm@1.2.0"
    },
    {
      "type": "library",
      "bom-ref": "pkg:rubygems/aws-sdk-organizations@1.7.0",
      "group": "",
      "name": "aws-sdk-organizations",
      "version": "1.7.0",
      "description": "",
      "purl": "pkg:rubygems/aws-sdk-organizations@1.7.0"
    },
    {
      "type": "library",
      "bom-ref": "pkg:rubygems/aws-sdk-pinpoint@1.2.0",
      "group": "",
      "name": "aws-sdk-pinpoint",
      "version": "1.2.0",
      "description": "",
      "purl": "pkg:rubygems/aws-sdk-pinpoint@1.2.0"
    },
    {
      "type": "library",
      "bom-ref": "pkg:rubygems/aws-sdk-polly@1.4.0",
      "group": "",
      "name": "aws-sdk-polly",
      "version": "1.4.0",
      "description": "",
      "purl": "pkg:rubygems/aws-sdk-polly@1.4.0"
    },
    {
      "type": "library",
      "bom-ref": "pkg:rubygems/aws-sdk-pricing@1.0.0",
      "group": "",
      "name": "aws-sdk-pricing",
      "version": "1.0.0",
      "description": "",
      "purl": "pkg:rubygems/aws-sdk-pricing@1.0.0"
    },
    {
      "type": "library",
      "bom-ref": "pkg:rubygems/aws-sdk-rds@1.11.0",
      "group": "",
      "name": "aws-sdk-rds",
      "version": "1.11.0",
      "description": "",
      "purl": "pkg:rubygems/aws-sdk-rds@1.11.0"
    },
    {
      "type": "library",
      "bom-ref": "pkg:rubygems/aws-sdk-redshift@1.1.0",
      "group": "",
      "name": "aws-sdk-redshift",
      "version": "1.1.0",
      "description": "",
      "purl": "pkg:rubygems/aws-sdk-redshift@1.1.0"
    },
    {
      "type": "library",
      "bom-ref": "pkg:rubygems/aws-sdk-rekognition@1.2.0",
      "group": "",
      "name": "aws-sdk-rekognition",
      "version": "1.2.0",
      "description": "",
      "purl": "pkg:rubygems/aws-sdk-rekognition@1.2.0"
    },
    {
      "type": "library",
      "bom-ref": "pkg:rubygems/aws-sdk-resourcegroups@1.0.0",
      "group": "",
      "name": "aws-sdk-resourcegroups",
      "version": "1.0.0",
      "description": "",
      "purl": "pkg:rubygems/aws-sdk-resourcegroups@1.0.0"
    },
    {
      "type": "library",
      "bom-ref": "pkg:rubygems/aws-sdk-resourcegroupstaggingapi@1.0.0",
      "group": "",
      "name": "aws-sdk-resourcegroupstaggingapi",
      "version": "1.0.0",
      "description": "",
      "purl": "pkg:rubygems/aws-sdk-resourcegroupstaggingapi@1.0.0"
    },
    {
      "type": "library",
      "bom-ref": "pkg:rubygems/aws-sdk-resources@3.12.0",
      "group": "",
      "name": "aws-sdk-resources",
      "version": "3.12.0",
      "description": "",
      "purl": "pkg:rubygems/aws-sdk-resources@3.12.0"
    },
    {
      "type": "library",
      "bom-ref": "pkg:rubygems/aws-sdk-route53@1.7.0",
      "group": "",
      "name": "aws-sdk-route53",
      "version": "1.7.0",
      "description": "",
      "purl": "pkg:rubygems/aws-sdk-route53@1.7.0"
    },
    {
      "type": "library",
      "bom-ref": "pkg:rubygems/aws-sdk-route53domains@1.1.0",
      "group": "",
      "name": "aws-sdk-route53domains",
      "version": "1.1.0",
      "description": "",
      "purl": "pkg:rubygems/aws-sdk-route53domains@1.1.0"
    },
    {
      "type": "library",
      "bom-ref": "pkg:rubygems/aws-sdk-s3@1.8.0",
      "group": "",
      "name": "aws-sdk-s3",
      "version": "1.8.0",
      "description": "",
      "purl": "pkg:rubygems/aws-sdk-s3@1.8.0"
    },
    {
      "type": "library",
      "bom-ref": "pkg:rubygems/aws-sdk-sagemaker@1.5.0",
      "group": "",
      "name": "aws-sdk-sagemaker",
      "version": "1.5.0",
      "description": "",
      "purl": "pkg:rubygems/aws-sdk-sagemaker@1.5.0"
    },
    {
      "type": "library",
      "bom-ref": "pkg:rubygems/aws-sdk-sagemakerruntime@1.0.0",
      "group": "",
      "name": "aws-sdk-sagemakerruntime",
      "version": "1.0.0",
      "description": "",
      "purl": "pkg:rubygems/aws-sdk-sagemakerruntime@1.0.0"
    },
    {
      "type": "library",
      "bom-ref": "pkg:rubygems/aws-sdk-serverlessapplicationrepository@1.0.0",
      "group": "",
      "name": "aws-sdk-serverlessapplicationrepository",
      "version": "1.0.0",
      "description": "",
      "purl": "pkg:rubygems/aws-sdk-serverlessapplicationrepository@1.0.0"
    },
    {
      "type": "library",
      "bom-ref": "pkg:rubygems/aws-sdk-servicecatalog@1.2.0",
      "group": "",
      "name": "aws-sdk-servicecatalog",
      "version": "1.2.0",
      "description": "",
      "purl": "pkg:rubygems/aws-sdk-servicecatalog@1.2.0"
    },
    {
      "type": "library",
      "bom-ref": "pkg:rubygems/aws-sdk-servicediscovery@1.0.0",
      "group": "",
      "name": "aws-sdk-servicediscovery",
      "version": "1.0.0",
      "description": "",
      "purl": "pkg:rubygems/aws-sdk-servicediscovery@1.0.0"
    },
    {
      "type": "library",
      "bom-ref": "pkg:rubygems/aws-sdk-ses@1.6.0",
      "group": "",
      "name": "aws-sdk-ses",
      "version": "1.6.0",
      "description": "",
      "purl": "pkg:rubygems/aws-sdk-ses@1.6.0"
    },
    {
      "type": "library",
      "bom-ref": "pkg:rubygems/aws-sdk-shield@1.1.0",
      "group": "",
      "name": "aws-sdk-shield",
      "version": "1.1.0",
      "description": "",
      "purl": "pkg:rubygems/aws-sdk-shield@1.1.0"
    },
    {
      "type": "library",
      "bom-ref": "pkg:rubygems/aws-sdk-simpledb@1.0.0",
      "group": "",
      "name": "aws-sdk-simpledb",
      "version": "1.0.0",
      "description": "",
      "purl": "pkg:rubygems/aws-sdk-simpledb@1.0.0"
    },
    {
      "type": "library",
      "bom-ref": "pkg:rubygems/aws-sdk-sms@1.0.0",
      "group": "",
      "name": "aws-sdk-sms",
      "version": "1.0.0",
      "description": "",
      "purl": "pkg:rubygems/aws-sdk-sms@1.0.0"
    },
    {
      "type": "library",
      "bom-ref": "pkg:rubygems/aws-sdk-snowball@1.2.0",
      "group": "",
      "name": "aws-sdk-snowball",
      "version": "1.2.0",
      "description": "",
      "purl": "pkg:rubygems/aws-sdk-snowball@1.2.0"
    },
    {
      "type": "library",
      "bom-ref": "pkg:rubygems/aws-sdk-sns@1.1.0",
      "group": "",
      "name": "aws-sdk-sns",
      "version": "1.1.0",
      "description": "",
      "purl": "pkg:rubygems/aws-sdk-sns@1.1.0"
    },
    {
      "type": "library",
      "bom-ref": "pkg:rubygems/aws-sdk-sqs@1.3.0",
      "group": "",
      "name": "aws-sdk-sqs",
      "version": "1.3.0",
      "description": "",
      "purl": "pkg:rubygems/aws-sdk-sqs@1.3.0"
    },
    {
      "type": "library",
      "bom-ref": "pkg:rubygems/aws-sdk-ssm@1.6.0",
      "group": "",
      "name": "aws-sdk-ssm",
      "version": "1.6.0",
      "description": "",
      "purl": "pkg:rubygems/aws-sdk-ssm@1.6.0"
    },
    {
      "type": "library",
      "bom-ref": "pkg:rubygems/aws-sdk-states@1.2.0",
      "group": "",
      "name": "aws-sdk-states",
      "version": "1.2.0",
      "description": "",
      "purl": "pkg:rubygems/aws-sdk-states@1.2.0"
    },
    {
      "type": "library",
      "bom-ref": "pkg:rubygems/aws-sdk-storagegateway@1.2.0",
      "group": "",
      "name": "aws-sdk-storagegateway",
      "version": "1.2.0",
      "description": "",
      "purl": "pkg:rubygems/aws-sdk-storagegateway@1.2.0"
    },
    {
      "type": "library",
      "bom-ref": "pkg:rubygems/aws-sdk-support@1.0.0",
      "group": "",
      "name": "aws-sdk-support",
      "version": "1.0.0",
      "description": "",
      "purl": "pkg:rubygems/aws-sdk-support@1.0.0"
    },
    {
      "type": "library",
      "bom-ref": "pkg:rubygems/aws-sdk-swf@1.0.0",
      "group": "",
      "name": "aws-sdk-swf",
      "version": "1.0.0",
      "description": "",
      "purl": "pkg:rubygems/aws-sdk-swf@1.0.0"
    },
    {
      "type": "library",
      "bom-ref": "pkg:rubygems/aws-sdk-transcribeservice@1.0.0",
      "group": "",
      "name": "aws-sdk-transcribeservice",
      "version": "1.0.0",
      "description": "",
      "purl": "pkg:rubygems/aws-sdk-transcribeservice@1.0.0"
    },
    {
      "type": "library",
      "bom-ref": "pkg:rubygems/aws-sdk-translate@1.0.0",
      "group": "",
      "name": "aws-sdk-translate",
      "version": "1.0.0",
      "description": "",
      "purl": "pkg:rubygems/aws-sdk-translate@1.0.0"
    },
    {
      "type": "library",
      "bom-ref": "pkg:rubygems/aws-sdk-waf@1.3.0",
      "group": "",
      "name": "aws-sdk-waf",
      "version": "1.3.0",
      "description": "",
      "purl": "pkg:rubygems/aws-sdk-waf@1.3.0"
    },
    {
      "type": "library",
      "bom-ref": "pkg:rubygems/aws-sdk-wafregional@1.3.0",
      "group": "",
      "name": "aws-sdk-wafregional",
      "version": "1.3.0",
      "description": "",
      "purl": "pkg:rubygems/aws-sdk-wafregional@1.3.0"
    },
    {
      "type": "library",
      "bom-ref": "pkg:rubygems/aws-sdk-workdocs@1.1.0",
      "group": "",
      "name": "aws-sdk-workdocs",
      "version": "1.1.0",
      "description": "",
      "purl": "pkg:rubygems/aws-sdk-workdocs@1.1.0"
    },
    {
      "type": "library",
      "bom-ref": "pkg:rubygems/aws-sdk-workmail@1.0.0",
      "group": "",
      "name": "aws-sdk-workmail",
      "version": "1.0.0",
      "description": "",
      "purl": "pkg:rubygems/aws-sdk-workmail@1.0.0"
    },
    {
      "type": "library",
      "bom-ref": "pkg:rubygems/aws-sdk-workspaces@1.1.0",
      "group": "",
      "name": "aws-sdk-workspaces",
      "version": "1.1.0",
      "description": "",
      "purl": "pkg:rubygems/aws-sdk-workspaces@1.1.0"
    },
    {
      "type": "library",
      "bom-ref": "pkg:rubygems/aws-sdk-xray@1.1.0",
      "group": "",
      "name": "aws-sdk-xray",
      "version": "1.1.0",
      "description": "",
      "purl": "pkg:rubygems/aws-sdk-xray@1.1.0"
    },
    {
      "type": "library",
      "bom-ref": "pkg:rubygems/aws-sigv2@1.0.1",
      "group": "",
      "name": "aws-sigv2",
      "version": "1.0.1",
      "description": "",
      "purl": "pkg:rubygems/aws-sigv2@1.0.1"
    },
    {
      "type": "library",
      "bom-ref": "pkg:rubygems/aws-sigv4@1.0.2",
      "group": "",
      "name": "aws-sigv4",
      "version": "1.0.2",
      "description": "",
      "purl": "pkg:rubygems/aws-sigv4@1.0.2"
    },
    {
      "type": "library",
      "bom-ref": "pkg:rubygems/bcrypt@3.1.13",
      "group": "",
      "name": "bcrypt",
      "version": "3.1.13",
      "description": "",
      "purl": "pkg:rubygems/bcrypt@3.1.13"
    },
    {
      "type": "library",
      "bom-ref": "pkg:rubygems/better_errors@2.5.1",
      "group": "",
      "name": "better_errors",
      "version": "2.5.1",
      "description": "",
      "purl": "pkg:rubygems/better_errors@2.5.1"
    },
    {
      "type": "library",
      "bom-ref": "pkg:rubygems/binding_of_caller@0.7.2",
      "group": "",
      "name": "binding_of_caller",
      "version": "0.7.2",
      "description": "",
      "purl": "pkg:rubygems/binding_of_caller@0.7.2"
    },
    {
      "type": "library",
      "bom-ref": "pkg:rubygems/bitters@0.10.0",
      "group": "",
      "name": "bitters",
      "version": "0.10.0",
      "description": "",
      "purl": "pkg:rubygems/bitters@0.10.0"
    },
    {
      "type": "library",
      "bom-ref": "pkg:rubygems/bourbon@3.2.3",
      "group": "",
      "name": "bourbon",
      "version": "3.2.3",
      "description": "",
      "purl": "pkg:rubygems/bourbon@3.2.3"
    },
    {
      "type": "library",
      "bom-ref": "pkg:rubygems/brakeman@4.7.2",
      "group": "",
      "name": "brakeman",
      "version": "4.7.2",
      "description": "",
      "purl": "pkg:rubygems/brakeman@4.7.2"
    },
    {
      "type": "library",
      "bom-ref": "pkg:rubygems/builder@3.2.4",
      "group": "",
      "name": "builder",
      "version": "3.2.4",
      "description": "",
      "purl": "pkg:rubygems/builder@3.2.4"
    },
    {
      "type": "library",
      "bom-ref": "pkg:rubygems/capybara@3.30.0",
      "group": "",
      "name": "capybara",
      "version": "3.30.0",
      "description": "",
      "purl": "pkg:rubygems/capybara@3.30.0"
    },
    {
      "type": "library",
      "bom-ref": "pkg:rubygems/climate_control@0.2.0",
      "group": "",
      "name": "climate_control",
      "version": "0.2.0",
      "description": "",
      "purl": "pkg:rubygems/climate_control@0.2.0"
    },
    {
      "type": "library",
      "bom-ref": "pkg:rubygems/coderay@1.1.2",
      "group": "",
      "name": "coderay",
      "version": "1.1.2",
      "description": "",
      "purl": "pkg:rubygems/coderay@1.1.2"
    },
    {
      "type": "library",
      "bom-ref": "pkg:rubygems/coffee-rails@4.2.2",
      "group": "",
      "name": "coffee-rails",
      "version": "4.2.2",
      "description": "",
      "purl": "pkg:rubygems/coffee-rails@4.2.2"
    },
    {
      "type": "library",
      "bom-ref": "pkg:rubygems/coffee-script@2.4.1",
      "group": "",
      "name": "coffee-script",
      "version": "2.4.1",
      "description": "",
      "purl": "pkg:rubygems/coffee-script@2.4.1"
    },
    {
      "type": "library",
      "bom-ref": "pkg:rubygems/coffee-script-source@1.12.2",
      "group": "",
      "name": "coffee-script-source",
      "version": "1.12.2",
      "description": "",
      "purl": "pkg:rubygems/coffee-script-source@1.12.2"
    },
    {
      "type": "library",
      "bom-ref": "pkg:rubygems/concurrent-ruby@1.1.6",
      "group": "",
      "name": "concurrent-ruby",
      "version": "1.1.6",
      "description": "",
      "purl": "pkg:rubygems/concurrent-ruby@1.1.6"
    },
    {
      "type": "library",
      "bom-ref": "pkg:rubygems/crack@0.4.2",
      "group": "",
      "name": "crack",
      "version": "0.4.2",
      "description": "",
      "purl": "pkg:rubygems/crack@0.4.2"
    },
    {
      "type": "library",
      "bom-ref": "pkg:rubygems/crass@1.0.6",
      "group": "",
      "name": "crass",
      "version": "1.0.6",
      "description": "",
      "purl": "pkg:rubygems/crass@1.0.6"
    },
    {
      "type": "library",
      "bom-ref": "pkg:rubygems/dalli@2.7.0",
      "group": "",
      "name": "dalli",
      "version": "2.7.0",
      "description": "",
      "purl": "pkg:rubygems/dalli@2.7.0"
    },
    {
      "type": "library",
      "bom-ref": "pkg:rubygems/database_cleaner@1.3.0",
      "group": "",
      "name": "database_cleaner",
      "version": "1.3.0",
      "description": "",
      "purl": "pkg:rubygems/database_cleaner@1.3.0"
    },
    {
      "type": "library",
      "bom-ref": "pkg:rubygems/debug_inspector@0.0.2",
      "group": "",
      "name": "debug_inspector",
      "version": "0.0.2",
      "description": "",
      "purl": "pkg:rubygems/debug_inspector@0.0.2"
    },
    {
      "type": "library",
      "bom-ref": "pkg:rubygems/delayed_job@4.1.8",
      "group": "",
      "name": "delayed_job",
      "version": "4.1.8",
      "description": "",
      "purl": "pkg:rubygems/delayed_job@4.1.8"
    },
    {
      "type": "library",
      "bom-ref": "pkg:rubygems/delayed_job_active_record@4.1.4",
      "group": "",
      "name": "delayed_job_active_record",
      "version": "4.1.4",
      "description": "",
      "purl": "pkg:rubygems/delayed_job_active_record@4.1.4"
    },
    {
      "type": "library",
      "bom-ref": "pkg:rubygems/devise@4.7.1",
      "group": "",
      "name": "devise",
      "version": "4.7.1",
      "description": "",
      "purl": "pkg:rubygems/devise@4.7.1"
    },
    {
      "type": "library",
      "bom-ref": "pkg:rubygems/devise_invitable@1.7.5",
      "group": "",
      "name": "devise_invitable",
      "version": "1.7.5",
      "description": "",
      "purl": "pkg:rubygems/devise_invitable@1.7.5"
    },
    {
      "type": "library",
      "bom-ref": "pkg:rubygems/diff-lcs@1.3",
      "group": "",
      "name": "diff-lcs",
      "version": "1.3",
      "description": "",
      "purl": "pkg:rubygems/diff-lcs@1.3"
    },
    {
      "type": "library",
      "bom-ref": "pkg:rubygems/docile@1.1.5",
      "group": "",
      "name": "docile",
      "version": "1.1.5",
      "description": "",
      "purl": "pkg:rubygems/docile@1.1.5"
    },
    {
      "type": "library",
      "bom-ref": "pkg:rubygems/dotenv@0.11.1",
      "group": "",
      "name": "dotenv",
      "version": "0.11.1",
      "description": "",
      "purl": "pkg:rubygems/dotenv@0.11.1"
    },
    {
      "type": "library",
      "bom-ref": "pkg:rubygems/dotenv-deployment@0.0.2",
      "group": "",
      "name": "dotenv-deployment",
      "version": "0.0.2",
      "description": "",
      "purl": "pkg:rubygems/dotenv-deployment@0.0.2"
    },
    {
      "type": "library",
      "bom-ref": "pkg:rubygems/dotenv-rails@0.11.1",
      "group": "",
      "name": "dotenv-rails",
      "version": "0.11.1",
      "description": "",
      "purl": "pkg:rubygems/dotenv-rails@0.11.1"
    },
    {
      "type": "library",
      "bom-ref": "pkg:rubygems/email_spec@1.6.0",
      "group": "",
      "name": "email_spec",
      "version": "1.6.0",
      "description": "",
      "purl": "pkg:rubygems/email_spec@1.6.0"
    },
    {
      "type": "library",
      "bom-ref": "pkg:rubygems/email_validator@1.4.0",
      "group": "",
      "name": "email_validator",
      "version": "1.4.0",
      "description": "",
      "purl": "pkg:rubygems/email_validator@1.4.0"
    },
    {
      "type": "library",
      "bom-ref": "pkg:rubygems/erubi@1.8.0",
      "group": "",
      "name": "erubi",
      "version": "1.8.0",
      "description": "",
      "purl": "pkg:rubygems/erubi@1.8.0"
    },
    {
      "type": "library",
      "bom-ref": "pkg:rubygems/erubis@2.7.0",
      "group": "",
      "name": "erubis",
      "version": "2.7.0",
      "description": "",
      "purl": "pkg:rubygems/erubis@2.7.0"
    },
    {
      "type": "library",
      "bom-ref": "pkg:rubygems/execjs@2.7.0",
      "group": "",
      "name": "execjs",
      "version": "2.7.0",
      "description": "",
      "purl": "pkg:rubygems/execjs@2.7.0"
    },
    {
      "type": "library",
      "bom-ref": "pkg:rubygems/factory_girl@4.4.0",
      "group": "",
      "name": "factory_girl",
      "version": "4.4.0",
      "description": "",
      "purl": "pkg:rubygems/factory_girl@4.4.0"
    },
    {
      "type": "library",
      "bom-ref": "pkg:rubygems/factory_girl_rails@4.4.1",
      "group": "",
      "name": "factory_girl_rails",
      "version": "4.4.1",
      "description": "",
      "purl": "pkg:rubygems/factory_girl_rails@4.4.1"
    },
    {
      "type": "library",
      "bom-ref": "pkg:rubygems/flutie@2.0.0",
      "group": "",
      "name": "flutie",
      "version": "2.0.0",
      "description": "",
      "purl": "pkg:rubygems/flutie@2.0.0"
    },
    {
      "type": "library",
      "bom-ref": "pkg:rubygems/foreman@0.74.0",
      "group": "",
      "name": "foreman",
      "version": "0.74.0",
      "description": "",
      "purl": "pkg:rubygems/foreman@0.74.0"
    },
    {
      "type": "library",
      "bom-ref": "pkg:rubygems/globalid@0.4.2",
      "group": "",
      "name": "globalid",
      "version": "0.4.2",
      "description": "",
      "purl": "pkg:rubygems/globalid@0.4.2"
    },
    {
      "type": "library",
      "bom-ref": "pkg:rubygems/gravatar_image_tag@1.2.0",
      "group": "",
      "name": "gravatar_image_tag",
      "version": "1.2.0",
      "description": "",
      "purl": "pkg:rubygems/gravatar_image_tag@1.2.0"
    },
    {
      "type": "library",
      "bom-ref": "pkg:rubygems/haml@5.1.2",
      "group": "",
      "name": "haml",
      "version": "5.1.2",
      "description": "",
      "purl": "pkg:rubygems/haml@5.1.2"
    },
    {
      "type": "library",
      "bom-ref": "pkg:rubygems/haml-rails@1.0.0",
      "group": "",
      "name": "haml-rails",
      "version": "1.0.0",
      "description": "",
      "purl": "pkg:rubygems/haml-rails@1.0.0"
    },
    {
      "type": "library",
      "bom-ref": "pkg:rubygems/hashtel@0.0.2",
      "group": "",
      "name": "hashtel",
      "version": "0.0.2",
      "description": "",
      "purl": "pkg:rubygems/hashtel@0.0.2"
    },
    {
      "type": "library",
      "bom-ref": "pkg:rubygems/high_voltage@3.1.2",
      "group": "",
      "name": "high_voltage",
      "version": "3.1.2",
      "description": "",
      "purl": "pkg:rubygems/high_voltage@3.1.2"
    },
    {
      "type": "library",
      "bom-ref": "pkg:rubygems/holidays@1.2.0",
      "group": "",
      "name": "holidays",
      "version": "1.2.0",
      "description": "",
      "purl": "pkg:rubygems/holidays@1.2.0"
    },
    {
      "type": "library",
      "bom-ref": "pkg:rubygems/html2haml@2.2.0",
      "group": "",
      "name": "html2haml",
      "version": "2.2.0",
      "description": "",
      "purl": "pkg:rubygems/html2haml@2.2.0"
    },
    {
      "type": "library",
      "bom-ref": "pkg:rubygems/http_accept_language@2.1.1",
      "group": "",
      "name": "http_accept_language",
      "version": "2.1.1",
      "description": "",
      "purl": "pkg:rubygems/http_accept_language@2.1.1"
    },
    {
      "type": "library",
      "bom-ref": "pkg:rubygems/i18n@1.8.2",
      "group": "",
      "name": "i18n",
      "version": "1.8.2",
      "description": "",
      "purl": "pkg:rubygems/i18n@1.8.2"
    },
    {
      "type": "library",
      "bom-ref": "pkg:rubygems/jmespath@1.3.1",
      "group": "",
      "name": "jmespath",
      "version": "1.3.1",
      "description": "",
      "purl": "pkg:rubygems/jmespath@1.3.1"
    },
    {
      "type": "library",
      "bom-ref": "pkg:rubygems/jquery-atwho-rails@1.3.2",
      "group": "",
      "name": "jquery-atwho-rails",
      "version": "1.3.2",
      "description": "",
      "purl": "pkg:rubygems/jquery-atwho-rails@1.3.2"
    },
    {
      "type": "library",
      "bom-ref": "pkg:rubygems/jquery-rails@4.3.5",
      "group": "",
      "name": "jquery-rails",
      "version": "4.3.5",
      "description": "",
      "purl": "pkg:rubygems/jquery-rails@4.3.5"
    },
    {
      "type": "library",
      "bom-ref": "pkg:rubygems/kaminari@1.2.1",
      "group": "",
      "name": "kaminari",
      "version": "1.2.1",
      "description": "",
      "purl": "pkg:rubygems/kaminari@1.2.1"
    },
    {
      "type": "library",
      "bom-ref": "pkg:rubygems/kaminari-actionview@1.2.1",
      "group": "",
      "name": "kaminari-actionview",
      "version": "1.2.1",
      "description": "",
      "purl": "pkg:rubygems/kaminari-actionview@1.2.1"
    },
    {
      "type": "library",
      "bom-ref": "pkg:rubygems/kaminari-activerecord@1.2.1",
      "group": "",
      "name": "kaminari-activerecord",
      "version": "1.2.1",
      "description": "",
      "purl": "pkg:rubygems/kaminari-activerecord@1.2.1"
    },
    {
      "type": "library",
      "bom-ref": "pkg:rubygems/kaminari-core@1.2.1",
      "group": "",
      "name": "kaminari-core",
      "version": "1.2.1",
      "description": "",
      "purl": "pkg:rubygems/kaminari-core@1.2.1"
    },
    {
      "type": "library",
      "bom-ref": "pkg:rubygems/kgio@2.11.0",
      "group": "",
      "name": "kgio",
      "version": "2.11.0",
      "description": "",
      "purl": "pkg:rubygems/kgio@2.11.0"
    },
    {
      "type": "library",
      "bom-ref": "pkg:rubygems/launchy@2.4.2",
      "group": "",
      "name": "launchy",
      "version": "2.4.2",
      "description": "",
      "purl": "pkg:rubygems/launchy@2.4.2"
    },
    {
      "type": "library",
      "bom-ref": "pkg:rubygems/letter_opener@1.7.0",
      "group": "",
      "name": "letter_opener",
      "version": "1.7.0",
      "description": "",
      "purl": "pkg:rubygems/letter_opener@1.7.0"
    },
    {
      "type": "library",
      "bom-ref": "pkg:rubygems/loofah@2.5.0",
      "group": "",
      "name": "loofah",
      "version": "2.5.0",
      "description": "",
      "purl": "pkg:rubygems/loofah@2.5.0"
    },
    {
      "type": "library",
      "bom-ref": "pkg:rubygems/mail@2.7.1",
      "group": "",
      "name": "mail",
      "version": "2.7.1",
      "description": "",
      "purl": "pkg:rubygems/mail@2.7.1"
    },
    {
      "type": "library",
      "bom-ref": "pkg:rubygems/memcachier@0.0.2",
      "group": "",
      "name": "memcachier",
      "version": "0.0.2",
      "description": "",
      "purl": "pkg:rubygems/memcachier@0.0.2"
    },
    {
      "type": "library",
      "bom-ref": "pkg:rubygems/method_source@0.8.2",
      "group": "",
      "name": "method_source",
      "version": "0.8.2",
      "description": "",
      "purl": "pkg:rubygems/method_source@0.8.2"
    },
    {
      "type": "library",
      "bom-ref": "pkg:rubygems/mime-types@3.2.2",
      "group": "",
      "name": "mime-types",
      "version": "3.2.2",
      "description": "",
      "purl": "pkg:rubygems/mime-types@3.2.2"
    },
    {
      "type": "library",
      "bom-ref": "pkg:rubygems/mime-types-data@3.2018.0812",
      "group": "",
      "name": "mime-types-data",
      "version": "3.2018.0812",
      "description": "",
      "purl": "pkg:rubygems/mime-types-data@3.2018.0812"
    },
    {
      "type": "library",
      "bom-ref": "pkg:rubygems/mimemagic@0.3.2",
      "group": "",
      "name": "mimemagic",
      "version": "0.3.2",
      "description": "",
      "purl": "pkg:rubygems/mimemagic@0.3.2"
    },
    {
      "type": "library",
      "bom-ref": "pkg:rubygems/mini_mime@1.0.2",
      "group": "",
      "name": "mini_mime",
      "version": "1.0.2",
      "description": "",
      "purl": "pkg:rubygems/mini_mime@1.0.2"
    },
    {
      "type": "library",
      "bom-ref": "pkg:rubygems/mini_portile2@2.4.0",
      "group": "",
      "name": "mini_portile2",
      "version": "2.4.0",
      "description": "",
      "purl": "pkg:rubygems/mini_portile2@2.4.0"
    },
    {
      "type": "library",
      "bom-ref": "pkg:rubygems/minitest@5.14.1",
      "group": "",
      "name": "minitest",
      "version": "5.14.1",
      "description": "",
      "purl": "pkg:rubygems/minitest@5.14.1"
    },
    {
      "type": "library",
      "bom-ref": "pkg:rubygems/momentjs-rails@2.7.0",
      "group": "",
      "name": "momentjs-rails",
      "version": "2.7.0",
      "description": "",
      "purl": "pkg:rubygems/momentjs-rails@2.7.0"
    },
    {
      "type": "library",
      "bom-ref": "pkg:rubygems/multi_json@1.14.1",
      "group": "",
      "name": "multi_json",
      "version": "1.14.1",
      "description": "",
      "purl": "pkg:rubygems/multi_json@1.14.1"
    },
    {
      "type": "library",
      "bom-ref": "pkg:rubygems/neat@1.5.1",
      "group": "",
      "name": "neat",
      "version": "1.5.1",
      "description": "",
      "purl": "pkg:rubygems/neat@1.5.1"
    },
    {
      "type": "library",
      "bom-ref": "pkg:rubygems/newrelic_rpm@3.9.0.229",
      "group": "",
      "name": "newrelic_rpm",
      "version": "3.9.0.229",
      "description": "",
      "purl": "pkg:rubygems/newrelic_rpm@3.9.0.229"
    },
    {
      "type": "library",
      "bom-ref": "pkg:rubygems/nio4r@2.5.2",
      "group": "",
      "name": "nio4r",
      "version": "2.5.2",
      "description": "",
      "purl": "pkg:rubygems/nio4r@2.5.2"
    },
    {
      "type": "library",
      "bom-ref": "pkg:rubygems/nokogiri@1.10.9",
      "group": "",
      "name": "nokogiri",
      "version": "1.10.9",
      "description": "",
      "purl": "pkg:rubygems/nokogiri@1.10.9"
    },
    {
      "type": "library",
      "bom-ref": "pkg:rubygems/normalize-rails@4.1.1",
      "group": "",
      "name": "normalize-rails",
      "version": "4.1.1",
      "description": "",
      "purl": "pkg:rubygems/normalize-rails@4.1.1"
    },
    {
      "type": "library",
      "bom-ref": "pkg:rubygems/orm_adapter@0.5.0",
      "group": "",
      "name": "orm_adapter",
      "version": "0.5.0",
      "description": "",
      "purl": "pkg:rubygems/orm_adapter@0.5.0"
    },
    {
      "type": "library",
      "bom-ref": "pkg:rubygems/paperclip@6.1.0",
      "group": "",
      "name": "paperclip",
      "version": "6.1.0",
      "description": "",
      "purl": "pkg:rubygems/paperclip@6.1.0"
    },
    {
      "type": "library",
      "bom-ref": "pkg:rubygems/parallel@1.19.1",
      "group": "",
      "name": "parallel",
      "version": "1.19.1",
      "description": "",
      "purl": "pkg:rubygems/parallel@1.19.1"
    },
    {
      "type": "library",
      "bom-ref": "pkg:rubygems/pg@0.18.4",
      "group": "",
      "name": "pg",
      "version": "0.18.4",
      "description": "",
      "purl": "pkg:rubygems/pg@0.18.4"
    },
    {
      "type": "library",
      "bom-ref": "pkg:rubygems/pikaday-gem@1.2.0",
      "group": "",
      "name": "pikaday-gem",
      "version": "1.2.0",
      "description": "",
      "purl": "pkg:rubygems/pikaday-gem@1.2.0"
    },
    {
      "type": "library",
      "bom-ref": "pkg:rubygems/pry@0.10.0",
      "group": "",
      "name": "pry",
      "version": "0.10.0",
      "description": "",
      "purl": "pkg:rubygems/pry@0.10.0"
    },
    {
      "type": "library",
      "bom-ref": "pkg:rubygems/pry-rails@0.3.2",
      "group": "",
      "name": "pry-rails",
      "version": "0.3.2",
      "description": "",
      "purl": "pkg:rubygems/pry-rails@0.3.2"
    },
    {
      "type": "library",
      "bom-ref": "pkg:rubygems/public_suffix@4.0.5",
      "group": "",
      "name": "public_suffix",
      "version": "4.0.5",
      "description": "",
      "purl": "pkg:rubygems/public_suffix@4.0.5"
    },
    {
      "type": "library",
      "bom-ref": "pkg:rubygems/rack@2.1.1",
      "group": "",
      "name": "rack",
      "version": "2.1.1",
      "description": "",
      "purl": "pkg:rubygems/rack@2.1.1"
    },
    {
      "type": "library",
      "bom-ref": "pkg:rubygems/rack-test@0.6.3",
      "group": "",
      "name": "rack-test",
      "version": "0.6.3",
      "description": "",
      "purl": "pkg:rubygems/rack-test@0.6.3"
    },
    {
      "type": "library",
      "bom-ref": "pkg:rubygems/rack-timeout@0.0.4",
      "group": "",
      "name": "rack-timeout",
      "version": "0.0.4",
      "description": "",
      "purl": "pkg:rubygems/rack-timeout@0.0.4"
    },
    {
      "type": "library",
      "bom-ref": "pkg:rubygems/rails@5.0.7.2",
      "group": "",
      "name": "rails",
      "version": "5.0.7.2",
      "description": "",
      "purl": "pkg:rubygems/rails@5.0.7.2"
    },
    {
      "type": "library",
      "bom-ref": "pkg:rubygems/rails-assets-chartjs@1.0.1",
      "group": "",
      "name": "rails-assets-chartjs",
      "version": "1.0.1",
      "description": "",
      "purl": "pkg:rubygems/rails-assets-chartjs@1.0.1"
    },
    {
      "type": "library",
      "bom-ref": "pkg:rubygems/rails-dom-testing@2.0.3",
      "group": "",
      "name": "rails-dom-testing",
      "version": "2.0.3",
      "description": "",
      "purl": "pkg:rubygems/rails-dom-testing@2.0.3"
    },
    {
      "type": "library",
      "bom-ref": "pkg:rubygems/rails-html-sanitizer@1.3.0",
      "group": "",
      "name": "rails-html-sanitizer",
      "version": "1.3.0",
      "description": "",
      "purl": "pkg:rubygems/rails-html-sanitizer@1.3.0"
    },
    {
      "type": "library",
      "bom-ref": "pkg:rubygems/rails_12factor@0.0.2",
      "group": "",
      "name": "rails_12factor",
      "version": "0.0.2",
      "description": "",
      "purl": "pkg:rubygems/rails_12factor@0.0.2"
    },
    {
      "type": "library",
      "bom-ref": "pkg:rubygems/rails_serve_static_assets@0.0.2",
      "group": "",
      "name": "rails_serve_static_assets",
      "version": "0.0.2",
      "description": "",
      "purl": "pkg:rubygems/rails_serve_static_assets@0.0.2"
    },
    {
      "type": "library",
      "bom-ref": "pkg:rubygems/rails_stdout_logging@0.0.3",
      "group": "",
      "name": "rails_stdout_logging",
      "version": "0.0.3",
      "description": "",
      "purl": "pkg:rubygems/rails_stdout_logging@0.0.3"
    },
    {
      "type": "library",
      "bom-ref": "pkg:rubygems/railties@5.0.7.2",
      "group": "",
      "name": "railties",
      "version": "5.0.7.2",
      "description": "",
      "purl": "pkg:rubygems/railties@5.0.7.2"
    },
    {
      "type": "library",
      "bom-ref": "pkg:rubygems/raindrops@0.19.0",
      "group": "",
      "name": "raindrops",
      "version": "0.19.0",
      "description": "",
      "purl": "pkg:rubygems/raindrops@0.19.0"
    },
    {
      "type": "library",
      "bom-ref": "pkg:rubygems/rake@13.0.1",
      "group": "",
      "name": "rake",
      "version": "13.0.1",
      "description": "",
      "purl": "pkg:rubygems/rake@13.0.1"
    },
    {
      "type": "library",
      "bom-ref": "pkg:rubygems/rbtree3@0.5.0",
      "group": "",
      "name": "rbtree3",
      "version": "0.5.0",
      "description": "",
      "purl": "pkg:rubygems/rbtree3@0.5.0"
    },
    {
      "type": "library",
      "bom-ref": "pkg:rubygems/recipient_interceptor@0.1.2",
      "group": "",
      "name": "recipient_interceptor",
      "version": "0.1.2",
      "description": "",
      "purl": "pkg:rubygems/recipient_interceptor@0.1.2"
    },
    {
      "type": "library",
      "bom-ref": "pkg:rubygems/redcarpet@3.4.0",
      "group": "",
      "name": "redcarpet",
      "version": "3.4.0",
      "description": "",
      "purl": "pkg:rubygems/redcarpet@3.4.0"
    },
    {
      "type": "library",
      "bom-ref": "pkg:rubygems/regexp_parser@1.6.0",
      "group": "",
      "name": "regexp_parser",
      "version": "1.6.0",
      "description": "",
      "purl": "pkg:rubygems/regexp_parser@1.6.0"
    },
    {
      "type": "library",
      "bom-ref": "pkg:rubygems/responders@2.4.1",
      "group": "",
      "name": "responders",
      "version": "2.4.1",
      "description": "",
      "purl": "pkg:rubygems/responders@2.4.1"
    },
    {
      "type": "library",
      "bom-ref": "pkg:rubygems/rspec-core@3.8.0",
      "group": "",
      "name": "rspec-core",
      "version": "3.8.0",
      "description": "",
      "purl": "pkg:rubygems/rspec-core@3.8.0"
    },
    {
      "type": "library",
      "bom-ref": "pkg:rubygems/rspec-expectations@3.8.2",
      "group": "",
      "name": "rspec-expectations",
      "version": "3.8.2",
      "description": "",
      "purl": "pkg:rubygems/rspec-expectations@3.8.2"
    },
    {
      "type": "library",
      "bom-ref": "pkg:rubygems/rspec-mocks@3.8.0",
      "group": "",
      "name": "rspec-mocks",
      "version": "3.8.0",
      "description": "",
      "purl": "pkg:rubygems/rspec-mocks@3.8.0"
    },
    {
      "type": "library",
      "bom-ref": "pkg:rubygems/rspec-rails@3.8.2",
      "group": "",
      "name": "rspec-rails",
      "version": "3.8.2",
      "description": "",
      "purl": "pkg:rubygems/rspec-rails@3.8.2"
    },
    {
      "type": "library",
      "bom-ref": "pkg:rubygems/rspec-support@3.8.0",
      "group": "",
      "name": "rspec-support",
      "version": "3.8.0",
      "description": "",
      "purl": "pkg:rubygems/rspec-support@3.8.0"
    },
    {
      "type": "library",
      "bom-ref": "pkg:rubygems/ruby_parser@3.14.1",
      "group": "",
      "name": "ruby_parser",
      "version": "3.14.1",
      "description": "",
      "purl": "pkg:rubygems/ruby_parser@3.14.1"
    },
    {
      "type": "library",
      "bom-ref": "pkg:rubygems/safe_yaml@1.0.5",
      "group": "",
      "name": "safe_yaml",
      "version": "1.0.5",
      "description": "",
      "purl": "pkg:rubygems/safe_yaml@1.0.5"
    },
    {
      "type": "library",
      "bom-ref": "pkg:rubygems/sass@3.2.19",
      "group": "",
      "name": "sass",
      "version": "3.2.19",
      "description": "",
      "purl": "pkg:rubygems/sass@3.2.19"
    },
    {
      "type": "library",
      "bom-ref": "pkg:rubygems/sass-rails@5.0.7",
      "group": "",
      "name": "sass-rails",
      "version": "5.0.7",
      "description": "",
      "purl": "pkg:rubygems/sass-rails@5.0.7"
    },
    {
      "type": "library",
      "bom-ref": "pkg:rubygems/select2-rails@4.0.3",
      "group": "",
      "name": "select2-rails",
      "version": "4.0.3",
      "description": "",
      "purl": "pkg:rubygems/select2-rails@4.0.3"
    },
    {
      "type": "library",
      "bom-ref": "pkg:rubygems/sexp_processor@4.13.0",
      "group": "",
      "name": "sexp_processor",
      "version": "4.13.0",
      "description": "",
      "purl": "pkg:rubygems/sexp_processor@4.13.0"
    },
    {
      "type": "library",
      "bom-ref": "pkg:rubygems/shoulda-matchers@2.7.0",
      "group": "",
      "name": "shoulda-matchers",
      "version": "2.7.0",
      "description": "",
      "purl": "pkg:rubygems/shoulda-matchers@2.7.0"
    },
    {
      "type": "library",
      "bom-ref": "pkg:rubygems/simple_form@5.0.1",
      "group": "",
      "name": "simple_form",
      "version": "5.0.1",
      "description": "",
      "purl": "pkg:rubygems/simple_form@5.0.1"
    },
    {
      "type": "library",
      "bom-ref": "pkg:rubygems/simplecov@0.8.2",
      "group": "",
      "name": "simplecov",
      "version": "0.8.2",
      "description": "",
      "purl": "pkg:rubygems/simplecov@0.8.2"
    },
    {
      "type": "library",
      "bom-ref": "pkg:rubygems/simplecov-html@0.8.0",
      "group": "",
      "name": "simplecov-html",
      "version": "0.8.0",
      "description": "",
      "purl": "pkg:rubygems/simplecov-html@0.8.0"
    },
    {
      "type": "library",
      "bom-ref": "pkg:rubygems/slop@3.5.0",
      "group": "",
      "name": "slop",
      "version": "3.5.0",
      "description": "",
      "purl": "pkg:rubygems/slop@3.5.0"
    },
    {
      "type": "library",
      "bom-ref": "pkg:rubygems/spring@2.1.0",
      "group": "",
      "name": "spring",
      "version": "2.1.0",
      "description": "",
      "purl": "pkg:rubygems/spring@2.1.0"
    },
    {
      "type": "library",
      "bom-ref": "pkg:rubygems/spring-commands-rspec@1.0.4",
      "group": "",
      "name": "spring-commands-rspec",
      "version": "1.0.4",
      "description": "",
      "purl": "pkg:rubygems/spring-commands-rspec@1.0.4"
    },
    {
      "type": "library",
      "bom-ref": "pkg:rubygems/sprockets@3.7.2",
      "group": "",
      "name": "sprockets",
      "version": "3.7.2",
      "description": "",
      "purl": "pkg:rubygems/sprockets@3.7.2"
    },
    {
      "type": "library",
      "bom-ref": "pkg:rubygems/sprockets-rails@3.2.1",
      "group": "",
      "name": "sprockets-rails",
      "version": "3.2.1",
      "description": "",
      "purl": "pkg:rubygems/sprockets-rails@3.2.1"
    },
    {
      "type": "library",
      "bom-ref": "pkg:rubygems/temple@0.8.2",
      "group": "",
      "name": "temple",
      "version": "0.8.2",
      "description": "",
      "purl": "pkg:rubygems/temple@0.8.2"
    },
    {
      "type": "library",
      "bom-ref": "pkg:rubygems/terrapin@0.6.0",
      "group": "",
      "name": "terrapin",
      "version": "0.6.0",
      "description": "",
      "purl": "pkg:rubygems/terrapin@0.6.0"
    },
    {
      "type": "library",
      "bom-ref": "pkg:rubygems/thor@0.19.4",
      "group": "",
      "name": "thor",
      "version": "0.19.4",
      "description": "",
      "purl": "pkg:rubygems/thor@0.19.4"
    },
    {
      "type": "library",
      "bom-ref": "pkg:rubygems/thread_safe@0.3.6",
      "group": "",
      "name": "thread_safe",
      "version": "0.3.6",
      "description": "",
      "purl": "pkg:rubygems/thread_safe@0.3.6"
    },
    {
      "type": "library",
      "bom-ref": "pkg:rubygems/tilt@2.0.10",
      "group": "",
      "name": "tilt",
      "version": "2.0.10",
      "description": "",
      "purl": "pkg:rubygems/tilt@2.0.10"
    },
    {
      "type": "library",
      "bom-ref": "pkg:rubygems/timecop@0.7.1",
      "group": "",
      "name": "timecop",
      "version": "0.7.1",
      "description": "",
      "purl": "pkg:rubygems/timecop@0.7.1"
    },
    {
      "type": "library",
      "bom-ref": "pkg:rubygems/title@0.0.7",
      "group": "",
      "name": "title",
      "version": "0.0.7",
      "description": "",
      "purl": "pkg:rubygems/title@0.0.7"
    },
    {
      "type": "library",
      "bom-ref": "pkg:rubygems/twitter-text@1.9.2",
      "group": "",
      "name": "twitter-text",
      "version": "1.9.2",
      "description": "",
      "purl": "pkg:rubygems/twitter-text@1.9.2"
    },
    {
      "type": "library",
      "bom-ref": "pkg:rubygems/tzinfo@1.2.7",
      "group": "",
      "name": "tzinfo",
      "version": "1.2.7",
      "description": "",
      "purl": "pkg:rubygems/tzinfo@1.2.7"
    },
    {
      "type": "library",
      "bom-ref": "pkg:rubygems/uglifier@4.0.2",
      "group": "",
      "name": "uglifier",
      "version": "4.0.2",
      "description": "",
      "purl": "pkg:rubygems/uglifier@4.0.2"
    },
    {
      "type": "library",
      "bom-ref": "pkg:rubygems/unf@0.1.4",
      "group": "",
      "name": "unf",
      "version": "0.1.4",
      "description": "",
      "purl": "pkg:rubygems/unf@0.1.4"
    },
    {
      "type": "library",
      "bom-ref": "pkg:rubygems/unf_ext@0.0.6",
      "group": "",
      "name": "unf_ext",
      "version": "0.0.6",
      "description": "",
      "purl": "pkg:rubygems/unf_ext@0.0.6"
    },
    {
      "type": "library",
      "bom-ref": "pkg:rubygems/unicorn@5.3.1",
      "group": "",
      "name": "unicorn",
      "version": "5.3.1",
      "description": "",
      "purl": "pkg:rubygems/unicorn@5.3.1"
    },
    {
      "type": "library",
      "bom-ref": "pkg:rubygems/warden@1.2.7",
      "group": "",
      "name": "warden",
      "version": "1.2.7",
      "description": "",
      "purl": "pkg:rubygems/warden@1.2.7"
    },
    {
      "type": "library",
      "bom-ref": "pkg:rubygems/webmock@1.18.0",
      "group": "",
      "name": "webmock",
      "version": "1.18.0",
      "description": "",
      "purl": "pkg:rubygems/webmock@1.18.0"
    },
    {
      "type": "library",
      "bom-ref": "pkg:rubygems/websocket-driver@0.6.5",
      "group": "",
      "name": "websocket-driver",
      "version": "0.6.5",
      "description": "",
      "purl": "pkg:rubygems/websocket-driver@0.6.5"
    },
    {
      "type": "library",
      "bom-ref": "pkg:rubygems/websocket-extensions@0.1.5",
      "group": "",
      "name": "websocket-extensions",
      "version": "0.1.5",
      "description": "",
      "purl": "pkg:rubygems/websocket-extensions@0.1.5"
    },
    {
      "type": "library",
      "bom-ref": "pkg:rubygems/xpath@3.2.0",
      "group": "",
      "name": "xpath",
      "version": "3.2.0",
      "description": "",
      "purl": "pkg:rubygems/xpath@3.2.0"
    }
  ]
}
