{
  "bomFormat": "CycloneDX",
  "specVersion": "1.3",
  "serialNumber": "urn:uuid:e4838dac-1c4a-45d6-b42a-6521ff3c2655",
  "version": 1,
  "metadata": {
    "timestamp": "2022-06-03T09:45:24Z",
    "tools": [
      {
        "vendor": "AppThreat",
        "name": "cdxgen",
        "version": "3.0.10"
      },
      {
        "vendor": "Fortress Information Security",
        "name": "Github Extractor",
        "version": "1.15.1"
      }
    ],
    "authors": [
      {
        "name": "Team AppThreat",
        "email": "cloud@appthreat.com"
      },
      {
        "name": "Fortress Information Security",
        "email": "sales@fortressinfosec.com",
        "phone": "1-407-573-6800"
      }
    ],
    "component": {
      "type": "application",
      "name": "CeWL",
      "version": "5.4.3.2",
      "group": "digininja",
      "externalReferences": [
        {
          "url": "https://github.com/digininja/CeWL.git",
          "type": "distribution"
        },
        {
          "type": "website",
          "url": "null",
          "comment": "As set via `homepage` in Github API"
        }
      ]
    }
  },
  "components": [
    {
      "type": "library",
      "bom-ref": "pkg:rubygems/mime@0.4.4",
      "group": "",
      "name": "mime",
      "version": "0.4.4",
      "description": "",
      "purl": "pkg:rubygems/mime@0.4.4"
    },
    {
      "type": "library",
      "bom-ref": "pkg:rubygems/mime-types@3.4.1",
      "group": "",
      "name": "mime-types",
      "version": "3.4.1",
      "description": "",
      "purl": "pkg:rubygems/mime-types@3.4.1"
    },
    {
      "type": "library",
      "bom-ref": "pkg:rubygems/mime-types-data@3.2022.0105",
      "group": "",
      "name": "mime-types-data",
      "version": "3.2022.0105",
      "description": "",
      "purl": "pkg:rubygems/mime-types-data@3.2022.0105"
    },
    {
      "type": "library",
      "bom-ref": "pkg:rubygems/mini_exiftool@2.10.2",
      "group": "",
      "name": "mini_exiftool",
      "version": "2.10.2",
      "description": "",
      "purl": "pkg:rubygems/mini_exiftool@2.10.2"
    },
    {
      "type": "library",
      "bom-ref": "pkg:rubygems/nokogiri@1.13.6-x86_64-linux",
      "group": "",
      "name": "nokogiri",
      "version": "1.13.6-x86_64-linux",
      "description": "",
      "purl": "pkg:rubygems/nokogiri@1.13.6-x86_64-linux"
    },
    {
      "type": "library",
      "bom-ref": "pkg:rubygems/racc@1.6.0",
      "group": "",
      "name": "racc",
      "version": "1.6.0",
      "description": "",
      "purl": "pkg:rubygems/racc@1.6.0"
    },
    {
      "type": "library",
      "bom-ref": "pkg:rubygems/rexml@3.2.5",
      "group": "",
      "name": "rexml",
      "version": "3.2.5",
      "description": "",
      "purl": "pkg:rubygems/rexml@3.2.5"
    },
    {
      "type": "library",
      "bom-ref": "pkg:rubygems/rubyzip@2.3.2",
      "group": "",
      "name": "rubyzip",
      "version": "2.3.2",
      "description": "",
      "purl": "pkg:rubygems/rubyzip@2.3.2"
    },
    {
      "type": "library",
      "bom-ref": "pkg:rubygems/spider@0.5.4",
      "group": "",
      "name": "spider",
      "version": "0.5.4",
      "description": "",
      "purl": "pkg:rubygems/spider@0.5.4"
    }
  ],
  "externalReferences": [
    {
      "url": "/project/src",
      "type": "other",
      "comment": "Base path"
    },
    {
      "url": "/project/src/Gemfile.lock",
      "type": "other",
      "comment": "Package file"
    }
  ]
}
