{
  "bomFormat": "CycloneDX",
  "specVersion": "1.3",
  "version": 1,
  "metadata": {
    "tools": [
      {
        "vendor": "AppThreat",
        "name": "cdxgen",
        "version": "3.0.10"
      },
      {
        "vendor": "Fortress Information Security",
        "name": "Github Extractor",
        "version": "1.15.1"
      }
    ],
    "authors": [
      {
        "name": "Fortress Information Security",
        "email": "sales@fortressinfosec.com",
        "phone": "1-407-573-6800"
      }
    ],
    "timestamp": "2022-06-01T21:00:00Z",
    "component": {
      "type": "application",
      "name": "askama",
      "version": "0.11.0",
      "group": "djc",
      "externalReferences": [
        {
          "url": "https://github.com/djc/askama.git",
          "type": "distribution"
        },
        {
          "type": "website",
          "url": "null",
          "comment": "As set via `homepage` in Github API"
        }
      ]
    }
  },
  "components": [
    {
      "type": "library",
      "bom-ref": "pkg:crates/askama_actix@0.13.1",
      "group": "",
      "name": "askama_actix",
      "version": "0.13.1",
      "description": "",
      "purl": "pkg:crates/askama_actix@0.13.1"
    },
    {
      "type": "library",
      "bom-ref": "pkg:crates/actix-web@4",
      "group": "",
      "name": "actix-web",
      "version": "4",
      "description": "",
      "purl": "pkg:crates/actix-web@4"
    },
    {
      "type": "library",
      "bom-ref": "pkg:crates/askama@0.11.2",
      "group": "",
      "name": "askama",
      "version": "0.11.2",
      "description": "",
      "purl": "pkg:crates/askama@0.11.2"
    },
    {
      "type": "library",
      "bom-ref": "pkg:crates/actix-rt@2",
      "group": "",
      "name": "actix-rt",
      "version": "2",
      "description": "",
      "purl": "pkg:crates/actix-rt@2"
    },
    {
      "type": "library",
      "bom-ref": "pkg:crates/actix-test@=0.1.0-beta.13",
      "group": "",
      "name": "actix-test",
      "version": "=0.1.0-beta.13",
      "description": "",
      "purl": "pkg:crates/actix-test@=0.1.0-beta.13"
    },
    {
      "type": "library",
      "bom-ref": "pkg:crates/bytes@1 }",
      "group": "",
      "name": "bytes",
      "version": "1 }",
      "description": "",
      "purl": "pkg:crates/bytes@1 }"
    },
    {
      "type": "library",
      "bom-ref": "pkg:crates/askama_axum@0.1.0",
      "group": "",
      "name": "askama_axum",
      "version": "0.1.0",
      "description": "",
      "purl": "pkg:crates/askama_axum@0.1.0"
    },
    {
      "type": "library",
      "bom-ref": "pkg:crates/axum-core@0.2",
      "group": "",
      "name": "axum-core",
      "version": "0.2",
      "description": "",
      "purl": "pkg:crates/axum-core@0.2"
    },
    {
      "type": "library",
      "bom-ref": "pkg:crates/http@0.2",
      "group": "",
      "name": "http",
      "version": "0.2",
      "description": "",
      "purl": "pkg:crates/http@0.2"
    },
    {
      "type": "library",
      "bom-ref": "pkg:crates/axum@0.5",
      "group": "",
      "name": "axum",
      "version": "0.5",
      "description": "",
      "purl": "pkg:crates/axum@0.5"
    },
    {
      "type": "library",
      "bom-ref": "pkg:crates/hyper@0.14",
      "group": "",
      "name": "hyper",
      "version": "0.14",
      "description": "",
      "purl": "pkg:crates/hyper@0.14"
    },
    {
      "type": "library",
      "bom-ref": "pkg:crates/tokio@1.0",
      "group": "",
      "name": "tokio",
      "version": "1.0",
      "description": "",
      "purl": "pkg:crates/tokio@1.0"
    },
    {
      "type": "library",
      "bom-ref": "pkg:crates/tower@0.4",
      "group": "",
      "name": "tower",
      "version": "0.4",
      "description": "",
      "purl": "pkg:crates/tower@0.4"
    },
    {
      "type": "library",
      "bom-ref": "pkg:crates/askama_derive@0.12.0",
      "group": "",
      "name": "askama_derive",
      "version": "0.12.0",
      "description": "",
      "purl": "pkg:crates/askama_derive@0.12.0"
    },
    {
      "type": "library",
      "bom-ref": "pkg:crates/mime@0.3",
      "group": "",
      "name": "mime",
      "version": "0.3",
      "description": "",
      "purl": "pkg:crates/mime@0.3"
    },
    {
      "type": "library",
      "bom-ref": "pkg:crates/mime_guess@2",
      "group": "",
      "name": "mime_guess",
      "version": "2",
      "description": "",
      "purl": "pkg:crates/mime_guess@2"
    },
    {
      "type": "library",
      "bom-ref": "pkg:crates/nom@7",
      "group": "",
      "name": "nom",
      "version": "7",
      "description": "",
      "purl": "pkg:crates/nom@7"
    },
    {
      "type": "library",
      "bom-ref": "pkg:crates/proc-macro2@1",
      "group": "",
      "name": "proc-macro2",
      "version": "1",
      "description": "",
      "purl": "pkg:crates/proc-macro2@1"
    },
    {
      "type": "library",
      "bom-ref": "pkg:crates/quote@1",
      "group": "",
      "name": "quote",
      "version": "1",
      "description": "",
      "purl": "pkg:crates/quote@1"
    },
    {
      "type": "library",
      "bom-ref": "pkg:crates/serde@1.0",
      "group": "",
      "name": "serde",
      "version": "1.0",
      "description": "",
      "purl": "pkg:crates/serde@1.0"
    },
    {
      "type": "library",
      "bom-ref": "pkg:crates/syn@1",
      "group": "",
      "name": "syn",
      "version": "1",
      "description": "",
      "purl": "pkg:crates/syn@1"
    },
    {
      "type": "library",
      "bom-ref": "pkg:crates/toml@0.5",
      "group": "",
      "name": "toml",
      "version": "0.5",
      "description": "",
      "purl": "pkg:crates/toml@0.5"
    },
    {
      "type": "library",
      "bom-ref": "pkg:crates/all@0.10.3",
      "group": "",
      "name": "all",
      "version": "0.10.3",
      "description": "",
      "purl": "pkg:crates/all@0.10.3"
    },
    {
      "type": "library",
      "bom-ref": "pkg:crates/askama_gotham@0.13.0",
      "group": "",
      "name": "askama_gotham",
      "version": "0.13.0",
      "description": "",
      "purl": "pkg:crates/askama_gotham@0.13.0"
    },
    {
      "type": "library",
      "bom-ref": "pkg:crates/gotham@0.7",
      "group": "",
      "name": "gotham",
      "version": "0.7",
      "description": "",
      "purl": "pkg:crates/gotham@0.7"
    },
    {
      "type": "library",
      "bom-ref": "pkg:crates/askama_mendes@0.1.0",
      "group": "",
      "name": "askama_mendes",
      "version": "0.1.0",
      "description": "",
      "purl": "pkg:crates/askama_mendes@0.1.0"
    },
    {
      "type": "library",
      "bom-ref": "pkg:crates/mendes@0.0.64",
      "group": "",
      "name": "mendes",
      "version": "0.0.64",
      "description": "",
      "purl": "pkg:crates/mendes@0.0.64"
    },
    {
      "type": "library",
      "bom-ref": "pkg:crates/async-trait@0.1.51",
      "group": "",
      "name": "async-trait",
      "version": "0.1.51",
      "description": "",
      "purl": "pkg:crates/async-trait@0.1.51"
    },
    {
      "type": "library",
      "bom-ref": "pkg:crates/hyper@0.14.15",
      "group": "",
      "name": "hyper",
      "version": "0.14.15",
      "description": "",
      "purl": "pkg:crates/hyper@0.14.15"
    },
    {
      "type": "library",
      "bom-ref": "pkg:crates/tokio@1.12",
      "group": "",
      "name": "tokio",
      "version": "1.12",
      "description": "",
      "purl": "pkg:crates/tokio@1.12"
    },
    {
      "type": "library",
      "bom-ref": "pkg:crates/askama_rocket@0.11.0",
      "group": "",
      "name": "askama_rocket",
      "version": "0.11.0",
      "description": "",
      "purl": "pkg:crates/askama_rocket@0.11.0"
    },
    {
      "type": "library",
      "bom-ref": "pkg:crates/rocket@0.4",
      "group": "",
      "name": "rocket",
      "version": "0.4",
      "description": "",
      "purl": "pkg:crates/rocket@0.4"
    },
    {
      "type": "library",
      "bom-ref": "pkg:crates/askama_shared@0.13.0",
      "group": "",
      "name": "askama_shared",
      "version": "0.13.0",
      "description": "",
      "purl": "pkg:crates/askama_shared@0.13.0"
    },
    {
      "type": "library",
      "bom-ref": "pkg:crates/askama_escape@0.10.3",
      "group": "",
      "name": "askama_escape",
      "version": "0.10.3",
      "description": "",
      "purl": "pkg:crates/askama_escape@0.10.3"
    },
    {
      "type": "library",
      "bom-ref": "pkg:crates/comrak@0.12",
      "group": "",
      "name": "comrak",
      "version": "0.12",
      "description": "",
      "purl": "pkg:crates/comrak@0.12"
    },
    {
      "type": "library",
      "bom-ref": "pkg:crates/humansize@1.1.0",
      "group": "",
      "name": "humansize",
      "version": "1.1.0",
      "description": "",
      "purl": "pkg:crates/humansize@1.1.0"
    },
    {
      "type": "library",
      "bom-ref": "pkg:crates/num-traits@0.2.6",
      "group": "",
      "name": "num-traits",
      "version": "0.2.6",
      "description": "",
      "purl": "pkg:crates/num-traits@0.2.6"
    },
    {
      "type": "library",
      "bom-ref": "pkg:crates/serde_json@1.0",
      "group": "",
      "name": "serde_json",
      "version": "1.0",
      "description": "",
      "purl": "pkg:crates/serde_json@1.0"
    },
    {
      "type": "library",
      "bom-ref": "pkg:crates/serde_yaml@0.8",
      "group": "",
      "name": "serde_yaml",
      "version": "0.8",
      "description": "",
      "purl": "pkg:crates/serde_yaml@0.8"
    },
    {
      "type": "library",
      "bom-ref": "pkg:crates/percent-encoding@2.1.0",
      "group": "",
      "name": "percent-encoding",
      "version": "2.1.0",
      "description": "",
      "purl": "pkg:crates/percent-encoding@2.1.0"
    },
    {
      "type": "library",
      "bom-ref": "pkg:crates/features@[config, humansize, num-traits, json, yaml, percent-encoding]",
      "group": "",
      "name": "features",
      "version": "[config, humansize, num-traits, json, yaml, percent-encoding]",
      "description": "",
      "purl": "pkg:crates/features@[config, humansize, num-traits, json, yaml, percent-encoding]"
    },
    {
      "type": "library",
      "bom-ref": "pkg:crates/askama_tide@0.14.0",
      "group": "",
      "name": "askama_tide",
      "version": "0.14.0",
      "description": "",
      "purl": "pkg:crates/askama_tide@0.14.0"
    },
    {
      "type": "library",
      "bom-ref": "pkg:crates/tide@0.16",
      "group": "",
      "name": "tide",
      "version": "0.16",
      "description": "",
      "purl": "pkg:crates/tide@0.16"
    },
    {
      "type": "library",
      "bom-ref": "pkg:crates/async-std@1.6.5",
      "group": "",
      "name": "async-std",
      "version": "1.6.5",
      "description": "",
      "purl": "pkg:crates/async-std@1.6.5"
    },
    {
      "type": "library",
      "bom-ref": "pkg:crates/askama_warp@0.12.0",
      "group": "",
      "name": "askama_warp",
      "version": "0.12.0",
      "description": "",
      "purl": "pkg:crates/askama_warp@0.12.0"
    },
    {
      "type": "library",
      "bom-ref": "pkg:crates/warp@0.3",
      "group": "",
      "name": "warp",
      "version": "0.3",
      "description": "",
      "purl": "pkg:crates/warp@0.3"
    },
    {
      "type": "library",
      "bom-ref": "pkg:crates/tokio-test@0.4",
      "group": "",
      "name": "tokio-test",
      "version": "0.4",
      "description": "",
      "purl": "pkg:crates/tokio-test@0.4"
    },
    {
      "type": "library",
      "bom-ref": "pkg:crates/tokio@1",
      "group": "",
      "name": "tokio",
      "version": "1",
      "description": "",
      "purl": "pkg:crates/tokio@1"
    },
    {
      "type": "library",
      "bom-ref": "pkg:crates/features@[config, humansize, num-traits, serde-json, serde-yaml]",
      "group": "",
      "name": "features",
      "version": "[config, humansize, num-traits, serde-json, serde-yaml]",
      "description": "",
      "purl": "pkg:crates/features@[config, humansize, num-traits, serde-json, serde-yaml]"
    },
    {
      "type": "library",
      "bom-ref": "pkg:crates/askama_testing@0.1.0",
      "group": "",
      "name": "askama_testing",
      "version": "0.1.0",
      "description": "",
      "purl": "pkg:crates/askama_testing@0.1.0"
    },
    {
      "type": "library",
      "bom-ref": "pkg:crates/criterion@0.3",
      "group": "",
      "name": "criterion",
      "version": "0.3",
      "description": "",
      "purl": "pkg:crates/criterion@0.3"
    },
    {
      "type": "library",
      "bom-ref": "pkg:crates/trybuild@1.0.55",
      "group": "",
      "name": "trybuild",
      "version": "1.0.55",
      "description": "",
      "purl": "pkg:crates/trybuild@1.0.55"
    },
    {
      "type": "library",
      "bom-ref": "pkg:crates/version_check@0.9",
      "group": "",
      "name": "version_check",
      "version": "0.9",
      "description": "",
      "purl": "pkg:crates/version_check@0.9"
    },
    {
      "type": "library",
      "bom-ref": "pkg:crates/name@all",
      "group": "",
      "name": "name",
      "version": "all",
      "description": "",
      "purl": "pkg:crates/name@all"
    },
    {
      "type": "library",
      "bom-ref": "pkg:crates/harness@false",
      "group": "",
      "name": "harness",
      "version": "false",
      "description": "",
      "purl": "pkg:crates/harness@false"
    }
  ]
}
