{
  "bomFormat": "CycloneDX",
  "specVersion": "1.3",
  "version": 1,
  "components": [
    {
      "type": "library",
      "publisher": "Thomas Waldmann",
      "name": "argparse",
      "version": "1.4.0",
      "description": "Python command-line parsing library",
      "hashes": [
        {
          "alg": "MD5",
          "content": "c37216a954c8669054e2b2c54853dd49"
        },
        {
          "alg": "SHA-256",
          "content": "c31647edb69fd3d465a847ea3157d37bed1f95f19760b11a47aa91c04b666314"
        }
      ],
      "licenses": [
        {
          "license": {
            "name": "Python Software Foundation License"
          }
        }
      ],
      "purl": "pkg:pypi/argparse@1.4.0",
      "modified": false
    },
    {
      "type": "library",
      "publisher": "Eric V. Smith",
      "name": "dataclasses",
      "version": "0.8",
      "description": "A backport of the dataclasses module for Python 3.6",
      "hashes": [
        {
          "alg": "MD5",
          "content": "0d6e5bb7adcc8fb0de3ef1ace1b32999"
        },
        {
          "alg": "SHA-256",
          "content": "0201d89fa866f68c8ebd9d08ee6ff50c0b255f8ec63a71c16fda7af82bb887bf"
        }
      ],
      "licenses": [
        {
          "license": {
            "name": "Apache"
          }
        }
      ],
      "purl": "pkg:pypi/dataclasses@0.8",
      "modified": false
    },
    {
      "type": "library",
      "publisher": "Ben Finney",
      "name": "enum",
      "version": "0.4.7",
      "description": "Robust enumerated type support in Python.",
      "hashes": [
        {
          "alg": "MD5",
          "content": "e7d170e3f84435b77058de625c96ef58"
        },
        {
          "alg": "SHA-256",
          "content": "8c7cf3587eda51008bcc1eed99ea2c331ccd265c231dbaa95ec5258d3dc03100"
        }
      ],
      "licenses": [
        {
          "license": {
            "name": "GPL-3.0+"
          }
        }
      ],
      "purl": "pkg:pypi/enum@0.4.7",
      "modified": false
    },
    {
      "type": "library",
      "publisher": "Antoine Pitrou",
      "name": "pathlib",
      "version": "1.0.1",
      "description": "Object-oriented filesystem paths",
      "hashes": [
        {
          "alg": "MD5",
          "content": "f26b13acf298a15cdb46a3dffc8eb0de"
        },
        {
          "alg": "SHA-256",
          "content": "f35f95ab8b0f59e6d354090350b44a80a80635d22efdedfa84c7ad1cf0a74147"
        }
      ],
      "licenses": [
        {
          "license": {
            "name": "MIT License"
          }
        }
      ],
      "purl": "pkg:pypi/pathlib@1.0.1",
      "modified": false
    },
    {
      "type": "library",
      "publisher": "Guido van Rossum, Jukka Lehtosalo, Łukasz Langa, Ivan Levkivskyi",
      "name": "typing",
      "version": "3.10.0.0",
      "description": "Type Hints for Python",
      "hashes": [
        {
          "alg": "MD5",
          "content": "cf38139027dc160e3ecd8e5ccf151da9"
        },
        {
          "alg": "SHA-256",
          "content": "12fbdfbe7d6cca1a42e485229afcb0b0c8259258cfb919b8a5e2a5c953742f89"
        }
      ],
      "licenses": [
        {
          "license": {
            "name": "PSF"
          }
        }
      ],
      "purl": "pkg:pypi/typing@3.10.0.0",
      "modified": false
    },
    {
      "type": "library",
      "publisher": "Travis E. Oliphant et al.",
      "name": "numpy",
      "version": "1.22.4",
      "description": "NumPy is the fundamental package for array computing with Python.",
      "hashes": [
        {
          "alg": "MD5",
          "content": "ab803b24ea557452e828adba1b986af3"
        },
        {
          "alg": "SHA-256",
          "content": "0791fbd1e43bf74b3502133207e378901272f3c156c4df4954cad833b1380207"
        }
      ],
      "licenses": [
        {
          "license": {
            "name": "BSD"
          }
        }
      ],
      "purl": "pkg:pypi/numpy@1.22.4",
      "modified": false
    },
    {
      "type": "library",
      "publisher": "Dima Dorfman",
      "name": "functools",
      "version": "0.5",
      "description": "Fast tools for functional programming",
      "hashes": [
        {
          "alg": "MD5",
          "content": "91111c28ee685a2f89f1a41e6f0ce8ea"
        },
        {
          "alg": "SHA-256",
          "content": "596ed8999dee419c0749a41bfdd82e4697e80ea27ee01c716003ef55be9a54c5"
        }
      ],
      "licenses": [
        {
          "license": {
            "name": "BSD"
          }
        }
      ],
      "purl": "pkg:pypi/functools@0.5",
      "modified": false
    },
    {
      "type": "library",
      "name": "scipy",
      "version": "1.8.1",
      "description": "SciPy: Scientific Library for Python",
      "hashes": [
        {
          "alg": "MD5",
          "content": "12952c28f9b1b045598f04628d97c64b"
        },
        {
          "alg": "SHA-256",
          "content": "9dd4012ac599a1e7eb63c114d1eee1bcfc6dc75a29b589ff0ad0bb3d9412034f"
        }
      ],
      "licenses": [
        {
          "license": {
            "name": "BSD"
          }
        }
      ],
      "purl": "pkg:pypi/scipy@1.8.1",
      "modified": false
    },
    {
      "type": "library",
      "publisher": "Fredrik Johansson",
      "name": "mpmath",
      "version": "1.2.1",
      "description": "Python library for arbitrary-precision floating-point arithmetic",
      "hashes": [
        {
          "alg": "MD5",
          "content": "40d2f606d4d85a79ca353bb5eff8cd09"
        },
        {
          "alg": "SHA-256",
          "content": "604bc21bd22d2322a177c73bdb573994ef76e62edd595d17e00aff24b0667e5c"
        }
      ],
      "licenses": [
        {
          "license": {
            "name": "BSD"
          }
        }
      ],
      "purl": "pkg:pypi/mpmath@1.2.1",
      "modified": false
    },
    {
      "type": "library",
      "publisher": "Seequent",
      "name": "vectormath",
      "version": "0.2.2",
      "description": "vectormath: vector math utilities for Python",
      "hashes": [
        {
          "alg": "MD5",
          "content": "cd94f521fa7b5952838bb9ea49273889"
        },
        {
          "alg": "SHA-256",
          "content": "f9f9209d350ec89dc11e2548e0e6397c1b9489c8468eb50ce33788ee4322a7b8"
        }
      ],
      "licenses": [
        {
          "license": {
            "name": "MIT License"
          }
        }
      ],
      "purl": "pkg:pypi/vectormath@0.2.2",
      "modified": false
    },
    {
      "type": "library",
      "publisher": "The Astropy Developers",
      "name": "astropy",
      "version": "5.1",
      "description": "Astronomy and astrophysics core library",
      "hashes": [
        {
          "alg": "MD5",
          "content": "9b57112f658d35764d2e9954ef415086"
        },
        {
          "alg": "SHA-256",
          "content": "f54d3537e987c33244435fb155f9087e130abae4126d06b003171c15dbff6ed6"
        }
      ],
      "licenses": [
        {
          "license": {
            "name": "BSD 3-Clause License"
          }
        }
      ],
      "purl": "pkg:pypi/astropy@5.1",
      "modified": false
    },
    {
      "type": "library",
      "publisher": "John D. Hunter, Michael Droettboom",
      "name": "matplotlib",
      "version": "3.5.2",
      "description": "Python plotting package",
      "hashes": [
        {
          "alg": "MD5",
          "content": "36ccc2efc47ed886836b2c7c3d3b9b3a"
        },
        {
          "alg": "SHA-256",
          "content": "24173c23d1bcbaed5bf47b8785d27933a1ac26a5d772200a0f3e0e38f471b001"
        }
      ],
      "licenses": [
        {
          "license": {
            "name": "PSF"
          }
        }
      ],
      "purl": "pkg:pypi/matplotlib@3.5.2",
      "modified": false
    }
  ],
  "metadata": {
    "tools": [
      {
        "vendor": "Fortress Information Security",
        "name": "Github Extractor",
        "version": "1.15.1"
      }
    ],
    "authors": [
      {
        "name": "Fortress Information Security",
        "email": "sales@fortressinfosec.com",
        "phone": "1-407-573-6800"
      }
    ],
    "timestamp": "2022-06-01T21:00:00Z",
    "component": {
      "type": "application",
      "name": "NumCpp",
      "version": "Version_2.7.0",
      "group": "dpilger26",
      "externalReferences": [
        {
          "url": "https://github.com/dpilger26/NumCpp.git",
          "type": "distribution"
        },
        {
          "type": "website",
          "url": "https://dpilger26.github.io/NumCpp",
          "comment": "As set via `homepage` in Github API"
        }
      ]
    }
  }
}
