{
  "bomFormat": "CycloneDX",
  "specVersion": "1.3",
  "version": 1,
  "metadata": {
    "tools": [
      {
        "vendor": "CycloneDX",
        "name": "cyclonedx-gomod",
        "version": "v0.0.0-unset",
        "hashes": [
          {
            "alg": "MD5",
            "content": "a35776fc9417e8071d3f1dcfa2f1dd19"
          },
          {
            "alg": "SHA-1",
            "content": "a19a8eed713eff5a2092e5283c201a146f19421d"
          },
          {
            "alg": "SHA-256",
            "content": "17b3b980b9a5d0f48ad52043dee5b31aff3ae6599a36bc94224dc7b6a46759ef"
          },
          {
            "alg": "SHA-512",
            "content": "9d4f06aab20cede94a1aedf11a300ae9de98871235c68c72e421cd6d45495910861b39e743ee0eceb11bbdcd2c9acc3312c19064cfe90177243fb43127fcfa46"
          }
        ]
      },
      {
        "vendor": "CycloneDX",
        "name": "Node.js module",
        "version": "3.0.3"
      },
      {
        "vendor": "Fortress Information Security",
        "name": "Github Extractor",
        "version": "1.15.1"
      }
    ],
    "authors": [
      {
        "name": "Fortress Information Security",
        "email": "sales@fortressinfosec.com",
        "phone": "1-407-573-6800"
      }
    ],
    "timestamp": "2022-06-01T21:00:00Z",
    "component": {
      "type": "application",
      "name": "earthly",
      "version": "v0.6.15",
      "group": "earthly",
      "externalReferences": [
        {
          "url": "https://github.com/earthly/earthly.git",
          "type": "distribution"
        },
        {
          "type": "website",
          "url": "https://earthly.dev",
          "comment": "As set via `homepage` in Github API"
        }
      ]
    }
  },
  "components": [
    {
      "type": "library",
      "bom-ref": "pkg:golang/github.com/Microsoft/go-winio@v0.5.1",
      "name": "github.com/Microsoft/go-winio",
      "version": "v0.5.1",
      "scope": "required",
      "hashes": [
        {
          "alg": "SHA-256",
          "content": "68f269d900fb38eae13b9b505ea42819225cf838c3b564c62ce98dc809ba1606"
        }
      ],
      "purl": "pkg:golang/github.com/Microsoft/go-winio@v0.5.1",
      "externalReferences": [
        {
          "url": "https://github.com/Microsoft/go-winio",
          "type": "vcs"
        }
      ]
    },
    {
      "type": "library",
      "bom-ref": "pkg:golang/github.com/agext/levenshtein@v1.2.3",
      "name": "github.com/agext/levenshtein",
      "version": "v1.2.3",
      "scope": "required",
      "hashes": [
        {
          "alg": "SHA-256",
          "content": "601d9f1c49f45096a01bc4f5aeb5a49c4dd943358cd3a3bc00c01ab4d9fb966a"
        }
      ],
      "purl": "pkg:golang/github.com/agext/levenshtein@v1.2.3",
      "externalReferences": [
        {
          "url": "https://github.com/agext/levenshtein",
          "type": "vcs"
        }
      ]
    },
    {
      "type": "library",
      "bom-ref": "pkg:golang/github.com/alessio/shellescape@v1.4.1",
      "name": "github.com/alessio/shellescape",
      "version": "v1.4.1",
      "scope": "required",
      "hashes": [
        {
          "alg": "SHA-256",
          "content": "57bca14830e7f0b3f895ce234bca4592dd330a7cd52651b9257cbd055289517d"
        }
      ],
      "purl": "pkg:golang/github.com/alessio/shellescape@v1.4.1",
      "externalReferences": [
        {
          "url": "https://github.com/alessio/shellescape",
          "type": "vcs"
        }
      ]
    },
    {
      "type": "library",
      "bom-ref": "pkg:golang/github.com/antlr/antlr4@v0.0.0-20200225173536-225249fdaef5",
      "name": "github.com/antlr/antlr4",
      "version": "v0.0.0-20200225173536-225249fdaef5",
      "scope": "required",
      "hashes": [
        {
          "alg": "SHA-256",
          "content": "9e467d6b13fe32f5050aef0944dfcc098f839937ecea563b844d109c96f149d2"
        }
      ],
      "purl": "pkg:golang/github.com/antlr/antlr4@v0.0.0-20200225173536-225249fdaef5",
      "externalReferences": [
        {
          "url": "https://github.com/antlr/antlr4",
          "type": "vcs"
        }
      ]
    },
    {
      "type": "library",
      "bom-ref": "pkg:golang/github.com/armon/circbuf@v0.0.0-20190214190532-5111143e8da2",
      "name": "github.com/armon/circbuf",
      "version": "v0.0.0-20190214190532-5111143e8da2",
      "scope": "required",
      "hashes": [
        {
          "alg": "SHA-256",
          "content": "ec8a74c0c98b1cb44976b9680f165f84c9b4c6b2d7652f3e08e4aed9b5e6110b"
        }
      ],
      "purl": "pkg:golang/github.com/armon/circbuf@v0.0.0-20190214190532-5111143e8da2",
      "externalReferences": [
        {
          "url": "https://github.com/armon/circbuf",
          "type": "vcs"
        }
      ]
    },
    {
      "type": "library",
      "bom-ref": "pkg:golang/github.com/containerd/console@v1.0.3",
      "name": "github.com/containerd/console",
      "version": "v1.0.3",
      "scope": "required",
      "hashes": [
        {
          "alg": "SHA-256",
          "content": "948afb4a50393f1672315df46c35b43066e238f5f073adf246e08fd0046e6cbc"
        }
      ],
      "purl": "pkg:golang/github.com/containerd/console@v1.0.3",
      "externalReferences": [
        {
          "url": "https://github.com/containerd/console",
          "type": "vcs"
        }
      ]
    },
    {
      "type": "library",
      "bom-ref": "pkg:golang/github.com/containerd/containerd@v1.6.0-rc.1",
      "name": "github.com/containerd/containerd",
      "version": "v1.6.0-rc.1",
      "scope": "required",
      "hashes": [
        {
          "alg": "SHA-256",
          "content": "6c54936b2e591c24a6004fe1cee6c15d7f9e529a6d1e9adb5e2d1010bb949346"
        }
      ],
      "purl": "pkg:golang/github.com/containerd/containerd@v1.6.0-rc.1",
      "externalReferences": [
        {
          "url": "https://github.com/containerd/containerd",
          "type": "vcs"
        }
      ]
    },
    {
      "type": "library",
      "bom-ref": "pkg:golang/github.com/containerd/continuity@v0.2.2",
      "name": "github.com/containerd/continuity",
      "version": "v0.2.2",
      "scope": "required",
      "hashes": [
        {
          "alg": "SHA-256",
          "content": "412a9fc5c9fc73ed76b25c70bb4d00b735ebb1a9a2d0c25bfcc42cf6538b1cb0"
        }
      ],
      "purl": "pkg:golang/github.com/containerd/continuity@v0.2.2",
      "externalReferences": [
        {
          "url": "https://github.com/containerd/continuity",
          "type": "vcs"
        }
      ]
    },
    {
      "type": "library",
      "bom-ref": "pkg:golang/github.com/containerd/ttrpc@v1.1.0",
      "name": "github.com/containerd/ttrpc",
      "version": "v1.1.0",
      "scope": "required",
      "hashes": [
        {
          "alg": "SHA-256",
          "content": "19bb722d1c5bd2038b4744d8416b773ba07436f4fcb4c768ac41ea210a3f9562"
        }
      ],
      "purl": "pkg:golang/github.com/containerd/ttrpc@v1.1.0",
      "externalReferences": [
        {
          "url": "https://github.com/containerd/ttrpc",
          "type": "vcs"
        }
      ]
    },
    {
      "type": "library",
      "bom-ref": "pkg:golang/github.com/containerd/typeurl@v1.0.2",
      "name": "github.com/containerd/typeurl",
      "version": "v1.0.2",
      "scope": "required",
      "hashes": [
        {
          "alg": "SHA-256",
          "content": "0a196df332227836f3405cd7cc0781105f762a1131b84e29f69f76fd0998eda6"
        }
      ],
      "purl": "pkg:golang/github.com/containerd/typeurl@v1.0.2",
      "externalReferences": [
        {
          "url": "https://github.com/containerd/typeurl",
          "type": "vcs"
        }
      ]
    },
    {
      "type": "library",
      "bom-ref": "pkg:golang/github.com/cpuguy83/go-md2man/v2@v2.0.0",
      "name": "github.com/cpuguy83/go-md2man/v2",
      "version": "v2.0.0",
      "scope": "required",
      "hashes": [
        {
          "alg": "SHA-256",
          "content": "1285034b469f6ebb17019f5843d8ddbbf999dac5e04f5ff6cb23678383c69723"
        }
      ],
      "purl": "pkg:golang/github.com/cpuguy83/go-md2man/v2@v2.0.0",
      "externalReferences": [
        {
          "url": "https://github.com/cpuguy83/go-md2man",
          "type": "vcs"
        }
      ]
    },
    {
      "type": "library",
      "bom-ref": "pkg:golang/github.com/creack/pty@v1.1.11",
      "name": "github.com/creack/pty",
      "version": "v1.1.11",
      "scope": "required",
      "hashes": [
        {
          "alg": "SHA-256",
          "content": "d3b9f7dd9f25671676ab07a029b39b4288438570d0c6230ccf534e5066257acc"
        }
      ],
      "purl": "pkg:golang/github.com/creack/pty@v1.1.11",
      "externalReferences": [
        {
          "url": "https://github.com/creack/pty",
          "type": "vcs"
        }
      ]
    },
    {
      "type": "library",
      "bom-ref": "pkg:golang/github.com/docker/cli@v20.10.12",
      "name": "github.com/docker/cli",
      "version": "v20.10.12",
      "scope": "required",
      "hashes": [
        {
          "alg": "SHA-256",
          "content": "40e0d7bf4ae5e9e6805f86f361507c75e80f0fee77c6baab27af7e112a6ec3ba"
        }
      ],
      "purl": "pkg:golang/github.com/docker/cli@v20.10.12",
      "externalReferences": [
        {
          "url": "https://github.com/docker/cli",
          "type": "vcs"
        }
      ]
    },
    {
      "type": "library",
      "bom-ref": "pkg:golang/github.com/docker/distribution@v2.7.1",
      "name": "github.com/docker/distribution",
      "version": "v2.7.1",
      "scope": "required",
      "hashes": [
        {
          "alg": "SHA-256",
          "content": "ffef63f21ade851f293c050d7cac0e8338ad1fc0b139ab1fbc5c170515e878ab"
        }
      ],
      "purl": "pkg:golang/github.com/docker/distribution@v2.7.1",
      "externalReferences": [
        {
          "url": "https://github.com/docker/distribution",
          "type": "vcs"
        }
      ]
    },
    {
      "type": "library",
      "bom-ref": "pkg:golang/github.com/docker/docker@v20.10.3-0.20211208011758-87521affb077+incompatible",
      "name": "github.com/docker/docker",
      "version": "v20.10.3-0.20211208011758-87521affb077+incompatible",
      "scope": "required",
      "hashes": [
        {
          "alg": "SHA-256",
          "content": "8149b66ce2da6803e4575cf8b5eeda86b5d35b203e3cd356ae821248eb6d4a05"
        }
      ],
      "purl": "pkg:golang/github.com/docker/docker@v20.10.3-0.20211208011758-87521affb077+incompatible",
      "externalReferences": [
        {
          "url": "https://github.com/docker/docker",
          "type": "vcs"
        }
      ]
    },
    {
      "type": "library",
      "bom-ref": "pkg:golang/github.com/docker/docker-credential-helpers@v0.6.4",
      "name": "github.com/docker/docker-credential-helpers",
      "version": "v0.6.4",
      "scope": "required",
      "hashes": [
        {
          "alg": "SHA-256",
          "content": "6b10a4b3ec95fb6311dff9198409b2d3bc82e7a599d8fc2efdf296b4ab99074a"
        }
      ],
      "purl": "pkg:golang/github.com/docker/docker-credential-helpers@v0.6.4",
      "externalReferences": [
        {
          "url": "https://github.com/docker/docker-credential-helpers",
          "type": "vcs"
        }
      ]
    },
    {
      "type": "library",
      "bom-ref": "pkg:golang/github.com/docker/go-connections@v0.4.0",
      "name": "github.com/docker/go-connections",
      "version": "v0.4.0",
      "scope": "required",
      "hashes": [
        {
          "alg": "SHA-256",
          "content": "125f7154849e95107b06e16eb2b668ce39e420ce589f309588d2a884016a4494"
        }
      ],
      "purl": "pkg:golang/github.com/docker/go-connections@v0.4.0",
      "externalReferences": [
        {
          "url": "https://github.com/docker/go-connections",
          "type": "vcs"
        }
      ]
    },
    {
      "type": "library",
      "bom-ref": "pkg:golang/github.com/docker/go-units@v0.4.0",
      "name": "github.com/docker/go-units",
      "version": "v0.4.0",
      "scope": "required",
      "hashes": [
        {
          "alg": "SHA-256",
          "content": "dee8743e0570b379c803443e3300c2f328c43dff738d17d96565d960372ddd3c"
        }
      ],
      "purl": "pkg:golang/github.com/docker/go-units@v0.4.0",
      "externalReferences": [
        {
          "url": "https://github.com/docker/go-units",
          "type": "vcs"
        }
      ]
    },
    {
      "type": "library",
      "bom-ref": "pkg:golang/github.com/dustin/go-humanize@v1.0.0",
      "name": "github.com/dustin/go-humanize",
      "version": "v1.0.0",
      "scope": "required",
      "hashes": [
        {
          "alg": "SHA-256",
          "content": "5529d3b180a79451da336fe280ed61e97dc703bd637286d0bb17a6824ab8cd8a"
        }
      ],
      "purl": "pkg:golang/github.com/dustin/go-humanize@v1.0.0",
      "externalReferences": [
        {
          "url": "https://github.com/dustin/go-humanize",
          "type": "vcs"
        }
      ]
    },
    {
      "type": "library",
      "bom-ref": "pkg:golang/github.com/earthly/cloud-api@v1.0.1-0.20220228235811-35dd6315dcf5",
      "name": "github.com/earthly/cloud-api",
      "version": "v1.0.1-0.20220228235811-35dd6315dcf5",
      "scope": "required",
      "hashes": [
        {
          "alg": "SHA-256",
          "content": "34090616b16b4d908836728be8359ab9107166a7612c549abc7453a9e74c196c"
        }
      ],
      "purl": "pkg:golang/github.com/earthly/cloud-api@v1.0.1-0.20220228235811-35dd6315dcf5",
      "externalReferences": [
        {
          "url": "https://github.com/earthly/cloud-api",
          "type": "vcs"
        }
      ]
    },
    {
      "type": "library",
      "bom-ref": "pkg:golang/github.com/fatih/color@v1.9.0",
      "name": "github.com/fatih/color",
      "version": "v1.9.0",
      "scope": "required",
      "hashes": [
        {
          "alg": "SHA-256",
          "content": "f313c7978fead55caa1883e27f517ed55dd8de54a6aead3511a6d45b70a85b9b"
        }
      ],
      "purl": "pkg:golang/github.com/fatih/color@v1.9.0",
      "externalReferences": [
        {
          "url": "https://github.com/fatih/color",
          "type": "vcs"
        }
      ]
    },
    {
      "type": "library",
      "bom-ref": "pkg:golang/github.com/go-logr/logr@v1.2.2",
      "name": "github.com/go-logr/logr",
      "version": "v1.2.2",
      "scope": "required",
      "hashes": [
        {
          "alg": "SHA-256",
          "content": "6a11e697fc94a6795bf7a469f070afb5854f63c658a71ab783b518721218c1bb"
        }
      ],
      "purl": "pkg:golang/github.com/go-logr/logr@v1.2.2",
      "externalReferences": [
        {
          "url": "https://github.com/go-logr/logr",
          "type": "vcs"
        }
      ]
    },
    {
      "type": "library",
      "bom-ref": "pkg:golang/github.com/go-logr/stdr@v1.2.2",
      "name": "github.com/go-logr/stdr",
      "version": "v1.2.2",
      "scope": "required",
      "hashes": [
        {
          "alg": "SHA-256",
          "content": "8525b11e8a93816d92daa19cd0b4c0239eb7299e582984614f730529931b8da8"
        }
      ],
      "purl": "pkg:golang/github.com/go-logr/stdr@v1.2.2",
      "externalReferences": [
        {
          "url": "https://github.com/go-logr/stdr",
          "type": "vcs"
        }
      ]
    },
    {
      "type": "library",
      "bom-ref": "pkg:golang/github.com/gofrs/flock@v0.7.3",
      "name": "github.com/gofrs/flock",
      "version": "v0.7.3",
      "scope": "required",
      "hashes": [
        {
          "alg": "SHA-256",
          "content": "23410a63d97c1d90974cc602e05f34bf04fa28dca957db9828fdc0966fe18e64"
        }
      ],
      "purl": "pkg:golang/github.com/gofrs/flock@v0.7.3",
      "externalReferences": [
        {
          "url": "https://github.com/gofrs/flock",
          "type": "vcs"
        }
      ]
    },
    {
      "type": "library",
      "bom-ref": "pkg:golang/github.com/gogo/googleapis@v1.4.1",
      "name": "github.com/gogo/googleapis",
      "version": "v1.4.1",
      "scope": "required",
      "hashes": [
        {
          "alg": "SHA-256",
          "content": "d58c78332b7b071cef52be6574649bc188991bab7dc06059fbcfdf5f75afb6ad"
        }
      ],
      "purl": "pkg:golang/github.com/gogo/googleapis@v1.4.1",
      "externalReferences": [
        {
          "url": "https://github.com/gogo/googleapis",
          "type": "vcs"
        }
      ]
    },
    {
      "type": "library",
      "bom-ref": "pkg:golang/github.com/gogo/protobuf@v1.3.2",
      "name": "github.com/gogo/protobuf",
      "version": "v1.3.2",
      "scope": "required",
      "hashes": [
        {
          "alg": "SHA-256",
          "content": "3afd5cbdce7c505ddbe578c19d9bfbfa8a5c4dc40565e6d88d6ce2df8bdd9b84"
        }
      ],
      "purl": "pkg:golang/github.com/gogo/protobuf@v1.3.2",
      "externalReferences": [
        {
          "url": "https://github.com/gogo/protobuf",
          "type": "vcs"
        }
      ]
    },
    {
      "type": "library",
      "bom-ref": "pkg:golang/github.com/golang/protobuf@v1.5.2",
      "name": "github.com/golang/protobuf",
      "version": "v1.5.2",
      "scope": "required",
      "hashes": [
        {
          "alg": "SHA-256",
          "content": "44e3ca04d15f4203943227c7c8ff8a61bbe98db76814db3e68aec35e58e2d13c"
        }
      ],
      "purl": "pkg:golang/github.com/golang/protobuf@v1.5.2",
      "externalReferences": [
        {
          "url": "https://github.com/golang/protobuf",
          "type": "vcs"
        }
      ]
    },
    {
      "type": "library",
      "bom-ref": "pkg:golang/github.com/google/shlex@v0.0.0-20191202100458-e7afc7fbc510",
      "name": "github.com/google/shlex",
      "version": "v0.0.0-20191202100458-e7afc7fbc510",
      "scope": "required",
      "hashes": [
        {
          "alg": "SHA-256",
          "content": "125e8ce244d308e87a68188a694186ee861348f3fc331a8be182379192b070fe"
        }
      ],
      "purl": "pkg:golang/github.com/google/shlex@v0.0.0-20191202100458-e7afc7fbc510",
      "externalReferences": [
        {
          "url": "https://github.com/google/shlex",
          "type": "vcs"
        }
      ]
    },
    {
      "type": "library",
      "bom-ref": "pkg:golang/github.com/google/uuid@v1.3.0",
      "name": "github.com/google/uuid",
      "version": "v1.3.0",
      "scope": "required",
      "hashes": [
        {
          "alg": "SHA-256",
          "content": "b7a2625e09b05cc8c4b3c56eb172099360571ec9fec31f0165d4daa19e5fbbb2"
        }
      ],
      "purl": "pkg:golang/github.com/google/uuid@v1.3.0",
      "externalReferences": [
        {
          "url": "https://github.com/google/uuid",
          "type": "vcs"
        }
      ]
    },
    {
      "type": "library",
      "bom-ref": "pkg:golang/github.com/grpc-ecosystem/go-grpc-middleware@v1.3.0",
      "name": "github.com/grpc-ecosystem/go-grpc-middleware",
      "version": "v1.3.0",
      "scope": "required",
      "hashes": [
        {
          "alg": "SHA-256",
          "content": "fbdf37e3e2a2ce6bc557ba57406497413b1a5a1ab61a3b8d52dd1a514d18058c"
        }
      ],
      "purl": "pkg:golang/github.com/grpc-ecosystem/go-grpc-middleware@v1.3.0",
      "externalReferences": [
        {
          "url": "https://github.com/grpc-ecosystem/go-grpc-middleware",
          "type": "vcs"
        }
      ]
    },
    {
      "type": "library",
      "bom-ref": "pkg:golang/github.com/grpc-ecosystem/grpc-gateway@v1.16.0",
      "name": "github.com/grpc-ecosystem/grpc-gateway",
      "version": "v1.16.0",
      "scope": "required",
      "hashes": [
        {
          "alg": "SHA-256",
          "content": "826706d4a689e7b2e8a615335b41f2f0d98f8673196f8334fa43e92e87d1741a"
        }
      ],
      "purl": "pkg:golang/github.com/grpc-ecosystem/grpc-gateway@v1.16.0",
      "externalReferences": [
        {
          "url": "https://github.com/grpc-ecosystem/grpc-gateway",
          "type": "vcs"
        }
      ]
    },
    {
      "type": "library",
      "bom-ref": "pkg:golang/github.com/hashicorp/errwrap@v1.1.0",
      "name": "github.com/hashicorp/errwrap",
      "version": "v1.1.0",
      "scope": "required",
      "hashes": [
        {
          "alg": "SHA-256",
          "content": "3b1ace7a1ef91145cc63c4c18da8367f35c6678d0b07a20ac38e587865036362"
        }
      ],
      "purl": "pkg:golang/github.com/hashicorp/errwrap@v1.1.0",
      "externalReferences": [
        {
          "url": "https://github.com/hashicorp/errwrap",
          "type": "vcs"
        }
      ]
    },
    {
      "type": "library",
      "bom-ref": "pkg:golang/github.com/hashicorp/go-multierror@v1.1.1",
      "name": "github.com/hashicorp/go-multierror",
      "version": "v1.1.1",
      "scope": "required",
      "hashes": [
        {
          "alg": "SHA-256",
          "content": "1f90e412d7fa097745a74374126e540b04295cc5a47bc200d3e943e3c6b0318a"
        }
      ],
      "purl": "pkg:golang/github.com/hashicorp/go-multierror@v1.1.1",
      "externalReferences": [
        {
          "url": "https://github.com/hashicorp/go-multierror",
          "type": "vcs"
        }
      ]
    },
    {
      "type": "library",
      "bom-ref": "pkg:golang/github.com/jdxcode/netrc@v0.0.0-20210204082910-926c7f70242a",
      "name": "github.com/jdxcode/netrc",
      "version": "v0.0.0-20210204082910-926c7f70242a",
      "scope": "required",
      "hashes": [
        {
          "alg": "SHA-256",
          "content": "778f88d5810a566599ae092dea3a570672e05766633b463112d2c375f2197c7e"
        }
      ],
      "purl": "pkg:golang/github.com/jdxcode/netrc@v0.0.0-20210204082910-926c7f70242a",
      "externalReferences": [
        {
          "url": "https://github.com/jdxcode/netrc",
          "type": "vcs"
        }
      ]
    },
    {
      "type": "library",
      "bom-ref": "pkg:golang/github.com/alexcb/go-flags@v0.0.0-20210722203016-f11d7ecb5ee5",
      "name": "github.com/alexcb/go-flags",
      "version": "v0.0.0-20210722203016-f11d7ecb5ee5",
      "scope": "required",
      "hashes": [
        {
          "alg": "SHA-256",
          "content": "8a6d278904595ddc4ef05d6bc38cf06f9ac998e27d5e736d967305c9f2de9d81"
        }
      ],
      "purl": "pkg:golang/github.com/alexcb/go-flags@v0.0.0-20210722203016-f11d7ecb5ee5",
      "externalReferences": [
        {
          "url": "https://github.com/alexcb/go-flags",
          "type": "vcs"
        }
      ]
    },
    {
      "type": "library",
      "bom-ref": "pkg:golang/github.com/joho/godotenv@v1.3.0",
      "name": "github.com/joho/godotenv",
      "version": "v1.3.0",
      "scope": "required",
      "hashes": [
        {
          "alg": "SHA-256",
          "content": "663a7e45c1a91e11a5acc6c9cd74eb6593eb5a3fb5bdf9bdd0b6b5c2007a0617"
        }
      ],
      "purl": "pkg:golang/github.com/joho/godotenv@v1.3.0",
      "externalReferences": [
        {
          "url": "https://github.com/joho/godotenv",
          "type": "vcs"
        }
      ]
    },
    {
      "type": "library",
      "bom-ref": "pkg:golang/github.com/klauspost/compress@v1.14.2",
      "name": "github.com/klauspost/compress",
      "version": "v1.14.2",
      "scope": "required",
      "hashes": [
        {
          "alg": "SHA-256",
          "content": "4b438794593f19ba27ff26ae149e057c9245e55d1f7391db05325ace2dbca51c"
        }
      ],
      "purl": "pkg:golang/github.com/klauspost/compress@v1.14.2",
      "externalReferences": [
        {
          "url": "https://github.com/klauspost/compress",
          "type": "vcs"
        }
      ]
    },
    {
      "type": "library",
      "bom-ref": "pkg:golang/github.com/mattn/go-colorable@v0.1.8",
      "name": "github.com/mattn/go-colorable",
      "version": "v0.1.8",
      "scope": "required",
      "hashes": [
        {
          "alg": "SHA-256",
          "content": "7358213ddc840daac2ef47ed9f4cbe03f11efbef73cfc9631c6d5bd77789d2cf"
        }
      ],
      "purl": "pkg:golang/github.com/mattn/go-colorable@v0.1.8",
      "externalReferences": [
        {
          "url": "https://github.com/mattn/go-colorable",
          "type": "vcs"
        }
      ]
    },
    {
      "type": "library",
      "bom-ref": "pkg:golang/github.com/mattn/go-isatty@v0.0.12",
      "name": "github.com/mattn/go-isatty",
      "version": "v0.0.12",
      "scope": "required",
      "hashes": [
        {
          "alg": "SHA-256",
          "content": "c2ecac461143cf2c6012631fe718ef27633d759a1601734daf92d2052eee1d76"
        }
      ],
      "purl": "pkg:golang/github.com/mattn/go-isatty@v0.0.12",
      "externalReferences": [
        {
          "url": "https://github.com/mattn/go-isatty",
          "type": "vcs"
        }
      ]
    },
    {
      "type": "library",
      "bom-ref": "pkg:golang/github.com/mitchellh/hashstructure/v2@v2.0.2",
      "name": "github.com/mitchellh/hashstructure/v2",
      "version": "v2.0.2",
      "scope": "required",
      "hashes": [
        {
          "alg": "SHA-256",
          "content": "bc6296974609a9437113c77e87c7fa3492dc089ae06e10b835c0f8e8a6af0dde"
        }
      ],
      "purl": "pkg:golang/github.com/mitchellh/hashstructure/v2@v2.0.2",
      "externalReferences": [
        {
          "url": "https://github.com/mitchellh/hashstructure",
          "type": "vcs"
        }
      ]
    },
    {
      "type": "library",
      "bom-ref": "pkg:golang/github.com/earthly/buildkit@v0.0.1-0.20220426221727-a3a7a3021815",
      "name": "github.com/earthly/buildkit",
      "version": "v0.0.1-0.20220426221727-a3a7a3021815",
      "scope": "required",
      "hashes": [
        {
          "alg": "SHA-256",
          "content": "8d72dac1e7af1f814604c8c2a854783a04d9605591517f07a3f73963b6372550"
        }
      ],
      "purl": "pkg:golang/github.com/earthly/buildkit@v0.0.1-0.20220426221727-a3a7a3021815",
      "externalReferences": [
        {
          "url": "https://github.com/earthly/buildkit",
          "type": "vcs"
        }
      ]
    },
    {
      "type": "library",
      "bom-ref": "pkg:golang/github.com/moby/locker@v1.0.1",
      "name": "github.com/moby/locker",
      "version": "v1.0.1",
      "scope": "required",
      "hashes": [
        {
          "alg": "SHA-256",
          "content": "7ce5ea478d737af7a0e1f14e0e2c7ed428789a3fe04f4344d5725ba7f7a9b818"
        }
      ],
      "purl": "pkg:golang/github.com/moby/locker@v1.0.1",
      "externalReferences": [
        {
          "url": "https://github.com/moby/locker",
          "type": "vcs"
        }
      ]
    },
    {
      "type": "library",
      "bom-ref": "pkg:golang/github.com/moby/sys/mount@v0.3.0",
      "name": "github.com/moby/sys/mount",
      "version": "v0.3.0",
      "scope": "required",
      "hashes": [
        {
          "alg": "SHA-256",
          "content": "6d7658326abb0c140fc074711ff306faef7e5c5f7464ec285e91d33b39cc1a9d"
        }
      ],
      "purl": "pkg:golang/github.com/moby/sys/mount@v0.3.0",
      "externalReferences": [
        {
          "url": "https://github.com/moby/sys/mount",
          "type": "vcs"
        }
      ]
    },
    {
      "type": "library",
      "bom-ref": "pkg:golang/github.com/moby/sys/mountinfo@v0.5.0",
      "name": "github.com/moby/sys/mountinfo",
      "version": "v0.5.0",
      "scope": "required",
      "hashes": [
        {
          "alg": "SHA-256",
          "content": "d8ab3cfebea5a29b315a2f66e7c9e5c2369e4b3517f6288bd6f8f9a81ffd39b2"
        }
      ],
      "purl": "pkg:golang/github.com/moby/sys/mountinfo@v0.5.0",
      "externalReferences": [
        {
          "url": "https://github.com/moby/sys/mountinfo",
          "type": "vcs"
        }
      ]
    },
    {
      "type": "library",
      "bom-ref": "pkg:golang/github.com/moby/sys/signal@v0.6.0",
      "name": "github.com/moby/sys/signal",
      "version": "v0.6.0",
      "scope": "required",
      "hashes": [
        {
          "alg": "SHA-256",
          "content": "683a58f781fc56585319af6c358505085b0c648521e709b407a5e4228263fe26"
        }
      ],
      "purl": "pkg:golang/github.com/moby/sys/signal@v0.6.0",
      "externalReferences": [
        {
          "url": "https://github.com/moby/sys/signal",
          "type": "vcs"
        }
      ]
    },
    {
      "type": "library",
      "bom-ref": "pkg:golang/github.com/morikuni/aec@v1.0.0",
      "name": "github.com/morikuni/aec",
      "version": "v1.0.0",
      "scope": "required",
      "hashes": [
        {
          "alg": "SHA-256",
          "content": "9cff4205fc2bbd89c146063aa9f0d09328180e66303a295e3c5930cefe1d53c0"
        }
      ],
      "purl": "pkg:golang/github.com/morikuni/aec@v1.0.0",
      "externalReferences": [
        {
          "url": "https://github.com/morikuni/aec",
          "type": "vcs"
        }
      ]
    },
    {
      "type": "library",
      "bom-ref": "pkg:golang/github.com/opencontainers/go-digest@v1.0.0",
      "name": "github.com/opencontainers/go-digest",
      "version": "v1.0.0",
      "scope": "required",
      "hashes": [
        {
          "alg": "SHA-256",
          "content": "6a93945ace755b93e586ec86cb3f4509e78120e50303fea75bc3a2ff23a18795"
        }
      ],
      "purl": "pkg:golang/github.com/opencontainers/go-digest@v1.0.0",
      "externalReferences": [
        {
          "url": "https://github.com/opencontainers/go-digest",
          "type": "vcs"
        }
      ]
    },
    {
      "type": "library",
      "bom-ref": "pkg:golang/github.com/opencontainers/image-spec@v1.0.2-0.20211117181255-693428a734f5",
      "name": "github.com/opencontainers/image-spec",
      "version": "v1.0.2-0.20211117181255-693428a734f5",
      "scope": "required",
      "hashes": [
        {
          "alg": "SHA-256",
          "content": "ab7eddf7517a04ee09a7552a5a2ba7d1d50561aaafe96b0a4cb4c2696bfef0b6"
        }
      ],
      "purl": "pkg:golang/github.com/opencontainers/image-spec@v1.0.2-0.20211117181255-693428a734f5",
      "externalReferences": [
        {
          "url": "https://github.com/opencontainers/image-spec",
          "type": "vcs"
        }
      ]
    },
    {
      "type": "library",
      "bom-ref": "pkg:golang/github.com/opencontainers/runc@v1.1.0",
      "name": "github.com/opencontainers/runc",
      "version": "v1.1.0",
      "scope": "required",
      "hashes": [
        {
          "alg": "SHA-256",
          "content": "3bdf97f7a39c0e3926999c9f686f7dea457bcaaf07b285368755d145071e7c6f"
        }
      ],
      "purl": "pkg:golang/github.com/opencontainers/runc@v1.1.0",
      "externalReferences": [
        {
          "url": "https://github.com/opencontainers/runc",
          "type": "vcs"
        }
      ]
    },
    {
      "type": "library",
      "bom-ref": "pkg:golang/github.com/otiai10/copy@v1.1.1",
      "name": "github.com/otiai10/copy",
      "version": "v1.1.1",
      "scope": "required",
      "hashes": [
        {
          "alg": "SHA-256",
          "content": "3c7ec8165450e85bfdbd89ae5db0d12dd8131e83f5c38f3790f3543f66ec929a"
        }
      ],
      "purl": "pkg:golang/github.com/otiai10/copy@v1.1.1",
      "externalReferences": [
        {
          "url": "https://github.com/otiai10/copy",
          "type": "vcs"
        }
      ]
    },
    {
      "type": "library",
      "bom-ref": "pkg:golang/github.com/pkg/errors@v0.9.1",
      "name": "github.com/pkg/errors",
      "version": "v0.9.1",
      "scope": "required",
      "hashes": [
        {
          "alg": "SHA-256",
          "content": "14404bc75cd2db5e28c298f2eeab017a2c5b51192e850030acae54c0b193c2de"
        }
      ],
      "purl": "pkg:golang/github.com/pkg/errors@v0.9.1",
      "externalReferences": [
        {
          "url": "https://github.com/pkg/errors",
          "type": "vcs"
        }
      ]
    },
    {
      "type": "library",
      "bom-ref": "pkg:golang/github.com/russross/blackfriday/v2@v2.0.1",
      "name": "github.com/russross/blackfriday/v2",
      "version": "v2.0.1",
      "scope": "required",
      "hashes": [
        {
          "alg": "SHA-256",
          "content": "94fa9502d7be1ee1cd7e127fd0b0bdf04496473f1a7f2f6d33fd112bc9bda3e4"
        }
      ],
      "purl": "pkg:golang/github.com/russross/blackfriday/v2@v2.0.1",
      "externalReferences": [
        {
          "url": "https://github.com/russross/blackfriday",
          "type": "vcs"
        }
      ]
    },
    {
      "type": "library",
      "bom-ref": "pkg:golang/github.com/shurcooL/sanitized_anchor_name@v1.0.0",
      "name": "github.com/shurcooL/sanitized_anchor_name",
      "version": "v1.0.0",
      "scope": "required",
      "hashes": [
        {
          "alg": "SHA-256",
          "content": "3dd9a808eeb0bdbb3eef2ac9c8c391b78fc1998e486322704bf90e896c7c987a"
        }
      ],
      "purl": "pkg:golang/github.com/shurcooL/sanitized_anchor_name@v1.0.0",
      "externalReferences": [
        {
          "url": "https://github.com/shurcooL/sanitized_anchor_name",
          "type": "vcs"
        }
      ]
    },
    {
      "type": "library",
      "bom-ref": "pkg:golang/github.com/sirupsen/logrus@v1.8.1",
      "name": "github.com/sirupsen/logrus",
      "version": "v1.8.1",
      "scope": "required",
      "hashes": [
        {
          "alg": "SHA-256",
          "content": "7492ae1e0aa4d4d35096aa00e814e533559ff43387dcd063432bb487df806591"
        }
      ],
      "purl": "pkg:golang/github.com/sirupsen/logrus@v1.8.1",
      "externalReferences": [
        {
          "url": "https://github.com/sirupsen/logrus",
          "type": "vcs"
        }
      ]
    },
    {
      "type": "library",
      "bom-ref": "pkg:golang/github.com/earthly/fsutil@v0.0.0-20220118225905-42fa88fbe869",
      "name": "github.com/earthly/fsutil",
      "version": "v0.0.0-20220118225905-42fa88fbe869",
      "scope": "required",
      "hashes": [
        {
          "alg": "SHA-256",
          "content": "24e1e7d7560b45dc9b991b5d62b2752c3dcf2cda8035fbc8428c618eb99c18e4"
        }
      ],
      "purl": "pkg:golang/github.com/earthly/fsutil@v0.0.0-20220118225905-42fa88fbe869",
      "externalReferences": [
        {
          "url": "https://github.com/earthly/fsutil",
          "type": "vcs"
        }
      ]
    },
    {
      "type": "library",
      "bom-ref": "pkg:golang/github.com/tonistiigi/units@v0.0.0-20180711220420-6950e57a87ea",
      "name": "github.com/tonistiigi/units",
      "version": "v0.0.0-20180711220420-6950e57a87ea",
      "scope": "required",
      "hashes": [
        {
          "alg": "SHA-256",
          "content": "4978532c4ea96fa7a577fbff7029dd2b400ca6dd7089515bfd8626a81dff406d"
        }
      ],
      "purl": "pkg:golang/github.com/tonistiigi/units@v0.0.0-20180711220420-6950e57a87ea",
      "externalReferences": [
        {
          "url": "https://github.com/tonistiigi/units",
          "type": "vcs"
        }
      ]
    },
    {
      "type": "library",
      "bom-ref": "pkg:golang/github.com/tonistiigi/vt100@v0.0.0-20210615222946-8066bb97264f",
      "name": "github.com/tonistiigi/vt100",
      "version": "v0.0.0-20210615222946-8066bb97264f",
      "scope": "required",
      "hashes": [
        {
          "alg": "SHA-256",
          "content": "0cba6de81e6869a4bc8f25c76bd540e2bad99680553d55de0adaceb2b15abb17"
        }
      ],
      "purl": "pkg:golang/github.com/tonistiigi/vt100@v0.0.0-20210615222946-8066bb97264f",
      "externalReferences": [
        {
          "url": "https://github.com/tonistiigi/vt100",
          "type": "vcs"
        }
      ]
    },
    {
      "type": "library",
      "bom-ref": "pkg:golang/github.com/urfave/cli/v2@v2.3.0",
      "name": "github.com/urfave/cli/v2",
      "version": "v2.3.0",
      "scope": "required",
      "hashes": [
        {
          "alg": "SHA-256",
          "content": "aa987dd98eb8f69ae07ac7a1ccead08dd5b2c453a9fd054cfba8a628769df753"
        }
      ],
      "purl": "pkg:golang/github.com/urfave/cli/v2@v2.3.0",
      "externalReferences": [
        {
          "url": "https://github.com/urfave/cli",
          "type": "vcs"
        }
      ]
    },
    {
      "type": "library",
      "bom-ref": "pkg:golang/github.com/wille/osutil@v0.0.0-20201124133013-e7a03eb09286",
      "name": "github.com/wille/osutil",
      "version": "v0.0.0-20201124133013-e7a03eb09286",
      "scope": "required",
      "hashes": [
        {
          "alg": "SHA-256",
          "content": "244bc756e3fdaab43e4aaf5c9e6737e680d39b63c2ffcecaeb4db2966b371f68"
        }
      ],
      "purl": "pkg:golang/github.com/wille/osutil@v0.0.0-20201124133013-e7a03eb09286",
      "externalReferences": [
        {
          "url": "https://github.com/wille/osutil",
          "type": "vcs"
        }
      ]
    },
    {
      "type": "library",
      "bom-ref": "pkg:golang/go.opentelemetry.io/contrib/instrumentation/google.golang.org/grpc/otelgrpc@v0.28.0",
      "name": "go.opentelemetry.io/contrib/instrumentation/google.golang.org/grpc/otelgrpc",
      "version": "v0.28.0",
      "scope": "required",
      "hashes": [
        {
          "alg": "SHA-256",
          "content": "2b2d4c39b775f3c6866e06f93a0367c06b8413023d31521c73bac15bace4e409"
        }
      ],
      "purl": "pkg:golang/go.opentelemetry.io/contrib/instrumentation/google.golang.org/grpc/otelgrpc@v0.28.0"
    },
    {
      "type": "library",
      "bom-ref": "pkg:golang/go.opentelemetry.io/otel@v1.3.0",
      "name": "go.opentelemetry.io/otel",
      "version": "v1.3.0",
      "scope": "required",
      "hashes": [
        {
          "alg": "SHA-256",
          "content": "00fc4b7f47a20702e5f92397889242558cc0d4e38937202857c0b944d472cbb6"
        }
      ],
      "purl": "pkg:golang/go.opentelemetry.io/otel@v1.3.0"
    },
    {
      "type": "library",
      "bom-ref": "pkg:golang/go.opentelemetry.io/otel/exporters/otlp/otlptrace@v1.3.0",
      "name": "go.opentelemetry.io/otel/exporters/otlp/otlptrace",
      "version": "v1.3.0",
      "scope": "required",
      "hashes": [
        {
          "alg": "SHA-256",
          "content": "8221a6f30ebb25aeda99835f60c7667bbc52a76a48c53856a29c3cf903f9d589"
        }
      ],
      "purl": "pkg:golang/go.opentelemetry.io/otel/exporters/otlp/otlptrace@v1.3.0"
    },
    {
      "type": "library",
      "bom-ref": "pkg:golang/go.opentelemetry.io/otel/sdk@v1.3.0",
      "name": "go.opentelemetry.io/otel/sdk",
      "version": "v1.3.0",
      "scope": "required",
      "hashes": [
        {
          "alg": "SHA-256",
          "content": "df6efc79d0a81fcf4c109d0acbc5905d598342fdc55f8649dcfa7ef5f26b7802"
        }
      ],
      "purl": "pkg:golang/go.opentelemetry.io/otel/sdk@v1.3.0"
    },
    {
      "type": "library",
      "bom-ref": "pkg:golang/go.opentelemetry.io/otel/trace@v1.3.0",
      "name": "go.opentelemetry.io/otel/trace",
      "version": "v1.3.0",
      "scope": "required",
      "hashes": [
        {
          "alg": "SHA-256",
          "content": "768cbc1f36f5449f88df2161b439b035ceed232c35b4d30e22cc8fce9d4d3866"
        }
      ],
      "purl": "pkg:golang/go.opentelemetry.io/otel/trace@v1.3.0"
    },
    {
      "type": "library",
      "bom-ref": "pkg:golang/go.opentelemetry.io/proto/otlp@v0.11.0",
      "name": "go.opentelemetry.io/proto/otlp",
      "version": "v0.11.0",
      "scope": "required",
      "hashes": [
        {
          "alg": "SHA-256",
          "content": "70b0e02014dfe252ce973b64873004750b09e0b8fe8b959cf64e8d9f42b55725"
        }
      ],
      "purl": "pkg:golang/go.opentelemetry.io/proto/otlp@v0.11.0"
    },
    {
      "type": "library",
      "bom-ref": "pkg:golang/golang.org/x/crypto@v0.0.0-20220131195533-30dcbda58838",
      "name": "golang.org/x/crypto",
      "version": "v0.0.0-20220131195533-30dcbda58838",
      "scope": "required",
      "hashes": [
        {
          "alg": "SHA-256",
          "content": "ef5bd0acc6ae65985c4d52ba29d60cfab9257a1104c1bdc4f9985a1398eb3eb1"
        }
      ],
      "purl": "pkg:golang/golang.org/x/crypto@v0.0.0-20220131195533-30dcbda58838"
    },
    {
      "type": "library",
      "bom-ref": "pkg:golang/golang.org/x/net@v0.0.0-20211216030914-fe4d6282115f",
      "name": "golang.org/x/net",
      "version": "v0.0.0-20211216030914-fe4d6282115f",
      "scope": "required",
      "hashes": [
        {
          "alg": "SHA-256",
          "content": "844609bf1c359529d6225f17f687ec60c925cda0ecf74248d9acf960c7787cf3"
        }
      ],
      "purl": "pkg:golang/golang.org/x/net@v0.0.0-20211216030914-fe4d6282115f"
    },
    {
      "type": "library",
      "bom-ref": "pkg:golang/golang.org/x/sync@v0.0.0-20210220032951-036812b2e83c",
      "name": "golang.org/x/sync",
      "version": "v0.0.0-20210220032951-036812b2e83c",
      "scope": "required",
      "hashes": [
        {
          "alg": "SHA-256",
          "content": "e4ab25198c05a6484687e435e9bc0c3f770ea27b47f0539ea7bb4657ce98ed24"
        }
      ],
      "purl": "pkg:golang/golang.org/x/sync@v0.0.0-20210220032951-036812b2e83c"
    },
    {
      "type": "library",
      "bom-ref": "pkg:golang/golang.org/x/sys@v0.0.0-20220114195835-da31bd327af9",
      "name": "golang.org/x/sys",
      "version": "v0.0.0-20220114195835-da31bd327af9",
      "scope": "required",
      "hashes": [
        {
          "alg": "SHA-256",
          "content": "5df290e0e94597ca2410eaf952f02a151563f2963fe327dc5eb75d07ca806d4d"
        }
      ],
      "purl": "pkg:golang/golang.org/x/sys@v0.0.0-20220114195835-da31bd327af9"
    },
    {
      "type": "library",
      "bom-ref": "pkg:golang/golang.org/x/term@v0.0.0-20210615171337-6886f2dfbf5b",
      "name": "golang.org/x/term",
      "version": "v0.0.0-20210615171337-6886f2dfbf5b",
      "scope": "required",
      "hashes": [
        {
          "alg": "SHA-256",
          "content": "f732ae928d389d1e208d9e3e0cd8c7a9194026a6c91131f088d283a937ce8df1"
        }
      ],
      "purl": "pkg:golang/golang.org/x/term@v0.0.0-20210615171337-6886f2dfbf5b"
    },
    {
      "type": "library",
      "bom-ref": "pkg:golang/golang.org/x/text@v0.3.7",
      "name": "golang.org/x/text",
      "version": "v0.3.7",
      "scope": "required",
      "hashes": [
        {
          "alg": "SHA-256",
          "content": "a25a70bcfd8a69c5b5656bec47bb90868c9362f280ba97d0ad118114cdf9d869"
        }
      ],
      "purl": "pkg:golang/golang.org/x/text@v0.3.7"
    },
    {
      "type": "library",
      "bom-ref": "pkg:golang/golang.org/x/time@v0.0.0-20210723032227-1f47c861a9ac",
      "name": "golang.org/x/time",
      "version": "v0.0.0-20210723032227-1f47c861a9ac",
      "scope": "required",
      "hashes": [
        {
          "alg": "SHA-256",
          "content": "ef3933ec152dc0d145a9ca3027e44882ed8c695fcc6a9111903232fa6c0fca3b"
        }
      ],
      "purl": "pkg:golang/golang.org/x/time@v0.0.0-20210723032227-1f47c861a9ac"
    },
    {
      "type": "library",
      "bom-ref": "pkg:golang/google.golang.org/genproto@v0.0.0-20211208223120-3a66f561d7aa",
      "name": "google.golang.org/genproto",
      "version": "v0.0.0-20211208223120-3a66f561d7aa",
      "scope": "required",
      "hashes": [
        {
          "alg": "SHA-256",
          "content": "23461c2b3d08ece02175da3bc9af24327be9ae1716334e393e690174c3bdccdd"
        }
      ],
      "purl": "pkg:golang/google.golang.org/genproto@v0.0.0-20211208223120-3a66f561d7aa"
    },
    {
      "type": "library",
      "bom-ref": "pkg:golang/google.golang.org/grpc@v1.44.0",
      "name": "google.golang.org/grpc",
      "version": "v1.44.0",
      "scope": "required",
      "hashes": [
        {
          "alg": "SHA-256",
          "content": "c1ea92c62fd332cd52a8544c1c2b4181746cf24dd7dfd4080c4674a5172db548"
        }
      ],
      "purl": "pkg:golang/google.golang.org/grpc@v1.44.0"
    },
    {
      "type": "library",
      "bom-ref": "pkg:golang/google.golang.org/protobuf@v1.27.1",
      "name": "google.golang.org/protobuf",
      "version": "v1.27.1",
      "scope": "required",
      "hashes": [
        {
          "alg": "SHA-256",
          "content": "4a7a9b9c3c3557b46265c5cfc793047aa3efdacefd2fd8bb0495251bff91bab4"
        }
      ],
      "purl": "pkg:golang/google.golang.org/protobuf@v1.27.1"
    },
    {
      "type": "library",
      "bom-ref": "pkg:golang/gopkg.in/yaml.v3@v3.0.0-20210107192922-496545a6307b",
      "name": "gopkg.in/yaml.v3",
      "version": "v3.0.0-20210107192922-496545a6307b",
      "scope": "required",
      "hashes": [
        {
          "alg": "SHA-256",
          "content": "87ca83a2d6843ee2404eb3265b4e0d0b083bbf6d9a1c7dbcc30a5ab9484af4ea"
        }
      ],
      "purl": "pkg:golang/gopkg.in/yaml.v3@v3.0.0-20210107192922-496545a6307b",
      "externalReferences": [
        {
          "url": "https://github.com/go-yaml/yaml",
          "type": "vcs"
        }
      ]
    },
    {
      "type": "library",
      "publisher": "Thomas Waldmann",
      "name": "argparse",
      "version": "1.4.0",
      "description": "Python command-line parsing library",
      "hashes": [
        {
          "alg": "MD5",
          "content": "c37216a954c8669054e2b2c54853dd49"
        },
        {
          "alg": "SHA-256",
          "content": "c31647edb69fd3d465a847ea3157d37bed1f95f19760b11a47aa91c04b666314"
        }
      ],
      "licenses": [
        {
          "license": {
            "name": "Python Software Foundation License"
          }
        }
      ],
      "purl": "pkg:pypi/argparse@1.4.0",
      "modified": false
    },
    {
      "type": "library",
      "publisher": "Noah Spurrier; Thomas Kluyver; Jeff Quast",
      "name": "pexpect",
      "version": "4.8.0",
      "description": "Pexpect allows easy control of interactive console applications.",
      "hashes": [
        {
          "alg": "MD5",
          "content": "7bf9120209a613a6792c6f0619bd8428"
        },
        {
          "alg": "SHA-256",
          "content": "0b48a55dcb3c05f3329815901ea4fc1537514d6ba867a152b581d69ae3710937"
        }
      ],
      "licenses": [
        {
          "license": {
            "name": "ISC license"
          }
        }
      ],
      "purl": "pkg:pypi/pexpect@4.8.0",
      "modified": false
    },
    {
      "type": "library",
      "name": "io",
      "version": "0.0.1",
      "purl": "pkg:pypi/io@0.0.1",
      "modified": false
    },
    {
      "type": "library",
      "publisher": "Brett Cannon",
      "name": "importlib",
      "version": "1.0.4",
      "description": "Backport of importlib.import_module() from Python 2.7",
      "hashes": [
        {
          "alg": "MD5",
          "content": "5f9a0803bca7ba95f670d1464984296f"
        },
        {
          "alg": "SHA-256",
          "content": "b6ee7066fea66e35f8d0acee24d98006de1a0a8a94a8ce6efe73a9a23c8d9826"
        }
      ],
      "purl": "pkg:pypi/importlib@1.0.4",
      "modified": false
    },
    {
      "type": "library",
      "publisher": "Manfred Stienstra, Yuri takhteyev and Waylan limberg",
      "name": "markdown",
      "version": "3.3.7",
      "description": "Python implementation of Markdown.",
      "hashes": [
        {
          "alg": "MD5",
          "content": "2dfb70f52701f059740a8f2e5703bf49"
        },
        {
          "alg": "SHA-256",
          "content": "f5da449a6e1c989a4cea2631aa8ee67caa5a2ef855d551c88f9e309f4634c621"
        }
      ],
      "licenses": [
        {
          "license": {
            "name": "BSD License"
          }
        }
      ],
      "purl": "pkg:pypi/markdown@3.3.7",
      "modified": false
    },
    {
      "type": "library",
      "publisher": "Michael Foord",
      "name": "unittest",
      "version": "0.0",
      "hashes": [
        {
          "alg": "MD5",
          "content": "2a416384f814604ed854d40f352f1191"
        },
        {
          "alg": "SHA-256",
          "content": "1b492484bea7f68abda5fcc61412e77b6a105e5842355d630f8b75f01add3555"
        }
      ],
      "purl": "pkg:pypi/unittest@0.0",
      "modified": false
    },
    {
      "type": "library",
      "publisher": "Federico Di Gregorio",
      "name": "psycopg2",
      "version": "2.9.3",
      "description": "psycopg2 - Python-PostgreSQL Database Adapter",
      "hashes": [
        {
          "alg": "MD5",
          "content": "b8980aa546210e354bf811fde1745d84"
        },
        {
          "alg": "SHA-256",
          "content": "06f32425949bd5fe8f625c49f17ebb9784e1e4fe928b7cce72edc36fb68e4c0c"
        }
      ],
      "licenses": [
        {
          "license": {
            "name": "LGPL with exceptions"
          }
        }
      ],
      "purl": "pkg:pypi/psycopg2@2.9.3",
      "modified": false
    },
    {
      "type": "library",
      "publisher": "Kenneth Reitz",
      "name": "requests",
      "version": "2.27.1",
      "description": "Python HTTP for Humans.",
      "hashes": [
        {
          "alg": "MD5",
          "content": "435db0f122c83decd27524f690e89650"
        },
        {
          "alg": "SHA-256",
          "content": "f22fa1e554c9ddfd16e6e41ac79759e17be9e492b3587efa038054674760e72d"
        }
      ],
      "licenses": [
        {
          "license": {
            "name": "Apache 2.0"
          }
        }
      ],
      "purl": "pkg:pypi/requests@2.27.1",
      "modified": false
    }
  ],
  "dependencies": [
    {
      "ref": "pkg:golang/github.com/Microsoft/go-winio@v0.5.1",
      "dependsOn": [
        "pkg:golang/github.com/pkg/errors@v0.9.1",
        "pkg:golang/github.com/sirupsen/logrus@v1.8.1",
        "pkg:golang/golang.org/x/sys@v0.0.0-20220114195835-da31bd327af9"
      ]
    },
    {
      "ref": "pkg:golang/github.com/agext/levenshtein@v1.2.3"
    },
    {
      "ref": "pkg:golang/github.com/alessio/shellescape@v1.4.1"
    },
    {
      "ref": "pkg:golang/github.com/antlr/antlr4@v0.0.0-20200225173536-225249fdaef5"
    },
    {
      "ref": "pkg:golang/github.com/armon/circbuf@v0.0.0-20190214190532-5111143e8da2"
    },
    {
      "ref": "pkg:golang/github.com/containerd/console@v1.0.3",
      "dependsOn": [
        "pkg:golang/golang.org/x/sys@v0.0.0-20220114195835-da31bd327af9"
      ]
    },
    {
      "ref": "pkg:golang/github.com/containerd/containerd@v1.6.0-rc.1",
      "dependsOn": [
        "pkg:golang/github.com/Microsoft/go-winio@v0.5.1",
        "pkg:golang/github.com/containerd/console@v1.0.3",
        "pkg:golang/github.com/containerd/continuity@v0.2.2",
        "pkg:golang/github.com/containerd/ttrpc@v1.1.0",
        "pkg:golang/github.com/containerd/typeurl@v1.0.2",
        "pkg:golang/github.com/docker/go-units@v0.4.0",
        "pkg:golang/github.com/go-logr/stdr@v1.2.2",
        "pkg:golang/github.com/gogo/googleapis@v1.4.1",
        "pkg:golang/github.com/gogo/protobuf@v1.3.2",
        "pkg:golang/github.com/google/uuid@v1.3.0",
        "pkg:golang/github.com/grpc-ecosystem/go-grpc-middleware@v1.3.0",
        "pkg:golang/github.com/hashicorp/go-multierror@v1.1.1",
        "pkg:golang/github.com/klauspost/compress@v1.14.2",
        "pkg:golang/github.com/moby/locker@v1.0.1",
        "pkg:golang/github.com/moby/sys/mountinfo@v0.5.0",
        "pkg:golang/github.com/moby/sys/signal@v0.6.0",
        "pkg:golang/github.com/opencontainers/go-digest@v1.0.0",
        "pkg:golang/github.com/opencontainers/image-spec@v1.0.2-0.20211117181255-693428a734f5",
        "pkg:golang/github.com/opencontainers/runc@v1.1.0",
        "pkg:golang/github.com/sirupsen/logrus@v1.8.1",
        "pkg:golang/go.opentelemetry.io/contrib/instrumentation/google.golang.org/grpc/otelgrpc@v0.28.0",
        "pkg:golang/go.opentelemetry.io/otel@v1.3.0",
        "pkg:golang/go.opentelemetry.io/otel/sdk@v1.3.0",
        "pkg:golang/go.opentelemetry.io/otel/trace@v1.3.0",
        "pkg:golang/golang.org/x/crypto@v0.0.0-20220131195533-30dcbda58838",
        "pkg:golang/golang.org/x/net@v0.0.0-20211216030914-fe4d6282115f",
        "pkg:golang/golang.org/x/sync@v0.0.0-20210220032951-036812b2e83c",
        "pkg:golang/golang.org/x/sys@v0.0.0-20220114195835-da31bd327af9",
        "pkg:golang/golang.org/x/term@v0.0.0-20210615171337-6886f2dfbf5b",
        "pkg:golang/google.golang.org/genproto@v0.0.0-20211208223120-3a66f561d7aa",
        "pkg:golang/google.golang.org/grpc@v1.44.0",
        "pkg:golang/google.golang.org/protobuf@v1.27.1"
      ]
    },
    {
      "ref": "pkg:golang/github.com/containerd/continuity@v0.2.2",
      "dependsOn": [
        "pkg:golang/github.com/Microsoft/go-winio@v0.5.1",
        "pkg:golang/github.com/dustin/go-humanize@v1.0.0",
        "pkg:golang/github.com/golang/protobuf@v1.5.2",
        "pkg:golang/github.com/opencontainers/go-digest@v1.0.0",
        "pkg:golang/github.com/sirupsen/logrus@v1.8.1",
        "pkg:golang/golang.org/x/sync@v0.0.0-20210220032951-036812b2e83c",
        "pkg:golang/golang.org/x/sys@v0.0.0-20220114195835-da31bd327af9"
      ]
    },
    {
      "ref": "pkg:golang/github.com/containerd/ttrpc@v1.1.0",
      "dependsOn": [
        "pkg:golang/github.com/gogo/protobuf@v1.3.2",
        "pkg:golang/github.com/sirupsen/logrus@v1.8.1",
        "pkg:golang/golang.org/x/sys@v0.0.0-20220114195835-da31bd327af9",
        "pkg:golang/google.golang.org/genproto@v0.0.0-20211208223120-3a66f561d7aa",
        "pkg:golang/google.golang.org/grpc@v1.44.0",
        "pkg:golang/google.golang.org/protobuf@v1.27.1"
      ]
    },
    {
      "ref": "pkg:golang/github.com/containerd/typeurl@v1.0.2",
      "dependsOn": [
        "pkg:golang/github.com/gogo/protobuf@v1.3.2",
        "pkg:golang/github.com/pkg/errors@v0.9.1"
      ]
    },
    {
      "ref": "pkg:golang/github.com/cpuguy83/go-md2man/v2@v2.0.0",
      "dependsOn": [
        "pkg:golang/github.com/russross/blackfriday/v2@v2.0.1",
        "pkg:golang/github.com/shurcooL/sanitized_anchor_name@v1.0.0"
      ]
    },
    {
      "ref": "pkg:golang/github.com/creack/pty@v1.1.11"
    },
    {
      "ref": "pkg:golang/github.com/docker/cli@v20.10.12"
    },
    {
      "ref": "pkg:golang/github.com/docker/distribution@v2.7.1"
    },
    {
      "ref": "pkg:golang/github.com/docker/docker@v20.10.3-0.20211208011758-87521affb077+incompatible"
    },
    {
      "ref": "pkg:golang/github.com/docker/docker-credential-helpers@v0.6.4",
      "dependsOn": [
        "pkg:golang/golang.org/x/sys@v0.0.0-20220114195835-da31bd327af9"
      ]
    },
    {
      "ref": "pkg:golang/github.com/docker/go-connections@v0.4.0"
    },
    {
      "ref": "pkg:golang/github.com/docker/go-units@v0.4.0"
    },
    {
      "ref": "pkg:golang/github.com/dustin/go-humanize@v1.0.0"
    },
    {
      "ref": "pkg:golang/github.com/earthly/cloud-api@v1.0.1-0.20220228235811-35dd6315dcf5",
      "dependsOn": [
        "pkg:golang/github.com/golang/protobuf@v1.5.2",
        "pkg:golang/google.golang.org/protobuf@v1.27.1"
      ]
    },
    {
      "ref": "pkg:golang/github.com/fatih/color@v1.9.0",
      "dependsOn": [
        "pkg:golang/github.com/mattn/go-colorable@v0.1.8",
        "pkg:golang/github.com/mattn/go-isatty@v0.0.12"
      ]
    },
    {
      "ref": "pkg:golang/github.com/go-logr/logr@v1.2.2"
    },
    {
      "ref": "pkg:golang/github.com/go-logr/stdr@v1.2.2",
      "dependsOn": [
        "pkg:golang/github.com/go-logr/logr@v1.2.2"
      ]
    },
    {
      "ref": "pkg:golang/github.com/gofrs/flock@v0.7.3"
    },
    {
      "ref": "pkg:golang/github.com/gogo/googleapis@v1.4.1",
      "dependsOn": [
        "pkg:golang/github.com/gogo/protobuf@v1.3.2"
      ]
    },
    {
      "ref": "pkg:golang/github.com/gogo/protobuf@v1.3.2"
    },
    {
      "ref": "pkg:golang/github.com/golang/protobuf@v1.5.2",
      "dependsOn": [
        "pkg:golang/google.golang.org/protobuf@v1.27.1"
      ]
    },
    {
      "ref": "pkg:golang/github.com/google/shlex@v0.0.0-20191202100458-e7afc7fbc510"
    },
    {
      "ref": "pkg:golang/github.com/google/uuid@v1.3.0"
    },
    {
      "ref": "pkg:golang/github.com/grpc-ecosystem/go-grpc-middleware@v1.3.0",
      "dependsOn": [
        "pkg:golang/github.com/gogo/protobuf@v1.3.2",
        "pkg:golang/github.com/golang/protobuf@v1.5.2",
        "pkg:golang/github.com/pkg/errors@v0.9.1",
        "pkg:golang/github.com/sirupsen/logrus@v1.8.1",
        "pkg:golang/golang.org/x/net@v0.0.0-20211216030914-fe4d6282115f",
        "pkg:golang/google.golang.org/genproto@v0.0.0-20211208223120-3a66f561d7aa",
        "pkg:golang/google.golang.org/grpc@v1.44.0"
      ]
    },
    {
      "ref": "pkg:golang/github.com/grpc-ecosystem/grpc-gateway@v1.16.0",
      "dependsOn": [
        "pkg:golang/github.com/golang/protobuf@v1.5.2",
        "pkg:golang/golang.org/x/net@v0.0.0-20211216030914-fe4d6282115f",
        "pkg:golang/google.golang.org/genproto@v0.0.0-20211208223120-3a66f561d7aa",
        "pkg:golang/google.golang.org/grpc@v1.44.0"
      ]
    },
    {
      "ref": "pkg:golang/github.com/hashicorp/errwrap@v1.1.0"
    },
    {
      "ref": "pkg:golang/github.com/hashicorp/go-multierror@v1.1.1",
      "dependsOn": [
        "pkg:golang/github.com/hashicorp/errwrap@v1.1.0"
      ]
    },
    {
      "ref": "pkg:golang/github.com/jdxcode/netrc@v0.0.0-20210204082910-926c7f70242a"
    },
    {
      "ref": "pkg:golang/github.com/alexcb/go-flags@v0.0.0-20210722203016-f11d7ecb5ee5",
      "dependsOn": [
        "pkg:golang/golang.org/x/sys@v0.0.0-20220114195835-da31bd327af9"
      ]
    },
    {
      "ref": "pkg:golang/github.com/joho/godotenv@v1.3.0"
    },
    {
      "ref": "pkg:golang/github.com/klauspost/compress@v1.14.2"
    },
    {
      "ref": "pkg:golang/github.com/mattn/go-colorable@v0.1.8",
      "dependsOn": [
        "pkg:golang/github.com/mattn/go-isatty@v0.0.12",
        "pkg:golang/golang.org/x/sys@v0.0.0-20220114195835-da31bd327af9"
      ]
    },
    {
      "ref": "pkg:golang/github.com/mattn/go-isatty@v0.0.12",
      "dependsOn": [
        "pkg:golang/golang.org/x/sys@v0.0.0-20220114195835-da31bd327af9"
      ]
    },
    {
      "ref": "pkg:golang/github.com/mitchellh/hashstructure/v2@v2.0.2"
    },
    {
      "ref": "pkg:golang/github.com/earthly/buildkit@v0.0.1-0.20220426221727-a3a7a3021815",
      "dependsOn": [
        "pkg:golang/gopkg.in/yaml.v3@v3.0.0-20210107192922-496545a6307b",
        "pkg:golang/google.golang.org/protobuf@v1.27.1",
        "pkg:golang/golang.org/x/text@v0.3.7",
        "pkg:golang/github.com/shurcooL/sanitized_anchor_name@v1.0.0",
        "pkg:golang/github.com/russross/blackfriday/v2@v2.0.1",
        "pkg:golang/github.com/moby/sys/mountinfo@v0.5.0",
        "pkg:golang/github.com/hashicorp/errwrap@v1.1.0",
        "pkg:golang/github.com/grpc-ecosystem/grpc-gateway@v1.16.0",
        "pkg:golang/github.com/google/uuid@v1.3.0",
        "pkg:golang/github.com/go-logr/stdr@v1.2.2",
        "pkg:golang/github.com/go-logr/logr@v1.2.2",
        "pkg:golang/github.com/docker/docker-credential-helpers@v0.6.4",
        "pkg:golang/github.com/cpuguy83/go-md2man/v2@v2.0.0",
        "pkg:golang/github.com/containerd/ttrpc@v1.1.0",
        "pkg:golang/google.golang.org/grpc@v1.44.0",
        "pkg:golang/google.golang.org/genproto@v0.0.0-20211208223120-3a66f561d7aa",
        "pkg:golang/golang.org/x/time@v0.0.0-20210723032227-1f47c861a9ac",
        "pkg:golang/golang.org/x/sys@v0.0.0-20220114195835-da31bd327af9",
        "pkg:golang/golang.org/x/sync@v0.0.0-20210220032951-036812b2e83c",
        "pkg:golang/golang.org/x/net@v0.0.0-20211216030914-fe4d6282115f",
        "pkg:golang/golang.org/x/crypto@v0.0.0-20220131195533-30dcbda58838",
        "pkg:golang/go.opentelemetry.io/proto/otlp@v0.11.0",
        "pkg:golang/go.opentelemetry.io/otel/trace@v1.3.0",
        "pkg:golang/go.opentelemetry.io/otel/sdk@v1.3.0",
        "pkg:golang/go.opentelemetry.io/otel/exporters/otlp/otlptrace@v1.3.0",
        "pkg:golang/go.opentelemetry.io/otel@v1.3.0",
        "pkg:golang/go.opentelemetry.io/contrib/instrumentation/google.golang.org/grpc/otelgrpc@v0.28.0",
        "pkg:golang/github.com/tonistiigi/vt100@v0.0.0-20210615222946-8066bb97264f",
        "pkg:golang/github.com/tonistiigi/units@v0.0.0-20180711220420-6950e57a87ea",
        "pkg:golang/github.com/earthly/fsutil@v0.0.0-20220118225905-42fa88fbe869",
        "pkg:golang/github.com/sirupsen/logrus@v1.8.1",
        "pkg:golang/github.com/pkg/errors@v0.9.1",
        "pkg:golang/github.com/opencontainers/runc@v1.1.0",
        "pkg:golang/github.com/opencontainers/image-spec@v1.0.2-0.20211117181255-693428a734f5",
        "pkg:golang/github.com/opencontainers/go-digest@v1.0.0",
        "pkg:golang/github.com/morikuni/aec@v1.0.0",
        "pkg:golang/github.com/moby/sys/signal@v0.6.0",
        "pkg:golang/github.com/moby/sys/mount@v0.3.0",
        "pkg:golang/github.com/moby/locker@v1.0.1",
        "pkg:golang/github.com/mitchellh/hashstructure/v2@v2.0.2",
        "pkg:golang/github.com/klauspost/compress@v1.14.2",
        "pkg:golang/github.com/hashicorp/go-multierror@v1.1.1",
        "pkg:golang/github.com/grpc-ecosystem/go-grpc-middleware@v1.3.0",
        "pkg:golang/github.com/google/shlex@v0.0.0-20191202100458-e7afc7fbc510",
        "pkg:golang/github.com/golang/protobuf@v1.5.2",
        "pkg:golang/github.com/gogo/protobuf@v1.3.2",
        "pkg:golang/github.com/gogo/googleapis@v1.4.1",
        "pkg:golang/github.com/gofrs/flock@v0.7.3",
        "pkg:golang/github.com/docker/go-units@v0.4.0",
        "pkg:golang/github.com/docker/go-connections@v0.4.0",
        "pkg:golang/github.com/docker/docker@v20.10.3-0.20211208011758-87521affb077+incompatible",
        "pkg:golang/github.com/docker/distribution@v2.7.1",
        "pkg:golang/github.com/docker/cli@v20.10.12",
        "pkg:golang/github.com/containerd/typeurl@v1.0.2",
        "pkg:golang/github.com/containerd/continuity@v0.2.2",
        "pkg:golang/github.com/containerd/containerd@v1.6.0-rc.1",
        "pkg:golang/github.com/containerd/console@v1.0.3",
        "pkg:golang/github.com/armon/circbuf@v0.0.0-20190214190532-5111143e8da2",
        "pkg:golang/github.com/agext/levenshtein@v1.2.3",
        "pkg:golang/github.com/Microsoft/go-winio@v0.5.1"
      ]
    },
    {
      "ref": "pkg:golang/github.com/moby/locker@v1.0.1"
    },
    {
      "ref": "pkg:golang/github.com/moby/sys/mount@v0.3.0",
      "dependsOn": [
        "pkg:golang/github.com/moby/sys/mountinfo@v0.5.0",
        "pkg:golang/golang.org/x/sys@v0.0.0-20220114195835-da31bd327af9"
      ]
    },
    {
      "ref": "pkg:golang/github.com/moby/sys/mountinfo@v0.5.0",
      "dependsOn": [
        "pkg:golang/golang.org/x/sys@v0.0.0-20220114195835-da31bd327af9"
      ]
    },
    {
      "ref": "pkg:golang/github.com/moby/sys/signal@v0.6.0",
      "dependsOn": [
        "pkg:golang/golang.org/x/sys@v0.0.0-20220114195835-da31bd327af9"
      ]
    },
    {
      "ref": "pkg:golang/github.com/morikuni/aec@v1.0.0"
    },
    {
      "ref": "pkg:golang/github.com/opencontainers/go-digest@v1.0.0"
    },
    {
      "ref": "pkg:golang/github.com/opencontainers/image-spec@v1.0.2-0.20211117181255-693428a734f5"
    },
    {
      "ref": "pkg:golang/github.com/opencontainers/runc@v1.1.0",
      "dependsOn": [
        "pkg:golang/github.com/containerd/console@v1.0.3",
        "pkg:golang/github.com/docker/go-units@v0.4.0",
        "pkg:golang/github.com/moby/sys/mountinfo@v0.5.0",
        "pkg:golang/github.com/sirupsen/logrus@v1.8.1",
        "pkg:golang/golang.org/x/net@v0.0.0-20211216030914-fe4d6282115f",
        "pkg:golang/golang.org/x/sys@v0.0.0-20220114195835-da31bd327af9",
        "pkg:golang/google.golang.org/protobuf@v1.27.1"
      ]
    },
    {
      "ref": "pkg:golang/github.com/otiai10/copy@v1.1.1"
    },
    {
      "ref": "pkg:golang/github.com/pkg/errors@v0.9.1"
    },
    {
      "ref": "pkg:golang/github.com/russross/blackfriday/v2@v2.0.1"
    },
    {
      "ref": "pkg:golang/github.com/shurcooL/sanitized_anchor_name@v1.0.0"
    },
    {
      "ref": "pkg:golang/github.com/sirupsen/logrus@v1.8.1",
      "dependsOn": [
        "pkg:golang/golang.org/x/sys@v0.0.0-20220114195835-da31bd327af9"
      ]
    },
    {
      "ref": "pkg:golang/github.com/earthly/fsutil@v0.0.0-20220118225905-42fa88fbe869",
      "dependsOn": [
        "pkg:golang/google.golang.org/protobuf@v1.27.1",
        "pkg:golang/golang.org/x/sys@v0.0.0-20220114195835-da31bd327af9",
        "pkg:golang/golang.org/x/sync@v0.0.0-20210220032951-036812b2e83c",
        "pkg:golang/github.com/pkg/errors@v0.9.1",
        "pkg:golang/github.com/opencontainers/go-digest@v1.0.0",
        "pkg:golang/github.com/golang/protobuf@v1.5.2",
        "pkg:golang/github.com/gogo/protobuf@v1.3.2",
        "pkg:golang/github.com/docker/docker@v20.10.3-0.20211208011758-87521affb077+incompatible",
        "pkg:golang/github.com/containerd/continuity@v0.2.2"
      ]
    },
    {
      "ref": "pkg:golang/github.com/tonistiigi/units@v0.0.0-20180711220420-6950e57a87ea"
    },
    {
      "ref": "pkg:golang/github.com/tonistiigi/vt100@v0.0.0-20210615222946-8066bb97264f"
    },
    {
      "ref": "pkg:golang/github.com/urfave/cli/v2@v2.3.0",
      "dependsOn": [
        "pkg:golang/github.com/cpuguy83/go-md2man/v2@v2.0.0"
      ]
    },
    {
      "ref": "pkg:golang/github.com/wille/osutil@v0.0.0-20201124133013-e7a03eb09286"
    },
    {
      "ref": "pkg:golang/go.opentelemetry.io/contrib/instrumentation/google.golang.org/grpc/otelgrpc@v0.28.0",
      "dependsOn": [
        "pkg:golang/github.com/golang/protobuf@v1.5.2",
        "pkg:golang/go.opentelemetry.io/otel@v1.3.0",
        "pkg:golang/go.opentelemetry.io/otel/trace@v1.3.0",
        "pkg:golang/google.golang.org/grpc@v1.44.0"
      ]
    },
    {
      "ref": "pkg:golang/go.opentelemetry.io/otel@v1.3.0",
      "dependsOn": [
        "pkg:golang/github.com/go-logr/logr@v1.2.2",
        "pkg:golang/github.com/go-logr/stdr@v1.2.2",
        "pkg:golang/go.opentelemetry.io/otel/trace@v1.3.0"
      ]
    },
    {
      "ref": "pkg:golang/go.opentelemetry.io/otel/exporters/otlp/otlptrace@v1.3.0",
      "dependsOn": [
        "pkg:golang/go.opentelemetry.io/otel@v1.3.0",
        "pkg:golang/go.opentelemetry.io/otel/sdk@v1.3.0",
        "pkg:golang/go.opentelemetry.io/otel/trace@v1.3.0",
        "pkg:golang/go.opentelemetry.io/proto/otlp@v0.11.0",
        "pkg:golang/google.golang.org/grpc@v1.44.0",
        "pkg:golang/google.golang.org/protobuf@v1.27.1"
      ]
    },
    {
      "ref": "pkg:golang/go.opentelemetry.io/otel/sdk@v1.3.0",
      "dependsOn": [
        "pkg:golang/go.opentelemetry.io/otel@v1.3.0",
        "pkg:golang/go.opentelemetry.io/otel/trace@v1.3.0",
        "pkg:golang/golang.org/x/sys@v0.0.0-20220114195835-da31bd327af9"
      ]
    },
    {
      "ref": "pkg:golang/go.opentelemetry.io/otel/trace@v1.3.0",
      "dependsOn": [
        "pkg:golang/go.opentelemetry.io/otel@v1.3.0"
      ]
    },
    {
      "ref": "pkg:golang/go.opentelemetry.io/proto/otlp@v0.11.0",
      "dependsOn": [
        "pkg:golang/github.com/golang/protobuf@v1.5.2",
        "pkg:golang/github.com/grpc-ecosystem/grpc-gateway@v1.16.0",
        "pkg:golang/google.golang.org/grpc@v1.44.0",
        "pkg:golang/google.golang.org/protobuf@v1.27.1"
      ]
    },
    {
      "ref": "pkg:golang/golang.org/x/crypto@v0.0.0-20220131195533-30dcbda58838",
      "dependsOn": [
        "pkg:golang/golang.org/x/net@v0.0.0-20211216030914-fe4d6282115f",
        "pkg:golang/golang.org/x/sys@v0.0.0-20220114195835-da31bd327af9",
        "pkg:golang/golang.org/x/term@v0.0.0-20210615171337-6886f2dfbf5b",
        "pkg:golang/golang.org/x/text@v0.3.7"
      ]
    },
    {
      "ref": "pkg:golang/golang.org/x/net@v0.0.0-20211216030914-fe4d6282115f",
      "dependsOn": [
        "pkg:golang/golang.org/x/sys@v0.0.0-20220114195835-da31bd327af9",
        "pkg:golang/golang.org/x/term@v0.0.0-20210615171337-6886f2dfbf5b",
        "pkg:golang/golang.org/x/text@v0.3.7"
      ]
    },
    {
      "ref": "pkg:golang/golang.org/x/sync@v0.0.0-20210220032951-036812b2e83c"
    },
    {
      "ref": "pkg:golang/golang.org/x/sys@v0.0.0-20220114195835-da31bd327af9"
    },
    {
      "ref": "pkg:golang/golang.org/x/term@v0.0.0-20210615171337-6886f2dfbf5b",
      "dependsOn": [
        "pkg:golang/golang.org/x/sys@v0.0.0-20220114195835-da31bd327af9"
      ]
    },
    {
      "ref": "pkg:golang/golang.org/x/text@v0.3.7"
    },
    {
      "ref": "pkg:golang/golang.org/x/time@v0.0.0-20210723032227-1f47c861a9ac"
    },
    {
      "ref": "pkg:golang/google.golang.org/genproto@v0.0.0-20211208223120-3a66f561d7aa",
      "dependsOn": [
        "pkg:golang/github.com/golang/protobuf@v1.5.2",
        "pkg:golang/golang.org/x/net@v0.0.0-20211216030914-fe4d6282115f",
        "pkg:golang/golang.org/x/sys@v0.0.0-20220114195835-da31bd327af9",
        "pkg:golang/golang.org/x/text@v0.3.7",
        "pkg:golang/google.golang.org/grpc@v1.44.0",
        "pkg:golang/google.golang.org/protobuf@v1.27.1"
      ]
    },
    {
      "ref": "pkg:golang/google.golang.org/grpc@v1.44.0",
      "dependsOn": [
        "pkg:golang/github.com/golang/protobuf@v1.5.2",
        "pkg:golang/github.com/google/uuid@v1.3.0",
        "pkg:golang/golang.org/x/net@v0.0.0-20211216030914-fe4d6282115f",
        "pkg:golang/golang.org/x/sys@v0.0.0-20220114195835-da31bd327af9",
        "pkg:golang/google.golang.org/genproto@v0.0.0-20211208223120-3a66f561d7aa",
        "pkg:golang/google.golang.org/protobuf@v1.27.1"
      ]
    },
    {
      "ref": "pkg:golang/google.golang.org/protobuf@v1.27.1",
      "dependsOn": [
        "pkg:golang/github.com/golang/protobuf@v1.5.2"
      ]
    },
    {
      "ref": "pkg:golang/gopkg.in/yaml.v3@v3.0.0-20210107192922-496545a6307b"
    },
    {
      "ref": "pkg:golang/github.com/earthly/earthly@v0.0.0-20220512103744-b0e5a0f191b7",
      "dependsOn": [
        "pkg:golang/github.com/alessio/shellescape@v1.4.1",
        "pkg:golang/github.com/alexcb/go-flags@v0.0.0-20210722203016-f11d7ecb5ee5",
        "pkg:golang/github.com/antlr/antlr4@v0.0.0-20200225173536-225249fdaef5",
        "pkg:golang/github.com/armon/circbuf@v0.0.0-20190214190532-5111143e8da2",
        "pkg:golang/github.com/containerd/containerd@v1.6.0-rc.1",
        "pkg:golang/github.com/creack/pty@v1.1.11",
        "pkg:golang/github.com/docker/distribution@v2.7.1",
        "pkg:golang/github.com/docker/docker@v20.10.3-0.20211208011758-87521affb077+incompatible",
        "pkg:golang/github.com/dustin/go-humanize@v1.0.0",
        "pkg:golang/github.com/earthly/buildkit@v0.0.1-0.20220426221727-a3a7a3021815",
        "pkg:golang/github.com/earthly/cloud-api@v1.0.1-0.20220228235811-35dd6315dcf5",
        "pkg:golang/github.com/earthly/fsutil@v0.0.0-20220118225905-42fa88fbe869",
        "pkg:golang/github.com/fatih/color@v1.9.0",
        "pkg:golang/github.com/golang/protobuf@v1.5.2",
        "pkg:golang/github.com/google/uuid@v1.3.0",
        "pkg:golang/github.com/hashicorp/go-multierror@v1.1.1",
        "pkg:golang/github.com/jdxcode/netrc@v0.0.0-20210204082910-926c7f70242a",
        "pkg:golang/github.com/joho/godotenv@v1.3.0",
        "pkg:golang/github.com/mattn/go-colorable@v0.1.8",
        "pkg:golang/github.com/mattn/go-isatty@v0.0.12",
        "pkg:golang/github.com/mitchellh/hashstructure/v2@v2.0.2",
        "pkg:golang/github.com/opencontainers/go-digest@v1.0.0",
        "pkg:golang/github.com/opencontainers/image-spec@v1.0.2-0.20211117181255-693428a734f5",
        "pkg:golang/github.com/otiai10/copy@v1.1.1",
        "pkg:golang/github.com/pkg/errors@v0.9.1",
        "pkg:golang/github.com/sirupsen/logrus@v1.8.1",
        "pkg:golang/github.com/urfave/cli/v2@v2.3.0",
        "pkg:golang/github.com/wille/osutil@v0.0.0-20201124133013-e7a03eb09286",
        "pkg:golang/golang.org/x/crypto@v0.0.0-20220131195533-30dcbda58838",
        "pkg:golang/golang.org/x/sync@v0.0.0-20210220032951-036812b2e83c",
        "pkg:golang/golang.org/x/term@v0.0.0-20210615171337-6886f2dfbf5b",
        "pkg:golang/google.golang.org/grpc@v1.44.0",
        "pkg:golang/gopkg.in/yaml.v3@v3.0.0-20210107192922-496545a6307b"
      ]
    }
  ]
}
