{
  "bomFormat": "CycloneDX",
  "specVersion": "1.3",
  "serialNumber": "urn:uuid:0b627928-06ed-4f56-bd33-029a466b125a",
  "version": 1,
  "metadata": {
    "timestamp": "2022-05-17T12:57:30Z",
    "tools": [
      {
        "vendor": "AppThreat",
        "name": "cdxgen",
        "version": "3.0.10"
      },
      {
        "vendor": "Fortress Information Security",
        "name": "Github Extractor",
        "version": "1.15.1"
      }
    ],
    "authors": [
      {
        "name": "Team AppThreat",
        "email": "cloud@appthreat.com"
      },
      {
        "name": "Fortress Information Security",
        "email": "sales@fortressinfosec.com",
        "phone": "1-407-573-6800"
      }
    ],
    "component": {
      "type": "application",
      "name": "elemental",
      "version": "",
      "group": "elementalui",
      "externalReferences": [
        {
          "url": "https://github.com/elementalui/elemental.git",
          "type": "distribution"
        },
        {
          "type": "website",
          "url": "elemental-ui.com",
          "comment": "As set via `homepage` in Github API"
        }
      ]
    }
  },
  "components": [
    {
      "type": "library",
      "bom-ref": "pkg:npm/ansi-regex@2.1.1",
      "group": "",
      "name": "ansi-regex",
      "version": "2.1.1",
      "description": "",
      "scope": "optional",
      "hashes": [
        {
          "alg": "SHA-1",
          "content": "c3b33ab5ee360d86e0e628f0468ae7ef27d654df"
        }
      ],
      "purl": "pkg:npm/ansi-regex@2.1.1"
    },
    {
      "type": "library",
      "bom-ref": "pkg:npm/ansi-styles@2.2.1",
      "group": "",
      "name": "ansi-styles",
      "version": "2.2.1",
      "description": "",
      "scope": "optional",
      "hashes": [
        {
          "alg": "SHA-1",
          "content": "b432dd3358b634cf75e1e4664368240533c1ddbe"
        }
      ],
      "purl": "pkg:npm/ansi-styles@2.2.1"
    },
    {
      "type": "library",
      "bom-ref": "pkg:npm/chalk@1.1.3",
      "group": "",
      "name": "chalk",
      "version": "1.1.3",
      "description": "",
      "scope": "optional",
      "hashes": [
        {
          "alg": "SHA-1",
          "content": "a8115c55e4a702fe4d150abd3872822a7e09fc98"
        }
      ],
      "purl": "pkg:npm/chalk@1.1.3"
    },
    {
      "type": "library",
      "bom-ref": "pkg:npm/escape-string-regexp@1.0.5",
      "group": "",
      "name": "escape-string-regexp",
      "version": "1.0.5",
      "description": "",
      "scope": "optional",
      "hashes": [
        {
          "alg": "SHA-1",
          "content": "1b61c0562190a8dff6ae3bb2cf0200ca130b86d4"
        }
      ],
      "purl": "pkg:npm/escape-string-regexp@1.0.5"
    },
    {
      "type": "library",
      "bom-ref": "pkg:npm/esutils@2.0.2",
      "group": "",
      "name": "esutils",
      "version": "2.0.2",
      "description": "",
      "scope": "optional",
      "hashes": [
        {
          "alg": "SHA-1",
          "content": "0abf4f1caa5bcb1f7a9d8acc6dea4faaa04bac9b"
        }
      ],
      "purl": "pkg:npm/esutils@2.0.2"
    },
    {
      "type": "library",
      "bom-ref": "pkg:npm/has-ansi@2.0.0",
      "group": "",
      "name": "has-ansi",
      "version": "2.0.0",
      "description": "",
      "scope": "optional",
      "hashes": [
        {
          "alg": "SHA-1",
          "content": "34f5049ce1ecdf2b0649af3ef24e45ed35416d91"
        }
      ],
      "purl": "pkg:npm/has-ansi@2.0.0"
    },
    {
      "type": "library",
      "bom-ref": "pkg:npm/js-tokens@3.0.2",
      "group": "",
      "name": "js-tokens",
      "version": "3.0.2",
      "description": "",
      "scope": "optional",
      "hashes": [
        {
          "alg": "SHA-1",
          "content": "9866df395102130e38f7f996bceb65443209c25b"
        }
      ],
      "purl": "pkg:npm/js-tokens@3.0.2"
    },
    {
      "type": "library",
      "bom-ref": "pkg:npm/strip-ansi@3.0.1",
      "group": "",
      "name": "strip-ansi",
      "version": "3.0.1",
      "description": "",
      "scope": "optional",
      "hashes": [
        {
          "alg": "SHA-1",
          "content": "6a385fb8853d952d5ff05d0e8aaf94278dc63dcf"
        }
      ],
      "purl": "pkg:npm/strip-ansi@3.0.1"
    },
    {
      "type": "library",
      "bom-ref": "pkg:npm/supports-color@2.0.0",
      "group": "",
      "name": "supports-color",
      "version": "2.0.0",
      "description": "",
      "scope": "optional",
      "hashes": [
        {
          "alg": "SHA-1",
          "content": "535d045ce6b6363fa40117084629995e9df324c7"
        }
      ],
      "purl": "pkg:npm/supports-color@2.0.0"
    },
    {
      "type": "library",
      "bom-ref": "pkg:npm/callsite@1.0.0",
      "group": "",
      "name": "callsite",
      "version": "1.0.0",
      "description": "",
      "scope": "optional",
      "hashes": [
        {
          "alg": "SHA-1",
          "content": "280398e5d664bd74038b6f0905153e6e8af1bc20"
        }
      ],
      "purl": "pkg:npm/callsite@1.0.0"
    },
    {
      "type": "library",
      "bom-ref": "pkg:npm/core-js@2.5.0",
      "group": "",
      "name": "core-js",
      "version": "2.5.0",
      "description": "",
      "scope": "optional",
      "hashes": [
        {
          "alg": "SHA-1",
          "content": "569c050918be6486b3837552028ae0466b717086"
        }
      ],
      "purl": "pkg:npm/core-js@2.5.0"
    },
    {
      "type": "library",
      "bom-ref": "pkg:npm/decache@4.1.0",
      "group": "",
      "name": "decache",
      "version": "4.1.0",
      "description": "",
      "scope": "optional",
      "hashes": [
        {
          "alg": "SHA-1",
          "content": "2037d5edf756dda230c85023659e7c3d1d6e0105"
        }
      ],
      "purl": "pkg:npm/decache@4.1.0"
    },
    {
      "type": "library",
      "bom-ref": "pkg:npm/home-or-tmp@2.0.0",
      "group": "",
      "name": "home-or-tmp",
      "version": "2.0.0",
      "description": "",
      "scope": "optional",
      "hashes": [
        {
          "alg": "SHA-1",
          "content": "e36c3f2d2cae7d746a857e38d18d5f32a7882db8"
        }
      ],
      "purl": "pkg:npm/home-or-tmp@2.0.0"
    },
    {
      "type": "library",
      "bom-ref": "pkg:npm/lodash@4.17.4",
      "group": "",
      "name": "lodash",
      "version": "4.17.4",
      "description": "",
      "scope": "optional",
      "hashes": [
        {
          "alg": "SHA-1",
          "content": "78203a4d1c328ae1d86dca6460e369b57f4055ae"
        }
      ],
      "purl": "pkg:npm/lodash@4.17.4"
    },
    {
      "type": "library",
      "bom-ref": "pkg:npm/minimist@0.0.8",
      "group": "",
      "name": "minimist",
      "version": "0.0.8",
      "description": "",
      "scope": "optional",
      "hashes": [
        {
          "alg": "SHA-1",
          "content": "857fcabfc3397d2625b8228262e86aa7a011b05d"
        }
      ],
      "purl": "pkg:npm/minimist@0.0.8"
    },
    {
      "type": "library",
      "bom-ref": "pkg:npm/mkdirp@0.5.1",
      "group": "",
      "name": "mkdirp",
      "version": "0.5.1",
      "description": "",
      "scope": "optional",
      "hashes": [
        {
          "alg": "SHA-1",
          "content": "30057438eac6cf7f8c4767f38648d6697d75c903"
        }
      ],
      "purl": "pkg:npm/mkdirp@0.5.1"
    },
    {
      "type": "library",
      "bom-ref": "pkg:npm/os-homedir@1.0.2",
      "group": "",
      "name": "os-homedir",
      "version": "1.0.2",
      "description": "",
      "scope": "optional",
      "hashes": [
        {
          "alg": "SHA-1",
          "content": "ffbc4988336e0e833de0c168c7ef152121aa7fb3"
        }
      ],
      "purl": "pkg:npm/os-homedir@1.0.2"
    },
    {
      "type": "library",
      "bom-ref": "pkg:npm/os-tmpdir@1.0.2",
      "group": "",
      "name": "os-tmpdir",
      "version": "1.0.2",
      "description": "",
      "scope": "optional",
      "hashes": [
        {
          "alg": "SHA-1",
          "content": "bbe67406c79aa85c5cfec766fe5734555dfa1274"
        }
      ],
      "purl": "pkg:npm/os-tmpdir@1.0.2"
    },
    {
      "type": "library",
      "bom-ref": "pkg:npm/source-map@0.5.6",
      "group": "",
      "name": "source-map",
      "version": "0.5.6",
      "description": "",
      "scope": "optional",
      "hashes": [
        {
          "alg": "SHA-1",
          "content": "75ce38f52bf0733c5a7f0c118d81334a2bb5f412"
        }
      ],
      "purl": "pkg:npm/source-map@0.5.6"
    },
    {
      "type": "library",
      "bom-ref": "pkg:npm/source-map-support@0.4.15",
      "group": "",
      "name": "source-map-support",
      "version": "0.4.15",
      "description": "",
      "scope": "optional",
      "hashes": [
        {
          "alg": "SHA-1",
          "content": "03202df65c06d2bd8c7ec2362a193056fef8d3b1"
        }
      ],
      "purl": "pkg:npm/source-map-support@0.4.15"
    },
    {
      "type": "library",
      "bom-ref": "pkg:npm/babel-code-frame@6.22.0",
      "group": "",
      "name": "babel-code-frame",
      "version": "6.22.0",
      "description": "",
      "scope": "optional",
      "hashes": [
        {
          "alg": "SHA-1",
          "content": "027620bee567a88c32561574e7fd0801d33118e4"
        }
      ],
      "purl": "pkg:npm/babel-code-frame@6.22.0"
    },
    {
      "type": "library",
      "bom-ref": "pkg:npm/babel-helpers@6.24.1",
      "group": "",
      "name": "babel-helpers",
      "version": "6.24.1",
      "description": "",
      "scope": "optional",
      "hashes": [
        {
          "alg": "SHA-1",
          "content": "3471de9caec388e5c850e597e58a26ddf37602b2"
        }
      ],
      "purl": "pkg:npm/babel-helpers@6.24.1"
    },
    {
      "type": "library",
      "bom-ref": "pkg:npm/babel-messages@6.23.0",
      "group": "",
      "name": "babel-messages",
      "version": "6.23.0",
      "description": "",
      "scope": "optional",
      "hashes": [
        {
          "alg": "SHA-1",
          "content": "f3cdf4703858035b2a2951c6ec5edf6c62f2630e"
        }
      ],
      "purl": "pkg:npm/babel-messages@6.23.0"
    },
    {
      "type": "library",
      "bom-ref": "pkg:npm/babel-plugin-transform-runtime@6.23.0",
      "group": "",
      "name": "babel-plugin-transform-runtime",
      "version": "6.23.0",
      "description": "",
      "scope": "optional",
      "hashes": [
        {
          "alg": "SHA-1",
          "content": "88490d446502ea9b8e7efb0fe09ec4d99479b1ee"
        }
      ],
      "purl": "pkg:npm/babel-plugin-transform-runtime@6.23.0"
    },
    {
      "type": "library",
      "bom-ref": "pkg:npm/babel-runtime@6.25.0",
      "group": "",
      "name": "babel-runtime",
      "version": "6.25.0",
      "description": "",
      "scope": "optional",
      "hashes": [
        {
          "alg": "SHA-1",
          "content": "33b98eaa5d482bb01a8d1aa6b437ad2b01aec41c"
        }
      ],
      "purl": "pkg:npm/babel-runtime@6.25.0"
    },
    {
      "type": "library",
      "bom-ref": "pkg:npm/babel-template@6.25.0",
      "group": "",
      "name": "babel-template",
      "version": "6.25.0",
      "description": "",
      "scope": "optional",
      "hashes": [
        {
          "alg": "SHA-1",
          "content": "665241166b7c2aa4c619d71e192969552b10c071"
        }
      ],
      "purl": "pkg:npm/babel-template@6.25.0"
    },
    {
      "type": "library",
      "bom-ref": "pkg:npm/babel-traverse@6.25.0",
      "group": "",
      "name": "babel-traverse",
      "version": "6.25.0",
      "description": "",
      "scope": "optional",
      "hashes": [
        {
          "alg": "SHA-1",
          "content": "2257497e2fcd19b89edc13c4c91381f9512496f1"
        }
      ],
      "purl": "pkg:npm/babel-traverse@6.25.0"
    },
    {
      "type": "library",
      "bom-ref": "pkg:npm/babel-types@6.25.0",
      "group": "",
      "name": "babel-types",
      "version": "6.25.0",
      "description": "",
      "scope": "optional",
      "hashes": [
        {
          "alg": "SHA-1",
          "content": "70afb248d5660e5d18f811d91c8303b54134a18e"
        }
      ],
      "purl": "pkg:npm/babel-types@6.25.0"
    },
    {
      "type": "library",
      "bom-ref": "pkg:npm/babylon@6.18.0",
      "group": "",
      "name": "babylon",
      "version": "6.18.0",
      "description": "",
      "scope": "optional",
      "hashes": [
        {
          "alg": "SHA-512",
          "content": "abf5048df189d829b7a0a57bd43273f5ddb94cf9eae6b84154bd90e1f039c1c0b78dcadd9fbf92b2c1326c5231c00bef3fe602b0260d2ae821a05df71b183271"
        }
      ],
      "purl": "pkg:npm/babylon@6.18.0"
    },
    {
      "type": "library",
      "bom-ref": "pkg:npm/debug@2.6.8",
      "group": "",
      "name": "debug",
      "version": "2.6.8",
      "description": "",
      "scope": "optional",
      "hashes": [
        {
          "alg": "SHA-1",
          "content": "e731531ca2ede27d188222427da17821d68ff4fc"
        }
      ],
      "purl": "pkg:npm/debug@2.6.8"
    },
    {
      "type": "library",
      "bom-ref": "pkg:npm/globals@9.18.0",
      "group": "",
      "name": "globals",
      "version": "9.18.0",
      "description": "",
      "scope": "optional",
      "hashes": [
        {
          "alg": "SHA-512",
          "content": "4b49c6dc22c442263f20bc6ab73b53587ff789145dc812f0e8a303c6728c721aed6e3d8e1667a1561d165027d6dc352b220c7fa85ac93c80abab8678b1347d51"
        }
      ],
      "purl": "pkg:npm/globals@9.18.0"
    },
    {
      "type": "library",
      "bom-ref": "pkg:npm/invariant@2.2.2",
      "group": "",
      "name": "invariant",
      "version": "2.2.2",
      "description": "",
      "scope": "optional",
      "hashes": [
        {
          "alg": "SHA-1",
          "content": "9e1f56ac0acdb6bf303306f338be3b204ae60360"
        }
      ],
      "purl": "pkg:npm/invariant@2.2.2"
    },
    {
      "type": "library",
      "bom-ref": "pkg:npm/loose-envify@1.3.1",
      "group": "",
      "name": "loose-envify",
      "version": "1.3.1",
      "description": "",
      "scope": "optional",
      "hashes": [
        {
          "alg": "SHA-1",
          "content": "d1a8ad33fa9ce0e713d65fdd0ac8b748d478c848"
        }
      ],
      "purl": "pkg:npm/loose-envify@1.3.1"
    },
    {
      "type": "library",
      "bom-ref": "pkg:npm/ms@2.0.0",
      "group": "",
      "name": "ms",
      "version": "2.0.0",
      "description": "",
      "scope": "optional",
      "hashes": [
        {
          "alg": "SHA-1",
          "content": "5608aeadfc00be6c2901df5f9861788de0d597c8"
        }
      ],
      "purl": "pkg:npm/ms@2.0.0"
    },
    {
      "type": "library",
      "bom-ref": "pkg:npm/regenerator-runtime@0.11.0",
      "group": "",
      "name": "regenerator-runtime",
      "version": "0.11.0",
      "description": "",
      "scope": "optional",
      "hashes": [
        {
          "alg": "SHA-512",
          "content": "fda03490b7916f937d2b47787f0ee8a046c8fb10def83283e3df4442aca01aa792f0ddf1b68d79a74f6e636c63ee2c4ff35b0d3d7bd12e701022a7554ad81bd4"
        }
      ],
      "purl": "pkg:npm/regenerator-runtime@0.11.0"
    },
    {
      "type": "library",
      "bom-ref": "pkg:npm/to-fast-properties@1.0.3",
      "group": "",
      "name": "to-fast-properties",
      "version": "1.0.3",
      "description": "",
      "scope": "optional",
      "hashes": [
        {
          "alg": "SHA-1",
          "content": "b83571fa4d8c25b82e231b06e3a3055de4ca1a47"
        }
      ],
      "purl": "pkg:npm/to-fast-properties@1.0.3"
    }
  ],
  "externalReferences": [
    {
      "url": "/project/src",
      "type": "other",
      "comment": "Base path"
    },
    {
      "url": "/project/src/package-lock.json",
      "type": "other",
      "comment": "Package file"
    }
  ]
}
