{
  "bomFormat": "CycloneDX",
  "specVersion": "1.3",
  "serialNumber": "urn:uuid:df154210-e27c-4591-bcd3-6628f27ffd90",
  "version": 2,
  "metadata": {
    "timestamp": "2022-07-26T23:35:07Z",
    "tools": [
      {
        "vendor": "AppThreat",
        "name": "cdxgen",
        "version": "3.0.10"
      },
      {
        "vendor": "Fortress Information Security",
        "name": "Github Extractor",
        "version": "1.15.1"
      }
    ],
    "authors": [
      {
        "name": "Team AppThreat",
        "email": "cloud@appthreat.com"
      },
      {
        "name": "Fortress Information Security",
        "email": "sales@fortressinfosec.com",
        "phone": "1-407-573-6800"
      }
    ],
    "component": {
      "type": "application",
      "name": "real-world-rails",
      "version": "",
      "group": "eliotsykes",
      "externalReferences": [
        {
          "url": "https://github.com/eliotsykes/real-world-rails.git",
          "type": "distribution"
        },
        {
          "type": "website",
          "url": "null",
          "comment": "As set via `homepage` in Github API"
        }
      ]
    }
  },
  "components": [
    {
      "type": "library",
      "bom-ref": "pkg:rubygems/activesupport@5.1.3",
      "group": "",
      "name": "activesupport",
      "version": "5.1.3",
      "description": "",
      "purl": "pkg:rubygems/activesupport@5.1.3"
    },
    {
      "type": "library",
      "bom-ref": "pkg:rubygems/ast@2.0.0",
      "group": "",
      "name": "ast",
      "version": "2.0.0",
      "description": "",
      "purl": "pkg:rubygems/ast@2.0.0"
    },
    {
      "type": "library",
      "bom-ref": "pkg:rubygems/coderay@1.1.0",
      "group": "",
      "name": "coderay",
      "version": "1.1.0",
      "description": "",
      "purl": "pkg:rubygems/coderay@1.1.0"
    },
    {
      "type": "library",
      "bom-ref": "pkg:rubygems/concurrent-ruby@1.0.5",
      "group": "",
      "name": "concurrent-ruby",
      "version": "1.0.5",
      "description": "",
      "purl": "pkg:rubygems/concurrent-ruby@1.0.5"
    },
    {
      "type": "library",
      "bom-ref": "pkg:rubygems/diff-lcs@1.2.5",
      "group": "",
      "name": "diff-lcs",
      "version": "1.2.5",
      "description": "",
      "purl": "pkg:rubygems/diff-lcs@1.2.5"
    },
    {
      "type": "library",
      "bom-ref": "pkg:rubygems/equatable@0.5.0",
      "group": "",
      "name": "equatable",
      "version": "0.5.0",
      "description": "",
      "purl": "pkg:rubygems/equatable@0.5.0"
    },
    {
      "type": "library",
      "bom-ref": "pkg:rubygems/graphql@1.6.6",
      "group": "",
      "name": "graphql",
      "version": "1.6.6",
      "description": "",
      "purl": "pkg:rubygems/graphql@1.6.6"
    },
    {
      "type": "library",
      "bom-ref": "pkg:rubygems/graphql-client@0.12.1",
      "group": "",
      "name": "graphql-client",
      "version": "0.12.1",
      "description": "",
      "purl": "pkg:rubygems/graphql-client@0.12.1"
    },
    {
      "type": "library",
      "bom-ref": "pkg:rubygems/i18n@0.8.6",
      "group": "",
      "name": "i18n",
      "version": "0.8.6",
      "description": "",
      "purl": "pkg:rubygems/i18n@0.8.6"
    },
    {
      "type": "library",
      "bom-ref": "pkg:rubygems/method_source@0.8.2",
      "group": "",
      "name": "method_source",
      "version": "0.8.2",
      "description": "",
      "purl": "pkg:rubygems/method_source@0.8.2"
    },
    {
      "type": "library",
      "bom-ref": "pkg:rubygems/minitest@5.10.3",
      "group": "",
      "name": "minitest",
      "version": "5.10.3",
      "description": "",
      "purl": "pkg:rubygems/minitest@5.10.3"
    },
    {
      "type": "library",
      "bom-ref": "pkg:rubygems/necromancer@0.3.0",
      "group": "",
      "name": "necromancer",
      "version": "0.3.0",
      "description": "",
      "purl": "pkg:rubygems/necromancer@0.3.0"
    },
    {
      "type": "library",
      "bom-ref": "pkg:rubygems/parser@2.2.2.2",
      "group": "",
      "name": "parser",
      "version": "2.2.2.2",
      "description": "",
      "purl": "pkg:rubygems/parser@2.2.2.2"
    },
    {
      "type": "library",
      "bom-ref": "pkg:rubygems/pastel@0.5.1",
      "group": "",
      "name": "pastel",
      "version": "0.5.1",
      "description": "",
      "purl": "pkg:rubygems/pastel@0.5.1"
    },
    {
      "type": "library",
      "bom-ref": "pkg:rubygems/pry@0.10.2",
      "group": "",
      "name": "pry",
      "version": "0.10.2",
      "description": "",
      "purl": "pkg:rubygems/pry@0.10.2"
    },
    {
      "type": "library",
      "bom-ref": "pkg:rubygems/rspec@3.3.0",
      "group": "",
      "name": "rspec",
      "version": "3.3.0",
      "description": "",
      "purl": "pkg:rubygems/rspec@3.3.0"
    },
    {
      "type": "library",
      "bom-ref": "pkg:rubygems/rspec-core@3.3.2",
      "group": "",
      "name": "rspec-core",
      "version": "3.3.2",
      "description": "",
      "purl": "pkg:rubygems/rspec-core@3.3.2"
    },
    {
      "type": "library",
      "bom-ref": "pkg:rubygems/rspec-expectations@3.3.1",
      "group": "",
      "name": "rspec-expectations",
      "version": "3.3.1",
      "description": "",
      "purl": "pkg:rubygems/rspec-expectations@3.3.1"
    },
    {
      "type": "library",
      "bom-ref": "pkg:rubygems/rspec-mocks@3.3.2",
      "group": "",
      "name": "rspec-mocks",
      "version": "3.3.2",
      "description": "",
      "purl": "pkg:rubygems/rspec-mocks@3.3.2"
    },
    {
      "type": "library",
      "bom-ref": "pkg:rubygems/rspec-support@3.3.0",
      "group": "",
      "name": "rspec-support",
      "version": "3.3.0",
      "description": "",
      "purl": "pkg:rubygems/rspec-support@3.3.0"
    },
    {
      "type": "library",
      "bom-ref": "pkg:rubygems/slop@3.6.0",
      "group": "",
      "name": "slop",
      "version": "3.6.0",
      "description": "",
      "purl": "pkg:rubygems/slop@3.6.0"
    },
    {
      "type": "library",
      "bom-ref": "pkg:rubygems/thread_safe@0.3.6",
      "group": "",
      "name": "thread_safe",
      "version": "0.3.6",
      "description": "",
      "purl": "pkg:rubygems/thread_safe@0.3.6"
    },
    {
      "type": "library",
      "bom-ref": "pkg:rubygems/tty@0.2.1",
      "group": "",
      "name": "tty",
      "version": "0.2.1",
      "description": "",
      "purl": "pkg:rubygems/tty@0.2.1"
    },
    {
      "type": "library",
      "bom-ref": "pkg:rubygems/tty-pager@0.3.0",
      "group": "",
      "name": "tty-pager",
      "version": "0.3.0",
      "description": "",
      "purl": "pkg:rubygems/tty-pager@0.3.0"
    },
    {
      "type": "library",
      "bom-ref": "pkg:rubygems/tty-platform@0.1.0",
      "group": "",
      "name": "tty-platform",
      "version": "0.1.0",
      "description": "",
      "purl": "pkg:rubygems/tty-platform@0.1.0"
    },
    {
      "type": "library",
      "bom-ref": "pkg:rubygems/tty-progressbar@0.7.0",
      "group": "",
      "name": "tty-progressbar",
      "version": "0.7.0",
      "description": "",
      "purl": "pkg:rubygems/tty-progressbar@0.7.0"
    },
    {
      "type": "library",
      "bom-ref": "pkg:rubygems/tty-screen@0.4.0",
      "group": "",
      "name": "tty-screen",
      "version": "0.4.0",
      "description": "",
      "purl": "pkg:rubygems/tty-screen@0.4.0"
    },
    {
      "type": "library",
      "bom-ref": "pkg:rubygems/tty-spinner@0.1.0",
      "group": "",
      "name": "tty-spinner",
      "version": "0.1.0",
      "description": "",
      "purl": "pkg:rubygems/tty-spinner@0.1.0"
    },
    {
      "type": "library",
      "bom-ref": "pkg:rubygems/tty-table@0.4.0",
      "group": "",
      "name": "tty-table",
      "version": "0.4.0",
      "description": "",
      "purl": "pkg:rubygems/tty-table@0.4.0"
    },
    {
      "type": "library",
      "bom-ref": "pkg:rubygems/tty-which@0.1.0",
      "group": "",
      "name": "tty-which",
      "version": "0.1.0",
      "description": "",
      "purl": "pkg:rubygems/tty-which@0.1.0"
    },
    {
      "type": "library",
      "bom-ref": "pkg:rubygems/tzinfo@1.2.3",
      "group": "",
      "name": "tzinfo",
      "version": "1.2.3",
      "description": "",
      "purl": "pkg:rubygems/tzinfo@1.2.3"
    },
    {
      "type": "library",
      "bom-ref": "pkg:rubygems/unicode_utils@1.4.0",
      "group": "",
      "name": "unicode_utils",
      "version": "1.4.0",
      "description": "",
      "purl": "pkg:rubygems/unicode_utils@1.4.0"
    },
    {
      "type": "library",
      "bom-ref": "pkg:rubygems/verse@0.4.0",
      "group": "",
      "name": "verse",
      "version": "0.4.0",
      "description": "",
      "purl": "pkg:rubygems/verse@0.4.0"
    }
  ],
  "externalReferences": [
    {
      "url": "/project/src",
      "type": "other",
      "comment": "Base path"
    },
    {
      "url": "/project/src/Gemfile.lock",
      "type": "other",
      "comment": "Package file"
    }
  ]
}
