{
  "bomFormat": "CycloneDX",
  "specVersion": "1.3",
  "version": 1,
  "components": [
    {
      "type": "library",
      "publisher": "Travis E. Oliphant et al.",
      "name": "numpy",
      "version": "1.22.3",
      "description": "NumPy is the fundamental package for array computing with Python.",
      "hashes": [
        {
          "alg": "MD5",
          "content": "99d2dfb943327b108b2c3b923bd42000"
        },
        {
          "alg": "SHA-256",
          "content": "c34ea7e9d13a70bf2ab64a2532fe149a9aced424cd05a2c4ba662fd989e3e45f"
        }
      ],
      "licenses": [
        {
          "license": {
            "name": "BSD"
          }
        }
      ],
      "purl": "pkg:pypi/numpy@1.22.3",
      "modified": false
    },
    {
      "type": "library",
      "publisher": "Google Inc.",
      "name": "tensorflow",
      "version": "2.9.0",
      "description": "TensorFlow is an open source machine learning framework for everyone.",
      "hashes": [
        {
          "alg": "MD5",
          "content": "1cfa9da9b717760a82efdfc7137b6f6c"
        },
        {
          "alg": "SHA-256",
          "content": "bb17b23d96588c97869b58fd874887ea7e25efa69d80122f5a6d1a26e8cb897e"
        }
      ],
      "licenses": [
        {
          "license": {
            "name": "Apache 2.0"
          }
        }
      ],
      "purl": "pkg:pypi/tensorflow@2.9.0",
      "modified": false
    },
    {
      "type": "library",
      "publisher": "Secret Labs AB (PythonWare)",
      "name": "PIL",
      "version": "1.1.6",
      "description": "Python Imaging Library",
      "licenses": [
        {
          "license": {
            "name": "Python (MIT style)"
          }
        }
      ],
      "purl": "pkg:pypi/pil@1.1.6",
      "modified": false
    },
    {
      "type": "library",
      "publisher": "Haak Saxberg",
      "name": "utils",
      "version": "1.0.1",
      "description": "A grab-bag of utility functions and objects",
      "hashes": [
        {
          "alg": "MD5",
          "content": "96dfa21b1739f63ca1bf073ee9d9be18"
        },
        {
          "alg": "SHA-256",
          "content": "ff04549b95deb2fd7a82ddaea077e2f41209079e2482df231c358770b27b72a7"
        }
      ],
      "purl": "pkg:pypi/utils@1.0.1",
      "modified": false
    },
    {
      "type": "library",
      "publisher": "Not specified yet",
      "name": "rbm",
      "version": "0.0.3",
      "description": "Rodent Brain Masking Tool with Keras 2D Unet",
      "hashes": [
        {
          "alg": "MD5",
          "content": "f28039458818df45ebabab9ca53a98da"
        },
        {
          "alg": "SHA-256",
          "content": "6c9541a13b35eaa192e319b9094e01023aca7fc5d579963b72611c2f2b7e4240"
        }
      ],
      "licenses": [
        {
          "license": {
            "name": "GNLv3"
          }
        }
      ],
      "purl": "pkg:pypi/rbm@0.0.3",
      "modified": false
    },
    {
      "type": "library",
      "publisher": "Alvaro Ulloa",
      "name": "mlp",
      "version": "1.1",
      "description": "A multilayer perceptron implementation using keras and compatible with scikit-learn",
      "hashes": [
        {
          "alg": "MD5",
          "content": "bc8c1c7388fe8c68ec046ca3087514e3"
        },
        {
          "alg": "SHA-256",
          "content": "70630b39f002c7589d9c221ed6581c1ac74852f9698a01356828249ff5957658"
        }
      ],
      "purl": "pkg:pypi/mlp@1.1",
      "modified": false
    },
    {
      "type": "library",
      "publisher": "Schmid, F. and Masoudian, S.",
      "name": "da",
      "version": "0.0.2",
      "description": "Pytorch domain adaptation package",
      "hashes": [
        {
          "alg": "MD5",
          "content": "b62cf0a29178c2669c4d1778f3f9af36"
        },
        {
          "alg": "SHA-256",
          "content": "57ff2c9f2af370013fd860d19aa6a6b61f17fac46c57491ae301d17232cfa7db"
        }
      ],
      "licenses": [
        {
          "license": {
            "name": "GPLv2"
          }
        }
      ],
      "purl": "pkg:pypi/da@0.0.2",
      "modified": false
    },
    {
      "type": "library",
      "publisher": "Benjamin Peterson",
      "name": "six",
      "version": "1.16.0",
      "description": "Python 2 and 3 compatibility utilities",
      "hashes": [
        {
          "alg": "MD5",
          "content": "529d7fd7e14612ccde86417b4402d6f3"
        },
        {
          "alg": "SHA-256",
          "content": "8abb2f1d86890a2dfb989f9a77cfcfd3e47c2a354b01111771326f8aa26e0254"
        }
      ],
      "licenses": [
        {
          "license": {
            "name": "MIT"
          }
        }
      ],
      "purl": "pkg:pypi/six@1.16.0",
      "modified": false
    },
    {
      "type": "library",
      "publisher": "PyTorch Team",
      "name": "torch",
      "version": "1.11.0",
      "description": "Tensors and Dynamic neural networks in Python with strong GPU acceleration",
      "hashes": [
        {
          "alg": "MD5",
          "content": "d88113ea2a0597fd611880e93a508fe0"
        },
        {
          "alg": "SHA-256",
          "content": "0e48af66ad755f0f9c5f2664028a414f57c49d6adc37e77e06fe0004da4edb61"
        }
      ],
      "licenses": [
        {
          "license": {
            "name": "BSD-3"
          }
        }
      ],
      "purl": "pkg:pypi/torch@1.11.0",
      "modified": false
    },
    {
      "type": "library",
      "publisher": "Ian Cordasco, Ashwin Panchapakesan",
      "name": "cfg",
      "version": "0.0.0",
      "purl": "pkg:pypi/cfg@0.0.0",
      "modified": false
    },
    {
      "type": "library",
      "publisher": "Francesc Ortiz",
      "name": "Image",
      "version": "1.5.33",
      "description": "Django application that provides cropping, resizing, thumbnailing, overlays and masking for images and videos with the ability to set the center of attention,",
      "hashes": [
        {
          "alg": "MD5",
          "content": "b90045e51e1f33817d137da824d33357"
        },
        {
          "alg": "SHA-256",
          "content": "baa2e09178277daa50f22fd6d1d51ec78f19c12688921cb9ab5808743f097126"
        }
      ],
      "licenses": [
        {
          "license": {
            "name": "BSD"
          }
        }
      ],
      "purl": "pkg:pypi/image@1.5.33",
      "modified": false
    },
    {
      "type": "library",
      "publisher": "John D. Hunter, Michael Droettboom",
      "name": "matplotlib",
      "version": "3.5.2",
      "description": "Python plotting package",
      "hashes": [
        {
          "alg": "MD5",
          "content": "36ccc2efc47ed886836b2c7c3d3b9b3a"
        },
        {
          "alg": "SHA-256",
          "content": "24173c23d1bcbaed5bf47b8785d27933a1ac26a5d772200a0f3e0e38f471b001"
        }
      ],
      "licenses": [
        {
          "license": {
            "name": "PSF"
          }
        }
      ],
      "purl": "pkg:pypi/matplotlib@3.5.2",
      "modified": false
    },
    {
      "type": "library",
      "publisher": "Mario Vilas",
      "name": "google",
      "version": "3.0.0",
      "description": "Python bindings to the Google search engine.",
      "hashes": [
        {
          "alg": "MD5",
          "content": "30c719790d3e7e57e9482d108eda355c"
        },
        {
          "alg": "SHA-256",
          "content": "889cf695f84e4ae2c55fbc0cfdaf4c1e729417fa52ab1db0485202ba173e4935"
        }
      ],
      "purl": "pkg:pypi/google@3.0.0",
      "modified": false
    },
    {
      "type": "library",
      "publisher": "Thomas Waldmann",
      "name": "argparse",
      "version": "1.4.0",
      "description": "Python command-line parsing library",
      "hashes": [
        {
          "alg": "MD5",
          "content": "c37216a954c8669054e2b2c54853dd49"
        },
        {
          "alg": "SHA-256",
          "content": "c31647edb69fd3d465a847ea3157d37bed1f95f19760b11a47aa91c04b666314"
        }
      ],
      "licenses": [
        {
          "license": {
            "name": "Python Software Foundation License"
          }
        }
      ],
      "purl": "pkg:pypi/argparse@1.4.0",
      "modified": false
    },
    {
      "type": "library",
      "publisher": "lxml dev team",
      "name": "lxml",
      "version": "4.8.0",
      "description": "Powerful and Pythonic XML processing library combining libxml2/libxslt with the ElementTree API.",
      "hashes": [
        {
          "alg": "MD5",
          "content": "7ad82f2befca9ee0f3dc073ae7e0b85a"
        },
        {
          "alg": "SHA-256",
          "content": "8b99ec73073b37f9ebe8caf399001848fced9c08064effdbfc4da2b5a8d07b93"
        }
      ],
      "licenses": [
        {
          "license": {
            "name": "BSD"
          }
        }
      ],
      "purl": "pkg:pypi/lxml@4.8.0",
      "modified": false
    },
    {
      "type": "library",
      "publisher": "The Pandas Development Team",
      "name": "pandas",
      "version": "1.4.2",
      "description": "Powerful data structures for data analysis, time series, and statistics",
      "hashes": [
        {
          "alg": "MD5",
          "content": "d03e1ba43fac967c83ca8223248cc32f"
        },
        {
          "alg": "SHA-256",
          "content": "09d8be7dd9e1c4c98224c4dfe8abd60d145d934e9fc1f5f411266308ae683e6a"
        }
      ],
      "licenses": [
        {
          "license": {
            "name": "BSD-3-Clause"
          }
        }
      ],
      "purl": "pkg:pypi/pandas@1.4.2",
      "modified": false
    },
    {
      "type": "library",
      "name": "pycocotools",
      "version": "2.0.4",
      "description": "Official APIs for the MS-COCO dataset",
      "hashes": [
        {
          "alg": "MD5",
          "content": "53cd3b04e90d3f841ff468a21a672f19"
        },
        {
          "alg": "SHA-256",
          "content": "2ab586aa389b9657b6d73c2b9a827a3681f8d00f36490c2e8ab05902e3fd9e93"
        }
      ],
      "licenses": [
        {
          "license": {
            "name": "FreeBSD"
          }
        }
      ],
      "purl": "pkg:pypi/pycocotools@2.0.4",
      "modified": false
    },
    {
      "type": "library",
      "publisher": "Michael Waskom",
      "name": "seaborn",
      "version": "0.11.2",
      "description": "seaborn: statistical data visualization",
      "hashes": [
        {
          "alg": "MD5",
          "content": "810070dffd463ce0a251c3779a3883a9"
        },
        {
          "alg": "SHA-256",
          "content": "85a6baa9b55f81a0623abddc4a26b334653ff4c6b18c418361de19dbba0ef283"
        }
      ],
      "licenses": [
        {
          "license": {
            "name": "BSD (3-clause)"
          }
        }
      ],
      "purl": "pkg:pypi/seaborn@0.11.2",
      "modified": false
    },
    {
      "type": "library",
      "name": "mxnet",
      "version": "1.9.1",
      "description": "Apache MXNet is an ultra-scalable deep learning framework. This version uses openblas and MKLDNN.",
      "hashes": [
        {
          "alg": "MD5",
          "content": "361ba1b69adc578e3362fca04b162d2a"
        },
        {
          "alg": "SHA-256",
          "content": "65d5dac162c87a14d138d888b54494d515036d9047ae804ff51f770bd02197a6"
        }
      ],
      "licenses": [
        {
          "license": {
            "name": "Apache 2.0"
          }
        }
      ],
      "purl": "pkg:pypi/mxnet@1.9.1",
      "modified": false
    },
    {
      "type": "library",
      "publisher": "Vinay Sajip",
      "name": "logging",
      "version": "0.4.9.6",
      "description": "A logging module for Python",
      "hashes": [
        {
          "alg": "MD5",
          "content": "dc0a7ebc8b8970263911e11e7b7e1ca8"
        },
        {
          "alg": "SHA-256",
          "content": "26f6b50773f085042d301085bd1bf5d9f3735704db9f37c1ce6d8b85c38f2417"
        }
      ],
      "licenses": [
        {
          "license": {
            "name": "Copyright (C) 2001-2005 by Vinay Sajip. All Rights Reserved. See LICENSE for license."
          }
        }
      ],
      "purl": "pkg:pypi/logging@0.4.9.6",
      "modified": false
    },
    {
      "type": "library",
      "publisher": "The pip developers",
      "name": "pip",
      "version": "22.1",
      "description": "The PyPA recommended tool for installing Python packages.",
      "hashes": [
        {
          "alg": "MD5",
          "content": "e9c899696279f1a40b72537ae17b38c5"
        },
        {
          "alg": "SHA-256",
          "content": "802e797fb741be1c2d475533d4ea951957e4940091422bd4a24848a7ac95609d"
        }
      ],
      "licenses": [
        {
          "license": {
            "name": "MIT"
          }
        }
      ],
      "purl": "pkg:pypi/pip@22.1",
      "modified": false
    },
    {
      "type": "library",
      "name": "hashlib",
      "version": "20081119",
      "description": "Secure hash and message digest algorithm library",
      "hashes": [
        {
          "alg": "MD5",
          "content": "46e59db6d5cac34b3344ef0c30d0897f"
        },
        {
          "alg": "SHA-256",
          "content": "419de2fd10ae71ed9c6adcb55903f116abd1d8acc8c814dfd5f839b4d5013e38"
        }
      ],
      "purl": "pkg:pypi/hashlib@20081119",
      "modified": false
    },
    {
      "type": "library",
      "name": "scipy",
      "version": "1.8.1",
      "description": "SciPy: Scientific Library for Python",
      "hashes": [
        {
          "alg": "MD5",
          "content": "12952c28f9b1b045598f04628d97c64b"
        },
        {
          "alg": "SHA-256",
          "content": "9dd4012ac599a1e7eb63c114d1eee1bcfc6dc75a29b589ff0ad0bb3d9412034f"
        }
      ],
      "licenses": [
        {
          "license": {
            "name": "BSD"
          }
        }
      ],
      "purl": "pkg:pypi/scipy@1.8.1",
      "modified": false
    }
  ],
  "metadata": {
    "tools": [
      {
        "vendor": "Fortress Information Security",
        "name": "Github Extractor",
        "version": "1.15.1"
      }
    ],
    "authors": [
      {
        "name": "Fortress Information Security",
        "email": "sales@fortressinfosec.com",
        "phone": "1-407-573-6800"
      }
    ],
    "timestamp": "2022-06-01T21:00:00Z",
    "component": {
      "type": "application",
      "name": "MVision",
      "version": "",
      "group": "Ewenwan",
      "externalReferences": [
        {
          "url": "https://github.com/Ewenwan/MVision.git",
          "type": "distribution"
        },
        {
          "type": "website",
          "url": "null",
          "comment": "As set via `homepage` in Github API"
        }
      ]
    }
  }
}
