{
  "bomFormat": "CycloneDX",
  "specVersion": "1.3",
  "version": 1,
  "metadata": {
    "tools": [
      {
        "vendor": "CycloneDX",
        "name": "cyclonedx-gomod",
        "version": "v0.0.0-unset",
        "hashes": [
          {
            "alg": "MD5",
            "content": "a35776fc9417e8071d3f1dcfa2f1dd19"
          },
          {
            "alg": "SHA-1",
            "content": "a19a8eed713eff5a2092e5283c201a146f19421d"
          },
          {
            "alg": "SHA-256",
            "content": "17b3b980b9a5d0f48ad52043dee5b31aff3ae6599a36bc94224dc7b6a46759ef"
          },
          {
            "alg": "SHA-512",
            "content": "9d4f06aab20cede94a1aedf11a300ae9de98871235c68c72e421cd6d45495910861b39e743ee0eceb11bbdcd2c9acc3312c19064cfe90177243fb43127fcfa46"
          }
        ]
      },
      {
        "vendor": "AppThreat",
        "name": "cdxgen",
        "version": "3.0.10"
      },
      {
        "vendor": "Fortress Information Security",
        "name": "Github Extractor",
        "version": "1.15.1"
      }
    ],
    "authors": [
      {
        "name": "Fortress Information Security",
        "email": "sales@fortressinfosec.com",
        "phone": "1-407-573-6800"
      }
    ],
    "timestamp": "2022-06-01T21:00:00Z",
    "component": {
      "type": "application",
      "name": "pixel",
      "version": "v0.11.0-beta",
      "group": "faiface",
      "externalReferences": [
        {
          "url": "https://github.com/faiface/pixel.git",
          "type": "distribution"
        },
        {
          "type": "website",
          "url": "null",
          "comment": "As set via `homepage` in Github API"
        }
      ]
    }
  },
  "components": [
    {
      "type": "library",
      "bom-ref": "pkg:golang/github.com/faiface/glhf@v0.0.0-20211013000516-57b20770c369",
      "name": "github.com/faiface/glhf",
      "version": "v0.0.0-20211013000516-57b20770c369",
      "scope": "required",
      "hashes": [
        {
          "alg": "SHA-256",
          "content": "82fe0180fe746ad71c74aff5b591c3c8feab3308a2bad4761cfade47f3b22f32"
        }
      ],
      "purl": "pkg:golang/github.com/faiface/glhf@v0.0.0-20211013000516-57b20770c369",
      "externalReferences": [
        {
          "url": "https://github.com/faiface/glhf",
          "type": "vcs"
        }
      ]
    },
    {
      "type": "library",
      "bom-ref": "pkg:golang/github.com/faiface/mainthread@v0.0.0-20171120011319-8b78f0a41ae3",
      "name": "github.com/faiface/mainthread",
      "version": "v0.0.0-20171120011319-8b78f0a41ae3",
      "scope": "required",
      "hashes": [
        {
          "alg": "SHA-256",
          "content": "6da55d30a9404841eb8f5f62aa3011acf6da462b03ec4b99115263e9930b9754"
        }
      ],
      "purl": "pkg:golang/github.com/faiface/mainthread@v0.0.0-20171120011319-8b78f0a41ae3",
      "externalReferences": [
        {
          "url": "https://github.com/faiface/mainthread",
          "type": "vcs"
        }
      ]
    },
    {
      "type": "library",
      "bom-ref": "pkg:golang/github.com/go-gl/gl@v0.0.0-20210905235341-f7a045908259",
      "name": "github.com/go-gl/gl",
      "version": "v0.0.0-20210905235341-f7a045908259",
      "scope": "required",
      "hashes": [
        {
          "alg": "SHA-256",
          "content": "f2aefec65d83daa1cf2d3208d6de2f48c34fd952b00dc9fe02f7f6597bdd0750"
        }
      ],
      "purl": "pkg:golang/github.com/go-gl/gl@v0.0.0-20210905235341-f7a045908259",
      "externalReferences": [
        {
          "url": "https://github.com/go-gl/gl",
          "type": "vcs"
        }
      ]
    },
    {
      "type": "library",
      "bom-ref": "pkg:golang/github.com/go-gl/glfw/v3.3/glfw@v0.0.0-20210727001814-0db043d8d5be",
      "name": "github.com/go-gl/glfw/v3.3/glfw",
      "version": "v0.0.0-20210727001814-0db043d8d5be",
      "scope": "required",
      "hashes": [
        {
          "alg": "SHA-256",
          "content": "bc421522e040a440504c426dd7d19f86853ecc5495fac3536bd13d15d9d161f9"
        }
      ],
      "purl": "pkg:golang/github.com/go-gl/glfw/v3.3/glfw@v0.0.0-20210727001814-0db043d8d5be",
      "externalReferences": [
        {
          "url": "https://github.com/go-gl/glfw/v3.3/glfw",
          "type": "vcs"
        }
      ]
    },
    {
      "type": "library",
      "bom-ref": "pkg:golang/github.com/go-gl/mathgl@v1.0.0",
      "name": "github.com/go-gl/mathgl",
      "version": "v1.0.0",
      "scope": "required",
      "hashes": [
        {
          "alg": "SHA-256",
          "content": "b7d0f39d62655f1c6379e28b21da2f08e549424fc6cc310bee1fe1f91a3607af"
        }
      ],
      "purl": "pkg:golang/github.com/go-gl/mathgl@v1.0.0",
      "externalReferences": [
        {
          "url": "https://github.com/go-gl/mathgl",
          "type": "vcs"
        }
      ]
    },
    {
      "type": "library",
      "bom-ref": "pkg:golang/github.com/pkg/errors@v0.9.1",
      "name": "github.com/pkg/errors",
      "version": "v0.9.1",
      "scope": "required",
      "hashes": [
        {
          "alg": "SHA-256",
          "content": "14404bc75cd2db5e28c298f2eeab017a2c5b51192e850030acae54c0b193c2de"
        }
      ],
      "purl": "pkg:golang/github.com/pkg/errors@v0.9.1",
      "externalReferences": [
        {
          "url": "https://github.com/pkg/errors",
          "type": "vcs"
        }
      ]
    },
    {
      "type": "library",
      "bom-ref": "pkg:golang/golang.org/x/image@v0.0.0-20210628002857-a66eb6448b8d",
      "name": "golang.org/x/image",
      "version": "v0.0.0-20210628002857-a66eb6448b8d",
      "scope": "required",
      "hashes": [
        {
          "alg": "SHA-256",
          "content": "44d3c07e2da71d8ec2dacac057c038f63a6c62bd000de742935c2ae9f4cc4efb"
        }
      ],
      "purl": "pkg:golang/golang.org/x/image@v0.0.0-20210628002857-a66eb6448b8d"
    },
    {
      "type": "library",
      "bom-ref": "pkg:golang/github.com/faiface/pixel",
      "group": "github.com/faiface",
      "name": "pixel",
      "version": "",
      "description": "",
      "scope": "required",
      "purl": "pkg:golang/github.com/faiface/pixel"
    }
  ],
  "dependencies": [
    {
      "ref": "pkg:golang/github.com/faiface/glhf@v0.0.0-20211013000516-57b20770c369",
      "dependsOn": [
        "pkg:golang/github.com/faiface/mainthread@v0.0.0-20171120011319-8b78f0a41ae3",
        "pkg:golang/github.com/go-gl/gl@v0.0.0-20210905235341-f7a045908259",
        "pkg:golang/github.com/go-gl/mathgl@v1.0.0",
        "pkg:golang/github.com/pkg/errors@v0.9.1"
      ]
    },
    {
      "ref": "pkg:golang/github.com/faiface/mainthread@v0.0.0-20171120011319-8b78f0a41ae3"
    },
    {
      "ref": "pkg:golang/github.com/go-gl/gl@v0.0.0-20210905235341-f7a045908259"
    },
    {
      "ref": "pkg:golang/github.com/go-gl/glfw/v3.3/glfw@v0.0.0-20210727001814-0db043d8d5be"
    },
    {
      "ref": "pkg:golang/github.com/go-gl/mathgl@v1.0.0",
      "dependsOn": [
        "pkg:golang/golang.org/x/image@v0.0.0-20210628002857-a66eb6448b8d"
      ]
    },
    {
      "ref": "pkg:golang/github.com/pkg/errors@v0.9.1"
    },
    {
      "ref": "pkg:golang/golang.org/x/image@v0.0.0-20210628002857-a66eb6448b8d"
    },
    {
      "ref": "pkg:golang/github.com/faiface/pixel@v0.0.0-20211013211734-8acf4e51956d",
      "dependsOn": [
        "pkg:golang/github.com/faiface/glhf@v0.0.0-20211013000516-57b20770c369",
        "pkg:golang/github.com/faiface/mainthread@v0.0.0-20171120011319-8b78f0a41ae3",
        "pkg:golang/github.com/go-gl/gl@v0.0.0-20210905235341-f7a045908259",
        "pkg:golang/github.com/go-gl/glfw/v3.3/glfw@v0.0.0-20210727001814-0db043d8d5be",
        "pkg:golang/github.com/go-gl/mathgl@v1.0.0",
        "pkg:golang/github.com/pkg/errors@v0.9.1",
        "pkg:golang/golang.org/x/image@v0.0.0-20210628002857-a66eb6448b8d"
      ]
    }
  ]
}
