{
  "bomFormat": "CycloneDX",
  "specVersion": "1.3",
  "version": 1,
  "components": [
    {
      "type": "library",
      "publisher": "Thomas Waldmann",
      "name": "argparse",
      "version": "1.4.0",
      "description": "Python command-line parsing library",
      "hashes": [
        {
          "alg": "MD5",
          "content": "c37216a954c8669054e2b2c54853dd49"
        },
        {
          "alg": "SHA-256",
          "content": "c31647edb69fd3d465a847ea3157d37bed1f95f19760b11a47aa91c04b666314"
        }
      ],
      "licenses": [
        {
          "license": {
            "name": "Python Software Foundation License"
          }
        }
      ],
      "purl": "pkg:pypi/argparse@1.4.0",
      "modified": false
    },
    {
      "type": "library",
      "publisher": "Kim Davies",
      "name": "idna",
      "version": "3.3",
      "description": "Internationalized Domain Names in Applications (IDNA)",
      "hashes": [
        {
          "alg": "MD5",
          "content": "461e73a409996cb35e00116e5301bac6"
        },
        {
          "alg": "SHA-256",
          "content": "84d9dd047ffa80596e0f246e2eab0b391788b0503584e8945f2368256d2735ff"
        }
      ],
      "licenses": [
        {
          "license": {
            "name": "BSD-3-Clause"
          }
        }
      ],
      "purl": "pkg:pypi/idna@3.3",
      "modified": false
    },
    {
      "type": "library",
      "name": "dns",
      "version": "0.0.1",
      "purl": "pkg:pypi/dns@0.0.1",
      "modified": false
    },
    {
      "type": "library",
      "publisher": "Konstantin Lepa",
      "name": "termcolor",
      "version": "1.1.0",
      "description": "ANSII Color formatting for output in terminal.",
      "hashes": [
        {
          "alg": "MD5",
          "content": "043e89644f8909d462fbbfa511c768df"
        },
        {
          "alg": "SHA-256",
          "content": "1d6d69ce66211143803fbc56652b41d73b4a400a2891d7bf7a1cdf4c02de613b"
        }
      ],
      "licenses": [
        {
          "license": {
            "name": "MIT"
          }
        }
      ],
      "purl": "pkg:pypi/termcolor@1.1.0",
      "modified": false
    },
    {
      "type": "library",
      "publisher": "Philipp Hagemeister",
      "name": "ipaddress",
      "version": "1.0.23",
      "description": "IPv4/IPv6 manipulation library",
      "hashes": [
        {
          "alg": "MD5",
          "content": "1d1615d1bb0dd32b4f3e1cf6a24dca3a"
        },
        {
          "alg": "SHA-256",
          "content": "6e0f4a39e66cb5bb9a137b00276a2eff74f93b71dcbdad6f10ff7df9d3557fcc"
        }
      ],
      "licenses": [
        {
          "license": {
            "name": "Python Software Foundation License"
          }
        }
      ],
      "purl": "pkg:pypi/ipaddress@1.0.23",
      "modified": false
    },
    {
      "type": "library",
      "publisher": "John Kurkowski",
      "name": "tldextract",
      "version": "3.3.0",
      "description": "Accurately separates a URL's subdomain, domain, and public suffix, using the Public Suffix List (PSL). By default, this includes the public ICANN TLDs and their exceptions. You can optionally support the Public Suffix List's private domains as well.",
      "hashes": [
        {
          "alg": "MD5",
          "content": "d28ad18e37489f62920c0c82f9fd5c50"
        },
        {
          "alg": "SHA-256",
          "content": "5d88321b1b528ebb8f678c72ab023f37caf6381f6af9576b4e60fd266cff178c"
        }
      ],
      "licenses": [
        {
          "license": {
            "name": "BSD License"
          }
        }
      ],
      "purl": "pkg:pypi/tldextract@3.3.0",
      "modified": false
    },
    {
      "type": "library",
      "name": "io",
      "version": "0.0.1",
      "purl": "pkg:pypi/io@0.0.1",
      "modified": false
    }
  ],
  "metadata": {
    "tools": [
      {
        "vendor": "Fortress Information Security",
        "name": "Github Extractor",
        "version": "1.15.1"
      }
    ],
    "authors": [
      {
        "name": "Fortress Information Security",
        "email": "sales@fortressinfosec.com",
        "phone": "1-407-573-6800"
      }
    ],
    "timestamp": "2022-06-01T21:00:00Z",
    "component": {
      "type": "application",
      "name": "dnsmasq-china-list",
      "version": "",
      "group": "felixonmars",
      "externalReferences": [
        {
          "url": "https://github.com/felixonmars/dnsmasq-china-list.git",
          "type": "distribution"
        },
        {
          "type": "website",
          "url": "null",
          "comment": "As set via `homepage` in Github API"
        }
      ]
    }
  }
}
