{
  "bomFormat": "CycloneDX",
  "specVersion": "1.3",
  "serialNumber": "urn:uuid:7cc2f419-673b-4f0f-82a2-27e3b2750557",
  "version": 1,
  "metadata": {
    "timestamp": "2022-06-02T03:47:31Z",
    "tools": [
      {
        "vendor": "AppThreat",
        "name": "cdxgen",
        "version": "3.0.10"
      },
      {
        "vendor": "Fortress Information Security",
        "name": "Github Extractor",
        "version": "1.15.1"
      }
    ],
    "authors": [
      {
        "name": "Team AppThreat",
        "email": "cloud@appthreat.com"
      },
      {
        "name": "Fortress Information Security",
        "email": "sales@fortressinfosec.com",
        "phone": "1-407-573-6800"
      }
    ],
    "component": {
      "type": "application",
      "name": "fixer",
      "version": "report",
      "group": "fixerAPI",
      "externalReferences": [
        {
          "url": "https://github.com/fixerAPI/fixer.git",
          "type": "distribution"
        },
        {
          "type": "website",
          "url": "http://fixer.io",
          "comment": "As set via `homepage` in Github API"
        }
      ]
    }
  },
  "components": [
    {
      "type": "library",
      "bom-ref": "pkg:rubygems/ast@2.3.0",
      "group": "",
      "name": "ast",
      "version": "2.3.0",
      "description": "",
      "purl": "pkg:rubygems/ast@2.3.0"
    },
    {
      "type": "library",
      "bom-ref": "pkg:rubygems/et-orbi@1.0.8",
      "group": "",
      "name": "et-orbi",
      "version": "1.0.8",
      "description": "",
      "purl": "pkg:rubygems/et-orbi@1.0.8"
    },
    {
      "type": "library",
      "bom-ref": "pkg:rubygems/fixer@1.0.0",
      "group": "",
      "name": "fixer",
      "version": "1.0.0",
      "description": "",
      "purl": "pkg:rubygems/fixer@1.0.0"
    },
    {
      "type": "library",
      "bom-ref": "pkg:rubygems/kgio@2.11.1",
      "group": "",
      "name": "kgio",
      "version": "2.11.1",
      "description": "",
      "purl": "pkg:rubygems/kgio@2.11.1"
    },
    {
      "type": "library",
      "bom-ref": "pkg:rubygems/minitest@5.11.1",
      "group": "",
      "name": "minitest",
      "version": "5.11.1",
      "description": "",
      "purl": "pkg:rubygems/minitest@5.11.1"
    },
    {
      "type": "library",
      "bom-ref": "pkg:rubygems/minitest-around@0.4.0",
      "group": "",
      "name": "minitest-around",
      "version": "0.4.0",
      "description": "",
      "purl": "pkg:rubygems/minitest-around@0.4.0"
    },
    {
      "type": "library",
      "bom-ref": "pkg:rubygems/mustermann@1.0.1",
      "group": "",
      "name": "mustermann",
      "version": "1.0.1",
      "description": "",
      "purl": "pkg:rubygems/mustermann@1.0.1"
    },
    {
      "type": "library",
      "bom-ref": "pkg:rubygems/oj@3.3.10",
      "group": "",
      "name": "oj",
      "version": "3.3.10",
      "description": "",
      "purl": "pkg:rubygems/oj@3.3.10"
    },
    {
      "type": "library",
      "bom-ref": "pkg:rubygems/parallel@1.12.1",
      "group": "",
      "name": "parallel",
      "version": "1.12.1",
      "description": "",
      "purl": "pkg:rubygems/parallel@1.12.1"
    },
    {
      "type": "library",
      "bom-ref": "pkg:rubygems/parser@2.4.0.2",
      "group": "",
      "name": "parser",
      "version": "2.4.0.2",
      "description": "",
      "purl": "pkg:rubygems/parser@2.4.0.2"
    },
    {
      "type": "library",
      "bom-ref": "pkg:rubygems/pg@0.21.0",
      "group": "",
      "name": "pg",
      "version": "0.21.0",
      "description": "",
      "purl": "pkg:rubygems/pg@0.21.0"
    },
    {
      "type": "library",
      "bom-ref": "pkg:rubygems/powerpack@0.1.1",
      "group": "",
      "name": "powerpack",
      "version": "0.1.1",
      "description": "",
      "purl": "pkg:rubygems/powerpack@0.1.1"
    },
    {
      "type": "library",
      "bom-ref": "pkg:rubygems/rack@2.0.3",
      "group": "",
      "name": "rack",
      "version": "2.0.3",
      "description": "",
      "purl": "pkg:rubygems/rack@2.0.3"
    },
    {
      "type": "library",
      "bom-ref": "pkg:rubygems/rack-cors@1.0.2",
      "group": "",
      "name": "rack-cors",
      "version": "1.0.2",
      "description": "",
      "purl": "pkg:rubygems/rack-cors@1.0.2"
    },
    {
      "type": "library",
      "bom-ref": "pkg:rubygems/rack-protection@2.0.0",
      "group": "",
      "name": "rack-protection",
      "version": "2.0.0",
      "description": "",
      "purl": "pkg:rubygems/rack-protection@2.0.0"
    },
    {
      "type": "library",
      "bom-ref": "pkg:rubygems/rack-test@0.8.2",
      "group": "",
      "name": "rack-test",
      "version": "0.8.2",
      "description": "",
      "purl": "pkg:rubygems/rack-test@0.8.2"
    },
    {
      "type": "library",
      "bom-ref": "pkg:rubygems/rainbow@3.0.0",
      "group": "",
      "name": "rainbow",
      "version": "3.0.0",
      "description": "",
      "purl": "pkg:rubygems/rainbow@3.0.0"
    },
    {
      "type": "library",
      "bom-ref": "pkg:rubygems/raindrops@0.19.0",
      "group": "",
      "name": "raindrops",
      "version": "0.19.0",
      "description": "",
      "purl": "pkg:rubygems/raindrops@0.19.0"
    },
    {
      "type": "library",
      "bom-ref": "pkg:rubygems/rake@12.3.0",
      "group": "",
      "name": "rake",
      "version": "12.3.0",
      "description": "",
      "purl": "pkg:rubygems/rake@12.3.0"
    },
    {
      "type": "library",
      "bom-ref": "pkg:rubygems/rubocop@0.52.1",
      "group": "",
      "name": "rubocop",
      "version": "0.52.1",
      "description": "",
      "purl": "pkg:rubygems/rubocop@0.52.1"
    },
    {
      "type": "library",
      "bom-ref": "pkg:rubygems/ruby-progressbar@1.9.0",
      "group": "",
      "name": "ruby-progressbar",
      "version": "1.9.0",
      "description": "",
      "purl": "pkg:rubygems/ruby-progressbar@1.9.0"
    },
    {
      "type": "library",
      "bom-ref": "pkg:rubygems/rufus-scheduler@3.4.2",
      "group": "",
      "name": "rufus-scheduler",
      "version": "3.4.2",
      "description": "",
      "purl": "pkg:rubygems/rufus-scheduler@3.4.2"
    },
    {
      "type": "library",
      "bom-ref": "pkg:rubygems/sequel@5.4.0",
      "group": "",
      "name": "sequel",
      "version": "5.4.0",
      "description": "",
      "purl": "pkg:rubygems/sequel@5.4.0"
    },
    {
      "type": "library",
      "bom-ref": "pkg:rubygems/sequel_pg@1.8.1",
      "group": "",
      "name": "sequel_pg",
      "version": "1.8.1",
      "description": "",
      "purl": "pkg:rubygems/sequel_pg@1.8.1"
    },
    {
      "type": "library",
      "bom-ref": "pkg:rubygems/sinatra@2.0.0",
      "group": "",
      "name": "sinatra",
      "version": "2.0.0",
      "description": "",
      "purl": "pkg:rubygems/sinatra@2.0.0"
    },
    {
      "type": "library",
      "bom-ref": "pkg:rubygems/thread_safe@0.3.6",
      "group": "",
      "name": "thread_safe",
      "version": "0.3.6",
      "description": "",
      "purl": "pkg:rubygems/thread_safe@0.3.6"
    },
    {
      "type": "library",
      "bom-ref": "pkg:rubygems/tilt@2.0.8",
      "group": "",
      "name": "tilt",
      "version": "2.0.8",
      "description": "",
      "purl": "pkg:rubygems/tilt@2.0.8"
    },
    {
      "type": "library",
      "bom-ref": "pkg:rubygems/tzinfo@1.2.4",
      "group": "",
      "name": "tzinfo",
      "version": "1.2.4",
      "description": "",
      "purl": "pkg:rubygems/tzinfo@1.2.4"
    },
    {
      "type": "library",
      "bom-ref": "pkg:rubygems/unicode-display_width@1.3.0",
      "group": "",
      "name": "unicode-display_width",
      "version": "1.3.0",
      "description": "",
      "purl": "pkg:rubygems/unicode-display_width@1.3.0"
    },
    {
      "type": "library",
      "bom-ref": "pkg:rubygems/unicorn@5.4.0",
      "group": "",
      "name": "unicorn",
      "version": "5.4.0",
      "description": "",
      "purl": "pkg:rubygems/unicorn@5.4.0"
    },
    {
      "type": "library",
      "bom-ref": "pkg:rubygems/remote:@https://rubygems.org/",
      "group": "",
      "name": "remote:",
      "version": "https://rubygems.org/",
      "description": "",
      "purl": "pkg:rubygems/remote:@https://rubygems.org/"
    },
    {
      "type": "library",
      "bom-ref": "pkg:rubygems/addressable@2.5.2",
      "group": "",
      "name": "addressable",
      "version": "2.5.2",
      "description": "",
      "purl": "pkg:rubygems/addressable@2.5.2"
    },
    {
      "type": "library",
      "bom-ref": "pkg:rubygems/crack@0.4.3",
      "group": "",
      "name": "crack",
      "version": "0.4.3",
      "description": "",
      "purl": "pkg:rubygems/crack@0.4.3"
    },
    {
      "type": "library",
      "bom-ref": "pkg:rubygems/hashdiff@0.3.7",
      "group": "",
      "name": "hashdiff",
      "version": "0.3.7",
      "description": "",
      "purl": "pkg:rubygems/hashdiff@0.3.7"
    },
    {
      "type": "library",
      "bom-ref": "pkg:rubygems/minitest@5.10.3",
      "group": "",
      "name": "minitest",
      "version": "5.10.3",
      "description": "",
      "purl": "pkg:rubygems/minitest@5.10.3"
    },
    {
      "type": "library",
      "bom-ref": "pkg:rubygems/public_suffix@3.0.1",
      "group": "",
      "name": "public_suffix",
      "version": "3.0.1",
      "description": "",
      "purl": "pkg:rubygems/public_suffix@3.0.1"
    },
    {
      "type": "library",
      "bom-ref": "pkg:rubygems/safe_yaml@1.0.4",
      "group": "",
      "name": "safe_yaml",
      "version": "1.0.4",
      "description": "",
      "purl": "pkg:rubygems/safe_yaml@1.0.4"
    },
    {
      "type": "library",
      "bom-ref": "pkg:rubygems/vcr@4.0.0",
      "group": "",
      "name": "vcr",
      "version": "4.0.0",
      "description": "",
      "purl": "pkg:rubygems/vcr@4.0.0"
    },
    {
      "type": "library",
      "bom-ref": "pkg:rubygems/webmock@3.1.1",
      "group": "",
      "name": "webmock",
      "version": "3.1.1",
      "description": "",
      "purl": "pkg:rubygems/webmock@3.1.1"
    }
  ],
  "externalReferences": [
    {
      "url": "/project/src",
      "type": "other",
      "comment": "Base path"
    },
    {
      "url": "/project/src/app/Gemfile.lock, /project/src/gem/Gemfile.lock",
      "type": "other",
      "comment": "Package file"
    }
  ]
}
