{
  "bomFormat": "CycloneDX",
  "specVersion": "1.3",
  "version": 1,
  "metadata": {
    "tools": [
      {
        "vendor": "CycloneDX",
        "name": "cyclonedx-gomod",
        "version": "v0.0.0-unset",
        "hashes": [
          {
            "alg": "MD5",
            "content": "a35776fc9417e8071d3f1dcfa2f1dd19"
          },
          {
            "alg": "SHA-1",
            "content": "a19a8eed713eff5a2092e5283c201a146f19421d"
          },
          {
            "alg": "SHA-256",
            "content": "17b3b980b9a5d0f48ad52043dee5b31aff3ae6599a36bc94224dc7b6a46759ef"
          },
          {
            "alg": "SHA-512",
            "content": "9d4f06aab20cede94a1aedf11a300ae9de98871235c68c72e421cd6d45495910861b39e743ee0eceb11bbdcd2c9acc3312c19064cfe90177243fb43127fcfa46"
          }
        ]
      },
      {
        "vendor": "AppThreat",
        "name": "cdxgen",
        "version": "3.0.10"
      },
      {
        "vendor": "Fortress Information Security",
        "name": "Github Extractor",
        "version": "1.15.1"
      }
    ],
    "authors": [
      {
        "name": "Fortress Information Security",
        "email": "sales@fortressinfosec.com",
        "phone": "1-407-573-6800"
      }
    ],
    "timestamp": "2022-06-01T21:00:00Z",
    "component": {
      "type": "application",
      "name": "rosedb",
      "version": "v1.0.0",
      "group": "flower-corp",
      "externalReferences": [
        {
          "url": "https://github.com/flower-corp/rosedb.git",
          "type": "distribution"
        },
        {
          "type": "website",
          "url": "https://space.bilibili.com/26194591",
          "comment": "As set via `homepage` in Github API"
        }
      ]
    }
  },
  "components": [
    {
      "type": "library",
      "bom-ref": "pkg:golang/github.com/plar/go-adaptive-radix-tree@v1.0.4",
      "name": "github.com/plar/go-adaptive-radix-tree",
      "version": "v1.0.4",
      "scope": "required",
      "hashes": [
        {
          "alg": "SHA-256",
          "content": "51c77c47a447d84ed15bc66d0caaec5b2383de9686daaa893b4236d1643ca164"
        }
      ],
      "purl": "pkg:golang/github.com/plar/go-adaptive-radix-tree@v1.0.4",
      "externalReferences": [
        {
          "url": "https://github.com/plar/go-adaptive-radix-tree",
          "type": "vcs"
        }
      ]
    },
    {
      "type": "library",
      "bom-ref": "pkg:golang/github.com/spaolacci/murmur3@v1.1.0",
      "name": "github.com/spaolacci/murmur3",
      "version": "v1.1.0",
      "scope": "required",
      "hashes": [
        {
          "alg": "SHA-256",
          "content": "edcd60f384b804f46b7cbe57adda7a7ce276d3ab14f72dbddc30c76a8cb46cb2"
        }
      ],
      "purl": "pkg:golang/github.com/spaolacci/murmur3@v1.1.0",
      "externalReferences": [
        {
          "url": "https://github.com/spaolacci/murmur3",
          "type": "vcs"
        }
      ]
    },
    {
      "type": "library",
      "bom-ref": "pkg:golang/github.com/tidwall/btree@v1.1.0",
      "name": "github.com/tidwall/btree",
      "version": "v1.1.0",
      "scope": "required",
      "hashes": [
        {
          "alg": "SHA-256",
          "content": "e4ffbd594f2e8b9ba199c8374a83f24f0a08d265726759e9b3b610cd36459183"
        }
      ],
      "purl": "pkg:golang/github.com/tidwall/btree@v1.1.0",
      "externalReferences": [
        {
          "url": "https://github.com/tidwall/btree",
          "type": "vcs"
        }
      ]
    },
    {
      "type": "library",
      "bom-ref": "pkg:golang/github.com/tidwall/match@v1.1.1",
      "name": "github.com/tidwall/match",
      "version": "v1.1.1",
      "scope": "required",
      "hashes": [
        {
          "alg": "SHA-256",
          "content": "f87a3bd7926994edfa41883037d3c660d86066fa1449cf57d9cf342954e2f860"
        }
      ],
      "purl": "pkg:golang/github.com/tidwall/match@v1.1.1",
      "externalReferences": [
        {
          "url": "https://github.com/tidwall/match",
          "type": "vcs"
        }
      ]
    },
    {
      "type": "library",
      "bom-ref": "pkg:golang/github.com/tidwall/redcon@v1.4.5",
      "name": "github.com/tidwall/redcon",
      "version": "v1.4.5",
      "scope": "required",
      "hashes": [
        {
          "alg": "SHA-256",
          "content": "287ce6552c329a3bdf8a9bca169b3590ffac9008e3c634157609cef0faeacb14"
        }
      ],
      "purl": "pkg:golang/github.com/tidwall/redcon@v1.4.5",
      "externalReferences": [
        {
          "url": "https://github.com/tidwall/redcon",
          "type": "vcs"
        }
      ]
    },
    {
      "type": "library",
      "bom-ref": "pkg:golang/golang.org/x/sys@v0.0.0-20211210111614-af8b64212486",
      "name": "golang.org/x/sys",
      "version": "v0.0.0-20211210111614-af8b64212486",
      "scope": "required",
      "hashes": [
        {
          "alg": "SHA-256",
          "content": "e61a73e5a46bf96d5ead808be4946149404946987b97d5e436f7a813196b2989"
        }
      ],
      "purl": "pkg:golang/golang.org/x/sys@v0.0.0-20211210111614-af8b64212486"
    },
    {
      "type": "library",
      "bom-ref": "pkg:golang/github.com/flower-corp/rosedb",
      "group": "github.com/flower-corp",
      "name": "rosedb",
      "version": "",
      "description": "",
      "scope": "required",
      "purl": "pkg:golang/github.com/flower-corp/rosedb"
    }
  ],
  "dependencies": [
    {
      "ref": "pkg:golang/github.com/plar/go-adaptive-radix-tree@v1.0.4"
    },
    {
      "ref": "pkg:golang/github.com/spaolacci/murmur3@v1.1.0"
    },
    {
      "ref": "pkg:golang/github.com/tidwall/btree@v1.1.0"
    },
    {
      "ref": "pkg:golang/github.com/tidwall/match@v1.1.1"
    },
    {
      "ref": "pkg:golang/github.com/tidwall/redcon@v1.4.5",
      "dependsOn": [
        "pkg:golang/github.com/tidwall/btree@v1.1.0",
        "pkg:golang/github.com/tidwall/match@v1.1.1"
      ]
    },
    {
      "ref": "pkg:golang/golang.org/x/sys@v0.0.0-20211210111614-af8b64212486"
    },
    {
      "ref": "pkg:golang/github.com/flower-corp/rosedb@v0.0.0-20220514012143-81fa14196ee4",
      "dependsOn": [
        "pkg:golang/github.com/plar/go-adaptive-radix-tree@v1.0.4",
        "pkg:golang/github.com/spaolacci/murmur3@v1.1.0",
        "pkg:golang/github.com/tidwall/redcon@v1.4.5",
        "pkg:golang/golang.org/x/sys@v0.0.0-20211210111614-af8b64212486"
      ]
    }
  ]
}
