{
  "bomFormat": "CycloneDX",
  "specVersion": "1.3",
  "serialNumber": "urn:uuid:0383b3b6-763f-4422-b2f4-b876f00acd0c",
  "version": 1,
  "metadata": {
    "timestamp": "2022-06-06T22:35:33Z",
    "tools": [
      {
        "vendor": "AppThreat",
        "name": "cdxgen",
        "version": "3.0.10"
      },
      {
        "vendor": "Fortress Information Security",
        "name": "Github Extractor",
        "version": "1.15.1"
      }
    ],
    "authors": [
      {
        "name": "Team AppThreat",
        "email": "cloud@appthreat.com"
      },
      {
        "name": "Fortress Information Security",
        "email": "sales@fortressinfosec.com",
        "phone": "1-407-573-6800"
      }
    ],
    "component": {
      "type": "application",
      "name": "flutter-rs",
      "version": "0.3.0",
      "group": "flutter-rs",
      "externalReferences": [
        {
          "url": "https://github.com/flutter-rs/flutter-rs.git",
          "type": "distribution"
        },
        {
          "type": "website",
          "url": "null",
          "comment": "As set via `homepage` in Github API"
        }
      ]
    }
  },
  "components": [
    {
      "type": "library",
      "bom-ref": "pkg:crates/adler32@1.0.4",
      "group": "",
      "name": "adler32",
      "version": "1.0.4",
      "description": "",
      "purl": "pkg:crates/adler32@1.0.4"
    },
    {
      "type": "library",
      "bom-ref": "pkg:crates/aho-corasick@0.7.10",
      "group": "",
      "name": "aho-corasick",
      "version": "0.7.10",
      "description": "",
      "purl": "pkg:crates/aho-corasick@0.7.10"
    },
    {
      "type": "library",
      "bom-ref": "pkg:crates/ansi_term@0.11.0",
      "group": "",
      "name": "ansi_term",
      "version": "0.11.0",
      "description": "",
      "purl": "pkg:crates/ansi_term@0.11.0"
    },
    {
      "type": "library",
      "bom-ref": "pkg:crates/arrayref@0.3.6",
      "group": "",
      "name": "arrayref",
      "version": "0.3.6",
      "description": "",
      "purl": "pkg:crates/arrayref@0.3.6"
    },
    {
      "type": "library",
      "bom-ref": "pkg:crates/arrayvec@0.5.1",
      "group": "",
      "name": "arrayvec",
      "version": "0.5.1",
      "description": "",
      "purl": "pkg:crates/arrayvec@0.5.1"
    },
    {
      "type": "library",
      "bom-ref": "pkg:crates/async-std@1.5.0",
      "group": "",
      "name": "async-std",
      "version": "1.5.0",
      "description": "",
      "purl": "pkg:crates/async-std@1.5.0"
    },
    {
      "type": "library",
      "bom-ref": "pkg:crates/async-task@1.3.1",
      "group": "",
      "name": "async-task",
      "version": "1.3.1",
      "description": "",
      "purl": "pkg:crates/async-task@1.3.1"
    },
    {
      "type": "library",
      "bom-ref": "pkg:crates/atty@0.2.14",
      "group": "",
      "name": "atty",
      "version": "0.2.14",
      "description": "",
      "purl": "pkg:crates/atty@0.2.14"
    },
    {
      "type": "library",
      "bom-ref": "pkg:crates/autocfg@1.0.0",
      "group": "",
      "name": "autocfg",
      "version": "1.0.0",
      "description": "",
      "purl": "pkg:crates/autocfg@1.0.0"
    },
    {
      "type": "library",
      "bom-ref": "pkg:crates/backtrace@0.3.46",
      "group": "",
      "name": "backtrace",
      "version": "0.3.46",
      "description": "",
      "purl": "pkg:crates/backtrace@0.3.46"
    },
    {
      "type": "library",
      "bom-ref": "pkg:crates/backtrace-sys@0.1.37",
      "group": "",
      "name": "backtrace-sys",
      "version": "0.1.37",
      "description": "",
      "purl": "pkg:crates/backtrace-sys@0.1.37"
    },
    {
      "type": "library",
      "bom-ref": "pkg:crates/base64@0.11.0",
      "group": "",
      "name": "base64",
      "version": "0.11.0",
      "description": "",
      "purl": "pkg:crates/base64@0.11.0"
    },
    {
      "type": "library",
      "bom-ref": "pkg:crates/bindgen@0.52.0",
      "group": "",
      "name": "bindgen",
      "version": "0.52.0",
      "description": "",
      "purl": "pkg:crates/bindgen@0.52.0"
    },
    {
      "type": "library",
      "bom-ref": "pkg:crates/bitflags@1.2.1",
      "group": "",
      "name": "bitflags",
      "version": "1.2.1",
      "description": "",
      "purl": "pkg:crates/bitflags@1.2.1"
    },
    {
      "type": "library",
      "bom-ref": "pkg:crates/blake2b_simd@0.5.10",
      "group": "",
      "name": "blake2b_simd",
      "version": "0.5.10",
      "description": "",
      "purl": "pkg:crates/blake2b_simd@0.5.10"
    },
    {
      "type": "library",
      "bom-ref": "pkg:crates/block@0.1.6",
      "group": "",
      "name": "block",
      "version": "0.1.6",
      "description": "",
      "purl": "pkg:crates/block@0.1.6"
    },
    {
      "type": "library",
      "bom-ref": "pkg:crates/byteorder@1.3.4",
      "group": "",
      "name": "byteorder",
      "version": "1.3.4",
      "description": "",
      "purl": "pkg:crates/byteorder@1.3.4"
    },
    {
      "type": "library",
      "bom-ref": "pkg:crates/bzip2@0.3.3",
      "group": "",
      "name": "bzip2",
      "version": "0.3.3",
      "description": "",
      "purl": "pkg:crates/bzip2@0.3.3"
    },
    {
      "type": "library",
      "bom-ref": "pkg:crates/bzip2-sys@0.1.8+1.0.8",
      "group": "",
      "name": "bzip2-sys",
      "version": "0.1.8+1.0.8",
      "description": "",
      "purl": "pkg:crates/bzip2-sys@0.1.8+1.0.8"
    },
    {
      "type": "library",
      "bom-ref": "pkg:crates/cc@1.0.52",
      "group": "",
      "name": "cc",
      "version": "1.0.52",
      "description": "",
      "purl": "pkg:crates/cc@1.0.52"
    },
    {
      "type": "library",
      "bom-ref": "pkg:crates/cexpr@0.3.6",
      "group": "",
      "name": "cexpr",
      "version": "0.3.6",
      "description": "",
      "purl": "pkg:crates/cexpr@0.3.6"
    },
    {
      "type": "library",
      "bom-ref": "pkg:crates/cfg-if@0.1.10",
      "group": "",
      "name": "cfg-if",
      "version": "0.1.10",
      "description": "",
      "purl": "pkg:crates/cfg-if@0.1.10"
    },
    {
      "type": "library",
      "bom-ref": "pkg:crates/clang-sys@0.28.1",
      "group": "",
      "name": "clang-sys",
      "version": "0.28.1",
      "description": "",
      "purl": "pkg:crates/clang-sys@0.28.1"
    },
    {
      "type": "library",
      "bom-ref": "pkg:crates/clap@2.33.0",
      "group": "",
      "name": "clap",
      "version": "2.33.0",
      "description": "",
      "purl": "pkg:crates/clap@2.33.0"
    },
    {
      "type": "library",
      "bom-ref": "pkg:crates/cloudabi@0.0.3",
      "group": "",
      "name": "cloudabi",
      "version": "0.0.3",
      "description": "",
      "purl": "pkg:crates/cloudabi@0.0.3"
    },
    {
      "type": "library",
      "bom-ref": "pkg:crates/cmake@0.1.42",
      "group": "",
      "name": "cmake",
      "version": "0.1.42",
      "description": "",
      "purl": "pkg:crates/cmake@0.1.42"
    },
    {
      "type": "library",
      "bom-ref": "pkg:crates/console@0.11.2",
      "group": "",
      "name": "console",
      "version": "0.11.2",
      "description": "",
      "purl": "pkg:crates/console@0.11.2"
    },
    {
      "type": "library",
      "bom-ref": "pkg:crates/constant_time_eq@0.1.5",
      "group": "",
      "name": "constant_time_eq",
      "version": "0.1.5",
      "description": "",
      "purl": "pkg:crates/constant_time_eq@0.1.5"
    },
    {
      "type": "library",
      "bom-ref": "pkg:crates/crc32fast@1.2.0",
      "group": "",
      "name": "crc32fast",
      "version": "1.2.0",
      "description": "",
      "purl": "pkg:crates/crc32fast@1.2.0"
    },
    {
      "type": "library",
      "bom-ref": "pkg:crates/crossbeam-channel@0.4.2",
      "group": "",
      "name": "crossbeam-channel",
      "version": "0.4.2",
      "description": "",
      "purl": "pkg:crates/crossbeam-channel@0.4.2"
    },
    {
      "type": "library",
      "bom-ref": "pkg:crates/crossbeam-deque@0.7.3",
      "group": "",
      "name": "crossbeam-deque",
      "version": "0.7.3",
      "description": "",
      "purl": "pkg:crates/crossbeam-deque@0.7.3"
    },
    {
      "type": "library",
      "bom-ref": "pkg:crates/crossbeam-epoch@0.8.2",
      "group": "",
      "name": "crossbeam-epoch",
      "version": "0.8.2",
      "description": "",
      "purl": "pkg:crates/crossbeam-epoch@0.8.2"
    },
    {
      "type": "library",
      "bom-ref": "pkg:crates/crossbeam-utils@0.7.2",
      "group": "",
      "name": "crossbeam-utils",
      "version": "0.7.2",
      "description": "",
      "purl": "pkg:crates/crossbeam-utils@0.7.2"
    },
    {
      "type": "library",
      "bom-ref": "pkg:crates/curl@0.4.29",
      "group": "",
      "name": "curl",
      "version": "0.4.29",
      "description": "",
      "purl": "pkg:crates/curl@0.4.29"
    },
    {
      "type": "library",
      "bom-ref": "pkg:crates/curl-sys@0.4.31+curl-7.70.0",
      "group": "",
      "name": "curl-sys",
      "version": "0.4.31+curl-7.70.0",
      "description": "",
      "purl": "pkg:crates/curl-sys@0.4.31+curl-7.70.0"
    },
    {
      "type": "library",
      "bom-ref": "pkg:crates/dirs@2.0.2",
      "group": "",
      "name": "dirs",
      "version": "2.0.2",
      "description": "",
      "purl": "pkg:crates/dirs@2.0.2"
    },
    {
      "type": "library",
      "bom-ref": "pkg:crates/dirs-sys@0.3.4",
      "group": "",
      "name": "dirs-sys",
      "version": "0.3.4",
      "description": "",
      "purl": "pkg:crates/dirs-sys@0.3.4"
    },
    {
      "type": "library",
      "bom-ref": "pkg:crates/encode_unicode@0.3.6",
      "group": "",
      "name": "encode_unicode",
      "version": "0.3.6",
      "description": "",
      "purl": "pkg:crates/encode_unicode@0.3.6"
    },
    {
      "type": "library",
      "bom-ref": "pkg:crates/env_logger@0.7.1",
      "group": "",
      "name": "env_logger",
      "version": "0.7.1",
      "description": "",
      "purl": "pkg:crates/env_logger@0.7.1"
    },
    {
      "type": "library",
      "bom-ref": "pkg:crates/failure@0.1.8",
      "group": "",
      "name": "failure",
      "version": "0.1.8",
      "description": "",
      "purl": "pkg:crates/failure@0.1.8"
    },
    {
      "type": "library",
      "bom-ref": "pkg:crates/flate2@1.0.14",
      "group": "",
      "name": "flate2",
      "version": "1.0.14",
      "description": "",
      "purl": "pkg:crates/flate2@1.0.14"
    },
    {
      "type": "library",
      "bom-ref": "pkg:crates/flutter-engine@0.4.0",
      "group": "",
      "name": "flutter-engine",
      "version": "0.4.0",
      "description": "",
      "purl": "pkg:crates/flutter-engine@0.4.0"
    },
    {
      "type": "library",
      "bom-ref": "pkg:crates/flutter-engine-sys@0.4.0",
      "group": "",
      "name": "flutter-engine-sys",
      "version": "0.4.0",
      "description": "",
      "purl": "pkg:crates/flutter-engine-sys@0.4.0"
    },
    {
      "type": "library",
      "bom-ref": "pkg:crates/flutter-glfw@0.4.0",
      "group": "",
      "name": "flutter-glfw",
      "version": "0.4.0",
      "description": "",
      "purl": "pkg:crates/flutter-glfw@0.4.0"
    },
    {
      "type": "library",
      "bom-ref": "pkg:crates/flutter-plugins@0.4.0",
      "group": "",
      "name": "flutter-plugins",
      "version": "0.4.0",
      "description": "",
      "purl": "pkg:crates/flutter-plugins@0.4.0"
    },
    {
      "type": "library",
      "bom-ref": "pkg:crates/flutter-tools@0.1.0",
      "group": "",
      "name": "flutter-tools",
      "version": "0.1.0",
      "description": "",
      "purl": "pkg:crates/flutter-tools@0.1.0"
    },
    {
      "type": "library",
      "bom-ref": "pkg:crates/fuchsia-zircon@0.3.3",
      "group": "",
      "name": "fuchsia-zircon",
      "version": "0.3.3",
      "description": "",
      "purl": "pkg:crates/fuchsia-zircon@0.3.3"
    },
    {
      "type": "library",
      "bom-ref": "pkg:crates/fuchsia-zircon-sys@0.3.3",
      "group": "",
      "name": "fuchsia-zircon-sys",
      "version": "0.3.3",
      "description": "",
      "purl": "pkg:crates/fuchsia-zircon-sys@0.3.3"
    },
    {
      "type": "library",
      "bom-ref": "pkg:crates/futures-core@0.3.4",
      "group": "",
      "name": "futures-core",
      "version": "0.3.4",
      "description": "",
      "purl": "pkg:crates/futures-core@0.3.4"
    },
    {
      "type": "library",
      "bom-ref": "pkg:crates/futures-io@0.3.4",
      "group": "",
      "name": "futures-io",
      "version": "0.3.4",
      "description": "",
      "purl": "pkg:crates/futures-io@0.3.4"
    },
    {
      "type": "library",
      "bom-ref": "pkg:crates/futures-task@0.3.4",
      "group": "",
      "name": "futures-task",
      "version": "0.3.4",
      "description": "",
      "purl": "pkg:crates/futures-task@0.3.4"
    },
    {
      "type": "library",
      "bom-ref": "pkg:crates/futures-timer@2.0.2",
      "group": "",
      "name": "futures-timer",
      "version": "2.0.2",
      "description": "",
      "purl": "pkg:crates/futures-timer@2.0.2"
    },
    {
      "type": "library",
      "bom-ref": "pkg:crates/getrandom@0.1.14",
      "group": "",
      "name": "getrandom",
      "version": "0.1.14",
      "description": "",
      "purl": "pkg:crates/getrandom@0.1.14"
    },
    {
      "type": "library",
      "bom-ref": "pkg:crates/gl@0.14.0",
      "group": "",
      "name": "gl",
      "version": "0.14.0",
      "description": "",
      "purl": "pkg:crates/gl@0.14.0"
    },
    {
      "type": "library",
      "bom-ref": "pkg:crates/gl_generator@0.14.0",
      "group": "",
      "name": "gl_generator",
      "version": "0.14.0",
      "description": "",
      "purl": "pkg:crates/gl_generator@0.14.0"
    },
    {
      "type": "library",
      "bom-ref": "pkg:crates/glfw@0.37.0",
      "group": "",
      "name": "glfw",
      "version": "0.37.0",
      "description": "",
      "purl": "pkg:crates/glfw@0.37.0"
    },
    {
      "type": "library",
      "bom-ref": "pkg:crates/glfw-sys@3.3.2",
      "group": "",
      "name": "glfw-sys",
      "version": "3.3.2",
      "description": "",
      "purl": "pkg:crates/glfw-sys@3.3.2"
    },
    {
      "type": "library",
      "bom-ref": "pkg:crates/glob@0.3.0",
      "group": "",
      "name": "glob",
      "version": "0.3.0",
      "description": "",
      "purl": "pkg:crates/glob@0.3.0"
    },
    {
      "type": "library",
      "bom-ref": "pkg:crates/hermit-abi@0.1.12",
      "group": "",
      "name": "hermit-abi",
      "version": "0.1.12",
      "description": "",
      "purl": "pkg:crates/hermit-abi@0.1.12"
    },
    {
      "type": "library",
      "bom-ref": "pkg:crates/humantime@1.3.0",
      "group": "",
      "name": "humantime",
      "version": "1.3.0",
      "description": "",
      "purl": "pkg:crates/humantime@1.3.0"
    },
    {
      "type": "library",
      "bom-ref": "pkg:crates/image@0.22.5",
      "group": "",
      "name": "image",
      "version": "0.22.5",
      "description": "",
      "purl": "pkg:crates/image@0.22.5"
    },
    {
      "type": "library",
      "bom-ref": "pkg:crates/indexmap@1.3.2",
      "group": "",
      "name": "indexmap",
      "version": "1.3.2",
      "description": "",
      "purl": "pkg:crates/indexmap@1.3.2"
    },
    {
      "type": "library",
      "bom-ref": "pkg:crates/indicatif@0.14.0",
      "group": "",
      "name": "indicatif",
      "version": "0.14.0",
      "description": "",
      "purl": "pkg:crates/indicatif@0.14.0"
    },
    {
      "type": "library",
      "bom-ref": "pkg:crates/iovec@0.1.4",
      "group": "",
      "name": "iovec",
      "version": "0.1.4",
      "description": "",
      "purl": "pkg:crates/iovec@0.1.4"
    },
    {
      "type": "library",
      "bom-ref": "pkg:crates/itoa@0.4.5",
      "group": "",
      "name": "itoa",
      "version": "0.4.5",
      "description": "",
      "purl": "pkg:crates/itoa@0.4.5"
    },
    {
      "type": "library",
      "bom-ref": "pkg:crates/kernel32-sys@0.2.2",
      "group": "",
      "name": "kernel32-sys",
      "version": "0.2.2",
      "description": "",
      "purl": "pkg:crates/kernel32-sys@0.2.2"
    },
    {
      "type": "library",
      "bom-ref": "pkg:crates/khronos_api@3.1.0",
      "group": "",
      "name": "khronos_api",
      "version": "3.1.0",
      "description": "",
      "purl": "pkg:crates/khronos_api@3.1.0"
    },
    {
      "type": "library",
      "bom-ref": "pkg:crates/kv-log-macro@1.0.4",
      "group": "",
      "name": "kv-log-macro",
      "version": "1.0.4",
      "description": "",
      "purl": "pkg:crates/kv-log-macro@1.0.4"
    },
    {
      "type": "library",
      "bom-ref": "pkg:crates/lazy_static@1.4.0",
      "group": "",
      "name": "lazy_static",
      "version": "1.4.0",
      "description": "",
      "purl": "pkg:crates/lazy_static@1.4.0"
    },
    {
      "type": "library",
      "bom-ref": "pkg:crates/lazycell@1.2.1",
      "group": "",
      "name": "lazycell",
      "version": "1.2.1",
      "description": "",
      "purl": "pkg:crates/lazycell@1.2.1"
    },
    {
      "type": "library",
      "bom-ref": "pkg:crates/libc@0.2.69",
      "group": "",
      "name": "libc",
      "version": "0.2.69",
      "description": "",
      "purl": "pkg:crates/libc@0.2.69"
    },
    {
      "type": "library",
      "bom-ref": "pkg:crates/libloading@0.5.2",
      "group": "",
      "name": "libloading",
      "version": "0.5.2",
      "description": "",
      "purl": "pkg:crates/libloading@0.5.2"
    },
    {
      "type": "library",
      "bom-ref": "pkg:crates/libz-sys@1.0.25",
      "group": "",
      "name": "libz-sys",
      "version": "1.0.25",
      "description": "",
      "purl": "pkg:crates/libz-sys@1.0.25"
    },
    {
      "type": "library",
      "bom-ref": "pkg:crates/locale_config@0.3.0",
      "group": "",
      "name": "locale_config",
      "version": "0.3.0",
      "description": "",
      "purl": "pkg:crates/locale_config@0.3.0"
    },
    {
      "type": "library",
      "bom-ref": "pkg:crates/lock_api@0.3.4",
      "group": "",
      "name": "lock_api",
      "version": "0.3.4",
      "description": "",
      "purl": "pkg:crates/lock_api@0.3.4"
    },
    {
      "type": "library",
      "bom-ref": "pkg:crates/log@0.4.8",
      "group": "",
      "name": "log",
      "version": "0.4.8",
      "description": "",
      "purl": "pkg:crates/log@0.4.8"
    },
    {
      "type": "library",
      "bom-ref": "pkg:crates/malloc_buf@0.0.6",
      "group": "",
      "name": "malloc_buf",
      "version": "0.0.6",
      "description": "",
      "purl": "pkg:crates/malloc_buf@0.0.6"
    },
    {
      "type": "library",
      "bom-ref": "pkg:crates/maybe-uninit@2.0.0",
      "group": "",
      "name": "maybe-uninit",
      "version": "2.0.0",
      "description": "",
      "purl": "pkg:crates/maybe-uninit@2.0.0"
    },
    {
      "type": "library",
      "bom-ref": "pkg:crates/memchr@2.3.3",
      "group": "",
      "name": "memchr",
      "version": "2.3.3",
      "description": "",
      "purl": "pkg:crates/memchr@2.3.3"
    },
    {
      "type": "library",
      "bom-ref": "pkg:crates/memoffset@0.5.4",
      "group": "",
      "name": "memoffset",
      "version": "0.5.4",
      "description": "",
      "purl": "pkg:crates/memoffset@0.5.4"
    },
    {
      "type": "library",
      "bom-ref": "pkg:crates/miniz_oxide@0.3.6",
      "group": "",
      "name": "miniz_oxide",
      "version": "0.3.6",
      "description": "",
      "purl": "pkg:crates/miniz_oxide@0.3.6"
    },
    {
      "type": "library",
      "bom-ref": "pkg:crates/mio@0.6.22",
      "group": "",
      "name": "mio",
      "version": "0.6.22",
      "description": "",
      "purl": "pkg:crates/mio@0.6.22"
    },
    {
      "type": "library",
      "bom-ref": "pkg:crates/mio-uds@0.6.8",
      "group": "",
      "name": "mio-uds",
      "version": "0.6.8",
      "description": "",
      "purl": "pkg:crates/mio-uds@0.6.8"
    },
    {
      "type": "library",
      "bom-ref": "pkg:crates/miow@0.2.1",
      "group": "",
      "name": "miow",
      "version": "0.2.1",
      "description": "",
      "purl": "pkg:crates/miow@0.2.1"
    },
    {
      "type": "library",
      "bom-ref": "pkg:crates/net2@0.2.34",
      "group": "",
      "name": "net2",
      "version": "0.2.34",
      "description": "",
      "purl": "pkg:crates/net2@0.2.34"
    },
    {
      "type": "library",
      "bom-ref": "pkg:crates/nom@4.2.3",
      "group": "",
      "name": "nom",
      "version": "4.2.3",
      "description": "",
      "purl": "pkg:crates/nom@4.2.3"
    },
    {
      "type": "library",
      "bom-ref": "pkg:crates/num-integer@0.1.42",
      "group": "",
      "name": "num-integer",
      "version": "0.1.42",
      "description": "",
      "purl": "pkg:crates/num-integer@0.1.42"
    },
    {
      "type": "library",
      "bom-ref": "pkg:crates/num-iter@0.1.40",
      "group": "",
      "name": "num-iter",
      "version": "0.1.40",
      "description": "",
      "purl": "pkg:crates/num-iter@0.1.40"
    },
    {
      "type": "library",
      "bom-ref": "pkg:crates/num-rational@0.2.4",
      "group": "",
      "name": "num-rational",
      "version": "0.2.4",
      "description": "",
      "purl": "pkg:crates/num-rational@0.2.4"
    },
    {
      "type": "library",
      "bom-ref": "pkg:crates/num-traits@0.2.11",
      "group": "",
      "name": "num-traits",
      "version": "0.2.11",
      "description": "",
      "purl": "pkg:crates/num-traits@0.2.11"
    },
    {
      "type": "library",
      "bom-ref": "pkg:crates/num_cpus@1.13.0",
      "group": "",
      "name": "num_cpus",
      "version": "1.13.0",
      "description": "",
      "purl": "pkg:crates/num_cpus@1.13.0"
    },
    {
      "type": "library",
      "bom-ref": "pkg:crates/number_prefix@0.3.0",
      "group": "",
      "name": "number_prefix",
      "version": "0.3.0",
      "description": "",
      "purl": "pkg:crates/number_prefix@0.3.0"
    },
    {
      "type": "library",
      "bom-ref": "pkg:crates/objc@0.2.7",
      "group": "",
      "name": "objc",
      "version": "0.2.7",
      "description": "",
      "purl": "pkg:crates/objc@0.2.7"
    },
    {
      "type": "library",
      "bom-ref": "pkg:crates/objc-foundation@0.1.1",
      "group": "",
      "name": "objc-foundation",
      "version": "0.1.1",
      "description": "",
      "purl": "pkg:crates/objc-foundation@0.1.1"
    },
    {
      "type": "library",
      "bom-ref": "pkg:crates/objc_id@0.1.1",
      "group": "",
      "name": "objc_id",
      "version": "0.1.1",
      "description": "",
      "purl": "pkg:crates/objc_id@0.1.1"
    },
    {
      "type": "library",
      "bom-ref": "pkg:crates/once_cell@1.3.1",
      "group": "",
      "name": "once_cell",
      "version": "1.3.1",
      "description": "",
      "purl": "pkg:crates/once_cell@1.3.1"
    },
    {
      "type": "library",
      "bom-ref": "pkg:crates/openssl-probe@0.1.2",
      "group": "",
      "name": "openssl-probe",
      "version": "0.1.2",
      "description": "",
      "purl": "pkg:crates/openssl-probe@0.1.2"
    },
    {
      "type": "library",
      "bom-ref": "pkg:crates/openssl-sys@0.9.55",
      "group": "",
      "name": "openssl-sys",
      "version": "0.9.55",
      "description": "",
      "purl": "pkg:crates/openssl-sys@0.9.55"
    },
    {
      "type": "library",
      "bom-ref": "pkg:crates/parking_lot@0.10.2",
      "group": "",
      "name": "parking_lot",
      "version": "0.10.2",
      "description": "",
      "purl": "pkg:crates/parking_lot@0.10.2"
    },
    {
      "type": "library",
      "bom-ref": "pkg:crates/parking_lot_core@0.7.2",
      "group": "",
      "name": "parking_lot_core",
      "version": "0.7.2",
      "description": "",
      "purl": "pkg:crates/parking_lot_core@0.7.2"
    },
    {
      "type": "library",
      "bom-ref": "pkg:crates/peeking_take_while@0.1.2",
      "group": "",
      "name": "peeking_take_while",
      "version": "0.1.2",
      "description": "",
      "purl": "pkg:crates/peeking_take_while@0.1.2"
    },
    {
      "type": "library",
      "bom-ref": "pkg:crates/pin-project-lite@0.1.5",
      "group": "",
      "name": "pin-project-lite",
      "version": "0.1.5",
      "description": "",
      "purl": "pkg:crates/pin-project-lite@0.1.5"
    },
    {
      "type": "library",
      "bom-ref": "pkg:crates/pin-utils@0.1.0",
      "group": "",
      "name": "pin-utils",
      "version": "0.1.0",
      "description": "",
      "purl": "pkg:crates/pin-utils@0.1.0"
    },
    {
      "type": "library",
      "bom-ref": "pkg:crates/pkg-config@0.3.17",
      "group": "",
      "name": "pkg-config",
      "version": "0.3.17",
      "description": "",
      "purl": "pkg:crates/pkg-config@0.3.17"
    },
    {
      "type": "library",
      "bom-ref": "pkg:crates/podio@0.1.6",
      "group": "",
      "name": "podio",
      "version": "0.1.6",
      "description": "",
      "purl": "pkg:crates/podio@0.1.6"
    },
    {
      "type": "library",
      "bom-ref": "pkg:crates/priority-queue@0.7.0",
      "group": "",
      "name": "priority-queue",
      "version": "0.7.0",
      "description": "",
      "purl": "pkg:crates/priority-queue@0.7.0"
    },
    {
      "type": "library",
      "bom-ref": "pkg:crates/proc-macro2@1.0.12",
      "group": "",
      "name": "proc-macro2",
      "version": "1.0.12",
      "description": "",
      "purl": "pkg:crates/proc-macro2@1.0.12"
    },
    {
      "type": "library",
      "bom-ref": "pkg:crates/quick-error@1.2.3",
      "group": "",
      "name": "quick-error",
      "version": "1.2.3",
      "description": "",
      "purl": "pkg:crates/quick-error@1.2.3"
    },
    {
      "type": "library",
      "bom-ref": "pkg:crates/quote@1.0.4",
      "group": "",
      "name": "quote",
      "version": "1.0.4",
      "description": "",
      "purl": "pkg:crates/quote@1.0.4"
    },
    {
      "type": "library",
      "bom-ref": "pkg:crates/raw-window-handle@0.3.3",
      "group": "",
      "name": "raw-window-handle",
      "version": "0.3.3",
      "description": "",
      "purl": "pkg:crates/raw-window-handle@0.3.3"
    },
    {
      "type": "library",
      "bom-ref": "pkg:crates/redox_syscall@0.1.56",
      "group": "",
      "name": "redox_syscall",
      "version": "0.1.56",
      "description": "",
      "purl": "pkg:crates/redox_syscall@0.1.56"
    },
    {
      "type": "library",
      "bom-ref": "pkg:crates/redox_users@0.3.4",
      "group": "",
      "name": "redox_users",
      "version": "0.3.4",
      "description": "",
      "purl": "pkg:crates/redox_users@0.3.4"
    },
    {
      "type": "library",
      "bom-ref": "pkg:crates/regex@1.3.7",
      "group": "",
      "name": "regex",
      "version": "1.3.7",
      "description": "",
      "purl": "pkg:crates/regex@1.3.7"
    },
    {
      "type": "library",
      "bom-ref": "pkg:crates/regex-syntax@0.6.17",
      "group": "",
      "name": "regex-syntax",
      "version": "0.6.17",
      "description": "",
      "purl": "pkg:crates/regex-syntax@0.6.17"
    },
    {
      "type": "library",
      "bom-ref": "pkg:crates/rust-argon2@0.7.0",
      "group": "",
      "name": "rust-argon2",
      "version": "0.7.0",
      "description": "",
      "purl": "pkg:crates/rust-argon2@0.7.0"
    },
    {
      "type": "library",
      "bom-ref": "pkg:crates/rustc-demangle@0.1.16",
      "group": "",
      "name": "rustc-demangle",
      "version": "0.1.16",
      "description": "",
      "purl": "pkg:crates/rustc-demangle@0.1.16"
    },
    {
      "type": "library",
      "bom-ref": "pkg:crates/rustc-hash@1.1.0",
      "group": "",
      "name": "rustc-hash",
      "version": "1.1.0",
      "description": "",
      "purl": "pkg:crates/rustc-hash@1.1.0"
    },
    {
      "type": "library",
      "bom-ref": "pkg:crates/ryu@1.0.4",
      "group": "",
      "name": "ryu",
      "version": "1.0.4",
      "description": "",
      "purl": "pkg:crates/ryu@1.0.4"
    },
    {
      "type": "library",
      "bom-ref": "pkg:crates/schannel@0.1.18",
      "group": "",
      "name": "schannel",
      "version": "0.1.18",
      "description": "",
      "purl": "pkg:crates/schannel@0.1.18"
    },
    {
      "type": "library",
      "bom-ref": "pkg:crates/scopeguard@1.1.0",
      "group": "",
      "name": "scopeguard",
      "version": "1.1.0",
      "description": "",
      "purl": "pkg:crates/scopeguard@1.1.0"
    },
    {
      "type": "library",
      "bom-ref": "pkg:crates/semver@0.9.0",
      "group": "",
      "name": "semver",
      "version": "0.9.0",
      "description": "",
      "purl": "pkg:crates/semver@0.9.0"
    },
    {
      "type": "library",
      "bom-ref": "pkg:crates/semver-parser@0.7.0",
      "group": "",
      "name": "semver-parser",
      "version": "0.7.0",
      "description": "",
      "purl": "pkg:crates/semver-parser@0.7.0"
    },
    {
      "type": "library",
      "bom-ref": "pkg:crates/serde@1.0.106",
      "group": "",
      "name": "serde",
      "version": "1.0.106",
      "description": "",
      "purl": "pkg:crates/serde@1.0.106"
    },
    {
      "type": "library",
      "bom-ref": "pkg:crates/serde_derive@1.0.106",
      "group": "",
      "name": "serde_derive",
      "version": "1.0.106",
      "description": "",
      "purl": "pkg:crates/serde_derive@1.0.106"
    },
    {
      "type": "library",
      "bom-ref": "pkg:crates/serde_json@1.0.52",
      "group": "",
      "name": "serde_json",
      "version": "1.0.52",
      "description": "",
      "purl": "pkg:crates/serde_json@1.0.52"
    },
    {
      "type": "library",
      "bom-ref": "pkg:crates/shlex@0.1.1",
      "group": "",
      "name": "shlex",
      "version": "0.1.1",
      "description": "",
      "purl": "pkg:crates/shlex@0.1.1"
    },
    {
      "type": "library",
      "bom-ref": "pkg:crates/slab@0.4.2",
      "group": "",
      "name": "slab",
      "version": "0.4.2",
      "description": "",
      "purl": "pkg:crates/slab@0.4.2"
    },
    {
      "type": "library",
      "bom-ref": "pkg:crates/smallvec@1.4.0",
      "group": "",
      "name": "smallvec",
      "version": "1.4.0",
      "description": "",
      "purl": "pkg:crates/smallvec@1.4.0"
    },
    {
      "type": "library",
      "bom-ref": "pkg:crates/socket2@0.3.12",
      "group": "",
      "name": "socket2",
      "version": "0.3.12",
      "description": "",
      "purl": "pkg:crates/socket2@0.3.12"
    },
    {
      "type": "library",
      "bom-ref": "pkg:crates/strsim@0.8.0",
      "group": "",
      "name": "strsim",
      "version": "0.8.0",
      "description": "",
      "purl": "pkg:crates/strsim@0.8.0"
    },
    {
      "type": "library",
      "bom-ref": "pkg:crates/syn@1.0.19",
      "group": "",
      "name": "syn",
      "version": "1.0.19",
      "description": "",
      "purl": "pkg:crates/syn@1.0.19"
    },
    {
      "type": "library",
      "bom-ref": "pkg:crates/take_mut@0.2.2",
      "group": "",
      "name": "take_mut",
      "version": "0.2.2",
      "description": "",
      "purl": "pkg:crates/take_mut@0.2.2"
    },
    {
      "type": "library",
      "bom-ref": "pkg:crates/termcolor@1.1.0",
      "group": "",
      "name": "termcolor",
      "version": "1.1.0",
      "description": "",
      "purl": "pkg:crates/termcolor@1.1.0"
    },
    {
      "type": "library",
      "bom-ref": "pkg:crates/terminal_size@0.1.12",
      "group": "",
      "name": "terminal_size",
      "version": "0.1.12",
      "description": "",
      "purl": "pkg:crates/terminal_size@0.1.12"
    },
    {
      "type": "library",
      "bom-ref": "pkg:crates/termios@0.3.2",
      "group": "",
      "name": "termios",
      "version": "0.3.2",
      "description": "",
      "purl": "pkg:crates/termios@0.3.2"
    },
    {
      "type": "library",
      "bom-ref": "pkg:crates/textwrap@0.11.0",
      "group": "",
      "name": "textwrap",
      "version": "0.11.0",
      "description": "",
      "purl": "pkg:crates/textwrap@0.11.0"
    },
    {
      "type": "library",
      "bom-ref": "pkg:crates/thread_local@1.0.1",
      "group": "",
      "name": "thread_local",
      "version": "1.0.1",
      "description": "",
      "purl": "pkg:crates/thread_local@1.0.1"
    },
    {
      "type": "library",
      "bom-ref": "pkg:crates/time@0.1.43",
      "group": "",
      "name": "time",
      "version": "0.1.43",
      "description": "",
      "purl": "pkg:crates/time@0.1.43"
    },
    {
      "type": "library",
      "bom-ref": "pkg:crates/tinyfiledialogs@3.3.9",
      "group": "",
      "name": "tinyfiledialogs",
      "version": "3.3.9",
      "description": "",
      "purl": "pkg:crates/tinyfiledialogs@3.3.9"
    },
    {
      "type": "library",
      "bom-ref": "pkg:crates/tinystr@0.3.2",
      "group": "",
      "name": "tinystr",
      "version": "0.3.2",
      "description": "",
      "purl": "pkg:crates/tinystr@0.3.2"
    },
    {
      "type": "library",
      "bom-ref": "pkg:crates/unic-langid-impl@0.7.2",
      "group": "",
      "name": "unic-langid-impl",
      "version": "0.7.2",
      "description": "",
      "purl": "pkg:crates/unic-langid-impl@0.7.2"
    },
    {
      "type": "library",
      "bom-ref": "pkg:crates/unic-locale@0.7.1",
      "group": "",
      "name": "unic-locale",
      "version": "0.7.1",
      "description": "",
      "purl": "pkg:crates/unic-locale@0.7.1"
    },
    {
      "type": "library",
      "bom-ref": "pkg:crates/unic-locale-impl@0.7.1",
      "group": "",
      "name": "unic-locale-impl",
      "version": "0.7.1",
      "description": "",
      "purl": "pkg:crates/unic-locale-impl@0.7.1"
    },
    {
      "type": "library",
      "bom-ref": "pkg:crates/unicode-width@0.1.7",
      "group": "",
      "name": "unicode-width",
      "version": "0.1.7",
      "description": "",
      "purl": "pkg:crates/unicode-width@0.1.7"
    },
    {
      "type": "library",
      "bom-ref": "pkg:crates/unicode-xid@0.2.0",
      "group": "",
      "name": "unicode-xid",
      "version": "0.2.0",
      "description": "",
      "purl": "pkg:crates/unicode-xid@0.2.0"
    },
    {
      "type": "library",
      "bom-ref": "pkg:crates/vcpkg@0.2.8",
      "group": "",
      "name": "vcpkg",
      "version": "0.2.8",
      "description": "",
      "purl": "pkg:crates/vcpkg@0.2.8"
    },
    {
      "type": "library",
      "bom-ref": "pkg:crates/vec_map@0.8.2",
      "group": "",
      "name": "vec_map",
      "version": "0.8.2",
      "description": "",
      "purl": "pkg:crates/vec_map@0.8.2"
    },
    {
      "type": "library",
      "bom-ref": "pkg:crates/version_check@0.1.5",
      "group": "",
      "name": "version_check",
      "version": "0.1.5",
      "description": "",
      "purl": "pkg:crates/version_check@0.1.5"
    },
    {
      "type": "library",
      "bom-ref": "pkg:crates/wasi@0.9.0+wasi-snapshot-preview1",
      "group": "",
      "name": "wasi",
      "version": "0.9.0+wasi-snapshot-preview1",
      "description": "",
      "purl": "pkg:crates/wasi@0.9.0+wasi-snapshot-preview1"
    },
    {
      "type": "library",
      "bom-ref": "pkg:crates/which@3.1.1",
      "group": "",
      "name": "which",
      "version": "3.1.1",
      "description": "",
      "purl": "pkg:crates/which@3.1.1"
    },
    {
      "type": "library",
      "bom-ref": "pkg:crates/winapi@0.2.8",
      "group": "",
      "name": "winapi",
      "version": "0.2.8",
      "description": "",
      "purl": "pkg:crates/winapi@0.2.8"
    },
    {
      "type": "library",
      "bom-ref": "pkg:crates/winapi@0.3.8",
      "group": "",
      "name": "winapi",
      "version": "0.3.8",
      "description": "",
      "purl": "pkg:crates/winapi@0.3.8"
    },
    {
      "type": "library",
      "bom-ref": "pkg:crates/winapi-build@0.1.1",
      "group": "",
      "name": "winapi-build",
      "version": "0.1.1",
      "description": "",
      "purl": "pkg:crates/winapi-build@0.1.1"
    },
    {
      "type": "library",
      "bom-ref": "pkg:crates/winapi-i686-pc-windows-gnu@0.4.0",
      "group": "",
      "name": "winapi-i686-pc-windows-gnu",
      "version": "0.4.0",
      "description": "",
      "purl": "pkg:crates/winapi-i686-pc-windows-gnu@0.4.0"
    },
    {
      "type": "library",
      "bom-ref": "pkg:crates/winapi-util@0.1.5",
      "group": "",
      "name": "winapi-util",
      "version": "0.1.5",
      "description": "",
      "purl": "pkg:crates/winapi-util@0.1.5"
    },
    {
      "type": "library",
      "bom-ref": "pkg:crates/winapi-x86_64-pc-windows-gnu@0.4.0",
      "group": "",
      "name": "winapi-x86_64-pc-windows-gnu",
      "version": "0.4.0",
      "description": "",
      "purl": "pkg:crates/winapi-x86_64-pc-windows-gnu@0.4.0"
    },
    {
      "type": "library",
      "bom-ref": "pkg:crates/ws2_32-sys@0.2.1",
      "group": "",
      "name": "ws2_32-sys",
      "version": "0.2.1",
      "description": "",
      "purl": "pkg:crates/ws2_32-sys@0.2.1"
    },
    {
      "type": "library",
      "bom-ref": "pkg:crates/xml-rs@0.8.3",
      "group": "",
      "name": "xml-rs",
      "version": "0.8.3",
      "description": "",
      "purl": "pkg:crates/xml-rs@0.8.3"
    }
  ],
  "externalReferences": [
    {
      "url": "/project/src",
      "type": "other",
      "comment": "Base path"
    },
    {
      "url": "/project/src/Cargo.lock",
      "type": "other",
      "comment": "Package file"
    }
  ]
}
