{
  "bomFormat": "CycloneDX",
  "specVersion": "1.3",
  "serialNumber": "urn:uuid:be0ca6dd-b94e-40e6-9d93-34f98f8cd44b",
  "version": 1,
  "metadata": {
    "timestamp": "2022-06-02T02:24:19Z",
    "tools": [
      {
        "vendor": "AppThreat",
        "name": "cdxgen",
        "version": "3.0.10"
      },
      {
        "vendor": "Fortress Information Security",
        "name": "Github Extractor",
        "version": "1.15.1"
      }
    ],
    "authors": [
      {
        "name": "Team AppThreat",
        "email": "cloud@appthreat.com"
      },
      {
        "name": "Fortress Information Security",
        "email": "sales@fortressinfosec.com",
        "phone": "1-407-573-6800"
      }
    ],
    "component": {
      "type": "application",
      "name": "tkn",
      "version": "",
      "group": "fxn",
      "externalReferences": [
        {
          "url": "https://github.com/fxn/tkn.git",
          "type": "distribution"
        },
        {
          "type": "website",
          "url": "null",
          "comment": "As set via `homepage` in Github API"
        }
      ]
    }
  },
  "components": [
    {
      "type": "library",
      "bom-ref": "pkg:rubygems/activesupport@3.2.8",
      "group": "",
      "name": "activesupport",
      "version": "3.2.8",
      "description": "",
      "purl": "pkg:rubygems/activesupport@3.2.8"
    },
    {
      "type": "library",
      "bom-ref": "pkg:rubygems/i18n@0.6.1",
      "group": "",
      "name": "i18n",
      "version": "0.6.1",
      "description": "",
      "purl": "pkg:rubygems/i18n@0.6.1"
    },
    {
      "type": "library",
      "bom-ref": "pkg:rubygems/multi_json@1.3.6",
      "group": "",
      "name": "multi_json",
      "version": "1.3.6",
      "description": "",
      "purl": "pkg:rubygems/multi_json@1.3.6"
    },
    {
      "type": "library",
      "bom-ref": "pkg:rubygems/posix-spawn@0.3.6",
      "group": "",
      "name": "posix-spawn",
      "version": "0.3.6",
      "description": "",
      "purl": "pkg:rubygems/posix-spawn@0.3.6"
    },
    {
      "type": "library",
      "bom-ref": "pkg:rubygems/pygments.rb@0.5.2",
      "group": "",
      "name": "pygments.rb",
      "version": "0.5.2",
      "description": "",
      "purl": "pkg:rubygems/pygments.rb@0.5.2"
    },
    {
      "type": "library",
      "bom-ref": "pkg:rubygems/yajl-ruby@1.1.0",
      "group": "",
      "name": "yajl-ruby",
      "version": "1.1.0",
      "description": "",
      "purl": "pkg:rubygems/yajl-ruby@1.1.0"
    }
  ],
  "externalReferences": [
    {
      "url": "/project/src",
      "type": "other",
      "comment": "Base path"
    },
    {
      "url": "/project/src/Gemfile.lock",
      "type": "other",
      "comment": "Package file"
    }
  ]
}
