{
  "bomFormat": "CycloneDX",
  "specVersion": "1.3",
  "serialNumber": "urn:uuid:1f05e758-2c9d-4578-9387-7cb7461fe991",
  "version": 1,
  "metadata": {
    "timestamp": "2022-06-06T19:03:31Z",
    "tools": [
      {
        "vendor": "AppThreat",
        "name": "cdxgen",
        "version": "3.0.10"
      },
      {
        "vendor": "Fortress Information Security",
        "name": "Github Extractor",
        "version": "1.15.1"
      }
    ],
    "authors": [
      {
        "name": "Team AppThreat",
        "email": "cloud@appthreat.com"
      },
      {
        "name": "Fortress Information Security",
        "email": "sales@fortressinfosec.com",
        "phone": "1-407-573-6800"
      }
    ],
    "component": {
      "type": "application",
      "name": "iota",
      "version": "",
      "group": "gchp",
      "externalReferences": [
        {
          "url": "https://github.com/gchp/iota.git",
          "type": "distribution"
        },
        {
          "type": "website",
          "url": "null",
          "comment": "As set via `homepage` in Github API"
        }
      ]
    }
  },
  "components": [
    {
      "type": "library",
      "bom-ref": "pkg:crates/aho-corasick@0.5.3",
      "group": "",
      "name": "aho-corasick",
      "version": "0.5.3",
      "description": "",
      "purl": "pkg:crates/aho-corasick@0.5.3"
    },
    {
      "type": "library",
      "bom-ref": "pkg:crates/aho-corasick@0.6.5",
      "group": "",
      "name": "aho-corasick",
      "version": "0.6.5",
      "description": "",
      "purl": "pkg:crates/aho-corasick@0.6.5"
    },
    {
      "type": "library",
      "bom-ref": "pkg:crates/ansi_term@0.11.0",
      "group": "",
      "name": "ansi_term",
      "version": "0.11.0",
      "description": "",
      "purl": "pkg:crates/ansi_term@0.11.0"
    },
    {
      "type": "library",
      "bom-ref": "pkg:crates/backtrace@0.3.9",
      "group": "",
      "name": "backtrace",
      "version": "0.3.9",
      "description": "",
      "purl": "pkg:crates/backtrace@0.3.9"
    },
    {
      "type": "library",
      "bom-ref": "pkg:crates/backtrace-sys@0.1.23",
      "group": "",
      "name": "backtrace-sys",
      "version": "0.1.23",
      "description": "",
      "purl": "pkg:crates/backtrace-sys@0.1.23"
    },
    {
      "type": "library",
      "bom-ref": "pkg:crates/bitflags@0.2.1",
      "group": "",
      "name": "bitflags",
      "version": "0.2.1",
      "description": "",
      "purl": "pkg:crates/bitflags@0.2.1"
    },
    {
      "type": "library",
      "bom-ref": "pkg:crates/bitflags@0.9.1",
      "group": "",
      "name": "bitflags",
      "version": "0.9.1",
      "description": "",
      "purl": "pkg:crates/bitflags@0.9.1"
    },
    {
      "type": "library",
      "bom-ref": "pkg:crates/bitflags@1.0.3",
      "group": "",
      "name": "bitflags",
      "version": "1.0.3",
      "description": "",
      "purl": "pkg:crates/bitflags@1.0.3"
    },
    {
      "type": "library",
      "bom-ref": "pkg:crates/cargo_metadata@0.5.6",
      "group": "",
      "name": "cargo_metadata",
      "version": "0.5.6",
      "description": "",
      "purl": "pkg:crates/cargo_metadata@0.5.6"
    },
    {
      "type": "library",
      "bom-ref": "pkg:crates/cc@1.0.17",
      "group": "",
      "name": "cc",
      "version": "1.0.17",
      "description": "",
      "purl": "pkg:crates/cc@1.0.17"
    },
    {
      "type": "library",
      "bom-ref": "pkg:crates/cfg-if@0.1.4",
      "group": "",
      "name": "cfg-if",
      "version": "0.1.4",
      "description": "",
      "purl": "pkg:crates/cfg-if@0.1.4"
    },
    {
      "type": "library",
      "bom-ref": "pkg:crates/clippy@0.0.210",
      "group": "",
      "name": "clippy",
      "version": "0.0.210",
      "description": "",
      "purl": "pkg:crates/clippy@0.0.210"
    },
    {
      "type": "library",
      "bom-ref": "pkg:crates/clippy_lints@0.0.210",
      "group": "",
      "name": "clippy_lints",
      "version": "0.0.210",
      "description": "",
      "purl": "pkg:crates/clippy_lints@0.0.210"
    },
    {
      "type": "library",
      "bom-ref": "pkg:crates/docopt@0.6.86",
      "group": "",
      "name": "docopt",
      "version": "0.6.86",
      "description": "",
      "purl": "pkg:crates/docopt@0.6.86"
    },
    {
      "type": "library",
      "bom-ref": "pkg:crates/dtoa@0.4.2",
      "group": "",
      "name": "dtoa",
      "version": "0.4.2",
      "description": "",
      "purl": "pkg:crates/dtoa@0.4.2"
    },
    {
      "type": "library",
      "bom-ref": "pkg:crates/either@1.5.0",
      "group": "",
      "name": "either",
      "version": "1.5.0",
      "description": "",
      "purl": "pkg:crates/either@1.5.0"
    },
    {
      "type": "library",
      "bom-ref": "pkg:crates/error-chain@0.11.0",
      "group": "",
      "name": "error-chain",
      "version": "0.11.0",
      "description": "",
      "purl": "pkg:crates/error-chain@0.11.0"
    },
    {
      "type": "library",
      "bom-ref": "pkg:crates/fuchsia-zircon@0.3.3",
      "group": "",
      "name": "fuchsia-zircon",
      "version": "0.3.3",
      "description": "",
      "purl": "pkg:crates/fuchsia-zircon@0.3.3"
    },
    {
      "type": "library",
      "bom-ref": "pkg:crates/fuchsia-zircon-sys@0.3.3",
      "group": "",
      "name": "fuchsia-zircon-sys",
      "version": "0.3.3",
      "description": "",
      "purl": "pkg:crates/fuchsia-zircon-sys@0.3.3"
    },
    {
      "type": "library",
      "bom-ref": "pkg:crates/gag@0.1.10",
      "group": "",
      "name": "gag",
      "version": "0.1.10",
      "description": "",
      "purl": "pkg:crates/gag@0.1.10"
    },
    {
      "type": "library",
      "bom-ref": "pkg:crates/gapbuffer@0.1.1",
      "group": "",
      "name": "gapbuffer",
      "version": "0.1.1",
      "description": "",
      "purl": "pkg:crates/gapbuffer@0.1.1"
    },
    {
      "type": "library",
      "bom-ref": "pkg:crates/getopts@0.2.17",
      "group": "",
      "name": "getopts",
      "version": "0.2.17",
      "description": "",
      "purl": "pkg:crates/getopts@0.2.17"
    },
    {
      "type": "library",
      "bom-ref": "pkg:crates/idna@0.1.4",
      "group": "",
      "name": "idna",
      "version": "0.1.4",
      "description": "",
      "purl": "pkg:crates/idna@0.1.4"
    },
    {
      "type": "library",
      "bom-ref": "pkg:crates/if_chain@0.1.2",
      "group": "",
      "name": "if_chain",
      "version": "0.1.2",
      "description": "",
      "purl": "pkg:crates/if_chain@0.1.2"
    },
    {
      "type": "library",
      "bom-ref": "pkg:crates/iota-editor@0.1.0",
      "group": "",
      "name": "iota-editor",
      "version": "0.1.0",
      "description": "",
      "purl": "pkg:crates/iota-editor@0.1.0"
    },
    {
      "type": "library",
      "bom-ref": "pkg:crates/itertools@0.7.8",
      "group": "",
      "name": "itertools",
      "version": "0.7.8",
      "description": "",
      "purl": "pkg:crates/itertools@0.7.8"
    },
    {
      "type": "library",
      "bom-ref": "pkg:crates/itoa@0.4.1",
      "group": "",
      "name": "itoa",
      "version": "0.4.1",
      "description": "",
      "purl": "pkg:crates/itoa@0.4.1"
    },
    {
      "type": "library",
      "bom-ref": "pkg:crates/kernel32-sys@0.2.2",
      "group": "",
      "name": "kernel32-sys",
      "version": "0.2.2",
      "description": "",
      "purl": "pkg:crates/kernel32-sys@0.2.2"
    },
    {
      "type": "library",
      "bom-ref": "pkg:crates/lazy_static@0.2.11",
      "group": "",
      "name": "lazy_static",
      "version": "0.2.11",
      "description": "",
      "purl": "pkg:crates/lazy_static@0.2.11"
    },
    {
      "type": "library",
      "bom-ref": "pkg:crates/lazy_static@1.0.1",
      "group": "",
      "name": "lazy_static",
      "version": "1.0.1",
      "description": "",
      "purl": "pkg:crates/lazy_static@1.0.1"
    },
    {
      "type": "library",
      "bom-ref": "pkg:crates/libc@0.1.12",
      "group": "",
      "name": "libc",
      "version": "0.1.12",
      "description": "",
      "purl": "pkg:crates/libc@0.1.12"
    },
    {
      "type": "library",
      "bom-ref": "pkg:crates/libc@0.2.42",
      "group": "",
      "name": "libc",
      "version": "0.2.42",
      "description": "",
      "purl": "pkg:crates/libc@0.2.42"
    },
    {
      "type": "library",
      "bom-ref": "pkg:crates/matches@0.1.6",
      "group": "",
      "name": "matches",
      "version": "0.1.6",
      "description": "",
      "purl": "pkg:crates/matches@0.1.6"
    },
    {
      "type": "library",
      "bom-ref": "pkg:crates/memchr@0.1.11",
      "group": "",
      "name": "memchr",
      "version": "0.1.11",
      "description": "",
      "purl": "pkg:crates/memchr@0.1.11"
    },
    {
      "type": "library",
      "bom-ref": "pkg:crates/memchr@2.0.1",
      "group": "",
      "name": "memchr",
      "version": "2.0.1",
      "description": "",
      "purl": "pkg:crates/memchr@2.0.1"
    },
    {
      "type": "library",
      "bom-ref": "pkg:crates/num-traits@0.1.43",
      "group": "",
      "name": "num-traits",
      "version": "0.1.43",
      "description": "",
      "purl": "pkg:crates/num-traits@0.1.43"
    },
    {
      "type": "library",
      "bom-ref": "pkg:crates/num-traits@0.2.5",
      "group": "",
      "name": "num-traits",
      "version": "0.2.5",
      "description": "",
      "purl": "pkg:crates/num-traits@0.2.5"
    },
    {
      "type": "library",
      "bom-ref": "pkg:crates/percent-encoding@1.0.1",
      "group": "",
      "name": "percent-encoding",
      "version": "1.0.1",
      "description": "",
      "purl": "pkg:crates/percent-encoding@1.0.1"
    },
    {
      "type": "library",
      "bom-ref": "pkg:crates/proc-macro2@0.4.6",
      "group": "",
      "name": "proc-macro2",
      "version": "0.4.6",
      "description": "",
      "purl": "pkg:crates/proc-macro2@0.4.6"
    },
    {
      "type": "library",
      "bom-ref": "pkg:crates/pulldown-cmark@0.1.2",
      "group": "",
      "name": "pulldown-cmark",
      "version": "0.1.2",
      "description": "",
      "purl": "pkg:crates/pulldown-cmark@0.1.2"
    },
    {
      "type": "library",
      "bom-ref": "pkg:crates/quine-mc_cluskey@0.2.4",
      "group": "",
      "name": "quine-mc_cluskey",
      "version": "0.2.4",
      "description": "",
      "purl": "pkg:crates/quine-mc_cluskey@0.2.4"
    },
    {
      "type": "library",
      "bom-ref": "pkg:crates/quote@0.6.3",
      "group": "",
      "name": "quote",
      "version": "0.6.3",
      "description": "",
      "purl": "pkg:crates/quote@0.6.3"
    },
    {
      "type": "library",
      "bom-ref": "pkg:crates/rand@0.4.2",
      "group": "",
      "name": "rand",
      "version": "0.4.2",
      "description": "",
      "purl": "pkg:crates/rand@0.4.2"
    },
    {
      "type": "library",
      "bom-ref": "pkg:crates/redox_syscall@0.1.40",
      "group": "",
      "name": "redox_syscall",
      "version": "0.1.40",
      "description": "",
      "purl": "pkg:crates/redox_syscall@0.1.40"
    },
    {
      "type": "library",
      "bom-ref": "pkg:crates/regex@0.1.80",
      "group": "",
      "name": "regex",
      "version": "0.1.80",
      "description": "",
      "purl": "pkg:crates/regex@0.1.80"
    },
    {
      "type": "library",
      "bom-ref": "pkg:crates/regex@1.0.1",
      "group": "",
      "name": "regex",
      "version": "1.0.1",
      "description": "",
      "purl": "pkg:crates/regex@1.0.1"
    },
    {
      "type": "library",
      "bom-ref": "pkg:crates/regex-syntax@0.3.9",
      "group": "",
      "name": "regex-syntax",
      "version": "0.3.9",
      "description": "",
      "purl": "pkg:crates/regex-syntax@0.3.9"
    },
    {
      "type": "library",
      "bom-ref": "pkg:crates/regex-syntax@0.6.1",
      "group": "",
      "name": "regex-syntax",
      "version": "0.6.1",
      "description": "",
      "purl": "pkg:crates/regex-syntax@0.6.1"
    },
    {
      "type": "library",
      "bom-ref": "pkg:crates/remove_dir_all@0.5.1",
      "group": "",
      "name": "remove_dir_all",
      "version": "0.5.1",
      "description": "",
      "purl": "pkg:crates/remove_dir_all@0.5.1"
    },
    {
      "type": "library",
      "bom-ref": "pkg:crates/rustbox@0.11.0",
      "group": "",
      "name": "rustbox",
      "version": "0.11.0",
      "description": "",
      "purl": "pkg:crates/rustbox@0.11.0"
    },
    {
      "type": "library",
      "bom-ref": "pkg:crates/rustc-demangle@0.1.8",
      "group": "",
      "name": "rustc-demangle",
      "version": "0.1.8",
      "description": "",
      "purl": "pkg:crates/rustc-demangle@0.1.8"
    },
    {
      "type": "library",
      "bom-ref": "pkg:crates/rustc-serialize@0.3.24",
      "group": "",
      "name": "rustc-serialize",
      "version": "0.3.24",
      "description": "",
      "purl": "pkg:crates/rustc-serialize@0.3.24"
    },
    {
      "type": "library",
      "bom-ref": "pkg:crates/rustc_version@0.2.2",
      "group": "",
      "name": "rustc_version",
      "version": "0.2.2",
      "description": "",
      "purl": "pkg:crates/rustc_version@0.2.2"
    },
    {
      "type": "library",
      "bom-ref": "pkg:crates/semver@0.9.0",
      "group": "",
      "name": "semver",
      "version": "0.9.0",
      "description": "",
      "purl": "pkg:crates/semver@0.9.0"
    },
    {
      "type": "library",
      "bom-ref": "pkg:crates/semver-parser@0.7.0",
      "group": "",
      "name": "semver-parser",
      "version": "0.7.0",
      "description": "",
      "purl": "pkg:crates/semver-parser@0.7.0"
    },
    {
      "type": "library",
      "bom-ref": "pkg:crates/serde@1.0.67",
      "group": "",
      "name": "serde",
      "version": "1.0.67",
      "description": "",
      "purl": "pkg:crates/serde@1.0.67"
    },
    {
      "type": "library",
      "bom-ref": "pkg:crates/serde_derive@1.0.67",
      "group": "",
      "name": "serde_derive",
      "version": "1.0.67",
      "description": "",
      "purl": "pkg:crates/serde_derive@1.0.67"
    },
    {
      "type": "library",
      "bom-ref": "pkg:crates/serde_json@1.0.22",
      "group": "",
      "name": "serde_json",
      "version": "1.0.22",
      "description": "",
      "purl": "pkg:crates/serde_json@1.0.22"
    },
    {
      "type": "library",
      "bom-ref": "pkg:crates/strsim@0.5.2",
      "group": "",
      "name": "strsim",
      "version": "0.5.2",
      "description": "",
      "purl": "pkg:crates/strsim@0.5.2"
    },
    {
      "type": "library",
      "bom-ref": "pkg:crates/syn@0.14.2",
      "group": "",
      "name": "syn",
      "version": "0.14.2",
      "description": "",
      "purl": "pkg:crates/syn@0.14.2"
    },
    {
      "type": "library",
      "bom-ref": "pkg:crates/tempdir@0.3.7",
      "group": "",
      "name": "tempdir",
      "version": "0.3.7",
      "description": "",
      "purl": "pkg:crates/tempdir@0.3.7"
    },
    {
      "type": "library",
      "bom-ref": "pkg:crates/tempfile@3.0.2",
      "group": "",
      "name": "tempfile",
      "version": "3.0.2",
      "description": "",
      "purl": "pkg:crates/tempfile@3.0.2"
    },
    {
      "type": "library",
      "bom-ref": "pkg:crates/termbox-sys@0.2.10",
      "group": "",
      "name": "termbox-sys",
      "version": "0.2.10",
      "description": "",
      "purl": "pkg:crates/termbox-sys@0.2.10"
    },
    {
      "type": "library",
      "bom-ref": "pkg:crates/thread-id@2.0.0",
      "group": "",
      "name": "thread-id",
      "version": "2.0.0",
      "description": "",
      "purl": "pkg:crates/thread-id@2.0.0"
    },
    {
      "type": "library",
      "bom-ref": "pkg:crates/thread_local@0.2.7",
      "group": "",
      "name": "thread_local",
      "version": "0.2.7",
      "description": "",
      "purl": "pkg:crates/thread_local@0.2.7"
    },
    {
      "type": "library",
      "bom-ref": "pkg:crates/thread_local@0.3.5",
      "group": "",
      "name": "thread_local",
      "version": "0.3.5",
      "description": "",
      "purl": "pkg:crates/thread_local@0.3.5"
    },
    {
      "type": "library",
      "bom-ref": "pkg:crates/toml@0.4.6",
      "group": "",
      "name": "toml",
      "version": "0.4.6",
      "description": "",
      "purl": "pkg:crates/toml@0.4.6"
    },
    {
      "type": "library",
      "bom-ref": "pkg:crates/ucd-util@0.1.1",
      "group": "",
      "name": "ucd-util",
      "version": "0.1.1",
      "description": "",
      "purl": "pkg:crates/ucd-util@0.1.1"
    },
    {
      "type": "library",
      "bom-ref": "pkg:crates/unicode-bidi@0.3.4",
      "group": "",
      "name": "unicode-bidi",
      "version": "0.3.4",
      "description": "",
      "purl": "pkg:crates/unicode-bidi@0.3.4"
    },
    {
      "type": "library",
      "bom-ref": "pkg:crates/unicode-normalization@0.1.7",
      "group": "",
      "name": "unicode-normalization",
      "version": "0.1.7",
      "description": "",
      "purl": "pkg:crates/unicode-normalization@0.1.7"
    },
    {
      "type": "library",
      "bom-ref": "pkg:crates/unicode-width@0.1.5",
      "group": "",
      "name": "unicode-width",
      "version": "0.1.5",
      "description": "",
      "purl": "pkg:crates/unicode-width@0.1.5"
    },
    {
      "type": "library",
      "bom-ref": "pkg:crates/unicode-xid@0.1.0",
      "group": "",
      "name": "unicode-xid",
      "version": "0.1.0",
      "description": "",
      "purl": "pkg:crates/unicode-xid@0.1.0"
    },
    {
      "type": "library",
      "bom-ref": "pkg:crates/unreachable@1.0.0",
      "group": "",
      "name": "unreachable",
      "version": "1.0.0",
      "description": "",
      "purl": "pkg:crates/unreachable@1.0.0"
    },
    {
      "type": "library",
      "bom-ref": "pkg:crates/url@1.7.0",
      "group": "",
      "name": "url",
      "version": "1.7.0",
      "description": "",
      "purl": "pkg:crates/url@1.7.0"
    },
    {
      "type": "library",
      "bom-ref": "pkg:crates/utf8-ranges@0.1.3",
      "group": "",
      "name": "utf8-ranges",
      "version": "0.1.3",
      "description": "",
      "purl": "pkg:crates/utf8-ranges@0.1.3"
    },
    {
      "type": "library",
      "bom-ref": "pkg:crates/utf8-ranges@1.0.0",
      "group": "",
      "name": "utf8-ranges",
      "version": "1.0.0",
      "description": "",
      "purl": "pkg:crates/utf8-ranges@1.0.0"
    },
    {
      "type": "library",
      "bom-ref": "pkg:crates/void@1.0.2",
      "group": "",
      "name": "void",
      "version": "1.0.2",
      "description": "",
      "purl": "pkg:crates/void@1.0.2"
    },
    {
      "type": "library",
      "bom-ref": "pkg:crates/winapi@0.2.8",
      "group": "",
      "name": "winapi",
      "version": "0.2.8",
      "description": "",
      "purl": "pkg:crates/winapi@0.2.8"
    },
    {
      "type": "library",
      "bom-ref": "pkg:crates/winapi@0.3.5",
      "group": "",
      "name": "winapi",
      "version": "0.3.5",
      "description": "",
      "purl": "pkg:crates/winapi@0.3.5"
    },
    {
      "type": "library",
      "bom-ref": "pkg:crates/winapi-build@0.1.1",
      "group": "",
      "name": "winapi-build",
      "version": "0.1.1",
      "description": "",
      "purl": "pkg:crates/winapi-build@0.1.1"
    },
    {
      "type": "library",
      "bom-ref": "pkg:crates/winapi-i686-pc-windows-gnu@0.4.0",
      "group": "",
      "name": "winapi-i686-pc-windows-gnu",
      "version": "0.4.0",
      "description": "",
      "purl": "pkg:crates/winapi-i686-pc-windows-gnu@0.4.0"
    }
  ],
  "externalReferences": [
    {
      "url": "/project/src",
      "type": "other",
      "comment": "Base path"
    },
    {
      "url": "/project/src/Cargo.lock",
      "type": "other",
      "comment": "Package file"
    }
  ]
}
