{
  "bomFormat": "CycloneDX",
  "specVersion": "1.3",
  "version": 1,
  "metadata": {
    "tools": [
      {
        "vendor": "CycloneDX",
        "name": "cyclonedx-gomod",
        "version": "v0.0.0-unset",
        "hashes": [
          {
            "alg": "MD5",
            "content": "a35776fc9417e8071d3f1dcfa2f1dd19"
          },
          {
            "alg": "SHA-1",
            "content": "a19a8eed713eff5a2092e5283c201a146f19421d"
          },
          {
            "alg": "SHA-256",
            "content": "17b3b980b9a5d0f48ad52043dee5b31aff3ae6599a36bc94224dc7b6a46759ef"
          },
          {
            "alg": "SHA-512",
            "content": "9d4f06aab20cede94a1aedf11a300ae9de98871235c68c72e421cd6d45495910861b39e743ee0eceb11bbdcd2c9acc3312c19064cfe90177243fb43127fcfa46"
          }
        ]
      },
      {
        "vendor": "AppThreat",
        "name": "cdxgen",
        "version": "3.0.10"
      },
      {
        "vendor": "Fortress Information Security",
        "name": "Github Extractor",
        "version": "1.15.1"
      }
    ],
    "authors": [
      {
        "name": "Fortress Information Security",
        "email": "sales@fortressinfosec.com",
        "phone": "1-407-573-6800"
      }
    ],
    "timestamp": "2022-06-01T21:00:00Z",
    "component": {
      "type": "application",
      "name": "hub",
      "version": "v2.14.2",
      "group": "github",
      "externalReferences": [
        {
          "url": "https://github.com/github/hub.git",
          "type": "distribution"
        },
        {
          "type": "website",
          "url": "https://hub.github.com/",
          "comment": "As set via `homepage` in Github API"
        }
      ]
    }
  },
  "components": [
    {
      "type": "library",
      "bom-ref": "pkg:golang/github.com/BurntSushi/toml@v0.3.0",
      "name": "github.com/BurntSushi/toml",
      "version": "v0.3.0",
      "scope": "required",
      "hashes": [
        {
          "alg": "SHA-256",
          "content": "7b5fc8becc776741554d5d0d48ebff69581b516c90bb38fb0c39c56e5911bec6"
        }
      ],
      "purl": "pkg:golang/github.com/BurntSushi/toml@v0.3.0",
      "externalReferences": [
        {
          "url": "https://github.com/BurntSushi/toml",
          "type": "vcs"
        }
      ]
    },
    {
      "type": "library",
      "bom-ref": "pkg:golang/github.com/atotto/clipboard@v0.0.0-20171229224153-bc5958e1c833",
      "name": "github.com/atotto/clipboard",
      "version": "v0.0.0-20171229224153-bc5958e1c833",
      "scope": "required",
      "hashes": [
        {
          "alg": "SHA-256",
          "content": "87f139af2653240b4e63a4f72babbf240d4e511b749e4d42e1f213cb0c4ea781"
        }
      ],
      "purl": "pkg:golang/github.com/atotto/clipboard@v0.0.0-20171229224153-bc5958e1c833",
      "externalReferences": [
        {
          "url": "https://github.com/atotto/clipboard",
          "type": "vcs"
        }
      ]
    },
    {
      "type": "library",
      "bom-ref": "pkg:golang/github.com/google/go-cmp@v0.4.0",
      "name": "github.com/google/go-cmp",
      "version": "v0.4.0",
      "scope": "required",
      "hashes": [
        {
          "alg": "SHA-256",
          "content": "c6c015579ed64611a3ea41088bc45e2734251c7a9c058084940be4a2f83707fe"
        }
      ],
      "purl": "pkg:golang/github.com/google/go-cmp@v0.4.0",
      "externalReferences": [
        {
          "url": "https://github.com/google/go-cmp",
          "type": "vcs"
        }
      ]
    },
    {
      "type": "library",
      "bom-ref": "pkg:golang/github.com/kballard/go-shellquote@v0.0.0-20170619183022-cd60e84ee657",
      "name": "github.com/kballard/go-shellquote",
      "version": "v0.0.0-20170619183022-cd60e84ee657",
      "scope": "required",
      "hashes": [
        {
          "alg": "SHA-256",
          "content": "bc4ec9d66edc0a989154422bd41e5c703c51a5b3ec593e4953789fd838b99c4e"
        }
      ],
      "purl": "pkg:golang/github.com/kballard/go-shellquote@v0.0.0-20170619183022-cd60e84ee657",
      "externalReferences": [
        {
          "url": "https://github.com/kballard/go-shellquote",
          "type": "vcs"
        }
      ]
    },
    {
      "type": "library",
      "bom-ref": "pkg:golang/github.com/mattn/go-colorable@v0.0.9",
      "name": "github.com/mattn/go-colorable",
      "version": "v0.0.9",
      "scope": "required",
      "hashes": [
        {
          "alg": "SHA-256",
          "content": "5152f4bcda56874e077895d5d0a2dc693eebd3a80e1f6978396e9d758454218e"
        }
      ],
      "purl": "pkg:golang/github.com/mattn/go-colorable@v0.0.9",
      "externalReferences": [
        {
          "url": "https://github.com/mattn/go-colorable",
          "type": "vcs"
        }
      ]
    },
    {
      "type": "library",
      "bom-ref": "pkg:golang/github.com/mattn/go-isatty@v0.0.3",
      "name": "github.com/mattn/go-isatty",
      "version": "v0.0.3",
      "scope": "required",
      "hashes": [
        {
          "alg": "SHA-256",
          "content": "9ecff29219968bb1bd3bef1ae38f1279c254de748c05725fa90925d2ea44d632"
        }
      ],
      "purl": "pkg:golang/github.com/mattn/go-isatty@v0.0.3",
      "externalReferences": [
        {
          "url": "https://github.com/mattn/go-isatty",
          "type": "vcs"
        }
      ]
    },
    {
      "type": "library",
      "bom-ref": "pkg:golang/github.com/mitchellh/go-homedir@v0.0.0-20161203194507-b8bc1bf76747",
      "name": "github.com/mitchellh/go-homedir",
      "version": "v0.0.0-20161203194507-b8bc1bf76747",
      "scope": "required",
      "hashes": [
        {
          "alg": "SHA-256",
          "content": "790a31e118787b0245fa6a983f10a4981022ad19cf687101dba52436e3f28e59"
        }
      ],
      "purl": "pkg:golang/github.com/mitchellh/go-homedir@v0.0.0-20161203194507-b8bc1bf76747",
      "externalReferences": [
        {
          "url": "https://github.com/mitchellh/go-homedir",
          "type": "vcs"
        }
      ]
    },
    {
      "type": "library",
      "bom-ref": "pkg:golang/github.com/russross/blackfriday@v0.0.0-20180526075726-670777b536d3",
      "name": "github.com/russross/blackfriday",
      "version": "v0.0.0-20180526075726-670777b536d3",
      "scope": "required",
      "hashes": [
        {
          "alg": "SHA-256",
          "content": "bd95e20ed2f3a840d86de02df78a9c419d87f52187c1b66238576c453e6bae78"
        }
      ],
      "purl": "pkg:golang/github.com/russross/blackfriday@v0.0.0-20180526075726-670777b536d3",
      "externalReferences": [
        {
          "url": "https://github.com/russross/blackfriday",
          "type": "vcs"
        }
      ]
    },
    {
      "type": "library",
      "bom-ref": "pkg:golang/github.com/shurcooL/sanitized_anchor_name@v0.0.0-20170918181015-86672fcb3f95",
      "name": "github.com/shurcooL/sanitized_anchor_name",
      "version": "v0.0.0-20170918181015-86672fcb3f95",
      "scope": "required",
      "hashes": [
        {
          "alg": "SHA-256",
          "content": "fef756f026fb117ae4a961ae7d53044b5387dac53d80a55bda7f7fd72e4d3016"
        }
      ],
      "purl": "pkg:golang/github.com/shurcooL/sanitized_anchor_name@v0.0.0-20170918181015-86672fcb3f95",
      "externalReferences": [
        {
          "url": "https://github.com/shurcooL/sanitized_anchor_name",
          "type": "vcs"
        }
      ]
    },
    {
      "type": "library",
      "bom-ref": "pkg:golang/golang.org/x/crypto@v0.0.0-20190308221718-c2843e01d9a2",
      "name": "golang.org/x/crypto",
      "version": "v0.0.0-20190308221718-c2843e01d9a2",
      "scope": "required",
      "hashes": [
        {
          "alg": "SHA-256",
          "content": "56496a34c9f7a2fac7b27b7dd0fbdea25c526d615a25d10215bc52ab432aa363"
        }
      ],
      "purl": "pkg:golang/golang.org/x/crypto@v0.0.0-20190308221718-c2843e01d9a2"
    },
    {
      "type": "library",
      "bom-ref": "pkg:golang/golang.org/x/net@v0.0.0-20191002035440-2ec189313ef0",
      "name": "golang.org/x/net",
      "version": "v0.0.0-20191002035440-2ec189313ef0",
      "scope": "required",
      "hashes": [
        {
          "alg": "SHA-256",
          "content": "da6a8393cc3fa3a5267940aee508aadb2ee231fe9a9dbc7e600f1dd4916816bb"
        }
      ],
      "purl": "pkg:golang/golang.org/x/net@v0.0.0-20191002035440-2ec189313ef0"
    },
    {
      "type": "library",
      "bom-ref": "pkg:golang/golang.org/x/sys@v0.0.0-20220319134239-a9b59b0215f8",
      "name": "golang.org/x/sys",
      "version": "v0.0.0-20220319134239-a9b59b0215f8",
      "scope": "required",
      "hashes": [
        {
          "alg": "SHA-256",
          "content": "387e78be3ab345699b27ad9f8ee871cbb0311458281cdd3f0cf73f52b2fc700b"
        }
      ],
      "purl": "pkg:golang/golang.org/x/sys@v0.0.0-20220319134239-a9b59b0215f8"
    },
    {
      "type": "library",
      "bom-ref": "pkg:golang/golang.org/x/text@v0.3.0",
      "name": "golang.org/x/text",
      "version": "v0.3.0",
      "scope": "required",
      "hashes": [
        {
          "alg": "SHA-256",
          "content": "83ad6dced139a9e190f3db66e8d4e38ccf553c89b4f3ca1dd65e9a4a8ad64568"
        }
      ],
      "purl": "pkg:golang/golang.org/x/text@v0.3.0"
    },
    {
      "type": "library",
      "bom-ref": "pkg:golang/gopkg.in/yaml.v2@v2.0.0-20190319135612-7b8349ac747c",
      "name": "gopkg.in/yaml.v2",
      "version": "v2.0.0-20190319135612-7b8349ac747c",
      "scope": "required",
      "hashes": [
        {
          "alg": "SHA-256",
          "content": "9ec2580a11d6c5e140ebee3c466bc15c4bd035a9cdca1f77de46585a2bb61c11"
        }
      ],
      "purl": "pkg:golang/gopkg.in/yaml.v2@v2.0.0-20190319135612-7b8349ac747c",
      "externalReferences": [
        {
          "url": "https://github.com/go-yaml/yaml",
          "type": "vcs"
        }
      ]
    },
    {
      "type": "library",
      "bom-ref": "pkg:golang/github.com/github/hub/v2",
      "group": "github.com/github/hub",
      "name": "v2",
      "version": "",
      "description": "",
      "scope": "required",
      "purl": "pkg:golang/github.com/github/hub/v2"
    }
  ],
  "dependencies": [
    {
      "ref": "pkg:golang/github.com/BurntSushi/toml@v0.3.0"
    },
    {
      "ref": "pkg:golang/github.com/atotto/clipboard@v0.0.0-20171229224153-bc5958e1c833"
    },
    {
      "ref": "pkg:golang/github.com/google/go-cmp@v0.4.0"
    },
    {
      "ref": "pkg:golang/github.com/kballard/go-shellquote@v0.0.0-20170619183022-cd60e84ee657"
    },
    {
      "ref": "pkg:golang/github.com/mattn/go-colorable@v0.0.9"
    },
    {
      "ref": "pkg:golang/github.com/mattn/go-isatty@v0.0.3"
    },
    {
      "ref": "pkg:golang/github.com/mitchellh/go-homedir@v0.0.0-20161203194507-b8bc1bf76747"
    },
    {
      "ref": "pkg:golang/github.com/russross/blackfriday@v0.0.0-20180526075726-670777b536d3"
    },
    {
      "ref": "pkg:golang/github.com/shurcooL/sanitized_anchor_name@v0.0.0-20170918181015-86672fcb3f95"
    },
    {
      "ref": "pkg:golang/golang.org/x/crypto@v0.0.0-20190308221718-c2843e01d9a2",
      "dependsOn": [
        "pkg:golang/golang.org/x/sys@v0.0.0-20220319134239-a9b59b0215f8"
      ]
    },
    {
      "ref": "pkg:golang/golang.org/x/net@v0.0.0-20191002035440-2ec189313ef0",
      "dependsOn": [
        "pkg:golang/golang.org/x/crypto@v0.0.0-20190308221718-c2843e01d9a2",
        "pkg:golang/golang.org/x/sys@v0.0.0-20220319134239-a9b59b0215f8",
        "pkg:golang/golang.org/x/text@v0.3.0"
      ]
    },
    {
      "ref": "pkg:golang/golang.org/x/sys@v0.0.0-20220319134239-a9b59b0215f8"
    },
    {
      "ref": "pkg:golang/golang.org/x/text@v0.3.0"
    },
    {
      "ref": "pkg:golang/gopkg.in/yaml.v2@v2.0.0-20190319135612-7b8349ac747c"
    },
    {
      "ref": "pkg:golang/github.com/github/hub/v2@v0.0.0-20220404151650-363513a0f822",
      "dependsOn": [
        "pkg:golang/github.com/BurntSushi/toml@v0.3.0",
        "pkg:golang/github.com/atotto/clipboard@v0.0.0-20171229224153-bc5958e1c833",
        "pkg:golang/github.com/google/go-cmp@v0.4.0",
        "pkg:golang/github.com/kballard/go-shellquote@v0.0.0-20170619183022-cd60e84ee657",
        "pkg:golang/github.com/mattn/go-colorable@v0.0.9",
        "pkg:golang/github.com/mattn/go-isatty@v0.0.3",
        "pkg:golang/github.com/mitchellh/go-homedir@v0.0.0-20161203194507-b8bc1bf76747",
        "pkg:golang/github.com/russross/blackfriday@v0.0.0-20180526075726-670777b536d3",
        "pkg:golang/github.com/shurcooL/sanitized_anchor_name@v0.0.0-20170918181015-86672fcb3f95",
        "pkg:golang/golang.org/x/crypto@v0.0.0-20190308221718-c2843e01d9a2",
        "pkg:golang/golang.org/x/net@v0.0.0-20191002035440-2ec189313ef0",
        "pkg:golang/golang.org/x/sys@v0.0.0-20220319134239-a9b59b0215f8",
        "pkg:golang/gopkg.in/yaml.v2@v2.0.0-20190319135612-7b8349ac747c"
      ]
    }
  ]
}
