{
  "bomFormat": "CycloneDX",
  "specVersion": "1.3",
  "version": 1,
  "metadata": {
    "tools": [
      {
        "vendor": "CycloneDX",
        "name": "cyclonedx-gomod",
        "version": "v0.0.0-unset",
        "hashes": [
          {
            "alg": "MD5",
            "content": "a35776fc9417e8071d3f1dcfa2f1dd19"
          },
          {
            "alg": "SHA-1",
            "content": "a19a8eed713eff5a2092e5283c201a146f19421d"
          },
          {
            "alg": "SHA-256",
            "content": "17b3b980b9a5d0f48ad52043dee5b31aff3ae6599a36bc94224dc7b6a46759ef"
          },
          {
            "alg": "SHA-512",
            "content": "9d4f06aab20cede94a1aedf11a300ae9de98871235c68c72e421cd6d45495910861b39e743ee0eceb11bbdcd2c9acc3312c19064cfe90177243fb43127fcfa46"
          }
        ]
      },
      {
        "vendor": "CycloneDX",
        "name": "Node.js module",
        "version": "3.0.3"
      },
      {
        "vendor": "cyclonedx",
        "name": "cyclonedx-php-composer",
        "version": "3.10.0"
      },
      {
        "vendor": "Fortress Information Security",
        "name": "GitHub Extractor",
        "version": "1.15.1"
      }
    ],
    "authors": [
      {
        "name": "Fortress Information Security",
        "email": "sales@fortressinfosec.com",
        "phone": "1-407-573-6800"
      }
    ],
    "timestamp": "2022-06-28T20:20:17Z",
    "component": {
      "type": "application",
      "name": "herokuish",
      "version": "v0.5.36",
      "group": "gliderlabs",
      "externalReferences": [
        {
          "url": "https://github.com/gliderlabs/herokuish.git",
          "type": "distribution"
        }
      ]
    }
  },
  "components": [
    {
      "type": "library",
      "bom-ref": "pkg:golang/github.com/kardianos/osext@v0.0.0-20190222173326-2bc1f35cddc0",
      "name": "github.com/kardianos/osext",
      "version": "v0.0.0-20190222173326-2bc1f35cddc0",
      "scope": "required",
      "hashes": [
        {
          "alg": "SHA-256",
          "content": "8904f0ffc1564ee73bba26927a95f0c9fde8e761da518715f93bbae92dc5e460"
        }
      ],
      "purl": "pkg:golang/github.com/kardianos/osext@v0.0.0-20190222173326-2bc1f35cddc0",
      "externalReferences": [
        {
          "url": "https://github.com/kardianos/osext",
          "type": "vcs"
        }
      ]
    },
    {
      "type": "library",
      "bom-ref": "pkg:golang/github.com/mitchellh/go-homedir@v1.1.0",
      "name": "github.com/mitchellh/go-homedir",
      "version": "v1.1.0",
      "scope": "required",
      "hashes": [
        {
          "alg": "SHA-256",
          "content": "96e905f738971710c53e4035becaf9ce97355ee3c39ffc059edab9986fb81346"
        }
      ],
      "purl": "pkg:golang/github.com/mitchellh/go-homedir@v1.1.0",
      "externalReferences": [
        {
          "url": "https://github.com/mitchellh/go-homedir",
          "type": "vcs"
        }
      ]
    },
    {
      "type": "library",
      "bom-ref": "pkg:golang/github.com/progrium/go-basher@v0.0.0-20190315062444-ad5de635edd1",
      "name": "github.com/progrium/go-basher",
      "version": "v0.0.0-20190315062444-ad5de635edd1",
      "scope": "required",
      "hashes": [
        {
          "alg": "SHA-256",
          "content": "a4d7f89080196c4e6e299d6d6401173af0dc3bbfb7d8f78c3a5025f3913c514e"
        }
      ],
      "purl": "pkg:golang/github.com/progrium/go-basher@v0.0.0-20190315062444-ad5de635edd1",
      "externalReferences": [
        {
          "url": "https://github.com/progrium/go-basher",
          "type": "vcs"
        }
      ]
    },
    {
      "type": "library",
      "bom-ref": "pkg:golang/gopkg.in/yaml.v2@v2.2.8",
      "name": "gopkg.in/yaml.v2",
      "version": "v2.2.8",
      "scope": "required",
      "hashes": [
        {
          "alg": "SHA-256",
          "content": "a1b37565a809494188d0493f2c19ae8f848d2cf7c89f2dcab0a168a7145d8f5d"
        }
      ],
      "purl": "pkg:golang/gopkg.in/yaml.v2@v2.2.8",
      "externalReferences": [
        {
          "url": "https://github.com/go-yaml/yaml",
          "type": "vcs"
        }
      ]
    },
    {
      "type": "library",
      "publisher": "Armin Ronacher",
      "name": "flask",
      "version": "2.1.2",
      "description": "A simple framework for building complex web applications.",
      "hashes": [
        {
          "alg": "MD5",
          "content": "07aede47b441c019aeebbeaed6a76215"
        },
        {
          "alg": "SHA-256",
          "content": "fad5b446feb0d6db6aec0c3184d16a8c1f6c3e464b511649c8918a9be100b4fe"
        }
      ],
      "licenses": [
        {
          "license": {
            "name": "BSD-3-Clause"
          }
        }
      ],
      "purl": "pkg:pypi/flask@2.1.2",
      "modified": false
    },
    {
      "type": "library",
      "publisher": "Franck Cuny",
      "name": "http",
      "version": "0.02",
      "description": "HTTP library for Python",
      "hashes": [
        {
          "alg": "MD5",
          "content": "9e4684a411a9cf371cbd0bc8658a803a"
        },
        {
          "alg": "SHA-256",
          "content": "071bc409f687535b6e31a94bced6a7773905abad8d2f236b406202b7283f682c"
        }
      ],
      "licenses": [
        {
          "license": {
            "name": "MIT"
          }
        }
      ],
      "purl": "pkg:pypi/http@0.02",
      "modified": false
    },
    {
      "type": "library",
      "publisher": "Django Software Foundation",
      "name": "django",
      "version": "4.0.5",
      "description": "A high-level Python web framework that encourages rapid development and clean, pragmatic design.",
      "hashes": [
        {
          "alg": "MD5",
          "content": "cfcf0c2efce4fa2f2701dc66248b7b35"
        },
        {
          "alg": "SHA-256",
          "content": "502ae42b6ab1b612c933fb50d5ff850facf858a4c212f76946ecd8ea5b3bf2d9"
        }
      ],
      "licenses": [
        {
          "license": {
            "name": "BSD-3-Clause"
          }
        }
      ],
      "purl": "pkg:pypi/django@4.0.5",
      "modified": false
    },
    {
      "type": "library",
      "publisher": "Michael Foord",
      "name": "unittest",
      "version": "0.0",
      "hashes": [
        {
          "alg": "MD5",
          "content": "2a416384f814604ed854d40f352f1191"
        },
        {
          "alg": "SHA-256",
          "content": "1b492484bea7f68abda5fcc61412e77b6a105e5842355d630f8b75f01add3555"
        }
      ],
      "purl": "pkg:pypi/unittest@0.0",
      "modified": false
    },
    {
      "type": "library",
      "bom-ref": "pkg:composer/cyclonedx/cyclonedx-library@1.5.0",
      "group": "cyclonedx",
      "name": "cyclonedx-library",
      "version": "1.5.0",
      "description": "Work with CycloneDX Software Bill-of-Materials (SBOM)",
      "licenses": [
        {
          "license": {
            "id": "Apache-2.0"
          }
        }
      ],
      "purl": "pkg:composer/cyclonedx/cyclonedx-library@1.5.0",
      "externalReferences": [
        {
          "url": "https://github.com/CycloneDX/cyclonedx-php-library.git",
          "type": "distribution",
          "comment": "As detected by composer's `getSourceUrls()` (type=git & reference=f41632e1d47001700ef93fa899e6dc49779aa784)"
        },
        {
          "url": "https://api.github.com/repos/CycloneDX/cyclonedx-php-library/zipball/f41632e1d47001700ef93fa899e6dc49779aa784",
          "type": "distribution",
          "comment": "As detected by composer's `getDistUrls()` (type=zip & reference=f41632e1d47001700ef93fa899e6dc49779aa784 & sha1=UNDEFINED)"
        },
        {
          "url": "https://github.com/CycloneDX/cyclonedx-php-library/",
          "type": "website",
          "comment": "As set via `homepage` in composer package definition."
        },
        {
          "url": "https://github.com/CycloneDX/cyclonedx-php-library/issues",
          "type": "issue-tracker",
          "comment": "As set via `support.issues` in composer package definition."
        },
        {
          "url": "https://github.com/CycloneDX/cyclonedx-php-library/tree/v1.5.0",
          "type": "distribution",
          "comment": "As set via `support.source` in composer package definition."
        }
      ]
    },
    {
      "type": "application",
      "bom-ref": "pkg:composer/cyclonedx/cyclonedx-php-composer@3.10.0",
      "group": "cyclonedx",
      "name": "cyclonedx-php-composer",
      "version": "3.10.0",
      "description": "Creates CycloneDX Software Bill-of-Materials (SBOM) from PHP Composer projects",
      "licenses": [
        {
          "license": {
            "id": "Apache-2.0"
          }
        }
      ],
      "purl": "pkg:composer/cyclonedx/cyclonedx-php-composer@3.10.0",
      "externalReferences": [
        {
          "url": "https://github.com/CycloneDX/cyclonedx-php-composer.git",
          "type": "distribution",
          "comment": "As detected by composer's `getSourceUrls()` (type=git & reference=341792df609deab6131ffa65f2f3b273f2e6128a)"
        },
        {
          "url": "https://api.github.com/repos/CycloneDX/cyclonedx-php-composer/zipball/341792df609deab6131ffa65f2f3b273f2e6128a",
          "type": "distribution",
          "comment": "As detected by composer's `getDistUrls()` (type=zip & reference=341792df609deab6131ffa65f2f3b273f2e6128a & sha1=UNDEFINED)"
        },
        {
          "url": "https://github.com/CycloneDX/cyclonedx-php-composer/",
          "type": "website",
          "comment": "As set via `homepage` in composer package definition."
        },
        {
          "url": "https://github.com/CycloneDX/cyclonedx-php-composer/issues",
          "type": "issue-tracker",
          "comment": "As set via `support.issues` in composer package definition."
        },
        {
          "url": "https://github.com/CycloneDX/cyclonedx-php-composer/tree/v3.10.0",
          "type": "distribution",
          "comment": "As set via `support.source` in composer package definition."
        }
      ]
    },
    {
      "type": "library",
      "bom-ref": "pkg:composer/package-url/packageurl-php@1.0.4",
      "group": "package-url",
      "name": "packageurl-php",
      "version": "1.0.4",
      "description": "A parser and builder based on the package url spec.",
      "licenses": [
        {
          "license": {
            "id": "MIT"
          }
        }
      ],
      "purl": "pkg:composer/package-url/packageurl-php@1.0.4",
      "externalReferences": [
        {
          "url": "https://github.com/package-url/packageurl-php.git",
          "type": "distribution",
          "comment": "As detected by composer's `getSourceUrls()` (type=git & reference=c45953babed516d27a0cf6c1a2d9f7e883ce214f)"
        },
        {
          "url": "https://api.github.com/repos/package-url/packageurl-php/zipball/c45953babed516d27a0cf6c1a2d9f7e883ce214f",
          "type": "distribution",
          "comment": "As detected by composer's `getDistUrls()` (type=zip & reference=c45953babed516d27a0cf6c1a2d9f7e883ce214f & sha1=UNDEFINED)"
        },
        {
          "url": "https://github.com/package-url/packageurl-php",
          "type": "website",
          "comment": "As set via `homepage` in composer package definition."
        },
        {
          "url": "https://github.com/package-url/packageurl-php/issues",
          "type": "issue-tracker",
          "comment": "As set via `support.issues` in composer package definition."
        },
        {
          "url": "https://github.com/package-url/packageurl-php/tree/1.0.4",
          "type": "distribution",
          "comment": "As set via `support.source` in composer package definition."
        }
      ]
    },
    {
      "type": "library",
      "bom-ref": "pkg:composer/phplang/scope-exit@1.0.0",
      "group": "phplang",
      "name": "scope-exit",
      "version": "1.0.0",
      "description": "Emulation of SCOPE_EXIT construct from C++",
      "licenses": [
        {
          "license": {
            "name": "BSD"
          }
        }
      ],
      "purl": "pkg:composer/phplang/scope-exit@1.0.0",
      "externalReferences": [
        {
          "url": "https://github.com/phplang/scope-exit.git",
          "type": "distribution",
          "comment": "As detected by composer's `getSourceUrls()` (type=git & reference=239b73abe89f9414aa85a7ca075ec9445629192b)"
        },
        {
          "url": "https://api.github.com/repos/phplang/scope-exit/zipball/239b73abe89f9414aa85a7ca075ec9445629192b",
          "type": "distribution",
          "comment": "As detected by composer's `getDistUrls()` (type=zip & reference=239b73abe89f9414aa85a7ca075ec9445629192b & sha1=UNDEFINED)"
        },
        {
          "url": "https://github.com/phplang/scope-exit",
          "type": "website",
          "comment": "As set via `homepage` in composer package definition."
        },
        {
          "url": "https://github.com/phplang/scope-exit/issues",
          "type": "issue-tracker",
          "comment": "As set via `support.issues` in composer package definition."
        },
        {
          "url": "https://github.com/phplang/scope-exit/tree/master",
          "type": "distribution",
          "comment": "As set via `support.source` in composer package definition."
        }
      ]
    },
    {
      "type": "library",
      "bom-ref": "pkg:composer/swaggest/json-diff@3.8.3",
      "group": "swaggest",
      "name": "json-diff",
      "version": "3.8.3",
      "description": "JSON diff/rearrange/patch/pointer library for PHP",
      "licenses": [
        {
          "license": {
            "id": "MIT"
          }
        }
      ],
      "purl": "pkg:composer/swaggest/json-diff@3.8.3",
      "externalReferences": [
        {
          "url": "https://github.com/swaggest/json-diff.git",
          "type": "distribution",
          "comment": "As detected by composer's `getSourceUrls()` (type=git & reference=bb3e3b4e9d842bb2e48f31ea568d0459968d1d42)"
        },
        {
          "url": "https://api.github.com/repos/swaggest/json-diff/zipball/bb3e3b4e9d842bb2e48f31ea568d0459968d1d42",
          "type": "distribution",
          "comment": "As detected by composer's `getDistUrls()` (type=zip & reference=bb3e3b4e9d842bb2e48f31ea568d0459968d1d42 & sha1=UNDEFINED)"
        },
        {
          "url": "https://github.com/swaggest/json-diff/issues",
          "type": "issue-tracker",
          "comment": "As set via `support.issues` in composer package definition."
        },
        {
          "url": "https://github.com/swaggest/json-diff/tree/v3.8.3",
          "type": "distribution",
          "comment": "As set via `support.source` in composer package definition."
        }
      ]
    },
    {
      "type": "library",
      "bom-ref": "pkg:composer/swaggest/json-schema@0.12.39",
      "group": "swaggest",
      "name": "json-schema",
      "version": "0.12.39",
      "description": "High definition PHP structures with JSON-schema based validation",
      "licenses": [
        {
          "license": {
            "id": "MIT"
          }
        }
      ],
      "purl": "pkg:composer/swaggest/json-schema@0.12.39",
      "externalReferences": [
        {
          "url": "https://github.com/swaggest/php-json-schema.git",
          "type": "distribution",
          "comment": "As detected by composer's `getSourceUrls()` (type=git & reference=193ba39cce1ffa2d55ddd5445315e945a63298a2)"
        },
        {
          "url": "https://api.github.com/repos/swaggest/php-json-schema/zipball/193ba39cce1ffa2d55ddd5445315e945a63298a2",
          "type": "distribution",
          "comment": "As detected by composer's `getDistUrls()` (type=zip & reference=193ba39cce1ffa2d55ddd5445315e945a63298a2 & sha1=UNDEFINED)"
        },
        {
          "url": "mailto:vearutop@gmail.com",
          "type": "other",
          "comment": "As set via `support.email` in composer package definition."
        },
        {
          "url": "https://github.com/swaggest/php-json-schema/issues",
          "type": "issue-tracker",
          "comment": "As set via `support.issues` in composer package definition."
        },
        {
          "url": "https://github.com/swaggest/php-json-schema/tree/v0.12.39",
          "type": "distribution",
          "comment": "As set via `support.source` in composer package definition."
        }
      ]
    },
    {
      "type": "library",
      "bom-ref": "pkg:composer/symfony/polyfill-mbstring@1.26.0",
      "group": "symfony",
      "name": "polyfill-mbstring",
      "version": "1.26.0",
      "description": "Symfony polyfill for the Mbstring extension",
      "licenses": [
        {
          "license": {
            "id": "MIT"
          }
        }
      ],
      "purl": "pkg:composer/symfony/polyfill-mbstring@1.26.0",
      "externalReferences": [
        {
          "url": "https://github.com/symfony/polyfill-mbstring.git",
          "type": "distribution",
          "comment": "As detected by composer's `getSourceUrls()` (type=git & reference=9344f9cb97f3b19424af1a21a3b0e75b0a7d8d7e)"
        },
        {
          "url": "https://api.github.com/repos/symfony/polyfill-mbstring/zipball/9344f9cb97f3b19424af1a21a3b0e75b0a7d8d7e",
          "type": "distribution",
          "comment": "As detected by composer's `getDistUrls()` (type=zip & reference=9344f9cb97f3b19424af1a21a3b0e75b0a7d8d7e & sha1=UNDEFINED)"
        },
        {
          "url": "https://symfony.com",
          "type": "website",
          "comment": "As set via `homepage` in composer package definition."
        },
        {
          "url": "https://github.com/symfony/polyfill-mbstring/tree/v1.26.0",
          "type": "distribution",
          "comment": "As set via `support.source` in composer package definition."
        },
        {
          "url": "https://symfony.com/sponsor",
          "type": "other",
          "comment": "As set via `funding` in composer package definition. (type=custom)"
        },
        {
          "url": "https://github.com/fabpot",
          "type": "other",
          "comment": "As set via `funding` in composer package definition. (type=github)"
        },
        {
          "url": "https://tidelift.com/funding/github/packagist/symfony/symfony",
          "type": "other",
          "comment": "As set via `funding` in composer package definition. (type=tidelift)"
        }
      ]
    }
  ],
  "dependencies": [
    {
      "ref": "pkg:golang/github.com/kardianos/osext@v0.0.0-20190222173326-2bc1f35cddc0"
    },
    {
      "ref": "pkg:golang/github.com/mitchellh/go-homedir@v1.1.0"
    },
    {
      "ref": "pkg:golang/github.com/progrium/go-basher@v0.0.0-20190315062444-ad5de635edd1"
    },
    {
      "ref": "pkg:golang/gopkg.in/yaml.v2@v2.2.8"
    },
    {
      "ref": "pkg:golang/herokuish@v0.0.0-20220606115930-580bc244bde5",
      "dependsOn": [
        "pkg:golang/github.com/kardianos/osext@v0.0.0-20190222173326-2bc1f35cddc0",
        "pkg:golang/github.com/mitchellh/go-homedir@v1.1.0",
        "pkg:golang/github.com/progrium/go-basher@v0.0.0-20190315062444-ad5de635edd1",
        "pkg:golang/gopkg.in/yaml.v2@v2.2.8"
      ]
    },
    {
      "ref": "pkg:composer/cyclonedx/cyclonedx-library@1.5.0",
      "dependsOn": [
        "pkg:composer/package-url/packageurl-php@1.0.4",
        "pkg:composer/swaggest/json-schema@0.12.39"
      ]
    },
    {
      "ref": "pkg:composer/cyclonedx/cyclonedx-php-composer@3.10.0",
      "dependsOn": [
        "pkg:composer/cyclonedx/cyclonedx-library@1.5.0",
        "pkg:composer/package-url/packageurl-php@1.0.4"
      ]
    },
    {
      "ref": "pkg:composer/package-url/packageurl-php@1.0.4"
    },
    {
      "ref": "pkg:composer/phplang/scope-exit@1.0.0"
    },
    {
      "ref": "pkg:composer/swaggest/json-diff@3.8.3"
    },
    {
      "ref": "pkg:composer/swaggest/json-schema@0.12.39",
      "dependsOn": [
        "pkg:composer/phplang/scope-exit@1.0.0",
        "pkg:composer/swaggest/json-diff@3.8.3",
        "pkg:composer/symfony/polyfill-mbstring@1.26.0"
      ]
    },
    {
      "ref": "pkg:composer/symfony/polyfill-mbstring@1.26.0"
    },
    {
      "ref": "pkg:composer/__root__@dev-master",
      "dependsOn": [
        "pkg:composer/cyclonedx/cyclonedx-php-composer@3.10.0"
      ]
    }
  ]
}
