{
  "bomFormat": "CycloneDX",
  "specVersion": "1.3",
  "version": 1,
  "metadata": {
    "tools": [
      {
        "vendor": "CycloneDX",
        "name": "Node.js module",
        "version": "3.0.3"
      },
      {
        "vendor": "Fortress Information Security",
        "name": "Github Extractor",
        "version": "1.15.1"
      }
    ],
    "authors": [
      {
        "name": "Fortress Information Security",
        "email": "sales@fortressinfosec.com",
        "phone": "1-407-573-6800"
      }
    ],
    "timestamp": "2022-06-01T21:00:00Z",
    "component": {
      "type": "application",
      "name": "earthenterprise",
      "version": "5.3.8-1731.15",
      "group": "google",
      "externalReferences": [
        {
          "url": "https://github.com/google/earthenterprise.git",
          "type": "distribution"
        },
        {
          "type": "website",
          "url": "null",
          "comment": "As set via `homepage` in Github API"
        }
      ]
    }
  },
  "components": [
    {
      "type": "library",
      "name": "getversion",
      "version": "1.0.2",
      "description": "Get the version number of any python module or package, reliably.",
      "hashes": [
        {
          "alg": "MD5",
          "content": "aace5e91ef6b1f2966b1ec9ebec8a256"
        },
        {
          "alg": "SHA-256",
          "content": "ef70a83f7d35933b3911910ddc95bd216d3b39c2273939f7b6729ab518eab22c"
        }
      ],
      "licenses": [
        {
          "license": {
            "name": "BSD 3-Clause"
          }
        }
      ],
      "purl": "pkg:pypi/getversion@1.0.2",
      "modified": false
    },
    {
      "type": "library",
      "publisher": "Gauge Team",
      "name": "getgauge",
      "version": "0.3.17",
      "description": "Enables Python support for Gauge",
      "hashes": [
        {
          "alg": "MD5",
          "content": "c137d117e02d3419c23f4f5ea2010a80"
        },
        {
          "alg": "SHA-256",
          "content": "82a36e2e1ed16a75d4c9b16d09235fdf7697c0e56590b4c98f589f08c97dfd3b"
        }
      ],
      "licenses": [
        {
          "license": {
            "name": "MIT"
          }
        }
      ],
      "purl": "pkg:pypi/getgauge@0.3.17",
      "modified": false
    },
    {
      "type": "library",
      "publisher": "Zope Foundation and Contributors",
      "name": "datetime",
      "version": "4.4",
      "description": "This package provides a DateTime data type, as known from Zope. Unless you need to communicate with Zope APIs, you're probably better off using Python's built-in datetime module.",
      "hashes": [
        {
          "alg": "MD5",
          "content": "ad1e82d858ed7c8cd2ea437b4cb695ed"
        },
        {
          "alg": "SHA-256",
          "content": "4fcca115ddb466a1104df08d5c2a2f5805d14ca317800e1bfcea8f3d69f66e57"
        }
      ],
      "licenses": [
        {
          "license": {
            "name": "ZPL 2.1"
          }
        }
      ],
      "purl": "pkg:pypi/datetime@4.4",
      "modified": false
    },
    {
      "type": "library",
      "publisher": "Python Packaging Authority",
      "name": "setuptools",
      "version": "62.3.2",
      "description": "Easily download, build, install, upgrade, and uninstall Python packages",
      "hashes": [
        {
          "alg": "MD5",
          "content": "8cec5ba9f875efdd8534000c3a0c9b24"
        },
        {
          "alg": "SHA-256",
          "content": "68e45d17c9281ba25dc0104eadd2647172b3472d9e01f911efa57965e8d51a36"
        }
      ],
      "purl": "pkg:pypi/setuptools@62.3.2",
      "modified": false
    },
    {
      "type": "library",
      "publisher": "Thomas Heller",
      "name": "ctypes",
      "version": "1.0.2",
      "description": "create and manipulate C data types in Python, call functions in shared libraries",
      "licenses": [
        {
          "license": {
            "name": "MIT License"
          }
        }
      ],
      "purl": "pkg:pypi/ctypes@1.0.2",
      "modified": false
    },
    {
      "type": "library",
      "publisher": "Vinay Sajip",
      "name": "logging",
      "version": "0.4.9.6",
      "description": "A logging module for Python",
      "hashes": [
        {
          "alg": "MD5",
          "content": "dc0a7ebc8b8970263911e11e7b7e1ca8"
        },
        {
          "alg": "SHA-256",
          "content": "26f6b50773f085042d301085bd1bf5d9f3735704db9f37c1ce6d8b85c38f2417"
        }
      ],
      "licenses": [
        {
          "license": {
            "name": "Copyright (C) 2001-2005 by Vinay Sajip. All Rights Reserved. See LICENSE for license."
          }
        }
      ],
      "purl": "pkg:pypi/logging@0.4.9.6",
      "modified": false
    },
    {
      "type": "library",
      "publisher": "See long_description for details",
      "name": "ssl",
      "version": "1.16",
      "description": "SSL wrapper for socket objects (2.3, 2.4, 2.5 compatible)",
      "hashes": [
        {
          "alg": "MD5",
          "content": "fb12d335d56f3c8c7c1fefc1c06c4bfb"
        },
        {
          "alg": "SHA-256",
          "content": "ac21156fee6aee9eb8d765bbb16f5f49492d81ff4b22f7b8fc001d2251120930"
        }
      ],
      "licenses": [
        {
          "license": {
            "name": "Python (MIT-like)"
          }
        }
      ],
      "purl": "pkg:pypi/ssl@1.16",
      "modified": false
    },
    {
      "type": "library",
      "publisher": "Thomas Waldmann",
      "name": "argparse",
      "version": "1.4.0",
      "description": "Python command-line parsing library",
      "hashes": [
        {
          "alg": "MD5",
          "content": "c37216a954c8669054e2b2c54853dd49"
        },
        {
          "alg": "SHA-256",
          "content": "c31647edb69fd3d465a847ea3157d37bed1f95f19760b11a47aa91c04b666314"
        }
      ],
      "licenses": [
        {
          "license": {
            "name": "Python Software Foundation License"
          }
        }
      ],
      "purl": "pkg:pypi/argparse@1.4.0",
      "modified": false
    },
    {
      "type": "library",
      "publisher": "Dima Dorfman",
      "name": "functools",
      "version": "0.5",
      "description": "Fast tools for functional programming",
      "hashes": [
        {
          "alg": "MD5",
          "content": "91111c28ee685a2f89f1a41e6f0ce8ea"
        },
        {
          "alg": "SHA-256",
          "content": "596ed8999dee419c0749a41bfdd82e4697e80ea27ee01c716003ef55be9a54c5"
        }
      ],
      "licenses": [
        {
          "license": {
            "name": "BSD"
          }
        }
      ],
      "purl": "pkg:pypi/functools@0.5",
      "modified": false
    },
    {
      "type": "library",
      "publisher": "Armin Ronacher",
      "name": "jinja2",
      "version": "3.1.2",
      "description": "A very fast and expressive template engine.",
      "hashes": [
        {
          "alg": "MD5",
          "content": "00ccdb509d3592cc2163b286177d75c8"
        },
        {
          "alg": "SHA-256",
          "content": "6088930bfe239f0e6710546ab9c19c9ef35e29792895fed6e6e31a023a182a61"
        }
      ],
      "licenses": [
        {
          "license": {
            "name": "BSD-3-Clause"
          }
        }
      ],
      "purl": "pkg:pypi/jinja2@3.1.2",
      "modified": false
    },
    {
      "type": "library",
      "publisher": "Ka-Ping Yee",
      "name": "uuid",
      "version": "1.30",
      "description": "UUID object and generation functions (Python 2.3 or higher)",
      "hashes": [
        {
          "alg": "MD5",
          "content": "639b310f1fe6800e4bf8aa1dd9333117"
        },
        {
          "alg": "SHA-256",
          "content": "1f87cc004ac5120466f36c5beae48b4c48cc411968eed0eaecd3da82aa96193f"
        }
      ],
      "purl": "pkg:pypi/uuid@1.30",
      "modified": false
    },
    {
      "type": "library",
      "publisher": "Federico Di Gregorio",
      "name": "psycopg2",
      "version": "2.9.3",
      "description": "psycopg2 - Python-PostgreSQL Database Adapter",
      "hashes": [
        {
          "alg": "MD5",
          "content": "b8980aa546210e354bf811fde1745d84"
        },
        {
          "alg": "SHA-256",
          "content": "06f32425949bd5fe8f625c49f17ebb9784e1e4fe928b7cce72edc36fb68e4c0c"
        }
      ],
      "licenses": [
        {
          "license": {
            "name": "LGPL with exceptions"
          }
        }
      ],
      "purl": "pkg:pypi/psycopg2@2.9.3",
      "modified": false
    },
    {
      "type": "library",
      "name": "io",
      "version": "0.0.1",
      "purl": "pkg:pypi/io@0.0.1",
      "modified": false
    },
    {
      "type": "library",
      "publisher": "Marcel Hellkamp",
      "name": "common",
      "version": "0.1.2",
      "description": "Common tools and data structures implemented in pure python.",
      "hashes": [
        {
          "alg": "MD5",
          "content": "a3fc474353300d0e1f60c21aca7dd47f"
        },
        {
          "alg": "SHA-256",
          "content": "3dfa982670abefc870043b239eaa0ecd860be7aa952b1931c1356b426ff8c76a"
        }
      ],
      "purl": "pkg:pypi/common@0.1.2",
      "modified": false
    },
    {
      "type": "library",
      "publisher": "Mario Vilas",
      "name": "google",
      "version": "3.0.0",
      "description": "Python bindings to the Google search engine.",
      "hashes": [
        {
          "alg": "MD5",
          "content": "30c719790d3e7e57e9482d108eda355c"
        },
        {
          "alg": "SHA-256",
          "content": "889cf695f84e4ae2c55fbc0cfdaf4c1e729417fa52ab1db0485202ba173e4935"
        }
      ],
      "purl": "pkg:pypi/google@3.0.0",
      "modified": false
    },
    {
      "type": "library",
      "publisher": "Christian Heimes",
      "name": "defusedxml",
      "version": "0.7.1",
      "description": "XML bomb protection for Python stdlib modules",
      "hashes": [
        {
          "alg": "MD5",
          "content": "f0f8408ec7056772fe2872cc31b55640"
        },
        {
          "alg": "SHA-256",
          "content": "a352e7e428770286cc899e2542b6cdaedb2b4953ff269a210103ec58f6198a61"
        }
      ],
      "licenses": [
        {
          "license": {
            "name": "PSFL"
          }
        }
      ],
      "purl": "pkg:pypi/defusedxml@0.7.1",
      "modified": false
    },
    {
      "type": "library",
      "publisher": "Greg Ward",
      "name": "distutils",
      "version": "1.0",
      "description": "Python Distribution Utilities",
      "purl": "pkg:pypi/distutils@1.0",
      "modified": false
    }
  ]
}
