{
  "bomFormat": "CycloneDX",
  "specVersion": "1.3",
  "version": 1,
  "metadata": {
    "tools": [
      {
        "vendor": "CycloneDX",
        "name": "cyclonedx-gomod",
        "version": "v0.0.0-unset",
        "hashes": [
          {
            "alg": "MD5",
            "content": "a35776fc9417e8071d3f1dcfa2f1dd19"
          },
          {
            "alg": "SHA-1",
            "content": "a19a8eed713eff5a2092e5283c201a146f19421d"
          },
          {
            "alg": "SHA-256",
            "content": "17b3b980b9a5d0f48ad52043dee5b31aff3ae6599a36bc94224dc7b6a46759ef"
          },
          {
            "alg": "SHA-512",
            "content": "9d4f06aab20cede94a1aedf11a300ae9de98871235c68c72e421cd6d45495910861b39e743ee0eceb11bbdcd2c9acc3312c19064cfe90177243fb43127fcfa46"
          }
        ]
      },
      {
        "vendor": "AppThreat",
        "name": "cdxgen",
        "version": "3.0.10"
      },
      {
        "vendor": "Fortress Information Security",
        "name": "Github Extractor",
        "version": "1.15.1"
      }
    ],
    "authors": [
      {
        "name": "Fortress Information Security",
        "email": "sales@fortressinfosec.com",
        "phone": "1-407-573-6800"
      }
    ],
    "timestamp": "2022-06-01T21:00:00Z",
    "component": {
      "type": "application",
      "name": "gopass",
      "version": "v1.14.3",
      "group": "gopasspw",
      "externalReferences": [
        {
          "url": "https://github.com/gopasspw/gopass.git",
          "type": "distribution"
        },
        {
          "type": "website",
          "url": "https://www.gopass.pw/",
          "comment": "As set via `homepage` in Github API"
        }
      ]
    }
  },
  "components": [
    {
      "type": "library",
      "bom-ref": "pkg:golang/bitbucket.org/creachadair/stringset@v0.0.10",
      "name": "bitbucket.org/creachadair/stringset",
      "version": "v0.0.10",
      "scope": "required",
      "hashes": [
        {
          "alg": "SHA-256",
          "content": "0d98e4479eec24633271935555b97edba6caeef5b59302d013aa9620258bb5e2"
        }
      ],
      "purl": "pkg:golang/bitbucket.org/creachadair/stringset@v0.0.10"
    },
    {
      "type": "library",
      "bom-ref": "pkg:golang/filippo.io/age@v1.0.0",
      "name": "filippo.io/age",
      "version": "v1.0.0",
      "scope": "required",
      "hashes": [
        {
          "alg": "SHA-256",
          "content": "57aab5e27d26a98537a8a16467aa0e685f685e778ebe24b7b9b5ec4950514b37"
        }
      ],
      "purl": "pkg:golang/filippo.io/age@v1.0.0"
    },
    {
      "type": "library",
      "bom-ref": "pkg:golang/filippo.io/edwards25519@v1.0.0-rc.1",
      "name": "filippo.io/edwards25519",
      "version": "v1.0.0-rc.1",
      "scope": "required",
      "hashes": [
        {
          "alg": "SHA-256",
          "content": "9b454e381db77eb5d9bc038ae38bac0a02d6bedb312283024c1189665a6619f5"
        }
      ],
      "purl": "pkg:golang/filippo.io/edwards25519@v1.0.0-rc.1"
    },
    {
      "type": "library",
      "bom-ref": "pkg:golang/github.com/ProtonMail/go-crypto@v0.0.0-20220407094043-a94812496cf5",
      "name": "github.com/ProtonMail/go-crypto",
      "version": "v0.0.0-20220407094043-a94812496cf5",
      "scope": "required",
      "hashes": [
        {
          "alg": "SHA-256",
          "content": "7121c46cb8f41997873359961bce2a127185a2334443cdd6edcc1a3d18dcc175"
        }
      ],
      "purl": "pkg:golang/github.com/ProtonMail/go-crypto@v0.0.0-20220407094043-a94812496cf5",
      "externalReferences": [
        {
          "url": "https://github.com/ProtonMail/go-crypto",
          "type": "vcs"
        }
      ]
    },
    {
      "type": "library",
      "bom-ref": "pkg:golang/github.com/atotto/clipboard@v0.1.4",
      "name": "github.com/atotto/clipboard",
      "version": "v0.1.4",
      "scope": "required",
      "hashes": [
        {
          "alg": "SHA-256",
          "content": "107d334959de64f4ae151d7506547d629a504d50db879fb5e8099c262e20d73e"
        }
      ],
      "purl": "pkg:golang/github.com/atotto/clipboard@v0.1.4",
      "externalReferences": [
        {
          "url": "https://github.com/atotto/clipboard",
          "type": "vcs"
        }
      ]
    },
    {
      "type": "library",
      "bom-ref": "pkg:golang/github.com/blang/semver/v4@v4.0.0",
      "name": "github.com/blang/semver/v4",
      "version": "v4.0.0",
      "scope": "required",
      "hashes": [
        {
          "alg": "SHA-256",
          "content": "d4f147144eb20824eff02d537b234d6ab0f39ed2e2ef0308e62fe9cea608b003"
        }
      ],
      "purl": "pkg:golang/github.com/blang/semver/v4@v4.0.0",
      "externalReferences": [
        {
          "url": "https://github.com/blang/semver",
          "type": "vcs"
        }
      ]
    },
    {
      "type": "library",
      "bom-ref": "pkg:golang/github.com/caspr-io/yamlpath@v0.0.0-20200722075116-502e8d113a9b",
      "name": "github.com/caspr-io/yamlpath",
      "version": "v0.0.0-20200722075116-502e8d113a9b",
      "scope": "required",
      "hashes": [
        {
          "alg": "SHA-256",
          "content": "d8adc1e979bbfe59e13ae81e181de7224e746d9f7386e26f5c211f52e2faf229"
        }
      ],
      "purl": "pkg:golang/github.com/caspr-io/yamlpath@v0.0.0-20200722075116-502e8d113a9b",
      "externalReferences": [
        {
          "url": "https://github.com/caspr-io/yamlpath",
          "type": "vcs"
        }
      ]
    },
    {
      "type": "library",
      "bom-ref": "pkg:golang/github.com/cenkalti/backoff@v2.2.1",
      "name": "github.com/cenkalti/backoff",
      "version": "v2.2.1",
      "scope": "required",
      "hashes": [
        {
          "alg": "SHA-256",
          "content": "e27c0de7c25a7959cc6a87c56abb452fe0986df98ecaa38e8ee0377452554d03"
        }
      ],
      "purl": "pkg:golang/github.com/cenkalti/backoff@v2.2.1",
      "externalReferences": [
        {
          "url": "https://github.com/cenkalti/backoff",
          "type": "vcs"
        }
      ]
    },
    {
      "type": "library",
      "bom-ref": "pkg:golang/github.com/chzyer/readline@v0.0.0-20180603132655-2972be24d48e",
      "name": "github.com/chzyer/readline",
      "version": "v0.0.0-20180603132655-2972be24d48e",
      "scope": "required",
      "hashes": [
        {
          "alg": "SHA-256",
          "content": "7d8e41392a72642a91a393a10ae0be5cdfabfdb04299ebae26d8f3f9b08d21ff"
        }
      ],
      "purl": "pkg:golang/github.com/chzyer/readline@v0.0.0-20180603132655-2972be24d48e",
      "externalReferences": [
        {
          "url": "https://github.com/chzyer/readline",
          "type": "vcs"
        }
      ]
    },
    {
      "type": "library",
      "bom-ref": "pkg:golang/github.com/cpuguy83/go-md2man/v2@v2.0.1",
      "name": "github.com/cpuguy83/go-md2man/v2",
      "version": "v2.0.1",
      "scope": "required",
      "hashes": [
        {
          "alg": "SHA-256",
          "content": "aff9b2116cd5f657ec335b452e00f2bb46ad16d2757d79f6eb52ca623ff70f15"
        }
      ],
      "purl": "pkg:golang/github.com/cpuguy83/go-md2man/v2@v2.0.1",
      "externalReferences": [
        {
          "url": "https://github.com/cpuguy83/go-md2man",
          "type": "vcs"
        }
      ]
    },
    {
      "type": "library",
      "bom-ref": "pkg:golang/github.com/davecgh/go-spew@v1.1.1",
      "name": "github.com/davecgh/go-spew",
      "version": "v1.1.1",
      "scope": "required",
      "hashes": [
        {
          "alg": "SHA-256",
          "content": "be3f63feed5baa7bc211f24ec1486d94e011aacdfeae41d8635de36164d4f7b7"
        }
      ],
      "purl": "pkg:golang/github.com/davecgh/go-spew@v1.1.1",
      "externalReferences": [
        {
          "url": "https://github.com/davecgh/go-spew",
          "type": "vcs"
        }
      ]
    },
    {
      "type": "library",
      "bom-ref": "pkg:golang/github.com/dustin/go-humanize@v1.0.0",
      "name": "github.com/dustin/go-humanize",
      "version": "v1.0.0",
      "scope": "required",
      "hashes": [
        {
          "alg": "SHA-256",
          "content": "5529d3b180a79451da336fe280ed61e97dc703bd637286d0bb17a6824ab8cd8a"
        }
      ],
      "purl": "pkg:golang/github.com/dustin/go-humanize@v1.0.0",
      "externalReferences": [
        {
          "url": "https://github.com/dustin/go-humanize",
          "type": "vcs"
        }
      ]
    },
    {
      "type": "library",
      "bom-ref": "pkg:golang/github.com/fatih/color@v1.13.0",
      "name": "github.com/fatih/color",
      "version": "v1.13.0",
      "scope": "required",
      "hashes": [
        {
          "alg": "SHA-256",
          "content": "f0b3987352983cf9b228cb8df105760cd45635b2e8e8b67488bb3cfa6947e77c"
        }
      ],
      "purl": "pkg:golang/github.com/fatih/color@v1.13.0",
      "externalReferences": [
        {
          "url": "https://github.com/fatih/color",
          "type": "vcs"
        }
      ]
    },
    {
      "type": "library",
      "bom-ref": "pkg:golang/github.com/godbus/dbus@v0.0.0-20190623212516-8a1682060722",
      "name": "github.com/godbus/dbus",
      "version": "v0.0.0-20190623212516-8a1682060722",
      "scope": "required",
      "hashes": [
        {
          "alg": "SHA-256",
          "content": "34d2998ae35777a969651ca814cfee86cb23e56f4fb350db8461f14f8f4f9bd2"
        }
      ],
      "purl": "pkg:golang/github.com/godbus/dbus@v0.0.0-20190623212516-8a1682060722",
      "externalReferences": [
        {
          "url": "https://github.com/godbus/dbus",
          "type": "vcs"
        }
      ]
    },
    {
      "type": "library",
      "bom-ref": "pkg:golang/github.com/gokyle/twofactor@v1.0.1",
      "name": "github.com/gokyle/twofactor",
      "version": "v1.0.1",
      "scope": "required",
      "hashes": [
        {
          "alg": "SHA-256",
          "content": "b9186fc744b81dbf3644f20300b9dfed0c5b98f2f8f4bcb26829090e95b1f849"
        }
      ],
      "purl": "pkg:golang/github.com/gokyle/twofactor@v1.0.1",
      "externalReferences": [
        {
          "url": "https://github.com/gokyle/twofactor",
          "type": "vcs"
        }
      ]
    },
    {
      "type": "library",
      "bom-ref": "pkg:golang/github.com/golang/protobuf@v1.5.2",
      "name": "github.com/golang/protobuf",
      "version": "v1.5.2",
      "scope": "required",
      "hashes": [
        {
          "alg": "SHA-256",
          "content": "44e3ca04d15f4203943227c7c8ff8a61bbe98db76814db3e68aec35e58e2d13c"
        }
      ],
      "purl": "pkg:golang/github.com/golang/protobuf@v1.5.2",
      "externalReferences": [
        {
          "url": "https://github.com/golang/protobuf",
          "type": "vcs"
        }
      ]
    },
    {
      "type": "library",
      "bom-ref": "pkg:golang/github.com/google/go-cmp@v0.5.8",
      "name": "github.com/google/go-cmp",
      "version": "v0.5.8",
      "scope": "required",
      "hashes": [
        {
          "alg": "SHA-256",
          "content": "7ba3fbab6964d4efaa2496f806d0905e52bcbd610ef15d597ae11d24d3aa6728"
        }
      ],
      "purl": "pkg:golang/github.com/google/go-cmp@v0.5.8",
      "externalReferences": [
        {
          "url": "https://github.com/google/go-cmp",
          "type": "vcs"
        }
      ]
    },
    {
      "type": "library",
      "bom-ref": "pkg:golang/github.com/google/go-github@v17.0.0",
      "name": "github.com/google/go-github",
      "version": "v17.0.0",
      "scope": "required",
      "hashes": [
        {
          "alg": "SHA-256",
          "content": "9d5bf02289bd2a8b783954016e7e375fc58cd2a61866eefb29c9bbe9a3d8ebd5"
        }
      ],
      "purl": "pkg:golang/github.com/google/go-github@v17.0.0",
      "externalReferences": [
        {
          "url": "https://github.com/google/go-github",
          "type": "vcs"
        }
      ]
    },
    {
      "type": "library",
      "bom-ref": "pkg:golang/github.com/google/go-github/v33@v33.0.0",
      "name": "github.com/google/go-github/v33",
      "version": "v33.0.0",
      "scope": "required",
      "hashes": [
        {
          "alg": "SHA-256",
          "content": "a807fdc8fd2a739e2e7d0c73c2ffaef47d2d8953a73c9c68d2523f257ab0dd93"
        }
      ],
      "purl": "pkg:golang/github.com/google/go-github/v33@v33.0.0",
      "externalReferences": [
        {
          "url": "https://github.com/google/go-github",
          "type": "vcs"
        }
      ]
    },
    {
      "type": "library",
      "bom-ref": "pkg:golang/github.com/google/go-querystring@v1.1.0",
      "name": "github.com/google/go-querystring",
      "version": "v1.1.0",
      "scope": "required",
      "hashes": [
        {
          "alg": "SHA-256",
          "content": "0270aba21ddfbf864181521fd48c2da2f8236b0fc688a268f0cf320ff7e1c89f"
        }
      ],
      "purl": "pkg:golang/github.com/google/go-querystring@v1.1.0",
      "externalReferences": [
        {
          "url": "https://github.com/google/go-querystring",
          "type": "vcs"
        }
      ]
    },
    {
      "type": "library",
      "bom-ref": "pkg:golang/github.com/hashicorp/errwrap@v1.1.0",
      "name": "github.com/hashicorp/errwrap",
      "version": "v1.1.0",
      "scope": "required",
      "hashes": [
        {
          "alg": "SHA-256",
          "content": "3b1ace7a1ef91145cc63c4c18da8367f35c6678d0b07a20ac38e587865036362"
        }
      ],
      "purl": "pkg:golang/github.com/hashicorp/errwrap@v1.1.0",
      "externalReferences": [
        {
          "url": "https://github.com/hashicorp/errwrap",
          "type": "vcs"
        }
      ]
    },
    {
      "type": "library",
      "bom-ref": "pkg:golang/github.com/hashicorp/go-multierror@v1.1.1",
      "name": "github.com/hashicorp/go-multierror",
      "version": "v1.1.1",
      "scope": "required",
      "hashes": [
        {
          "alg": "SHA-256",
          "content": "1f90e412d7fa097745a74374126e540b04295cc5a47bc200d3e943e3c6b0318a"
        }
      ],
      "purl": "pkg:golang/github.com/hashicorp/go-multierror@v1.1.1",
      "externalReferences": [
        {
          "url": "https://github.com/hashicorp/go-multierror",
          "type": "vcs"
        }
      ]
    },
    {
      "type": "library",
      "bom-ref": "pkg:golang/github.com/hashicorp/golang-lru@v0.5.4",
      "name": "github.com/hashicorp/golang-lru",
      "version": "v0.5.4",
      "scope": "required",
      "hashes": [
        {
          "alg": "SHA-256",
          "content": "6038eeb27dbd408fc36acda23bd3340479c86f13decae087b23316fa525fc937"
        }
      ],
      "purl": "pkg:golang/github.com/hashicorp/golang-lru@v0.5.4",
      "externalReferences": [
        {
          "url": "https://github.com/hashicorp/golang-lru",
          "type": "vcs"
        }
      ]
    },
    {
      "type": "library",
      "bom-ref": "pkg:golang/github.com/jsimonetti/pwscheme@v0.0.0-20220125093853-4d9895f5db73",
      "name": "github.com/jsimonetti/pwscheme",
      "version": "v0.0.0-20220125093853-4d9895f5db73",
      "scope": "required",
      "hashes": [
        {
          "alg": "SHA-256",
          "content": "6610b8427829b58686c79dfea61d518f1707f1f902a3305a63ef77e53357e22f"
        }
      ],
      "purl": "pkg:golang/github.com/jsimonetti/pwscheme@v0.0.0-20220125093853-4d9895f5db73",
      "externalReferences": [
        {
          "url": "https://github.com/jsimonetti/pwscheme",
          "type": "vcs"
        }
      ]
    },
    {
      "type": "library",
      "bom-ref": "pkg:golang/github.com/kballard/go-shellquote@v0.0.0-20180428030007-95032a82bc51",
      "name": "github.com/kballard/go-shellquote",
      "version": "v0.0.0-20180428030007-95032a82bc51",
      "scope": "required",
      "hashes": [
        {
          "alg": "SHA-256",
          "content": "67d9f61453545ecb217f024c060340d1153afe2ed655a01e82fdcfb6e2073ccb"
        }
      ],
      "purl": "pkg:golang/github.com/kballard/go-shellquote@v0.0.0-20180428030007-95032a82bc51",
      "externalReferences": [
        {
          "url": "https://github.com/kballard/go-shellquote",
          "type": "vcs"
        }
      ]
    },
    {
      "type": "library",
      "bom-ref": "pkg:golang/github.com/martinhoefling/goxkcdpwgen@v0.1.1",
      "name": "github.com/martinhoefling/goxkcdpwgen",
      "version": "v0.1.1",
      "scope": "required",
      "hashes": [
        {
          "alg": "SHA-256",
          "content": "7143e572cdf97f43bceb710752793693d46b8f6818d4993a2f3994b715a5c945"
        }
      ],
      "purl": "pkg:golang/github.com/martinhoefling/goxkcdpwgen@v0.1.1",
      "externalReferences": [
        {
          "url": "https://github.com/martinhoefling/goxkcdpwgen",
          "type": "vcs"
        }
      ]
    },
    {
      "type": "library",
      "bom-ref": "pkg:golang/github.com/mattn/go-colorable@v0.1.12",
      "name": "github.com/mattn/go-colorable",
      "version": "v0.1.12",
      "scope": "required",
      "hashes": [
        {
          "alg": "SHA-256",
          "content": "8c5f83bba0253c88ecd8189489094a397d2bb774ae8c7c4f9e4b0f2996da038d"
        }
      ],
      "purl": "pkg:golang/github.com/mattn/go-colorable@v0.1.12",
      "externalReferences": [
        {
          "url": "https://github.com/mattn/go-colorable",
          "type": "vcs"
        }
      ]
    },
    {
      "type": "library",
      "bom-ref": "pkg:golang/github.com/mattn/go-isatty@v0.0.14",
      "name": "github.com/mattn/go-isatty",
      "version": "v0.0.14",
      "scope": "required",
      "hashes": [
        {
          "alg": "SHA-256",
          "content": "c95b806b2b3a0477f18a38193f3c3edd996ee724202863f6fe17106c76fb4bd6"
        }
      ],
      "purl": "pkg:golang/github.com/mattn/go-isatty@v0.0.14",
      "externalReferences": [
        {
          "url": "https://github.com/mattn/go-isatty",
          "type": "vcs"
        }
      ]
    },
    {
      "type": "library",
      "bom-ref": "pkg:golang/github.com/mattn/go-tty@v0.0.4",
      "name": "github.com/mattn/go-tty",
      "version": "v0.0.4",
      "scope": "required",
      "hashes": [
        {
          "alg": "SHA-256",
          "content": "3558a495af57f0c37449002a098ce91b25efd2363b30d9771ce583d9d9257bb1"
        }
      ],
      "purl": "pkg:golang/github.com/mattn/go-tty@v0.0.4",
      "externalReferences": [
        {
          "url": "https://github.com/mattn/go-tty",
          "type": "vcs"
        }
      ]
    },
    {
      "type": "library",
      "bom-ref": "pkg:golang/github.com/mitchellh/go-homedir@v1.1.0",
      "name": "github.com/mitchellh/go-homedir",
      "version": "v1.1.0",
      "scope": "required",
      "hashes": [
        {
          "alg": "SHA-256",
          "content": "96e905f738971710c53e4035becaf9ce97355ee3c39ffc059edab9986fb81346"
        }
      ],
      "purl": "pkg:golang/github.com/mitchellh/go-homedir@v1.1.0",
      "externalReferences": [
        {
          "url": "https://github.com/mitchellh/go-homedir",
          "type": "vcs"
        }
      ]
    },
    {
      "type": "library",
      "bom-ref": "pkg:golang/github.com/mitchellh/go-ps@v1.0.0",
      "name": "github.com/mitchellh/go-ps",
      "version": "v1.0.0",
      "scope": "required",
      "hashes": [
        {
          "alg": "SHA-256",
          "content": "8ba6a6a55104178c10145f9b9187f062063e17fb9824392d9af2cf7fba888237"
        }
      ],
      "purl": "pkg:golang/github.com/mitchellh/go-ps@v1.0.0",
      "externalReferences": [
        {
          "url": "https://github.com/mitchellh/go-ps",
          "type": "vcs"
        }
      ]
    },
    {
      "type": "library",
      "bom-ref": "pkg:golang/github.com/muesli/crunchy@v0.4.0",
      "name": "github.com/muesli/crunchy",
      "version": "v0.4.0",
      "scope": "required",
      "hashes": [
        {
          "alg": "SHA-256",
          "content": "a9d8a697c832c142c706cced89201feabac4e84cae35ab0d299d74e2601a6a13"
        }
      ],
      "purl": "pkg:golang/github.com/muesli/crunchy@v0.4.0",
      "externalReferences": [
        {
          "url": "https://github.com/muesli/crunchy",
          "type": "vcs"
        }
      ]
    },
    {
      "type": "library",
      "bom-ref": "pkg:golang/github.com/nbutton23/zxcvbn-go@v0.0.0-20210217022336-fa2cb2858354",
      "name": "github.com/nbutton23/zxcvbn-go",
      "version": "v0.0.0-20210217022336-fa2cb2858354",
      "scope": "required",
      "hashes": [
        {
          "alg": "SHA-256",
          "content": "e24b8044ae98e85c5a36efc19d4d8e01a2c5f3a7935613f68634c1ea232f22d0"
        }
      ],
      "purl": "pkg:golang/github.com/nbutton23/zxcvbn-go@v0.0.0-20210217022336-fa2cb2858354",
      "externalReferences": [
        {
          "url": "https://github.com/nbutton23/zxcvbn-go",
          "type": "vcs"
        }
      ]
    },
    {
      "type": "library",
      "bom-ref": "pkg:golang/github.com/pmezard/go-difflib@v1.0.0",
      "name": "github.com/pmezard/go-difflib",
      "version": "v1.0.0",
      "scope": "required",
      "hashes": [
        {
          "alg": "SHA-256",
          "content": "e030700c4d0d1b24280476cb4183f04943e808c591e41133224fdfd6565b0103"
        }
      ],
      "purl": "pkg:golang/github.com/pmezard/go-difflib@v1.0.0",
      "externalReferences": [
        {
          "url": "https://github.com/pmezard/go-difflib",
          "type": "vcs"
        }
      ]
    },
    {
      "type": "library",
      "bom-ref": "pkg:golang/github.com/rs/zerolog@v1.26.1",
      "name": "github.com/rs/zerolog",
      "version": "v1.26.1",
      "scope": "required",
      "hashes": [
        {
          "alg": "SHA-256",
          "content": "fe2870c6a1fee33f14c7223bd30335cfdc82be459c7f3fdade68f8f24fd99e07"
        }
      ],
      "purl": "pkg:golang/github.com/rs/zerolog@v1.26.1",
      "externalReferences": [
        {
          "url": "https://github.com/rs/zerolog",
          "type": "vcs"
        }
      ]
    },
    {
      "type": "library",
      "bom-ref": "pkg:golang/github.com/russross/blackfriday/v2@v2.1.0",
      "name": "github.com/russross/blackfriday/v2",
      "version": "v2.1.0",
      "scope": "required",
      "hashes": [
        {
          "alg": "SHA-256",
          "content": "248387e79ff4716c8eba296bf7faa5ae6d0149795daa7ab032c7f7e4b77aee69"
        }
      ],
      "purl": "pkg:golang/github.com/russross/blackfriday/v2@v2.1.0",
      "externalReferences": [
        {
          "url": "https://github.com/russross/blackfriday",
          "type": "vcs"
        }
      ]
    },
    {
      "type": "library",
      "bom-ref": "pkg:golang/github.com/schollz/closestmatch@v0.0.0-20190308193919-1fbe626be92e",
      "name": "github.com/schollz/closestmatch",
      "version": "v0.0.0-20190308193919-1fbe626be92e",
      "scope": "required",
      "hashes": [
        {
          "alg": "SHA-256",
          "content": "1c550360ea54559d284d7799cb6039f4b91febd4ac385d372e0d46b08dd787da"
        }
      ],
      "purl": "pkg:golang/github.com/schollz/closestmatch@v0.0.0-20190308193919-1fbe626be92e",
      "externalReferences": [
        {
          "url": "https://github.com/schollz/closestmatch",
          "type": "vcs"
        }
      ]
    },
    {
      "type": "library",
      "bom-ref": "pkg:golang/github.com/skip2/go-qrcode@v0.0.0-20200617195104-da1b6568686e",
      "name": "github.com/skip2/go-qrcode",
      "version": "v0.0.0-20200617195104-da1b6568686e",
      "scope": "required",
      "hashes": [
        {
          "alg": "SHA-256",
          "content": "31133921371d7a52cada3d6fc19dc97b414a5427ea38ba79cceeadaea30b62cd"
        }
      ],
      "purl": "pkg:golang/github.com/skip2/go-qrcode@v0.0.0-20200617195104-da1b6568686e",
      "externalReferences": [
        {
          "url": "https://github.com/skip2/go-qrcode",
          "type": "vcs"
        }
      ]
    },
    {
      "type": "library",
      "bom-ref": "pkg:golang/github.com/stretchr/testify@v1.7.1",
      "name": "github.com/stretchr/testify",
      "version": "v1.7.1",
      "scope": "required",
      "hashes": [
        {
          "alg": "SHA-256",
          "content": "e5340ae7d5b9137bf4af676e1406fb3fde41ea111e3b21271d16bc3236123136"
        }
      ],
      "purl": "pkg:golang/github.com/stretchr/testify@v1.7.1",
      "externalReferences": [
        {
          "url": "https://github.com/stretchr/testify",
          "type": "vcs"
        }
      ]
    },
    {
      "type": "library",
      "bom-ref": "pkg:golang/github.com/twpayne/go-pinentry@v0.2.0",
      "name": "github.com/twpayne/go-pinentry",
      "version": "v0.2.0",
      "scope": "required",
      "hashes": [
        {
          "alg": "SHA-256",
          "content": "852e4d1098a2968a7dc4ff69057ff535876ecc394618c760d4a6a64c14eb396c"
        }
      ],
      "purl": "pkg:golang/github.com/twpayne/go-pinentry@v0.2.0",
      "externalReferences": [
        {
          "url": "https://github.com/twpayne/go-pinentry",
          "type": "vcs"
        }
      ]
    },
    {
      "type": "library",
      "bom-ref": "pkg:golang/github.com/urfave/cli/v2@v2.5.1",
      "name": "github.com/urfave/cli/v2",
      "version": "v2.5.1",
      "scope": "required",
      "hashes": [
        {
          "alg": "SHA-256",
          "content": "60ac1d932034c5307339a3f61b40d5c419c285e1c63fe63d55b280b382b512cb"
        }
      ],
      "purl": "pkg:golang/github.com/urfave/cli/v2@v2.5.1",
      "externalReferences": [
        {
          "url": "https://github.com/urfave/cli",
          "type": "vcs"
        }
      ]
    },
    {
      "type": "library",
      "bom-ref": "pkg:golang/github.com/xrash/smetrics@v0.0.0-20201216005158-039620a65673",
      "name": "github.com/xrash/smetrics",
      "version": "v0.0.0-20201216005158-039620a65673",
      "scope": "required",
      "hashes": [
        {
          "alg": "SHA-256",
          "content": "6c09fbff38b130609fc6b4537dda4dce3b4f62aafcb2684aa2ecbd9b155d18f5"
        }
      ],
      "purl": "pkg:golang/github.com/xrash/smetrics@v0.0.0-20201216005158-039620a65673",
      "externalReferences": [
        {
          "url": "https://github.com/xrash/smetrics",
          "type": "vcs"
        }
      ]
    },
    {
      "type": "library",
      "bom-ref": "pkg:golang/go.uber.org/atomic@v1.9.0",
      "name": "go.uber.org/atomic",
      "version": "v1.9.0",
      "scope": "required",
      "hashes": [
        {
          "alg": "SHA-256",
          "content": "102984f019ff5854d8c045bf6e9283dccf15b51ff34156dabc0a1a942d4f6321"
        }
      ],
      "purl": "pkg:golang/go.uber.org/atomic@v1.9.0"
    },
    {
      "type": "library",
      "bom-ref": "pkg:golang/go.uber.org/multierr@v1.8.0",
      "name": "go.uber.org/multierr",
      "version": "v1.8.0",
      "scope": "required",
      "hashes": [
        {
          "alg": "SHA-256",
          "content": "760e868cb92ee041fedb8f4d366a087221bd37f8d445b0c6fa91654e4873202f"
        }
      ],
      "purl": "pkg:golang/go.uber.org/multierr@v1.8.0"
    },
    {
      "type": "library",
      "bom-ref": "pkg:golang/golang.org/x/crypto@v0.0.0-20220411220226-7b82a4e95df4",
      "name": "golang.org/x/crypto",
      "version": "v0.0.0-20220411220226-7b82a4e95df4",
      "scope": "required",
      "hashes": [
        {
          "alg": "SHA-256",
          "content": "914843ee74c3a08ddf55df46e0e456adb579358d25884b3f260da9bf97fe6c10"
        }
      ],
      "purl": "pkg:golang/golang.org/x/crypto@v0.0.0-20220411220226-7b82a4e95df4"
    },
    {
      "type": "library",
      "bom-ref": "pkg:golang/golang.org/x/exp@v0.0.0-20220407100705-7b9b53b0aca4",
      "name": "golang.org/x/exp",
      "version": "v0.0.0-20220407100705-7b9b53b0aca4",
      "scope": "required",
      "hashes": [
        {
          "alg": "SHA-256",
          "content": "2b7c7ec94f9f6e8b77f31e5b41b53642a50057260b124b5d347d86c592e73375"
        }
      ],
      "purl": "pkg:golang/golang.org/x/exp@v0.0.0-20220407100705-7b9b53b0aca4"
    },
    {
      "type": "library",
      "bom-ref": "pkg:golang/golang.org/x/net@v0.0.0-20220412020605-290c469a71a5",
      "name": "golang.org/x/net",
      "version": "v0.0.0-20220412020605-290c469a71a5",
      "scope": "required",
      "hashes": [
        {
          "alg": "SHA-256",
          "content": "6d16f7f3ac2fac4fa804d745d5dfd787d990adf43879c6215b9a89e46bd3193e"
        }
      ],
      "purl": "pkg:golang/golang.org/x/net@v0.0.0-20220412020605-290c469a71a5"
    },
    {
      "type": "library",
      "bom-ref": "pkg:golang/golang.org/x/oauth2@v0.0.0-20220411215720-9780585627b5",
      "name": "golang.org/x/oauth2",
      "version": "v0.0.0-20220411215720-9780585627b5",
      "scope": "required",
      "hashes": [
        {
          "alg": "SHA-256",
          "content": "3929d659c39dfc2b56402d9c6120606d3489bf7722a9df2be78c92216db2dd11"
        }
      ],
      "purl": "pkg:golang/golang.org/x/oauth2@v0.0.0-20220411215720-9780585627b5"
    },
    {
      "type": "library",
      "bom-ref": "pkg:golang/golang.org/x/sys@v0.0.0-20220412071739-889880a91fd5",
      "name": "golang.org/x/sys",
      "version": "v0.0.0-20220412071739-889880a91fd5",
      "scope": "required",
      "hashes": [
        {
          "alg": "SHA-256",
          "content": "36e6f17ef4d1b8d6f8455cd6ac80c053352f4441f51e4083e098f2413486f40b"
        }
      ],
      "purl": "pkg:golang/golang.org/x/sys@v0.0.0-20220412071739-889880a91fd5"
    },
    {
      "type": "library",
      "bom-ref": "pkg:golang/golang.org/x/term@v0.0.0-20220411215600-e5f449aeb171",
      "name": "golang.org/x/term",
      "version": "v0.0.0-20220411215600-e5f449aeb171",
      "scope": "required",
      "hashes": [
        {
          "alg": "SHA-256",
          "content": "107d4379bf16649d3173458afff95e5075dc5fd68b1394b29aeb284e6319c9ef"
        }
      ],
      "purl": "pkg:golang/golang.org/x/term@v0.0.0-20220411215600-e5f449aeb171"
    },
    {
      "type": "library",
      "bom-ref": "pkg:golang/google.golang.org/appengine@v1.6.7",
      "name": "google.golang.org/appengine",
      "version": "v1.6.7",
      "scope": "required",
      "hashes": [
        {
          "alg": "SHA-256",
          "content": "159475ab47b1830c733f3a7f685f9571c1ab49fc5f3e9901aa320812adebbba7"
        }
      ],
      "purl": "pkg:golang/google.golang.org/appengine@v1.6.7"
    },
    {
      "type": "library",
      "bom-ref": "pkg:golang/google.golang.org/protobuf@v1.28.0",
      "name": "google.golang.org/protobuf",
      "version": "v1.28.0",
      "scope": "required",
      "hashes": [
        {
          "alg": "SHA-256",
          "content": "c38df289abfee9b5454c1405657d2bee2a5ef4943542c6cc807c1b0738ac70bc"
        }
      ],
      "purl": "pkg:golang/google.golang.org/protobuf@v1.28.0"
    },
    {
      "type": "library",
      "bom-ref": "pkg:golang/gopkg.in/yaml.v3@v3.0.0-20210107192922-496545a6307b",
      "name": "gopkg.in/yaml.v3",
      "version": "v3.0.0-20210107192922-496545a6307b",
      "scope": "required",
      "hashes": [
        {
          "alg": "SHA-256",
          "content": "87ca83a2d6843ee2404eb3265b4e0d0b083bbf6d9a1c7dbcc30a5ab9484af4ea"
        }
      ],
      "purl": "pkg:golang/gopkg.in/yaml.v3@v3.0.0-20210107192922-496545a6307b",
      "externalReferences": [
        {
          "url": "https://github.com/go-yaml/yaml",
          "type": "vcs"
        }
      ]
    },
    {
      "type": "library",
      "bom-ref": "pkg:golang/rsc.io/qr@v0.2.0",
      "name": "rsc.io/qr",
      "version": "v0.2.0",
      "scope": "required",
      "hashes": [
        {
          "alg": "SHA-256",
          "content": "eaf04b79ae7f3513154f3f15eba822a5e2f2719325ffe52516693c0efa90e966"
        }
      ],
      "purl": "pkg:golang/rsc.io/qr@v0.2.0"
    },
    {
      "type": "library",
      "bom-ref": "pkg:golang/github.com/gopasspw/gopass",
      "group": "github.com/gopasspw",
      "name": "gopass",
      "version": "",
      "description": "",
      "scope": "required",
      "purl": "pkg:golang/github.com/gopasspw/gopass"
    },
    {
      "type": "library",
      "bom-ref": "pkg:golang/github.com/google/go-github@v17.0.0+incompatible",
      "group": "github.com/google",
      "name": "go-github",
      "version": "v17.0.0+incompatible",
      "description": "",
      "scope": "optional",
      "hashes": [
        {
          "alg": "SHA-256",
          "content": "ccb80e2e2f7c1f77e27d99fee389beba65eb4b9da5a151200b6000a678a0ad54"
        }
      ],
      "purl": "pkg:golang/github.com/google/go-github@v17.0.0+incompatible"
    },
    {
      "type": "library",
      "bom-ref": "pkg:golang/github.com/cenkalti/backoff@v2.2.1+incompatible",
      "group": "github.com/cenkalti",
      "name": "backoff",
      "version": "v2.2.1+incompatible",
      "description": "",
      "scope": "required",
      "hashes": [
        {
          "alg": "SHA-256",
          "content": "f7445e470e86769c9fac76a45632ff4076a8c95e1a0d4555917409249dcd5d73"
        }
      ],
      "purl": "pkg:golang/github.com/cenkalti/backoff@v2.2.1+incompatible"
    }
  ],
  "dependencies": [
    {
      "ref": "pkg:golang/bitbucket.org/creachadair/stringset@v0.0.10"
    },
    {
      "ref": "pkg:golang/filippo.io/age@v1.0.0",
      "dependsOn": [
        "pkg:golang/filippo.io/edwards25519@v1.0.0-rc.1",
        "pkg:golang/golang.org/x/crypto@v0.0.0-20220411220226-7b82a4e95df4",
        "pkg:golang/golang.org/x/sys@v0.0.0-20220412071739-889880a91fd5",
        "pkg:golang/golang.org/x/term@v0.0.0-20220411215600-e5f449aeb171"
      ]
    },
    {
      "ref": "pkg:golang/filippo.io/edwards25519@v1.0.0-rc.1"
    },
    {
      "ref": "pkg:golang/github.com/ProtonMail/go-crypto@v0.0.0-20220407094043-a94812496cf5",
      "dependsOn": [
        "pkg:golang/golang.org/x/crypto@v0.0.0-20220411220226-7b82a4e95df4"
      ]
    },
    {
      "ref": "pkg:golang/github.com/atotto/clipboard@v0.1.4"
    },
    {
      "ref": "pkg:golang/github.com/blang/semver/v4@v4.0.0"
    },
    {
      "ref": "pkg:golang/github.com/caspr-io/yamlpath@v0.0.0-20200722075116-502e8d113a9b",
      "dependsOn": [
        "pkg:golang/gopkg.in/yaml.v3@v3.0.0-20210107192922-496545a6307b"
      ]
    },
    {
      "ref": "pkg:golang/github.com/cenkalti/backoff@v2.2.1"
    },
    {
      "ref": "pkg:golang/github.com/chzyer/readline@v0.0.0-20180603132655-2972be24d48e"
    },
    {
      "ref": "pkg:golang/github.com/cpuguy83/go-md2man/v2@v2.0.1",
      "dependsOn": [
        "pkg:golang/github.com/russross/blackfriday/v2@v2.1.0"
      ]
    },
    {
      "ref": "pkg:golang/github.com/davecgh/go-spew@v1.1.1"
    },
    {
      "ref": "pkg:golang/github.com/dustin/go-humanize@v1.0.0"
    },
    {
      "ref": "pkg:golang/github.com/fatih/color@v1.13.0",
      "dependsOn": [
        "pkg:golang/github.com/mattn/go-colorable@v0.1.12",
        "pkg:golang/github.com/mattn/go-isatty@v0.0.14"
      ]
    },
    {
      "ref": "pkg:golang/github.com/godbus/dbus@v0.0.0-20190623212516-8a1682060722"
    },
    {
      "ref": "pkg:golang/github.com/gokyle/twofactor@v1.0.1"
    },
    {
      "ref": "pkg:golang/github.com/golang/protobuf@v1.5.2",
      "dependsOn": [
        "pkg:golang/github.com/google/go-cmp@v0.5.8",
        "pkg:golang/google.golang.org/protobuf@v1.28.0"
      ]
    },
    {
      "ref": "pkg:golang/github.com/google/go-cmp@v0.5.8"
    },
    {
      "ref": "pkg:golang/github.com/google/go-github@v17.0.0"
    },
    {
      "ref": "pkg:golang/github.com/google/go-github/v33@v33.0.0",
      "dependsOn": [
        "pkg:golang/github.com/golang/protobuf@v1.5.2",
        "pkg:golang/github.com/google/go-querystring@v1.1.0",
        "pkg:golang/golang.org/x/crypto@v0.0.0-20220411220226-7b82a4e95df4",
        "pkg:golang/golang.org/x/net@v0.0.0-20220412020605-290c469a71a5",
        "pkg:golang/golang.org/x/oauth2@v0.0.0-20220411215720-9780585627b5",
        "pkg:golang/google.golang.org/appengine@v1.6.7"
      ]
    },
    {
      "ref": "pkg:golang/github.com/google/go-querystring@v1.1.0",
      "dependsOn": [
        "pkg:golang/github.com/google/go-cmp@v0.5.8"
      ]
    },
    {
      "ref": "pkg:golang/github.com/hashicorp/errwrap@v1.1.0"
    },
    {
      "ref": "pkg:golang/github.com/hashicorp/go-multierror@v1.1.1",
      "dependsOn": [
        "pkg:golang/github.com/hashicorp/errwrap@v1.1.0"
      ]
    },
    {
      "ref": "pkg:golang/github.com/hashicorp/golang-lru@v0.5.4"
    },
    {
      "ref": "pkg:golang/github.com/jsimonetti/pwscheme@v0.0.0-20220125093853-4d9895f5db73"
    },
    {
      "ref": "pkg:golang/github.com/kballard/go-shellquote@v0.0.0-20180428030007-95032a82bc51"
    },
    {
      "ref": "pkg:golang/github.com/martinhoefling/goxkcdpwgen@v0.1.1",
      "dependsOn": [
        "pkg:golang/github.com/davecgh/go-spew@v1.1.1",
        "pkg:golang/github.com/pmezard/go-difflib@v1.0.0",
        "pkg:golang/github.com/stretchr/testify@v1.7.1",
        "pkg:golang/gopkg.in/yaml.v3@v3.0.0-20210107192922-496545a6307b"
      ]
    },
    {
      "ref": "pkg:golang/github.com/mattn/go-colorable@v0.1.12",
      "dependsOn": [
        "pkg:golang/github.com/mattn/go-isatty@v0.0.14",
        "pkg:golang/golang.org/x/sys@v0.0.0-20220412071739-889880a91fd5"
      ]
    },
    {
      "ref": "pkg:golang/github.com/mattn/go-isatty@v0.0.14",
      "dependsOn": [
        "pkg:golang/golang.org/x/sys@v0.0.0-20220412071739-889880a91fd5"
      ]
    },
    {
      "ref": "pkg:golang/github.com/mattn/go-tty@v0.0.4",
      "dependsOn": [
        "pkg:golang/github.com/mattn/go-colorable@v0.1.12",
        "pkg:golang/github.com/mattn/go-isatty@v0.0.14",
        "pkg:golang/golang.org/x/sys@v0.0.0-20220412071739-889880a91fd5"
      ]
    },
    {
      "ref": "pkg:golang/github.com/mitchellh/go-homedir@v1.1.0"
    },
    {
      "ref": "pkg:golang/github.com/mitchellh/go-ps@v1.0.0"
    },
    {
      "ref": "pkg:golang/github.com/muesli/crunchy@v0.4.0",
      "dependsOn": [
        "pkg:golang/github.com/xrash/smetrics@v0.0.0-20201216005158-039620a65673"
      ]
    },
    {
      "ref": "pkg:golang/github.com/nbutton23/zxcvbn-go@v0.0.0-20210217022336-fa2cb2858354",
      "dependsOn": [
        "pkg:golang/github.com/davecgh/go-spew@v1.1.1",
        "pkg:golang/github.com/pmezard/go-difflib@v1.0.0",
        "pkg:golang/github.com/stretchr/testify@v1.7.1"
      ]
    },
    {
      "ref": "pkg:golang/github.com/pmezard/go-difflib@v1.0.0"
    },
    {
      "ref": "pkg:golang/github.com/rs/zerolog@v1.26.1",
      "dependsOn": [
        "pkg:golang/golang.org/x/crypto@v0.0.0-20220411220226-7b82a4e95df4"
      ]
    },
    {
      "ref": "pkg:golang/github.com/russross/blackfriday/v2@v2.1.0"
    },
    {
      "ref": "pkg:golang/github.com/schollz/closestmatch@v0.0.0-20190308193919-1fbe626be92e"
    },
    {
      "ref": "pkg:golang/github.com/skip2/go-qrcode@v0.0.0-20200617195104-da1b6568686e"
    },
    {
      "ref": "pkg:golang/github.com/stretchr/testify@v1.7.1",
      "dependsOn": [
        "pkg:golang/github.com/davecgh/go-spew@v1.1.1",
        "pkg:golang/github.com/pmezard/go-difflib@v1.0.0",
        "pkg:golang/gopkg.in/yaml.v3@v3.0.0-20210107192922-496545a6307b"
      ]
    },
    {
      "ref": "pkg:golang/github.com/twpayne/go-pinentry@v0.2.0",
      "dependsOn": [
        "pkg:golang/github.com/davecgh/go-spew@v1.1.1",
        "pkg:golang/github.com/pmezard/go-difflib@v1.0.0",
        "pkg:golang/github.com/rs/zerolog@v1.26.1",
        "pkg:golang/github.com/stretchr/testify@v1.7.1",
        "pkg:golang/go.uber.org/atomic@v1.9.0",
        "pkg:golang/go.uber.org/multierr@v1.8.0",
        "pkg:golang/gopkg.in/yaml.v3@v3.0.0-20210107192922-496545a6307b"
      ]
    },
    {
      "ref": "pkg:golang/github.com/urfave/cli/v2@v2.5.1",
      "dependsOn": [
        "pkg:golang/github.com/cpuguy83/go-md2man/v2@v2.0.1",
        "pkg:golang/github.com/russross/blackfriday/v2@v2.1.0"
      ]
    },
    {
      "ref": "pkg:golang/github.com/xrash/smetrics@v0.0.0-20201216005158-039620a65673"
    },
    {
      "ref": "pkg:golang/go.uber.org/atomic@v1.9.0",
      "dependsOn": [
        "pkg:golang/github.com/davecgh/go-spew@v1.1.1",
        "pkg:golang/github.com/stretchr/testify@v1.7.1"
      ]
    },
    {
      "ref": "pkg:golang/go.uber.org/multierr@v1.8.0",
      "dependsOn": [
        "pkg:golang/github.com/stretchr/testify@v1.7.1",
        "pkg:golang/go.uber.org/atomic@v1.9.0",
        "pkg:golang/gopkg.in/yaml.v3@v3.0.0-20210107192922-496545a6307b"
      ]
    },
    {
      "ref": "pkg:golang/golang.org/x/crypto@v0.0.0-20220411220226-7b82a4e95df4",
      "dependsOn": [
        "pkg:golang/golang.org/x/net@v0.0.0-20220412020605-290c469a71a5",
        "pkg:golang/golang.org/x/sys@v0.0.0-20220412071739-889880a91fd5",
        "pkg:golang/golang.org/x/term@v0.0.0-20220411215600-e5f449aeb171"
      ]
    },
    {
      "ref": "pkg:golang/golang.org/x/exp@v0.0.0-20220407100705-7b9b53b0aca4",
      "dependsOn": [
        "pkg:golang/golang.org/x/sys@v0.0.0-20220412071739-889880a91fd5"
      ]
    },
    {
      "ref": "pkg:golang/golang.org/x/net@v0.0.0-20220412020605-290c469a71a5",
      "dependsOn": [
        "pkg:golang/golang.org/x/sys@v0.0.0-20220412071739-889880a91fd5",
        "pkg:golang/golang.org/x/term@v0.0.0-20220411215600-e5f449aeb171"
      ]
    },
    {
      "ref": "pkg:golang/golang.org/x/oauth2@v0.0.0-20220411215720-9780585627b5",
      "dependsOn": [
        "pkg:golang/golang.org/x/net@v0.0.0-20220412020605-290c469a71a5",
        "pkg:golang/google.golang.org/appengine@v1.6.7"
      ]
    },
    {
      "ref": "pkg:golang/golang.org/x/sys@v0.0.0-20220412071739-889880a91fd5"
    },
    {
      "ref": "pkg:golang/golang.org/x/term@v0.0.0-20220411215600-e5f449aeb171",
      "dependsOn": [
        "pkg:golang/golang.org/x/sys@v0.0.0-20220412071739-889880a91fd5"
      ]
    },
    {
      "ref": "pkg:golang/google.golang.org/appengine@v1.6.7",
      "dependsOn": [
        "pkg:golang/github.com/golang/protobuf@v1.5.2",
        "pkg:golang/golang.org/x/net@v0.0.0-20220412020605-290c469a71a5"
      ]
    },
    {
      "ref": "pkg:golang/google.golang.org/protobuf@v1.28.0",
      "dependsOn": [
        "pkg:golang/github.com/golang/protobuf@v1.5.2",
        "pkg:golang/github.com/google/go-cmp@v0.5.8"
      ]
    },
    {
      "ref": "pkg:golang/gopkg.in/yaml.v3@v3.0.0-20210107192922-496545a6307b"
    },
    {
      "ref": "pkg:golang/rsc.io/qr@v0.2.0"
    },
    {
      "ref": "pkg:golang/github.com/gopasspw/gopass@v0.0.0-20220503121120-0b531be7b6f4",
      "dependsOn": [
        "pkg:golang/bitbucket.org/creachadair/stringset@v0.0.10",
        "pkg:golang/filippo.io/age@v1.0.0",
        "pkg:golang/filippo.io/edwards25519@v1.0.0-rc.1",
        "pkg:golang/github.com/ProtonMail/go-crypto@v0.0.0-20220407094043-a94812496cf5",
        "pkg:golang/github.com/atotto/clipboard@v0.1.4",
        "pkg:golang/github.com/blang/semver/v4@v4.0.0",
        "pkg:golang/github.com/caspr-io/yamlpath@v0.0.0-20200722075116-502e8d113a9b",
        "pkg:golang/github.com/cenkalti/backoff@v2.2.1",
        "pkg:golang/github.com/chzyer/readline@v0.0.0-20180603132655-2972be24d48e",
        "pkg:golang/github.com/cpuguy83/go-md2man/v2@v2.0.1",
        "pkg:golang/github.com/davecgh/go-spew@v1.1.1",
        "pkg:golang/github.com/dustin/go-humanize@v1.0.0",
        "pkg:golang/github.com/fatih/color@v1.13.0",
        "pkg:golang/github.com/godbus/dbus@v0.0.0-20190623212516-8a1682060722",
        "pkg:golang/github.com/gokyle/twofactor@v1.0.1",
        "pkg:golang/github.com/golang/protobuf@v1.5.2",
        "pkg:golang/github.com/google/go-cmp@v0.5.8",
        "pkg:golang/github.com/google/go-github@v17.0.0",
        "pkg:golang/github.com/google/go-github/v33@v33.0.0",
        "pkg:golang/github.com/google/go-querystring@v1.1.0",
        "pkg:golang/github.com/hashicorp/errwrap@v1.1.0",
        "pkg:golang/github.com/hashicorp/go-multierror@v1.1.1",
        "pkg:golang/github.com/hashicorp/golang-lru@v0.5.4",
        "pkg:golang/github.com/jsimonetti/pwscheme@v0.0.0-20220125093853-4d9895f5db73",
        "pkg:golang/github.com/kballard/go-shellquote@v0.0.0-20180428030007-95032a82bc51",
        "pkg:golang/github.com/martinhoefling/goxkcdpwgen@v0.1.1",
        "pkg:golang/github.com/mattn/go-colorable@v0.1.12",
        "pkg:golang/github.com/mattn/go-isatty@v0.0.14",
        "pkg:golang/github.com/mattn/go-tty@v0.0.4",
        "pkg:golang/github.com/mitchellh/go-homedir@v1.1.0",
        "pkg:golang/github.com/mitchellh/go-ps@v1.0.0",
        "pkg:golang/github.com/muesli/crunchy@v0.4.0",
        "pkg:golang/github.com/nbutton23/zxcvbn-go@v0.0.0-20210217022336-fa2cb2858354",
        "pkg:golang/github.com/pmezard/go-difflib@v1.0.0",
        "pkg:golang/github.com/rs/zerolog@v1.26.1",
        "pkg:golang/github.com/russross/blackfriday/v2@v2.1.0",
        "pkg:golang/github.com/schollz/closestmatch@v0.0.0-20190308193919-1fbe626be92e",
        "pkg:golang/github.com/skip2/go-qrcode@v0.0.0-20200617195104-da1b6568686e",
        "pkg:golang/github.com/stretchr/testify@v1.7.1",
        "pkg:golang/github.com/twpayne/go-pinentry@v0.2.0",
        "pkg:golang/github.com/urfave/cli/v2@v2.5.1",
        "pkg:golang/github.com/xrash/smetrics@v0.0.0-20201216005158-039620a65673",
        "pkg:golang/go.uber.org/atomic@v1.9.0",
        "pkg:golang/go.uber.org/multierr@v1.8.0",
        "pkg:golang/golang.org/x/crypto@v0.0.0-20220411220226-7b82a4e95df4",
        "pkg:golang/golang.org/x/exp@v0.0.0-20220407100705-7b9b53b0aca4",
        "pkg:golang/golang.org/x/net@v0.0.0-20220412020605-290c469a71a5",
        "pkg:golang/golang.org/x/oauth2@v0.0.0-20220411215720-9780585627b5",
        "pkg:golang/golang.org/x/sys@v0.0.0-20220412071739-889880a91fd5",
        "pkg:golang/golang.org/x/term@v0.0.0-20220411215600-e5f449aeb171",
        "pkg:golang/google.golang.org/appengine@v1.6.7",
        "pkg:golang/google.golang.org/protobuf@v1.28.0",
        "pkg:golang/gopkg.in/yaml.v3@v3.0.0-20210107192922-496545a6307b",
        "pkg:golang/rsc.io/qr@v0.2.0"
      ]
    }
  ]
}
