{
  "bomFormat": "CycloneDX",
  "specVersion": "1.3",
  "version": 1,
  "metadata": {
    "tools": [
      {
        "vendor": "CycloneDX",
        "name": "cyclonedx-gomod",
        "version": "v0.0.0-unset",
        "hashes": [
          {
            "alg": "MD5",
            "content": "a35776fc9417e8071d3f1dcfa2f1dd19"
          },
          {
            "alg": "SHA-1",
            "content": "a19a8eed713eff5a2092e5283c201a146f19421d"
          },
          {
            "alg": "SHA-256",
            "content": "17b3b980b9a5d0f48ad52043dee5b31aff3ae6599a36bc94224dc7b6a46759ef"
          },
          {
            "alg": "SHA-512",
            "content": "9d4f06aab20cede94a1aedf11a300ae9de98871235c68c72e421cd6d45495910861b39e743ee0eceb11bbdcd2c9acc3312c19064cfe90177243fb43127fcfa46"
          }
        ]
      },
      {
        "vendor": "AppThreat",
        "name": "cdxgen",
        "version": "3.0.10"
      },
      {
        "vendor": "Fortress Information Security",
        "name": "Github Extractor",
        "version": "1.15.1"
      }
    ],
    "authors": [
      {
        "name": "Fortress Information Security",
        "email": "sales@fortressinfosec.com",
        "phone": "1-407-573-6800"
      }
    ],
    "timestamp": "2022-06-01T21:00:00Z",
    "component": {
      "type": "application",
      "name": "gotenberg",
      "version": "v7.5.3",
      "group": "gotenberg",
      "externalReferences": [
        {
          "url": "https://github.com/gotenberg/gotenberg.git",
          "type": "distribution"
        },
        {
          "type": "website",
          "url": "https://gotenberg.dev",
          "comment": "As set via `homepage` in Github API"
        }
      ]
    }
  },
  "components": [
    {
      "type": "library",
      "bom-ref": "pkg:golang/github.com/alexliesenfeld/health@v0.6.0",
      "name": "github.com/alexliesenfeld/health",
      "version": "v0.6.0",
      "scope": "required",
      "hashes": [
        {
          "alg": "SHA-256",
          "content": "1d10530a0c9b3527b896a18493b9d4f367376e3c21f56fb76f8e96e94bc3e024"
        }
      ],
      "purl": "pkg:golang/github.com/alexliesenfeld/health@v0.6.0",
      "externalReferences": [
        {
          "url": "https://github.com/alexliesenfeld/health",
          "type": "vcs"
        }
      ]
    },
    {
      "type": "library",
      "bom-ref": "pkg:golang/github.com/andybalholm/brotli@v1.0.4",
      "name": "github.com/andybalholm/brotli",
      "version": "v1.0.4",
      "scope": "required",
      "hashes": [
        {
          "alg": "SHA-256",
          "content": "57b0dd5de26d66c71aa9f36e01d491b91173ba22a51d20bf661df397da98dc96"
        }
      ],
      "purl": "pkg:golang/github.com/andybalholm/brotli@v1.0.4",
      "externalReferences": [
        {
          "url": "https://github.com/andybalholm/brotli",
          "type": "vcs"
        }
      ]
    },
    {
      "type": "library",
      "bom-ref": "pkg:golang/github.com/aymerick/douceur@v0.2.0",
      "name": "github.com/aymerick/douceur",
      "version": "v0.2.0",
      "scope": "required",
      "hashes": [
        {
          "alg": "SHA-256",
          "content": "32ffa601e1f543e9fd16bfa8c9a98e94091434f58f940f0f3c6474400698b8f9"
        }
      ],
      "purl": "pkg:golang/github.com/aymerick/douceur@v0.2.0",
      "externalReferences": [
        {
          "url": "https://github.com/aymerick/douceur",
          "type": "vcs"
        }
      ]
    },
    {
      "type": "library",
      "bom-ref": "pkg:golang/github.com/beorn7/perks@v1.0.1",
      "name": "github.com/beorn7/perks",
      "version": "v1.0.1",
      "scope": "required",
      "hashes": [
        {
          "alg": "SHA-256",
          "content": "5656ca2a735f57c6c9cdeaa86b870e2aa3ba6d8af75a0299c4ef19d7afa1b0e3"
        }
      ],
      "purl": "pkg:golang/github.com/beorn7/perks@v1.0.1",
      "externalReferences": [
        {
          "url": "https://github.com/beorn7/perks",
          "type": "vcs"
        }
      ]
    },
    {
      "type": "library",
      "bom-ref": "pkg:golang/github.com/cespare/xxhash/v2@v2.1.2",
      "name": "github.com/cespare/xxhash/v2",
      "version": "v2.1.2",
      "scope": "required",
      "hashes": [
        {
          "alg": "SHA-256",
          "content": "6115e129f4c36aebb86a3320d533e014ee639e50b61c26e62d731c4c6e5c6d81"
        }
      ],
      "purl": "pkg:golang/github.com/cespare/xxhash/v2@v2.1.2",
      "externalReferences": [
        {
          "url": "https://github.com/cespare/xxhash",
          "type": "vcs"
        }
      ]
    },
    {
      "type": "library",
      "bom-ref": "pkg:golang/github.com/chromedp/cdproto@v0.0.0-20220321060548-7bc2623472b3",
      "name": "github.com/chromedp/cdproto",
      "version": "v0.0.0-20220321060548-7bc2623472b3",
      "scope": "required",
      "hashes": [
        {
          "alg": "SHA-256",
          "content": "8a517b47cef93917f6e3a93a9d4dbfe9f4486ed0056233ce3adc1925342fbac3"
        }
      ],
      "purl": "pkg:golang/github.com/chromedp/cdproto@v0.0.0-20220321060548-7bc2623472b3",
      "externalReferences": [
        {
          "url": "https://github.com/chromedp/cdproto",
          "type": "vcs"
        }
      ]
    },
    {
      "type": "library",
      "bom-ref": "pkg:golang/github.com/chromedp/chromedp@v0.8.0",
      "name": "github.com/chromedp/chromedp",
      "version": "v0.8.0",
      "scope": "required",
      "hashes": [
        {
          "alg": "SHA-256",
          "content": "f82b9f97e41659f6efcb29460ad014b77e00d8423f92ac51337c061d731a6d4e"
        }
      ],
      "purl": "pkg:golang/github.com/chromedp/chromedp@v0.8.0",
      "externalReferences": [
        {
          "url": "https://github.com/chromedp/chromedp",
          "type": "vcs"
        }
      ]
    },
    {
      "type": "library",
      "bom-ref": "pkg:golang/github.com/chromedp/sysutil@v1.0.0",
      "name": "github.com/chromedp/sysutil",
      "version": "v1.0.0",
      "scope": "required",
      "hashes": [
        {
          "alg": "SHA-256",
          "content": "f99c614e97e966599c841e7c8a1fcb0475f9da4cbbc3656141529032e732dc87"
        }
      ],
      "purl": "pkg:golang/github.com/chromedp/sysutil@v1.0.0",
      "externalReferences": [
        {
          "url": "https://github.com/chromedp/sysutil",
          "type": "vcs"
        }
      ]
    },
    {
      "type": "library",
      "bom-ref": "pkg:golang/github.com/dsnet/compress@v0.0.2-0.20210315054119-f66993602bf5",
      "name": "github.com/dsnet/compress",
      "version": "v0.0.2-0.20210315054119-f66993602bf5",
      "scope": "required",
      "hashes": [
        {
          "alg": "SHA-256",
          "content": "885694c014a8e52bf0e8bec762946eff4944dded016849709cd3b5aa4350c416"
        }
      ],
      "purl": "pkg:golang/github.com/dsnet/compress@v0.0.2-0.20210315054119-f66993602bf5",
      "externalReferences": [
        {
          "url": "https://github.com/dsnet/compress",
          "type": "vcs"
        }
      ]
    },
    {
      "type": "library",
      "bom-ref": "pkg:golang/github.com/gobwas/httphead@v0.1.0",
      "name": "github.com/gobwas/httphead",
      "version": "v0.1.0",
      "scope": "required",
      "hashes": [
        {
          "alg": "SHA-256",
          "content": "7b1ad49b47f8617d0bec4070647b82178183a7c6897d5781ae52d0aece8da965"
        }
      ],
      "purl": "pkg:golang/github.com/gobwas/httphead@v0.1.0",
      "externalReferences": [
        {
          "url": "https://github.com/gobwas/httphead",
          "type": "vcs"
        }
      ]
    },
    {
      "type": "library",
      "bom-ref": "pkg:golang/github.com/gobwas/pool@v0.2.1",
      "name": "github.com/gobwas/pool",
      "version": "v0.2.1",
      "scope": "required",
      "hashes": [
        {
          "alg": "SHA-256",
          "content": "c5f79e1215bba70997f27b8b565a9bcd573bb9d303af07ad8c4bfe4d9233d688"
        }
      ],
      "purl": "pkg:golang/github.com/gobwas/pool@v0.2.1",
      "externalReferences": [
        {
          "url": "https://github.com/gobwas/pool",
          "type": "vcs"
        }
      ]
    },
    {
      "type": "library",
      "bom-ref": "pkg:golang/github.com/gobwas/ws@v1.1.0",
      "name": "github.com/gobwas/ws",
      "version": "v1.1.0",
      "scope": "required",
      "hashes": [
        {
          "alg": "SHA-256",
          "content": "ed116d8bfc673643099eb2bb0f5c90fe20880793abad8ff9e3f1fddf49086c70"
        }
      ],
      "purl": "pkg:golang/github.com/gobwas/ws@v1.1.0",
      "externalReferences": [
        {
          "url": "https://github.com/gobwas/ws",
          "type": "vcs"
        }
      ]
    },
    {
      "type": "library",
      "bom-ref": "pkg:golang/github.com/golang/protobuf@v1.5.2",
      "name": "github.com/golang/protobuf",
      "version": "v1.5.2",
      "scope": "required",
      "hashes": [
        {
          "alg": "SHA-256",
          "content": "44e3ca04d15f4203943227c7c8ff8a61bbe98db76814db3e68aec35e58e2d13c"
        }
      ],
      "purl": "pkg:golang/github.com/golang/protobuf@v1.5.2",
      "externalReferences": [
        {
          "url": "https://github.com/golang/protobuf",
          "type": "vcs"
        }
      ]
    },
    {
      "type": "library",
      "bom-ref": "pkg:golang/github.com/golang/snappy@v0.0.4",
      "name": "github.com/golang/snappy",
      "version": "v0.0.4",
      "scope": "required",
      "hashes": [
        {
          "alg": "SHA-256",
          "content": "c80197ee1b861d795c2ce12d067178c3b150c00dbac288cd0b039800484b8d03"
        }
      ],
      "purl": "pkg:golang/github.com/golang/snappy@v0.0.4",
      "externalReferences": [
        {
          "url": "https://github.com/golang/snappy",
          "type": "vcs"
        }
      ]
    },
    {
      "type": "library",
      "bom-ref": "pkg:golang/github.com/google/uuid@v1.3.0",
      "name": "github.com/google/uuid",
      "version": "v1.3.0",
      "scope": "required",
      "hashes": [
        {
          "alg": "SHA-256",
          "content": "b7a2625e09b05cc8c4b3c56eb172099360571ec9fec31f0165d4daa19e5fbbb2"
        }
      ],
      "purl": "pkg:golang/github.com/google/uuid@v1.3.0",
      "externalReferences": [
        {
          "url": "https://github.com/google/uuid",
          "type": "vcs"
        }
      ]
    },
    {
      "type": "library",
      "bom-ref": "pkg:golang/github.com/gorilla/css@v1.0.0",
      "name": "github.com/gorilla/css",
      "version": "v1.0.0",
      "scope": "required",
      "hashes": [
        {
          "alg": "SHA-256",
          "content": "050a8dc8f4e2e7424214c4f0fdbebb841ca33155d94701a16bac3154691e8a16"
        }
      ],
      "purl": "pkg:golang/github.com/gorilla/css@v1.0.0",
      "externalReferences": [
        {
          "url": "https://github.com/gorilla/css",
          "type": "vcs"
        }
      ]
    },
    {
      "type": "library",
      "bom-ref": "pkg:golang/github.com/hashicorp/go-cleanhttp@v0.5.2",
      "name": "github.com/hashicorp/go-cleanhttp",
      "version": "v0.5.2",
      "scope": "required",
      "hashes": [
        {
          "alg": "SHA-256",
          "content": "d37e452982168e650bc8544128fb3c4c14288b4c7a77d1b8c5cf677972560194"
        }
      ],
      "purl": "pkg:golang/github.com/hashicorp/go-cleanhttp@v0.5.2",
      "externalReferences": [
        {
          "url": "https://github.com/hashicorp/go-cleanhttp",
          "type": "vcs"
        }
      ]
    },
    {
      "type": "library",
      "bom-ref": "pkg:golang/github.com/hashicorp/go-retryablehttp@v0.7.0",
      "name": "github.com/hashicorp/go-retryablehttp",
      "version": "v0.7.0",
      "scope": "required",
      "hashes": [
        {
          "alg": "SHA-256",
          "content": "7aed4423f99b8ab5203f90bc855b1335a199ade0439588b00b51595a4bd03d0e"
        }
      ],
      "purl": "pkg:golang/github.com/hashicorp/go-retryablehttp@v0.7.0",
      "externalReferences": [
        {
          "url": "https://github.com/hashicorp/go-retryablehttp",
          "type": "vcs"
        }
      ]
    },
    {
      "type": "library",
      "bom-ref": "pkg:golang/github.com/hhrutter/lzw@v0.0.0-20190829144645-6f07a24e8650",
      "name": "github.com/hhrutter/lzw",
      "version": "v0.0.0-20190829144645-6f07a24e8650",
      "scope": "required",
      "hashes": [
        {
          "alg": "SHA-256",
          "content": "d7263f45058d4818c97b61830886282e6a5656276ba28ae252be104bfcda0134"
        }
      ],
      "purl": "pkg:golang/github.com/hhrutter/lzw@v0.0.0-20190829144645-6f07a24e8650",
      "externalReferences": [
        {
          "url": "https://github.com/hhrutter/lzw",
          "type": "vcs"
        }
      ]
    },
    {
      "type": "library",
      "bom-ref": "pkg:golang/github.com/hhrutter/tiff@v0.0.0-20190829141212-736cae8d0bc7",
      "name": "github.com/hhrutter/tiff",
      "version": "v0.0.0-20190829141212-736cae8d0bc7",
      "scope": "required",
      "hashes": [
        {
          "alg": "SHA-256",
          "content": "a35c0cc3bb93372039f08944743a7122bb451d3827bd8cc0f2c090cfc96ebfde"
        }
      ],
      "purl": "pkg:golang/github.com/hhrutter/tiff@v0.0.0-20190829141212-736cae8d0bc7",
      "externalReferences": [
        {
          "url": "https://github.com/hhrutter/tiff",
          "type": "vcs"
        }
      ]
    },
    {
      "type": "library",
      "bom-ref": "pkg:golang/github.com/josharian/intern@v1.0.0",
      "name": "github.com/josharian/intern",
      "version": "v1.0.0",
      "scope": "required",
      "hashes": [
        {
          "alg": "SHA-256",
          "content": "be54b8cf9e2849d8e6d1b823462808f86d47a45fad23ef6b1392cbcce83c1e66"
        }
      ],
      "purl": "pkg:golang/github.com/josharian/intern@v1.0.0",
      "externalReferences": [
        {
          "url": "https://github.com/josharian/intern",
          "type": "vcs"
        }
      ]
    },
    {
      "type": "library",
      "bom-ref": "pkg:golang/github.com/klauspost/compress@v1.15.1",
      "name": "github.com/klauspost/compress",
      "version": "v1.15.1",
      "scope": "required",
      "hashes": [
        {
          "alg": "SHA-256",
          "content": "cbd15c4c71b2ade6f07cfd1966a1626b14da8839d4ac6909908f9fe7cdc12f50"
        }
      ],
      "purl": "pkg:golang/github.com/klauspost/compress@v1.15.1",
      "externalReferences": [
        {
          "url": "https://github.com/klauspost/compress",
          "type": "vcs"
        }
      ]
    },
    {
      "type": "library",
      "bom-ref": "pkg:golang/github.com/klauspost/pgzip@v1.2.5",
      "name": "github.com/klauspost/pgzip",
      "version": "v1.2.5",
      "scope": "required",
      "hashes": [
        {
          "alg": "SHA-256",
          "content": "aa7598bef2aa79d385dae947a4c1bbd9742897820b109f24db0c1197f2a6f281"
        }
      ],
      "purl": "pkg:golang/github.com/klauspost/pgzip@v1.2.5",
      "externalReferences": [
        {
          "url": "https://github.com/klauspost/pgzip",
          "type": "vcs"
        }
      ]
    },
    {
      "type": "library",
      "bom-ref": "pkg:golang/github.com/labstack/echo/v4@v4.7.2",
      "name": "github.com/labstack/echo/v4",
      "version": "v4.7.2",
      "scope": "required",
      "hashes": [
        {
          "alg": "SHA-256",
          "content": "2afdbfa7c39a43e33a131e1e1a29a0f5bf5eea2728c40e3625294e4779ac2ad2"
        }
      ],
      "purl": "pkg:golang/github.com/labstack/echo/v4@v4.7.2",
      "externalReferences": [
        {
          "url": "https://github.com/labstack/echo",
          "type": "vcs"
        }
      ]
    },
    {
      "type": "library",
      "bom-ref": "pkg:golang/github.com/labstack/gommon@v0.3.1",
      "name": "github.com/labstack/gommon",
      "version": "v0.3.1",
      "scope": "required",
      "hashes": [
        {
          "alg": "SHA-256",
          "content": "3a89966895e6ef147a2f51e612d1b241fdba4c49fb57a5fcf2692d5fd91e7bda"
        }
      ],
      "purl": "pkg:golang/github.com/labstack/gommon@v0.3.1",
      "externalReferences": [
        {
          "url": "https://github.com/labstack/gommon",
          "type": "vcs"
        }
      ]
    },
    {
      "type": "library",
      "bom-ref": "pkg:golang/github.com/mailru/easyjson@v0.7.7",
      "name": "github.com/mailru/easyjson",
      "version": "v0.7.7",
      "scope": "required",
      "hashes": [
        {
          "alg": "SHA-256",
          "content": "506600bcac5edec06c103ccef1979639294841f5859716f32d97bb87015446bd"
        }
      ],
      "purl": "pkg:golang/github.com/mailru/easyjson@v0.7.7",
      "externalReferences": [
        {
          "url": "https://github.com/mailru/easyjson",
          "type": "vcs"
        }
      ]
    },
    {
      "type": "library",
      "bom-ref": "pkg:golang/github.com/mattn/go-colorable@v0.1.12",
      "name": "github.com/mattn/go-colorable",
      "version": "v0.1.12",
      "scope": "required",
      "hashes": [
        {
          "alg": "SHA-256",
          "content": "8c5f83bba0253c88ecd8189489094a397d2bb774ae8c7c4f9e4b0f2996da038d"
        }
      ],
      "purl": "pkg:golang/github.com/mattn/go-colorable@v0.1.12",
      "externalReferences": [
        {
          "url": "https://github.com/mattn/go-colorable",
          "type": "vcs"
        }
      ]
    },
    {
      "type": "library",
      "bom-ref": "pkg:golang/github.com/mattn/go-isatty@v0.0.14",
      "name": "github.com/mattn/go-isatty",
      "version": "v0.0.14",
      "scope": "required",
      "hashes": [
        {
          "alg": "SHA-256",
          "content": "c95b806b2b3a0477f18a38193f3c3edd996ee724202863f6fe17106c76fb4bd6"
        }
      ],
      "purl": "pkg:golang/github.com/mattn/go-isatty@v0.0.14",
      "externalReferences": [
        {
          "url": "https://github.com/mattn/go-isatty",
          "type": "vcs"
        }
      ]
    },
    {
      "type": "library",
      "bom-ref": "pkg:golang/github.com/matttproud/golang_protobuf_extensions@v1.0.1",
      "name": "github.com/matttproud/golang_protobuf_extensions",
      "version": "v1.0.1",
      "scope": "required",
      "hashes": [
        {
          "alg": "SHA-256",
          "content": "e21a7d8e41f184c1e4aa4ac1dc8c748de812e6cc7f464a80465b1667aa48c225"
        }
      ],
      "purl": "pkg:golang/github.com/matttproud/golang_protobuf_extensions@v1.0.1",
      "externalReferences": [
        {
          "url": "https://github.com/matttproud/golang_protobuf_extensions",
          "type": "vcs"
        }
      ]
    },
    {
      "type": "library",
      "bom-ref": "pkg:golang/github.com/mholt/archiver/v3@v3.5.1",
      "name": "github.com/mholt/archiver/v3",
      "version": "v3.5.1",
      "scope": "required",
      "hashes": [
        {
          "alg": "SHA-256",
          "content": "ac38ce057f49485e41be8246be3a8ae3bf5a2fbd2a87d0c8a590a5fa4ec2970a"
        }
      ],
      "purl": "pkg:golang/github.com/mholt/archiver/v3@v3.5.1",
      "externalReferences": [
        {
          "url": "https://github.com/mholt/archiver",
          "type": "vcs"
        }
      ]
    },
    {
      "type": "library",
      "bom-ref": "pkg:golang/github.com/microcosm-cc/bluemonday@v1.0.18",
      "name": "github.com/microcosm-cc/bluemonday",
      "version": "v1.0.18",
      "scope": "required",
      "hashes": [
        {
          "alg": "SHA-256",
          "content": "e87731bd70c08b7011b77b25c7a9d37ac6efa2b21cdd0793cc1351bd692d1c1a"
        }
      ],
      "purl": "pkg:golang/github.com/microcosm-cc/bluemonday@v1.0.18",
      "externalReferences": [
        {
          "url": "https://github.com/microcosm-cc/bluemonday",
          "type": "vcs"
        }
      ]
    },
    {
      "type": "library",
      "bom-ref": "pkg:golang/github.com/nwaples/rardecode@v1.1.3",
      "name": "github.com/nwaples/rardecode",
      "version": "v1.1.3",
      "scope": "required",
      "hashes": [
        {
          "alg": "SHA-256",
          "content": "71609a6707cce47ee7003e8fc8475c567733cd5f22fc9b68b67c96fdd0fd9447"
        }
      ],
      "purl": "pkg:golang/github.com/nwaples/rardecode@v1.1.3",
      "externalReferences": [
        {
          "url": "https://github.com/nwaples/rardecode",
          "type": "vcs"
        }
      ]
    },
    {
      "type": "library",
      "bom-ref": "pkg:golang/github.com/pdfcpu/pdfcpu@v0.3.13",
      "name": "github.com/pdfcpu/pdfcpu",
      "version": "v0.3.13",
      "scope": "required",
      "hashes": [
        {
          "alg": "SHA-256",
          "content": "545a27d98a353c9b7eb00e7bbcf01e5d618b499ed4c77265e21d36334facddd8"
        }
      ],
      "purl": "pkg:golang/github.com/pdfcpu/pdfcpu@v0.3.13",
      "externalReferences": [
        {
          "url": "https://github.com/pdfcpu/pdfcpu",
          "type": "vcs"
        }
      ]
    },
    {
      "type": "library",
      "bom-ref": "pkg:golang/github.com/pierrec/lz4/v4@v4.1.14",
      "name": "github.com/pierrec/lz4/v4",
      "version": "v4.1.14",
      "scope": "required",
      "hashes": [
        {
          "alg": "SHA-256",
          "content": "f9f2fc010119b73fe28de367a5db87d1b44e4eed0edcd64094f8d0c469fc2f01"
        }
      ],
      "purl": "pkg:golang/github.com/pierrec/lz4/v4@v4.1.14",
      "externalReferences": [
        {
          "url": "https://github.com/pierrec/lz4",
          "type": "vcs"
        }
      ]
    },
    {
      "type": "library",
      "bom-ref": "pkg:golang/github.com/pkg/errors@v0.9.1",
      "name": "github.com/pkg/errors",
      "version": "v0.9.1",
      "scope": "required",
      "hashes": [
        {
          "alg": "SHA-256",
          "content": "14404bc75cd2db5e28c298f2eeab017a2c5b51192e850030acae54c0b193c2de"
        }
      ],
      "purl": "pkg:golang/github.com/pkg/errors@v0.9.1",
      "externalReferences": [
        {
          "url": "https://github.com/pkg/errors",
          "type": "vcs"
        }
      ]
    },
    {
      "type": "library",
      "bom-ref": "pkg:golang/github.com/prometheus/client_golang@v1.12.1",
      "name": "github.com/prometheus/client_golang",
      "version": "v1.12.1",
      "scope": "required",
      "hashes": [
        {
          "alg": "SHA-256",
          "content": "66268fb269bdba205e692311ce72ac08336d3c24b44f72550c617ed3a8230739"
        }
      ],
      "purl": "pkg:golang/github.com/prometheus/client_golang@v1.12.1",
      "externalReferences": [
        {
          "url": "https://github.com/prometheus/client_golang",
          "type": "vcs"
        }
      ]
    },
    {
      "type": "library",
      "bom-ref": "pkg:golang/github.com/prometheus/client_model@v0.2.0",
      "name": "github.com/prometheus/client_model",
      "version": "v0.2.0",
      "scope": "required",
      "hashes": [
        {
          "alg": "SHA-256",
          "content": "baae61d1df86bb18972c92cd001320a76a945833e22ef802cf3d9d511fbf5bf3"
        }
      ],
      "purl": "pkg:golang/github.com/prometheus/client_model@v0.2.0",
      "externalReferences": [
        {
          "url": "https://github.com/prometheus/client_model",
          "type": "vcs"
        }
      ]
    },
    {
      "type": "library",
      "bom-ref": "pkg:golang/github.com/prometheus/common@v0.32.1",
      "name": "github.com/prometheus/common",
      "version": "v0.32.1",
      "scope": "required",
      "hashes": [
        {
          "alg": "SHA-256",
          "content": "85621d2f73761e8531dc1f23dd837d996a2bd2a858fcd94429911a5f1b88461e"
        }
      ],
      "purl": "pkg:golang/github.com/prometheus/common@v0.32.1",
      "externalReferences": [
        {
          "url": "https://github.com/prometheus/common",
          "type": "vcs"
        }
      ]
    },
    {
      "type": "library",
      "bom-ref": "pkg:golang/github.com/prometheus/procfs@v0.7.3",
      "name": "github.com/prometheus/procfs",
      "version": "v0.7.3",
      "scope": "required",
      "hashes": [
        {
          "alg": "SHA-256",
          "content": "e23557865900cb33927260a45c14ce2d12d3cfc11e53e7b28ebc01fc43ead155"
        }
      ],
      "purl": "pkg:golang/github.com/prometheus/procfs@v0.7.3",
      "externalReferences": [
        {
          "url": "https://github.com/prometheus/procfs",
          "type": "vcs"
        }
      ]
    },
    {
      "type": "library",
      "bom-ref": "pkg:golang/github.com/russross/blackfriday/v2@v2.1.0",
      "name": "github.com/russross/blackfriday/v2",
      "version": "v2.1.0",
      "scope": "required",
      "hashes": [
        {
          "alg": "SHA-256",
          "content": "248387e79ff4716c8eba296bf7faa5ae6d0149795daa7ab032c7f7e4b77aee69"
        }
      ],
      "purl": "pkg:golang/github.com/russross/blackfriday/v2@v2.1.0",
      "externalReferences": [
        {
          "url": "https://github.com/russross/blackfriday",
          "type": "vcs"
        }
      ]
    },
    {
      "type": "library",
      "bom-ref": "pkg:golang/github.com/spf13/pflag@v1.0.5",
      "name": "github.com/spf13/pflag",
      "version": "v1.0.5",
      "scope": "required",
      "hashes": [
        {
          "alg": "SHA-256",
          "content": "8b2f951543823f56bef3216da3f76b836089e6ed3246807b7d9c370cabff2570"
        }
      ],
      "purl": "pkg:golang/github.com/spf13/pflag@v1.0.5",
      "externalReferences": [
        {
          "url": "https://github.com/spf13/pflag",
          "type": "vcs"
        }
      ]
    },
    {
      "type": "library",
      "bom-ref": "pkg:golang/github.com/ulikunitz/xz@v0.5.10",
      "name": "github.com/ulikunitz/xz",
      "version": "v0.5.10",
      "scope": "required",
      "hashes": [
        {
          "alg": "SHA-256",
          "content": "b7dda0a1b2fd9771c4db4db0837ae5935f45e97f893b197d041ac208c60461df"
        }
      ],
      "purl": "pkg:golang/github.com/ulikunitz/xz@v0.5.10",
      "externalReferences": [
        {
          "url": "https://github.com/ulikunitz/xz",
          "type": "vcs"
        }
      ]
    },
    {
      "type": "library",
      "bom-ref": "pkg:golang/github.com/valyala/bytebufferpool@v1.0.0",
      "name": "github.com/valyala/bytebufferpool",
      "version": "v1.0.0",
      "scope": "required",
      "hashes": [
        {
          "alg": "SHA-256",
          "content": "1aa0394c2ff4d36d58fdbf451b83a2f4caf7abb5d8c7a2a59736b014885c74fc"
        }
      ],
      "purl": "pkg:golang/github.com/valyala/bytebufferpool@v1.0.0",
      "externalReferences": [
        {
          "url": "https://github.com/valyala/bytebufferpool",
          "type": "vcs"
        }
      ]
    },
    {
      "type": "library",
      "bom-ref": "pkg:golang/github.com/valyala/fasttemplate@v1.2.1",
      "name": "github.com/valyala/fasttemplate",
      "version": "v1.2.1",
      "scope": "required",
      "hashes": [
        {
          "alg": "SHA-256",
          "content": "4d5127c5aca86c075592141fadf7acd88cce07aa3ecf8ae84643c5e76580d6ee"
        }
      ],
      "purl": "pkg:golang/github.com/valyala/fasttemplate@v1.2.1",
      "externalReferences": [
        {
          "url": "https://github.com/valyala/fasttemplate",
          "type": "vcs"
        }
      ]
    },
    {
      "type": "library",
      "bom-ref": "pkg:golang/github.com/xi2/xz@v0.0.0-20171230120015-48954b6210f8",
      "name": "github.com/xi2/xz",
      "version": "v0.0.0-20171230120015-48954b6210f8",
      "scope": "required",
      "hashes": [
        {
          "alg": "SHA-256",
          "content": "9c83e9070689495608c5416c0efdccf287e6c7dc964e883d05fbc8bb4ab8d65a"
        }
      ],
      "purl": "pkg:golang/github.com/xi2/xz@v0.0.0-20171230120015-48954b6210f8",
      "externalReferences": [
        {
          "url": "https://github.com/xi2/xz",
          "type": "vcs"
        }
      ]
    },
    {
      "type": "library",
      "bom-ref": "pkg:golang/go.uber.org/atomic@v1.9.0",
      "name": "go.uber.org/atomic",
      "version": "v1.9.0",
      "scope": "required",
      "hashes": [
        {
          "alg": "SHA-256",
          "content": "102984f019ff5854d8c045bf6e9283dccf15b51ff34156dabc0a1a942d4f6321"
        }
      ],
      "purl": "pkg:golang/go.uber.org/atomic@v1.9.0"
    },
    {
      "type": "library",
      "bom-ref": "pkg:golang/go.uber.org/multierr@v1.8.0",
      "name": "go.uber.org/multierr",
      "version": "v1.8.0",
      "scope": "required",
      "hashes": [
        {
          "alg": "SHA-256",
          "content": "760e868cb92ee041fedb8f4d366a087221bd37f8d445b0c6fa91654e4873202f"
        }
      ],
      "purl": "pkg:golang/go.uber.org/multierr@v1.8.0"
    },
    {
      "type": "library",
      "bom-ref": "pkg:golang/go.uber.org/zap@v1.21.0",
      "name": "go.uber.org/zap",
      "version": "v1.21.0",
      "scope": "required",
      "hashes": [
        {
          "alg": "SHA-256",
          "content": "59e7cc7ae961a2fa19dac617cfbb2de8ad2c2e3edb061a6215ab9de2be33493f"
        }
      ],
      "purl": "pkg:golang/go.uber.org/zap@v1.21.0"
    },
    {
      "type": "library",
      "bom-ref": "pkg:golang/golang.org/x/crypto@v0.0.0-20220315160706-3147a52a75dd",
      "name": "golang.org/x/crypto",
      "version": "v0.0.0-20220315160706-3147a52a75dd",
      "scope": "required",
      "hashes": [
        {
          "alg": "SHA-256",
          "content": "5dc5a6112c8d8d724c2da85cde6a954097204930f11718444d595f93db86737f"
        }
      ],
      "purl": "pkg:golang/golang.org/x/crypto@v0.0.0-20220315160706-3147a52a75dd"
    },
    {
      "type": "library",
      "bom-ref": "pkg:golang/golang.org/x/image@v0.0.0-20220321031419-a8550c1d254a",
      "name": "golang.org/x/image",
      "version": "v0.0.0-20220321031419-a8550c1d254a",
      "scope": "required",
      "hashes": [
        {
          "alg": "SHA-256",
          "content": "2e71fd44d7293efe4ace2d79957838da560c3d47f4c7c0ae3efd589ef0566408"
        }
      ],
      "purl": "pkg:golang/golang.org/x/image@v0.0.0-20220321031419-a8550c1d254a"
    },
    {
      "type": "library",
      "bom-ref": "pkg:golang/golang.org/x/net@v0.0.0-20220225172249-27dd8689420f",
      "name": "golang.org/x/net",
      "version": "v0.0.0-20220225172249-27dd8689420f",
      "scope": "required",
      "hashes": [
        {
          "alg": "SHA-256",
          "content": "a00e17463d2ab52b7c628d599acd02525b13dca1baf55d9419058f071ba30e67"
        }
      ],
      "purl": "pkg:golang/golang.org/x/net@v0.0.0-20220225172249-27dd8689420f"
    },
    {
      "type": "library",
      "bom-ref": "pkg:golang/golang.org/x/sync@v0.0.0-20210220032951-036812b2e83c",
      "name": "golang.org/x/sync",
      "version": "v0.0.0-20210220032951-036812b2e83c",
      "scope": "required",
      "hashes": [
        {
          "alg": "SHA-256",
          "content": "e4ab25198c05a6484687e435e9bc0c3f770ea27b47f0539ea7bb4657ce98ed24"
        }
      ],
      "purl": "pkg:golang/golang.org/x/sync@v0.0.0-20210220032951-036812b2e83c"
    },
    {
      "type": "library",
      "bom-ref": "pkg:golang/golang.org/x/sys@v0.0.0-20220319134239-a9b59b0215f8",
      "name": "golang.org/x/sys",
      "version": "v0.0.0-20220319134239-a9b59b0215f8",
      "scope": "required",
      "hashes": [
        {
          "alg": "SHA-256",
          "content": "387e78be3ab345699b27ad9f8ee871cbb0311458281cdd3f0cf73f52b2fc700b"
        }
      ],
      "purl": "pkg:golang/golang.org/x/sys@v0.0.0-20220319134239-a9b59b0215f8"
    },
    {
      "type": "library",
      "bom-ref": "pkg:golang/golang.org/x/term@v0.0.0-20210927222741-03fcf44c2211",
      "name": "golang.org/x/term",
      "version": "v0.0.0-20210927222741-03fcf44c2211",
      "scope": "required",
      "hashes": [
        {
          "alg": "SHA-256",
          "content": "2468113a02a5f4df03b96db4a054b983173e944ebbfcddc57309813cc7bb02b6"
        }
      ],
      "purl": "pkg:golang/golang.org/x/term@v0.0.0-20210927222741-03fcf44c2211"
    },
    {
      "type": "library",
      "bom-ref": "pkg:golang/golang.org/x/text@v0.3.7",
      "name": "golang.org/x/text",
      "version": "v0.3.7",
      "scope": "required",
      "hashes": [
        {
          "alg": "SHA-256",
          "content": "a25a70bcfd8a69c5b5656bec47bb90868c9362f280ba97d0ad118114cdf9d869"
        }
      ],
      "purl": "pkg:golang/golang.org/x/text@v0.3.7"
    },
    {
      "type": "library",
      "bom-ref": "pkg:golang/google.golang.org/protobuf@v1.27.1",
      "name": "google.golang.org/protobuf",
      "version": "v1.27.1",
      "scope": "required",
      "hashes": [
        {
          "alg": "SHA-256",
          "content": "4a7a9b9c3c3557b46265c5cfc793047aa3efdacefd2fd8bb0495251bff91bab4"
        }
      ],
      "purl": "pkg:golang/google.golang.org/protobuf@v1.27.1"
    },
    {
      "type": "library",
      "bom-ref": "pkg:golang/gopkg.in/yaml.v2@v2.4.0",
      "name": "gopkg.in/yaml.v2",
      "version": "v2.4.0",
      "scope": "required",
      "hashes": [
        {
          "alg": "SHA-256",
          "content": "0fcc60c04098ec262fc7e6369f8b01cfddc99fd251bf1762cb2a3c0937ee29a6"
        }
      ],
      "purl": "pkg:golang/gopkg.in/yaml.v2@v2.4.0",
      "externalReferences": [
        {
          "url": "https://github.com/go-yaml/yaml",
          "type": "vcs"
        }
      ]
    },
    {
      "type": "library",
      "bom-ref": "pkg:golang/github.com/gotenberg/gotenberg/v7",
      "group": "github.com/gotenberg/gotenberg",
      "name": "v7",
      "version": "",
      "description": "",
      "scope": "optional",
      "purl": "pkg:golang/github.com/gotenberg/gotenberg/v7"
    }
  ],
  "dependencies": [
    {
      "ref": "pkg:golang/github.com/alexliesenfeld/health@v0.6.0"
    },
    {
      "ref": "pkg:golang/github.com/andybalholm/brotli@v1.0.4"
    },
    {
      "ref": "pkg:golang/github.com/aymerick/douceur@v0.2.0"
    },
    {
      "ref": "pkg:golang/github.com/beorn7/perks@v1.0.1"
    },
    {
      "ref": "pkg:golang/github.com/cespare/xxhash/v2@v2.1.2"
    },
    {
      "ref": "pkg:golang/github.com/chromedp/cdproto@v0.0.0-20220321060548-7bc2623472b3",
      "dependsOn": [
        "pkg:golang/github.com/chromedp/sysutil@v1.0.0",
        "pkg:golang/github.com/josharian/intern@v1.0.0",
        "pkg:golang/github.com/mailru/easyjson@v0.7.7"
      ]
    },
    {
      "ref": "pkg:golang/github.com/chromedp/chromedp@v0.8.0",
      "dependsOn": [
        "pkg:golang/github.com/chromedp/cdproto@v0.0.0-20220321060548-7bc2623472b3",
        "pkg:golang/github.com/chromedp/sysutil@v1.0.0",
        "pkg:golang/github.com/gobwas/httphead@v0.1.0",
        "pkg:golang/github.com/gobwas/pool@v0.2.1",
        "pkg:golang/github.com/gobwas/ws@v1.1.0",
        "pkg:golang/github.com/josharian/intern@v1.0.0",
        "pkg:golang/github.com/mailru/easyjson@v0.7.7",
        "pkg:golang/golang.org/x/sys@v0.0.0-20220319134239-a9b59b0215f8"
      ]
    },
    {
      "ref": "pkg:golang/github.com/chromedp/sysutil@v1.0.0"
    },
    {
      "ref": "pkg:golang/github.com/dsnet/compress@v0.0.2-0.20210315054119-f66993602bf5",
      "dependsOn": [
        "pkg:golang/github.com/klauspost/compress@v1.15.1",
        "pkg:golang/github.com/ulikunitz/xz@v0.5.10"
      ]
    },
    {
      "ref": "pkg:golang/github.com/gobwas/httphead@v0.1.0"
    },
    {
      "ref": "pkg:golang/github.com/gobwas/pool@v0.2.1"
    },
    {
      "ref": "pkg:golang/github.com/gobwas/ws@v1.1.0",
      "dependsOn": [
        "pkg:golang/github.com/gobwas/httphead@v0.1.0",
        "pkg:golang/github.com/gobwas/pool@v0.2.1",
        "pkg:golang/golang.org/x/sys@v0.0.0-20220319134239-a9b59b0215f8"
      ]
    },
    {
      "ref": "pkg:golang/github.com/golang/protobuf@v1.5.2",
      "dependsOn": [
        "pkg:golang/google.golang.org/protobuf@v1.27.1"
      ]
    },
    {
      "ref": "pkg:golang/github.com/golang/snappy@v0.0.4"
    },
    {
      "ref": "pkg:golang/github.com/google/uuid@v1.3.0"
    },
    {
      "ref": "pkg:golang/github.com/gorilla/css@v1.0.0"
    },
    {
      "ref": "pkg:golang/github.com/hashicorp/go-cleanhttp@v0.5.2"
    },
    {
      "ref": "pkg:golang/github.com/hashicorp/go-retryablehttp@v0.7.0",
      "dependsOn": [
        "pkg:golang/github.com/hashicorp/go-cleanhttp@v0.5.2"
      ]
    },
    {
      "ref": "pkg:golang/github.com/hhrutter/lzw@v0.0.0-20190829144645-6f07a24e8650"
    },
    {
      "ref": "pkg:golang/github.com/hhrutter/tiff@v0.0.0-20190829141212-736cae8d0bc7",
      "dependsOn": [
        "pkg:golang/github.com/hhrutter/lzw@v0.0.0-20190829144645-6f07a24e8650",
        "pkg:golang/golang.org/x/image@v0.0.0-20220321031419-a8550c1d254a"
      ]
    },
    {
      "ref": "pkg:golang/github.com/josharian/intern@v1.0.0"
    },
    {
      "ref": "pkg:golang/github.com/klauspost/compress@v1.15.1"
    },
    {
      "ref": "pkg:golang/github.com/klauspost/pgzip@v1.2.5"
    },
    {
      "ref": "pkg:golang/github.com/labstack/echo/v4@v4.7.2",
      "dependsOn": [
        "pkg:golang/github.com/labstack/gommon@v0.3.1",
        "pkg:golang/github.com/mattn/go-colorable@v0.1.12",
        "pkg:golang/github.com/mattn/go-isatty@v0.0.14",
        "pkg:golang/github.com/valyala/bytebufferpool@v1.0.0",
        "pkg:golang/github.com/valyala/fasttemplate@v1.2.1",
        "pkg:golang/golang.org/x/crypto@v0.0.0-20220315160706-3147a52a75dd",
        "pkg:golang/golang.org/x/net@v0.0.0-20220225172249-27dd8689420f",
        "pkg:golang/golang.org/x/sys@v0.0.0-20220319134239-a9b59b0215f8",
        "pkg:golang/golang.org/x/text@v0.3.7"
      ]
    },
    {
      "ref": "pkg:golang/github.com/labstack/gommon@v0.3.1",
      "dependsOn": [
        "pkg:golang/github.com/mattn/go-colorable@v0.1.12",
        "pkg:golang/github.com/mattn/go-isatty@v0.0.14",
        "pkg:golang/github.com/valyala/fasttemplate@v1.2.1",
        "pkg:golang/golang.org/x/sys@v0.0.0-20220319134239-a9b59b0215f8"
      ]
    },
    {
      "ref": "pkg:golang/github.com/mailru/easyjson@v0.7.7",
      "dependsOn": [
        "pkg:golang/github.com/josharian/intern@v1.0.0"
      ]
    },
    {
      "ref": "pkg:golang/github.com/mattn/go-colorable@v0.1.12",
      "dependsOn": [
        "pkg:golang/github.com/mattn/go-isatty@v0.0.14",
        "pkg:golang/golang.org/x/sys@v0.0.0-20220319134239-a9b59b0215f8"
      ]
    },
    {
      "ref": "pkg:golang/github.com/mattn/go-isatty@v0.0.14",
      "dependsOn": [
        "pkg:golang/golang.org/x/sys@v0.0.0-20220319134239-a9b59b0215f8"
      ]
    },
    {
      "ref": "pkg:golang/github.com/matttproud/golang_protobuf_extensions@v1.0.1"
    },
    {
      "ref": "pkg:golang/github.com/mholt/archiver/v3@v3.5.1",
      "dependsOn": [
        "pkg:golang/github.com/andybalholm/brotli@v1.0.4",
        "pkg:golang/github.com/dsnet/compress@v0.0.2-0.20210315054119-f66993602bf5",
        "pkg:golang/github.com/golang/snappy@v0.0.4",
        "pkg:golang/github.com/klauspost/compress@v1.15.1",
        "pkg:golang/github.com/klauspost/pgzip@v1.2.5",
        "pkg:golang/github.com/nwaples/rardecode@v1.1.3",
        "pkg:golang/github.com/pierrec/lz4/v4@v4.1.14",
        "pkg:golang/github.com/ulikunitz/xz@v0.5.10",
        "pkg:golang/github.com/xi2/xz@v0.0.0-20171230120015-48954b6210f8"
      ]
    },
    {
      "ref": "pkg:golang/github.com/microcosm-cc/bluemonday@v1.0.18",
      "dependsOn": [
        "pkg:golang/github.com/aymerick/douceur@v0.2.0",
        "pkg:golang/github.com/gorilla/css@v1.0.0",
        "pkg:golang/golang.org/x/net@v0.0.0-20220225172249-27dd8689420f"
      ]
    },
    {
      "ref": "pkg:golang/github.com/nwaples/rardecode@v1.1.3"
    },
    {
      "ref": "pkg:golang/github.com/pdfcpu/pdfcpu@v0.3.13",
      "dependsOn": [
        "pkg:golang/github.com/hhrutter/lzw@v0.0.0-20190829144645-6f07a24e8650",
        "pkg:golang/github.com/hhrutter/tiff@v0.0.0-20190829141212-736cae8d0bc7",
        "pkg:golang/github.com/pkg/errors@v0.9.1",
        "pkg:golang/golang.org/x/image@v0.0.0-20220321031419-a8550c1d254a",
        "pkg:golang/golang.org/x/text@v0.3.7",
        "pkg:golang/gopkg.in/yaml.v2@v2.4.0"
      ]
    },
    {
      "ref": "pkg:golang/github.com/pierrec/lz4/v4@v4.1.14"
    },
    {
      "ref": "pkg:golang/github.com/pkg/errors@v0.9.1"
    },
    {
      "ref": "pkg:golang/github.com/prometheus/client_golang@v1.12.1",
      "dependsOn": [
        "pkg:golang/github.com/beorn7/perks@v1.0.1",
        "pkg:golang/github.com/cespare/xxhash/v2@v2.1.2",
        "pkg:golang/github.com/golang/protobuf@v1.5.2",
        "pkg:golang/github.com/prometheus/client_model@v0.2.0",
        "pkg:golang/github.com/prometheus/common@v0.32.1",
        "pkg:golang/github.com/prometheus/procfs@v0.7.3",
        "pkg:golang/golang.org/x/sys@v0.0.0-20220319134239-a9b59b0215f8",
        "pkg:golang/google.golang.org/protobuf@v1.27.1"
      ]
    },
    {
      "ref": "pkg:golang/github.com/prometheus/client_model@v0.2.0",
      "dependsOn": [
        "pkg:golang/github.com/golang/protobuf@v1.5.2",
        "pkg:golang/golang.org/x/sync@v0.0.0-20210220032951-036812b2e83c"
      ]
    },
    {
      "ref": "pkg:golang/github.com/prometheus/common@v0.32.1",
      "dependsOn": [
        "pkg:golang/github.com/golang/protobuf@v1.5.2",
        "pkg:golang/github.com/matttproud/golang_protobuf_extensions@v1.0.1",
        "pkg:golang/github.com/pkg/errors@v0.9.1",
        "pkg:golang/github.com/prometheus/client_golang@v1.12.1",
        "pkg:golang/github.com/prometheus/client_model@v0.2.0",
        "pkg:golang/golang.org/x/net@v0.0.0-20220225172249-27dd8689420f",
        "pkg:golang/gopkg.in/yaml.v2@v2.4.0"
      ]
    },
    {
      "ref": "pkg:golang/github.com/prometheus/procfs@v0.7.3",
      "dependsOn": [
        "pkg:golang/golang.org/x/sync@v0.0.0-20210220032951-036812b2e83c",
        "pkg:golang/golang.org/x/sys@v0.0.0-20220319134239-a9b59b0215f8"
      ]
    },
    {
      "ref": "pkg:golang/github.com/russross/blackfriday/v2@v2.1.0"
    },
    {
      "ref": "pkg:golang/github.com/spf13/pflag@v1.0.5"
    },
    {
      "ref": "pkg:golang/github.com/ulikunitz/xz@v0.5.10"
    },
    {
      "ref": "pkg:golang/github.com/valyala/bytebufferpool@v1.0.0"
    },
    {
      "ref": "pkg:golang/github.com/valyala/fasttemplate@v1.2.1",
      "dependsOn": [
        "pkg:golang/github.com/valyala/bytebufferpool@v1.0.0"
      ]
    },
    {
      "ref": "pkg:golang/github.com/xi2/xz@v0.0.0-20171230120015-48954b6210f8"
    },
    {
      "ref": "pkg:golang/go.uber.org/atomic@v1.9.0"
    },
    {
      "ref": "pkg:golang/go.uber.org/multierr@v1.8.0",
      "dependsOn": [
        "pkg:golang/go.uber.org/atomic@v1.9.0"
      ]
    },
    {
      "ref": "pkg:golang/go.uber.org/zap@v1.21.0",
      "dependsOn": [
        "pkg:golang/github.com/pkg/errors@v0.9.1",
        "pkg:golang/go.uber.org/atomic@v1.9.0",
        "pkg:golang/go.uber.org/multierr@v1.8.0",
        "pkg:golang/gopkg.in/yaml.v2@v2.4.0"
      ]
    },
    {
      "ref": "pkg:golang/golang.org/x/crypto@v0.0.0-20220315160706-3147a52a75dd",
      "dependsOn": [
        "pkg:golang/golang.org/x/net@v0.0.0-20220225172249-27dd8689420f",
        "pkg:golang/golang.org/x/sys@v0.0.0-20220319134239-a9b59b0215f8",
        "pkg:golang/golang.org/x/term@v0.0.0-20210927222741-03fcf44c2211",
        "pkg:golang/golang.org/x/text@v0.3.7"
      ]
    },
    {
      "ref": "pkg:golang/golang.org/x/image@v0.0.0-20220321031419-a8550c1d254a",
      "dependsOn": [
        "pkg:golang/golang.org/x/text@v0.3.7"
      ]
    },
    {
      "ref": "pkg:golang/golang.org/x/net@v0.0.0-20220225172249-27dd8689420f",
      "dependsOn": [
        "pkg:golang/golang.org/x/sys@v0.0.0-20220319134239-a9b59b0215f8",
        "pkg:golang/golang.org/x/term@v0.0.0-20210927222741-03fcf44c2211",
        "pkg:golang/golang.org/x/text@v0.3.7"
      ]
    },
    {
      "ref": "pkg:golang/golang.org/x/sync@v0.0.0-20210220032951-036812b2e83c"
    },
    {
      "ref": "pkg:golang/golang.org/x/sys@v0.0.0-20220319134239-a9b59b0215f8"
    },
    {
      "ref": "pkg:golang/golang.org/x/term@v0.0.0-20210927222741-03fcf44c2211",
      "dependsOn": [
        "pkg:golang/golang.org/x/sys@v0.0.0-20220319134239-a9b59b0215f8"
      ]
    },
    {
      "ref": "pkg:golang/golang.org/x/text@v0.3.7"
    },
    {
      "ref": "pkg:golang/google.golang.org/protobuf@v1.27.1",
      "dependsOn": [
        "pkg:golang/github.com/golang/protobuf@v1.5.2"
      ]
    },
    {
      "ref": "pkg:golang/gopkg.in/yaml.v2@v2.4.0"
    },
    {
      "ref": "pkg:golang/github.com/gotenberg/gotenberg/v7@v7.5.2",
      "dependsOn": [
        "pkg:golang/github.com/alexliesenfeld/health@v0.6.0",
        "pkg:golang/github.com/andybalholm/brotli@v1.0.4",
        "pkg:golang/github.com/aymerick/douceur@v0.2.0",
        "pkg:golang/github.com/beorn7/perks@v1.0.1",
        "pkg:golang/github.com/cespare/xxhash/v2@v2.1.2",
        "pkg:golang/github.com/chromedp/cdproto@v0.0.0-20220321060548-7bc2623472b3",
        "pkg:golang/github.com/chromedp/chromedp@v0.8.0",
        "pkg:golang/github.com/chromedp/sysutil@v1.0.0",
        "pkg:golang/github.com/dsnet/compress@v0.0.2-0.20210315054119-f66993602bf5",
        "pkg:golang/github.com/gobwas/httphead@v0.1.0",
        "pkg:golang/github.com/gobwas/pool@v0.2.1",
        "pkg:golang/github.com/gobwas/ws@v1.1.0",
        "pkg:golang/github.com/golang/protobuf@v1.5.2",
        "pkg:golang/github.com/golang/snappy@v0.0.4",
        "pkg:golang/github.com/google/uuid@v1.3.0",
        "pkg:golang/github.com/gorilla/css@v1.0.0",
        "pkg:golang/github.com/hashicorp/go-cleanhttp@v0.5.2",
        "pkg:golang/github.com/hashicorp/go-retryablehttp@v0.7.0",
        "pkg:golang/github.com/hhrutter/lzw@v0.0.0-20190829144645-6f07a24e8650",
        "pkg:golang/github.com/hhrutter/tiff@v0.0.0-20190829141212-736cae8d0bc7",
        "pkg:golang/github.com/josharian/intern@v1.0.0",
        "pkg:golang/github.com/klauspost/compress@v1.15.1",
        "pkg:golang/github.com/klauspost/pgzip@v1.2.5",
        "pkg:golang/github.com/labstack/echo/v4@v4.7.2",
        "pkg:golang/github.com/labstack/gommon@v0.3.1",
        "pkg:golang/github.com/mailru/easyjson@v0.7.7",
        "pkg:golang/github.com/mattn/go-colorable@v0.1.12",
        "pkg:golang/github.com/mattn/go-isatty@v0.0.14",
        "pkg:golang/github.com/matttproud/golang_protobuf_extensions@v1.0.1",
        "pkg:golang/github.com/mholt/archiver/v3@v3.5.1",
        "pkg:golang/github.com/microcosm-cc/bluemonday@v1.0.18",
        "pkg:golang/github.com/nwaples/rardecode@v1.1.3",
        "pkg:golang/github.com/pdfcpu/pdfcpu@v0.3.13",
        "pkg:golang/github.com/pierrec/lz4/v4@v4.1.14",
        "pkg:golang/github.com/pkg/errors@v0.9.1",
        "pkg:golang/github.com/prometheus/client_golang@v1.12.1",
        "pkg:golang/github.com/prometheus/client_model@v0.2.0",
        "pkg:golang/github.com/prometheus/common@v0.32.1",
        "pkg:golang/github.com/prometheus/procfs@v0.7.3",
        "pkg:golang/github.com/russross/blackfriday/v2@v2.1.0",
        "pkg:golang/github.com/spf13/pflag@v1.0.5",
        "pkg:golang/github.com/ulikunitz/xz@v0.5.10",
        "pkg:golang/github.com/valyala/bytebufferpool@v1.0.0",
        "pkg:golang/github.com/valyala/fasttemplate@v1.2.1",
        "pkg:golang/github.com/xi2/xz@v0.0.0-20171230120015-48954b6210f8",
        "pkg:golang/go.uber.org/atomic@v1.9.0",
        "pkg:golang/go.uber.org/multierr@v1.8.0",
        "pkg:golang/go.uber.org/zap@v1.21.0",
        "pkg:golang/golang.org/x/crypto@v0.0.0-20220315160706-3147a52a75dd",
        "pkg:golang/golang.org/x/image@v0.0.0-20220321031419-a8550c1d254a",
        "pkg:golang/golang.org/x/net@v0.0.0-20220225172249-27dd8689420f",
        "pkg:golang/golang.org/x/sync@v0.0.0-20210220032951-036812b2e83c",
        "pkg:golang/golang.org/x/sys@v0.0.0-20220319134239-a9b59b0215f8",
        "pkg:golang/golang.org/x/term@v0.0.0-20210927222741-03fcf44c2211",
        "pkg:golang/golang.org/x/text@v0.3.7",
        "pkg:golang/google.golang.org/protobuf@v1.27.1",
        "pkg:golang/gopkg.in/yaml.v2@v2.4.0"
      ]
    }
  ]
}
