{
  "bomFormat": "CycloneDX",
  "specVersion": "1.3",
  "version": 1,
  "metadata": {
    "tools": [
      {
        "vendor": "AppThreat",
        "name": "cdxgen",
        "version": "3.0.10"
      },
      {
        "vendor": "Fortress Information Security",
        "name": "Github Extractor",
        "version": "1.15.1"
      }
    ],
    "authors": [
      {
        "name": "Fortress Information Security",
        "email": "sales@fortressinfosec.com",
        "phone": "1-407-573-6800"
      }
    ],
    "timestamp": "2022-06-01T21:00:00Z",
    "component": {
      "type": "application",
      "name": "HandBrake",
      "version": "1.5.1",
      "group": "HandBrake",
      "externalReferences": [
        {
          "url": "https://github.com/HandBrake/HandBrake.git",
          "type": "distribution"
        },
        {
          "type": "website",
          "url": "https://handbrake.fr",
          "comment": "As set via `homepage` in Github API"
        }
      ]
    }
  },
  "components": [
    {
      "type": "library",
      "name": "hashlib",
      "version": "20081119",
      "description": "Secure hash and message digest algorithm library",
      "hashes": [
        {
          "alg": "MD5",
          "content": "46e59db6d5cac34b3344ef0c30d0897f"
        },
        {
          "alg": "SHA-256",
          "content": "419de2fd10ae71ed9c6adcb55903f116abd1d8acc8c814dfd5f839b4d5013e38"
        }
      ],
      "purl": "pkg:pypi/hashlib@20081119",
      "modified": false
    },
    {
      "type": "library",
      "publisher": "Stephan Klein",
      "name": "signal",
      "version": "0.1",
      "description": "Send SMS messages via ADB and your Android phone. Comes with a CLI.",
      "licenses": [
        {
          "license": {
            "name": "MIT"
          }
        }
      ],
      "purl": "pkg:pypi/signal@0.1",
      "modified": false
    },
    {
      "type": "library",
      "publisher": "Zope Foundation and Contributors",
      "name": "datetime",
      "version": "4.4",
      "description": "This package provides a DateTime data type, as known from Zope. Unless you need to communicate with Zope APIs, you're probably better off using Python's built-in datetime module.",
      "hashes": [
        {
          "alg": "MD5",
          "content": "ad1e82d858ed7c8cd2ea437b4cb695ed"
        },
        {
          "alg": "SHA-256",
          "content": "4fcca115ddb466a1104df08d5c2a2f5805d14ca317800e1bfcea8f3d69f66e57"
        }
      ],
      "licenses": [
        {
          "license": {
            "name": "ZPL 2.1"
          }
        }
      ],
      "purl": "pkg:pypi/datetime@4.4",
      "modified": false
    },
    {
      "type": "library",
      "publisher": "Thomas Waldmann",
      "name": "argparse",
      "version": "1.4.0",
      "description": "Python command-line parsing library",
      "hashes": [
        {
          "alg": "MD5",
          "content": "c37216a954c8669054e2b2c54853dd49"
        },
        {
          "alg": "SHA-256",
          "content": "c31647edb69fd3d465a847ea3157d37bed1f95f19760b11a47aa91c04b666314"
        }
      ],
      "licenses": [
        {
          "license": {
            "name": "Python Software Foundation License"
          }
        }
      ],
      "purl": "pkg:pypi/argparse@1.4.0",
      "modified": false
    },
    {
      "type": "library",
      "bom-ref": "pkg:nuget/Caliburn.Micro@4.0.136-rc",
      "group": "",
      "name": "Caliburn.Micro",
      "version": "4.0.136-rc",
      "description": "",
      "purl": "pkg:nuget/Caliburn.Micro@4.0.136-rc"
    },
    {
      "type": "library",
      "bom-ref": "pkg:nuget/gong-wpf-dragdrop@3.1.1",
      "group": "",
      "name": "gong-wpf-dragdrop",
      "version": "3.1.1",
      "description": "",
      "purl": "pkg:nuget/gong-wpf-dragdrop@3.1.1"
    },
    {
      "type": "library",
      "bom-ref": "pkg:nuget/MahApps.Metro@2.4.9",
      "group": "",
      "name": "MahApps.Metro",
      "version": "2.4.9",
      "description": "",
      "purl": "pkg:nuget/MahApps.Metro@2.4.9"
    },
    {
      "type": "library",
      "bom-ref": "pkg:nuget/Microsoft.Toolkit.Uwp.Notifications@7.1.2",
      "group": "",
      "name": "Microsoft.Toolkit.Uwp.Notifications",
      "version": "7.1.2",
      "description": "",
      "purl": "pkg:nuget/Microsoft.Toolkit.Uwp.Notifications@7.1.2"
    },
    {
      "type": "library",
      "bom-ref": "pkg:nuget/Ookii.Dialogs.Wpf@5.0.1",
      "group": "",
      "name": "Ookii.Dialogs.Wpf",
      "version": "5.0.1",
      "description": "",
      "purl": "pkg:nuget/Ookii.Dialogs.Wpf@5.0.1"
    },
    {
      "type": "library",
      "bom-ref": "pkg:nuget/System.Management@6.0.0",
      "group": "",
      "name": "System.Management",
      "version": "6.0.0",
      "description": "",
      "purl": "pkg:nuget/System.Management@6.0.0"
    }
  ]
}
