{
  "bomFormat": "CycloneDX",
  "specVersion": "1.3",
  "version": 1,
  "components": [
    {
      "type": "library",
      "publisher": "PyTorch Team",
      "name": "torch",
      "version": "1.11.0",
      "description": "Tensors and Dynamic neural networks in Python with strong GPU acceleration",
      "hashes": [
        {
          "alg": "MD5",
          "content": "d88113ea2a0597fd611880e93a508fe0"
        },
        {
          "alg": "SHA-256",
          "content": "0e48af66ad755f0f9c5f2664028a414f57c49d6adc37e77e06fe0004da4edb61"
        }
      ],
      "licenses": [
        {
          "license": {
            "name": "BSD-3"
          }
        }
      ],
      "purl": "pkg:pypi/torch@1.11.0",
      "modified": false
    },
    {
      "type": "library",
      "publisher": "Thomas Waldmann",
      "name": "argparse",
      "version": "1.4.0",
      "description": "Python command-line parsing library",
      "hashes": [
        {
          "alg": "MD5",
          "content": "c37216a954c8669054e2b2c54853dd49"
        },
        {
          "alg": "SHA-256",
          "content": "c31647edb69fd3d465a847ea3157d37bed1f95f19760b11a47aa91c04b666314"
        }
      ],
      "licenses": [
        {
          "license": {
            "name": "Python Software Foundation License"
          }
        }
      ],
      "purl": "pkg:pypi/argparse@1.4.0",
      "modified": false
    },
    {
      "type": "library",
      "publisher": "Vinay Sajip",
      "name": "logging",
      "version": "0.4.9.6",
      "description": "A logging module for Python",
      "hashes": [
        {
          "alg": "MD5",
          "content": "dc0a7ebc8b8970263911e11e7b7e1ca8"
        },
        {
          "alg": "SHA-256",
          "content": "26f6b50773f085042d301085bd1bf5d9f3735704db9f37c1ce6d8b85c38f2417"
        }
      ],
      "licenses": [
        {
          "license": {
            "name": "Copyright (C) 2001-2005 by Vinay Sajip. All Rights Reserved. See LICENSE for license."
          }
        }
      ],
      "purl": "pkg:pypi/logging@0.4.9.6",
      "modified": false
    },
    {
      "type": "library",
      "publisher": "Zope Foundation and Contributors",
      "name": "datetime",
      "version": "4.4",
      "description": "This package provides a DateTime data type, as known from Zope. Unless you need to communicate with Zope APIs, you're probably better off using Python's built-in datetime module.",
      "hashes": [
        {
          "alg": "MD5",
          "content": "ad1e82d858ed7c8cd2ea437b4cb695ed"
        },
        {
          "alg": "SHA-256",
          "content": "4fcca115ddb466a1104df08d5c2a2f5805d14ca317800e1bfcea8f3d69f66e57"
        }
      ],
      "licenses": [
        {
          "license": {
            "name": "ZPL 2.1"
          }
        }
      ],
      "purl": "pkg:pypi/datetime@4.4",
      "modified": false
    },
    {
      "type": "library",
      "publisher": "PyTorch Core Team",
      "name": "torchvision",
      "version": "0.12.0",
      "description": "image and video datasets and models for torch deep learning",
      "hashes": [
        {
          "alg": "MD5",
          "content": "e4458886f57f6221343c4bc4121d4526"
        },
        {
          "alg": "SHA-256",
          "content": "edab05f7ba9f648c00435b384ffdbd7bde79a3b8ea893813fb50f6ccf28b1e76"
        }
      ],
      "licenses": [
        {
          "license": {
            "name": "BSD"
          }
        }
      ],
      "purl": "pkg:pypi/torchvision@0.12.0",
      "modified": false
    },
    {
      "type": "library",
      "publisher": "Ross Wightman",
      "name": "timm",
      "version": "0.5.4",
      "description": "(Unofficial) PyTorch Image Models",
      "hashes": [
        {
          "alg": "MD5",
          "content": "8b01fa2cf14a2909817e5d73aa07e52c"
        },
        {
          "alg": "SHA-256",
          "content": "0592c8fd2d46d0769c0b7e954b3dacea93769eee40dabb4bd7f2acb85243b588"
        }
      ],
      "purl": "pkg:pypi/timm@0.5.4",
      "modified": false
    },
    {
      "type": "library",
      "name": "torchprofile",
      "version": "0.0.4",
      "hashes": [
        {
          "alg": "MD5",
          "content": "7105bd833fba2c98d7bd6084ae3e893d"
        },
        {
          "alg": "SHA-256",
          "content": "7151fe88dc770f0eeec241244a4c7feaec2c5e8c7852386bc2d6a8d7dde7384d"
        }
      ],
      "licenses": [
        {
          "license": {
            "name": "MIT"
          }
        }
      ],
      "purl": "pkg:pypi/torchprofile@0.0.4",
      "modified": false
    },
    {
      "type": "library",
      "publisher": "Dima Dorfman",
      "name": "functools",
      "version": "0.5",
      "description": "Fast tools for functional programming",
      "hashes": [
        {
          "alg": "MD5",
          "content": "91111c28ee685a2f89f1a41e6f0ce8ea"
        },
        {
          "alg": "SHA-256",
          "content": "596ed8999dee419c0749a41bfdd82e4697e80ea27ee01c716003ef55be9a54c5"
        }
      ],
      "licenses": [
        {
          "license": {
            "name": "BSD"
          }
        }
      ],
      "purl": "pkg:pypi/functools@0.5",
      "modified": false
    },
    {
      "type": "library",
      "publisher": "Travis E. Oliphant et al.",
      "name": "numpy",
      "version": "1.22.3",
      "description": "NumPy is the fundamental package for array computing with Python.",
      "hashes": [
        {
          "alg": "MD5",
          "content": "99d2dfb943327b108b2c3b923bd42000"
        },
        {
          "alg": "SHA-256",
          "content": "c34ea7e9d13a70bf2ab64a2532fe149a9aced424cd05a2c4ba662fd989e3e45f"
        }
      ],
      "licenses": [
        {
          "license": {
            "name": "BSD"
          }
        }
      ],
      "purl": "pkg:pypi/numpy@1.22.3",
      "modified": false
    },
    {
      "type": "library",
      "publisher": "Dave Cole",
      "name": "csv",
      "version": "1.0",
      "description": "Fast CSV Parser for Python",
      "licenses": [
        {
          "license": {
            "name": "BSD"
          }
        }
      ],
      "purl": "pkg:pypi/csv@1.0",
      "modified": false
    },
    {
      "type": "library",
      "publisher": "Christian Heimes",
      "name": "multiprocessing",
      "version": "2.6.2.1",
      "description": "Backport of the multiprocessing package to Python 2.4 and 2.5",
      "hashes": [
        {
          "alg": "MD5",
          "content": "5cc484396c040102116ccc2355379c72"
        },
        {
          "alg": "SHA-256",
          "content": "ef3b81ad85d7de252e5491b1daac028e17f9741cbe3625032e6eaa4ad4c79900"
        }
      ],
      "licenses": [
        {
          "license": {
            "name": "BSD Licence"
          }
        }
      ],
      "purl": "pkg:pypi/multiprocessing@2.6.2.1",
      "modified": false
    },
    {
      "type": "library",
      "publisher": "Google Inc.",
      "name": "tensorflow",
      "version": "2.8.0",
      "description": "TensorFlow is an open source machine learning framework for everyone.",
      "hashes": [
        {
          "alg": "MD5",
          "content": "198e5d8efbc7b35d8e2b503eaeb7d2c7"
        },
        {
          "alg": "SHA-256",
          "content": "b360c13b3e58b9a5c0780cbdb6b549eea73f620275fa203f8508fe418ae02735"
        }
      ],
      "licenses": [
        {
          "license": {
            "name": "Apache 2.0"
          }
        }
      ],
      "purl": "pkg:pypi/tensorflow@2.8.0",
      "modified": false
    },
    {
      "type": "library",
      "publisher": "TensorPack contributors",
      "name": "tensorpack",
      "version": "0.11",
      "description": "A Neural Network Training Interface on TensorFlow",
      "hashes": [
        {
          "alg": "MD5",
          "content": "9446acdac9020fa78871c5081ed8e034"
        },
        {
          "alg": "SHA-256",
          "content": "afcdaccf6e8e7d61c98970646d57b1c22372ddd712c462477a90f53e3994c4a1"
        }
      ],
      "licenses": [
        {
          "license": {
            "name": "Apache"
          }
        }
      ],
      "purl": "pkg:pypi/tensorpack@0.11",
      "modified": false
    },
    {
      "type": "library",
      "name": "scipy",
      "version": "1.8.0",
      "description": "SciPy: Scientific Library for Python",
      "hashes": [
        {
          "alg": "MD5",
          "content": "1995af4cdd1a9174dcf58beccb8d2404"
        },
        {
          "alg": "SHA-256",
          "content": "bb7088e89cd751acf66195d2f00cf009a1ea113f3019664032d9075b1e727b6c"
        }
      ],
      "licenses": [
        {
          "license": {
            "name": "BSD"
          }
        }
      ],
      "purl": "pkg:pypi/scipy@1.8.0",
      "modified": false
    },
    {
      "type": "library",
      "publisher": "Ligeng Zhu",
      "name": "thop",
      "version": "0.0.31-2005241907",
      "description": "A tool to count the FLOPs of PyTorch model.",
      "hashes": [
        {
          "alg": "MD5",
          "content": "65efa8cc85623b11dc9a1a31533c0b90"
        },
        {
          "alg": "SHA-256",
          "content": "86d67af12311b34905949eb91c8c38f92a707de72140c29a94110cc623e21ceb"
        }
      ],
      "licenses": [
        {
          "license": {
            "name": "MIT"
          }
        }
      ],
      "purl": "pkg:pypi/thop@0.0.31-2005241907",
      "modified": false
    }
  ],
  "metadata": {
    "tools": [
      {
        "vendor": "Fortress Information Security",
        "name": "Github Extractor",
        "version": "1.15.1"
      }
    ],
    "authors": [
      {
        "name": "Fortress Information Security",
        "email": "sales@fortressinfosec.com",
        "phone": "1-407-573-6800"
      }
    ],
    "timestamp": "2022-06-01T21:00:00Z",
    "component": {
      "type": "application",
      "name": "CV-Backbones",
      "version": "wavemlp",
      "group": "huawei-noah",
      "externalReferences": [
        {
          "url": "https://github.com/huawei-noah/CV-Backbones.git",
          "type": "distribution"
        },
        {
          "type": "website",
          "url": "null",
          "comment": "As set via `homepage` in Github API"
        }
      ]
    }
  }
}
