{
  "bomFormat": "CycloneDX",
  "specVersion": "1.3",
  "version": 1,
  "metadata": {
    "tools": [
      {
        "vendor": "AppThreat",
        "name": "cdxgen",
        "version": "3.0.10"
      },
      {
        "vendor": "Fortress Information Security",
        "name": "Github Extractor",
        "version": "1.15.1"
      }
    ],
    "authors": [
      {
        "name": "Fortress Information Security",
        "email": "sales@fortressinfosec.com",
        "phone": "1-407-573-6800"
      }
    ],
    "timestamp": "2022-06-01T21:00:00Z",
    "component": {
      "type": "application",
      "name": "datasets",
      "version": "2.3.2",
      "group": "huggingface",
      "externalReferences": [
        {
          "url": "https://github.com/huggingface/datasets.git",
          "type": "distribution"
        },
        {
          "type": "website",
          "url": "https://huggingface.co/docs/datasets",
          "comment": "As set via `homepage` in Github API"
        }
      ]
    }
  },
  "components": [
    {
      "type": "library",
      "publisher": "Python Packaging Authority",
      "name": "setuptools",
      "version": "62.1.0",
      "description": "Easily download, build, install, upgrade, and uninstall Python packages",
      "hashes": [
        {
          "alg": "MD5",
          "content": "101d2e2bf9b7682ab90d9a7bd487bdbe"
        },
        {
          "alg": "SHA-256",
          "content": "26ead7d1f93efc0f8c804d9fafafbe4a44b179580a7105754b245155f9af05a8"
        }
      ],
      "purl": "pkg:pypi/setuptools@62.1.0",
      "modified": false
    },
    {
      "type": "library",
      "publisher": "Greg Ward",
      "name": "distutils",
      "version": "1.0",
      "description": "Python Distribution Utilities",
      "purl": "pkg:pypi/distutils@1.0",
      "modified": false
    },
    {
      "type": "library",
      "publisher": "Vinay Sajip",
      "name": "logging",
      "version": "0.4.9.6",
      "description": "A logging module for Python",
      "hashes": [
        {
          "alg": "MD5",
          "content": "dc0a7ebc8b8970263911e11e7b7e1ca8"
        },
        {
          "alg": "SHA-256",
          "content": "26f6b50773f085042d301085bd1bf5d9f3735704db9f37c1ce6d8b85c38f2417"
        }
      ],
      "licenses": [
        {
          "license": {
            "name": "Copyright (C) 2001-2005 by Vinay Sajip. All Rights Reserved. See LICENSE for license."
          }
        }
      ],
      "purl": "pkg:pypi/logging@0.4.9.6",
      "modified": false
    },
    {
      "type": "library",
      "publisher": "Kenneth Reitz",
      "name": "requests",
      "version": "2.27.1",
      "description": "Python HTTP for Humans.",
      "hashes": [
        {
          "alg": "MD5",
          "content": "435db0f122c83decd27524f690e89650"
        },
        {
          "alg": "SHA-256",
          "content": "f22fa1e554c9ddfd16e6e41ac79759e17be9e492b3587efa038054674760e72d"
        }
      ],
      "licenses": [
        {
          "license": {
            "name": "Apache 2.0"
          }
        }
      ],
      "purl": "pkg:pypi/requests@2.27.1",
      "modified": false
    },
    {
      "type": "library",
      "publisher": "Antoine Pitrou",
      "name": "pathlib",
      "version": "1.0.1",
      "description": "Object-oriented filesystem paths",
      "hashes": [
        {
          "alg": "MD5",
          "content": "f26b13acf298a15cdb46a3dffc8eb0de"
        },
        {
          "alg": "SHA-256",
          "content": "f35f95ab8b0f59e6d354090350b44a80a80635d22efdedfa84c7ad1cf0a74147"
        }
      ],
      "licenses": [
        {
          "license": {
            "name": "MIT License"
          }
        }
      ],
      "purl": "pkg:pypi/pathlib@1.0.1",
      "modified": false
    },
    {
      "type": "library",
      "publisher": "Guido van Rossum, Jukka Lehtosalo, Łukasz Langa, Ivan Levkivskyi",
      "name": "typing",
      "version": "3.10.0.0",
      "description": "Type Hints for Python",
      "hashes": [
        {
          "alg": "MD5",
          "content": "cf38139027dc160e3ecd8e5ccf151da9"
        },
        {
          "alg": "SHA-256",
          "content": "12fbdfbe7d6cca1a42e485229afcb0b0c8259258cfb919b8a5e2a5c953742f89"
        }
      ],
      "licenses": [
        {
          "license": {
            "name": "PSF"
          }
        }
      ],
      "purl": "pkg:pypi/typing@3.10.0.0",
      "modified": false
    },
    {
      "type": "library",
      "publisher": "Pedro Burón",
      "name": "dotenv",
      "version": "0.0.5",
      "description": "Handle .env files",
      "hashes": [
        {
          "alg": "MD5",
          "content": "ea01098e3aed2cf6dfcb6fc927d0995e"
        },
        {
          "alg": "SHA-256",
          "content": "b58d2ab3f83dbd4f8a362b21158a606bee87317a9444485566b3c8f0af847091"
        }
      ],
      "purl": "pkg:pypi/dotenv@0.0.5",
      "modified": false
    },
    {
      "type": "library",
      "name": "tqdm",
      "version": "4.64.0",
      "description": "Fast, Extensible Progress Meter",
      "hashes": [
        {
          "alg": "MD5",
          "content": "67cd3830694b2a7e577d0db9e52a7830"
        },
        {
          "alg": "SHA-256",
          "content": "74a2cdefe14d11442cedf3ba4e21a3b84ff9a2dbdc6cfae2c34addb2a14a5ea6"
        }
      ],
      "licenses": [
        {
          "license": {
            "name": "MPLv2.0, MIT Licences"
          }
        }
      ],
      "purl": "pkg:pypi/tqdm@4.64.0",
      "modified": false
    },
    {
      "type": "library",
      "publisher": "Travis E. Oliphant et al.",
      "name": "numpy",
      "version": "1.22.3",
      "description": "NumPy is the fundamental package for array computing with Python.",
      "hashes": [
        {
          "alg": "MD5",
          "content": "99d2dfb943327b108b2c3b923bd42000"
        },
        {
          "alg": "SHA-256",
          "content": "c34ea7e9d13a70bf2ab64a2532fe149a9aced424cd05a2c4ba662fd989e3e45f"
        }
      ],
      "licenses": [
        {
          "license": {
            "name": "BSD"
          }
        }
      ],
      "purl": "pkg:pypi/numpy@1.22.3",
      "modified": false
    },
    {
      "type": "library",
      "publisher": "Eric V. Smith",
      "name": "dataclasses",
      "version": "0.8",
      "description": "A backport of the dataclasses module for Python 3.6",
      "hashes": [
        {
          "alg": "MD5",
          "content": "0d6e5bb7adcc8fb0de3ef1ace1b32999"
        },
        {
          "alg": "SHA-256",
          "content": "0201d89fa866f68c8ebd9d08ee6ff50c0b255f8ec63a71c16fda7af82bb887bf"
        }
      ],
      "licenses": [
        {
          "license": {
            "name": "Apache"
          }
        }
      ],
      "purl": "pkg:pypi/dataclasses@0.8",
      "modified": false
    },
    {
      "type": "library",
      "name": "pyarrow",
      "version": "7.0.0",
      "description": "Python library for Apache Arrow",
      "hashes": [
        {
          "alg": "MD5",
          "content": "ea7a683d84d38b542ec3aad0a4ad2199"
        },
        {
          "alg": "SHA-256",
          "content": "087769dac6e567d58d59b94c4f866b3356c00d3db5b261387ece47e7324c2150"
        }
      ],
      "licenses": [
        {
          "license": {
            "name": "Apache License, Version 2.0"
          }
        }
      ],
      "purl": "pkg:pypi/pyarrow@7.0.0",
      "modified": false
    },
    {
      "type": "library",
      "publisher": "The Pandas Development Team",
      "name": "pandas",
      "version": "1.4.2",
      "description": "Powerful data structures for data analysis, time series, and statistics",
      "hashes": [
        {
          "alg": "MD5",
          "content": "d03e1ba43fac967c83ca8223248cc32f"
        },
        {
          "alg": "SHA-256",
          "content": "09d8be7dd9e1c4c98224c4dfe8abd60d145d934e9fc1f5f411266308ae683e6a"
        }
      ],
      "licenses": [
        {
          "license": {
            "name": "BSD-3-Clause"
          }
        }
      ],
      "purl": "pkg:pypi/pandas@1.4.2",
      "modified": false
    },
    {
      "type": "library",
      "publisher": "HuggingFace Inc.",
      "name": "datasets",
      "version": "2.1.0",
      "description": "HuggingFace community-driven open-source library of datasets",
      "hashes": [
        {
          "alg": "MD5",
          "content": "c2b2d21632835f186cca8a62c1b5eab6"
        },
        {
          "alg": "SHA-256",
          "content": "7c186041abb980066bff4482037f41e302741bad4709885b2417569f2f6bac3a"
        }
      ],
      "licenses": [
        {
          "license": {
            "name": "Apache 2.0"
          }
        }
      ],
      "purl": "pkg:pypi/datasets@2.1.0",
      "modified": false
    },
    {
      "type": "library",
      "publisher": "Dave Cole",
      "name": "csv",
      "version": "1.0",
      "description": "Fast CSV Parser for Python",
      "licenses": [
        {
          "license": {
            "name": "BSD"
          }
        }
      ],
      "purl": "pkg:pypi/csv@1.0",
      "modified": false
    },
    {
      "type": "library",
      "publisher": "Yijun Yu",
      "name": "ast",
      "version": "0.0.2",
      "description": "Conversion between protobuf3 and srcML.",
      "hashes": [
        {
          "alg": "MD5",
          "content": "866a45bda3dc0b19f8da494f6a548a8d"
        },
        {
          "alg": "SHA-256",
          "content": "04cf2827c4048d18635ca8f85357a4285d140424ac26028be0dc585f824e07cd"
        }
      ],
      "licenses": [
        {
          "license": {
            "name": "MIT"
          }
        }
      ],
      "purl": "pkg:pypi/ast@0.0.2",
      "modified": false
    },
    {
      "type": "library",
      "publisher": "Apache Software Foundation",
      "name": "apache_beam",
      "version": "2.38.0",
      "description": "Apache Beam SDK for Python",
      "hashes": [
        {
          "alg": "MD5",
          "content": "8bdecc39ec1a20987404260f1118902e"
        },
        {
          "alg": "SHA-256",
          "content": "74130705bae1742c2e24e80ec786cff5bbd5c94fea141cb468a7022f6538e8e2"
        }
      ],
      "licenses": [
        {
          "license": {
            "name": "Apache License, Version 2.0"
          }
        }
      ],
      "purl": "pkg:pypi/apache-beam@2.38.0",
      "modified": false
    },
    {
      "type": "library",
      "name": "io",
      "version": "0.0.1",
      "purl": "pkg:pypi/io@0.0.1",
      "modified": false
    },
    {
      "type": "library",
      "publisher": "Leonard Richardson",
      "name": "bs4",
      "version": "0.0.1",
      "description": "Dummy package for Beautiful Soup",
      "hashes": [
        {
          "alg": "MD5",
          "content": "fe7e51587ac3b174608f3c4f8bd893ac"
        },
        {
          "alg": "SHA-256",
          "content": "36ecea1fd7cc5c0c6e4a1ff075df26d50da647b75376626cc186e2212886dd3a"
        }
      ],
      "purl": "pkg:pypi/bs4@0.0.1",
      "modified": false
    },
    {
      "type": "library",
      "publisher": "Gregory Szorc",
      "name": "zstandard",
      "version": "0.17.0",
      "description": "Zstandard bindings for Python",
      "hashes": [
        {
          "alg": "MD5",
          "content": "6cb3d2a60145d6306a29f9e5eae50e3a"
        },
        {
          "alg": "SHA-256",
          "content": "b4e671c4c0804cdf752be26f260058bb858fbdaaef1340af170635913ecca01e"
        }
      ],
      "licenses": [
        {
          "license": {
            "name": "BSD"
          }
        }
      ],
      "purl": "pkg:pypi/zstandard@0.17.0",
      "modified": false
    },
    {
      "type": "library",
      "publisher": "Emil Stenström",
      "name": "conllu",
      "version": "4.4.2",
      "description": "CoNLL-U Parser parses a CoNLL-U formatted string into a nested python dictionary",
      "hashes": [
        {
          "alg": "MD5",
          "content": "0b33269a1d59a34ac4e1b17d2349c9f6"
        },
        {
          "alg": "SHA-256",
          "content": "1cac11506d1797611fef319e536025b865699d3519e8766607c37e796b0f5b0e"
        }
      ],
      "licenses": [
        {
          "license": {
            "name": "MIT License"
          }
        }
      ],
      "purl": "pkg:pypi/conllu@4.4.2",
      "modified": false
    },
    {
      "type": "library",
      "publisher": "Dima Dorfman",
      "name": "functools",
      "version": "0.5",
      "description": "Fast tools for functional programming",
      "hashes": [
        {
          "alg": "MD5",
          "content": "91111c28ee685a2f89f1a41e6f0ce8ea"
        },
        {
          "alg": "SHA-256",
          "content": "596ed8999dee419c0749a41bfdd82e4697e80ea27ee01c716003ef55be9a54c5"
        }
      ],
      "licenses": [
        {
          "license": {
            "name": "BSD"
          }
        }
      ],
      "purl": "pkg:pypi/functools@0.5",
      "modified": false
    },
    {
      "type": "library",
      "publisher": "Andrew Collette",
      "name": "h5py",
      "version": "3.6.0",
      "description": "Read and write HDF5 files from Python",
      "hashes": [
        {
          "alg": "MD5",
          "content": "5e5714151e127c50b6fc6aaec86fded6"
        },
        {
          "alg": "SHA-256",
          "content": "9fd8a14236fdd092a20c0bdf25c3aba3777718d266fabb0fdded4fcf252d1630"
        }
      ],
      "licenses": [
        {
          "license": {
            "name": "BSD"
          }
        }
      ],
      "purl": "pkg:pypi/h5py@3.6.0",
      "modified": false
    },
    {
      "type": "library",
      "name": "scipy",
      "version": "1.8.0",
      "description": "SciPy: Scientific Library for Python",
      "hashes": [
        {
          "alg": "MD5",
          "content": "1995af4cdd1a9174dcf58beccb8d2404"
        },
        {
          "alg": "SHA-256",
          "content": "bb7088e89cd751acf66195d2f00cf009a1ea113f3019664032d9075b1e727b6c"
        }
      ],
      "licenses": [
        {
          "license": {
            "name": "BSD"
          }
        }
      ],
      "purl": "pkg:pypi/scipy@1.8.0",
      "modified": false
    },
    {
      "type": "library",
      "publisher": "Zope Foundation and Contributors",
      "name": "datetime",
      "version": "4.4",
      "description": "This package provides a DateTime data type, as known from Zope. Unless you need to communicate with Zope APIs, you're probably better off using Python's built-in datetime module.",
      "hashes": [
        {
          "alg": "MD5",
          "content": "ad1e82d858ed7c8cd2ea437b4cb695ed"
        },
        {
          "alg": "SHA-256",
          "content": "4fcca115ddb466a1104df08d5c2a2f5805d14ca317800e1bfcea8f3d69f66e57"
        }
      ],
      "licenses": [
        {
          "license": {
            "name": "ZPL 2.1"
          }
        }
      ],
      "purl": "pkg:pypi/datetime@4.4",
      "modified": false
    },
    {
      "type": "library",
      "publisher": "Hiroshi Miura",
      "name": "py7zr",
      "version": "0.18.5",
      "description": "Pure python 7-zip library",
      "hashes": [
        {
          "alg": "MD5",
          "content": "c8e9fcf95eae6f649ac1f12dcaae35a0"
        },
        {
          "alg": "SHA-256",
          "content": "81ebb10619739764c2d80ef222e5845373ce84523183371ae9cd88e0df908929"
        }
      ],
      "licenses": [
        {
          "license": {
            "name": "LGPL-2.1-or-later"
          }
        }
      ],
      "purl": "pkg:pypi/py7zr@0.18.5",
      "modified": false
    },
    {
      "type": "library",
      "publisher": "Richard Jones",
      "name": "html",
      "version": "1.16",
      "description": "simple, elegant HTML, XHTML and XML generation",
      "hashes": [
        {
          "alg": "MD5",
          "content": "39b9db7cdcc84607828be021172d441f"
        },
        {
          "alg": "SHA-256",
          "content": "ebc768f23b54a71350d731a75f2ef3a4a4dbdad9ae68d58b527664b66088e456"
        }
      ],
      "purl": "pkg:pypi/html@1.16",
      "modified": false
    },
    {
      "type": "library",
      "publisher": "Thomas Heller",
      "name": "ctypes",
      "version": "1.0.2",
      "description": "create and manipulate C data types in Python, call functions in shared libraries",
      "licenses": [
        {
          "license": {
            "name": "MIT License"
          }
        }
      ],
      "purl": "pkg:pypi/ctypes@1.0.2",
      "modified": false
    },
    {
      "type": "library",
      "publisher": "See AUTHORS",
      "name": "openpyxl",
      "version": "3.0.9",
      "description": "A Python library to read/write Excel 2010 xlsx/xlsm files",
      "hashes": [
        {
          "alg": "MD5",
          "content": "5db429f5ee7320970dcbd5dc7a6a8b95"
        },
        {
          "alg": "SHA-256",
          "content": "8f3b11bd896a95468a4ab162fc4fcd260d46157155d1f8bfaabb99d88cfcf79f"
        }
      ],
      "licenses": [
        {
          "license": {
            "name": "MIT"
          }
        }
      ],
      "purl": "pkg:pypi/openpyxl@3.0.9",
      "modified": false
    },
    {
      "type": "library",
      "name": "fsspec",
      "version": "2022.3.0",
      "description": "File-system specification",
      "hashes": [
        {
          "alg": "MD5",
          "content": "62e65aa88dc080c1459f32da6d6afee2"
        },
        {
          "alg": "SHA-256",
          "content": "a53491b003210fce6911dd8f2d37e20c41a27ce52a655eef11b885d1578ed4cf"
        }
      ],
      "licenses": [
        {
          "license": {
            "name": "BSD"
          }
        }
      ],
      "purl": "pkg:pypi/fsspec@2022.3.0",
      "modified": false
    },
    {
      "type": "library",
      "publisher": "lxml dev team",
      "name": "lxml",
      "version": "4.8.0",
      "description": "Powerful and Pythonic XML processing library combining libxml2/libxslt with the ElementTree API.",
      "hashes": [
        {
          "alg": "MD5",
          "content": "7ad82f2befca9ee0f3dc073ae7e0b85a"
        },
        {
          "alg": "SHA-256",
          "content": "8b99ec73073b37f9ebe8caf399001848fced9c08064effdbfc4da2b5a8d07b93"
        }
      ],
      "licenses": [
        {
          "license": {
            "name": "BSD"
          }
        }
      ],
      "purl": "pkg:pypi/lxml@4.8.0",
      "modified": false
    },
    {
      "type": "library",
      "name": "hashlib",
      "version": "20081119",
      "description": "Secure hash and message digest algorithm library",
      "hashes": [
        {
          "alg": "MD5",
          "content": "46e59db6d5cac34b3344ef0c30d0897f"
        },
        {
          "alg": "SHA-256",
          "content": "419de2fd10ae71ed9c6adcb55903f116abd1d8acc8c814dfd5f839b4d5013e38"
        }
      ],
      "purl": "pkg:pypi/hashlib@20081119",
      "modified": false
    },
    {
      "type": "library",
      "publisher": "Ben Kurtovic",
      "name": "mwparserfromhell",
      "version": "0.6.4",
      "description": "MWParserFromHell is a parser for MediaWiki wikicode.",
      "hashes": [
        {
          "alg": "MD5",
          "content": "1d8e0c7e29179e14ba7ac594f0f830be"
        },
        {
          "alg": "SHA-256",
          "content": "0c2bbb36110410b5f6d6d8b2f35f65f8ec8f57c0477609d35bcaac4784a59e5a"
        }
      ],
      "licenses": [
        {
          "license": {
            "name": "MIT License"
          }
        }
      ],
      "purl": "pkg:pypi/mwparserfromhell@0.6.4",
      "modified": false
    },
    {
      "type": "library",
      "publisher": "Thomas Waldmann",
      "name": "argparse",
      "version": "1.4.0",
      "description": "Python command-line parsing library",
      "hashes": [
        {
          "alg": "MD5",
          "content": "c37216a954c8669054e2b2c54853dd49"
        },
        {
          "alg": "SHA-256",
          "content": "c31647edb69fd3d465a847ea3157d37bed1f95f19760b11a47aa91c04b666314"
        }
      ],
      "licenses": [
        {
          "license": {
            "name": "Python Software Foundation License"
          }
        }
      ],
      "purl": "pkg:pypi/argparse@1.4.0",
      "modified": false
    },
    {
      "type": "library",
      "name": "sklearn",
      "version": "0.0",
      "description": "A set of python modules for machine learning and data mining",
      "hashes": [
        {
          "alg": "MD5",
          "content": "2f838446781e075ca99dfab2643a3199"
        },
        {
          "alg": "SHA-256",
          "content": "e23001573aa194b834122d2b9562459bf5ae494a2d59ca6b8aa22c85a44c0e31"
        }
      ],
      "purl": "pkg:pypi/sklearn@0.0",
      "modified": false
    },
    {
      "type": "library",
      "publisher": "Tianyi Zhang*, Varsha Kishore*, Felix Wu*, Kilian Q. Weinberger, and Yoav Artzi",
      "name": "bert_score",
      "version": "0.3.11",
      "description": "PyTorch implementation of BERT score",
      "hashes": [
        {
          "alg": "MD5",
          "content": "8c88145b41ef2528d9e2b12e064aab83"
        },
        {
          "alg": "SHA-256",
          "content": "d3e8a440d639327363d61d07417fa74cdab1af1af0defcecc0db7e488f2865bc"
        }
      ],
      "licenses": [
        {
          "license": {
            "name": "MIT"
          }
        }
      ],
      "purl": "pkg:pypi/bert-score@0.3.11",
      "modified": false
    },
    {
      "type": "library",
      "publisher": "Donald Stufft and individual contributors",
      "name": "packaging",
      "version": "21.3",
      "description": "Core utilities for Python packages",
      "hashes": [
        {
          "alg": "MD5",
          "content": "670a7057642064a747bd8274b24eb3f9"
        },
        {
          "alg": "SHA-256",
          "content": "ef103e05f519cdc783ae24ea4e2e0f508a9c99b2d4969652eed6a2e1ea5bd522"
        }
      ],
      "licenses": [
        {
          "license": {
            "name": "BSD-2-Clause or Apache-2.0"
          }
        }
      ],
      "purl": "pkg:pypi/packaging@21.3",
      "modified": false
    },
    {
      "type": "library",
      "publisher": "NLTK Team",
      "name": "nltk",
      "version": "3.7",
      "description": "Natural Language Toolkit",
      "hashes": [
        {
          "alg": "MD5",
          "content": "dcebc5c1dcd02d4336072872db2468e6"
        },
        {
          "alg": "SHA-256",
          "content": "ba3de02490308b248f9b94c8bc1ac0683e9aa2ec49ee78536d8667afb5e3eec8"
        }
      ],
      "licenses": [
        {
          "license": {
            "name": "Apache License, Version 2.0"
          }
        }
      ],
      "purl": "pkg:pypi/nltk@3.7",
      "modified": false
    },
    {
      "type": "library",
      "publisher": "John D. Hunter, Michael Droettboom",
      "name": "matplotlib",
      "version": "3.5.2",
      "description": "Python plotting package",
      "hashes": [
        {
          "alg": "MD5",
          "content": "36ccc2efc47ed886836b2c7c3d3b9b3a"
        },
        {
          "alg": "SHA-256",
          "content": "24173c23d1bcbaed5bf47b8785d27933a1ac26a5d772200a0f3e0e38f471b001"
        }
      ],
      "licenses": [
        {
          "license": {
            "name": "PSF"
          }
        }
      ],
      "purl": "pkg:pypi/matplotlib@3.5.2",
      "modified": false
    },
    {
      "type": "library",
      "name": "sacremoses",
      "version": "0.0.53",
      "description": "SacreMoses",
      "hashes": [
        {
          "alg": "MD5",
          "content": "19fb34d8a659d3f1ce5ffc231514a8a4"
        },
        {
          "alg": "SHA-256",
          "content": "43715868766c643b35de4b8046cce236bfe59a7fa88b25eaf6ddf02bacf53a7a"
        }
      ],
      "purl": "pkg:pypi/sacremoses@0.0.53",
      "modified": false
    },
    {
      "type": "library",
      "publisher": "Jason R. Coombs",
      "name": "importlib_metadata",
      "version": "4.11.3",
      "description": "Read metadata from Python packages",
      "hashes": [
        {
          "alg": "MD5",
          "content": "69ddde07994ebda16cfdd30aa5281e83"
        },
        {
          "alg": "SHA-256",
          "content": "1208431ca90a8cca1a6b8af391bb53c1a2db74e5d1cef6ddced95d4b2062edc6"
        }
      ],
      "purl": "pkg:pypi/importlib-metadata@4.11.3",
      "modified": false
    },
    {
      "type": "library",
      "publisher": "PyTorch Team",
      "name": "torch",
      "version": "1.11.0",
      "description": "Tensors and Dynamic neural networks in Python with strong GPU acceleration",
      "hashes": [
        {
          "alg": "MD5",
          "content": "d88113ea2a0597fd611880e93a508fe0"
        },
        {
          "alg": "SHA-256",
          "content": "0e48af66ad755f0f9c5f2664028a414f57c49d6adc37e77e06fe0004da4edb61"
        }
      ],
      "licenses": [
        {
          "license": {
            "name": "BSD-3"
          }
        }
      ],
      "purl": "pkg:pypi/torch@1.11.0",
      "modified": false
    },
    {
      "type": "library",
      "publisher": "Michael Foord",
      "name": "unittest",
      "version": "0.0",
      "hashes": [
        {
          "alg": "MD5",
          "content": "2a416384f814604ed854d40f352f1191"
        },
        {
          "alg": "SHA-256",
          "content": "1b492484bea7f68abda5fcc61412e77b6a105e5842355d630f8b75f01add3555"
        }
      ],
      "purl": "pkg:pypi/unittest@0.0",
      "modified": false
    },
    {
      "type": "library",
      "publisher": "Google, Inc.",
      "name": "absl",
      "version": "0.0",
      "purl": "pkg:pypi/absl@0.0",
      "modified": false
    },
    {
      "type": "library",
      "publisher": "Benjamin Peterson",
      "name": "six",
      "version": "1.16.0",
      "description": "Python 2 and 3 compatibility utilities",
      "hashes": [
        {
          "alg": "MD5",
          "content": "529d7fd7e14612ccde86417b4402d6f3"
        },
        {
          "alg": "SHA-256",
          "content": "8abb2f1d86890a2dfb989f9a77cfcfd3e47c2a354b01111771326f8aa26e0254"
        }
      ],
      "licenses": [
        {
          "license": {
            "name": "MIT"
          }
        }
      ],
      "purl": "pkg:pypi/six@1.16.0",
      "modified": false
    },
    {
      "type": "library",
      "publisher": "Google LLC",
      "name": "rouge_score",
      "version": "0.0.4",
      "description": "Pure python implementation of ROUGE-1.5.5.",
      "hashes": [
        {
          "alg": "MD5",
          "content": "74c170c7a39c91f253b430a1c3f9f297"
        },
        {
          "alg": "SHA-256",
          "content": "b57fd8a3589a392f1bb43a31788a46269102c84849564277761826b91f4d07d5"
        }
      ],
      "purl": "pkg:pypi/rouge-score@0.0.4",
      "modified": false
    },
    {
      "type": "library",
      "publisher": "Christian Heimes",
      "name": "multiprocessing",
      "version": "2.6.2.1",
      "description": "Backport of the multiprocessing package to Python 2.4 and 2.5",
      "hashes": [
        {
          "alg": "MD5",
          "content": "5cc484396c040102116ccc2355379c72"
        },
        {
          "alg": "SHA-256",
          "content": "ef3b81ad85d7de252e5491b1daac028e17f9741cbe3625032e6eaa4ad4c79900"
        }
      ],
      "licenses": [
        {
          "license": {
            "name": "BSD Licence"
          }
        }
      ],
      "purl": "pkg:pypi/multiprocessing@2.6.2.1",
      "modified": false
    },
    {
      "type": "library",
      "publisher": "Stephan Klein",
      "name": "signal",
      "version": "0.1",
      "description": "Send SMS messages via ADB and your Android phone. Comes with a CLI.",
      "licenses": [
        {
          "license": {
            "name": "MIT"
          }
        }
      ],
      "purl": "pkg:pypi/signal@0.1",
      "modified": false
    },
    {
      "type": "library",
      "publisher": "Hugging Face, Inc.",
      "name": "huggingface_hub",
      "version": "0.5.1",
      "description": "Client library to download and publish models on the huggingface.co hub",
      "hashes": [
        {
          "alg": "MD5",
          "content": "56ebeebfd1ab329a78c4d3ca0c82ba9b"
        },
        {
          "alg": "SHA-256",
          "content": "b9fd1f567a3fb16e73acc613e78d075d1926d4b0c5c56ba08c4f125707b50c70"
        }
      ],
      "licenses": [
        {
          "license": {
            "name": "Apache"
          }
        }
      ],
      "purl": "pkg:pypi/huggingface-hub@0.5.1",
      "modified": false
    },
    {
      "type": "library",
      "publisher": "Secret Labs AB (PythonWare)",
      "name": "PIL",
      "version": "1.1.6",
      "description": "Python Imaging Library",
      "licenses": [
        {
          "license": {
            "name": "Python (MIT style)"
          }
        }
      ],
      "purl": "pkg:pypi/pil@1.1.6",
      "modified": false
    },
    {
      "type": "library",
      "publisher": "Ka-Ping Yee",
      "name": "uuid",
      "version": "1.30",
      "description": "UUID object and generation functions (Python 2.3 or higher)",
      "hashes": [
        {
          "alg": "MD5",
          "content": "639b310f1fe6800e4bf8aa1dd9333117"
        },
        {
          "alg": "SHA-256",
          "content": "1f87cc004ac5120466f36c5beae48b4c48cc411968eed0eaecd3da82aa96193f"
        }
      ],
      "purl": "pkg:pypi/uuid@1.30",
      "modified": false
    },
    {
      "type": "library",
      "publisher": "Mike McKerns",
      "name": "multiprocess",
      "version": "0.70.12.2",
      "description": "better multiprocessing and multithreading in python",
      "hashes": [
        {
          "alg": "MD5",
          "content": "4be647a46fdc7a5efa52c3bcc9201883"
        },
        {
          "alg": "SHA-256",
          "content": "6f812a1d3f198b7cacd63983f60e2dc1338bd4450893f90c435067b5a3127e6f"
        }
      ],
      "licenses": [
        {
          "license": {
            "name": "BSD"
          }
        }
      ],
      "purl": "pkg:pypi/multiprocess@0.70.12.2",
      "modified": false
    },
    {
      "type": "library",
      "publisher": "Yue Du",
      "name": "xxhash",
      "version": "3.0.0",
      "description": "Python binding for xxHash",
      "hashes": [
        {
          "alg": "MD5",
          "content": "1dbf13a465180f2d9d76c9eb96e4b79e"
        },
        {
          "alg": "SHA-256",
          "content": "885b3a851980056707ab99a2c19c35dfe2c2ba5f602066dbfcd8af45ea855760"
        }
      ],
      "licenses": [
        {
          "license": {
            "name": "BSD"
          }
        }
      ],
      "purl": "pkg:pypi/xxhash@3.0.0",
      "modified": false
    },
    {
      "type": "library",
      "publisher": "JAX team",
      "name": "jax",
      "version": "0.3.10",
      "description": "Differentiate, compile, and transform Numpy code.",
      "hashes": [
        {
          "alg": "MD5",
          "content": "63d3a6643fe17312722975b1e48c7a18"
        },
        {
          "alg": "SHA-256",
          "content": "87aaa7a9708ee12ad3efb0b0feaa8873ed209750b256cc9b9a8fa1e3c1ede69c"
        }
      ],
      "licenses": [
        {
          "license": {
            "name": "Apache-2.0"
          }
        }
      ],
      "purl": "pkg:pypi/jax@0.3.10",
      "modified": false
    },
    {
      "type": "library",
      "publisher": "Amazon Web Services",
      "name": "botocore",
      "version": "1.25.8",
      "description": "Low-level, data-driven core of boto 3.",
      "hashes": [
        {
          "alg": "MD5",
          "content": "a4cecefed30974f1bc5876404b7c0d6b"
        },
        {
          "alg": "SHA-256",
          "content": "5b342da3487e5669801f5589cc15e379fc9f7803a426584d08a6329575644da3"
        }
      ],
      "licenses": [
        {
          "license": {
            "name": "Apache License 2.0"
          }
        }
      ],
      "purl": "pkg:pypi/botocore@1.25.8",
      "modified": false
    },
    {
      "type": "library",
      "publisher": "Mike McKerns",
      "name": "dill",
      "version": "0.3.4",
      "description": "serialize all of python",
      "hashes": [
        {
          "alg": "MD5",
          "content": "48dde579294cd040e6b3a1d000bafe8b"
        },
        {
          "alg": "SHA-256",
          "content": "7e40e4a70304fd9ceab3535d36e58791d9c4a776b38ec7f7ec9afc8d3dca4d4f"
        }
      ],
      "licenses": [
        {
          "license": {
            "name": "3-clause BSD"
          }
        }
      ],
      "purl": "pkg:pypi/dill@0.3.4",
      "modified": false
    },
    {
      "type": "library",
      "publisher": "Ben Finney",
      "name": "enum",
      "version": "0.4.7",
      "description": "Robust enumerated type support in Python.",
      "hashes": [
        {
          "alg": "MD5",
          "content": "e7d170e3f84435b77058de625c96ef58"
        },
        {
          "alg": "SHA-256",
          "content": "8c7cf3587eda51008bcc1eed99ea2c331ccd265c231dbaa95ec5258d3dc03100"
        }
      ],
      "licenses": [
        {
          "license": {
            "name": "GPL-3.0+"
          }
        }
      ],
      "purl": "pkg:pypi/enum@0.4.7",
      "modified": false
    },
    {
      "type": "library",
      "publisher": "Marko Kreen",
      "name": "rarfile",
      "version": "4.0",
      "description": "RAR archive reader for Python",
      "hashes": [
        {
          "alg": "MD5",
          "content": "356ca36cc15a92b8c40f1e0c0ecfcd00"
        },
        {
          "alg": "SHA-256",
          "content": "1094869119012f95c31a6f22cc3a9edbdca61861b805241116adbe2d737b68f8"
        }
      ],
      "licenses": [
        {
          "license": {
            "name": "ISC"
          }
        }
      ],
      "purl": "pkg:pypi/rarfile@4.0",
      "modified": false
    },
    {
      "type": "library",
      "publisher": "Guido van Rossum (and others)",
      "name": "asyncio",
      "version": "3.4.3",
      "description": "reference implementation of PEP 3156",
      "hashes": [
        {
          "alg": "MD5",
          "content": "82ea7f22832529b1d68109f077c3e977"
        },
        {
          "alg": "SHA-256",
          "content": "c4d18b22701821de07bd6aea8b53d21449ec0ec5680645e5317062ea21817d2d"
        }
      ],
      "licenses": [
        {
          "license": {
            "name": "PSF"
          }
        }
      ],
      "purl": "pkg:pypi/asyncio@3.4.3",
      "modified": false
    },
    {
      "type": "library",
      "name": "aiohttp",
      "version": "3.8.1",
      "description": "Async http client/server framework (asyncio)",
      "hashes": [
        {
          "alg": "MD5",
          "content": "924f3c0a0f17b3b26ea5371661291e7f"
        },
        {
          "alg": "SHA-256",
          "content": "1c182cb873bc91b411e184dab7a2b664d4fea2743df0e4d57402f7f3fa644bac"
        }
      ],
      "licenses": [
        {
          "license": {
            "name": "Apache 2"
          }
        }
      ],
      "purl": "pkg:pypi/aiohttp@3.8.1",
      "modified": false
    },
    {
      "type": "library",
      "publisher": "Holger Krekel, Bruno Oliveira, Ronny Pfannschmidt, Floris Bruynooghe, Brianna Laugher, Florian Bruhin and others",
      "name": "pytest",
      "version": "7.1.2",
      "description": "pytest: simple powerful testing with Python",
      "hashes": [
        {
          "alg": "MD5",
          "content": "6f5a9e12007a2529cb00d3b5a8af33a1"
        },
        {
          "alg": "SHA-256",
          "content": "13d0e3ccfc2b6e26be000cb6568c832ba67ba32e719443bfe725814d3c42433c"
        }
      ],
      "licenses": [
        {
          "license": {
            "name": "MIT"
          }
        }
      ],
      "purl": "pkg:pypi/pytest@7.1.2",
      "modified": false
    },
    {
      "type": "library",
      "publisher": "test",
      "name": "bleurt",
      "version": "1.0.0",
      "description": "test",
      "hashes": [
        {
          "alg": "MD5",
          "content": "b688372b47b81a9e68547cbd898e1015"
        },
        {
          "alg": "SHA-256",
          "content": "56af7bb8a016b7db0decaaf3ca6e23c13c13d45c33ad361b297a46cb260c746d"
        }
      ],
      "licenses": [
        {
          "license": {
            "name": "MIT"
          }
        }
      ],
      "purl": "pkg:pypi/bleurt@1.0.0",
      "modified": false
    },
    {
      "type": "library",
      "publisher": "Amazon Web Services",
      "name": "boto3",
      "version": "1.22.8",
      "description": "The AWS SDK for Python",
      "hashes": [
        {
          "alg": "MD5",
          "content": "63228ba15eb07d3c5d680faf96acab5d"
        },
        {
          "alg": "SHA-256",
          "content": "a6925fe88cc9cd6aab35ea950cdb1678a88210ece5271bb64c1593a46ed6de6c"
        }
      ],
      "licenses": [
        {
          "license": {
            "name": "Apache License 2.0"
          }
        }
      ],
      "purl": "pkg:pypi/boto3@1.22.8",
      "modified": false
    },
    {
      "type": "library",
      "publisher": "Jonathan Underwood",
      "name": "lz4",
      "version": "4.0.0",
      "description": "LZ4 Bindings for Python",
      "hashes": [
        {
          "alg": "MD5",
          "content": "35d833062fe00ced8b633570186cae52"
        },
        {
          "alg": "SHA-256",
          "content": "04067086a443eef46eb2dfc26e1e5a76165149ceb4a88f0b540b46ead95e39c8"
        }
      ],
      "purl": "pkg:pypi/lz4@4.0.0",
      "modified": false
    },
    {
      "type": "library",
      "bom-ref": "pkg:pypi/development status :: 5 - production/stable",
      "group": "",
      "name": "Development Status :: 5 - Production/Stable",
      "version": "0.0.0",
      "description": "",
      "purl": "pkg:pypi/development status :: 5 - production/stable"
    },
    {
      "type": "library",
      "bom-ref": "pkg:pypi/intended audience :: developers",
      "group": "",
      "name": "Intended Audience :: Developers",
      "version": "0.0.0",
      "description": "",
      "purl": "pkg:pypi/intended audience :: developers"
    },
    {
      "type": "library",
      "bom-ref": "pkg:pypi/intended audience :: education",
      "group": "",
      "name": "Intended Audience :: Education",
      "version": "0.0.0",
      "description": "",
      "purl": "pkg:pypi/intended audience :: education"
    },
    {
      "type": "library",
      "bom-ref": "pkg:pypi/intended audience :: science/research",
      "group": "",
      "name": "Intended Audience :: Science/Research",
      "version": "0.0.0",
      "description": "",
      "purl": "pkg:pypi/intended audience :: science/research"
    },
    {
      "type": "library",
      "bom-ref": "pkg:pypi/license :: osi approved :: apache software license",
      "group": "",
      "name": "License :: OSI Approved :: Apache Software License",
      "version": "0.0.0",
      "description": "",
      "purl": "pkg:pypi/license :: osi approved :: apache software license"
    },
    {
      "type": "library",
      "bom-ref": "pkg:pypi/operating system :: os independent",
      "group": "",
      "name": "Operating System :: OS Independent",
      "version": "0.0.0",
      "description": "",
      "purl": "pkg:pypi/operating system :: os independent"
    },
    {
      "type": "library",
      "bom-ref": "pkg:pypi/programming language :: python :: 3",
      "group": "",
      "name": "Programming Language :: Python :: 3",
      "version": "0.0.0",
      "description": "",
      "purl": "pkg:pypi/programming language :: python :: 3"
    },
    {
      "type": "library",
      "bom-ref": "pkg:pypi/programming language :: python :: 3.6",
      "group": "",
      "name": "Programming Language :: Python :: 3.6",
      "version": "0.0.0",
      "description": "",
      "purl": "pkg:pypi/programming language :: python :: 3.6"
    },
    {
      "type": "library",
      "bom-ref": "pkg:pypi/programming language :: python :: 3.7",
      "group": "",
      "name": "Programming Language :: Python :: 3.7",
      "version": "0.0.0",
      "description": "",
      "purl": "pkg:pypi/programming language :: python :: 3.7"
    },
    {
      "type": "library",
      "bom-ref": "pkg:pypi/programming language :: python :: 3.8",
      "group": "",
      "name": "Programming Language :: Python :: 3.8",
      "version": "0.0.0",
      "description": "",
      "purl": "pkg:pypi/programming language :: python :: 3.8"
    },
    {
      "type": "library",
      "bom-ref": "pkg:pypi/programming language :: python :: 3.9",
      "group": "",
      "name": "Programming Language :: Python :: 3.9",
      "version": "0.0.0",
      "description": "",
      "purl": "pkg:pypi/programming language :: python :: 3.9"
    },
    {
      "type": "library",
      "bom-ref": "pkg:pypi/programming language :: python :: 3.10",
      "group": "",
      "name": "Programming Language :: Python :: 3.10",
      "version": "0.0.0",
      "description": "",
      "purl": "pkg:pypi/programming language :: python :: 3.10"
    },
    {
      "type": "library",
      "bom-ref": "pkg:pypi/topic :: scientific/engineering :: artificial intelligence",
      "group": "",
      "name": "Topic :: Scientific/Engineering :: Artificial Intelligence",
      "version": "0.0.0",
      "description": "",
      "purl": "pkg:pypi/topic :: scientific/engineering :: artificial intelligence"
    }
  ]
}
