{
  "bomFormat": "CycloneDX",
  "specVersion": "1.3",
  "version": 1,
  "metadata": {
    "tools": [
      {
        "vendor": "CycloneDX",
        "name": "Node.js module",
        "version": "3.0.3"
      },
      {
        "vendor": "AppThreat",
        "name": "cdxgen",
        "version": "3.0.10"
      },
      {
        "vendor": "Fortress Information Security",
        "name": "Github Extractor",
        "version": "1.15.1"
      }
    ],
    "authors": [
      {
        "name": "Fortress Information Security",
        "email": "sales@fortressinfosec.com",
        "phone": "1-407-573-6800"
      }
    ],
    "timestamp": "2022-06-01T21:00:00Z",
    "component": {
      "type": "application",
      "name": "oauth2orize",
      "version": "",
      "group": "jaredhanson",
      "externalReferences": [
        {
          "url": "https://github.com/jaredhanson/oauth2orize.git",
          "type": "distribution"
        },
        {
          "type": "website",
          "url": "https://www.oauth2orize.org?utm_source=github&utm_medium=referral&utm_campaign=oauth2orize",
          "comment": "As set via `homepage` in Github API"
        }
      ]
    }
  },
  "components": [
    {
      "type": "library",
      "bom-ref": "pkg:npm/uid2@0.0.4",
      "name": "uid2",
      "version": "0.0.4",
      "description": "strong uid",
      "hashes": [
        {
          "alg": "SHA-1",
          "content": "033f3b1d5d32505f5ce5f888b9f3b667123c0a44"
        }
      ],
      "licenses": [
        {
          "license": {
            "id": "MIT"
          }
        }
      ],
      "purl": "pkg:npm/uid2@0.0.4",
      "externalReferences": [
        {
          "url": "https://github.com/coreh/uid2#readme",
          "type": "website"
        },
        {
          "url": "https://github.com/coreh/uid2/issues",
          "type": "issue-tracker"
        },
        {
          "url": "git+https://github.com/coreh/uid2.git",
          "type": "vcs"
        }
      ]
    },
    {
      "type": "library",
      "bom-ref": "pkg:npm/utils-merge@1.0.1",
      "name": "utils-merge",
      "version": "1.0.1",
      "description": "merge() utility function",
      "hashes": [
        {
          "alg": "SHA-1",
          "content": "9f95710f50a267947b2ccc124741c1028427e713"
        }
      ],
      "licenses": [
        {
          "license": {
            "id": "MIT"
          }
        }
      ],
      "purl": "pkg:npm/utils-merge@1.0.1",
      "externalReferences": [
        {
          "url": "https://github.com/jaredhanson/utils-merge#readme",
          "type": "website"
        },
        {
          "url": "http://github.com/jaredhanson/utils-merge/issues",
          "type": "issue-tracker"
        },
        {
          "url": "git://github.com/jaredhanson/utils-merge.git",
          "type": "vcs"
        }
      ]
    },
    {
      "type": "library",
      "bom-ref": "pkg:npm/debug@2.6.9",
      "name": "debug",
      "version": "2.6.9",
      "description": "small debugging utility",
      "hashes": [
        {
          "alg": "SHA-1",
          "content": "5d128515df134ff327e90a4c93f4e077a536341f"
        }
      ],
      "licenses": [
        {
          "license": {
            "id": "MIT"
          }
        }
      ],
      "purl": "pkg:npm/debug@2.6.9",
      "externalReferences": [
        {
          "url": "https://github.com/visionmedia/debug#readme",
          "type": "website"
        },
        {
          "url": "https://github.com/visionmedia/debug/issues",
          "type": "issue-tracker"
        },
        {
          "url": "git://github.com/visionmedia/debug.git",
          "type": "vcs"
        }
      ]
    },
    {
      "type": "library",
      "bom-ref": "pkg:npm/ms@2.0.0",
      "name": "ms",
      "version": "2.0.0",
      "description": "Tiny milisecond conversion utility",
      "hashes": [
        {
          "alg": "SHA-1",
          "content": "5608aeadfc00be6c2901df5f9861788de0d597c8"
        }
      ],
      "licenses": [
        {
          "license": {
            "id": "MIT"
          }
        }
      ],
      "purl": "pkg:npm/ms@2.0.0",
      "externalReferences": [
        {
          "url": "https://github.com/zeit/ms#readme",
          "type": "website"
        },
        {
          "url": "https://github.com/zeit/ms/issues",
          "type": "issue-tracker"
        },
        {
          "url": "git+https://github.com/zeit/ms.git",
          "type": "vcs"
        }
      ]
    },
    {
      "type": "library",
      "bom-ref": "pkg:npm/assertion-error@1.0.0",
      "name": "assertion-error",
      "version": "1.0.0",
      "description": "Error constructor for test and validation frameworks that implements standardized AssertionError specification.",
      "hashes": [
        {
          "alg": "SHA-1",
          "content": "c7f85438fdd466bc7ca16ab90c81513797a5d23b"
        }
      ],
      "licenses": [
        {
          "license": {
            "id": "MIT"
          }
        }
      ],
      "purl": "pkg:npm/assertion-error@1.0.0",
      "externalReferences": [
        {
          "url": "https://github.com/chaijs/assertion-error#readme",
          "type": "website"
        },
        {
          "url": "https://github.com/chaijs/assertion-error/issues",
          "type": "issue-tracker"
        },
        {
          "url": "git+ssh://git@github.com/chaijs/assertion-error.git",
          "type": "vcs"
        }
      ]
    },
    {
      "type": "library",
      "bom-ref": "pkg:npm/chai@2.3.0",
      "name": "chai",
      "version": "2.3.0",
      "description": "BDD/TDD assertion library for node.js and the browser. Test framework agnostic.",
      "hashes": [
        {
          "alg": "SHA-1",
          "content": "8a2f6a34748da801090fd73287b2aa739a4e909a"
        }
      ],
      "licenses": [
        {
          "license": {
            "id": "MIT"
          }
        }
      ],
      "purl": "pkg:npm/chai@2.3.0",
      "externalReferences": [
        {
          "url": "http://chaijs.com",
          "type": "website"
        },
        {
          "url": "https://github.com/chaijs/chai/issues",
          "type": "issue-tracker"
        },
        {
          "url": "git+https://github.com/chaijs/chai.git",
          "type": "vcs"
        }
      ]
    },
    {
      "type": "library",
      "bom-ref": "pkg:npm/deep-eql@0.1.3",
      "name": "deep-eql",
      "version": "0.1.3",
      "description": "Improved deep equality testing for Node.js and the browser.",
      "hashes": [
        {
          "alg": "SHA-1",
          "content": "ef558acab8de25206cd713906d74e56930eb69f2"
        }
      ],
      "licenses": [
        {
          "license": {
            "id": "MIT"
          }
        }
      ],
      "purl": "pkg:npm/deep-eql@0.1.3",
      "externalReferences": [
        {
          "url": "https://github.com/chaijs/deep-eql#readme",
          "type": "website"
        },
        {
          "url": "https://github.com/chaijs/deep-eql/issues",
          "type": "issue-tracker"
        },
        {
          "url": "git+ssh://git@github.com/chaijs/deep-eql.git",
          "type": "vcs"
        }
      ]
    },
    {
      "type": "library",
      "bom-ref": "pkg:npm/type-detect@0.1.1",
      "name": "type-detect",
      "version": "0.1.1",
      "description": "Improved typeof detection for node.js and the browser.",
      "hashes": [
        {
          "alg": "SHA-1",
          "content": "0ba5ec2a885640e470ea4e8505971900dac58822"
        }
      ],
      "licenses": [
        {
          "license": {
            "id": "MIT"
          }
        }
      ],
      "purl": "pkg:npm/type-detect@0.1.1",
      "externalReferences": [
        {
          "url": "https://github.com/chaijs/type-detect#readme",
          "type": "website"
        },
        {
          "url": "https://github.com/chaijs/type-detect/issues",
          "type": "issue-tracker"
        },
        {
          "url": "git+ssh://git@github.com/chaijs/type-detect.git",
          "type": "vcs"
        }
      ]
    },
    {
      "type": "library",
      "bom-ref": "pkg:npm/chai-connect-middleware@0.3.1",
      "name": "chai-connect-middleware",
      "version": "0.3.1",
      "description": "Helpers for testing Connect middleware with the Chai assertion library.",
      "hashes": [
        {
          "alg": "SHA-1",
          "content": "eaa185e992a102d032bd6e2780012a8e643586a8"
        }
      ],
      "purl": "pkg:npm/chai-connect-middleware@0.3.1",
      "externalReferences": [
        {
          "url": "https://github.com/jaredhanson/chai-connect-middleware#readme",
          "type": "website"
        },
        {
          "url": "http://github.com/jaredhanson/chai-connect-middleware/issues",
          "type": "issue-tracker"
        },
        {
          "url": "git://github.com/jaredhanson/chai-connect-middleware.git",
          "type": "vcs"
        }
      ]
    },
    {
      "type": "library",
      "bom-ref": "pkg:npm/chai-oauth2orize-grant@0.3.0",
      "name": "chai-oauth2orize-grant",
      "version": "0.3.0",
      "description": "Helpers for testing OAuth2orize grants with the Chai assertion library.",
      "hashes": [
        {
          "alg": "SHA-1",
          "content": "2d47e42c0ee8d19b2fc2e35780560d85299cb435"
        }
      ],
      "licenses": [
        {
          "license": {
            "id": "MIT"
          }
        }
      ],
      "purl": "pkg:npm/chai-oauth2orize-grant@0.3.0",
      "externalReferences": [
        {
          "url": "https://github.com/jaredhanson/chai-oauth2orize-grant#readme",
          "type": "website"
        },
        {
          "url": "http://github.com/jaredhanson/chai-oauth2orize-grant/issues",
          "type": "issue-tracker"
        },
        {
          "url": "git://github.com/jaredhanson/chai-oauth2orize-grant.git",
          "type": "vcs"
        }
      ]
    },
    {
      "type": "library",
      "bom-ref": "pkg:npm/commander@2.3.0",
      "name": "commander",
      "version": "2.3.0",
      "description": "the complete solution for node.js command-line programs",
      "hashes": [
        {
          "alg": "SHA-1",
          "content": "fd430e889832ec353b9acd1de217c11cb3eef873"
        }
      ],
      "purl": "pkg:npm/commander@2.3.0",
      "externalReferences": [
        {
          "url": "https://github.com/visionmedia/commander.js#readme",
          "type": "website"
        },
        {
          "url": "https://github.com/visionmedia/commander.js/issues",
          "type": "issue-tracker"
        },
        {
          "url": "git+https://github.com/visionmedia/commander.js.git",
          "type": "vcs"
        }
      ]
    },
    {
      "type": "library",
      "bom-ref": "pkg:npm/escape-string-regexp@1.0.2",
      "name": "escape-string-regexp",
      "version": "1.0.2",
      "description": "Escape RegExp special characters",
      "hashes": [
        {
          "alg": "SHA-1",
          "content": "4dbc2fe674e71949caf3fb2695ce7f2dc1d9a8d1"
        }
      ],
      "licenses": [
        {
          "license": {
            "id": "MIT"
          }
        }
      ],
      "purl": "pkg:npm/escape-string-regexp@1.0.2",
      "externalReferences": [
        {
          "url": "https://github.com/sindresorhus/escape-string-regexp#readme",
          "type": "website"
        },
        {
          "url": "https://github.com/sindresorhus/escape-string-regexp/issues",
          "type": "issue-tracker"
        },
        {
          "url": "git+https://github.com/sindresorhus/escape-string-regexp.git",
          "type": "vcs"
        }
      ]
    },
    {
      "type": "library",
      "bom-ref": "pkg:npm/diff@1.4.0",
      "name": "diff",
      "version": "1.4.0",
      "description": "A javascript text diff implementation.",
      "hashes": [
        {
          "alg": "SHA-1",
          "content": "7f28d2eb9ee7b15a97efd89ce63dcfdaa3ccbabf"
        }
      ],
      "purl": "pkg:npm/diff@1.4.0",
      "externalReferences": [
        {
          "url": "https://github.com/kpdecker/jsdiff#readme",
          "type": "website"
        },
        {
          "url": "http://github.com/kpdecker/jsdiff/issues",
          "type": "issue-tracker"
        },
        {
          "url": "git://github.com/kpdecker/jsdiff.git",
          "type": "vcs"
        }
      ]
    },
    {
      "type": "library",
      "bom-ref": "pkg:npm/glob@3.2.11",
      "name": "glob",
      "version": "3.2.11",
      "description": "a little globber",
      "hashes": [
        {
          "alg": "SHA-1",
          "content": "4a973f635b9190f715d10987d5c00fd2815ebe3d"
        }
      ],
      "licenses": [
        {
          "license": {
            "name": "BSD"
          }
        }
      ],
      "purl": "pkg:npm/glob@3.2.11",
      "externalReferences": [
        {
          "url": "https://github.com/isaacs/node-glob#readme",
          "type": "website"
        },
        {
          "url": "https://github.com/isaacs/node-glob/issues",
          "type": "issue-tracker"
        },
        {
          "url": "git://github.com/isaacs/node-glob.git",
          "type": "vcs"
        }
      ]
    },
    {
      "type": "library",
      "bom-ref": "pkg:npm/inherits@2.0.4",
      "name": "inherits",
      "version": "2.0.4",
      "description": "Browser-friendly inheritance fully compatible with standard node.js inherits()",
      "hashes": [
        {
          "alg": "SHA-1",
          "content": "0fa2c64f932917c3433a0ded55363aae37416b7c"
        }
      ],
      "licenses": [
        {
          "license": {
            "id": "ISC"
          }
        }
      ],
      "purl": "pkg:npm/inherits@2.0.4",
      "externalReferences": [
        {
          "url": "https://github.com/isaacs/inherits#readme",
          "type": "website"
        },
        {
          "url": "https://github.com/isaacs/inherits/issues",
          "type": "issue-tracker"
        },
        {
          "url": "git://github.com/isaacs/inherits.git",
          "type": "vcs"
        }
      ]
    },
    {
      "type": "library",
      "bom-ref": "pkg:npm/minimatch@0.3.0",
      "name": "minimatch",
      "version": "0.3.0",
      "description": "a glob matcher in javascript",
      "hashes": [
        {
          "alg": "SHA-1",
          "content": "275d8edaac4f1bb3326472089e7949c8394699dd"
        }
      ],
      "licenses": [
        {
          "license": {
            "id": "MIT"
          }
        }
      ],
      "purl": "pkg:npm/minimatch@0.3.0",
      "externalReferences": [
        {
          "url": "https://github.com/isaacs/minimatch#readme",
          "type": "website"
        },
        {
          "url": "https://github.com/isaacs/minimatch/issues",
          "type": "issue-tracker"
        },
        {
          "url": "git://github.com/isaacs/minimatch.git",
          "type": "vcs"
        }
      ]
    },
    {
      "type": "library",
      "bom-ref": "pkg:npm/lru-cache@2.7.3",
      "name": "lru-cache",
      "version": "2.7.3",
      "description": "A cache object that deletes the least-recently-used items.",
      "hashes": [
        {
          "alg": "SHA-1",
          "content": "6d4524e8b955f95d4f5b58851ce21dd72fb4e952"
        }
      ],
      "licenses": [
        {
          "license": {
            "id": "ISC"
          }
        }
      ],
      "purl": "pkg:npm/lru-cache@2.7.3",
      "externalReferences": [
        {
          "url": "https://github.com/isaacs/node-lru-cache#readme",
          "type": "website"
        },
        {
          "url": "https://github.com/isaacs/node-lru-cache/issues",
          "type": "issue-tracker"
        },
        {
          "url": "git://github.com/isaacs/node-lru-cache.git",
          "type": "vcs"
        }
      ]
    },
    {
      "type": "library",
      "bom-ref": "pkg:npm/sigmund@1.0.1",
      "name": "sigmund",
      "version": "1.0.1",
      "description": "Quick and dirty signatures for Objects.",
      "hashes": [
        {
          "alg": "SHA-1",
          "content": "3ff21f198cad2175f9f3b781853fd94d0d19b590"
        }
      ],
      "licenses": [
        {
          "license": {
            "id": "ISC"
          }
        }
      ],
      "purl": "pkg:npm/sigmund@1.0.1",
      "externalReferences": [
        {
          "url": "https://github.com/isaacs/sigmund#readme",
          "type": "website"
        },
        {
          "url": "https://github.com/isaacs/sigmund/issues",
          "type": "issue-tracker"
        },
        {
          "url": "git://github.com/isaacs/sigmund.git",
          "type": "vcs"
        }
      ]
    },
    {
      "type": "library",
      "bom-ref": "pkg:npm/growl@1.9.2",
      "name": "growl",
      "version": "1.9.2",
      "description": "Growl unobtrusive notifications",
      "hashes": [
        {
          "alg": "SHA-1",
          "content": "0ea7743715db8d8de2c5ede1775e1b45ac85c02f"
        }
      ],
      "licenses": [
        {
          "license": {
            "id": "MIT"
          }
        }
      ],
      "purl": "pkg:npm/growl@1.9.2",
      "externalReferences": [
        {
          "url": "https://github.com/tj/node-growl#readme",
          "type": "website"
        },
        {
          "url": "https://github.com/tj/node-growl/issues",
          "type": "issue-tracker"
        },
        {
          "url": "git://github.com/tj/node-growl.git",
          "type": "vcs"
        }
      ]
    },
    {
      "type": "library",
      "bom-ref": "pkg:npm/minimist@0.0.8",
      "name": "minimist",
      "version": "0.0.8",
      "description": "parse argument options",
      "hashes": [
        {
          "alg": "SHA-1",
          "content": "857fcabfc3397d2625b8228262e86aa7a011b05d"
        }
      ],
      "licenses": [
        {
          "license": {
            "id": "MIT"
          }
        }
      ],
      "purl": "pkg:npm/minimist@0.0.8",
      "externalReferences": [
        {
          "url": "https://github.com/substack/minimist",
          "type": "website"
        },
        {
          "url": "https://github.com/substack/minimist/issues",
          "type": "issue-tracker"
        },
        {
          "url": "git://github.com/substack/minimist.git",
          "type": "vcs"
        }
      ]
    },
    {
      "type": "library",
      "bom-ref": "pkg:npm/to-iso-string@0.0.2",
      "name": "to-iso-string",
      "version": "0.0.2",
      "description": "Cross-browser toISOString support.",
      "hashes": [
        {
          "alg": "SHA-1",
          "content": "4dc19e664dfccbe25bd8db508b00c6da158255d1"
        }
      ],
      "licenses": [
        {
          "license": {
            "id": "MIT"
          }
        }
      ],
      "purl": "pkg:npm/to-iso-string@0.0.2",
      "externalReferences": [
        {
          "url": "https://github.com/segmentio/to-iso-string#readme",
          "type": "website"
        },
        {
          "url": "https://github.com/segmentio/to-iso-string/issues",
          "type": "issue-tracker"
        },
        {
          "url": "git://github.com/segmentio/to-iso-string.git",
          "type": "vcs"
        }
      ]
    },
    {
      "type": "library",
      "bom-ref": "pkg:npm/make-node@0.3.5",
      "name": "make-node",
      "version": "0.3.5",
      "description": "Useful makefiles for developing Node.js packages.",
      "hashes": [
        {
          "alg": "SHA-1",
          "content": "2d354ddb8d3ecdf5a0d5bb4cadbbaa4461cade3a"
        }
      ],
      "purl": "pkg:npm/make-node@0.3.5",
      "externalReferences": [
        {
          "url": "https://github.com/jaredhanson/make-node#readme",
          "type": "website"
        },
        {
          "url": "http://github.com/jaredhanson/make-node/issues",
          "type": "issue-tracker"
        },
        {
          "url": "git://github.com/jaredhanson/make-node.git",
          "type": "vcs"
        }
      ]
    },
    {
      "type": "library",
      "bom-ref": "pkg:npm/mkdirp@0.5.1",
      "name": "mkdirp",
      "version": "0.5.1",
      "description": "Recursively mkdir, like `mkdir -p`",
      "hashes": [
        {
          "alg": "SHA-1",
          "content": "30057438eac6cf7f8c4767f38648d6697d75c903"
        }
      ],
      "licenses": [
        {
          "license": {
            "id": "MIT"
          }
        }
      ],
      "purl": "pkg:npm/mkdirp@0.5.1",
      "externalReferences": [
        {
          "url": "https://github.com/substack/node-mkdirp#readme",
          "type": "website"
        },
        {
          "url": "https://github.com/substack/node-mkdirp/issues",
          "type": "issue-tracker"
        },
        {
          "url": "git+https://github.com/substack/node-mkdirp.git",
          "type": "vcs"
        }
      ]
    },
    {
      "type": "library",
      "bom-ref": "pkg:npm/supports-color@1.2.0",
      "name": "supports-color",
      "version": "1.2.0",
      "description": "Detect whether a terminal supports color",
      "hashes": [
        {
          "alg": "SHA-1",
          "content": "ff1ed1e61169d06b3cf2d588e188b18d8847e17e"
        }
      ],
      "licenses": [
        {
          "license": {
            "id": "MIT"
          }
        }
      ],
      "purl": "pkg:npm/supports-color@1.2.0",
      "externalReferences": [
        {
          "url": "https://github.com/sindresorhus/supports-color#readme",
          "type": "website"
        },
        {
          "url": "https://github.com/sindresorhus/supports-color/issues",
          "type": "issue-tracker"
        },
        {
          "url": "git+https://github.com/sindresorhus/supports-color.git",
          "type": "vcs"
        }
      ]
    },
    {
      "type": "library",
      "bom-ref": "pkg:npm/jade@0.26.3",
      "name": "jade",
      "version": "0.26.3",
      "description": "Jade template engine",
      "hashes": [
        {
          "alg": "SHA-1",
          "content": "8f10d7977d8d79f2f6ff862a81b0513ccb25686c"
        }
      ],
      "purl": "pkg:npm/jade@0.26.3",
      "externalReferences": [
        {
          "url": "https://github.com/visionmedia/jade#readme",
          "type": "website"
        },
        {
          "url": "https://github.com/visionmedia/jade/issues",
          "type": "issue-tracker"
        },
        {
          "url": "git://github.com/visionmedia/jade.git",
          "type": "vcs"
        }
      ]
    },
    {
      "type": "library",
      "bom-ref": "pkg:npm/commander@0.6.1",
      "name": "commander",
      "version": "0.6.1",
      "description": "the complete solution for node.js command-line programs",
      "hashes": [
        {
          "alg": "SHA-1",
          "content": "fa68a14f6a945d54dbbe50d8cdb3320e9e3b1a06"
        }
      ],
      "purl": "pkg:npm/commander@0.6.1",
      "externalReferences": [
        {
          "url": "https://github.com/visionmedia/commander.js#readme",
          "type": "website"
        },
        {
          "url": "https://github.com/visionmedia/commander.js/issues",
          "type": "issue-tracker"
        },
        {
          "url": "git+https://github.com/visionmedia/commander.js.git",
          "type": "vcs"
        }
      ]
    },
    {
      "type": "library",
      "bom-ref": "pkg:npm/mkdirp@0.3.0",
      "name": "mkdirp",
      "version": "0.3.0",
      "description": "Recursively mkdir, like `mkdir -p`",
      "hashes": [
        {
          "alg": "SHA-1",
          "content": "1bbf5ab1ba827af23575143490426455f481fe1e"
        }
      ],
      "licenses": [
        {
          "license": {
            "name": "MIT/X11"
          }
        }
      ],
      "purl": "pkg:npm/mkdirp@0.3.0",
      "externalReferences": [
        {
          "url": "https://github.com/substack/node-mkdirp#readme",
          "type": "website"
        },
        {
          "url": "https://github.com/substack/node-mkdirp/issues",
          "type": "issue-tracker"
        },
        {
          "url": "git+ssh://git@github.com/substack/node-mkdirp.git",
          "type": "vcs"
        }
      ]
    },
    {
      "type": "library",
      "bom-ref": "pkg:npm/mocha@2.5.3",
      "name": "mocha",
      "version": "2.5.3",
      "description": "simple, flexible, fun test framework",
      "hashes": [
        {
          "alg": "SHA-1",
          "content": "161be5bdeb496771eb9b35745050b622b5aefc58"
        }
      ],
      "licenses": [
        {
          "license": {
            "id": "MIT"
          }
        }
      ],
      "purl": "pkg:npm/mocha@2.5.3",
      "externalReferences": [
        {
          "url": "https://github.com/mochajs/mocha#readme",
          "type": "website"
        },
        {
          "url": "https://github.com/mochajs/mocha/issues",
          "type": "issue-tracker"
        },
        {
          "url": "git://github.com/mochajs/mocha.git",
          "type": "vcs"
        }
      ]
    },
    {
      "type": "library",
      "bom-ref": "pkg:npm/debug@2.2.0",
      "name": "debug",
      "version": "2.2.0",
      "description": "small debugging utility",
      "hashes": [
        {
          "alg": "SHA-1",
          "content": "f87057e995b1a1f6ae6a4960664137bc56f039da"
        }
      ],
      "licenses": [
        {
          "license": {
            "id": "MIT"
          }
        }
      ],
      "purl": "pkg:npm/debug@2.2.0",
      "externalReferences": [
        {
          "url": "https://github.com/visionmedia/debug#readme",
          "type": "website"
        },
        {
          "url": "https://github.com/visionmedia/debug/issues",
          "type": "issue-tracker"
        },
        {
          "url": "git://github.com/visionmedia/debug.git",
          "type": "vcs"
        }
      ]
    },
    {
      "type": "library",
      "bom-ref": "pkg:npm/ms@0.7.1",
      "name": "ms",
      "version": "0.7.1",
      "description": "Tiny ms conversion utility",
      "hashes": [
        {
          "alg": "SHA-1",
          "content": "9cd13c03adbff25b65effde7ce864ee952017098"
        }
      ],
      "purl": "pkg:npm/ms@0.7.1",
      "externalReferences": [
        {
          "url": "https://github.com/guille/ms.js#readme",
          "type": "website"
        },
        {
          "url": "https://github.com/guille/ms.js/issues",
          "type": "issue-tracker"
        },
        {
          "url": "git://github.com/guille/ms.js.git",
          "type": "vcs"
        }
      ]
    }
  ]
}
