{
  "bomFormat": "CycloneDX",
  "specVersion": "1.3",
  "version": 2,
  "metadata": {
    "tools": [
      {
        "vendor": "AppThreat",
        "name": "cdxgen",
        "version": "3.0.10"
      },
      {
        "vendor": "Fortress Information Security",
        "name": "Github Extractor",
        "version": "1.15.1"
      }
    ],
    "authors": [
      {
        "name": "Fortress Information Security",
        "email": "sales@fortressinfosec.com",
        "phone": "1-407-573-6800"
      }
    ],
    "timestamp": "2022-07-26T23:35:14Z",
    "component": {
      "type": "application",
      "name": "pip-tools",
      "version": "6.6.2",
      "group": "jazzband",
      "externalReferences": [
        {
          "url": "https://github.com/jazzband/pip-tools.git",
          "type": "distribution"
        },
        {
          "type": "website",
          "url": "https://pip-tools.rtfd.io",
          "comment": "As set via `homepage` in Github API"
        }
      ]
    }
  },
  "components": [
    {
      "type": "library",
      "publisher": "Python Packaging Authority",
      "name": "setuptools",
      "version": "62.1.0",
      "description": "Easily download, build, install, upgrade, and uninstall Python packages",
      "hashes": [
        {
          "alg": "MD5",
          "content": "101d2e2bf9b7682ab90d9a7bd487bdbe"
        },
        {
          "alg": "SHA-256",
          "content": "26ead7d1f93efc0f8c804d9fafafbe4a44b179580a7105754b245155f9af05a8"
        }
      ],
      "purl": "pkg:pypi/setuptools@62.1.0",
      "modified": false
    },
    {
      "type": "library",
      "publisher": "Vinay Sajip",
      "name": "logging",
      "version": "0.4.9.6",
      "description": "A logging module for Python",
      "hashes": [
        {
          "alg": "MD5",
          "content": "dc0a7ebc8b8970263911e11e7b7e1ca8"
        },
        {
          "alg": "SHA-256",
          "content": "26f6b50773f085042d301085bd1bf5d9f3735704db9f37c1ce6d8b85c38f2417"
        }
      ],
      "licenses": [
        {
          "license": {
            "name": "Copyright (C) 2001-2005 by Vinay Sajip. All Rights Reserved. See LICENSE for license."
          }
        }
      ],
      "purl": "pkg:pypi/logging@0.4.9.6",
      "modified": false
    },
    {
      "type": "library",
      "publisher": "Guido van Rossum, Jukka Lehtosalo, Łukasz Langa, Ivan Levkivskyi",
      "name": "typing",
      "version": "3.10.0.0",
      "description": "Type Hints for Python",
      "hashes": [
        {
          "alg": "MD5",
          "content": "cf38139027dc160e3ecd8e5ccf151da9"
        },
        {
          "alg": "SHA-256",
          "content": "12fbdfbe7d6cca1a42e485229afcb0b0c8259258cfb919b8a5e2a5c953742f89"
        }
      ],
      "licenses": [
        {
          "license": {
            "name": "PSF"
          }
        }
      ],
      "purl": "pkg:pypi/typing@3.10.0.0",
      "modified": false
    },
    {
      "type": "library",
      "publisher": "Armin Ronacher",
      "name": "click",
      "version": "8.1.3",
      "description": "Composable command line interface toolkit",
      "hashes": [
        {
          "alg": "MD5",
          "content": "7a8260e7bdac219be27f0bdda48e79ce"
        },
        {
          "alg": "SHA-256",
          "content": "bb4d8133cb15a609f44e8213d9b391b0809795062913b383c62be0ee95b1db48"
        }
      ],
      "licenses": [
        {
          "license": {
            "name": "BSD-3-Clause"
          }
        }
      ],
      "purl": "pkg:pypi/click@8.1.3",
      "modified": false
    },
    {
      "type": "library",
      "publisher": "The pip developers",
      "name": "pip",
      "version": "22.0.4",
      "description": "The PyPA recommended tool for installing Python packages.",
      "hashes": [
        {
          "alg": "MD5",
          "content": "271aee4d4372295af4847a19d64c3595"
        },
        {
          "alg": "SHA-256",
          "content": "c6aca0f2f081363f689f041d90dab2a07a9a07fb840284db2218117a52da800b"
        }
      ],
      "licenses": [
        {
          "license": {
            "name": "MIT"
          }
        }
      ],
      "purl": "pkg:pypi/pip@22.0.4",
      "modified": false
    },
    {
      "type": "library",
      "publisher": "Dima Dorfman",
      "name": "functools",
      "version": "0.5",
      "description": "Fast tools for functional programming",
      "hashes": [
        {
          "alg": "MD5",
          "content": "91111c28ee685a2f89f1a41e6f0ce8ea"
        },
        {
          "alg": "SHA-256",
          "content": "596ed8999dee419c0749a41bfdd82e4697e80ea27ee01c716003ef55be9a54c5"
        }
      ],
      "licenses": [
        {
          "license": {
            "name": "BSD"
          }
        }
      ],
      "purl": "pkg:pypi/functools@0.5",
      "modified": false
    },
    {
      "type": "library",
      "publisher": "Thomas Kluyver",
      "name": "pep517",
      "version": "0.12.0",
      "description": "Wrappers to build Python packages using PEP 517 hooks",
      "hashes": [
        {
          "alg": "MD5",
          "content": "6e9c63b2635523a2f0bddcc579cbfc57"
        },
        {
          "alg": "SHA-256",
          "content": "dd884c326898e2c6e11f9e0b64940606a93eb10ea022a2e067959f3a110cf161"
        }
      ],
      "purl": "pkg:pypi/pep517@0.12.0",
      "modified": false
    },
    {
      "type": "library",
      "name": "hashlib",
      "version": "20081119",
      "description": "Secure hash and message digest algorithm library",
      "hashes": [
        {
          "alg": "MD5",
          "content": "46e59db6d5cac34b3344ef0c30d0897f"
        },
        {
          "alg": "SHA-256",
          "content": "419de2fd10ae71ed9c6adcb55903f116abd1d8acc8c814dfd5f839b4d5013e38"
        }
      ],
      "purl": "pkg:pypi/hashlib@20081119",
      "modified": false
    },
    {
      "type": "library",
      "publisher": "Antoine Pitrou",
      "name": "pathlib",
      "version": "1.0.1",
      "description": "Object-oriented filesystem paths",
      "hashes": [
        {
          "alg": "MD5",
          "content": "f26b13acf298a15cdb46a3dffc8eb0de"
        },
        {
          "alg": "SHA-256",
          "content": "f35f95ab8b0f59e6d354090350b44a80a80635d22efdedfa84c7ad1cf0a74147"
        }
      ],
      "licenses": [
        {
          "license": {
            "name": "MIT License"
          }
        }
      ],
      "purl": "pkg:pypi/pathlib@1.0.1",
      "modified": false
    },
    {
      "type": "library",
      "publisher": "Ronny Pfannschmidt",
      "name": "setuptools_scm",
      "version": "6.4.2",
      "description": "the blessed package to manage your versions by scm tags",
      "hashes": [
        {
          "alg": "MD5",
          "content": "a403db06fd9620799554af56c40c3f6d"
        },
        {
          "alg": "SHA-256",
          "content": "acea13255093849de7ccb11af9e1fb8bde7067783450cee9ef7a93139bddf6d4"
        }
      ],
      "licenses": [
        {
          "license": {
            "name": "MIT"
          }
        }
      ],
      "purl": "pkg:pypi/setuptools-scm@6.4.2",
      "modified": false
    },
    {
      "type": "library",
      "publisher": "Holger Krekel, Bruno Oliveira, Ronny Pfannschmidt, Floris Bruynooghe, Brianna Laugher, Florian Bruhin and others",
      "name": "pytest",
      "version": "7.1.2",
      "description": "pytest: simple powerful testing with Python",
      "hashes": [
        {
          "alg": "MD5",
          "content": "6f5a9e12007a2529cb00d3b5a8af33a1"
        },
        {
          "alg": "SHA-256",
          "content": "13d0e3ccfc2b6e26be000cb6568c832ba67ba32e719443bfe725814d3c42433c"
        }
      ],
      "licenses": [
        {
          "license": {
            "name": "MIT"
          }
        }
      ],
      "purl": "pkg:pypi/pytest@7.1.2",
      "modified": false
    },
    {
      "type": "library",
      "publisher": "Michael Foord",
      "name": "unittest",
      "version": "0.0",
      "hashes": [
        {
          "alg": "MD5",
          "content": "2a416384f814604ed854d40f352f1191"
        },
        {
          "alg": "SHA-256",
          "content": "1b492484bea7f68abda5fcc61412e77b6a105e5842355d630f8b75f01add3555"
        }
      ],
      "purl": "pkg:pypi/unittest@0.0",
      "modified": false
    },
    {
      "type": "library",
      "name": "io",
      "version": "0.0.1",
      "purl": "pkg:pypi/io@0.0.1",
      "modified": false
    },
    {
      "type": "library",
      "bom-ref": "pkg:pypi/furo@2021.7.5b38",
      "group": "",
      "name": "furo",
      "version": "2021.7.5b38",
      "description": "A clean customisable Sphinx documentation theme.",
      "hashes": [
        {
          "alg": "SHA-256",
          "content": "81316a9d498f77dd82b4c4a378a33561e5f762372a716cad91150b4b90da7b35"
        }
      ],
      "purl": "pkg:pypi/furo@2021.7.5b38"
    },
    {
      "type": "library",
      "bom-ref": "pkg:pypi/myst-parser@0.15.1",
      "group": "",
      "name": "myst-parser",
      "version": "0.15.1",
      "description": "An extended commonmark compliant parser, with bridges to docutils & sphinx.",
      "purl": "pkg:pypi/myst-parser@0.15.1"
    },
    {
      "type": "library",
      "bom-ref": "pkg:pypi/setuptools-scm@6.0.1",
      "group": "",
      "name": "setuptools-scm",
      "version": "6.0.1",
      "description": "the blessed package to manage your versions by scm tags",
      "hashes": [
        {
          "alg": "SHA-256",
          "content": "c3bd5f701c8def44a5c0bfe8d407bef3f80342217ef3492b951f3777bd2d915c"
        }
      ],
      "licenses": [
        {
          "license": {
            "id": "MIT",
            "url": "https://opensource.org/licenses/MIT"
          }
        }
      ],
      "purl": "pkg:pypi/setuptools-scm@6.0.1",
      "externalReferences": [
        {
          "url": "https://github.com/pypa/setuptools_scm/",
          "type": "vcs"
        }
      ]
    },
    {
      "type": "library",
      "bom-ref": "pkg:pypi/sphinx@4.1.1",
      "group": "",
      "name": "Sphinx",
      "version": "4.1.1",
      "description": "Python documentation generator",
      "hashes": [
        {
          "alg": "SHA-256",
          "content": "3d513088236eef51e5b0adb78b0492eb22cc3b8ccdb0b36dd021173b365d4454"
        }
      ],
      "licenses": [
        {
          "license": {
            "id": "0BSD",
            "url": "https://opensource.org/licenses/0BSD"
          }
        }
      ],
      "purl": "pkg:pypi/sphinx@4.1.1",
      "externalReferences": [
        {
          "url": "https://www.sphinx-doc.org/",
          "type": "website"
        }
      ]
    }
  ]
}
