{
  "bomFormat": "CycloneDX",
  "specVersion": "1.3",
  "serialNumber": "urn:uuid:068c5e96-d2d1-4ef6-8617-99823e5f2758",
  "version": 1,
  "metadata": {
    "timestamp": "2022-06-06T19:22:34Z",
    "tools": [
      {
        "vendor": "AppThreat",
        "name": "cdxgen",
        "version": "3.0.10"
      },
      {
        "vendor": "Fortress Information Security",
        "name": "Github Extractor",
        "version": "1.15.1"
      }
    ],
    "authors": [
      {
        "name": "Team AppThreat",
        "email": "cloud@appthreat.com"
      },
      {
        "name": "Fortress Information Security",
        "email": "sales@fortressinfosec.com",
        "phone": "1-407-573-6800"
      }
    ],
    "component": {
      "type": "application",
      "name": "jsonwebtoken",
      "version": "",
      "group": "Keats",
      "externalReferences": [
        {
          "url": "https://github.com/Keats/jsonwebtoken.git",
          "type": "distribution"
        },
        {
          "type": "website",
          "url": "null",
          "comment": "As set via `homepage` in Github API"
        }
      ]
    }
  },
  "components": [
    {
      "type": "library",
      "bom-ref": "pkg:crates/jsonwebtoken@8.1.0",
      "group": "",
      "name": "jsonwebtoken",
      "version": "8.1.0",
      "description": "",
      "purl": "pkg:crates/jsonwebtoken@8.1.0"
    },
    {
      "type": "library",
      "bom-ref": "pkg:crates/serde_json@1.0",
      "group": "",
      "name": "serde_json",
      "version": "1.0",
      "description": "",
      "purl": "pkg:crates/serde_json@1.0"
    },
    {
      "type": "library",
      "bom-ref": "pkg:crates/ring@0.16.5",
      "group": "",
      "name": "ring",
      "version": "0.16.5",
      "description": "",
      "purl": "pkg:crates/ring@0.16.5"
    },
    {
      "type": "library",
      "bom-ref": "pkg:crates/base64@0.13",
      "group": "",
      "name": "base64",
      "version": "0.13",
      "description": "",
      "purl": "pkg:crates/base64@0.13"
    },
    {
      "type": "library",
      "bom-ref": "pkg:crates/time@0.3",
      "group": "",
      "name": "time",
      "version": "0.3",
      "description": "",
      "purl": "pkg:crates/time@0.3"
    },
    {
      "type": "library",
      "bom-ref": "pkg:crates/criterion@0.3",
      "group": "",
      "name": "criterion",
      "version": "0.3",
      "description": "",
      "purl": "pkg:crates/criterion@0.3"
    },
    {
      "type": "library",
      "bom-ref": "pkg:crates/default@[use_pem]",
      "group": "",
      "name": "default",
      "version": "[use_pem]",
      "description": "",
      "purl": "pkg:crates/default@[use_pem]"
    },
    {
      "type": "library",
      "bom-ref": "pkg:crates/use_pem@[pem, simple_asn1]",
      "group": "",
      "name": "use_pem",
      "version": "[pem, simple_asn1]",
      "description": "",
      "purl": "pkg:crates/use_pem@[pem, simple_asn1]"
    },
    {
      "type": "library",
      "bom-ref": "pkg:crates/name@jwt",
      "group": "",
      "name": "name",
      "version": "jwt",
      "description": "",
      "purl": "pkg:crates/name@jwt"
    },
    {
      "type": "library",
      "bom-ref": "pkg:crates/harness@false",
      "group": "",
      "name": "harness",
      "version": "false",
      "description": "",
      "purl": "pkg:crates/harness@false"
    },
    {
      "type": "library",
      "bom-ref": "pkg:crates/maintenance@{ status",
      "group": "",
      "name": "maintenance",
      "version": "{ status",
      "description": "",
      "purl": "pkg:crates/maintenance@{ status"
    }
  ],
  "externalReferences": [
    {
      "url": "/project/src",
      "type": "other",
      "comment": "Base path"
    },
    {
      "url": "/project/src/Cargo.toml",
      "type": "other",
      "comment": "Package file"
    }
  ]
}
