{
  "bomFormat": "CycloneDX",
  "specVersion": "1.3",
  "serialNumber": "urn:uuid:b4e5e1f2-6cf1-45e1-af18-74006f209743",
  "version": 1,
  "metadata": {
    "timestamp": "2022-05-27T19:28:13Z",
    "tools": [
      {
        "vendor": "AppThreat",
        "name": "cdxgen",
        "version": "3.0.10"
      },
      {
        "vendor": "Fortress Information Security",
        "name": "Github Extractor",
        "version": "1.15.1"
      }
    ],
    "authors": [
      {
        "name": "Team AppThreat",
        "email": "cloud@appthreat.com"
      },
      {
        "name": "Fortress Information Security",
        "email": "sales@fortressinfosec.com",
        "phone": "1-407-573-6800"
      }
    ],
    "component": {
      "type": "application",
      "name": "packr",
      "version": "4.0.0",
      "group": "libgdx",
      "externalReferences": [
        {
          "url": "https://github.com/libgdx/packr.git",
          "type": "distribution"
        },
        {
          "type": "website",
          "url": "null",
          "comment": "As set via `homepage` in Github API"
        }
      ]
    }
  },
  "components": [
    {
      "type": "library",
      "bom-ref": "pkg:maven/org.jetbrains.kotlin/kotlin-stdlib-jdk8@1.4.20?type=jar",
      "group": "org.jetbrains.kotlin",
      "name": "kotlin-stdlib-jdk8",
      "version": "1.4.20",
      "description": "",
      "purl": "pkg:maven/org.jetbrains.kotlin/kotlin-stdlib-jdk8@1.4.20?type=jar"
    },
    {
      "type": "library",
      "bom-ref": "pkg:maven/org.jetbrains.kotlin/kotlin-stdlib@1.4.20?type=jar",
      "group": "org.jetbrains.kotlin",
      "name": "kotlin-stdlib",
      "version": "1.4.20",
      "description": "",
      "purl": "pkg:maven/org.jetbrains.kotlin/kotlin-stdlib@1.4.20?type=jar"
    },
    {
      "type": "library",
      "bom-ref": "pkg:maven/org.jetbrains.kotlin/kotlin-stdlib-common@1.4.20?type=jar",
      "group": "org.jetbrains.kotlin",
      "name": "kotlin-stdlib-common",
      "version": "1.4.20",
      "description": "",
      "purl": "pkg:maven/org.jetbrains.kotlin/kotlin-stdlib-common@1.4.20?type=jar"
    },
    {
      "type": "library",
      "bom-ref": "pkg:maven/org.jetbrains/annotations@13.0?type=jar",
      "group": "org.jetbrains",
      "name": "annotations",
      "version": "13.0",
      "description": "",
      "purl": "pkg:maven/org.jetbrains/annotations@13.0?type=jar"
    },
    {
      "type": "library",
      "bom-ref": "pkg:maven/org.jetbrains.kotlin/kotlin-stdlib-jdk7@1.4.20?type=jar",
      "group": "org.jetbrains.kotlin",
      "name": "kotlin-stdlib-jdk7",
      "version": "1.4.20",
      "description": "",
      "purl": "pkg:maven/org.jetbrains.kotlin/kotlin-stdlib-jdk7@1.4.20?type=jar"
    },
    {
      "type": "library",
      "bom-ref": "pkg:maven/org.jetbrains.kotlin/kotlin-reflect@1.4.20?type=jar",
      "group": "org.jetbrains.kotlin",
      "name": "kotlin-reflect",
      "version": "1.4.20",
      "description": "",
      "purl": "pkg:maven/org.jetbrains.kotlin/kotlin-reflect@1.4.20?type=jar"
    },
    {
      "type": "library",
      "bom-ref": "pkg:maven/org.jetbrains.kotlin/kotlin-compiler-embeddable@1.4.20?type=jar",
      "group": "org.jetbrains.kotlin",
      "name": "kotlin-compiler-embeddable",
      "version": "1.4.20",
      "description": "",
      "purl": "pkg:maven/org.jetbrains.kotlin/kotlin-compiler-embeddable@1.4.20?type=jar"
    },
    {
      "type": "library",
      "bom-ref": "pkg:maven/org.jetbrains.kotlin/kotlin-script-runtime@1.4.20?type=jar",
      "group": "org.jetbrains.kotlin",
      "name": "kotlin-script-runtime",
      "version": "1.4.20",
      "description": "",
      "purl": "pkg:maven/org.jetbrains.kotlin/kotlin-script-runtime@1.4.20?type=jar"
    },
    {
      "type": "library",
      "bom-ref": "pkg:maven/org.jetbrains.kotlin/kotlin-daemon-embeddable@1.4.20?type=jar",
      "group": "org.jetbrains.kotlin",
      "name": "kotlin-daemon-embeddable",
      "version": "1.4.20",
      "description": "",
      "purl": "pkg:maven/org.jetbrains.kotlin/kotlin-daemon-embeddable@1.4.20?type=jar"
    },
    {
      "type": "library",
      "bom-ref": "pkg:maven/org.jetbrains.intellij.deps/trove4j@1.0.20181211?type=jar",
      "group": "org.jetbrains.intellij.deps",
      "name": "trove4j",
      "version": "1.0.20181211",
      "description": "",
      "purl": "pkg:maven/org.jetbrains.intellij.deps/trove4j@1.0.20181211?type=jar"
    },
    {
      "type": "library",
      "bom-ref": "pkg:maven/org.jetbrains.kotlin/kotlin-scripting-compiler-embeddable@1.4.20?type=jar",
      "group": "org.jetbrains.kotlin",
      "name": "kotlin-scripting-compiler-embeddable",
      "version": "1.4.20",
      "description": "",
      "purl": "pkg:maven/org.jetbrains.kotlin/kotlin-scripting-compiler-embeddable@1.4.20?type=jar"
    },
    {
      "type": "library",
      "bom-ref": "pkg:maven/org.jetbrains.kotlin/kotlin-scripting-compiler-impl-embeddable@1.4.20?type=jar",
      "group": "org.jetbrains.kotlin",
      "name": "kotlin-scripting-compiler-impl-embeddable",
      "version": "1.4.20",
      "description": "",
      "purl": "pkg:maven/org.jetbrains.kotlin/kotlin-scripting-compiler-impl-embeddable@1.4.20?type=jar"
    },
    {
      "type": "library",
      "bom-ref": "pkg:maven/org.jetbrains.kotlin/kotlin-scripting-common@1.4.20?type=jar",
      "group": "org.jetbrains.kotlin",
      "name": "kotlin-scripting-common",
      "version": "1.4.20",
      "description": "",
      "purl": "pkg:maven/org.jetbrains.kotlin/kotlin-scripting-common@1.4.20?type=jar"
    },
    {
      "type": "library",
      "bom-ref": "pkg:maven/org.jetbrains.kotlinx/kotlinx-coroutines-core@1.3.7?type=jar",
      "group": "org.jetbrains.kotlinx",
      "name": "kotlinx-coroutines-core",
      "version": "1.3.7",
      "description": "",
      "purl": "pkg:maven/org.jetbrains.kotlinx/kotlinx-coroutines-core@1.3.7?type=jar"
    },
    {
      "type": "library",
      "bom-ref": "pkg:maven/org.jetbrains.kotlin/kotlin-scripting-jvm@1.4.20?type=jar",
      "group": "org.jetbrains.kotlin",
      "name": "kotlin-scripting-jvm",
      "version": "1.4.20",
      "description": "",
      "purl": "pkg:maven/org.jetbrains.kotlin/kotlin-scripting-jvm@1.4.20?type=jar"
    },
    {
      "type": "library",
      "bom-ref": "pkg:maven/org.jetbrains.kotlin/kotlin-sam-with-receiver@1.4.20?type=jar",
      "group": "org.jetbrains.kotlin",
      "name": "kotlin-sam-with-receiver",
      "version": "1.4.20",
      "description": "",
      "purl": "pkg:maven/org.jetbrains.kotlin/kotlin-sam-with-receiver@1.4.20?type=jar"
    },
    {
      "type": "library",
      "bom-ref": "pkg:maven/org.jetbrains.kotlin/kotlin-gradle-plugin-api@1.4.20?type=jar",
      "group": "org.jetbrains.kotlin",
      "name": "kotlin-gradle-plugin-api",
      "version": "1.4.20",
      "description": "",
      "purl": "pkg:maven/org.jetbrains.kotlin/kotlin-gradle-plugin-api@1.4.20?type=jar"
    },
    {
      "type": "library",
      "bom-ref": "pkg:maven/org.jetbrains.kotlin/kotlin-gradle-plugin-model@1.4.20?type=jar",
      "group": "org.jetbrains.kotlin",
      "name": "kotlin-gradle-plugin-model",
      "version": "1.4.20",
      "description": "",
      "purl": "pkg:maven/org.jetbrains.kotlin/kotlin-gradle-plugin-model@1.4.20?type=jar"
    },
    {
      "type": "library",
      "bom-ref": "pkg:maven/org.jetbrains.kotlin/kotlin-klib-commonizer-embeddable@1.4.20?type=jar",
      "group": "org.jetbrains.kotlin",
      "name": "kotlin-klib-commonizer-embeddable",
      "version": "1.4.20",
      "description": "",
      "purl": "pkg:maven/org.jetbrains.kotlin/kotlin-klib-commonizer-embeddable@1.4.20?type=jar"
    }
  ],
  "externalReferences": [
    {
      "url": "/project/src",
      "type": "other",
      "comment": "Base path"
    },
    {
      "url": "/project/src/build.gradle",
      "type": "other",
      "comment": "Package file"
    }
  ]
}
