{
  "bomFormat": "CycloneDX",
  "specVersion": "1.3",
  "serialNumber": "urn:uuid:4f9efc1b-95cd-442d-9923-185c9991b685",
  "version": 1,
  "metadata": {
    "timestamp": "2022-06-01T14:19:10Z",
    "tools": [
      {
        "vendor": "AppThreat",
        "name": "cdxgen",
        "version": "3.0.10"
      },
      {
        "vendor": "Fortress Information Security",
        "name": "Github Extractor",
        "version": "1.15.1"
      }
    ],
    "authors": [
      {
        "name": "Team AppThreat",
        "email": "cloud@appthreat.com"
      },
      {
        "name": "Fortress Information Security",
        "email": "sales@fortressinfosec.com",
        "phone": "1-407-573-6800"
      }
    ],
    "component": {
      "type": "application",
      "name": "loomio",
      "version": "v2.14.4",
      "group": "loomio",
      "externalReferences": [
        {
          "url": "https://github.com/loomio/loomio.git",
          "type": "distribution"
        },
        {
          "type": "website",
          "url": "https://www.loomio.com",
          "comment": "As set via `homepage` in Github API"
        }
      ]
    }
  },
  "components": [
    {
      "type": "library",
      "bom-ref": "pkg:rubygems/custom_counter_cache@0.2.2",
      "group": "",
      "name": "custom_counter_cache",
      "version": "0.2.2",
      "description": "",
      "purl": "pkg:rubygems/custom_counter_cache@0.2.2"
    },
    {
      "type": "library",
      "bom-ref": "pkg:rubygems/remote:@https://github.com/loomio/griddler-mailin.git",
      "group": "",
      "name": "remote:",
      "version": "https://github.com/loomio/griddler-mailin.git",
      "description": "",
      "purl": "pkg:rubygems/remote:@https://github.com/loomio/griddler-mailin.git"
    },
    {
      "type": "library",
      "bom-ref": "pkg:rubygems/revision:@5a1d1ea7612308b8d3890b1c6d7a51c5b485498c",
      "group": "",
      "name": "revision:",
      "version": "5a1d1ea7612308b8d3890b1c6d7a51c5b485498c",
      "description": "",
      "purl": "pkg:rubygems/revision:@5a1d1ea7612308b8d3890b1c6d7a51c5b485498c"
    },
    {
      "type": "library",
      "bom-ref": "pkg:rubygems/griddler-mailin@0.0.1",
      "group": "",
      "name": "griddler-mailin",
      "version": "0.0.1",
      "description": "",
      "purl": "pkg:rubygems/griddler-mailin@0.0.1"
    },
    {
      "type": "library",
      "bom-ref": "pkg:rubygems/griddler@1.3.1",
      "group": "",
      "name": "griddler",
      "version": "1.3.1",
      "description": "",
      "purl": "pkg:rubygems/griddler@1.3.1"
    },
    {
      "type": "library",
      "bom-ref": "pkg:rubygems/twitter-text@1.14.7",
      "group": "",
      "name": "twitter-text",
      "version": "1.14.7",
      "description": "",
      "purl": "pkg:rubygems/twitter-text@1.14.7"
    },
    {
      "type": "library",
      "bom-ref": "pkg:rubygems/actioncable@6.1.4.6",
      "group": "",
      "name": "actioncable",
      "version": "6.1.4.6",
      "description": "",
      "purl": "pkg:rubygems/actioncable@6.1.4.6"
    },
    {
      "type": "library",
      "bom-ref": "pkg:rubygems/actionmailbox@6.1.4.6",
      "group": "",
      "name": "actionmailbox",
      "version": "6.1.4.6",
      "description": "",
      "purl": "pkg:rubygems/actionmailbox@6.1.4.6"
    },
    {
      "type": "library",
      "bom-ref": "pkg:rubygems/actionmailer@6.1.4.6",
      "group": "",
      "name": "actionmailer",
      "version": "6.1.4.6",
      "description": "",
      "purl": "pkg:rubygems/actionmailer@6.1.4.6"
    },
    {
      "type": "library",
      "bom-ref": "pkg:rubygems/actionpack@6.1.4.6",
      "group": "",
      "name": "actionpack",
      "version": "6.1.4.6",
      "description": "",
      "purl": "pkg:rubygems/actionpack@6.1.4.6"
    },
    {
      "type": "library",
      "bom-ref": "pkg:rubygems/actionpack-action_caching@1.2.2",
      "group": "",
      "name": "actionpack-action_caching",
      "version": "1.2.2",
      "description": "",
      "purl": "pkg:rubygems/actionpack-action_caching@1.2.2"
    },
    {
      "type": "library",
      "bom-ref": "pkg:rubygems/actionpack-page_caching@1.2.4",
      "group": "",
      "name": "actionpack-page_caching",
      "version": "1.2.4",
      "description": "",
      "purl": "pkg:rubygems/actionpack-page_caching@1.2.4"
    },
    {
      "type": "library",
      "bom-ref": "pkg:rubygems/actiontext@6.1.4.6",
      "group": "",
      "name": "actiontext",
      "version": "6.1.4.6",
      "description": "",
      "purl": "pkg:rubygems/actiontext@6.1.4.6"
    },
    {
      "type": "library",
      "bom-ref": "pkg:rubygems/actionview@6.1.4.6",
      "group": "",
      "name": "actionview",
      "version": "6.1.4.6",
      "description": "",
      "purl": "pkg:rubygems/actionview@6.1.4.6"
    },
    {
      "type": "library",
      "bom-ref": "pkg:rubygems/active_model_serializers@0.8.4",
      "group": "",
      "name": "active_model_serializers",
      "version": "0.8.4",
      "description": "",
      "purl": "pkg:rubygems/active_model_serializers@0.8.4"
    },
    {
      "type": "library",
      "bom-ref": "pkg:rubygems/active_record_extended@2.1.1",
      "group": "",
      "name": "active_record_extended",
      "version": "2.1.1",
      "description": "",
      "purl": "pkg:rubygems/active_record_extended@2.1.1"
    },
    {
      "type": "library",
      "bom-ref": "pkg:rubygems/activeadmin@2.13.1",
      "group": "",
      "name": "activeadmin",
      "version": "2.13.1",
      "description": "",
      "purl": "pkg:rubygems/activeadmin@2.13.1"
    },
    {
      "type": "library",
      "bom-ref": "pkg:rubygems/activejob@6.1.4.6",
      "group": "",
      "name": "activejob",
      "version": "6.1.4.6",
      "description": "",
      "purl": "pkg:rubygems/activejob@6.1.4.6"
    },
    {
      "type": "library",
      "bom-ref": "pkg:rubygems/activemodel@6.1.4.6",
      "group": "",
      "name": "activemodel",
      "version": "6.1.4.6",
      "description": "",
      "purl": "pkg:rubygems/activemodel@6.1.4.6"
    },
    {
      "type": "library",
      "bom-ref": "pkg:rubygems/activerecord@6.1.4.6",
      "group": "",
      "name": "activerecord",
      "version": "6.1.4.6",
      "description": "",
      "purl": "pkg:rubygems/activerecord@6.1.4.6"
    },
    {
      "type": "library",
      "bom-ref": "pkg:rubygems/activerecord-import@1.4.0",
      "group": "",
      "name": "activerecord-import",
      "version": "1.4.0",
      "description": "",
      "purl": "pkg:rubygems/activerecord-import@1.4.0"
    },
    {
      "type": "library",
      "bom-ref": "pkg:rubygems/activestorage@6.1.4.6",
      "group": "",
      "name": "activestorage",
      "version": "6.1.4.6",
      "description": "",
      "purl": "pkg:rubygems/activestorage@6.1.4.6"
    },
    {
      "type": "library",
      "bom-ref": "pkg:rubygems/activesupport@6.1.4.6",
      "group": "",
      "name": "activesupport",
      "version": "6.1.4.6",
      "description": "",
      "purl": "pkg:rubygems/activesupport@6.1.4.6"
    },
    {
      "type": "library",
      "bom-ref": "pkg:rubygems/addressable@2.8.0",
      "group": "",
      "name": "addressable",
      "version": "2.8.0",
      "description": "",
      "purl": "pkg:rubygems/addressable@2.8.0"
    },
    {
      "type": "library",
      "bom-ref": "pkg:rubygems/ansi@1.5.0",
      "group": "",
      "name": "ansi",
      "version": "1.5.0",
      "description": "",
      "purl": "pkg:rubygems/ansi@1.5.0"
    },
    {
      "type": "library",
      "bom-ref": "pkg:rubygems/ar_outer_joins@0.2.0",
      "group": "",
      "name": "ar_outer_joins",
      "version": "0.2.0",
      "description": "",
      "purl": "pkg:rubygems/ar_outer_joins@0.2.0"
    },
    {
      "type": "library",
      "bom-ref": "pkg:rubygems/arbre@1.5.0",
      "group": "",
      "name": "arbre",
      "version": "1.5.0",
      "description": "",
      "purl": "pkg:rubygems/arbre@1.5.0"
    },
    {
      "type": "library",
      "bom-ref": "pkg:rubygems/ast@2.4.2",
      "group": "",
      "name": "ast",
      "version": "2.4.2",
      "description": "",
      "purl": "pkg:rubygems/ast@2.4.2"
    },
    {
      "type": "library",
      "bom-ref": "pkg:rubygems/aws-eventstream@1.2.0",
      "group": "",
      "name": "aws-eventstream",
      "version": "1.2.0",
      "description": "",
      "purl": "pkg:rubygems/aws-eventstream@1.2.0"
    },
    {
      "type": "library",
      "bom-ref": "pkg:rubygems/aws-partitions@1.583.0",
      "group": "",
      "name": "aws-partitions",
      "version": "1.583.0",
      "description": "",
      "purl": "pkg:rubygems/aws-partitions@1.583.0"
    },
    {
      "type": "library",
      "bom-ref": "pkg:rubygems/aws-sdk-core@3.130.2",
      "group": "",
      "name": "aws-sdk-core",
      "version": "3.130.2",
      "description": "",
      "purl": "pkg:rubygems/aws-sdk-core@3.130.2"
    },
    {
      "type": "library",
      "bom-ref": "pkg:rubygems/aws-sdk-kms@1.56.0",
      "group": "",
      "name": "aws-sdk-kms",
      "version": "1.56.0",
      "description": "",
      "purl": "pkg:rubygems/aws-sdk-kms@1.56.0"
    },
    {
      "type": "library",
      "bom-ref": "pkg:rubygems/aws-sdk-s3@1.114.0",
      "group": "",
      "name": "aws-sdk-s3",
      "version": "1.114.0",
      "description": "",
      "purl": "pkg:rubygems/aws-sdk-s3@1.114.0"
    },
    {
      "type": "library",
      "bom-ref": "pkg:rubygems/aws-sigv4@1.5.0",
      "group": "",
      "name": "aws-sigv4",
      "version": "1.5.0",
      "description": "",
      "purl": "pkg:rubygems/aws-sigv4@1.5.0"
    },
    {
      "type": "library",
      "bom-ref": "pkg:rubygems/bcrypt@3.1.16",
      "group": "",
      "name": "bcrypt",
      "version": "3.1.16",
      "description": "",
      "purl": "pkg:rubygems/bcrypt@3.1.16"
    },
    {
      "type": "library",
      "bom-ref": "pkg:rubygems/blazer@2.6.4",
      "group": "",
      "name": "blazer",
      "version": "2.6.4",
      "description": "",
      "purl": "pkg:rubygems/blazer@2.6.4"
    },
    {
      "type": "library",
      "bom-ref": "pkg:rubygems/bootsnap@1.12.0",
      "group": "",
      "name": "bootsnap",
      "version": "1.12.0",
      "description": "",
      "purl": "pkg:rubygems/bootsnap@1.12.0"
    },
    {
      "type": "library",
      "bom-ref": "pkg:rubygems/browser@5.3.1",
      "group": "",
      "name": "browser",
      "version": "5.3.1",
      "description": "",
      "purl": "pkg:rubygems/browser@5.3.1"
    },
    {
      "type": "library",
      "bom-ref": "pkg:rubygems/builder@3.2.4",
      "group": "",
      "name": "builder",
      "version": "3.2.4",
      "description": "",
      "purl": "pkg:rubygems/builder@3.2.4"
    },
    {
      "type": "library",
      "bom-ref": "pkg:rubygems/byebug@11.1.3",
      "group": "",
      "name": "byebug",
      "version": "11.1.3",
      "description": "",
      "purl": "pkg:rubygems/byebug@11.1.3"
    },
    {
      "type": "library",
      "bom-ref": "pkg:rubygems/cancancan@3.3.0",
      "group": "",
      "name": "cancancan",
      "version": "3.3.0",
      "description": "",
      "purl": "pkg:rubygems/cancancan@3.3.0"
    },
    {
      "type": "library",
      "bom-ref": "pkg:rubygems/chartkick@4.1.3",
      "group": "",
      "name": "chartkick",
      "version": "4.1.3",
      "description": "",
      "purl": "pkg:rubygems/chartkick@4.1.3"
    },
    {
      "type": "library",
      "bom-ref": "pkg:rubygems/cld@0.11.0",
      "group": "",
      "name": "cld",
      "version": "0.11.0",
      "description": "",
      "purl": "pkg:rubygems/cld@0.11.0"
    },
    {
      "type": "library",
      "bom-ref": "pkg:rubygems/coffee-rails@5.0.0",
      "group": "",
      "name": "coffee-rails",
      "version": "5.0.0",
      "description": "",
      "purl": "pkg:rubygems/coffee-rails@5.0.0"
    },
    {
      "type": "library",
      "bom-ref": "pkg:rubygems/coffee-script@2.4.1",
      "group": "",
      "name": "coffee-script",
      "version": "2.4.1",
      "description": "",
      "purl": "pkg:rubygems/coffee-script@2.4.1"
    },
    {
      "type": "library",
      "bom-ref": "pkg:rubygems/coffee-script-source@1.12.2",
      "group": "",
      "name": "coffee-script-source",
      "version": "1.12.2",
      "description": "",
      "purl": "pkg:rubygems/coffee-script-source@1.12.2"
    },
    {
      "type": "library",
      "bom-ref": "pkg:rubygems/concurrent-ruby@1.1.10",
      "group": "",
      "name": "concurrent-ruby",
      "version": "1.1.10",
      "description": "",
      "purl": "pkg:rubygems/concurrent-ruby@1.1.10"
    },
    {
      "type": "library",
      "bom-ref": "pkg:rubygems/connection_pool@2.2.5",
      "group": "",
      "name": "connection_pool",
      "version": "2.2.5",
      "description": "",
      "purl": "pkg:rubygems/connection_pool@2.2.5"
    },
    {
      "type": "library",
      "bom-ref": "pkg:rubygems/crack@0.4.5",
      "group": "",
      "name": "crack",
      "version": "0.4.5",
      "description": "",
      "purl": "pkg:rubygems/crack@0.4.5"
    },
    {
      "type": "library",
      "bom-ref": "pkg:rubygems/crass@1.0.6",
      "group": "",
      "name": "crass",
      "version": "1.0.6",
      "description": "",
      "purl": "pkg:rubygems/crass@1.0.6"
    },
    {
      "type": "library",
      "bom-ref": "pkg:rubygems/css_parser@1.10.0",
      "group": "",
      "name": "css_parser",
      "version": "1.10.0",
      "description": "",
      "purl": "pkg:rubygems/css_parser@1.10.0"
    },
    {
      "type": "library",
      "bom-ref": "pkg:rubygems/database_cleaner-active_record@2.0.1",
      "group": "",
      "name": "database_cleaner-active_record",
      "version": "2.0.1",
      "description": "",
      "purl": "pkg:rubygems/database_cleaner-active_record@2.0.1"
    },
    {
      "type": "library",
      "bom-ref": "pkg:rubygems/database_cleaner-core@2.0.1",
      "group": "",
      "name": "database_cleaner-core",
      "version": "2.0.1",
      "description": "",
      "purl": "pkg:rubygems/database_cleaner-core@2.0.1"
    },
    {
      "type": "library",
      "bom-ref": "pkg:rubygems/database_cleaner-redis@2.0.0",
      "group": "",
      "name": "database_cleaner-redis",
      "version": "2.0.0",
      "description": "",
      "purl": "pkg:rubygems/database_cleaner-redis@2.0.0"
    },
    {
      "type": "library",
      "bom-ref": "pkg:rubygems/devise@4.8.1",
      "group": "",
      "name": "devise",
      "version": "4.8.1",
      "description": "",
      "purl": "pkg:rubygems/devise@4.8.1"
    },
    {
      "type": "library",
      "bom-ref": "pkg:rubygems/devise-i18n@1.10.2",
      "group": "",
      "name": "devise-i18n",
      "version": "1.10.2",
      "description": "",
      "purl": "pkg:rubygems/devise-i18n@1.10.2"
    },
    {
      "type": "library",
      "bom-ref": "pkg:rubygems/diff-lcs@1.5.0",
      "group": "",
      "name": "diff-lcs",
      "version": "1.5.0",
      "description": "",
      "purl": "pkg:rubygems/diff-lcs@1.5.0"
    },
    {
      "type": "library",
      "bom-ref": "pkg:rubygems/discard@1.2.1",
      "group": "",
      "name": "discard",
      "version": "1.2.1",
      "description": "",
      "purl": "pkg:rubygems/discard@1.2.1"
    },
    {
      "type": "library",
      "bom-ref": "pkg:rubygems/discriminator@0.1.1",
      "group": "",
      "name": "discriminator",
      "version": "0.1.1",
      "description": "",
      "purl": "pkg:rubygems/discriminator@0.1.1"
    },
    {
      "type": "library",
      "bom-ref": "pkg:rubygems/dotenv@2.7.6",
      "group": "",
      "name": "dotenv",
      "version": "2.7.6",
      "description": "",
      "purl": "pkg:rubygems/dotenv@2.7.6"
    },
    {
      "type": "library",
      "bom-ref": "pkg:rubygems/dotenv-rails@2.7.6",
      "group": "",
      "name": "dotenv-rails",
      "version": "2.7.6",
      "description": "",
      "purl": "pkg:rubygems/dotenv-rails@2.7.6"
    },
    {
      "type": "library",
      "bom-ref": "pkg:rubygems/errbase@0.2.2",
      "group": "",
      "name": "errbase",
      "version": "0.2.2",
      "description": "",
      "purl": "pkg:rubygems/errbase@0.2.2"
    },
    {
      "type": "library",
      "bom-ref": "pkg:rubygems/erubi@1.10.0",
      "group": "",
      "name": "erubi",
      "version": "1.10.0",
      "description": "",
      "purl": "pkg:rubygems/erubi@1.10.0"
    },
    {
      "type": "library",
      "bom-ref": "pkg:rubygems/erubis@2.7.0",
      "group": "",
      "name": "erubis",
      "version": "2.7.0",
      "description": "",
      "purl": "pkg:rubygems/erubis@2.7.0"
    },
    {
      "type": "library",
      "bom-ref": "pkg:rubygems/execjs@2.8.1",
      "group": "",
      "name": "execjs",
      "version": "2.8.1",
      "description": "",
      "purl": "pkg:rubygems/execjs@2.8.1"
    },
    {
      "type": "library",
      "bom-ref": "pkg:rubygems/factory_bot@6.2.0",
      "group": "",
      "name": "factory_bot",
      "version": "6.2.0",
      "description": "",
      "purl": "pkg:rubygems/factory_bot@6.2.0"
    },
    {
      "type": "library",
      "bom-ref": "pkg:rubygems/factory_bot_rails@6.2.0",
      "group": "",
      "name": "factory_bot_rails",
      "version": "6.2.0",
      "description": "",
      "purl": "pkg:rubygems/factory_bot_rails@6.2.0"
    },
    {
      "type": "library",
      "bom-ref": "pkg:rubygems/faker@2.21.0",
      "group": "",
      "name": "faker",
      "version": "2.21.0",
      "description": "",
      "purl": "pkg:rubygems/faker@2.21.0"
    },
    {
      "type": "library",
      "bom-ref": "pkg:rubygems/faraday@1.9.3",
      "group": "",
      "name": "faraday",
      "version": "1.9.3",
      "description": "",
      "purl": "pkg:rubygems/faraday@1.9.3"
    },
    {
      "type": "library",
      "bom-ref": "pkg:rubygems/faraday-em_http@1.0.0",
      "group": "",
      "name": "faraday-em_http",
      "version": "1.0.0",
      "description": "",
      "purl": "pkg:rubygems/faraday-em_http@1.0.0"
    },
    {
      "type": "library",
      "bom-ref": "pkg:rubygems/faraday-em_synchrony@1.0.0",
      "group": "",
      "name": "faraday-em_synchrony",
      "version": "1.0.0",
      "description": "",
      "purl": "pkg:rubygems/faraday-em_synchrony@1.0.0"
    },
    {
      "type": "library",
      "bom-ref": "pkg:rubygems/faraday-excon@1.1.0",
      "group": "",
      "name": "faraday-excon",
      "version": "1.1.0",
      "description": "",
      "purl": "pkg:rubygems/faraday-excon@1.1.0"
    },
    {
      "type": "library",
      "bom-ref": "pkg:rubygems/faraday-httpclient@1.0.1",
      "group": "",
      "name": "faraday-httpclient",
      "version": "1.0.1",
      "description": "",
      "purl": "pkg:rubygems/faraday-httpclient@1.0.1"
    },
    {
      "type": "library",
      "bom-ref": "pkg:rubygems/faraday-multipart@1.0.3",
      "group": "",
      "name": "faraday-multipart",
      "version": "1.0.3",
      "description": "",
      "purl": "pkg:rubygems/faraday-multipart@1.0.3"
    },
    {
      "type": "library",
      "bom-ref": "pkg:rubygems/faraday-net_http@1.0.1",
      "group": "",
      "name": "faraday-net_http",
      "version": "1.0.1",
      "description": "",
      "purl": "pkg:rubygems/faraday-net_http@1.0.1"
    },
    {
      "type": "library",
      "bom-ref": "pkg:rubygems/faraday-net_http_persistent@1.2.0",
      "group": "",
      "name": "faraday-net_http_persistent",
      "version": "1.2.0",
      "description": "",
      "purl": "pkg:rubygems/faraday-net_http_persistent@1.2.0"
    },
    {
      "type": "library",
      "bom-ref": "pkg:rubygems/faraday-patron@1.0.0",
      "group": "",
      "name": "faraday-patron",
      "version": "1.0.0",
      "description": "",
      "purl": "pkg:rubygems/faraday-patron@1.0.0"
    },
    {
      "type": "library",
      "bom-ref": "pkg:rubygems/faraday-rack@1.0.0",
      "group": "",
      "name": "faraday-rack",
      "version": "1.0.0",
      "description": "",
      "purl": "pkg:rubygems/faraday-rack@1.0.0"
    },
    {
      "type": "library",
      "bom-ref": "pkg:rubygems/faraday-retry@1.0.3",
      "group": "",
      "name": "faraday-retry",
      "version": "1.0.3",
      "description": "",
      "purl": "pkg:rubygems/faraday-retry@1.0.3"
    },
    {
      "type": "library",
      "bom-ref": "pkg:rubygems/ffi@1.15.5",
      "group": "",
      "name": "ffi",
      "version": "1.15.5",
      "description": "",
      "purl": "pkg:rubygems/ffi@1.15.5"
    },
    {
      "type": "library",
      "bom-ref": "pkg:rubygems/formtastic@4.0.0",
      "group": "",
      "name": "formtastic",
      "version": "4.0.0",
      "description": "",
      "purl": "pkg:rubygems/formtastic@4.0.0"
    },
    {
      "type": "library",
      "bom-ref": "pkg:rubygems/formtastic_i18n@0.7.0",
      "group": "",
      "name": "formtastic_i18n",
      "version": "0.7.0",
      "description": "",
      "purl": "pkg:rubygems/formtastic_i18n@0.7.0"
    },
    {
      "type": "library",
      "bom-ref": "pkg:rubygems/friendly_id@5.4.2",
      "group": "",
      "name": "friendly_id",
      "version": "5.4.2",
      "description": "",
      "purl": "pkg:rubygems/friendly_id@5.4.2"
    },
    {
      "type": "library",
      "bom-ref": "pkg:rubygems/gapic-common@0.7.0",
      "group": "",
      "name": "gapic-common",
      "version": "0.7.0",
      "description": "",
      "purl": "pkg:rubygems/gapic-common@0.7.0"
    },
    {
      "type": "library",
      "bom-ref": "pkg:rubygems/globalid@1.0.0",
      "group": "",
      "name": "globalid",
      "version": "1.0.0",
      "description": "",
      "purl": "pkg:rubygems/globalid@1.0.0"
    },
    {
      "type": "library",
      "bom-ref": "pkg:rubygems/google-cloud-core@1.6.0",
      "group": "",
      "name": "google-cloud-core",
      "version": "1.6.0",
      "description": "",
      "purl": "pkg:rubygems/google-cloud-core@1.6.0"
    },
    {
      "type": "library",
      "bom-ref": "pkg:rubygems/google-cloud-env@1.5.0",
      "group": "",
      "name": "google-cloud-env",
      "version": "1.5.0",
      "description": "",
      "purl": "pkg:rubygems/google-cloud-env@1.5.0"
    },
    {
      "type": "library",
      "bom-ref": "pkg:rubygems/google-cloud-errors@1.2.0",
      "group": "",
      "name": "google-cloud-errors",
      "version": "1.2.0",
      "description": "",
      "purl": "pkg:rubygems/google-cloud-errors@1.2.0"
    },
    {
      "type": "library",
      "bom-ref": "pkg:rubygems/google-cloud-translate@3.2.3",
      "group": "",
      "name": "google-cloud-translate",
      "version": "3.2.3",
      "description": "",
      "purl": "pkg:rubygems/google-cloud-translate@3.2.3"
    },
    {
      "type": "library",
      "bom-ref": "pkg:rubygems/google-cloud-translate-v2@0.3.1",
      "group": "",
      "name": "google-cloud-translate-v2",
      "version": "0.3.1",
      "description": "",
      "purl": "pkg:rubygems/google-cloud-translate-v2@0.3.1"
    },
    {
      "type": "library",
      "bom-ref": "pkg:rubygems/google-cloud-translate-v3@0.4.2",
      "group": "",
      "name": "google-cloud-translate-v3",
      "version": "0.4.2",
      "description": "",
      "purl": "pkg:rubygems/google-cloud-translate-v3@0.4.2"
    },
    {
      "type": "library",
      "bom-ref": "pkg:rubygems/google-protobuf@3.19.3",
      "group": "",
      "name": "google-protobuf",
      "version": "3.19.3",
      "description": "",
      "purl": "pkg:rubygems/google-protobuf@3.19.3"
    },
    {
      "type": "library",
      "bom-ref": "pkg:rubygems/googleapis-common-protos@1.3.12",
      "group": "",
      "name": "googleapis-common-protos",
      "version": "1.3.12",
      "description": "",
      "purl": "pkg:rubygems/googleapis-common-protos@1.3.12"
    },
    {
      "type": "library",
      "bom-ref": "pkg:rubygems/googleapis-common-protos-types@1.3.0",
      "group": "",
      "name": "googleapis-common-protos-types",
      "version": "1.3.0",
      "description": "",
      "purl": "pkg:rubygems/googleapis-common-protos-types@1.3.0"
    },
    {
      "type": "library",
      "bom-ref": "pkg:rubygems/googleauth@1.1.0",
      "group": "",
      "name": "googleauth",
      "version": "1.1.0",
      "description": "",
      "purl": "pkg:rubygems/googleauth@1.1.0"
    },
    {
      "type": "library",
      "bom-ref": "pkg:rubygems/gravtastic@3.2.6",
      "group": "",
      "name": "gravtastic",
      "version": "3.2.6",
      "description": "",
      "purl": "pkg:rubygems/gravtastic@3.2.6"
    },
    {
      "type": "library",
      "bom-ref": "pkg:rubygems/grpc@1.42.0",
      "group": "",
      "name": "grpc",
      "version": "1.42.0",
      "description": "",
      "purl": "pkg:rubygems/grpc@1.42.0"
    },
    {
      "type": "library",
      "bom-ref": "pkg:rubygems/haml@5.2.2",
      "group": "",
      "name": "haml",
      "version": "5.2.2",
      "description": "",
      "purl": "pkg:rubygems/haml@5.2.2"
    },
    {
      "type": "library",
      "bom-ref": "pkg:rubygems/haml-rails@2.0.1",
      "group": "",
      "name": "haml-rails",
      "version": "2.0.1",
      "description": "",
      "purl": "pkg:rubygems/haml-rails@2.0.1"
    },
    {
      "type": "library",
      "bom-ref": "pkg:rubygems/has_scope@0.8.0",
      "group": "",
      "name": "has_scope",
      "version": "0.8.0",
      "description": "",
      "purl": "pkg:rubygems/has_scope@0.8.0"
    },
    {
      "type": "library",
      "bom-ref": "pkg:rubygems/hashdiff@1.0.1",
      "group": "",
      "name": "hashdiff",
      "version": "1.0.1",
      "description": "",
      "purl": "pkg:rubygems/hashdiff@1.0.1"
    },
    {
      "type": "library",
      "bom-ref": "pkg:rubygems/hiredis@0.6.3",
      "group": "",
      "name": "hiredis",
      "version": "0.6.3",
      "description": "",
      "purl": "pkg:rubygems/hiredis@0.6.3"
    },
    {
      "type": "library",
      "bom-ref": "pkg:rubygems/html2haml@2.2.0",
      "group": "",
      "name": "html2haml",
      "version": "2.2.0",
      "description": "",
      "purl": "pkg:rubygems/html2haml@2.2.0"
    },
    {
      "type": "library",
      "bom-ref": "pkg:rubygems/htmlentities@4.3.4",
      "group": "",
      "name": "htmlentities",
      "version": "4.3.4",
      "description": "",
      "purl": "pkg:rubygems/htmlentities@4.3.4"
    },
    {
      "type": "library",
      "bom-ref": "pkg:rubygems/http_accept_language@2.1.1",
      "group": "",
      "name": "http_accept_language",
      "version": "2.1.1",
      "description": "",
      "purl": "pkg:rubygems/http_accept_language@2.1.1"
    },
    {
      "type": "library",
      "bom-ref": "pkg:rubygems/httparty@0.20.0",
      "group": "",
      "name": "httparty",
      "version": "0.20.0",
      "description": "",
      "purl": "pkg:rubygems/httparty@0.20.0"
    },
    {
      "type": "library",
      "bom-ref": "pkg:rubygems/i18n@1.10.0",
      "group": "",
      "name": "i18n",
      "version": "1.10.0",
      "description": "",
      "purl": "pkg:rubygems/i18n@1.10.0"
    },
    {
      "type": "library",
      "bom-ref": "pkg:rubygems/icalendar@2.7.1",
      "group": "",
      "name": "icalendar",
      "version": "2.7.1",
      "description": "",
      "purl": "pkg:rubygems/icalendar@2.7.1"
    },
    {
      "type": "library",
      "bom-ref": "pkg:rubygems/ice_cube@0.16.3",
      "group": "",
      "name": "ice_cube",
      "version": "0.16.3",
      "description": "",
      "purl": "pkg:rubygems/ice_cube@0.16.3"
    },
    {
      "type": "library",
      "bom-ref": "pkg:rubygems/image_processing@1.12.2",
      "group": "",
      "name": "image_processing",
      "version": "1.12.2",
      "description": "",
      "purl": "pkg:rubygems/image_processing@1.12.2"
    },
    {
      "type": "library",
      "bom-ref": "pkg:rubygems/inherited_resources@1.13.1",
      "group": "",
      "name": "inherited_resources",
      "version": "1.13.1",
      "description": "",
      "purl": "pkg:rubygems/inherited_resources@1.13.1"
    },
    {
      "type": "library",
      "bom-ref": "pkg:rubygems/iso8601@0.9.1",
      "group": "",
      "name": "iso8601",
      "version": "0.9.1",
      "description": "",
      "purl": "pkg:rubygems/iso8601@0.9.1"
    },
    {
      "type": "library",
      "bom-ref": "pkg:rubygems/jmespath@1.6.1",
      "group": "",
      "name": "jmespath",
      "version": "1.6.1",
      "description": "",
      "purl": "pkg:rubygems/jmespath@1.6.1"
    },
    {
      "type": "library",
      "bom-ref": "pkg:rubygems/jquery-rails@4.4.0",
      "group": "",
      "name": "jquery-rails",
      "version": "4.4.0",
      "description": "",
      "purl": "pkg:rubygems/jquery-rails@4.4.0"
    },
    {
      "type": "library",
      "bom-ref": "pkg:rubygems/jwt@2.3.0",
      "group": "",
      "name": "jwt",
      "version": "2.3.0",
      "description": "",
      "purl": "pkg:rubygems/jwt@2.3.0"
    },
    {
      "type": "library",
      "bom-ref": "pkg:rubygems/kaminari@1.2.2",
      "group": "",
      "name": "kaminari",
      "version": "1.2.2",
      "description": "",
      "purl": "pkg:rubygems/kaminari@1.2.2"
    },
    {
      "type": "library",
      "bom-ref": "pkg:rubygems/kaminari-actionview@1.2.2",
      "group": "",
      "name": "kaminari-actionview",
      "version": "1.2.2",
      "description": "",
      "purl": "pkg:rubygems/kaminari-actionview@1.2.2"
    },
    {
      "type": "library",
      "bom-ref": "pkg:rubygems/kaminari-activerecord@1.2.2",
      "group": "",
      "name": "kaminari-activerecord",
      "version": "1.2.2",
      "description": "",
      "purl": "pkg:rubygems/kaminari-activerecord@1.2.2"
    },
    {
      "type": "library",
      "bom-ref": "pkg:rubygems/kaminari-core@1.2.2",
      "group": "",
      "name": "kaminari-core",
      "version": "1.2.2",
      "description": "",
      "purl": "pkg:rubygems/kaminari-core@1.2.2"
    },
    {
      "type": "library",
      "bom-ref": "pkg:rubygems/listen@3.7.1",
      "group": "",
      "name": "listen",
      "version": "3.7.1",
      "description": "",
      "purl": "pkg:rubygems/listen@3.7.1"
    },
    {
      "type": "library",
      "bom-ref": "pkg:rubygems/lograge@0.12.0",
      "group": "",
      "name": "lograge",
      "version": "0.12.0",
      "description": "",
      "purl": "pkg:rubygems/lograge@0.12.0"
    },
    {
      "type": "library",
      "bom-ref": "pkg:rubygems/loofah@2.18.0",
      "group": "",
      "name": "loofah",
      "version": "2.18.0",
      "description": "",
      "purl": "pkg:rubygems/loofah@2.18.0"
    },
    {
      "type": "library",
      "bom-ref": "pkg:rubygems/mail@2.7.1",
      "group": "",
      "name": "mail",
      "version": "2.7.1",
      "description": "",
      "purl": "pkg:rubygems/mail@2.7.1"
    },
    {
      "type": "library",
      "bom-ref": "pkg:rubygems/marcel@1.0.2",
      "group": "",
      "name": "marcel",
      "version": "1.0.2",
      "description": "",
      "purl": "pkg:rubygems/marcel@1.0.2"
    },
    {
      "type": "library",
      "bom-ref": "pkg:rubygems/maxminddb@0.1.22",
      "group": "",
      "name": "maxminddb",
      "version": "0.1.22",
      "description": "",
      "purl": "pkg:rubygems/maxminddb@0.1.22"
    },
    {
      "type": "library",
      "bom-ref": "pkg:rubygems/memoist@0.16.2",
      "group": "",
      "name": "memoist",
      "version": "0.16.2",
      "description": "",
      "purl": "pkg:rubygems/memoist@0.16.2"
    },
    {
      "type": "library",
      "bom-ref": "pkg:rubygems/method_source@1.0.0",
      "group": "",
      "name": "method_source",
      "version": "1.0.0",
      "description": "",
      "purl": "pkg:rubygems/method_source@1.0.0"
    },
    {
      "type": "library",
      "bom-ref": "pkg:rubygems/mime-types@3.3.1",
      "group": "",
      "name": "mime-types",
      "version": "3.3.1",
      "description": "",
      "purl": "pkg:rubygems/mime-types@3.3.1"
    },
    {
      "type": "library",
      "bom-ref": "pkg:rubygems/mime-types-data@3.2021.0901",
      "group": "",
      "name": "mime-types-data",
      "version": "3.2021.0901",
      "description": "",
      "purl": "pkg:rubygems/mime-types-data@3.2021.0901"
    },
    {
      "type": "library",
      "bom-ref": "pkg:rubygems/mini_magick@4.11.0",
      "group": "",
      "name": "mini_magick",
      "version": "4.11.0",
      "description": "",
      "purl": "pkg:rubygems/mini_magick@4.11.0"
    },
    {
      "type": "library",
      "bom-ref": "pkg:rubygems/mini_mime@1.1.2",
      "group": "",
      "name": "mini_mime",
      "version": "1.1.2",
      "description": "",
      "purl": "pkg:rubygems/mini_mime@1.1.2"
    },
    {
      "type": "library",
      "bom-ref": "pkg:rubygems/mini_portile2@2.8.0",
      "group": "",
      "name": "mini_portile2",
      "version": "2.8.0",
      "description": "",
      "purl": "pkg:rubygems/mini_portile2@2.8.0"
    },
    {
      "type": "library",
      "bom-ref": "pkg:rubygems/minitest@5.15.0",
      "group": "",
      "name": "minitest",
      "version": "5.15.0",
      "description": "",
      "purl": "pkg:rubygems/minitest@5.15.0"
    },
    {
      "type": "library",
      "bom-ref": "pkg:rubygems/msgpack@1.5.2",
      "group": "",
      "name": "msgpack",
      "version": "1.5.2",
      "description": "",
      "purl": "pkg:rubygems/msgpack@1.5.2"
    },
    {
      "type": "library",
      "bom-ref": "pkg:rubygems/multi_json@1.15.0",
      "group": "",
      "name": "multi_json",
      "version": "1.15.0",
      "description": "",
      "purl": "pkg:rubygems/multi_json@1.15.0"
    },
    {
      "type": "library",
      "bom-ref": "pkg:rubygems/multi_xml@0.6.0",
      "group": "",
      "name": "multi_xml",
      "version": "0.6.0",
      "description": "",
      "purl": "pkg:rubygems/multi_xml@0.6.0"
    },
    {
      "type": "library",
      "bom-ref": "pkg:rubygems/multipart-post@2.1.1",
      "group": "",
      "name": "multipart-post",
      "version": "2.1.1",
      "description": "",
      "purl": "pkg:rubygems/multipart-post@2.1.1"
    },
    {
      "type": "library",
      "bom-ref": "pkg:rubygems/net_http_timeout_errors@0.3.5",
      "group": "",
      "name": "net_http_timeout_errors",
      "version": "0.3.5",
      "description": "",
      "purl": "pkg:rubygems/net_http_timeout_errors@0.3.5"
    },
    {
      "type": "library",
      "bom-ref": "pkg:rubygems/nio4r@2.5.8",
      "group": "",
      "name": "nio4r",
      "version": "2.5.8",
      "description": "",
      "purl": "pkg:rubygems/nio4r@2.5.8"
    },
    {
      "type": "library",
      "bom-ref": "pkg:rubygems/nokogiri@1.13.6",
      "group": "",
      "name": "nokogiri",
      "version": "1.13.6",
      "description": "",
      "purl": "pkg:rubygems/nokogiri@1.13.6"
    },
    {
      "type": "library",
      "bom-ref": "pkg:rubygems/oga@3.3",
      "group": "",
      "name": "oga",
      "version": "3.3",
      "description": "",
      "purl": "pkg:rubygems/oga@3.3"
    },
    {
      "type": "library",
      "bom-ref": "pkg:rubygems/oj@3.13.13",
      "group": "",
      "name": "oj",
      "version": "3.13.13",
      "description": "",
      "purl": "pkg:rubygems/oj@3.13.13"
    },
    {
      "type": "library",
      "bom-ref": "pkg:rubygems/orm_adapter@0.5.0",
      "group": "",
      "name": "orm_adapter",
      "version": "0.5.0",
      "description": "",
      "purl": "pkg:rubygems/orm_adapter@0.5.0"
    },
    {
      "type": "library",
      "bom-ref": "pkg:rubygems/os@1.1.4",
      "group": "",
      "name": "os",
      "version": "1.1.4",
      "description": "",
      "purl": "pkg:rubygems/os@1.1.4"
    },
    {
      "type": "library",
      "bom-ref": "pkg:rubygems/paper_trail@12.3.0",
      "group": "",
      "name": "paper_trail",
      "version": "12.3.0",
      "description": "",
      "purl": "pkg:rubygems/paper_trail@12.3.0"
    },
    {
      "type": "library",
      "bom-ref": "pkg:rubygems/pg@1.3.5",
      "group": "",
      "name": "pg",
      "version": "1.3.5",
      "description": "",
      "purl": "pkg:rubygems/pg@1.3.5"
    },
    {
      "type": "library",
      "bom-ref": "pkg:rubygems/premailer@1.15.0",
      "group": "",
      "name": "premailer",
      "version": "1.15.0",
      "description": "",
      "purl": "pkg:rubygems/premailer@1.15.0"
    },
    {
      "type": "library",
      "bom-ref": "pkg:rubygems/premailer-rails@1.11.1",
      "group": "",
      "name": "premailer-rails",
      "version": "1.11.1",
      "description": "",
      "purl": "pkg:rubygems/premailer-rails@1.11.1"
    },
    {
      "type": "library",
      "bom-ref": "pkg:rubygems/public_suffix@4.0.6",
      "group": "",
      "name": "public_suffix",
      "version": "4.0.6",
      "description": "",
      "purl": "pkg:rubygems/public_suffix@4.0.6"
    },
    {
      "type": "library",
      "bom-ref": "pkg:rubygems/puma@5.6.4",
      "group": "",
      "name": "puma",
      "version": "5.6.4",
      "description": "",
      "purl": "pkg:rubygems/puma@5.6.4"
    },
    {
      "type": "library",
      "bom-ref": "pkg:rubygems/racc@1.6.0",
      "group": "",
      "name": "racc",
      "version": "1.6.0",
      "description": "",
      "purl": "pkg:rubygems/racc@1.6.0"
    },
    {
      "type": "library",
      "bom-ref": "pkg:rubygems/rack@2.2.3.1",
      "group": "",
      "name": "rack",
      "version": "2.2.3.1",
      "description": "",
      "purl": "pkg:rubygems/rack@2.2.3.1"
    },
    {
      "type": "library",
      "bom-ref": "pkg:rubygems/rack-attack@6.6.1",
      "group": "",
      "name": "rack-attack",
      "version": "6.6.1",
      "description": "",
      "purl": "pkg:rubygems/rack-attack@6.6.1"
    },
    {
      "type": "library",
      "bom-ref": "pkg:rubygems/rack-test@1.1.0",
      "group": "",
      "name": "rack-test",
      "version": "1.1.0",
      "description": "",
      "purl": "pkg:rubygems/rack-test@1.1.0"
    },
    {
      "type": "library",
      "bom-ref": "pkg:rubygems/rack-timeout@0.6.0",
      "group": "",
      "name": "rack-timeout",
      "version": "0.6.0",
      "description": "",
      "purl": "pkg:rubygems/rack-timeout@0.6.0"
    },
    {
      "type": "library",
      "bom-ref": "pkg:rubygems/rack_session_access@0.2.0",
      "group": "",
      "name": "rack_session_access",
      "version": "0.2.0",
      "description": "",
      "purl": "pkg:rubygems/rack_session_access@0.2.0"
    },
    {
      "type": "library",
      "bom-ref": "pkg:rubygems/rails@6.1.4.6",
      "group": "",
      "name": "rails",
      "version": "6.1.4.6",
      "description": "",
      "purl": "pkg:rubygems/rails@6.1.4.6"
    },
    {
      "type": "library",
      "bom-ref": "pkg:rubygems/rails-controller-testing@1.0.5",
      "group": "",
      "name": "rails-controller-testing",
      "version": "1.0.5",
      "description": "",
      "purl": "pkg:rubygems/rails-controller-testing@1.0.5"
    },
    {
      "type": "library",
      "bom-ref": "pkg:rubygems/rails-dom-testing@2.0.3",
      "group": "",
      "name": "rails-dom-testing",
      "version": "2.0.3",
      "description": "",
      "purl": "pkg:rubygems/rails-dom-testing@2.0.3"
    },
    {
      "type": "library",
      "bom-ref": "pkg:rubygems/rails-html-sanitizer@1.4.2",
      "group": "",
      "name": "rails-html-sanitizer",
      "version": "1.4.2",
      "description": "",
      "purl": "pkg:rubygems/rails-html-sanitizer@1.4.2"
    },
    {
      "type": "library",
      "bom-ref": "pkg:rubygems/rails_12factor@0.0.3",
      "group": "",
      "name": "rails_12factor",
      "version": "0.0.3",
      "description": "",
      "purl": "pkg:rubygems/rails_12factor@0.0.3"
    },
    {
      "type": "library",
      "bom-ref": "pkg:rubygems/rails_serve_static_assets@0.0.5",
      "group": "",
      "name": "rails_serve_static_assets",
      "version": "0.0.5",
      "description": "",
      "purl": "pkg:rubygems/rails_serve_static_assets@0.0.5"
    },
    {
      "type": "library",
      "bom-ref": "pkg:rubygems/rails_stdout_logging@0.0.5",
      "group": "",
      "name": "rails_stdout_logging",
      "version": "0.0.5",
      "description": "",
      "purl": "pkg:rubygems/rails_stdout_logging@0.0.5"
    },
    {
      "type": "library",
      "bom-ref": "pkg:rubygems/railties@6.1.4.6",
      "group": "",
      "name": "railties",
      "version": "6.1.4.6",
      "description": "",
      "purl": "pkg:rubygems/railties@6.1.4.6"
    },
    {
      "type": "library",
      "bom-ref": "pkg:rubygems/rake@13.0.6",
      "group": "",
      "name": "rake",
      "version": "13.0.6",
      "description": "",
      "purl": "pkg:rubygems/rake@13.0.6"
    },
    {
      "type": "library",
      "bom-ref": "pkg:rubygems/ransack@3.1.0",
      "group": "",
      "name": "ransack",
      "version": "3.1.0",
      "description": "",
      "purl": "pkg:rubygems/ransack@3.1.0"
    },
    {
      "type": "library",
      "bom-ref": "pkg:rubygems/rb-fsevent@0.11.0",
      "group": "",
      "name": "rb-fsevent",
      "version": "0.11.0",
      "description": "",
      "purl": "pkg:rubygems/rb-fsevent@0.11.0"
    },
    {
      "type": "library",
      "bom-ref": "pkg:rubygems/rb-inotify@0.10.1",
      "group": "",
      "name": "rb-inotify",
      "version": "0.10.1",
      "description": "",
      "purl": "pkg:rubygems/rb-inotify@0.10.1"
    },
    {
      "type": "library",
      "bom-ref": "pkg:rubygems/redcarpet@3.5.1",
      "group": "",
      "name": "redcarpet",
      "version": "3.5.1",
      "description": "",
      "purl": "pkg:rubygems/redcarpet@3.5.1"
    },
    {
      "type": "library",
      "bom-ref": "pkg:rubygems/redis@4.5.1",
      "group": "",
      "name": "redis",
      "version": "4.5.1",
      "description": "",
      "purl": "pkg:rubygems/redis@4.5.1"
    },
    {
      "type": "library",
      "bom-ref": "pkg:rubygems/redis-actionpack@5.2.0",
      "group": "",
      "name": "redis-actionpack",
      "version": "5.2.0",
      "description": "",
      "purl": "pkg:rubygems/redis-actionpack@5.2.0"
    },
    {
      "type": "library",
      "bom-ref": "pkg:rubygems/redis-activesupport@5.2.1",
      "group": "",
      "name": "redis-activesupport",
      "version": "5.2.1",
      "description": "",
      "purl": "pkg:rubygems/redis-activesupport@5.2.1"
    },
    {
      "type": "library",
      "bom-ref": "pkg:rubygems/redis-objects@1.6.0",
      "group": "",
      "name": "redis-objects",
      "version": "1.6.0",
      "description": "",
      "purl": "pkg:rubygems/redis-objects@1.6.0"
    },
    {
      "type": "library",
      "bom-ref": "pkg:rubygems/redis-rack@2.1.3",
      "group": "",
      "name": "redis-rack",
      "version": "2.1.3",
      "description": "",
      "purl": "pkg:rubygems/redis-rack@2.1.3"
    },
    {
      "type": "library",
      "bom-ref": "pkg:rubygems/redis-rails@5.0.2",
      "group": "",
      "name": "redis-rails",
      "version": "5.0.2",
      "description": "",
      "purl": "pkg:rubygems/redis-rails@5.0.2"
    },
    {
      "type": "library",
      "bom-ref": "pkg:rubygems/redis-store@1.9.0",
      "group": "",
      "name": "redis-store",
      "version": "1.9.0",
      "description": "",
      "purl": "pkg:rubygems/redis-store@1.9.0"
    },
    {
      "type": "library",
      "bom-ref": "pkg:rubygems/request_store@1.5.1",
      "group": "",
      "name": "request_store",
      "version": "1.5.1",
      "description": "",
      "purl": "pkg:rubygems/request_store@1.5.1"
    },
    {
      "type": "library",
      "bom-ref": "pkg:rubygems/responders@3.0.1",
      "group": "",
      "name": "responders",
      "version": "3.0.1",
      "description": "",
      "purl": "pkg:rubygems/responders@3.0.1"
    },
    {
      "type": "library",
      "bom-ref": "pkg:rubygems/reverse_markdown@2.1.1",
      "group": "",
      "name": "reverse_markdown",
      "version": "2.1.1",
      "description": "",
      "purl": "pkg:rubygems/reverse_markdown@2.1.1"
    },
    {
      "type": "library",
      "bom-ref": "pkg:rubygems/rexml@3.2.5",
      "group": "",
      "name": "rexml",
      "version": "3.2.5",
      "description": "",
      "purl": "pkg:rubygems/rexml@3.2.5"
    },
    {
      "type": "library",
      "bom-ref": "pkg:rubygems/rspec-activemodel-mocks@1.1.0",
      "group": "",
      "name": "rspec-activemodel-mocks",
      "version": "1.1.0",
      "description": "",
      "purl": "pkg:rubygems/rspec-activemodel-mocks@1.1.0"
    },
    {
      "type": "library",
      "bom-ref": "pkg:rubygems/rspec-collection_matchers@1.2.0",
      "group": "",
      "name": "rspec-collection_matchers",
      "version": "1.2.0",
      "description": "",
      "purl": "pkg:rubygems/rspec-collection_matchers@1.2.0"
    },
    {
      "type": "library",
      "bom-ref": "pkg:rubygems/rspec-core@3.10.1",
      "group": "",
      "name": "rspec-core",
      "version": "3.10.1",
      "description": "",
      "purl": "pkg:rubygems/rspec-core@3.10.1"
    },
    {
      "type": "library",
      "bom-ref": "pkg:rubygems/rspec-expectations@3.10.2",
      "group": "",
      "name": "rspec-expectations",
      "version": "3.10.2",
      "description": "",
      "purl": "pkg:rubygems/rspec-expectations@3.10.2"
    },
    {
      "type": "library",
      "bom-ref": "pkg:rubygems/rspec-its@1.3.0",
      "group": "",
      "name": "rspec-its",
      "version": "1.3.0",
      "description": "",
      "purl": "pkg:rubygems/rspec-its@1.3.0"
    },
    {
      "type": "library",
      "bom-ref": "pkg:rubygems/rspec-mocks@3.10.2",
      "group": "",
      "name": "rspec-mocks",
      "version": "3.10.2",
      "description": "",
      "purl": "pkg:rubygems/rspec-mocks@3.10.2"
    },
    {
      "type": "library",
      "bom-ref": "pkg:rubygems/rspec-rails@5.1.2",
      "group": "",
      "name": "rspec-rails",
      "version": "5.1.2",
      "description": "",
      "purl": "pkg:rubygems/rspec-rails@5.1.2"
    },
    {
      "type": "library",
      "bom-ref": "pkg:rubygems/rspec-support@3.10.3",
      "group": "",
      "name": "rspec-support",
      "version": "3.10.3",
      "description": "",
      "purl": "pkg:rubygems/rspec-support@3.10.3"
    },
    {
      "type": "library",
      "bom-ref": "pkg:rubygems/ruby-ll@2.1.2",
      "group": "",
      "name": "ruby-ll",
      "version": "2.1.2",
      "description": "",
      "purl": "pkg:rubygems/ruby-ll@2.1.2"
    },
    {
      "type": "library",
      "bom-ref": "pkg:rubygems/ruby-saml@1.14.0",
      "group": "",
      "name": "ruby-saml",
      "version": "1.14.0",
      "description": "",
      "purl": "pkg:rubygems/ruby-saml@1.14.0"
    },
    {
      "type": "library",
      "bom-ref": "pkg:rubygems/ruby-vips@2.1.4",
      "group": "",
      "name": "ruby-vips",
      "version": "2.1.4",
      "description": "",
      "purl": "pkg:rubygems/ruby-vips@2.1.4"
    },
    {
      "type": "library",
      "bom-ref": "pkg:rubygems/ruby2_keywords@0.0.5",
      "group": "",
      "name": "ruby2_keywords",
      "version": "0.0.5",
      "description": "",
      "purl": "pkg:rubygems/ruby2_keywords@0.0.5"
    },
    {
      "type": "library",
      "bom-ref": "pkg:rubygems/ruby_parser@3.17.0",
      "group": "",
      "name": "ruby_parser",
      "version": "3.17.0",
      "description": "",
      "purl": "pkg:rubygems/ruby_parser@3.17.0"
    },
    {
      "type": "library",
      "bom-ref": "pkg:rubygems/safely_block@0.3.0",
      "group": "",
      "name": "safely_block",
      "version": "0.3.0",
      "description": "",
      "purl": "pkg:rubygems/safely_block@0.3.0"
    },
    {
      "type": "library",
      "bom-ref": "pkg:rubygems/sass-rails@6.0.0",
      "group": "",
      "name": "sass-rails",
      "version": "6.0.0",
      "description": "",
      "purl": "pkg:rubygems/sass-rails@6.0.0"
    },
    {
      "type": "library",
      "bom-ref": "pkg:rubygems/sassc@2.4.0",
      "group": "",
      "name": "sassc",
      "version": "2.4.0",
      "description": "",
      "purl": "pkg:rubygems/sassc@2.4.0"
    },
    {
      "type": "library",
      "bom-ref": "pkg:rubygems/sassc-rails@2.1.2",
      "group": "",
      "name": "sassc-rails",
      "version": "2.1.2",
      "description": "",
      "purl": "pkg:rubygems/sassc-rails@2.1.2"
    },
    {
      "type": "library",
      "bom-ref": "pkg:rubygems/sentry-rails@5.3.1",
      "group": "",
      "name": "sentry-rails",
      "version": "5.3.1",
      "description": "",
      "purl": "pkg:rubygems/sentry-rails@5.3.1"
    },
    {
      "type": "library",
      "bom-ref": "pkg:rubygems/sentry-ruby@5.3.1",
      "group": "",
      "name": "sentry-ruby",
      "version": "5.3.1",
      "description": "",
      "purl": "pkg:rubygems/sentry-ruby@5.3.1"
    },
    {
      "type": "library",
      "bom-ref": "pkg:rubygems/sentry-ruby-core@5.3.1",
      "group": "",
      "name": "sentry-ruby-core",
      "version": "5.3.1",
      "description": "",
      "purl": "pkg:rubygems/sentry-ruby-core@5.3.1"
    },
    {
      "type": "library",
      "bom-ref": "pkg:rubygems/sentry-sidekiq@5.3.1",
      "group": "",
      "name": "sentry-sidekiq",
      "version": "5.3.1",
      "description": "",
      "purl": "pkg:rubygems/sentry-sidekiq@5.3.1"
    },
    {
      "type": "library",
      "bom-ref": "pkg:rubygems/sexp_processor@4.15.3",
      "group": "",
      "name": "sexp_processor",
      "version": "4.15.3",
      "description": "",
      "purl": "pkg:rubygems/sexp_processor@4.15.3"
    },
    {
      "type": "library",
      "bom-ref": "pkg:rubygems/sidekiq@6.4.2",
      "group": "",
      "name": "sidekiq",
      "version": "6.4.2",
      "description": "",
      "purl": "pkg:rubygems/sidekiq@6.4.2"
    },
    {
      "type": "library",
      "bom-ref": "pkg:rubygems/signet@0.16.0",
      "group": "",
      "name": "signet",
      "version": "0.16.0",
      "description": "",
      "purl": "pkg:rubygems/signet@0.16.0"
    },
    {
      "type": "library",
      "bom-ref": "pkg:rubygems/slack_mrkdwn@2.2.1",
      "group": "",
      "name": "slack_mrkdwn",
      "version": "2.2.1",
      "description": "",
      "purl": "pkg:rubygems/slack_mrkdwn@2.2.1"
    },
    {
      "type": "library",
      "bom-ref": "pkg:rubygems/spring@4.0.0",
      "group": "",
      "name": "spring",
      "version": "4.0.0",
      "description": "",
      "purl": "pkg:rubygems/spring@4.0.0"
    },
    {
      "type": "library",
      "bom-ref": "pkg:rubygems/spring-commands-rspec@1.0.4",
      "group": "",
      "name": "spring-commands-rspec",
      "version": "1.0.4",
      "description": "",
      "purl": "pkg:rubygems/spring-commands-rspec@1.0.4"
    },
    {
      "type": "library",
      "bom-ref": "pkg:rubygems/sprockets@3.7.2",
      "group": "",
      "name": "sprockets",
      "version": "3.7.2",
      "description": "",
      "purl": "pkg:rubygems/sprockets@3.7.2"
    },
    {
      "type": "library",
      "bom-ref": "pkg:rubygems/sprockets-rails@3.4.2",
      "group": "",
      "name": "sprockets-rails",
      "version": "3.4.2",
      "description": "",
      "purl": "pkg:rubygems/sprockets-rails@3.4.2"
    },
    {
      "type": "library",
      "bom-ref": "pkg:rubygems/temple@0.8.2",
      "group": "",
      "name": "temple",
      "version": "0.8.2",
      "description": "",
      "purl": "pkg:rubygems/temple@0.8.2"
    },
    {
      "type": "library",
      "bom-ref": "pkg:rubygems/terminal-table@3.0.2",
      "group": "",
      "name": "terminal-table",
      "version": "3.0.2",
      "description": "",
      "purl": "pkg:rubygems/terminal-table@3.0.2"
    },
    {
      "type": "library",
      "bom-ref": "pkg:rubygems/thor@1.2.1",
      "group": "",
      "name": "thor",
      "version": "1.2.1",
      "description": "",
      "purl": "pkg:rubygems/thor@1.2.1"
    },
    {
      "type": "library",
      "bom-ref": "pkg:rubygems/tilt@2.0.10",
      "group": "",
      "name": "tilt",
      "version": "2.0.10",
      "description": "",
      "purl": "pkg:rubygems/tilt@2.0.10"
    },
    {
      "type": "library",
      "bom-ref": "pkg:rubygems/tzinfo@2.0.4",
      "group": "",
      "name": "tzinfo",
      "version": "2.0.4",
      "description": "",
      "purl": "pkg:rubygems/tzinfo@2.0.4"
    },
    {
      "type": "library",
      "bom-ref": "pkg:rubygems/uglifier@4.2.0",
      "group": "",
      "name": "uglifier",
      "version": "4.2.0",
      "description": "",
      "purl": "pkg:rubygems/uglifier@4.2.0"
    },
    {
      "type": "library",
      "bom-ref": "pkg:rubygems/unf@0.1.4",
      "group": "",
      "name": "unf",
      "version": "0.1.4",
      "description": "",
      "purl": "pkg:rubygems/unf@0.1.4"
    },
    {
      "type": "library",
      "bom-ref": "pkg:rubygems/unf_ext@0.0.7.7",
      "group": "",
      "name": "unf_ext",
      "version": "0.0.7.7",
      "description": "",
      "purl": "pkg:rubygems/unf_ext@0.0.7.7"
    },
    {
      "type": "library",
      "bom-ref": "pkg:rubygems/unicode-display_width@2.1.0",
      "group": "",
      "name": "unicode-display_width",
      "version": "2.1.0",
      "description": "",
      "purl": "pkg:rubygems/unicode-display_width@2.1.0"
    },
    {
      "type": "library",
      "bom-ref": "pkg:rubygems/uuidtools@2.2.0",
      "group": "",
      "name": "uuidtools",
      "version": "2.2.0",
      "description": "",
      "purl": "pkg:rubygems/uuidtools@2.2.0"
    },
    {
      "type": "library",
      "bom-ref": "pkg:rubygems/video_info@3.0.2",
      "group": "",
      "name": "video_info",
      "version": "3.0.2",
      "description": "",
      "purl": "pkg:rubygems/video_info@3.0.2"
    },
    {
      "type": "library",
      "bom-ref": "pkg:rubygems/warden@1.2.9",
      "group": "",
      "name": "warden",
      "version": "1.2.9",
      "description": "",
      "purl": "pkg:rubygems/warden@1.2.9"
    },
    {
      "type": "library",
      "bom-ref": "pkg:rubygems/webmock@3.14.0",
      "group": "",
      "name": "webmock",
      "version": "3.14.0",
      "description": "",
      "purl": "pkg:rubygems/webmock@3.14.0"
    },
    {
      "type": "library",
      "bom-ref": "pkg:rubygems/websocket-driver@0.7.5",
      "group": "",
      "name": "websocket-driver",
      "version": "0.7.5",
      "description": "",
      "purl": "pkg:rubygems/websocket-driver@0.7.5"
    },
    {
      "type": "library",
      "bom-ref": "pkg:rubygems/websocket-extensions@0.1.5",
      "group": "",
      "name": "websocket-extensions",
      "version": "0.1.5",
      "description": "",
      "purl": "pkg:rubygems/websocket-extensions@0.1.5"
    },
    {
      "type": "library",
      "bom-ref": "pkg:rubygems/zeitwerk@2.5.4",
      "group": "",
      "name": "zeitwerk",
      "version": "2.5.4",
      "description": "",
      "purl": "pkg:rubygems/zeitwerk@2.5.4"
    }
  ],
  "externalReferences": [
    {
      "url": "/project/src",
      "type": "other",
      "comment": "Base path"
    },
    {
      "url": "/project/src/Gemfile.lock",
      "type": "other",
      "comment": "Package file"
    }
  ]
}
