{
  "bomFormat": "CycloneDX",
  "specVersion": "1.3",
  "serialNumber": "urn:uuid:ea4e1e2e-4c60-4958-9542-5f5d1ee268eb",
  "version": 2,
  "metadata": {
    "timestamp": "2022-07-26T23:37:45Z",
    "tools": [
      {
        "vendor": "AppThreat",
        "name": "cdxgen",
        "version": "3.0.10"
      },
      {
        "vendor": "Fortress Information Security",
        "name": "Github Extractor",
        "version": "1.15.1"
      }
    ],
    "authors": [
      {
        "name": "Team AppThreat",
        "email": "cloud@appthreat.com"
      },
      {
        "name": "Fortress Information Security",
        "email": "sales@fortressinfosec.com",
        "phone": "1-407-573-6800"
      }
    ],
    "component": {
      "type": "application",
      "name": "abba",
      "version": "",
      "group": "maccman",
      "externalReferences": [
        {
          "url": "https://github.com/maccman/abba.git",
          "type": "distribution"
        },
        {
          "type": "website",
          "url": "null",
          "comment": "As set via `homepage` in Github API"
        }
      ]
    }
  },
  "components": [
    {
      "type": "library",
      "bom-ref": "pkg:rubygems/activemodel@4.2.5.1",
      "group": "",
      "name": "activemodel",
      "version": "4.2.5.1",
      "description": "",
      "purl": "pkg:rubygems/activemodel@4.2.5.1"
    },
    {
      "type": "library",
      "bom-ref": "pkg:rubygems/activesupport@4.2.5.1",
      "group": "",
      "name": "activesupport",
      "version": "4.2.5.1",
      "description": "",
      "purl": "pkg:rubygems/activesupport@4.2.5.1"
    },
    {
      "type": "library",
      "bom-ref": "pkg:rubygems/backports@3.6.8",
      "group": "",
      "name": "backports",
      "version": "3.6.8",
      "description": "",
      "purl": "pkg:rubygems/backports@3.6.8"
    },
    {
      "type": "library",
      "bom-ref": "pkg:rubygems/bson@1.12.5",
      "group": "",
      "name": "bson",
      "version": "1.12.5",
      "description": "",
      "purl": "pkg:rubygems/bson@1.12.5"
    },
    {
      "type": "library",
      "bom-ref": "pkg:rubygems/bson_ext@1.12.5",
      "group": "",
      "name": "bson_ext",
      "version": "1.12.5",
      "description": "",
      "purl": "pkg:rubygems/bson_ext@1.12.5"
    },
    {
      "type": "library",
      "bom-ref": "pkg:rubygems/builder@3.2.2",
      "group": "",
      "name": "builder",
      "version": "3.2.2",
      "description": "",
      "purl": "pkg:rubygems/builder@3.2.2"
    },
    {
      "type": "library",
      "bom-ref": "pkg:rubygems/coffee-script@2.4.1",
      "group": "",
      "name": "coffee-script",
      "version": "2.4.1",
      "description": "",
      "purl": "pkg:rubygems/coffee-script@2.4.1"
    },
    {
      "type": "library",
      "bom-ref": "pkg:rubygems/coffee-script-source@1.10.0",
      "group": "",
      "name": "coffee-script-source",
      "version": "1.10.0",
      "description": "",
      "purl": "pkg:rubygems/coffee-script-source@1.10.0"
    },
    {
      "type": "library",
      "bom-ref": "pkg:rubygems/daemons@1.2.3",
      "group": "",
      "name": "daemons",
      "version": "1.2.3",
      "description": "",
      "purl": "pkg:rubygems/daemons@1.2.3"
    },
    {
      "type": "library",
      "bom-ref": "pkg:rubygems/eco@1.0.0",
      "group": "",
      "name": "eco",
      "version": "1.0.0",
      "description": "",
      "purl": "pkg:rubygems/eco@1.0.0"
    },
    {
      "type": "library",
      "bom-ref": "pkg:rubygems/eco-source@1.1.0.rc.1",
      "group": "",
      "name": "eco-source",
      "version": "1.1.0.rc.1",
      "description": "",
      "purl": "pkg:rubygems/eco-source@1.1.0.rc.1"
    },
    {
      "type": "library",
      "bom-ref": "pkg:rubygems/erubis@2.7.0",
      "group": "",
      "name": "erubis",
      "version": "2.7.0",
      "description": "",
      "purl": "pkg:rubygems/erubis@2.7.0"
    },
    {
      "type": "library",
      "bom-ref": "pkg:rubygems/eventmachine@1.0.9.1",
      "group": "",
      "name": "eventmachine",
      "version": "1.0.9.1",
      "description": "",
      "purl": "pkg:rubygems/eventmachine@1.0.9.1"
    },
    {
      "type": "library",
      "bom-ref": "pkg:rubygems/execjs@2.6.0",
      "group": "",
      "name": "execjs",
      "version": "2.6.0",
      "description": "",
      "purl": "pkg:rubygems/execjs@2.6.0"
    },
    {
      "type": "library",
      "bom-ref": "pkg:rubygems/hike@1.2.3",
      "group": "",
      "name": "hike",
      "version": "1.2.3",
      "description": "",
      "purl": "pkg:rubygems/hike@1.2.3"
    },
    {
      "type": "library",
      "bom-ref": "pkg:rubygems/i18n@0.7.0",
      "group": "",
      "name": "i18n",
      "version": "0.7.0",
      "description": "",
      "purl": "pkg:rubygems/i18n@0.7.0"
    },
    {
      "type": "library",
      "bom-ref": "pkg:rubygems/json@1.8.3",
      "group": "",
      "name": "json",
      "version": "1.8.3",
      "description": "",
      "purl": "pkg:rubygems/json@1.8.3"
    },
    {
      "type": "library",
      "bom-ref": "pkg:rubygems/minitest@5.8.4",
      "group": "",
      "name": "minitest",
      "version": "5.8.4",
      "description": "",
      "purl": "pkg:rubygems/minitest@5.8.4"
    },
    {
      "type": "library",
      "bom-ref": "pkg:rubygems/mongo@1.12.5",
      "group": "",
      "name": "mongo",
      "version": "1.12.5",
      "description": "",
      "purl": "pkg:rubygems/mongo@1.12.5"
    },
    {
      "type": "library",
      "bom-ref": "pkg:rubygems/mongo_mapper@0.13.1",
      "group": "",
      "name": "mongo_mapper",
      "version": "0.13.1",
      "description": "",
      "purl": "pkg:rubygems/mongo_mapper@0.13.1"
    },
    {
      "type": "library",
      "bom-ref": "pkg:rubygems/multi_json@1.11.2",
      "group": "",
      "name": "multi_json",
      "version": "1.11.2",
      "description": "",
      "purl": "pkg:rubygems/multi_json@1.11.2"
    },
    {
      "type": "library",
      "bom-ref": "pkg:rubygems/plucky@0.6.6",
      "group": "",
      "name": "plucky",
      "version": "0.6.6",
      "description": "",
      "purl": "pkg:rubygems/plucky@0.6.6"
    },
    {
      "type": "library",
      "bom-ref": "pkg:rubygems/rack@1.6.4",
      "group": "",
      "name": "rack",
      "version": "1.6.4",
      "description": "",
      "purl": "pkg:rubygems/rack@1.6.4"
    },
    {
      "type": "library",
      "bom-ref": "pkg:rubygems/rack-protection@1.5.3",
      "group": "",
      "name": "rack-protection",
      "version": "1.5.3",
      "description": "",
      "purl": "pkg:rubygems/rack-protection@1.5.3"
    },
    {
      "type": "library",
      "bom-ref": "pkg:rubygems/rack-test@0.6.3",
      "group": "",
      "name": "rack-test",
      "version": "0.6.3",
      "description": "",
      "purl": "pkg:rubygems/rack-test@0.6.3"
    },
    {
      "type": "library",
      "bom-ref": "pkg:rubygems/sinatra@1.4.7",
      "group": "",
      "name": "sinatra",
      "version": "1.4.7",
      "description": "",
      "purl": "pkg:rubygems/sinatra@1.4.7"
    },
    {
      "type": "library",
      "bom-ref": "pkg:rubygems/sinatra-contrib@1.4.6",
      "group": "",
      "name": "sinatra-contrib",
      "version": "1.4.6",
      "description": "",
      "purl": "pkg:rubygems/sinatra-contrib@1.4.6"
    },
    {
      "type": "library",
      "bom-ref": "pkg:rubygems/sprockets@2.9.4",
      "group": "",
      "name": "sprockets",
      "version": "2.9.4",
      "description": "",
      "purl": "pkg:rubygems/sprockets@2.9.4"
    },
    {
      "type": "library",
      "bom-ref": "pkg:rubygems/sprockets-commonjs@0.0.6",
      "group": "",
      "name": "sprockets-commonjs",
      "version": "0.0.6",
      "description": "",
      "purl": "pkg:rubygems/sprockets-commonjs@0.0.6"
    },
    {
      "type": "library",
      "bom-ref": "pkg:rubygems/stylus@1.0.1",
      "group": "",
      "name": "stylus",
      "version": "1.0.1",
      "description": "",
      "purl": "pkg:rubygems/stylus@1.0.1"
    },
    {
      "type": "library",
      "bom-ref": "pkg:rubygems/stylus-source@0.49.3",
      "group": "",
      "name": "stylus-source",
      "version": "0.49.3",
      "description": "",
      "purl": "pkg:rubygems/stylus-source@0.49.3"
    },
    {
      "type": "library",
      "bom-ref": "pkg:rubygems/thin@1.6.4",
      "group": "",
      "name": "thin",
      "version": "1.6.4",
      "description": "",
      "purl": "pkg:rubygems/thin@1.6.4"
    },
    {
      "type": "library",
      "bom-ref": "pkg:rubygems/thread_safe@0.3.5",
      "group": "",
      "name": "thread_safe",
      "version": "0.3.5",
      "description": "",
      "purl": "pkg:rubygems/thread_safe@0.3.5"
    },
    {
      "type": "library",
      "bom-ref": "pkg:rubygems/tilt@1.4.1",
      "group": "",
      "name": "tilt",
      "version": "1.4.1",
      "description": "",
      "purl": "pkg:rubygems/tilt@1.4.1"
    },
    {
      "type": "library",
      "bom-ref": "pkg:rubygems/tzinfo@1.2.2",
      "group": "",
      "name": "tzinfo",
      "version": "1.2.2",
      "description": "",
      "purl": "pkg:rubygems/tzinfo@1.2.2"
    },
    {
      "type": "library",
      "bom-ref": "pkg:rubygems/uglifier@2.7.2",
      "group": "",
      "name": "uglifier",
      "version": "2.7.2",
      "description": "",
      "purl": "pkg:rubygems/uglifier@2.7.2"
    },
    {
      "type": "library",
      "bom-ref": "pkg:rubygems/useragent@0.16.3",
      "group": "",
      "name": "useragent",
      "version": "0.16.3",
      "description": "",
      "purl": "pkg:rubygems/useragent@0.16.3"
    }
  ],
  "externalReferences": [
    {
      "url": "/project/src",
      "type": "other",
      "comment": "Base path"
    },
    {
      "url": "/project/src/Gemfile.lock",
      "type": "other",
      "comment": "Package file"
    }
  ]
}
