{
  "bomFormat": "CycloneDX",
  "specVersion": "1.3",
  "version": 2,
  "metadata": {
    "tools": [
      {
        "vendor": "CycloneDX",
        "name": "cyclonedx-gomod",
        "version": "v0.0.0-unset",
        "hashes": [
          {
            "alg": "MD5",
            "content": "a35776fc9417e8071d3f1dcfa2f1dd19"
          },
          {
            "alg": "SHA-1",
            "content": "a19a8eed713eff5a2092e5283c201a146f19421d"
          },
          {
            "alg": "SHA-256",
            "content": "17b3b980b9a5d0f48ad52043dee5b31aff3ae6599a36bc94224dc7b6a46759ef"
          },
          {
            "alg": "SHA-512",
            "content": "9d4f06aab20cede94a1aedf11a300ae9de98871235c68c72e421cd6d45495910861b39e743ee0eceb11bbdcd2c9acc3312c19064cfe90177243fb43127fcfa46"
          }
        ]
      },
      {
        "vendor": "AppThreat",
        "name": "cdxgen",
        "version": "3.0.10"
      },
      {
        "vendor": "Fortress Information Security",
        "name": "Github Extractor",
        "version": "1.15.1"
      }
    ],
    "authors": [
      {
        "name": "Fortress Information Security",
        "email": "sales@fortressinfosec.com",
        "phone": "1-407-573-6800"
      }
    ],
    "timestamp": "2022-07-26T23:36:38Z",
    "component": {
      "type": "application",
      "name": "easyjson",
      "version": "v0.7.7",
      "group": "mailru",
      "externalReferences": [
        {
          "url": "https://github.com/mailru/easyjson.git",
          "type": "distribution"
        },
        {
          "type": "website",
          "url": "null",
          "comment": "As set via `homepage` in Github API"
        }
      ]
    }
  },
  "components": [
    {
      "type": "library",
      "bom-ref": "pkg:golang/github.com/josharian/intern@v1.0.0",
      "name": "github.com/josharian/intern",
      "version": "v1.0.0",
      "scope": "required",
      "hashes": [
        {
          "alg": "SHA-256",
          "content": "be54b8cf9e2849d8e6d1b823462808f86d47a45fad23ef6b1392cbcce83c1e66"
        }
      ],
      "purl": "pkg:golang/github.com/josharian/intern@v1.0.0",
      "externalReferences": [
        {
          "url": "https://github.com/josharian/intern",
          "type": "vcs"
        }
      ]
    },
    {
      "type": "library",
      "bom-ref": "pkg:golang/github.com/mailru/easyjson",
      "group": "github.com/mailru",
      "name": "easyjson",
      "version": "",
      "description": "",
      "scope": "required",
      "purl": "pkg:golang/github.com/mailru/easyjson"
    }
  ],
  "dependencies": [
    {
      "ref": "pkg:golang/github.com/josharian/intern@v1.0.0"
    },
    {
      "ref": "pkg:golang/github.com/mailru/easyjson@v0.0.0-20220404104136-a209843d8ea9",
      "dependsOn": [
        "pkg:golang/github.com/josharian/intern@v1.0.0"
      ]
    }
  ]
}
