{
  "bomFormat": "CycloneDX",
  "specVersion": "1.3",
  "serialNumber": "urn:uuid:cfe45696-3d02-4af9-b9aa-900fcc442754",
  "version": 1,
  "metadata": {
    "timestamp": "2022-05-30T21:50:17Z",
    "tools": [
      {
        "vendor": "AppThreat",
        "name": "cdxgen",
        "version": "3.0.10"
      },
      {
        "vendor": "Fortress Information Security",
        "name": "Github Extractor",
        "version": "1.15.1"
      }
    ],
    "authors": [
      {
        "name": "Team AppThreat",
        "email": "cloud@appthreat.com"
      },
      {
        "name": "Fortress Information Security",
        "email": "sales@fortressinfosec.com",
        "phone": "1-407-573-6800"
      }
    ],
    "component": {
      "type": "application",
      "name": "metainspector",
      "version": "report",
      "group": "metainspector",
      "externalReferences": [
        {
          "url": "https://github.com/metainspector/metainspector.git",
          "type": "distribution"
        }
      ]
    }
  },
  "components": [
    {
      "type": "library",
      "bom-ref": "pkg:rubygems/metainspector@5.12.1",
      "group": "",
      "name": "metainspector",
      "version": "5.12.1",
      "description": "",
      "purl": "pkg:rubygems/metainspector@5.12.1"
    },
    {
      "type": "library",
      "bom-ref": "pkg:rubygems/remote:@http://rubygems.org/",
      "group": "",
      "name": "remote:",
      "version": "http://rubygems.org/",
      "description": "",
      "purl": "pkg:rubygems/remote:@http://rubygems.org/"
    },
    {
      "type": "library",
      "bom-ref": "pkg:rubygems/addressable@2.8.0",
      "group": "",
      "name": "addressable",
      "version": "2.8.0",
      "description": "",
      "purl": "pkg:rubygems/addressable@2.8.0"
    },
    {
      "type": "library",
      "bom-ref": "pkg:rubygems/ast@2.4.2",
      "group": "",
      "name": "ast",
      "version": "2.4.2",
      "description": "",
      "purl": "pkg:rubygems/ast@2.4.2"
    },
    {
      "type": "library",
      "bom-ref": "pkg:rubygems/awesome_print@1.9.2",
      "group": "",
      "name": "awesome_print",
      "version": "1.9.2",
      "description": "",
      "purl": "pkg:rubygems/awesome_print@1.9.2"
    },
    {
      "type": "library",
      "bom-ref": "pkg:rubygems/coderay@1.1.3",
      "group": "",
      "name": "coderay",
      "version": "1.1.3",
      "description": "",
      "purl": "pkg:rubygems/coderay@1.1.3"
    },
    {
      "type": "library",
      "bom-ref": "pkg:rubygems/crack@0.4.5",
      "group": "",
      "name": "crack",
      "version": "0.4.5",
      "description": "",
      "purl": "pkg:rubygems/crack@0.4.5"
    },
    {
      "type": "library",
      "bom-ref": "pkg:rubygems/diff-lcs@1.5.0",
      "group": "",
      "name": "diff-lcs",
      "version": "1.5.0",
      "description": "",
      "purl": "pkg:rubygems/diff-lcs@1.5.0"
    },
    {
      "type": "library",
      "bom-ref": "pkg:rubygems/domain_name@0.5.20190701",
      "group": "",
      "name": "domain_name",
      "version": "0.5.20190701",
      "description": "",
      "purl": "pkg:rubygems/domain_name@0.5.20190701"
    },
    {
      "type": "library",
      "bom-ref": "pkg:rubygems/faraday@1.10.0",
      "group": "",
      "name": "faraday",
      "version": "1.10.0",
      "description": "",
      "purl": "pkg:rubygems/faraday@1.10.0"
    },
    {
      "type": "library",
      "bom-ref": "pkg:rubygems/faraday-cookie_jar@0.0.7",
      "group": "",
      "name": "faraday-cookie_jar",
      "version": "0.0.7",
      "description": "",
      "purl": "pkg:rubygems/faraday-cookie_jar@0.0.7"
    },
    {
      "type": "library",
      "bom-ref": "pkg:rubygems/faraday-em_http@1.0.0",
      "group": "",
      "name": "faraday-em_http",
      "version": "1.0.0",
      "description": "",
      "purl": "pkg:rubygems/faraday-em_http@1.0.0"
    },
    {
      "type": "library",
      "bom-ref": "pkg:rubygems/faraday-em_synchrony@1.0.0",
      "group": "",
      "name": "faraday-em_synchrony",
      "version": "1.0.0",
      "description": "",
      "purl": "pkg:rubygems/faraday-em_synchrony@1.0.0"
    },
    {
      "type": "library",
      "bom-ref": "pkg:rubygems/faraday-encoding@0.0.5",
      "group": "",
      "name": "faraday-encoding",
      "version": "0.0.5",
      "description": "",
      "purl": "pkg:rubygems/faraday-encoding@0.0.5"
    },
    {
      "type": "library",
      "bom-ref": "pkg:rubygems/faraday-excon@1.1.0",
      "group": "",
      "name": "faraday-excon",
      "version": "1.1.0",
      "description": "",
      "purl": "pkg:rubygems/faraday-excon@1.1.0"
    },
    {
      "type": "library",
      "bom-ref": "pkg:rubygems/faraday-http-cache@2.3.0",
      "group": "",
      "name": "faraday-http-cache",
      "version": "2.3.0",
      "description": "",
      "purl": "pkg:rubygems/faraday-http-cache@2.3.0"
    },
    {
      "type": "library",
      "bom-ref": "pkg:rubygems/faraday-httpclient@1.0.1",
      "group": "",
      "name": "faraday-httpclient",
      "version": "1.0.1",
      "description": "",
      "purl": "pkg:rubygems/faraday-httpclient@1.0.1"
    },
    {
      "type": "library",
      "bom-ref": "pkg:rubygems/faraday-multipart@1.0.3",
      "group": "",
      "name": "faraday-multipart",
      "version": "1.0.3",
      "description": "",
      "purl": "pkg:rubygems/faraday-multipart@1.0.3"
    },
    {
      "type": "library",
      "bom-ref": "pkg:rubygems/faraday-net_http@1.0.1",
      "group": "",
      "name": "faraday-net_http",
      "version": "1.0.1",
      "description": "",
      "purl": "pkg:rubygems/faraday-net_http@1.0.1"
    },
    {
      "type": "library",
      "bom-ref": "pkg:rubygems/faraday-net_http_persistent@1.2.0",
      "group": "",
      "name": "faraday-net_http_persistent",
      "version": "1.2.0",
      "description": "",
      "purl": "pkg:rubygems/faraday-net_http_persistent@1.2.0"
    },
    {
      "type": "library",
      "bom-ref": "pkg:rubygems/faraday-patron@1.0.0",
      "group": "",
      "name": "faraday-patron",
      "version": "1.0.0",
      "description": "",
      "purl": "pkg:rubygems/faraday-patron@1.0.0"
    },
    {
      "type": "library",
      "bom-ref": "pkg:rubygems/faraday-rack@1.0.0",
      "group": "",
      "name": "faraday-rack",
      "version": "1.0.0",
      "description": "",
      "purl": "pkg:rubygems/faraday-rack@1.0.0"
    },
    {
      "type": "library",
      "bom-ref": "pkg:rubygems/faraday-retry@1.0.3",
      "group": "",
      "name": "faraday-retry",
      "version": "1.0.3",
      "description": "",
      "purl": "pkg:rubygems/faraday-retry@1.0.3"
    },
    {
      "type": "library",
      "bom-ref": "pkg:rubygems/faraday_middleware@1.2.0",
      "group": "",
      "name": "faraday_middleware",
      "version": "1.2.0",
      "description": "",
      "purl": "pkg:rubygems/faraday_middleware@1.2.0"
    },
    {
      "type": "library",
      "bom-ref": "pkg:rubygems/fastimage@2.2.6",
      "group": "",
      "name": "fastimage",
      "version": "2.2.6",
      "description": "",
      "purl": "pkg:rubygems/fastimage@2.2.6"
    },
    {
      "type": "library",
      "bom-ref": "pkg:rubygems/hashdiff@1.0.1",
      "group": "",
      "name": "hashdiff",
      "version": "1.0.1",
      "description": "",
      "purl": "pkg:rubygems/hashdiff@1.0.1"
    },
    {
      "type": "library",
      "bom-ref": "pkg:rubygems/http-cookie@1.0.4",
      "group": "",
      "name": "http-cookie",
      "version": "1.0.4",
      "description": "",
      "purl": "pkg:rubygems/http-cookie@1.0.4"
    },
    {
      "type": "library",
      "bom-ref": "pkg:rubygems/method_source@1.0.0",
      "group": "",
      "name": "method_source",
      "version": "1.0.0",
      "description": "",
      "purl": "pkg:rubygems/method_source@1.0.0"
    },
    {
      "type": "library",
      "bom-ref": "pkg:rubygems/mini_portile2@2.8.0",
      "group": "",
      "name": "mini_portile2",
      "version": "2.8.0",
      "description": "",
      "purl": "pkg:rubygems/mini_portile2@2.8.0"
    },
    {
      "type": "library",
      "bom-ref": "pkg:rubygems/multipart-post@2.1.1",
      "group": "",
      "name": "multipart-post",
      "version": "2.1.1",
      "description": "",
      "purl": "pkg:rubygems/multipart-post@2.1.1"
    },
    {
      "type": "library",
      "bom-ref": "pkg:rubygems/nesty@1.0.2",
      "group": "",
      "name": "nesty",
      "version": "1.0.2",
      "description": "",
      "purl": "pkg:rubygems/nesty@1.0.2"
    },
    {
      "type": "library",
      "bom-ref": "pkg:rubygems/nokogiri@1.13.6",
      "group": "",
      "name": "nokogiri",
      "version": "1.13.6",
      "description": "",
      "purl": "pkg:rubygems/nokogiri@1.13.6"
    },
    {
      "type": "library",
      "bom-ref": "pkg:rubygems/parallel@1.22.1",
      "group": "",
      "name": "parallel",
      "version": "1.22.1",
      "description": "",
      "purl": "pkg:rubygems/parallel@1.22.1"
    },
    {
      "type": "library",
      "bom-ref": "pkg:rubygems/parser@3.1.2.0",
      "group": "",
      "name": "parser",
      "version": "3.1.2.0",
      "description": "",
      "purl": "pkg:rubygems/parser@3.1.2.0"
    },
    {
      "type": "library",
      "bom-ref": "pkg:rubygems/pry@0.14.1",
      "group": "",
      "name": "pry",
      "version": "0.14.1",
      "description": "",
      "purl": "pkg:rubygems/pry@0.14.1"
    },
    {
      "type": "library",
      "bom-ref": "pkg:rubygems/public_suffix@4.0.6",
      "group": "",
      "name": "public_suffix",
      "version": "4.0.6",
      "description": "",
      "purl": "pkg:rubygems/public_suffix@4.0.6"
    },
    {
      "type": "library",
      "bom-ref": "pkg:rubygems/racc@1.6.0",
      "group": "",
      "name": "racc",
      "version": "1.6.0",
      "description": "",
      "purl": "pkg:rubygems/racc@1.6.0"
    },
    {
      "type": "library",
      "bom-ref": "pkg:rubygems/rainbow@3.1.1",
      "group": "",
      "name": "rainbow",
      "version": "3.1.1",
      "description": "",
      "purl": "pkg:rubygems/rainbow@3.1.1"
    },
    {
      "type": "library",
      "bom-ref": "pkg:rubygems/rake@13.0.6",
      "group": "",
      "name": "rake",
      "version": "13.0.6",
      "description": "",
      "purl": "pkg:rubygems/rake@13.0.6"
    },
    {
      "type": "library",
      "bom-ref": "pkg:rubygems/regexp_parser@2.4.0",
      "group": "",
      "name": "regexp_parser",
      "version": "2.4.0",
      "description": "",
      "purl": "pkg:rubygems/regexp_parser@2.4.0"
    },
    {
      "type": "library",
      "bom-ref": "pkg:rubygems/rexml@3.2.5",
      "group": "",
      "name": "rexml",
      "version": "3.2.5",
      "description": "",
      "purl": "pkg:rubygems/rexml@3.2.5"
    },
    {
      "type": "library",
      "bom-ref": "pkg:rubygems/rspec@3.11.0",
      "group": "",
      "name": "rspec",
      "version": "3.11.0",
      "description": "",
      "purl": "pkg:rubygems/rspec@3.11.0"
    },
    {
      "type": "library",
      "bom-ref": "pkg:rubygems/rspec-core@3.11.0",
      "group": "",
      "name": "rspec-core",
      "version": "3.11.0",
      "description": "",
      "purl": "pkg:rubygems/rspec-core@3.11.0"
    },
    {
      "type": "library",
      "bom-ref": "pkg:rubygems/rspec-expectations@3.11.0",
      "group": "",
      "name": "rspec-expectations",
      "version": "3.11.0",
      "description": "",
      "purl": "pkg:rubygems/rspec-expectations@3.11.0"
    },
    {
      "type": "library",
      "bom-ref": "pkg:rubygems/rspec-mocks@3.11.0",
      "group": "",
      "name": "rspec-mocks",
      "version": "3.11.0",
      "description": "",
      "purl": "pkg:rubygems/rspec-mocks@3.11.0"
    },
    {
      "type": "library",
      "bom-ref": "pkg:rubygems/rspec-support@3.11.0",
      "group": "",
      "name": "rspec-support",
      "version": "3.11.0",
      "description": "",
      "purl": "pkg:rubygems/rspec-support@3.11.0"
    },
    {
      "type": "library",
      "bom-ref": "pkg:rubygems/rubocop@1.29.1",
      "group": "",
      "name": "rubocop",
      "version": "1.29.1",
      "description": "",
      "purl": "pkg:rubygems/rubocop@1.29.1"
    },
    {
      "type": "library",
      "bom-ref": "pkg:rubygems/rubocop-ast@1.17.0",
      "group": "",
      "name": "rubocop-ast",
      "version": "1.17.0",
      "description": "",
      "purl": "pkg:rubygems/rubocop-ast@1.17.0"
    },
    {
      "type": "library",
      "bom-ref": "pkg:rubygems/ruby-progressbar@1.11.0",
      "group": "",
      "name": "ruby-progressbar",
      "version": "1.11.0",
      "description": "",
      "purl": "pkg:rubygems/ruby-progressbar@1.11.0"
    },
    {
      "type": "library",
      "bom-ref": "pkg:rubygems/ruby2_keywords@0.0.5",
      "group": "",
      "name": "ruby2_keywords",
      "version": "0.0.5",
      "description": "",
      "purl": "pkg:rubygems/ruby2_keywords@0.0.5"
    },
    {
      "type": "library",
      "bom-ref": "pkg:rubygems/unf@0.1.4",
      "group": "",
      "name": "unf",
      "version": "0.1.4",
      "description": "",
      "purl": "pkg:rubygems/unf@0.1.4"
    },
    {
      "type": "library",
      "bom-ref": "pkg:rubygems/unf_ext@0.0.8.1",
      "group": "",
      "name": "unf_ext",
      "version": "0.0.8.1",
      "description": "",
      "purl": "pkg:rubygems/unf_ext@0.0.8.1"
    },
    {
      "type": "library",
      "bom-ref": "pkg:rubygems/unicode-display_width@2.1.0",
      "group": "",
      "name": "unicode-display_width",
      "version": "2.1.0",
      "description": "",
      "purl": "pkg:rubygems/unicode-display_width@2.1.0"
    },
    {
      "type": "library",
      "bom-ref": "pkg:rubygems/webmock@3.14.0",
      "group": "",
      "name": "webmock",
      "version": "3.14.0",
      "description": "",
      "purl": "pkg:rubygems/webmock@3.14.0"
    }
  ],
  "externalReferences": [
    {
      "url": "/project/src",
      "type": "other",
      "comment": "Base path"
    },
    {
      "url": "/project/src/Gemfile.lock",
      "type": "other",
      "comment": "Package file"
    }
  ]
}
