{
  "bomFormat": "CycloneDX",
  "specVersion": "1.3",
  "version": 1,
  "metadata": {
    "tools": [
      {
        "vendor": "CycloneDX",
        "name": "cyclonedx-gomod",
        "version": "v0.0.0-unset",
        "hashes": [
          {
            "alg": "MD5",
            "content": "a35776fc9417e8071d3f1dcfa2f1dd19"
          },
          {
            "alg": "SHA-1",
            "content": "a19a8eed713eff5a2092e5283c201a146f19421d"
          },
          {
            "alg": "SHA-256",
            "content": "17b3b980b9a5d0f48ad52043dee5b31aff3ae6599a36bc94224dc7b6a46759ef"
          },
          {
            "alg": "SHA-512",
            "content": "9d4f06aab20cede94a1aedf11a300ae9de98871235c68c72e421cd6d45495910861b39e743ee0eceb11bbdcd2c9acc3312c19064cfe90177243fb43127fcfa46"
          }
        ]
      },
      {
        "vendor": "AppThreat",
        "name": "cdxgen",
        "version": "3.0.10"
      },
      {
        "vendor": "Fortress Information Security",
        "name": "Github Extractor",
        "version": "1.15.1"
      }
    ],
    "authors": [
      {
        "name": "Fortress Information Security",
        "email": "sales@fortressinfosec.com",
        "phone": "1-407-573-6800"
      }
    ],
    "timestamp": "2022-06-01T21:00:00Z",
    "component": {
      "type": "application",
      "name": "ethr",
      "version": "v1.0.0",
      "group": "microsoft",
      "externalReferences": [
        {
          "url": "https://github.com/microsoft/ethr.git",
          "type": "distribution"
        },
        {
          "type": "website",
          "url": "null",
          "comment": "As set via `homepage` in Github API"
        }
      ]
    }
  },
  "components": [
    {
      "type": "library",
      "bom-ref": "pkg:golang/github.com/mattn/go-runewidth@v0.0.9",
      "name": "github.com/mattn/go-runewidth",
      "version": "v0.0.9",
      "scope": "required",
      "hashes": [
        {
          "alg": "SHA-256",
          "content": "2e6f7de5fdeb7f176977a4d29ae5421d56ff421ba9b97958afcb0223f41d13ed"
        }
      ],
      "purl": "pkg:golang/github.com/mattn/go-runewidth@v0.0.9",
      "externalReferences": [
        {
          "url": "https://github.com/mattn/go-runewidth",
          "type": "vcs"
        }
      ]
    },
    {
      "type": "library",
      "bom-ref": "pkg:golang/github.com/nsf/termbox-go@v0.0.0-20200418040025-38ba6e5628f1",
      "name": "github.com/nsf/termbox-go",
      "version": "v0.0.0-20200418040025-38ba6e5628f1",
      "scope": "required",
      "hashes": [
        {
          "alg": "SHA-256",
          "content": "961dcfc99bd8f81f671658921939f9b85baa410246b8dac3d0c2c2a24bf4f5a8"
        }
      ],
      "purl": "pkg:golang/github.com/nsf/termbox-go@v0.0.0-20200418040025-38ba6e5628f1",
      "externalReferences": [
        {
          "url": "https://github.com/nsf/termbox-go",
          "type": "vcs"
        }
      ]
    },
    {
      "type": "library",
      "bom-ref": "pkg:golang/golang.org/x/sys@v0.0.0-20200918174421-af09f7315aff",
      "name": "golang.org/x/sys",
      "version": "v0.0.0-20200918174421-af09f7315aff",
      "scope": "required",
      "hashes": [
        {
          "alg": "SHA-256",
          "content": "d423d4ae4cb9e807204a9c73fca7e0cd05b37c6d3dbb960e2fc32f3d8065acbf"
        }
      ],
      "purl": "pkg:golang/golang.org/x/sys@v0.0.0-20200918174421-af09f7315aff"
    },
    {
      "type": "library",
      "bom-ref": "pkg:golang/github.com/microsoft/ethr",
      "group": "github.com/microsoft",
      "name": "ethr",
      "version": "",
      "description": "",
      "scope": "required",
      "purl": "pkg:golang/github.com/microsoft/ethr"
    }
  ],
  "dependencies": [
    {
      "ref": "pkg:golang/github.com/mattn/go-runewidth@v0.0.9"
    },
    {
      "ref": "pkg:golang/github.com/nsf/termbox-go@v0.0.0-20200418040025-38ba6e5628f1"
    },
    {
      "ref": "pkg:golang/golang.org/x/sys@v0.0.0-20200918174421-af09f7315aff"
    },
    {
      "ref": "pkg:golang/github.com/microsoft/ethr@v0.0.0-20220314093434-eb6df4d72c5a",
      "dependsOn": [
        "pkg:golang/github.com/mattn/go-runewidth@v0.0.9",
        "pkg:golang/github.com/nsf/termbox-go@v0.0.0-20200418040025-38ba6e5628f1",
        "pkg:golang/golang.org/x/sys@v0.0.0-20200918174421-af09f7315aff"
      ]
    }
  ]
}
