{
  "bomFormat": "CycloneDX",
  "specVersion": "1.3",
  "version": 2,
  "metadata": {
    "tools": [
      {
        "vendor": "CycloneDX",
        "name": "Node.js module",
        "version": "3.0.3"
      },
      {
        "vendor": "AppThreat",
        "name": "cdxgen",
        "version": "3.0.10"
      },
      {
        "vendor": "Fortress Information Security",
        "name": "Github Extractor",
        "version": "1.15.1"
      }
    ],
    "authors": [
      {
        "name": "Fortress Information Security",
        "email": "sales@fortressinfosec.com",
        "phone": "1-407-573-6800"
      }
    ],
    "timestamp": "2022-07-26T23:34:38Z",
    "component": {
      "type": "application",
      "name": "diagrams",
      "version": "v0.21.1",
      "group": "mingrammer",
      "externalReferences": [
        {
          "url": "https://github.com/mingrammer/diagrams.git",
          "type": "distribution"
        },
        {
          "type": "website",
          "url": "https://diagrams.mingrammer.com",
          "comment": "As set via `homepage` in Github API"
        }
      ]
    }
  },
  "components": [
    {
      "type": "library",
      "publisher": "MagicStack Inc",
      "name": "contextvars",
      "version": "2.4",
      "description": "PEP 567 Backport",
      "hashes": [
        {
          "alg": "MD5",
          "content": "5907c5c866d9ac75563c90b0b7953b04"
        },
        {
          "alg": "SHA-256",
          "content": "f38c908aaa59c14335eeea12abea5f443646216c4e29380d7bf34d2018e2c39e"
        }
      ],
      "licenses": [
        {
          "license": {
            "name": "Apache License, Version 2.0"
          }
        }
      ],
      "purl": "pkg:pypi/contextvars@2.4",
      "modified": false
    },
    {
      "type": "library",
      "publisher": "Ka-Ping Yee",
      "name": "uuid",
      "version": "1.30",
      "description": "UUID object and generation functions (Python 2.3 or higher)",
      "hashes": [
        {
          "alg": "MD5",
          "content": "639b310f1fe6800e4bf8aa1dd9333117"
        },
        {
          "alg": "SHA-256",
          "content": "1f87cc004ac5120466f36c5beae48b4c48cc411968eed0eaecd3da82aa96193f"
        }
      ],
      "purl": "pkg:pypi/uuid@1.30",
      "modified": false
    },
    {
      "type": "library",
      "publisher": "Antoine Pitrou",
      "name": "pathlib",
      "version": "1.0.1",
      "description": "Object-oriented filesystem paths",
      "hashes": [
        {
          "alg": "MD5",
          "content": "f26b13acf298a15cdb46a3dffc8eb0de"
        },
        {
          "alg": "SHA-256",
          "content": "f35f95ab8b0f59e6d354090350b44a80a80635d22efdedfa84c7ad1cf0a74147"
        }
      ],
      "licenses": [
        {
          "license": {
            "name": "MIT License"
          }
        }
      ],
      "purl": "pkg:pypi/pathlib@1.0.1",
      "modified": false
    },
    {
      "type": "library",
      "publisher": "Guido van Rossum, Jukka Lehtosalo, Łukasz Langa, Ivan Levkivskyi",
      "name": "typing",
      "version": "3.10.0.0",
      "description": "Type Hints for Python",
      "hashes": [
        {
          "alg": "MD5",
          "content": "cf38139027dc160e3ecd8e5ccf151da9"
        },
        {
          "alg": "SHA-256",
          "content": "12fbdfbe7d6cca1a42e485229afcb0b0c8259258cfb919b8a5e2a5c953742f89"
        }
      ],
      "licenses": [
        {
          "license": {
            "name": "PSF"
          }
        }
      ],
      "purl": "pkg:pypi/typing@3.10.0.0",
      "modified": false
    },
    {
      "type": "library",
      "publisher": "Sebastian Bank",
      "name": "graphviz",
      "version": "0.20",
      "description": "Simple Python interface for Graphviz",
      "hashes": [
        {
          "alg": "MD5",
          "content": "73c23049ff4e9cb0cff8f037f69f9d75"
        },
        {
          "alg": "SHA-256",
          "content": "62c5f48bcc534a45b4588c548ff75e419c1f1f3a33d31a91796ae80a7f581e4a"
        }
      ],
      "licenses": [
        {
          "license": {
            "name": "MIT"
          }
        }
      ],
      "purl": "pkg:pypi/graphviz@0.20",
      "modified": false
    },
    {
      "type": "library",
      "publisher": "Armin Ronacher",
      "name": "jinja2",
      "version": "3.1.2",
      "description": "A very fast and expressive template engine.",
      "hashes": [
        {
          "alg": "MD5",
          "content": "00ccdb509d3592cc2163b286177d75c8"
        },
        {
          "alg": "SHA-256",
          "content": "6088930bfe239f0e6710546ab9c19c9ef35e29792895fed6e6e31a023a182a61"
        }
      ],
      "licenses": [
        {
          "license": {
            "name": "BSD-3-Clause"
          }
        }
      ],
      "purl": "pkg:pypi/jinja2@3.1.2",
      "modified": false
    },
    {
      "type": "library",
      "publisher": "Michael Foord",
      "name": "unittest",
      "version": "0.0",
      "hashes": [
        {
          "alg": "MD5",
          "content": "2a416384f814604ed854d40f352f1191"
        },
        {
          "alg": "SHA-256",
          "content": "1b492484bea7f68abda5fcc61412e77b6a105e5842355d630f8b75f01add3555"
        }
      ],
      "purl": "pkg:pypi/unittest@0.0",
      "modified": false
    },
    {
      "type": "library",
      "bom-ref": "pkg:pypi/appdirs@1.4.3",
      "group": "",
      "name": "appdirs",
      "version": "1.4.3",
      "description": "A small Python module for determining appropriate platform-specific dirs, e.g. a \"user data dir\".",
      "hashes": [
        {
          "alg": "SHA-256",
          "content": "d8b24664561d0d34ddfaec54636d502d7cea6e29c3eaf68f3df6180863e2166e"
        }
      ],
      "licenses": [
        {
          "license": {
            "id": "MIT",
            "url": "https://opensource.org/licenses/MIT"
          }
        }
      ],
      "purl": "pkg:pypi/appdirs@1.4.3",
      "externalReferences": [
        {
          "url": "http://github.com/ActiveState/appdirs",
          "type": "vcs"
        }
      ]
    },
    {
      "type": "library",
      "bom-ref": "pkg:pypi/astroid@2.5",
      "group": "",
      "name": "astroid",
      "version": "2.5",
      "description": "An abstract syntax tree for Python with inference support.",
      "hashes": [
        {
          "alg": "SHA-256",
          "content": "87ae7f2398b8a0ae5638ddecf9987f081b756e0e9fc071aeebdca525671fc4dc"
        }
      ],
      "licenses": [
        {
          "license": {
            "id": "LGPL-2.1-or-later",
            "url": "https://opensource.org/licenses/LGPL-2.1-or-later"
          }
        }
      ],
      "purl": "pkg:pypi/astroid@2.5",
      "externalReferences": [
        {
          "url": "https://github.com/PyCQA/astroid",
          "type": "vcs"
        }
      ]
    },
    {
      "type": "library",
      "bom-ref": "pkg:pypi/atomicwrites@1.3.0",
      "group": "",
      "name": "atomicwrites",
      "version": "1.3.0",
      "description": "Atomic file writes.",
      "hashes": [
        {
          "alg": "SHA-256",
          "content": "03472c30eb2c5d1ba9227e4c2ca66ab8287fbfbbda3888aa93dc2e28fc6811b4"
        }
      ],
      "licenses": [
        {
          "license": {
            "id": "MIT",
            "url": "https://opensource.org/licenses/MIT"
          }
        }
      ],
      "purl": "pkg:pypi/atomicwrites@1.3.0",
      "externalReferences": [
        {
          "url": "https://github.com/untitaker/python-atomicwrites",
          "type": "vcs"
        }
      ]
    },
    {
      "type": "library",
      "bom-ref": "pkg:pypi/attrs@19.3.0",
      "group": "",
      "name": "attrs",
      "version": "19.3.0",
      "description": "Classes Without Boilerplate",
      "hashes": [
        {
          "alg": "SHA-256",
          "content": "08a96c641c3a74e44eb59afb61a24f2cb9f4d7188748e76ba4bb5edfa3cb7d1c"
        }
      ],
      "licenses": [
        {
          "license": {
            "id": "MIT",
            "url": "https://opensource.org/licenses/MIT"
          }
        }
      ],
      "purl": "pkg:pypi/attrs@19.3.0",
      "externalReferences": [
        {
          "url": "https://www.attrs.org/",
          "type": "website"
        }
      ]
    },
    {
      "type": "library",
      "bom-ref": "pkg:pypi/black@19.10b0",
      "group": "",
      "name": "black",
      "version": "19.10b0",
      "description": "The uncompromising code formatter.",
      "hashes": [
        {
          "alg": "SHA-256",
          "content": "1b30e59be925fafc1ee4565e5e08abef6b03fe455102883820fe5ee2e4734e0b"
        }
      ],
      "licenses": [
        {
          "license": {
            "id": "MIT",
            "url": "https://opensource.org/licenses/MIT"
          }
        }
      ],
      "purl": "pkg:pypi/black@19.10b0",
      "externalReferences": [
        {
          "url": "https://github.com/psf/black",
          "type": "vcs"
        }
      ]
    },
    {
      "type": "library",
      "bom-ref": "pkg:pypi/click@7.0",
      "group": "",
      "name": "click",
      "version": "7.0",
      "description": "Composable command line interface toolkit",
      "hashes": [
        {
          "alg": "SHA-256",
          "content": "2335065e6395b9e67ca716de5f7526736bfa6ceead690adf616d925bdc622b13"
        }
      ],
      "licenses": [
        {
          "license": {
            "id": "BSD-3-Clause",
            "url": "https://opensource.org/licenses/BSD-3-Clause"
          }
        }
      ],
      "purl": "pkg:pypi/click@7.0",
      "externalReferences": [
        {
          "url": "https://palletsprojects.com/p/click/",
          "type": "website"
        }
      ]
    },
    {
      "type": "library",
      "bom-ref": "pkg:pypi/colorama@0.4.3",
      "group": "",
      "name": "colorama",
      "version": "0.4.3",
      "description": "Cross-platform colored terminal text.",
      "hashes": [
        {
          "alg": "SHA-256",
          "content": "7d73d2a99753107a36ac6b455ee49046802e59d9d076ef8e47b61499fa29afff"
        }
      ],
      "licenses": [
        {
          "license": {
            "id": "0BSD",
            "url": "https://opensource.org/licenses/0BSD"
          }
        }
      ],
      "purl": "pkg:pypi/colorama@0.4.3",
      "externalReferences": [
        {
          "url": "https://github.com/tartley/colorama",
          "type": "vcs"
        }
      ]
    },
    {
      "type": "library",
      "bom-ref": "pkg:pypi/graphviz@0.19.1",
      "group": "",
      "name": "graphviz",
      "version": "0.19.1",
      "description": "Simple Python interface for Graphviz",
      "hashes": [
        {
          "alg": "SHA-256",
          "content": "f34088c08be2ec16279dfa9c3b4ff3d1453c5c67597a33e2819b000e18d4c546"
        }
      ],
      "licenses": [
        {
          "license": {
            "id": "MIT",
            "url": "https://opensource.org/licenses/MIT"
          }
        }
      ],
      "purl": "pkg:pypi/graphviz@0.19.1",
      "externalReferences": [
        {
          "url": "https://github.com/xflr6/graphviz",
          "type": "vcs"
        }
      ]
    },
    {
      "type": "library",
      "bom-ref": "pkg:pypi/immutables@0.11",
      "group": "",
      "name": "immutables",
      "version": "0.11",
      "description": "Immutable Collections",
      "hashes": [
        {
          "alg": "SHA-256",
          "content": "bce27277a2fe91509cca69181971ab509c2ee862e8b37b09f26b64f90e8fe8fb"
        }
      ],
      "licenses": [
        {
          "license": {
            "id": "Apache-2.0",
            "url": "https://opensource.org/licenses/Apache-2.0"
          }
        }
      ],
      "purl": "pkg:pypi/immutables@0.11",
      "externalReferences": [
        {
          "url": "https://github.com/MagicStack/immutables",
          "type": "vcs"
        }
      ]
    },
    {
      "type": "library",
      "bom-ref": "pkg:pypi/importlib-metadata@1.5.0",
      "group": "",
      "name": "importlib-metadata",
      "version": "1.5.0",
      "description": "Read metadata from Python packages",
      "hashes": [
        {
          "alg": "SHA-256",
          "content": "b97607a1a18a5100839aec1dc26a1ea17ee0d93b20b0f008d80a5a050afb200b"
        }
      ],
      "purl": "pkg:pypi/importlib-metadata@1.5.0",
      "externalReferences": [
        {
          "url": "https://github.com/python/importlib_metadata",
          "type": "vcs"
        }
      ]
    },
    {
      "type": "library",
      "bom-ref": "pkg:pypi/iniconfig@1.1.1",
      "group": "",
      "name": "iniconfig",
      "version": "1.1.1",
      "description": "iniconfig: brain-dead simple config-ini parsing",
      "hashes": [
        {
          "alg": "SHA-256",
          "content": "011e24c64b7f47f6ebd835bb12a743f2fbe9a26d4cecaa7f53bc4f35ee9da8b3"
        }
      ],
      "licenses": [
        {
          "license": {
            "id": "MIT",
            "url": "https://opensource.org/licenses/MIT"
          }
        }
      ],
      "purl": "pkg:pypi/iniconfig@1.1.1",
      "externalReferences": [
        {
          "url": "http://github.com/RonnyPfannschmidt/iniconfig",
          "type": "vcs"
        }
      ]
    },
    {
      "type": "library",
      "bom-ref": "pkg:pypi/isort@4.3.21",
      "group": "",
      "name": "isort",
      "version": "4.3.21",
      "description": "A Python utility / library to sort Python imports.",
      "hashes": [
        {
          "alg": "SHA-256",
          "content": "6e811fcb295968434526407adb8796944f1988c5b65e8139058f2014cbe100fd"
        }
      ],
      "licenses": [
        {
          "license": {
            "id": "MIT",
            "url": "https://opensource.org/licenses/MIT"
          }
        }
      ],
      "purl": "pkg:pypi/isort@4.3.21",
      "externalReferences": [
        {
          "url": "https://pycqa.github.io/isort/",
          "type": "vcs"
        }
      ]
    },
    {
      "type": "library",
      "bom-ref": "pkg:pypi/jinja2@3.0.1",
      "group": "",
      "name": "jinja2",
      "version": "3.0.1",
      "description": "A very fast and expressive template engine.",
      "hashes": [
        {
          "alg": "SHA-256",
          "content": "1f06f2da51e7b56b8f238affdd6b4e2c61e39598a378cc49345bc1bd42a978a4"
        }
      ],
      "licenses": [
        {
          "license": {
            "id": "BSD-3-Clause",
            "url": "https://opensource.org/licenses/BSD-3-Clause"
          }
        }
      ],
      "purl": "pkg:pypi/jinja2@3.0.1",
      "externalReferences": [
        {
          "url": "https://palletsprojects.com/p/jinja/",
          "type": "website"
        }
      ]
    },
    {
      "type": "library",
      "bom-ref": "pkg:pypi/lazy-object-proxy@1.4.3",
      "group": "",
      "name": "lazy-object-proxy",
      "version": "1.4.3",
      "description": "A fast and thorough lazy object proxy.",
      "hashes": [
        {
          "alg": "SHA-256",
          "content": "a2238e9d1bb71a56cd710611a1614d1194dc10a175c1e08d75e1a7bcc250d442"
        }
      ],
      "licenses": [
        {
          "license": {
            "id": "BSD-2-Clause",
            "url": "https://opensource.org/licenses/BSD-2-Clause"
          }
        }
      ],
      "purl": "pkg:pypi/lazy-object-proxy@1.4.3",
      "externalReferences": [
        {
          "url": "https://github.com/ionelmc/python-lazy-object-proxy",
          "type": "vcs"
        }
      ]
    },
    {
      "type": "library",
      "bom-ref": "pkg:pypi/markupsafe@2.0.1",
      "group": "",
      "name": "markupsafe",
      "version": "2.0.1",
      "description": "Safely add untrusted strings to HTML/XML markup.",
      "hashes": [
        {
          "alg": "SHA-256",
          "content": "d8446c54dc28c01e5a2dbac5a25f071f6653e6e40f3a8818e8b45d790fe6ef53"
        }
      ],
      "licenses": [
        {
          "license": {
            "id": "BSD-3-Clause",
            "url": "https://opensource.org/licenses/BSD-3-Clause"
          }
        }
      ],
      "purl": "pkg:pypi/markupsafe@2.0.1",
      "externalReferences": [
        {
          "url": "https://palletsprojects.com/p/markupsafe/",
          "type": "website"
        }
      ]
    },
    {
      "type": "library",
      "bom-ref": "pkg:pypi/mccabe@0.6.1",
      "group": "",
      "name": "mccabe",
      "version": "0.6.1",
      "description": "McCabe checker, plugin for flake8",
      "hashes": [
        {
          "alg": "SHA-256",
          "content": "ab8a6258860da4b6677da4bd2fe5dc2c659cff31b3ee4f7f5d64e79735b80d42"
        }
      ],
      "licenses": [
        {
          "license": {
            "name": "Expat license"
          }
        }
      ],
      "purl": "pkg:pypi/mccabe@0.6.1",
      "externalReferences": [
        {
          "url": "https://github.com/pycqa/mccabe",
          "type": "vcs"
        }
      ]
    },
    {
      "type": "library",
      "bom-ref": "pkg:pypi/packaging@20.8",
      "group": "",
      "name": "packaging",
      "version": "20.8",
      "description": "Core utilities for Python packages",
      "hashes": [
        {
          "alg": "SHA-256",
          "content": "24e0da08660a87484d1602c30bb4902d74816b6985b93de36926f5bc95741858"
        }
      ],
      "licenses": [
        {
          "license": {
            "name": "BSD-2-Clause or Apache-2.0"
          }
        }
      ],
      "purl": "pkg:pypi/packaging@20.8",
      "externalReferences": [
        {
          "url": "https://github.com/pypa/packaging",
          "type": "vcs"
        }
      ]
    },
    {
      "type": "library",
      "bom-ref": "pkg:pypi/pathspec@0.7.0",
      "group": "",
      "name": "pathspec",
      "version": "0.7.0",
      "description": "Utility library for gitignore style pattern matching of file paths.",
      "hashes": [
        {
          "alg": "SHA-256",
          "content": "163b0632d4e31cef212976cf57b43d9fd6b0bac6e67c26015d611a647d5e7424"
        }
      ],
      "licenses": [
        {
          "license": {
            "id": "MPL-2.0",
            "url": "https://opensource.org/licenses/MPL-2.0"
          }
        }
      ],
      "purl": "pkg:pypi/pathspec@0.7.0",
      "externalReferences": [
        {
          "url": "https://github.com/cpburnz/python-path-specification",
          "type": "vcs"
        }
      ]
    },
    {
      "type": "library",
      "bom-ref": "pkg:pypi/pluggy@0.13.1",
      "group": "",
      "name": "pluggy",
      "version": "0.13.1",
      "description": "plugin and hook calling mechanisms for python",
      "hashes": [
        {
          "alg": "SHA-256",
          "content": "966c145cd83c96502c3c3868f50408687b38434af77734af1e9ca461a4081d2d"
        }
      ],
      "licenses": [
        {
          "license": {
            "id": "MIT",
            "url": "https://opensource.org/licenses/MIT"
          }
        }
      ],
      "purl": "pkg:pypi/pluggy@0.13.1",
      "externalReferences": [
        {
          "url": "https://github.com/pytest-dev/pluggy",
          "type": "vcs"
        }
      ]
    },
    {
      "type": "library",
      "bom-ref": "pkg:pypi/py@1.10.0",
      "group": "",
      "name": "py",
      "version": "1.10.0",
      "description": "library with cross-python path, ini-parsing, io, code, log facilities",
      "hashes": [
        {
          "alg": "SHA-256",
          "content": "3b80836aa6d1feeaa108e046da6423ab8f6ceda6468545ae8d02d9d58d18818a"
        }
      ],
      "licenses": [
        {
          "license": {
            "id": "MIT",
            "url": "https://opensource.org/licenses/MIT"
          }
        }
      ],
      "purl": "pkg:pypi/py@1.10.0",
      "externalReferences": [
        {
          "url": "https://py.readthedocs.io/",
          "type": "website"
        }
      ]
    },
    {
      "type": "library",
      "bom-ref": "pkg:pypi/pylint@2.7.0",
      "group": "",
      "name": "pylint",
      "version": "2.7.0",
      "description": "python code static checker",
      "hashes": [
        {
          "alg": "SHA-256",
          "content": "3ea3926700db399765db1faf53860f11e4e981a090646e9eacd01ca78e020579"
        }
      ],
      "licenses": [
        {
          "license": {
            "id": "GPL-2.0-or-later",
            "url": "https://opensource.org/licenses/GPL-2.0-or-later"
          }
        }
      ],
      "purl": "pkg:pypi/pylint@2.7.0"
    },
    {
      "type": "library",
      "bom-ref": "pkg:pypi/pyparsing@2.4.7",
      "group": "",
      "name": "pyparsing",
      "version": "2.4.7",
      "description": "pyparsing module - Classes and methods to define and execute parsing grammars",
      "hashes": [
        {
          "alg": "SHA-256",
          "content": "ef9d7589ef3c200abe66653d3f1ab1033c3c419ae9b9bdb1240a85b024efc88b"
        }
      ],
      "purl": "pkg:pypi/pyparsing@2.4.7"
    },
    {
      "type": "library",
      "bom-ref": "pkg:pypi/pytest@6.2.1",
      "group": "",
      "name": "pytest",
      "version": "6.2.1",
      "description": "pytest: simple powerful testing with Python",
      "hashes": [
        {
          "alg": "SHA-256",
          "content": "1969f797a1a0dbd8ccf0fecc80262312729afea9c17f1d70ebf85c5e76c6f7c8"
        }
      ],
      "licenses": [
        {
          "license": {
            "id": "MIT",
            "url": "https://opensource.org/licenses/MIT"
          }
        }
      ],
      "purl": "pkg:pypi/pytest@6.2.1",
      "externalReferences": [
        {
          "url": "https://docs.pytest.org/en/latest/",
          "type": "website"
        }
      ]
    },
    {
      "type": "library",
      "bom-ref": "pkg:pypi/regex@2020.2.20",
      "group": "",
      "name": "regex",
      "version": "2020.2.20",
      "description": "Alternative regular expression module, to replace re.",
      "hashes": [
        {
          "alg": "SHA-256",
          "content": "99272d6b6a68c7ae4391908fc15f6b8c9a6c345a46b632d7fdb7ef6c883a2bbb"
        }
      ],
      "licenses": [
        {
          "license": {
            "id": "Apache-2.0",
            "url": "https://opensource.org/licenses/Apache-2.0"
          }
        }
      ],
      "purl": "pkg:pypi/regex@2020.2.20",
      "externalReferences": [
        {
          "url": "https://github.com/mrabarnett/mrab-regex",
          "type": "vcs"
        }
      ]
    },
    {
      "type": "library",
      "bom-ref": "pkg:pypi/rope@0.14.0",
      "group": "",
      "name": "rope",
      "version": "0.14.0",
      "description": "a python refactoring library...",
      "hashes": [
        {
          "alg": "SHA-256",
          "content": "6b728fdc3e98a83446c27a91fc5d56808a004f8beab7a31ab1d7224cecc7d969"
        }
      ],
      "licenses": [
        {
          "license": {
            "id": "LGPL-3.0-or-later",
            "url": "https://opensource.org/licenses/LGPL-3.0-or-later"
          }
        }
      ],
      "purl": "pkg:pypi/rope@0.14.0",
      "externalReferences": [
        {
          "url": "https://github.com/python-rope/rope",
          "type": "vcs"
        }
      ]
    },
    {
      "type": "library",
      "bom-ref": "pkg:pypi/toml@0.10.0",
      "group": "",
      "name": "toml",
      "version": "0.10.0",
      "description": "Python Library for Tom's Obvious, Minimal Language",
      "hashes": [
        {
          "alg": "SHA-256",
          "content": "f1db651f9657708513243e61e6cc67d101a39bad662eaa9b5546f789338e07a3"
        }
      ],
      "licenses": [
        {
          "license": {
            "id": "MIT",
            "url": "https://opensource.org/licenses/MIT"
          }
        }
      ],
      "purl": "pkg:pypi/toml@0.10.0",
      "externalReferences": [
        {
          "url": "https://github.com/uiri/toml",
          "type": "vcs"
        }
      ]
    },
    {
      "type": "library",
      "bom-ref": "pkg:pypi/typed-ast@1.4.1",
      "group": "",
      "name": "typed-ast",
      "version": "1.4.1",
      "description": "a fork of Python 2 and 3 ast modules with type comment support",
      "hashes": [
        {
          "alg": "SHA-256",
          "content": "73d785a950fc82dd2a25897d525d003f6378d1cb23ab305578394694202a58c3"
        }
      ],
      "licenses": [
        {
          "license": {
            "id": "Apache-2.0",
            "url": "https://opensource.org/licenses/Apache-2.0"
          }
        }
      ],
      "purl": "pkg:pypi/typed-ast@1.4.1",
      "externalReferences": [
        {
          "url": "https://github.com/python/typed_ast",
          "type": "vcs"
        }
      ]
    },
    {
      "type": "library",
      "bom-ref": "pkg:pypi/wrapt@1.11.2",
      "group": "",
      "name": "wrapt",
      "version": "1.11.2",
      "description": "Module for decorators, wrappers and monkey patching.",
      "hashes": [
        {
          "alg": "SHA-256",
          "content": "565a021fd19419476b9362b05eeaa094178de64f8361e44468f9e9d7843901e1"
        }
      ],
      "licenses": [
        {
          "license": {
            "id": "0BSD",
            "url": "https://opensource.org/licenses/0BSD"
          }
        }
      ],
      "purl": "pkg:pypi/wrapt@1.11.2",
      "externalReferences": [
        {
          "url": "https://github.com/GrahamDumpleton/wrapt",
          "type": "vcs"
        }
      ]
    }
  ]
}
