{
  "bomFormat": "CycloneDX",
  "specVersion": "1.3",
  "version": 1,
  "metadata": {
    "tools": [
      {
        "vendor": "CycloneDX",
        "name": "cyclonedx-gomod",
        "version": "v0.0.0-unset",
        "hashes": [
          {
            "alg": "MD5",
            "content": "a35776fc9417e8071d3f1dcfa2f1dd19"
          },
          {
            "alg": "SHA-1",
            "content": "a19a8eed713eff5a2092e5283c201a146f19421d"
          },
          {
            "alg": "SHA-256",
            "content": "17b3b980b9a5d0f48ad52043dee5b31aff3ae6599a36bc94224dc7b6a46759ef"
          },
          {
            "alg": "SHA-512",
            "content": "9d4f06aab20cede94a1aedf11a300ae9de98871235c68c72e421cd6d45495910861b39e743ee0eceb11bbdcd2c9acc3312c19064cfe90177243fb43127fcfa46"
          }
        ]
      },
      {
        "vendor": "CycloneDX",
        "name": "Node.js module",
        "version": "3.0.3"
      },
      {
        "vendor": "AppThreat",
        "name": "cdxgen",
        "version": "3.0.10"
      },
      {
        "vendor": "Fortress Information Security",
        "name": "Github Extractor",
        "version": "1.15.1"
      }
    ],
    "authors": [
      {
        "name": "Fortress Information Security",
        "email": "sales@fortressinfosec.com",
        "phone": "1-407-573-6800"
      }
    ],
    "timestamp": "2022-06-01T21:00:00Z",
    "component": {
      "type": "application",
      "name": "v2",
      "version": "2.0.37",
      "group": "miniflux",
      "externalReferences": [
        {
          "url": "https://github.com/miniflux/v2.git",
          "type": "distribution"
        },
        {
          "type": "website",
          "url": "https://miniflux.app",
          "comment": "As set via `homepage` in Github API"
        }
      ]
    }
  },
  "components": [
    {
      "type": "library",
      "bom-ref": "pkg:golang/github.com/PuerkitoBio/goquery@v1.8.0",
      "name": "github.com/PuerkitoBio/goquery",
      "version": "v1.8.0",
      "scope": "required",
      "hashes": [
        {
          "alg": "SHA-256",
          "content": "3c94c5ec09850852a4d4de95ea398a7eb347f6d579a4d13a9593241b482d6bf5"
        }
      ],
      "purl": "pkg:golang/github.com/PuerkitoBio/goquery@v1.8.0",
      "externalReferences": [
        {
          "url": "https://github.com/PuerkitoBio/goquery",
          "type": "vcs"
        }
      ]
    },
    {
      "type": "library",
      "bom-ref": "pkg:golang/github.com/andybalholm/cascadia@v1.3.1",
      "name": "github.com/andybalholm/cascadia",
      "version": "v1.3.1",
      "scope": "required",
      "hashes": [
        {
          "alg": "SHA-256",
          "content": "9e1c5192a97591d60273c4a77fb0f9fc3deca4e5fe74182303abbcc74d384f67"
        }
      ],
      "purl": "pkg:golang/github.com/andybalholm/cascadia@v1.3.1",
      "externalReferences": [
        {
          "url": "https://github.com/andybalholm/cascadia",
          "type": "vcs"
        }
      ]
    },
    {
      "type": "library",
      "bom-ref": "pkg:golang/github.com/beorn7/perks@v1.0.1",
      "name": "github.com/beorn7/perks",
      "version": "v1.0.1",
      "scope": "required",
      "hashes": [
        {
          "alg": "SHA-256",
          "content": "5656ca2a735f57c6c9cdeaa86b870e2aa3ba6d8af75a0299c4ef19d7afa1b0e3"
        }
      ],
      "purl": "pkg:golang/github.com/beorn7/perks@v1.0.1",
      "externalReferences": [
        {
          "url": "https://github.com/beorn7/perks",
          "type": "vcs"
        }
      ]
    },
    {
      "type": "library",
      "bom-ref": "pkg:golang/github.com/cespare/xxhash/v2@v2.1.2",
      "name": "github.com/cespare/xxhash/v2",
      "version": "v2.1.2",
      "scope": "required",
      "hashes": [
        {
          "alg": "SHA-256",
          "content": "6115e129f4c36aebb86a3320d533e014ee639e50b61c26e62d731c4c6e5c6d81"
        }
      ],
      "purl": "pkg:golang/github.com/cespare/xxhash/v2@v2.1.2",
      "externalReferences": [
        {
          "url": "https://github.com/cespare/xxhash",
          "type": "vcs"
        }
      ]
    },
    {
      "type": "library",
      "bom-ref": "pkg:golang/github.com/coreos/go-oidc@v2.2.1",
      "name": "github.com/coreos/go-oidc",
      "version": "v2.2.1",
      "scope": "required",
      "hashes": [
        {
          "alg": "SHA-256",
          "content": "6ff848d538229b5850b9123ff975177962515dccebeaad5ea94212d1f510ce89"
        }
      ],
      "purl": "pkg:golang/github.com/coreos/go-oidc@v2.2.1",
      "externalReferences": [
        {
          "url": "https://github.com/coreos/go-oidc",
          "type": "vcs"
        }
      ]
    },
    {
      "type": "library",
      "bom-ref": "pkg:golang/github.com/felixge/httpsnoop@v1.0.1",
      "name": "github.com/felixge/httpsnoop",
      "version": "v1.0.1",
      "scope": "required",
      "hashes": [
        {
          "alg": "SHA-256",
          "content": "96f079265f3d0ac66d1885ae4dc0ccd44fef915b38f7f325ec925ed3b97c48f4"
        }
      ],
      "purl": "pkg:golang/github.com/felixge/httpsnoop@v1.0.1",
      "externalReferences": [
        {
          "url": "https://github.com/felixge/httpsnoop",
          "type": "vcs"
        }
      ]
    },
    {
      "type": "library",
      "bom-ref": "pkg:golang/github.com/go-telegram-bot-api/telegram-bot-api@v4.6.4",
      "name": "github.com/go-telegram-bot-api/telegram-bot-api",
      "version": "v4.6.4",
      "scope": "required",
      "hashes": [
        {
          "alg": "SHA-256",
          "content": "2d649030b7ba00f48a78a1cb94eaaaa69a89e7180916cac018363378808e1b76"
        }
      ],
      "purl": "pkg:golang/github.com/go-telegram-bot-api/telegram-bot-api@v4.6.4",
      "externalReferences": [
        {
          "url": "https://github.com/go-telegram-bot-api/telegram-bot-api",
          "type": "vcs"
        }
      ]
    },
    {
      "type": "library",
      "bom-ref": "pkg:golang/github.com/golang/gddo@v0.0.0-20200831202555-721e228c7686",
      "name": "github.com/golang/gddo",
      "version": "v0.0.0-20200831202555-721e228c7686",
      "scope": "required",
      "hashes": [
        {
          "alg": "SHA-256",
          "content": "e6fbbb0beeb72936ec48d9cb86b801f7c4aacbc30d5525bc15d86471603fdd19"
        }
      ],
      "purl": "pkg:golang/github.com/golang/gddo@v0.0.0-20200831202555-721e228c7686",
      "externalReferences": [
        {
          "url": "https://github.com/golang/gddo",
          "type": "vcs"
        }
      ]
    },
    {
      "type": "library",
      "bom-ref": "pkg:golang/github.com/golang/protobuf@v1.5.2",
      "name": "github.com/golang/protobuf",
      "version": "v1.5.2",
      "scope": "required",
      "hashes": [
        {
          "alg": "SHA-256",
          "content": "44e3ca04d15f4203943227c7c8ff8a61bbe98db76814db3e68aec35e58e2d13c"
        }
      ],
      "purl": "pkg:golang/github.com/golang/protobuf@v1.5.2",
      "externalReferences": [
        {
          "url": "https://github.com/golang/protobuf",
          "type": "vcs"
        }
      ]
    },
    {
      "type": "library",
      "bom-ref": "pkg:golang/github.com/gorilla/mux@v1.8.0",
      "name": "github.com/gorilla/mux",
      "version": "v1.8.0",
      "scope": "required",
      "hashes": [
        {
          "alg": "SHA-256",
          "content": "8b8d1aa9f911d61d9294df61a23c15e5903dd7071714ebe474d21e1433f99282"
        }
      ],
      "purl": "pkg:golang/github.com/gorilla/mux@v1.8.0",
      "externalReferences": [
        {
          "url": "https://github.com/gorilla/mux",
          "type": "vcs"
        }
      ]
    },
    {
      "type": "library",
      "bom-ref": "pkg:golang/github.com/lib/pq@v1.10.5",
      "name": "github.com/lib/pq",
      "version": "v1.10.5",
      "scope": "required",
      "hashes": [
        {
          "alg": "SHA-256",
          "content": "27e81d576714997ed9a8bd81d2515c5b49be7a06870b65779693bc9d6c726224"
        }
      ],
      "purl": "pkg:golang/github.com/lib/pq@v1.10.5",
      "externalReferences": [
        {
          "url": "https://github.com/lib/pq",
          "type": "vcs"
        }
      ]
    },
    {
      "type": "library",
      "bom-ref": "pkg:golang/github.com/matttproud/golang_protobuf_extensions@v1.0.1",
      "name": "github.com/matttproud/golang_protobuf_extensions",
      "version": "v1.0.1",
      "scope": "required",
      "hashes": [
        {
          "alg": "SHA-256",
          "content": "e21a7d8e41f184c1e4aa4ac1dc8c748de812e6cc7f464a80465b1667aa48c225"
        }
      ],
      "purl": "pkg:golang/github.com/matttproud/golang_protobuf_extensions@v1.0.1",
      "externalReferences": [
        {
          "url": "https://github.com/matttproud/golang_protobuf_extensions",
          "type": "vcs"
        }
      ]
    },
    {
      "type": "library",
      "bom-ref": "pkg:golang/github.com/mitchellh/go-server-timing@v1.0.2-0.20201108055052-feb680ab92c2",
      "name": "github.com/mitchellh/go-server-timing",
      "version": "v1.0.2-0.20201108055052-feb680ab92c2",
      "scope": "required",
      "hashes": [
        {
          "alg": "SHA-256",
          "content": "f64611026f3bfcce552fe1d67a00c6228ac1583884aeb66b92c2ca4c9045d884"
        }
      ],
      "purl": "pkg:golang/github.com/mitchellh/go-server-timing@v1.0.2-0.20201108055052-feb680ab92c2",
      "externalReferences": [
        {
          "url": "https://github.com/mitchellh/go-server-timing",
          "type": "vcs"
        }
      ]
    },
    {
      "type": "library",
      "bom-ref": "pkg:golang/github.com/pquerna/cachecontrol@v0.0.0-20180517163645-1555304b9b35",
      "name": "github.com/pquerna/cachecontrol",
      "version": "v0.0.0-20180517163645-1555304b9b35",
      "scope": "required",
      "hashes": [
        {
          "alg": "SHA-256",
          "content": "27d6fbcfe40a0263dfe182eb160ea8414a2da8741e50d5b092fa3b8d9a7518b5"
        }
      ],
      "purl": "pkg:golang/github.com/pquerna/cachecontrol@v0.0.0-20180517163645-1555304b9b35",
      "externalReferences": [
        {
          "url": "https://github.com/pquerna/cachecontrol",
          "type": "vcs"
        }
      ]
    },
    {
      "type": "library",
      "bom-ref": "pkg:golang/github.com/prometheus/client_golang@v1.12.1",
      "name": "github.com/prometheus/client_golang",
      "version": "v1.12.1",
      "scope": "required",
      "hashes": [
        {
          "alg": "SHA-256",
          "content": "66268fb269bdba205e692311ce72ac08336d3c24b44f72550c617ed3a8230739"
        }
      ],
      "purl": "pkg:golang/github.com/prometheus/client_golang@v1.12.1",
      "externalReferences": [
        {
          "url": "https://github.com/prometheus/client_golang",
          "type": "vcs"
        }
      ]
    },
    {
      "type": "library",
      "bom-ref": "pkg:golang/github.com/prometheus/client_model@v0.2.0",
      "name": "github.com/prometheus/client_model",
      "version": "v0.2.0",
      "scope": "required",
      "hashes": [
        {
          "alg": "SHA-256",
          "content": "baae61d1df86bb18972c92cd001320a76a945833e22ef802cf3d9d511fbf5bf3"
        }
      ],
      "purl": "pkg:golang/github.com/prometheus/client_model@v0.2.0",
      "externalReferences": [
        {
          "url": "https://github.com/prometheus/client_model",
          "type": "vcs"
        }
      ]
    },
    {
      "type": "library",
      "bom-ref": "pkg:golang/github.com/prometheus/common@v0.32.1",
      "name": "github.com/prometheus/common",
      "version": "v0.32.1",
      "scope": "required",
      "hashes": [
        {
          "alg": "SHA-256",
          "content": "85621d2f73761e8531dc1f23dd837d996a2bd2a858fcd94429911a5f1b88461e"
        }
      ],
      "purl": "pkg:golang/github.com/prometheus/common@v0.32.1",
      "externalReferences": [
        {
          "url": "https://github.com/prometheus/common",
          "type": "vcs"
        }
      ]
    },
    {
      "type": "library",
      "bom-ref": "pkg:golang/github.com/prometheus/procfs@v0.7.3",
      "name": "github.com/prometheus/procfs",
      "version": "v0.7.3",
      "scope": "required",
      "hashes": [
        {
          "alg": "SHA-256",
          "content": "e23557865900cb33927260a45c14ce2d12d3cfc11e53e7b28ebc01fc43ead155"
        }
      ],
      "purl": "pkg:golang/github.com/prometheus/procfs@v0.7.3",
      "externalReferences": [
        {
          "url": "https://github.com/prometheus/procfs",
          "type": "vcs"
        }
      ]
    },
    {
      "type": "library",
      "bom-ref": "pkg:golang/github.com/rylans/getlang@v0.0.0-20200505200108-4c3188ff8a2d",
      "name": "github.com/rylans/getlang",
      "version": "v0.0.0-20200505200108-4c3188ff8a2d",
      "scope": "required",
      "hashes": [
        {
          "alg": "SHA-256",
          "content": "e099f693348a729c71c2925dc96c5f35628261ee14922d9589b904c589812e20"
        }
      ],
      "purl": "pkg:golang/github.com/rylans/getlang@v0.0.0-20200505200108-4c3188ff8a2d",
      "externalReferences": [
        {
          "url": "https://github.com/rylans/getlang",
          "type": "vcs"
        }
      ]
    },
    {
      "type": "library",
      "bom-ref": "pkg:golang/github.com/tdewolff/minify/v2@v2.11.2",
      "name": "github.com/tdewolff/minify/v2",
      "version": "v2.11.2",
      "scope": "required",
      "hashes": [
        {
          "alg": "SHA-256",
          "content": "3e968f5a13653158e400a68e8f46db3efe8a0959eb9bc8db5701bb3ad49d02ac"
        }
      ],
      "purl": "pkg:golang/github.com/tdewolff/minify/v2@v2.11.2",
      "externalReferences": [
        {
          "url": "https://github.com/tdewolff/minify",
          "type": "vcs"
        }
      ]
    },
    {
      "type": "library",
      "bom-ref": "pkg:golang/github.com/tdewolff/parse/v2@v2.5.29",
      "name": "github.com/tdewolff/parse/v2",
      "version": "v2.5.29",
      "scope": "required",
      "hashes": [
        {
          "alg": "SHA-256",
          "content": "51fd0eb592fd61a5174ee1c43a2b5da3d943f743f45d3c028d98be29b18286e3"
        }
      ],
      "purl": "pkg:golang/github.com/tdewolff/parse/v2@v2.5.29",
      "externalReferences": [
        {
          "url": "https://github.com/tdewolff/parse",
          "type": "vcs"
        }
      ]
    },
    {
      "type": "library",
      "bom-ref": "pkg:golang/github.com/technoweenie/multipartstreamer@v1.0.1",
      "name": "github.com/technoweenie/multipartstreamer",
      "version": "v1.0.1",
      "scope": "required",
      "hashes": [
        {
          "alg": "SHA-256",
          "content": "5d1ced039317891d532111f11f6b8dc57c5a2242900de5fb9b65ec48e9501273"
        }
      ],
      "purl": "pkg:golang/github.com/technoweenie/multipartstreamer@v1.0.1",
      "externalReferences": [
        {
          "url": "https://github.com/technoweenie/multipartstreamer",
          "type": "vcs"
        }
      ]
    },
    {
      "type": "library",
      "bom-ref": "pkg:golang/golang.org/x/crypto@v0.0.0-20200622213623-75b288015ac9",
      "name": "golang.org/x/crypto",
      "version": "v0.0.0-20200622213623-75b288015ac9",
      "scope": "required",
      "hashes": [
        {
          "alg": "SHA-256",
          "content": "a6c5b5edaaea6b1538f19e646740909e4656409b2a71444cead2a2040a518d72"
        }
      ],
      "purl": "pkg:golang/golang.org/x/crypto@v0.0.0-20200622213623-75b288015ac9"
    },
    {
      "type": "library",
      "bom-ref": "pkg:golang/golang.org/x/net@v0.0.0-20210916014120-12bc252f5db8",
      "name": "golang.org/x/net",
      "version": "v0.0.0-20210916014120-12bc252f5db8",
      "scope": "required",
      "hashes": [
        {
          "alg": "SHA-256",
          "content": "ffacb52dfbaa36e41d1c09b48e3b4fb6045cc48c63559826e4e4eef3f42166f9"
        }
      ],
      "purl": "pkg:golang/golang.org/x/net@v0.0.0-20210916014120-12bc252f5db8"
    },
    {
      "type": "library",
      "bom-ref": "pkg:golang/golang.org/x/oauth2@v0.0.0-20210514164344-f6687ab2804c",
      "name": "golang.org/x/oauth2",
      "version": "v0.0.0-20210514164344-f6687ab2804c",
      "scope": "required",
      "hashes": [
        {
          "alg": "SHA-256",
          "content": "a6442205906f768b3daaae300401ea973b991c45e8d3ba6a574e9e7fdd2ed562"
        }
      ],
      "purl": "pkg:golang/golang.org/x/oauth2@v0.0.0-20210514164344-f6687ab2804c"
    },
    {
      "type": "library",
      "bom-ref": "pkg:golang/golang.org/x/sys@v0.0.0-20220114195835-da31bd327af9",
      "name": "golang.org/x/sys",
      "version": "v0.0.0-20220114195835-da31bd327af9",
      "scope": "required",
      "hashes": [
        {
          "alg": "SHA-256",
          "content": "5df290e0e94597ca2410eaf952f02a151563f2963fe327dc5eb75d07ca806d4d"
        }
      ],
      "purl": "pkg:golang/golang.org/x/sys@v0.0.0-20220114195835-da31bd327af9"
    },
    {
      "type": "library",
      "bom-ref": "pkg:golang/golang.org/x/text@v0.3.6",
      "name": "golang.org/x/text",
      "version": "v0.3.6",
      "scope": "required",
      "hashes": [
        {
          "alg": "SHA-256",
          "content": "691631371bfa886425c956999a4e998181036be260d7c0f179b3d2adde9b8353"
        }
      ],
      "purl": "pkg:golang/golang.org/x/text@v0.3.6"
    },
    {
      "type": "library",
      "bom-ref": "pkg:golang/google.golang.org/appengine@v1.6.6",
      "name": "google.golang.org/appengine",
      "version": "v1.6.6",
      "scope": "required",
      "hashes": [
        {
          "alg": "SHA-256",
          "content": "94c3b9ad802a5319266a3efa8c091152fb79259805ca6c7ff90e4ccdf8afba17"
        }
      ],
      "purl": "pkg:golang/google.golang.org/appengine@v1.6.6"
    },
    {
      "type": "library",
      "bom-ref": "pkg:golang/google.golang.org/protobuf@v1.26.0",
      "name": "google.golang.org/protobuf",
      "version": "v1.26.0",
      "scope": "required",
      "hashes": [
        {
          "alg": "SHA-256",
          "content": "6f1002db14c1b191a26e7d914e7b57d281f9d312ecab2d4ec40f6d4cbde9fe59"
        }
      ],
      "purl": "pkg:golang/google.golang.org/protobuf@v1.26.0"
    },
    {
      "type": "library",
      "bom-ref": "pkg:golang/gopkg.in/square/go-jose.v2@v2.5.0",
      "name": "gopkg.in/square/go-jose.v2",
      "version": "v2.5.0",
      "scope": "required",
      "hashes": [
        {
          "alg": "SHA-256",
          "content": "399e2c76af98f921df601eef7ed862d448bc6f4be43fc64f42051f5307544aaa"
        }
      ],
      "purl": "pkg:golang/gopkg.in/square/go-jose.v2@v2.5.0",
      "externalReferences": [
        {
          "url": "https://github.com/square/go-jose",
          "type": "vcs"
        }
      ]
    },
    {
      "type": "library",
      "bom-ref": "pkg:golang/mvdan.cc/xurls/v2@v2.4.0",
      "name": "mvdan.cc/xurls/v2",
      "version": "v2.4.0",
      "scope": "required",
      "hashes": [
        {
          "alg": "SHA-256",
          "content": "b73c635408fec120660dc17acc107bfe6c93cb7817f71be2f13cabdbc02e4207"
        }
      ],
      "purl": "pkg:golang/mvdan.cc/xurls/v2@v2.4.0"
    },
    {
      "type": "library",
      "bom-ref": "pkg:golang/miniflux.app/miniflux.app",
      "group": "miniflux.app",
      "name": "miniflux.app",
      "version": "",
      "description": "",
      "scope": "optional",
      "purl": "pkg:golang/miniflux.app/miniflux.app"
    },
    {
      "type": "library",
      "bom-ref": "pkg:golang/github.com/go-telegram-bot-api/telegram-bot-api@v4.6.4+incompatible",
      "group": "github.com/go-telegram-bot-api",
      "name": "telegram-bot-api",
      "version": "v4.6.4+incompatible",
      "description": "",
      "scope": "required",
      "hashes": [
        {
          "alg": "SHA-256",
          "content": "a9ff5a72eb49f1cc015219b56ea833e817a2f7f0bf73ddc53c3963296c2c3a03"
        }
      ],
      "purl": "pkg:golang/github.com/go-telegram-bot-api/telegram-bot-api@v4.6.4+incompatible"
    },
    {
      "type": "library",
      "bom-ref": "pkg:golang/github.com/coreos/go-oidc@v2.2.1+incompatible",
      "group": "github.com/coreos",
      "name": "go-oidc",
      "version": "v2.2.1+incompatible",
      "description": "",
      "scope": "required",
      "hashes": [
        {
          "alg": "SHA-256",
          "content": "0a09f05539b3a044a2c0ef6ac801443221e86759cc08a66567d57a9a6dff2ca7"
        }
      ],
      "purl": "pkg:golang/github.com/coreos/go-oidc@v2.2.1+incompatible"
    }
  ],
  "dependencies": [
    {
      "ref": "pkg:golang/github.com/PuerkitoBio/goquery@v1.8.0",
      "dependsOn": [
        "pkg:golang/github.com/andybalholm/cascadia@v1.3.1",
        "pkg:golang/golang.org/x/net@v0.0.0-20210916014120-12bc252f5db8"
      ]
    },
    {
      "ref": "pkg:golang/github.com/andybalholm/cascadia@v1.3.1",
      "dependsOn": [
        "pkg:golang/golang.org/x/net@v0.0.0-20210916014120-12bc252f5db8"
      ]
    },
    {
      "ref": "pkg:golang/github.com/beorn7/perks@v1.0.1"
    },
    {
      "ref": "pkg:golang/github.com/cespare/xxhash/v2@v2.1.2"
    },
    {
      "ref": "pkg:golang/github.com/coreos/go-oidc@v2.2.1"
    },
    {
      "ref": "pkg:golang/github.com/felixge/httpsnoop@v1.0.1"
    },
    {
      "ref": "pkg:golang/github.com/go-telegram-bot-api/telegram-bot-api@v4.6.4"
    },
    {
      "ref": "pkg:golang/github.com/golang/gddo@v0.0.0-20200831202555-721e228c7686",
      "dependsOn": [
        "pkg:golang/golang.org/x/oauth2@v0.0.0-20210514164344-f6687ab2804c",
        "pkg:golang/google.golang.org/appengine@v1.6.6"
      ]
    },
    {
      "ref": "pkg:golang/github.com/golang/protobuf@v1.5.2",
      "dependsOn": [
        "pkg:golang/google.golang.org/protobuf@v1.26.0"
      ]
    },
    {
      "ref": "pkg:golang/github.com/gorilla/mux@v1.8.0"
    },
    {
      "ref": "pkg:golang/github.com/lib/pq@v1.10.5"
    },
    {
      "ref": "pkg:golang/github.com/matttproud/golang_protobuf_extensions@v1.0.1"
    },
    {
      "ref": "pkg:golang/github.com/mitchellh/go-server-timing@v1.0.2-0.20201108055052-feb680ab92c2",
      "dependsOn": [
        "pkg:golang/github.com/felixge/httpsnoop@v1.0.1",
        "pkg:golang/github.com/golang/gddo@v0.0.0-20200831202555-721e228c7686",
        "pkg:golang/golang.org/x/sys@v0.0.0-20220114195835-da31bd327af9"
      ]
    },
    {
      "ref": "pkg:golang/github.com/pquerna/cachecontrol@v0.0.0-20180517163645-1555304b9b35"
    },
    {
      "ref": "pkg:golang/github.com/prometheus/client_golang@v1.12.1",
      "dependsOn": [
        "pkg:golang/github.com/beorn7/perks@v1.0.1",
        "pkg:golang/github.com/cespare/xxhash/v2@v2.1.2",
        "pkg:golang/github.com/golang/protobuf@v1.5.2",
        "pkg:golang/github.com/prometheus/client_model@v0.2.0",
        "pkg:golang/github.com/prometheus/common@v0.32.1",
        "pkg:golang/github.com/prometheus/procfs@v0.7.3",
        "pkg:golang/golang.org/x/sys@v0.0.0-20220114195835-da31bd327af9",
        "pkg:golang/google.golang.org/protobuf@v1.26.0"
      ]
    },
    {
      "ref": "pkg:golang/github.com/prometheus/client_model@v0.2.0",
      "dependsOn": [
        "pkg:golang/github.com/golang/protobuf@v1.5.2"
      ]
    },
    {
      "ref": "pkg:golang/github.com/prometheus/common@v0.32.1",
      "dependsOn": [
        "pkg:golang/github.com/golang/protobuf@v1.5.2",
        "pkg:golang/github.com/matttproud/golang_protobuf_extensions@v1.0.1",
        "pkg:golang/github.com/prometheus/client_golang@v1.12.1",
        "pkg:golang/github.com/prometheus/client_model@v0.2.0",
        "pkg:golang/golang.org/x/net@v0.0.0-20210916014120-12bc252f5db8",
        "pkg:golang/golang.org/x/oauth2@v0.0.0-20210514164344-f6687ab2804c"
      ]
    },
    {
      "ref": "pkg:golang/github.com/prometheus/procfs@v0.7.3",
      "dependsOn": [
        "pkg:golang/golang.org/x/sys@v0.0.0-20220114195835-da31bd327af9"
      ]
    },
    {
      "ref": "pkg:golang/github.com/rylans/getlang@v0.0.0-20200505200108-4c3188ff8a2d"
    },
    {
      "ref": "pkg:golang/github.com/tdewolff/minify/v2@v2.11.2",
      "dependsOn": [
        "pkg:golang/github.com/tdewolff/parse/v2@v2.5.29"
      ]
    },
    {
      "ref": "pkg:golang/github.com/tdewolff/parse/v2@v2.5.29"
    },
    {
      "ref": "pkg:golang/github.com/technoweenie/multipartstreamer@v1.0.1"
    },
    {
      "ref": "pkg:golang/golang.org/x/crypto@v0.0.0-20200622213623-75b288015ac9",
      "dependsOn": [
        "pkg:golang/golang.org/x/net@v0.0.0-20210916014120-12bc252f5db8",
        "pkg:golang/golang.org/x/sys@v0.0.0-20220114195835-da31bd327af9"
      ]
    },
    {
      "ref": "pkg:golang/golang.org/x/net@v0.0.0-20210916014120-12bc252f5db8",
      "dependsOn": [
        "pkg:golang/golang.org/x/sys@v0.0.0-20220114195835-da31bd327af9",
        "pkg:golang/golang.org/x/text@v0.3.6"
      ]
    },
    {
      "ref": "pkg:golang/golang.org/x/oauth2@v0.0.0-20210514164344-f6687ab2804c",
      "dependsOn": [
        "pkg:golang/golang.org/x/net@v0.0.0-20210916014120-12bc252f5db8",
        "pkg:golang/google.golang.org/appengine@v1.6.6"
      ]
    },
    {
      "ref": "pkg:golang/golang.org/x/sys@v0.0.0-20220114195835-da31bd327af9"
    },
    {
      "ref": "pkg:golang/golang.org/x/text@v0.3.6"
    },
    {
      "ref": "pkg:golang/google.golang.org/appengine@v1.6.6",
      "dependsOn": [
        "pkg:golang/github.com/golang/protobuf@v1.5.2",
        "pkg:golang/golang.org/x/net@v0.0.0-20210916014120-12bc252f5db8",
        "pkg:golang/golang.org/x/text@v0.3.6"
      ]
    },
    {
      "ref": "pkg:golang/google.golang.org/protobuf@v1.26.0",
      "dependsOn": [
        "pkg:golang/github.com/golang/protobuf@v1.5.2"
      ]
    },
    {
      "ref": "pkg:golang/gopkg.in/square/go-jose.v2@v2.5.0"
    },
    {
      "ref": "pkg:golang/mvdan.cc/xurls/v2@v2.4.0"
    },
    {
      "ref": "pkg:golang/miniflux.app@v0.0.0-20220507120159-cdeb2a8fc06a",
      "dependsOn": [
        "pkg:golang/github.com/PuerkitoBio/goquery@v1.8.0",
        "pkg:golang/github.com/coreos/go-oidc@v2.2.1",
        "pkg:golang/github.com/felixge/httpsnoop@v1.0.1",
        "pkg:golang/github.com/go-telegram-bot-api/telegram-bot-api@v4.6.4",
        "pkg:golang/github.com/golang/gddo@v0.0.0-20200831202555-721e228c7686",
        "pkg:golang/github.com/gorilla/mux@v1.8.0",
        "pkg:golang/github.com/lib/pq@v1.10.5",
        "pkg:golang/github.com/mitchellh/go-server-timing@v1.0.2-0.20201108055052-feb680ab92c2",
        "pkg:golang/github.com/pquerna/cachecontrol@v0.0.0-20180517163645-1555304b9b35",
        "pkg:golang/github.com/prometheus/client_golang@v1.12.1",
        "pkg:golang/github.com/rylans/getlang@v0.0.0-20200505200108-4c3188ff8a2d",
        "pkg:golang/github.com/tdewolff/minify/v2@v2.11.2",
        "pkg:golang/github.com/technoweenie/multipartstreamer@v1.0.1",
        "pkg:golang/golang.org/x/crypto@v0.0.0-20200622213623-75b288015ac9",
        "pkg:golang/golang.org/x/net@v0.0.0-20210916014120-12bc252f5db8",
        "pkg:golang/golang.org/x/oauth2@v0.0.0-20210514164344-f6687ab2804c",
        "pkg:golang/gopkg.in/square/go-jose.v2@v2.5.0",
        "pkg:golang/mvdan.cc/xurls/v2@v2.4.0"
      ]
    }
  ]
}
