{
  "bomFormat": "CycloneDX",
  "specVersion": "1.3",
  "version": 1,
  "metadata": {
    "tools": [
      {
        "vendor": "CycloneDX",
        "name": "Node.js module",
        "version": "3.0.3"
      },
      {
        "vendor": "AppThreat",
        "name": "cdxgen",
        "version": "3.0.10"
      },
      {
        "vendor": "Fortress Information Security",
        "name": "Github Extractor",
        "version": "1.15.1"
      }
    ],
    "authors": [
      {
        "name": "Fortress Information Security",
        "email": "sales@fortressinfosec.com",
        "phone": "1-407-573-6800"
      }
    ],
    "timestamp": "2022-06-01T21:00:00Z",
    "component": {
      "type": "application",
      "name": "bmo",
      "version": "",
      "group": "mozilla-bteam",
      "externalReferences": [
        {
          "url": "https://github.com/mozilla-bteam/bmo.git",
          "type": "distribution"
        },
        {
          "type": "website",
          "url": "https://bugzilla.mozilla.org",
          "comment": "As set via `homepage` in Github API"
        }
      ]
    }
  },
  "components": [
    {
      "type": "library",
      "bom-ref": "pkg:pypi/sphinx@4.2.0",
      "group": "",
      "name": "sphinx",
      "version": "4.2.0",
      "description": "Python documentation generator",
      "hashes": [
        {
          "alg": "SHA-256",
          "content": "98a535c62a4fcfcc362528592f69b26f7caec587d32cd55688db580be0287ae0"
        }
      ],
      "licenses": [
        {
          "license": {
            "id": "0BSD",
            "url": "https://opensource.org/licenses/0BSD"
          }
        }
      ],
      "purl": "pkg:pypi/sphinx@4.2.0",
      "externalReferences": [
        {
          "url": "https://www.sphinx-doc.org/",
          "type": "website"
        }
      ]
    },
    {
      "type": "library",
      "bom-ref": "pkg:pypi/sphinx-rtd_theme@1.0.0",
      "group": "",
      "name": "sphinx_rtd_theme",
      "version": "1.0.0",
      "description": "Read the Docs theme for Sphinx",
      "hashes": [
        {
          "alg": "SHA-256",
          "content": "4d35a56f4508cfee4c4fb604373ede6feae2a306731d533f409ef5c3496fdbd8"
        }
      ],
      "licenses": [
        {
          "license": {
            "id": "MIT",
            "url": "https://opensource.org/licenses/MIT"
          }
        }
      ],
      "purl": "pkg:pypi/sphinx-rtd_theme@1.0.0",
      "externalReferences": [
        {
          "url": "https://github.com/readthedocs/sphinx_rtd_theme",
          "type": "vcs"
        }
      ]
    },
    {
      "type": "library",
      "bom-ref": "pkg:pypi/readthedocs-sphinx-search@0.1.1",
      "group": "",
      "name": "readthedocs-sphinx-search",
      "version": "0.1.1",
      "description": "Sphinx extension to enable search as you type for docs hosted on Read the Docs.",
      "hashes": [
        {
          "alg": "SHA-256",
          "content": "7216c260244e2272e5577e7c37771f7fd34eeeda229bbeb5735b79e04c54a047"
        }
      ],
      "licenses": [
        {
          "license": {
            "id": "MIT",
            "url": "https://opensource.org/licenses/MIT"
          }
        }
      ],
      "purl": "pkg:pypi/readthedocs-sphinx-search@0.1.1",
      "externalReferences": [
        {
          "url": "https://github.com/readthedocs/readthedocs-sphinx-search",
          "type": "vcs"
        }
      ]
    }
  ]
}
