{
  "bomFormat": "CycloneDX",
  "specVersion": "1.3",
  "version": 1,
  "metadata": {
    "tools": [
      {
        "vendor": "cyclonedx",
        "name": "cyclonedx-php-composer",
        "version": "3.10.0"
      },
      {
        "vendor": "AppThreat",
        "name": "cdxgen",
        "version": "3.0.10"
      },
      {
        "vendor": "Fortress Information Security",
        "name": "Github Extractor",
        "version": "1.15.1"
      }
    ],
    "authors": [
      {
        "name": "Fortress Information Security",
        "email": "sales@fortressinfosec.com",
        "phone": "1-407-573-6800"
      }
    ],
    "timestamp": "2022-06-01T21:00:00Z",
    "component": {
      "type": "application",
      "name": "cron-expression",
      "version": "v1.2.0",
      "group": "mtdowling",
      "externalReferences": [
        {
          "url": "https://github.com/mtdowling/cron-expression.git",
          "type": "distribution"
        },
        {
          "type": "website",
          "url": "http://mtdowling.com/blog/2012/06/03/cron-expressions-in-php/",
          "comment": "As set via `homepage` in Github API"
        }
      ]
    }
  },
  "components": [
    {
      "type": "library",
      "bom-ref": "pkg:composer/cyclonedx/cyclonedx-library@1.5.0",
      "group": "cyclonedx",
      "name": "cyclonedx-library",
      "version": "1.5.0",
      "description": "Work with CycloneDX Software Bill-of-Materials (SBOM)",
      "licenses": [
        {
          "license": {
            "id": "Apache-2.0"
          }
        }
      ],
      "purl": "pkg:composer/cyclonedx/cyclonedx-library@1.5.0",
      "externalReferences": [
        {
          "url": "https://github.com/CycloneDX/cyclonedx-php-library.git",
          "type": "distribution",
          "comment": "As detected by composer's `getSourceUrls()` (type=git & reference=f41632e1d47001700ef93fa899e6dc49779aa784)"
        },
        {
          "url": "https://api.github.com/repos/CycloneDX/cyclonedx-php-library/zipball/f41632e1d47001700ef93fa899e6dc49779aa784",
          "type": "distribution",
          "comment": "As detected by composer's `getDistUrls()` (type=zip & reference=f41632e1d47001700ef93fa899e6dc49779aa784 & sha1=UNDEFINED)"
        },
        {
          "url": "https://github.com/CycloneDX/cyclonedx-php-library/",
          "type": "website",
          "comment": "As set via `homepage` in composer package definition."
        },
        {
          "url": "https://github.com/CycloneDX/cyclonedx-php-library/issues",
          "type": "issue-tracker",
          "comment": "As set via `support.issues` in composer package definition."
        },
        {
          "url": "https://github.com/CycloneDX/cyclonedx-php-library/tree/v1.5.0",
          "type": "distribution",
          "comment": "As set via `support.source` in composer package definition."
        }
      ]
    },
    {
      "type": "application",
      "bom-ref": "pkg:composer/cyclonedx/cyclonedx-php-composer@3.10.0",
      "group": "cyclonedx",
      "name": "cyclonedx-php-composer",
      "version": "3.10.0",
      "description": "Creates CycloneDX Software Bill-of-Materials (SBOM) from PHP Composer projects",
      "licenses": [
        {
          "license": {
            "id": "Apache-2.0"
          }
        }
      ],
      "purl": "pkg:composer/cyclonedx/cyclonedx-php-composer@3.10.0",
      "externalReferences": [
        {
          "url": "https://github.com/CycloneDX/cyclonedx-php-composer.git",
          "type": "distribution",
          "comment": "As detected by composer's `getSourceUrls()` (type=git & reference=341792df609deab6131ffa65f2f3b273f2e6128a)"
        },
        {
          "url": "https://api.github.com/repos/CycloneDX/cyclonedx-php-composer/zipball/341792df609deab6131ffa65f2f3b273f2e6128a",
          "type": "distribution",
          "comment": "As detected by composer's `getDistUrls()` (type=zip & reference=341792df609deab6131ffa65f2f3b273f2e6128a & sha1=UNDEFINED)"
        },
        {
          "url": "https://github.com/CycloneDX/cyclonedx-php-composer/",
          "type": "website",
          "comment": "As set via `homepage` in composer package definition."
        },
        {
          "url": "https://github.com/CycloneDX/cyclonedx-php-composer/issues",
          "type": "issue-tracker",
          "comment": "As set via `support.issues` in composer package definition."
        },
        {
          "url": "https://github.com/CycloneDX/cyclonedx-php-composer/tree/v3.10.0",
          "type": "distribution",
          "comment": "As set via `support.source` in composer package definition."
        }
      ]
    },
    {
      "type": "library",
      "bom-ref": "pkg:composer/doctrine/instantiator@1.4.1",
      "group": "doctrine",
      "name": "instantiator",
      "version": "1.4.1",
      "description": "A small, lightweight utility to instantiate objects in PHP without invoking their constructors",
      "licenses": [
        {
          "license": {
            "id": "MIT"
          }
        }
      ],
      "purl": "pkg:composer/doctrine/instantiator@1.4.1",
      "externalReferences": [
        {
          "url": "https://github.com/doctrine/instantiator.git",
          "type": "distribution",
          "comment": "As detected by composer's `getSourceUrls()` (type=git & reference=10dcfce151b967d20fde1b34ae6640712c3891bc)"
        },
        {
          "url": "https://api.github.com/repos/doctrine/instantiator/zipball/10dcfce151b967d20fde1b34ae6640712c3891bc",
          "type": "distribution",
          "comment": "As detected by composer's `getDistUrls()` (type=zip & reference=10dcfce151b967d20fde1b34ae6640712c3891bc & sha1=UNDEFINED)"
        },
        {
          "url": "https://www.doctrine-project.org/projects/instantiator.html",
          "type": "website",
          "comment": "As set via `homepage` in composer package definition."
        },
        {
          "url": "https://github.com/doctrine/instantiator/issues",
          "type": "issue-tracker",
          "comment": "As set via `support.issues` in composer package definition."
        },
        {
          "url": "https://github.com/doctrine/instantiator/tree/1.4.1",
          "type": "distribution",
          "comment": "As set via `support.source` in composer package definition."
        },
        {
          "url": "https://www.doctrine-project.org/sponsorship.html",
          "type": "other",
          "comment": "As set via `funding` in composer package definition. (type=custom)"
        },
        {
          "url": "https://www.patreon.com/phpdoctrine",
          "type": "other",
          "comment": "As set via `funding` in composer package definition. (type=patreon)"
        },
        {
          "url": "https://tidelift.com/funding/github/packagist/doctrine%2Finstantiator",
          "type": "other",
          "comment": "As set via `funding` in composer package definition. (type=tidelift)"
        }
      ]
    },
    {
      "type": "library",
      "bom-ref": "pkg:composer/myclabs/deep-copy@1.11.0",
      "group": "myclabs",
      "name": "deep-copy",
      "version": "1.11.0",
      "description": "Create deep copies (clones) of your objects",
      "licenses": [
        {
          "license": {
            "id": "MIT"
          }
        }
      ],
      "purl": "pkg:composer/myclabs/deep-copy@1.11.0",
      "externalReferences": [
        {
          "url": "https://github.com/myclabs/DeepCopy.git",
          "type": "distribution",
          "comment": "As detected by composer's `getSourceUrls()` (type=git & reference=14daed4296fae74d9e3201d2c4925d1acb7aa614)"
        },
        {
          "url": "https://api.github.com/repos/myclabs/DeepCopy/zipball/14daed4296fae74d9e3201d2c4925d1acb7aa614",
          "type": "distribution",
          "comment": "As detected by composer's `getDistUrls()` (type=zip & reference=14daed4296fae74d9e3201d2c4925d1acb7aa614 & sha1=UNDEFINED)"
        },
        {
          "url": "https://github.com/myclabs/DeepCopy/issues",
          "type": "issue-tracker",
          "comment": "As set via `support.issues` in composer package definition."
        },
        {
          "url": "https://github.com/myclabs/DeepCopy/tree/1.11.0",
          "type": "distribution",
          "comment": "As set via `support.source` in composer package definition."
        },
        {
          "url": "https://tidelift.com/funding/github/packagist/myclabs/deep-copy",
          "type": "other",
          "comment": "As set via `funding` in composer package definition. (type=tidelift)"
        }
      ]
    },
    {
      "type": "library",
      "bom-ref": "pkg:composer/package-url/packageurl-php@1.0.4",
      "group": "package-url",
      "name": "packageurl-php",
      "version": "1.0.4",
      "description": "A parser and builder based on the package url spec.",
      "licenses": [
        {
          "license": {
            "id": "MIT"
          }
        }
      ],
      "purl": "pkg:composer/package-url/packageurl-php@1.0.4",
      "externalReferences": [
        {
          "url": "https://github.com/package-url/packageurl-php.git",
          "type": "distribution",
          "comment": "As detected by composer's `getSourceUrls()` (type=git & reference=c45953babed516d27a0cf6c1a2d9f7e883ce214f)"
        },
        {
          "url": "https://api.github.com/repos/package-url/packageurl-php/zipball/c45953babed516d27a0cf6c1a2d9f7e883ce214f",
          "type": "distribution",
          "comment": "As detected by composer's `getDistUrls()` (type=zip & reference=c45953babed516d27a0cf6c1a2d9f7e883ce214f & sha1=UNDEFINED)"
        },
        {
          "url": "https://github.com/package-url/packageurl-php",
          "type": "website",
          "comment": "As set via `homepage` in composer package definition."
        },
        {
          "url": "https://github.com/package-url/packageurl-php/issues",
          "type": "issue-tracker",
          "comment": "As set via `support.issues` in composer package definition."
        },
        {
          "url": "https://github.com/package-url/packageurl-php/tree/1.0.4",
          "type": "distribution",
          "comment": "As set via `support.source` in composer package definition."
        }
      ]
    },
    {
      "type": "library",
      "bom-ref": "pkg:composer/phpdocumentor/reflection-common@2.2.0",
      "group": "phpdocumentor",
      "name": "reflection-common",
      "version": "2.2.0",
      "description": "Common reflection classes used by phpdocumentor to reflect the code structure",
      "licenses": [
        {
          "license": {
            "id": "MIT"
          }
        }
      ],
      "purl": "pkg:composer/phpdocumentor/reflection-common@2.2.0",
      "externalReferences": [
        {
          "url": "https://github.com/phpDocumentor/ReflectionCommon.git",
          "type": "distribution",
          "comment": "As detected by composer's `getSourceUrls()` (type=git & reference=1d01c49d4ed62f25aa84a747ad35d5a16924662b)"
        },
        {
          "url": "https://api.github.com/repos/phpDocumentor/ReflectionCommon/zipball/1d01c49d4ed62f25aa84a747ad35d5a16924662b",
          "type": "distribution",
          "comment": "As detected by composer's `getDistUrls()` (type=zip & reference=1d01c49d4ed62f25aa84a747ad35d5a16924662b & sha1=UNDEFINED)"
        },
        {
          "url": "http://www.phpdoc.org",
          "type": "website",
          "comment": "As set via `homepage` in composer package definition."
        },
        {
          "url": "https://github.com/phpDocumentor/ReflectionCommon/issues",
          "type": "issue-tracker",
          "comment": "As set via `support.issues` in composer package definition."
        },
        {
          "url": "https://github.com/phpDocumentor/ReflectionCommon/tree/2.x",
          "type": "distribution",
          "comment": "As set via `support.source` in composer package definition."
        }
      ]
    },
    {
      "type": "library",
      "bom-ref": "pkg:composer/phpdocumentor/reflection-docblock@5.3.0",
      "group": "phpdocumentor",
      "name": "reflection-docblock",
      "version": "5.3.0",
      "description": "With this component, a library can provide support for annotations via DocBlocks or otherwise retrieve information that is embedded in a DocBlock.",
      "licenses": [
        {
          "license": {
            "id": "MIT"
          }
        }
      ],
      "purl": "pkg:composer/phpdocumentor/reflection-docblock@5.3.0",
      "externalReferences": [
        {
          "url": "https://github.com/phpDocumentor/ReflectionDocBlock.git",
          "type": "distribution",
          "comment": "As detected by composer's `getSourceUrls()` (type=git & reference=622548b623e81ca6d78b721c5e029f4ce664f170)"
        },
        {
          "url": "https://api.github.com/repos/phpDocumentor/ReflectionDocBlock/zipball/622548b623e81ca6d78b721c5e029f4ce664f170",
          "type": "distribution",
          "comment": "As detected by composer's `getDistUrls()` (type=zip & reference=622548b623e81ca6d78b721c5e029f4ce664f170 & sha1=UNDEFINED)"
        },
        {
          "url": "https://github.com/phpDocumentor/ReflectionDocBlock/issues",
          "type": "issue-tracker",
          "comment": "As set via `support.issues` in composer package definition."
        },
        {
          "url": "https://github.com/phpDocumentor/ReflectionDocBlock/tree/5.3.0",
          "type": "distribution",
          "comment": "As set via `support.source` in composer package definition."
        }
      ]
    },
    {
      "type": "library",
      "bom-ref": "pkg:composer/phpdocumentor/type-resolver@1.6.1",
      "group": "phpdocumentor",
      "name": "type-resolver",
      "version": "1.6.1",
      "description": "A PSR-5 based resolver of Class names, Types and Structural Element Names",
      "licenses": [
        {
          "license": {
            "id": "MIT"
          }
        }
      ],
      "purl": "pkg:composer/phpdocumentor/type-resolver@1.6.1",
      "externalReferences": [
        {
          "url": "https://github.com/phpDocumentor/TypeResolver.git",
          "type": "distribution",
          "comment": "As detected by composer's `getSourceUrls()` (type=git & reference=77a32518733312af16a44300404e945338981de3)"
        },
        {
          "url": "https://api.github.com/repos/phpDocumentor/TypeResolver/zipball/77a32518733312af16a44300404e945338981de3",
          "type": "distribution",
          "comment": "As detected by composer's `getDistUrls()` (type=zip & reference=77a32518733312af16a44300404e945338981de3 & sha1=UNDEFINED)"
        },
        {
          "url": "https://github.com/phpDocumentor/TypeResolver/issues",
          "type": "issue-tracker",
          "comment": "As set via `support.issues` in composer package definition."
        },
        {
          "url": "https://github.com/phpDocumentor/TypeResolver/tree/1.6.1",
          "type": "distribution",
          "comment": "As set via `support.source` in composer package definition."
        }
      ]
    },
    {
      "type": "library",
      "bom-ref": "pkg:composer/phplang/scope-exit@1.0.0",
      "group": "phplang",
      "name": "scope-exit",
      "version": "1.0.0",
      "description": "Emulation of SCOPE_EXIT construct from C++",
      "licenses": [
        {
          "license": {
            "name": "BSD"
          }
        }
      ],
      "purl": "pkg:composer/phplang/scope-exit@1.0.0",
      "externalReferences": [
        {
          "url": "https://github.com/phplang/scope-exit.git",
          "type": "distribution",
          "comment": "As detected by composer's `getSourceUrls()` (type=git & reference=239b73abe89f9414aa85a7ca075ec9445629192b)"
        },
        {
          "url": "https://api.github.com/repos/phplang/scope-exit/zipball/239b73abe89f9414aa85a7ca075ec9445629192b",
          "type": "distribution",
          "comment": "As detected by composer's `getDistUrls()` (type=zip & reference=239b73abe89f9414aa85a7ca075ec9445629192b & sha1=UNDEFINED)"
        },
        {
          "url": "https://github.com/phplang/scope-exit",
          "type": "website",
          "comment": "As set via `homepage` in composer package definition."
        },
        {
          "url": "https://github.com/phplang/scope-exit/issues",
          "type": "issue-tracker",
          "comment": "As set via `support.issues` in composer package definition."
        },
        {
          "url": "https://github.com/phplang/scope-exit/tree/master",
          "type": "distribution",
          "comment": "As set via `support.source` in composer package definition."
        }
      ]
    },
    {
      "type": "library",
      "bom-ref": "pkg:composer/phpspec/prophecy@1.10.3",
      "group": "phpspec",
      "name": "prophecy",
      "version": "1.10.3",
      "description": "Highly opinionated mocking framework for PHP 5.3+",
      "licenses": [
        {
          "license": {
            "id": "MIT"
          }
        }
      ],
      "purl": "pkg:composer/phpspec/prophecy@1.10.3",
      "externalReferences": [
        {
          "url": "https://github.com/phpspec/prophecy.git",
          "type": "distribution",
          "comment": "As detected by composer's `getSourceUrls()` (type=git & reference=451c3cd1418cf640de218914901e51b064abb093)"
        },
        {
          "url": "https://api.github.com/repos/phpspec/prophecy/zipball/451c3cd1418cf640de218914901e51b064abb093",
          "type": "distribution",
          "comment": "As detected by composer's `getDistUrls()` (type=zip & reference=451c3cd1418cf640de218914901e51b064abb093 & sha1=UNDEFINED)"
        },
        {
          "url": "https://github.com/phpspec/prophecy",
          "type": "website",
          "comment": "As set via `homepage` in composer package definition."
        },
        {
          "url": "https://github.com/phpspec/prophecy/issues",
          "type": "issue-tracker",
          "comment": "As set via `support.issues` in composer package definition."
        },
        {
          "url": "https://github.com/phpspec/prophecy/tree/v1.10.3",
          "type": "distribution",
          "comment": "As set via `support.source` in composer package definition."
        }
      ]
    },
    {
      "type": "library",
      "bom-ref": "pkg:composer/phpunit/php-code-coverage@4.0.8",
      "group": "phpunit",
      "name": "php-code-coverage",
      "version": "4.0.8",
      "description": "Library that provides collection, processing, and rendering functionality for PHP code coverage information.",
      "licenses": [
        {
          "license": {
            "id": "BSD-3-Clause"
          }
        }
      ],
      "purl": "pkg:composer/phpunit/php-code-coverage@4.0.8",
      "externalReferences": [
        {
          "url": "https://github.com/sebastianbergmann/php-code-coverage.git",
          "type": "distribution",
          "comment": "As detected by composer's `getSourceUrls()` (type=git & reference=ef7b2f56815df854e66ceaee8ebe9393ae36a40d)"
        },
        {
          "url": "https://api.github.com/repos/sebastianbergmann/php-code-coverage/zipball/ef7b2f56815df854e66ceaee8ebe9393ae36a40d",
          "type": "distribution",
          "comment": "As detected by composer's `getDistUrls()` (type=zip & reference=ef7b2f56815df854e66ceaee8ebe9393ae36a40d & sha1=UNDEFINED)"
        },
        {
          "url": "https://github.com/sebastianbergmann/php-code-coverage",
          "type": "website",
          "comment": "As set via `homepage` in composer package definition."
        },
        {
          "url": "irc://irc.freenode.net/phpunit",
          "type": "chat",
          "comment": "As set via `support.irc` in composer package definition."
        },
        {
          "url": "https://github.com/sebastianbergmann/php-code-coverage/issues",
          "type": "issue-tracker",
          "comment": "As set via `support.issues` in composer package definition."
        },
        {
          "url": "https://github.com/sebastianbergmann/php-code-coverage/tree/4.0",
          "type": "distribution",
          "comment": "As set via `support.source` in composer package definition."
        }
      ]
    },
    {
      "type": "library",
      "bom-ref": "pkg:composer/phpunit/php-file-iterator@1.4.5",
      "group": "phpunit",
      "name": "php-file-iterator",
      "version": "1.4.5",
      "description": "FilterIterator implementation that filters files based on a list of suffixes.",
      "licenses": [
        {
          "license": {
            "id": "BSD-3-Clause"
          }
        }
      ],
      "purl": "pkg:composer/phpunit/php-file-iterator@1.4.5",
      "externalReferences": [
        {
          "url": "https://github.com/sebastianbergmann/php-file-iterator.git",
          "type": "distribution",
          "comment": "As detected by composer's `getSourceUrls()` (type=git & reference=730b01bc3e867237eaac355e06a36b85dd93a8b4)"
        },
        {
          "url": "https://api.github.com/repos/sebastianbergmann/php-file-iterator/zipball/730b01bc3e867237eaac355e06a36b85dd93a8b4",
          "type": "distribution",
          "comment": "As detected by composer's `getDistUrls()` (type=zip & reference=730b01bc3e867237eaac355e06a36b85dd93a8b4 & sha1=UNDEFINED)"
        },
        {
          "url": "https://github.com/sebastianbergmann/php-file-iterator/",
          "type": "website",
          "comment": "As set via `homepage` in composer package definition."
        },
        {
          "url": "irc://irc.freenode.net/phpunit",
          "type": "chat",
          "comment": "As set via `support.irc` in composer package definition."
        },
        {
          "url": "https://github.com/sebastianbergmann/php-file-iterator/issues",
          "type": "issue-tracker",
          "comment": "As set via `support.issues` in composer package definition."
        },
        {
          "url": "https://github.com/sebastianbergmann/php-file-iterator/tree/1.4.5",
          "type": "distribution",
          "comment": "As set via `support.source` in composer package definition."
        }
      ]
    },
    {
      "type": "library",
      "bom-ref": "pkg:composer/phpunit/php-text-template@1.2.1",
      "group": "phpunit",
      "name": "php-text-template",
      "version": "1.2.1",
      "description": "Simple template engine.",
      "licenses": [
        {
          "license": {
            "id": "BSD-3-Clause"
          }
        }
      ],
      "purl": "pkg:composer/phpunit/php-text-template@1.2.1",
      "externalReferences": [
        {
          "url": "https://github.com/sebastianbergmann/php-text-template.git",
          "type": "distribution",
          "comment": "As detected by composer's `getSourceUrls()` (type=git & reference=31f8b717e51d9a2afca6c9f046f5d69fc27c8686)"
        },
        {
          "url": "https://api.github.com/repos/sebastianbergmann/php-text-template/zipball/31f8b717e51d9a2afca6c9f046f5d69fc27c8686",
          "type": "distribution",
          "comment": "As detected by composer's `getDistUrls()` (type=zip & reference=31f8b717e51d9a2afca6c9f046f5d69fc27c8686 & sha1=UNDEFINED)"
        },
        {
          "url": "https://github.com/sebastianbergmann/php-text-template/",
          "type": "website",
          "comment": "As set via `homepage` in composer package definition."
        },
        {
          "url": "https://github.com/sebastianbergmann/php-text-template/issues",
          "type": "issue-tracker",
          "comment": "As set via `support.issues` in composer package definition."
        },
        {
          "url": "https://github.com/sebastianbergmann/php-text-template/tree/1.2.1",
          "type": "distribution",
          "comment": "As set via `support.source` in composer package definition."
        }
      ]
    },
    {
      "type": "library",
      "bom-ref": "pkg:composer/phpunit/php-timer@1.0.9",
      "group": "phpunit",
      "name": "php-timer",
      "version": "1.0.9",
      "description": "Utility class for timing",
      "licenses": [
        {
          "license": {
            "id": "BSD-3-Clause"
          }
        }
      ],
      "purl": "pkg:composer/phpunit/php-timer@1.0.9",
      "externalReferences": [
        {
          "url": "https://github.com/sebastianbergmann/php-timer.git",
          "type": "distribution",
          "comment": "As detected by composer's `getSourceUrls()` (type=git & reference=3dcf38ca72b158baf0bc245e9184d3fdffa9c46f)"
        },
        {
          "url": "https://api.github.com/repos/sebastianbergmann/php-timer/zipball/3dcf38ca72b158baf0bc245e9184d3fdffa9c46f",
          "type": "distribution",
          "comment": "As detected by composer's `getDistUrls()` (type=zip & reference=3dcf38ca72b158baf0bc245e9184d3fdffa9c46f & sha1=UNDEFINED)"
        },
        {
          "url": "https://github.com/sebastianbergmann/php-timer/",
          "type": "website",
          "comment": "As set via `homepage` in composer package definition."
        },
        {
          "url": "https://github.com/sebastianbergmann/php-timer/issues",
          "type": "issue-tracker",
          "comment": "As set via `support.issues` in composer package definition."
        },
        {
          "url": "https://github.com/sebastianbergmann/php-timer/tree/master",
          "type": "distribution",
          "comment": "As set via `support.source` in composer package definition."
        }
      ]
    },
    {
      "type": "library",
      "bom-ref": "pkg:composer/phpunit/php-token-stream@2.0.2",
      "group": "phpunit",
      "name": "php-token-stream",
      "version": "2.0.2",
      "description": "Wrapper around PHP's tokenizer extension.",
      "licenses": [
        {
          "license": {
            "id": "BSD-3-Clause"
          }
        }
      ],
      "purl": "pkg:composer/phpunit/php-token-stream@2.0.2",
      "externalReferences": [
        {
          "url": "https://github.com/sebastianbergmann/php-token-stream.git",
          "type": "distribution",
          "comment": "As detected by composer's `getSourceUrls()` (type=git & reference=791198a2c6254db10131eecfe8c06670700904db)"
        },
        {
          "url": "https://api.github.com/repos/sebastianbergmann/php-token-stream/zipball/791198a2c6254db10131eecfe8c06670700904db",
          "type": "distribution",
          "comment": "As detected by composer's `getDistUrls()` (type=zip & reference=791198a2c6254db10131eecfe8c06670700904db & sha1=UNDEFINED)"
        },
        {
          "url": "https://github.com/sebastianbergmann/php-token-stream/",
          "type": "website",
          "comment": "As set via `homepage` in composer package definition."
        },
        {
          "url": "https://github.com/sebastianbergmann/php-token-stream/issues",
          "type": "issue-tracker",
          "comment": "As set via `support.issues` in composer package definition."
        },
        {
          "url": "https://github.com/sebastianbergmann/php-token-stream/tree/master",
          "type": "distribution",
          "comment": "As set via `support.source` in composer package definition."
        }
      ]
    },
    {
      "type": "library",
      "bom-ref": "pkg:composer/phpunit/phpunit@5.7.27",
      "group": "phpunit",
      "name": "phpunit",
      "version": "5.7.27",
      "description": "The PHP Unit Testing framework.",
      "licenses": [
        {
          "license": {
            "id": "BSD-3-Clause"
          }
        }
      ],
      "purl": "pkg:composer/phpunit/phpunit@5.7.27",
      "externalReferences": [
        {
          "url": "https://github.com/sebastianbergmann/phpunit.git",
          "type": "distribution",
          "comment": "As detected by composer's `getSourceUrls()` (type=git & reference=b7803aeca3ccb99ad0a506fa80b64cd6a56bbc0c)"
        },
        {
          "url": "https://api.github.com/repos/sebastianbergmann/phpunit/zipball/b7803aeca3ccb99ad0a506fa80b64cd6a56bbc0c",
          "type": "distribution",
          "comment": "As detected by composer's `getDistUrls()` (type=zip & reference=b7803aeca3ccb99ad0a506fa80b64cd6a56bbc0c & sha1=UNDEFINED)"
        },
        {
          "url": "https://phpunit.de/",
          "type": "website",
          "comment": "As set via `homepage` in composer package definition."
        },
        {
          "url": "https://github.com/sebastianbergmann/phpunit/issues",
          "type": "issue-tracker",
          "comment": "As set via `support.issues` in composer package definition."
        },
        {
          "url": "https://github.com/sebastianbergmann/phpunit/tree/5.7.27",
          "type": "distribution",
          "comment": "As set via `support.source` in composer package definition."
        }
      ]
    },
    {
      "type": "library",
      "bom-ref": "pkg:composer/phpunit/phpunit-mock-objects@3.4.4",
      "group": "phpunit",
      "name": "phpunit-mock-objects",
      "version": "3.4.4",
      "description": "Mock Object library for PHPUnit",
      "licenses": [
        {
          "license": {
            "id": "BSD-3-Clause"
          }
        }
      ],
      "purl": "pkg:composer/phpunit/phpunit-mock-objects@3.4.4",
      "externalReferences": [
        {
          "url": "https://github.com/sebastianbergmann/phpunit-mock-objects.git",
          "type": "distribution",
          "comment": "As detected by composer's `getSourceUrls()` (type=git & reference=a23b761686d50a560cc56233b9ecf49597cc9118)"
        },
        {
          "url": "https://api.github.com/repos/sebastianbergmann/phpunit-mock-objects/zipball/a23b761686d50a560cc56233b9ecf49597cc9118",
          "type": "distribution",
          "comment": "As detected by composer's `getDistUrls()` (type=zip & reference=a23b761686d50a560cc56233b9ecf49597cc9118 & sha1=UNDEFINED)"
        },
        {
          "url": "https://github.com/sebastianbergmann/phpunit-mock-objects/",
          "type": "website",
          "comment": "As set via `homepage` in composer package definition."
        },
        {
          "url": "irc://irc.freenode.net/phpunit",
          "type": "chat",
          "comment": "As set via `support.irc` in composer package definition."
        },
        {
          "url": "https://github.com/sebastianbergmann/phpunit-mock-objects/issues",
          "type": "issue-tracker",
          "comment": "As set via `support.issues` in composer package definition."
        },
        {
          "url": "https://github.com/sebastianbergmann/phpunit-mock-objects/tree/3.4",
          "type": "distribution",
          "comment": "As set via `support.source` in composer package definition."
        }
      ]
    },
    {
      "type": "library",
      "bom-ref": "pkg:composer/sebastian/code-unit-reverse-lookup@1.0.2",
      "group": "sebastian",
      "name": "code-unit-reverse-lookup",
      "version": "1.0.2",
      "description": "Looks up which function or method a line of code belongs to",
      "licenses": [
        {
          "license": {
            "id": "BSD-3-Clause"
          }
        }
      ],
      "purl": "pkg:composer/sebastian/code-unit-reverse-lookup@1.0.2",
      "externalReferences": [
        {
          "url": "https://github.com/sebastianbergmann/code-unit-reverse-lookup.git",
          "type": "distribution",
          "comment": "As detected by composer's `getSourceUrls()` (type=git & reference=1de8cd5c010cb153fcd68b8d0f64606f523f7619)"
        },
        {
          "url": "https://api.github.com/repos/sebastianbergmann/code-unit-reverse-lookup/zipball/1de8cd5c010cb153fcd68b8d0f64606f523f7619",
          "type": "distribution",
          "comment": "As detected by composer's `getDistUrls()` (type=zip & reference=1de8cd5c010cb153fcd68b8d0f64606f523f7619 & sha1=UNDEFINED)"
        },
        {
          "url": "https://github.com/sebastianbergmann/code-unit-reverse-lookup/",
          "type": "website",
          "comment": "As set via `homepage` in composer package definition."
        },
        {
          "url": "https://github.com/sebastianbergmann/code-unit-reverse-lookup/issues",
          "type": "issue-tracker",
          "comment": "As set via `support.issues` in composer package definition."
        },
        {
          "url": "https://github.com/sebastianbergmann/code-unit-reverse-lookup/tree/1.0.2",
          "type": "distribution",
          "comment": "As set via `support.source` in composer package definition."
        },
        {
          "url": "https://github.com/sebastianbergmann",
          "type": "other",
          "comment": "As set via `funding` in composer package definition. (type=github)"
        }
      ]
    },
    {
      "type": "library",
      "bom-ref": "pkg:composer/sebastian/comparator@1.2.4",
      "group": "sebastian",
      "name": "comparator",
      "version": "1.2.4",
      "description": "Provides the functionality to compare PHP values for equality",
      "licenses": [
        {
          "license": {
            "id": "BSD-3-Clause"
          }
        }
      ],
      "purl": "pkg:composer/sebastian/comparator@1.2.4",
      "externalReferences": [
        {
          "url": "https://github.com/sebastianbergmann/comparator.git",
          "type": "distribution",
          "comment": "As detected by composer's `getSourceUrls()` (type=git & reference=2b7424b55f5047b47ac6e5ccb20b2aea4011d9be)"
        },
        {
          "url": "https://api.github.com/repos/sebastianbergmann/comparator/zipball/2b7424b55f5047b47ac6e5ccb20b2aea4011d9be",
          "type": "distribution",
          "comment": "As detected by composer's `getDistUrls()` (type=zip & reference=2b7424b55f5047b47ac6e5ccb20b2aea4011d9be & sha1=UNDEFINED)"
        },
        {
          "url": "http://www.github.com/sebastianbergmann/comparator",
          "type": "website",
          "comment": "As set via `homepage` in composer package definition."
        },
        {
          "url": "https://github.com/sebastianbergmann/comparator/issues",
          "type": "issue-tracker",
          "comment": "As set via `support.issues` in composer package definition."
        },
        {
          "url": "https://github.com/sebastianbergmann/comparator/tree/1.2",
          "type": "distribution",
          "comment": "As set via `support.source` in composer package definition."
        }
      ]
    },
    {
      "type": "library",
      "bom-ref": "pkg:composer/sebastian/diff@1.4.3",
      "group": "sebastian",
      "name": "diff",
      "version": "1.4.3",
      "description": "Diff implementation",
      "licenses": [
        {
          "license": {
            "id": "BSD-3-Clause"
          }
        }
      ],
      "purl": "pkg:composer/sebastian/diff@1.4.3",
      "externalReferences": [
        {
          "url": "https://github.com/sebastianbergmann/diff.git",
          "type": "distribution",
          "comment": "As detected by composer's `getSourceUrls()` (type=git & reference=7f066a26a962dbe58ddea9f72a4e82874a3975a4)"
        },
        {
          "url": "https://api.github.com/repos/sebastianbergmann/diff/zipball/7f066a26a962dbe58ddea9f72a4e82874a3975a4",
          "type": "distribution",
          "comment": "As detected by composer's `getDistUrls()` (type=zip & reference=7f066a26a962dbe58ddea9f72a4e82874a3975a4 & sha1=UNDEFINED)"
        },
        {
          "url": "https://github.com/sebastianbergmann/diff",
          "type": "website",
          "comment": "As set via `homepage` in composer package definition."
        },
        {
          "url": "https://github.com/sebastianbergmann/diff/issues",
          "type": "issue-tracker",
          "comment": "As set via `support.issues` in composer package definition."
        },
        {
          "url": "https://github.com/sebastianbergmann/diff/tree/1.4",
          "type": "distribution",
          "comment": "As set via `support.source` in composer package definition."
        }
      ]
    },
    {
      "type": "library",
      "bom-ref": "pkg:composer/sebastian/environment@2.0.0",
      "group": "sebastian",
      "name": "environment",
      "version": "2.0.0",
      "description": "Provides functionality to handle HHVM/PHP environments",
      "licenses": [
        {
          "license": {
            "id": "BSD-3-Clause"
          }
        }
      ],
      "purl": "pkg:composer/sebastian/environment@2.0.0",
      "externalReferences": [
        {
          "url": "https://github.com/sebastianbergmann/environment.git",
          "type": "distribution",
          "comment": "As detected by composer's `getSourceUrls()` (type=git & reference=5795ffe5dc5b02460c3e34222fee8cbe245d8fac)"
        },
        {
          "url": "https://api.github.com/repos/sebastianbergmann/environment/zipball/5795ffe5dc5b02460c3e34222fee8cbe245d8fac",
          "type": "distribution",
          "comment": "As detected by composer's `getDistUrls()` (type=zip & reference=5795ffe5dc5b02460c3e34222fee8cbe245d8fac & sha1=UNDEFINED)"
        },
        {
          "url": "http://www.github.com/sebastianbergmann/environment",
          "type": "website",
          "comment": "As set via `homepage` in composer package definition."
        },
        {
          "url": "https://github.com/sebastianbergmann/environment/issues",
          "type": "issue-tracker",
          "comment": "As set via `support.issues` in composer package definition."
        },
        {
          "url": "https://github.com/sebastianbergmann/environment/tree/master",
          "type": "distribution",
          "comment": "As set via `support.source` in composer package definition."
        }
      ]
    },
    {
      "type": "library",
      "bom-ref": "pkg:composer/sebastian/exporter@2.0.0",
      "group": "sebastian",
      "name": "exporter",
      "version": "2.0.0",
      "description": "Provides the functionality to export PHP variables for visualization",
      "licenses": [
        {
          "license": {
            "id": "BSD-3-Clause"
          }
        }
      ],
      "purl": "pkg:composer/sebastian/exporter@2.0.0",
      "externalReferences": [
        {
          "url": "https://github.com/sebastianbergmann/exporter.git",
          "type": "distribution",
          "comment": "As detected by composer's `getSourceUrls()` (type=git & reference=ce474bdd1a34744d7ac5d6aad3a46d48d9bac4c4)"
        },
        {
          "url": "https://api.github.com/repos/sebastianbergmann/exporter/zipball/ce474bdd1a34744d7ac5d6aad3a46d48d9bac4c4",
          "type": "distribution",
          "comment": "As detected by composer's `getDistUrls()` (type=zip & reference=ce474bdd1a34744d7ac5d6aad3a46d48d9bac4c4 & sha1=UNDEFINED)"
        },
        {
          "url": "http://www.github.com/sebastianbergmann/exporter",
          "type": "website",
          "comment": "As set via `homepage` in composer package definition."
        },
        {
          "url": "https://github.com/sebastianbergmann/exporter/issues",
          "type": "issue-tracker",
          "comment": "As set via `support.issues` in composer package definition."
        },
        {
          "url": "https://github.com/sebastianbergmann/exporter/tree/master",
          "type": "distribution",
          "comment": "As set via `support.source` in composer package definition."
        }
      ]
    },
    {
      "type": "library",
      "bom-ref": "pkg:composer/sebastian/global-state@1.1.1",
      "group": "sebastian",
      "name": "global-state",
      "version": "1.1.1",
      "description": "Snapshotting of global state",
      "licenses": [
        {
          "license": {
            "id": "BSD-3-Clause"
          }
        }
      ],
      "purl": "pkg:composer/sebastian/global-state@1.1.1",
      "externalReferences": [
        {
          "url": "https://github.com/sebastianbergmann/global-state.git",
          "type": "distribution",
          "comment": "As detected by composer's `getSourceUrls()` (type=git & reference=bc37d50fea7d017d3d340f230811c9f1d7280af4)"
        },
        {
          "url": "https://api.github.com/repos/sebastianbergmann/global-state/zipball/bc37d50fea7d017d3d340f230811c9f1d7280af4",
          "type": "distribution",
          "comment": "As detected by composer's `getDistUrls()` (type=zip & reference=bc37d50fea7d017d3d340f230811c9f1d7280af4 & sha1=UNDEFINED)"
        },
        {
          "url": "http://www.github.com/sebastianbergmann/global-state",
          "type": "website",
          "comment": "As set via `homepage` in composer package definition."
        },
        {
          "url": "https://github.com/sebastianbergmann/global-state/issues",
          "type": "issue-tracker",
          "comment": "As set via `support.issues` in composer package definition."
        },
        {
          "url": "https://github.com/sebastianbergmann/global-state/tree/1.1.1",
          "type": "distribution",
          "comment": "As set via `support.source` in composer package definition."
        }
      ]
    },
    {
      "type": "library",
      "bom-ref": "pkg:composer/sebastian/object-enumerator@2.0.1",
      "group": "sebastian",
      "name": "object-enumerator",
      "version": "2.0.1",
      "description": "Traverses array structures and object graphs to enumerate all referenced objects",
      "licenses": [
        {
          "license": {
            "id": "BSD-3-Clause"
          }
        }
      ],
      "purl": "pkg:composer/sebastian/object-enumerator@2.0.1",
      "externalReferences": [
        {
          "url": "https://github.com/sebastianbergmann/object-enumerator.git",
          "type": "distribution",
          "comment": "As detected by composer's `getSourceUrls()` (type=git & reference=1311872ac850040a79c3c058bea3e22d0f09cbb7)"
        },
        {
          "url": "https://api.github.com/repos/sebastianbergmann/object-enumerator/zipball/1311872ac850040a79c3c058bea3e22d0f09cbb7",
          "type": "distribution",
          "comment": "As detected by composer's `getDistUrls()` (type=zip & reference=1311872ac850040a79c3c058bea3e22d0f09cbb7 & sha1=UNDEFINED)"
        },
        {
          "url": "https://github.com/sebastianbergmann/object-enumerator/",
          "type": "website",
          "comment": "As set via `homepage` in composer package definition."
        },
        {
          "url": "https://github.com/sebastianbergmann/object-enumerator/issues",
          "type": "issue-tracker",
          "comment": "As set via `support.issues` in composer package definition."
        },
        {
          "url": "https://github.com/sebastianbergmann/object-enumerator/tree/master",
          "type": "distribution",
          "comment": "As set via `support.source` in composer package definition."
        }
      ]
    },
    {
      "type": "library",
      "bom-ref": "pkg:composer/sebastian/recursion-context@2.0.0",
      "group": "sebastian",
      "name": "recursion-context",
      "version": "2.0.0",
      "description": "Provides functionality to recursively process PHP variables",
      "licenses": [
        {
          "license": {
            "id": "BSD-3-Clause"
          }
        }
      ],
      "purl": "pkg:composer/sebastian/recursion-context@2.0.0",
      "externalReferences": [
        {
          "url": "https://github.com/sebastianbergmann/recursion-context.git",
          "type": "distribution",
          "comment": "As detected by composer's `getSourceUrls()` (type=git & reference=2c3ba150cbec723aa057506e73a8d33bdb286c9a)"
        },
        {
          "url": "https://api.github.com/repos/sebastianbergmann/recursion-context/zipball/2c3ba150cbec723aa057506e73a8d33bdb286c9a",
          "type": "distribution",
          "comment": "As detected by composer's `getDistUrls()` (type=zip & reference=2c3ba150cbec723aa057506e73a8d33bdb286c9a & sha1=UNDEFINED)"
        },
        {
          "url": "http://www.github.com/sebastianbergmann/recursion-context",
          "type": "website",
          "comment": "As set via `homepage` in composer package definition."
        },
        {
          "url": "https://github.com/sebastianbergmann/recursion-context/issues",
          "type": "issue-tracker",
          "comment": "As set via `support.issues` in composer package definition."
        },
        {
          "url": "https://github.com/sebastianbergmann/recursion-context/tree/master",
          "type": "distribution",
          "comment": "As set via `support.source` in composer package definition."
        }
      ]
    },
    {
      "type": "library",
      "bom-ref": "pkg:composer/sebastian/resource-operations@1.0.0",
      "group": "sebastian",
      "name": "resource-operations",
      "version": "1.0.0",
      "description": "Provides a list of PHP built-in functions that operate on resources",
      "licenses": [
        {
          "license": {
            "id": "BSD-3-Clause"
          }
        }
      ],
      "purl": "pkg:composer/sebastian/resource-operations@1.0.0",
      "externalReferences": [
        {
          "url": "https://github.com/sebastianbergmann/resource-operations.git",
          "type": "distribution",
          "comment": "As detected by composer's `getSourceUrls()` (type=git & reference=ce990bb21759f94aeafd30209e8cfcdfa8bc3f52)"
        },
        {
          "url": "https://api.github.com/repos/sebastianbergmann/resource-operations/zipball/ce990bb21759f94aeafd30209e8cfcdfa8bc3f52",
          "type": "distribution",
          "comment": "As detected by composer's `getDistUrls()` (type=zip & reference=ce990bb21759f94aeafd30209e8cfcdfa8bc3f52 & sha1=UNDEFINED)"
        },
        {
          "url": "https://www.github.com/sebastianbergmann/resource-operations",
          "type": "website",
          "comment": "As set via `homepage` in composer package definition."
        },
        {
          "url": "https://github.com/sebastianbergmann/resource-operations/issues",
          "type": "issue-tracker",
          "comment": "As set via `support.issues` in composer package definition."
        },
        {
          "url": "https://github.com/sebastianbergmann/resource-operations/tree/master",
          "type": "distribution",
          "comment": "As set via `support.source` in composer package definition."
        }
      ]
    },
    {
      "type": "library",
      "bom-ref": "pkg:composer/sebastian/version@2.0.1",
      "group": "sebastian",
      "name": "version",
      "version": "2.0.1",
      "description": "Library that helps with managing the version number of Git-hosted PHP projects",
      "licenses": [
        {
          "license": {
            "id": "BSD-3-Clause"
          }
        }
      ],
      "purl": "pkg:composer/sebastian/version@2.0.1",
      "externalReferences": [
        {
          "url": "https://github.com/sebastianbergmann/version.git",
          "type": "distribution",
          "comment": "As detected by composer's `getSourceUrls()` (type=git & reference=99732be0ddb3361e16ad77b68ba41efc8e979019)"
        },
        {
          "url": "https://api.github.com/repos/sebastianbergmann/version/zipball/99732be0ddb3361e16ad77b68ba41efc8e979019",
          "type": "distribution",
          "comment": "As detected by composer's `getDistUrls()` (type=zip & reference=99732be0ddb3361e16ad77b68ba41efc8e979019 & sha1=UNDEFINED)"
        },
        {
          "url": "https://github.com/sebastianbergmann/version",
          "type": "website",
          "comment": "As set via `homepage` in composer package definition."
        },
        {
          "url": "https://github.com/sebastianbergmann/version/issues",
          "type": "issue-tracker",
          "comment": "As set via `support.issues` in composer package definition."
        },
        {
          "url": "https://github.com/sebastianbergmann/version/tree/master",
          "type": "distribution",
          "comment": "As set via `support.source` in composer package definition."
        }
      ]
    },
    {
      "type": "library",
      "bom-ref": "pkg:composer/swaggest/json-diff@3.8.3",
      "group": "swaggest",
      "name": "json-diff",
      "version": "3.8.3",
      "description": "JSON diff/rearrange/patch/pointer library for PHP",
      "licenses": [
        {
          "license": {
            "id": "MIT"
          }
        }
      ],
      "purl": "pkg:composer/swaggest/json-diff@3.8.3",
      "externalReferences": [
        {
          "url": "https://github.com/swaggest/json-diff.git",
          "type": "distribution",
          "comment": "As detected by composer's `getSourceUrls()` (type=git & reference=bb3e3b4e9d842bb2e48f31ea568d0459968d1d42)"
        },
        {
          "url": "https://api.github.com/repos/swaggest/json-diff/zipball/bb3e3b4e9d842bb2e48f31ea568d0459968d1d42",
          "type": "distribution",
          "comment": "As detected by composer's `getDistUrls()` (type=zip & reference=bb3e3b4e9d842bb2e48f31ea568d0459968d1d42 & sha1=UNDEFINED)"
        },
        {
          "url": "https://github.com/swaggest/json-diff/issues",
          "type": "issue-tracker",
          "comment": "As set via `support.issues` in composer package definition."
        },
        {
          "url": "https://github.com/swaggest/json-diff/tree/v3.8.3",
          "type": "distribution",
          "comment": "As set via `support.source` in composer package definition."
        }
      ]
    },
    {
      "type": "library",
      "bom-ref": "pkg:composer/swaggest/json-schema@0.12.39",
      "group": "swaggest",
      "name": "json-schema",
      "version": "0.12.39",
      "description": "High definition PHP structures with JSON-schema based validation",
      "licenses": [
        {
          "license": {
            "id": "MIT"
          }
        }
      ],
      "purl": "pkg:composer/swaggest/json-schema@0.12.39",
      "externalReferences": [
        {
          "url": "https://github.com/swaggest/php-json-schema.git",
          "type": "distribution",
          "comment": "As detected by composer's `getSourceUrls()` (type=git & reference=193ba39cce1ffa2d55ddd5445315e945a63298a2)"
        },
        {
          "url": "https://api.github.com/repos/swaggest/php-json-schema/zipball/193ba39cce1ffa2d55ddd5445315e945a63298a2",
          "type": "distribution",
          "comment": "As detected by composer's `getDistUrls()` (type=zip & reference=193ba39cce1ffa2d55ddd5445315e945a63298a2 & sha1=UNDEFINED)"
        },
        {
          "url": "mailto:vearutop@gmail.com",
          "type": "other",
          "comment": "As set via `support.email` in composer package definition."
        },
        {
          "url": "https://github.com/swaggest/php-json-schema/issues",
          "type": "issue-tracker",
          "comment": "As set via `support.issues` in composer package definition."
        },
        {
          "url": "https://github.com/swaggest/php-json-schema/tree/v0.12.39",
          "type": "distribution",
          "comment": "As set via `support.source` in composer package definition."
        }
      ]
    },
    {
      "type": "library",
      "bom-ref": "pkg:composer/symfony/polyfill-ctype@1.25.0",
      "group": "symfony",
      "name": "polyfill-ctype",
      "version": "1.25.0",
      "description": "Symfony polyfill for ctype functions",
      "licenses": [
        {
          "license": {
            "id": "MIT"
          }
        }
      ],
      "purl": "pkg:composer/symfony/polyfill-ctype@1.25.0",
      "externalReferences": [
        {
          "url": "https://github.com/symfony/polyfill-ctype.git",
          "type": "distribution",
          "comment": "As detected by composer's `getSourceUrls()` (type=git & reference=30885182c981ab175d4d034db0f6f469898070ab)"
        },
        {
          "url": "https://api.github.com/repos/symfony/polyfill-ctype/zipball/30885182c981ab175d4d034db0f6f469898070ab",
          "type": "distribution",
          "comment": "As detected by composer's `getDistUrls()` (type=zip & reference=30885182c981ab175d4d034db0f6f469898070ab & sha1=UNDEFINED)"
        },
        {
          "url": "https://symfony.com",
          "type": "website",
          "comment": "As set via `homepage` in composer package definition."
        },
        {
          "url": "https://github.com/symfony/polyfill-ctype/tree/v1.25.0",
          "type": "distribution",
          "comment": "As set via `support.source` in composer package definition."
        },
        {
          "url": "https://symfony.com/sponsor",
          "type": "other",
          "comment": "As set via `funding` in composer package definition. (type=custom)"
        },
        {
          "url": "https://github.com/fabpot",
          "type": "other",
          "comment": "As set via `funding` in composer package definition. (type=github)"
        },
        {
          "url": "https://tidelift.com/funding/github/packagist/symfony/symfony",
          "type": "other",
          "comment": "As set via `funding` in composer package definition. (type=tidelift)"
        }
      ]
    },
    {
      "type": "library",
      "bom-ref": "pkg:composer/symfony/polyfill-mbstring@1.25.0",
      "group": "symfony",
      "name": "polyfill-mbstring",
      "version": "1.25.0",
      "description": "Symfony polyfill for the Mbstring extension",
      "licenses": [
        {
          "license": {
            "id": "MIT"
          }
        }
      ],
      "purl": "pkg:composer/symfony/polyfill-mbstring@1.25.0",
      "externalReferences": [
        {
          "url": "https://github.com/symfony/polyfill-mbstring.git",
          "type": "distribution",
          "comment": "As detected by composer's `getSourceUrls()` (type=git & reference=0abb51d2f102e00a4eefcf46ba7fec406d245825)"
        },
        {
          "url": "https://api.github.com/repos/symfony/polyfill-mbstring/zipball/0abb51d2f102e00a4eefcf46ba7fec406d245825",
          "type": "distribution",
          "comment": "As detected by composer's `getDistUrls()` (type=zip & reference=0abb51d2f102e00a4eefcf46ba7fec406d245825 & sha1=UNDEFINED)"
        },
        {
          "url": "https://symfony.com",
          "type": "website",
          "comment": "As set via `homepage` in composer package definition."
        },
        {
          "url": "https://github.com/symfony/polyfill-mbstring/tree/v1.25.0",
          "type": "distribution",
          "comment": "As set via `support.source` in composer package definition."
        },
        {
          "url": "https://symfony.com/sponsor",
          "type": "other",
          "comment": "As set via `funding` in composer package definition. (type=custom)"
        },
        {
          "url": "https://github.com/fabpot",
          "type": "other",
          "comment": "As set via `funding` in composer package definition. (type=github)"
        },
        {
          "url": "https://tidelift.com/funding/github/packagist/symfony/symfony",
          "type": "other",
          "comment": "As set via `funding` in composer package definition. (type=tidelift)"
        }
      ]
    },
    {
      "type": "library",
      "bom-ref": "pkg:composer/symfony/yaml@4.4.37",
      "group": "symfony",
      "name": "yaml",
      "version": "4.4.37",
      "description": "Loads and dumps YAML files",
      "licenses": [
        {
          "license": {
            "id": "MIT"
          }
        }
      ],
      "purl": "pkg:composer/symfony/yaml@4.4.37",
      "externalReferences": [
        {
          "url": "https://github.com/symfony/yaml.git",
          "type": "distribution",
          "comment": "As detected by composer's `getSourceUrls()` (type=git & reference=d7f637cc0f0cc14beb0984f2bb50da560b271311)"
        },
        {
          "url": "https://api.github.com/repos/symfony/yaml/zipball/d7f637cc0f0cc14beb0984f2bb50da560b271311",
          "type": "distribution",
          "comment": "As detected by composer's `getDistUrls()` (type=zip & reference=d7f637cc0f0cc14beb0984f2bb50da560b271311 & sha1=UNDEFINED)"
        },
        {
          "url": "https://symfony.com",
          "type": "website",
          "comment": "As set via `homepage` in composer package definition."
        },
        {
          "url": "https://github.com/symfony/yaml/tree/v4.4.37",
          "type": "distribution",
          "comment": "As set via `support.source` in composer package definition."
        },
        {
          "url": "https://symfony.com/sponsor",
          "type": "other",
          "comment": "As set via `funding` in composer package definition. (type=custom)"
        },
        {
          "url": "https://github.com/fabpot",
          "type": "other",
          "comment": "As set via `funding` in composer package definition. (type=github)"
        },
        {
          "url": "https://tidelift.com/funding/github/packagist/symfony/symfony",
          "type": "other",
          "comment": "As set via `funding` in composer package definition. (type=tidelift)"
        }
      ]
    },
    {
      "type": "library",
      "bom-ref": "pkg:composer/webmozart/assert@1.10.0",
      "group": "webmozart",
      "name": "assert",
      "version": "1.10.0",
      "description": "Assertions to validate method input/output with nice error messages.",
      "licenses": [
        {
          "license": {
            "id": "MIT"
          }
        }
      ],
      "purl": "pkg:composer/webmozart/assert@1.10.0",
      "externalReferences": [
        {
          "url": "https://github.com/webmozarts/assert.git",
          "type": "distribution",
          "comment": "As detected by composer's `getSourceUrls()` (type=git & reference=6964c76c7804814a842473e0c8fd15bab0f18e25)"
        },
        {
          "url": "https://api.github.com/repos/webmozarts/assert/zipball/6964c76c7804814a842473e0c8fd15bab0f18e25",
          "type": "distribution",
          "comment": "As detected by composer's `getDistUrls()` (type=zip & reference=6964c76c7804814a842473e0c8fd15bab0f18e25 & sha1=UNDEFINED)"
        },
        {
          "url": "https://github.com/webmozarts/assert/issues",
          "type": "issue-tracker",
          "comment": "As set via `support.issues` in composer package definition."
        },
        {
          "url": "https://github.com/webmozarts/assert/tree/1.10.0",
          "type": "distribution",
          "comment": "As set via `support.source` in composer package definition."
        }
      ]
    },
    {
      "type": "library",
      "bom-ref": "pkg:composer/symfony/polyfill-mbstring@1.19.0",
      "group": "symfony",
      "name": "polyfill-mbstring",
      "version": "1.19.0",
      "description": "Symfony polyfill for the Mbstring extension",
      "licenses": [
        {
          "license": {
            "id": "MIT",
            "url": "https://opensource.org/licenses/MIT"
          }
        }
      ],
      "purl": "pkg:composer/symfony/polyfill-mbstring@1.19.0",
      "externalReferences": [
        {
          "url": "https://github.com/symfony/polyfill-mbstring.git",
          "type": "vcs"
        }
      ]
    }
  ],
  "dependencies": [
    {
      "ref": "pkg:composer/cyclonedx/cyclonedx-library@1.5.0",
      "dependsOn": [
        "pkg:composer/package-url/packageurl-php@1.0.4",
        "pkg:composer/swaggest/json-schema@0.12.39"
      ]
    },
    {
      "ref": "pkg:composer/cyclonedx/cyclonedx-php-composer@3.10.0",
      "dependsOn": [
        "pkg:composer/cyclonedx/cyclonedx-library@1.5.0",
        "pkg:composer/package-url/packageurl-php@1.0.4"
      ]
    },
    {
      "ref": "pkg:composer/doctrine/instantiator@1.4.1"
    },
    {
      "ref": "pkg:composer/myclabs/deep-copy@1.11.0"
    },
    {
      "ref": "pkg:composer/package-url/packageurl-php@1.0.4"
    },
    {
      "ref": "pkg:composer/phpdocumentor/reflection-common@2.2.0"
    },
    {
      "ref": "pkg:composer/phpdocumentor/reflection-docblock@5.3.0",
      "dependsOn": [
        "pkg:composer/phpdocumentor/reflection-common@2.2.0",
        "pkg:composer/phpdocumentor/type-resolver@1.6.1",
        "pkg:composer/webmozart/assert@1.10.0"
      ]
    },
    {
      "ref": "pkg:composer/phpdocumentor/type-resolver@1.6.1",
      "dependsOn": [
        "pkg:composer/phpdocumentor/reflection-common@2.2.0"
      ]
    },
    {
      "ref": "pkg:composer/phplang/scope-exit@1.0.0"
    },
    {
      "ref": "pkg:composer/phpspec/prophecy@1.10.3",
      "dependsOn": [
        "pkg:composer/doctrine/instantiator@1.4.1",
        "pkg:composer/phpdocumentor/reflection-docblock@5.3.0",
        "pkg:composer/sebastian/comparator@1.2.4",
        "pkg:composer/sebastian/recursion-context@2.0.0"
      ]
    },
    {
      "ref": "pkg:composer/phpunit/php-code-coverage@4.0.8",
      "dependsOn": [
        "pkg:composer/phpunit/php-file-iterator@1.4.5",
        "pkg:composer/phpunit/php-text-template@1.2.1",
        "pkg:composer/phpunit/php-token-stream@2.0.2",
        "pkg:composer/sebastian/code-unit-reverse-lookup@1.0.2",
        "pkg:composer/sebastian/environment@2.0.0",
        "pkg:composer/sebastian/version@2.0.1"
      ]
    },
    {
      "ref": "pkg:composer/phpunit/php-file-iterator@1.4.5"
    },
    {
      "ref": "pkg:composer/phpunit/php-text-template@1.2.1"
    },
    {
      "ref": "pkg:composer/phpunit/php-timer@1.0.9"
    },
    {
      "ref": "pkg:composer/phpunit/php-token-stream@2.0.2"
    },
    {
      "ref": "pkg:composer/phpunit/phpunit@5.7.27",
      "dependsOn": [
        "pkg:composer/myclabs/deep-copy@1.11.0",
        "pkg:composer/phpspec/prophecy@1.10.3",
        "pkg:composer/phpunit/php-code-coverage@4.0.8",
        "pkg:composer/phpunit/php-file-iterator@1.4.5",
        "pkg:composer/phpunit/php-text-template@1.2.1",
        "pkg:composer/phpunit/php-timer@1.0.9",
        "pkg:composer/phpunit/phpunit-mock-objects@3.4.4",
        "pkg:composer/sebastian/comparator@1.2.4",
        "pkg:composer/sebastian/diff@1.4.3",
        "pkg:composer/sebastian/environment@2.0.0",
        "pkg:composer/sebastian/exporter@2.0.0",
        "pkg:composer/sebastian/global-state@1.1.1",
        "pkg:composer/sebastian/object-enumerator@2.0.1",
        "pkg:composer/sebastian/resource-operations@1.0.0",
        "pkg:composer/sebastian/version@2.0.1",
        "pkg:composer/symfony/yaml@4.4.37"
      ]
    },
    {
      "ref": "pkg:composer/phpunit/phpunit-mock-objects@3.4.4",
      "dependsOn": [
        "pkg:composer/doctrine/instantiator@1.4.1",
        "pkg:composer/phpunit/php-text-template@1.2.1",
        "pkg:composer/sebastian/exporter@2.0.0"
      ]
    },
    {
      "ref": "pkg:composer/sebastian/code-unit-reverse-lookup@1.0.2"
    },
    {
      "ref": "pkg:composer/sebastian/comparator@1.2.4",
      "dependsOn": [
        "pkg:composer/sebastian/diff@1.4.3",
        "pkg:composer/sebastian/exporter@2.0.0"
      ]
    },
    {
      "ref": "pkg:composer/sebastian/diff@1.4.3"
    },
    {
      "ref": "pkg:composer/sebastian/environment@2.0.0"
    },
    {
      "ref": "pkg:composer/sebastian/exporter@2.0.0",
      "dependsOn": [
        "pkg:composer/sebastian/recursion-context@2.0.0"
      ]
    },
    {
      "ref": "pkg:composer/sebastian/global-state@1.1.1"
    },
    {
      "ref": "pkg:composer/sebastian/object-enumerator@2.0.1",
      "dependsOn": [
        "pkg:composer/sebastian/recursion-context@2.0.0"
      ]
    },
    {
      "ref": "pkg:composer/sebastian/recursion-context@2.0.0"
    },
    {
      "ref": "pkg:composer/sebastian/resource-operations@1.0.0"
    },
    {
      "ref": "pkg:composer/sebastian/version@2.0.1"
    },
    {
      "ref": "pkg:composer/swaggest/json-diff@3.8.3"
    },
    {
      "ref": "pkg:composer/swaggest/json-schema@0.12.39",
      "dependsOn": [
        "pkg:composer/phplang/scope-exit@1.0.0",
        "pkg:composer/swaggest/json-diff@3.8.3",
        "pkg:composer/symfony/polyfill-mbstring@1.25.0"
      ]
    },
    {
      "ref": "pkg:composer/symfony/polyfill-ctype@1.25.0"
    },
    {
      "ref": "pkg:composer/symfony/polyfill-mbstring@1.25.0"
    },
    {
      "ref": "pkg:composer/symfony/yaml@4.4.37",
      "dependsOn": [
        "pkg:composer/symfony/polyfill-ctype@1.25.0"
      ]
    },
    {
      "ref": "pkg:composer/webmozart/assert@1.10.0",
      "dependsOn": [
        "pkg:composer/symfony/polyfill-ctype@1.25.0"
      ]
    },
    {
      "ref": "pkg:composer/mtdowling/cron-expression@dev-master",
      "dependsOn": [
        "pkg:composer/phpunit/phpunit@5.7.27",
        "pkg:composer/cyclonedx/cyclonedx-php-composer@3.10.0"
      ]
    }
  ]
}
