{
  "bomFormat": "CycloneDX",
  "specVersion": "1.3",
  "version": 2,
  "metadata": {
    "tools": [
      {
        "vendor": "CycloneDX",
        "name": "Node.js module",
        "version": "3.0.3"
      },
      {
        "vendor": "Fortress Information Security",
        "name": "Github Extractor",
        "version": "1.15.1"
      }
    ],
    "authors": [
      {
        "name": "Fortress Information Security",
        "email": "sales@fortressinfosec.com",
        "phone": "1-407-573-6800"
      }
    ],
    "timestamp": "2022-07-26T23:33:53Z",
    "component": {
      "type": "application",
      "name": "self-driving-car",
      "version": "",
      "group": "ndrplz",
      "externalReferences": [
        {
          "url": "https://github.com/ndrplz/self-driving-car.git",
          "type": "distribution"
        },
        {
          "type": "website",
          "url": "null",
          "comment": "As set via `homepage` in Github API"
        }
      ]
    }
  },
  "components": [
    {
      "type": "library",
      "publisher": "Michael Foord",
      "name": "unittest",
      "version": "0.0",
      "hashes": [
        {
          "alg": "MD5",
          "content": "2a416384f814604ed854d40f352f1191"
        },
        {
          "alg": "SHA-256",
          "content": "1b492484bea7f68abda5fcc61412e77b6a105e5842355d630f8b75f01add3555"
        }
      ],
      "purl": "pkg:pypi/unittest@0.0",
      "modified": false
    },
    {
      "type": "library",
      "publisher": "Travis E. Oliphant et al.",
      "name": "numpy",
      "version": "1.22.3",
      "description": "NumPy is the fundamental package for array computing with Python.",
      "hashes": [
        {
          "alg": "MD5",
          "content": "99d2dfb943327b108b2c3b923bd42000"
        },
        {
          "alg": "SHA-256",
          "content": "c34ea7e9d13a70bf2ab64a2532fe149a9aced424cd05a2c4ba662fd989e3e45f"
        }
      ],
      "licenses": [
        {
          "license": {
            "name": "BSD"
          }
        }
      ],
      "purl": "pkg:pypi/numpy@1.22.3",
      "modified": false
    },
    {
      "type": "library",
      "publisher": "Google Inc.",
      "name": "tensorflow",
      "version": "2.9.0",
      "description": "TensorFlow is an open source machine learning framework for everyone.",
      "hashes": [
        {
          "alg": "MD5",
          "content": "1cfa9da9b717760a82efdfc7137b6f6c"
        },
        {
          "alg": "SHA-256",
          "content": "bb17b23d96588c97869b58fd874887ea7e25efa69d80122f5a6d1a26e8cb897e"
        }
      ],
      "licenses": [
        {
          "license": {
            "name": "Apache 2.0"
          }
        }
      ],
      "purl": "pkg:pypi/tensorflow@2.9.0",
      "modified": false
    },
    {
      "type": "library",
      "name": "scipy",
      "version": "1.8.1",
      "description": "SciPy: Scientific Library for Python",
      "hashes": [
        {
          "alg": "MD5",
          "content": "12952c28f9b1b045598f04628d97c64b"
        },
        {
          "alg": "SHA-256",
          "content": "9dd4012ac599a1e7eb63c114d1eee1bcfc6dc75a29b589ff0ad0bb3d9412034f"
        }
      ],
      "licenses": [
        {
          "license": {
            "name": "BSD"
          }
        }
      ],
      "purl": "pkg:pypi/scipy@1.8.1",
      "modified": false
    },
    {
      "type": "library",
      "name": "tqdm",
      "version": "4.64.0",
      "description": "Fast, Extensible Progress Meter",
      "hashes": [
        {
          "alg": "MD5",
          "content": "67cd3830694b2a7e577d0db9e52a7830"
        },
        {
          "alg": "SHA-256",
          "content": "74a2cdefe14d11442cedf3ba4e21a3b84ff9a2dbdc6cfae2c34addb2a14a5ea6"
        }
      ],
      "licenses": [
        {
          "license": {
            "name": "MPLv2.0, MIT Licences"
          }
        }
      ],
      "purl": "pkg:pypi/tqdm@4.64.0",
      "modified": false
    },
    {
      "type": "library",
      "publisher": "John D. Hunter, Michael Droettboom",
      "name": "matplotlib",
      "version": "3.5.2",
      "description": "Python plotting package",
      "hashes": [
        {
          "alg": "MD5",
          "content": "36ccc2efc47ed886836b2c7c3d3b9b3a"
        },
        {
          "alg": "SHA-256",
          "content": "24173c23d1bcbaed5bf47b8785d27933a1ac26a5d772200a0f3e0e38f471b001"
        }
      ],
      "licenses": [
        {
          "license": {
            "name": "PSF"
          }
        }
      ],
      "purl": "pkg:pypi/matplotlib@3.5.2",
      "modified": false
    },
    {
      "type": "library",
      "publisher": "Thomas Waldmann",
      "name": "argparse",
      "version": "1.4.0",
      "description": "Python command-line parsing library",
      "hashes": [
        {
          "alg": "MD5",
          "content": "c37216a954c8669054e2b2c54853dd49"
        },
        {
          "alg": "SHA-256",
          "content": "c31647edb69fd3d465a847ea3157d37bed1f95f19760b11a47aa91c04b666314"
        }
      ],
      "licenses": [
        {
          "license": {
            "name": "Python Software Foundation License"
          }
        }
      ],
      "purl": "pkg:pypi/argparse@1.4.0",
      "modified": false
    },
    {
      "type": "library",
      "publisher": "Greg Ward",
      "name": "distutils",
      "version": "1.0",
      "description": "Python Distribution Utilities",
      "purl": "pkg:pypi/distutils@1.0",
      "modified": false
    },
    {
      "type": "library",
      "publisher": "Zulko 2017",
      "name": "moviepy",
      "version": "1.0.3",
      "description": "Video editing with Python",
      "hashes": [
        {
          "alg": "MD5",
          "content": "578066aa94112523e8a7ca844b2912b1"
        },
        {
          "alg": "SHA-256",
          "content": "2884e35d1788077db3ff89e763c5ba7bfddbd7ae9108c9bc809e7ba58fa433f5"
        }
      ],
      "licenses": [
        {
          "license": {
            "name": "MIT License"
          }
        }
      ],
      "purl": "pkg:pypi/moviepy@1.0.3",
      "modified": false
    },
    {
      "type": "library",
      "name": "sklearn",
      "version": "0.0",
      "description": "A set of python modules for machine learning and data mining",
      "hashes": [
        {
          "alg": "MD5",
          "content": "2f838446781e075ca99dfab2643a3199"
        },
        {
          "alg": "SHA-256",
          "content": "e23001573aa194b834122d2b9562459bf5ae494a2d59ca6b8aa22c85a44c0e31"
        }
      ],
      "purl": "pkg:pypi/sklearn@0.0",
      "modified": false
    },
    {
      "type": "library",
      "publisher": "Keras team",
      "name": "keras",
      "version": "2.9.0",
      "description": "Deep learning for humans.",
      "hashes": [
        {
          "alg": "MD5",
          "content": "8e6d6b4cf403e191d26b9196dd2608e1"
        },
        {
          "alg": "SHA-256",
          "content": "55911256f89cfc9343c9fbe4b61ec45a2d33d89729cbe1ab9dcacf8b07b8b6ab"
        }
      ],
      "licenses": [
        {
          "license": {
            "name": "Apache 2.0"
          }
        }
      ],
      "purl": "pkg:pypi/keras@2.9.0",
      "modified": false
    },
    {
      "type": "library",
      "publisher": "Stefan van der Walt",
      "name": "skimage",
      "version": "0.0",
      "description": "Dummy package that points to scikit-image",
      "hashes": [
        {
          "alg": "MD5",
          "content": "cba2d2397f9ee986e7cfad264390b217"
        },
        {
          "alg": "SHA-256",
          "content": "6c96a11d9deea68489c9b80b38fad1dcdab582c36d4fa093b99b24a3b30c38ec"
        }
      ],
      "purl": "pkg:pypi/skimage@0.0",
      "modified": false
    },
    {
      "type": "library",
      "publisher": "EvgrDan",
      "name": "socketio",
      "version": "0.2.1",
      "hashes": [
        {
          "alg": "MD5",
          "content": "afd28a388c908c9b06a1eb2bf0e4a67a"
        },
        {
          "alg": "SHA-256",
          "content": "dee5abde39c6021d9d1874582479a4e7f8a8352b38bc7731fb6b27b76976f62c"
        }
      ],
      "purl": "pkg:pypi/socketio@0.2.1",
      "modified": false
    },
    {
      "type": "library",
      "publisher": "Linden Lab",
      "name": "eventlet",
      "version": "0.33.1",
      "description": "Highly concurrent networking library",
      "hashes": [
        {
          "alg": "MD5",
          "content": "e7f64df9eba065111e1bde6997f4c82b"
        },
        {
          "alg": "SHA-256",
          "content": "a085922698e5029f820cf311a648ac324d73cec0e4792877609d978a4b5bbf31"
        }
      ],
      "purl": "pkg:pypi/eventlet@0.33.1",
      "modified": false
    },
    {
      "type": "library",
      "publisher": "Secret Labs AB (PythonWare)",
      "name": "PIL",
      "version": "1.1.6",
      "description": "Python Imaging Library",
      "licenses": [
        {
          "license": {
            "name": "Python (MIT style)"
          }
        }
      ],
      "purl": "pkg:pypi/pil@1.1.6",
      "modified": false
    },
    {
      "type": "library",
      "publisher": "Armin Ronacher",
      "name": "flask",
      "version": "2.1.2",
      "description": "A simple framework for building complex web applications.",
      "hashes": [
        {
          "alg": "MD5",
          "content": "07aede47b441c019aeebbeaed6a76215"
        },
        {
          "alg": "SHA-256",
          "content": "fad5b446feb0d6db6aec0c3184d16a8c1f6c3e464b511649c8918a9be100b4fe"
        }
      ],
      "licenses": [
        {
          "license": {
            "name": "BSD-3-Clause"
          }
        }
      ],
      "purl": "pkg:pypi/flask@2.1.2",
      "modified": false
    },
    {
      "type": "library",
      "name": "io",
      "version": "0.0.1",
      "purl": "pkg:pypi/io@0.0.1",
      "modified": false
    },
    {
      "type": "library",
      "publisher": "Dave Cole",
      "name": "csv",
      "version": "1.0",
      "description": "Fast CSV Parser for Python",
      "licenses": [
        {
          "license": {
            "name": "BSD"
          }
        }
      ],
      "purl": "pkg:pypi/csv@1.0",
      "modified": false
    }
  ]
}
