{
  "bomFormat": "CycloneDX",
  "specVersion": "1.3",
  "version": 1,
  "components": [
    {
      "type": "library",
      "publisher": "Marat Dukhan",
      "name": "ninja_syntax",
      "version": "1.7.2",
      "description": "Python module for generating .ninja files.",
      "hashes": [
        {
          "alg": "MD5",
          "content": "b0a1830787b8c58053fe01e6f146ab5f"
        },
        {
          "alg": "SHA-256",
          "content": "342dc97b9e88a6495bae22953ee6063f91d2f03db6f727b62ba5c3092a18ef1f"
        }
      ],
      "licenses": [
        {
          "license": {
            "name": "Apache License (2.0)"
          }
        }
      ],
      "purl": "pkg:pypi/ninja-syntax@1.7.2",
      "modified": false
    },
    {
      "type": "library",
      "publisher": "Michael Foord",
      "name": "unittest",
      "version": "0.0",
      "hashes": [
        {
          "alg": "MD5",
          "content": "2a416384f814604ed854d40f352f1191"
        },
        {
          "alg": "SHA-256",
          "content": "1b492484bea7f68abda5fcc61412e77b6a105e5842355d630f8b75f01add3555"
        }
      ],
      "purl": "pkg:pypi/unittest@0.0",
      "modified": false
    },
    {
      "type": "library",
      "publisher": "Thomas Waldmann",
      "name": "argparse",
      "version": "1.4.0",
      "description": "Python command-line parsing library",
      "hashes": [
        {
          "alg": "MD5",
          "content": "c37216a954c8669054e2b2c54853dd49"
        },
        {
          "alg": "SHA-256",
          "content": "c31647edb69fd3d465a847ea3157d37bed1f95f19760b11a47aa91c04b666314"
        }
      ],
      "licenses": [
        {
          "license": {
            "name": "Python Software Foundation License"
          }
        }
      ],
      "purl": "pkg:pypi/argparse@1.4.0",
      "modified": false
    },
    {
      "type": "library",
      "publisher": "Richard Jones",
      "name": "html",
      "version": "1.16",
      "description": "simple, elegant HTML, XHTML and XML generation",
      "hashes": [
        {
          "alg": "MD5",
          "content": "39b9db7cdcc84607828be021172d441f"
        },
        {
          "alg": "SHA-256",
          "content": "ebc768f23b54a71350d731a75f2ef3a4a4dbdad9ae68d58b527664b66088e456"
        }
      ],
      "purl": "pkg:pypi/html@1.16",
      "modified": false
    }
  ],
  "metadata": {
    "tools": [
      {
        "vendor": "Fortress Information Security",
        "name": "Github Extractor",
        "version": "1.15.1"
      }
    ],
    "authors": [
      {
        "name": "Fortress Information Security",
        "email": "sales@fortressinfosec.com",
        "phone": "1-407-573-6800"
      }
    ],
    "timestamp": "2022-06-01T21:00:00Z",
    "component": {
      "type": "application",
      "name": "ninja",
      "version": "v1.11.0",
      "group": "ninja-build",
      "externalReferences": [
        {
          "url": "https://github.com/ninja-build/ninja.git",
          "type": "distribution"
        },
        {
          "type": "website",
          "url": "https://ninja-build.org/",
          "comment": "As set via `homepage` in Github API"
        }
      ]
    }
  }
}
