{
  "bomFormat": "CycloneDX",
  "specVersion": "1.3",
  "version": 2,
  "metadata": {
    "tools": [
      {
        "vendor": "CycloneDX",
        "name": "cyclonedx-gomod",
        "version": "v0.0.0-unset",
        "hashes": [
          {
            "alg": "MD5",
            "content": "a35776fc9417e8071d3f1dcfa2f1dd19"
          },
          {
            "alg": "SHA-1",
            "content": "a19a8eed713eff5a2092e5283c201a146f19421d"
          },
          {
            "alg": "SHA-256",
            "content": "17b3b980b9a5d0f48ad52043dee5b31aff3ae6599a36bc94224dc7b6a46759ef"
          },
          {
            "alg": "SHA-512",
            "content": "9d4f06aab20cede94a1aedf11a300ae9de98871235c68c72e421cd6d45495910861b39e743ee0eceb11bbdcd2c9acc3312c19064cfe90177243fb43127fcfa46"
          }
        ]
      },
      {
        "vendor": "AppThreat",
        "name": "cdxgen",
        "version": "3.0.10"
      },
      {
        "vendor": "Fortress Information Security",
        "name": "Github Extractor",
        "version": "1.15.1"
      }
    ],
    "authors": [
      {
        "name": "Fortress Information Security",
        "email": "sales@fortressinfosec.com",
        "phone": "1-407-573-6800"
      }
    ],
    "timestamp": "2022-07-26T23:36:17Z",
    "component": {
      "type": "application",
      "name": "dockertest",
      "version": "v3.9.1",
      "group": "ory",
      "externalReferences": [
        {
          "url": "https://github.com/ory/dockertest.git",
          "type": "distribution"
        },
        {
          "type": "website",
          "url": "https://www.ory.sh/?utm_source=github&utm_medium=banner&utm_campaign=dockertest",
          "comment": "As set via `homepage` in Github API"
        }
      ]
    }
  },
  "components": [
    {
      "type": "library",
      "bom-ref": "pkg:golang/github.com/Azure/go-ansiterm@v0.0.0-20170929234023-d6e3b3328b78",
      "name": "github.com/Azure/go-ansiterm",
      "version": "v0.0.0-20170929234023-d6e3b3328b78",
      "scope": "required",
      "hashes": [
        {
          "alg": "SHA-256",
          "content": "c3e888b1a39035c4fb399e7be70f9a707811ae2739882c9087ec6ff8a2781c1f"
        }
      ],
      "purl": "pkg:golang/github.com/Azure/go-ansiterm@v0.0.0-20170929234023-d6e3b3328b78",
      "externalReferences": [
        {
          "url": "https://github.com/Azure/go-ansiterm",
          "type": "vcs"
        }
      ]
    },
    {
      "type": "library",
      "bom-ref": "pkg:golang/github.com/Microsoft/go-winio@v0.5.2",
      "name": "github.com/Microsoft/go-winio",
      "version": "v0.5.2",
      "scope": "required",
      "hashes": [
        {
          "alg": "SHA-256",
          "content": "6bd221804401094124e9009d9a5f428891a1030b3e6307df0c710ca7554cae90"
        }
      ],
      "purl": "pkg:golang/github.com/Microsoft/go-winio@v0.5.2",
      "externalReferences": [
        {
          "url": "https://github.com/Microsoft/go-winio",
          "type": "vcs"
        }
      ]
    },
    {
      "type": "library",
      "bom-ref": "pkg:golang/github.com/Nvveen/Gotty@v0.0.0-20120604004816-cd527374f1e5",
      "name": "github.com/Nvveen/Gotty",
      "version": "v0.0.0-20120604004816-cd527374f1e5",
      "scope": "required",
      "hashes": [
        {
          "alg": "SHA-256",
          "content": "4e78160aa1efcbda1700dea5115311b94db53d1d44b4b559266741d7c1aedd1c"
        }
      ],
      "purl": "pkg:golang/github.com/Nvveen/Gotty@v0.0.0-20120604004816-cd527374f1e5",
      "externalReferences": [
        {
          "url": "https://github.com/Nvveen/Gotty",
          "type": "vcs"
        }
      ]
    },
    {
      "type": "library",
      "bom-ref": "pkg:golang/github.com/cenkalti/backoff/v4@v4.1.3",
      "name": "github.com/cenkalti/backoff/v4",
      "version": "v4.1.3",
      "scope": "required",
      "hashes": [
        {
          "alg": "SHA-256",
          "content": "705025cd85255580f2b01107d93e61c8964c877fb9f96081bd29cae90f14b42e"
        }
      ],
      "purl": "pkg:golang/github.com/cenkalti/backoff/v4@v4.1.3",
      "externalReferences": [
        {
          "url": "https://github.com/cenkalti/backoff",
          "type": "vcs"
        }
      ]
    },
    {
      "type": "library",
      "bom-ref": "pkg:golang/github.com/containerd/continuity@v0.3.0",
      "name": "github.com/containerd/continuity",
      "version": "v0.3.0",
      "scope": "required",
      "hashes": [
        {
          "alg": "SHA-256",
          "content": "9e2b22aec61138ad794c0315ba424e5321898f3e0135024156c36f017649fde8"
        }
      ],
      "purl": "pkg:golang/github.com/containerd/continuity@v0.3.0",
      "externalReferences": [
        {
          "url": "https://github.com/containerd/continuity",
          "type": "vcs"
        }
      ]
    },
    {
      "type": "library",
      "bom-ref": "pkg:golang/github.com/docker/cli@v20.10.14",
      "name": "github.com/docker/cli",
      "version": "v20.10.14",
      "scope": "required",
      "hashes": [
        {
          "alg": "SHA-256",
          "content": "b96a9ee6e02b402407303b757317bed323ec03ac17a7a48ea5c675ce907aba74"
        }
      ],
      "purl": "pkg:golang/github.com/docker/cli@v20.10.14",
      "externalReferences": [
        {
          "url": "https://github.com/docker/cli",
          "type": "vcs"
        }
      ]
    },
    {
      "type": "library",
      "bom-ref": "pkg:golang/github.com/docker/docker@v20.10.7",
      "name": "github.com/docker/docker",
      "version": "v20.10.7",
      "scope": "required",
      "hashes": [
        {
          "alg": "SHA-256",
          "content": "68c31c9fe3f2f4acb394eebf26bd80be0191700fd94fabcdbe104c2bd639f35b"
        }
      ],
      "purl": "pkg:golang/github.com/docker/docker@v20.10.7",
      "externalReferences": [
        {
          "url": "https://github.com/docker/docker",
          "type": "vcs"
        }
      ]
    },
    {
      "type": "library",
      "bom-ref": "pkg:golang/github.com/docker/go-connections@v0.4.0",
      "name": "github.com/docker/go-connections",
      "version": "v0.4.0",
      "scope": "required",
      "hashes": [
        {
          "alg": "SHA-256",
          "content": "125f7154849e95107b06e16eb2b668ce39e420ce589f309588d2a884016a4494"
        }
      ],
      "purl": "pkg:golang/github.com/docker/go-connections@v0.4.0",
      "externalReferences": [
        {
          "url": "https://github.com/docker/go-connections",
          "type": "vcs"
        }
      ]
    },
    {
      "type": "library",
      "bom-ref": "pkg:golang/github.com/docker/go-units@v0.4.0",
      "name": "github.com/docker/go-units",
      "version": "v0.4.0",
      "scope": "required",
      "hashes": [
        {
          "alg": "SHA-256",
          "content": "dee8743e0570b379c803443e3300c2f328c43dff738d17d96565d960372ddd3c"
        }
      ],
      "purl": "pkg:golang/github.com/docker/go-units@v0.4.0",
      "externalReferences": [
        {
          "url": "https://github.com/docker/go-units",
          "type": "vcs"
        }
      ]
    },
    {
      "type": "library",
      "bom-ref": "pkg:golang/github.com/gogo/protobuf@v1.3.2",
      "name": "github.com/gogo/protobuf",
      "version": "v1.3.2",
      "scope": "required",
      "hashes": [
        {
          "alg": "SHA-256",
          "content": "3afd5cbdce7c505ddbe578c19d9bfbfa8a5c4dc40565e6d88d6ce2df8bdd9b84"
        }
      ],
      "purl": "pkg:golang/github.com/gogo/protobuf@v1.3.2",
      "externalReferences": [
        {
          "url": "https://github.com/gogo/protobuf",
          "type": "vcs"
        }
      ]
    },
    {
      "type": "library",
      "bom-ref": "pkg:golang/github.com/google/shlex@v0.0.0-20191202100458-e7afc7fbc510",
      "name": "github.com/google/shlex",
      "version": "v0.0.0-20191202100458-e7afc7fbc510",
      "scope": "required",
      "hashes": [
        {
          "alg": "SHA-256",
          "content": "125e8ce244d308e87a68188a694186ee861348f3fc331a8be182379192b070fe"
        }
      ],
      "purl": "pkg:golang/github.com/google/shlex@v0.0.0-20191202100458-e7afc7fbc510",
      "externalReferences": [
        {
          "url": "https://github.com/google/shlex",
          "type": "vcs"
        }
      ]
    },
    {
      "type": "library",
      "bom-ref": "pkg:golang/github.com/imdario/mergo@v0.3.12",
      "name": "github.com/imdario/mergo",
      "version": "v0.3.12",
      "scope": "required",
      "hashes": [
        {
          "alg": "SHA-256",
          "content": "6fa47606c9536c8113a002ca3fb2f152f8a34ec348f5301ef34a4b58dda0fc75"
        }
      ],
      "purl": "pkg:golang/github.com/imdario/mergo@v0.3.12",
      "externalReferences": [
        {
          "url": "https://github.com/imdario/mergo",
          "type": "vcs"
        }
      ]
    },
    {
      "type": "library",
      "bom-ref": "pkg:golang/github.com/mitchellh/mapstructure@v1.4.1",
      "name": "github.com/mitchellh/mapstructure",
      "version": "v1.4.1",
      "scope": "required",
      "hashes": [
        {
          "alg": "SHA-256",
          "content": "0a954d11e950099068a083c39fe011dcda62bcafd320a53c6c3c5d01215541a8"
        }
      ],
      "purl": "pkg:golang/github.com/mitchellh/mapstructure@v1.4.1",
      "externalReferences": [
        {
          "url": "https://github.com/mitchellh/mapstructure",
          "type": "vcs"
        }
      ]
    },
    {
      "type": "library",
      "bom-ref": "pkg:golang/github.com/moby/term@v0.0.0-20201216013528-df9cb8a40635",
      "name": "github.com/moby/term",
      "version": "v0.0.0-20201216013528-df9cb8a40635",
      "scope": "required",
      "hashes": [
        {
          "alg": "SHA-256",
          "content": "af37f4c0bd021d573c084b20cb2806d0c9fd08d0823d9a8e3dacfc4628876109"
        }
      ],
      "purl": "pkg:golang/github.com/moby/term@v0.0.0-20201216013528-df9cb8a40635",
      "externalReferences": [
        {
          "url": "https://github.com/moby/term",
          "type": "vcs"
        }
      ]
    },
    {
      "type": "library",
      "bom-ref": "pkg:golang/github.com/opencontainers/go-digest@v1.0.0",
      "name": "github.com/opencontainers/go-digest",
      "version": "v1.0.0",
      "scope": "required",
      "hashes": [
        {
          "alg": "SHA-256",
          "content": "6a93945ace755b93e586ec86cb3f4509e78120e50303fea75bc3a2ff23a18795"
        }
      ],
      "purl": "pkg:golang/github.com/opencontainers/go-digest@v1.0.0",
      "externalReferences": [
        {
          "url": "https://github.com/opencontainers/go-digest",
          "type": "vcs"
        }
      ]
    },
    {
      "type": "library",
      "bom-ref": "pkg:golang/github.com/opencontainers/image-spec@v1.0.2",
      "name": "github.com/opencontainers/image-spec",
      "version": "v1.0.2",
      "scope": "required",
      "hashes": [
        {
          "alg": "SHA-256",
          "content": "f7208a85afd3e57746b4ed2af50f5ae93e4d502b139ff0eb060d03eee7ce7053"
        }
      ],
      "purl": "pkg:golang/github.com/opencontainers/image-spec@v1.0.2",
      "externalReferences": [
        {
          "url": "https://github.com/opencontainers/image-spec",
          "type": "vcs"
        }
      ]
    },
    {
      "type": "library",
      "bom-ref": "pkg:golang/github.com/opencontainers/runc@v1.1.1",
      "name": "github.com/opencontainers/runc",
      "version": "v1.1.1",
      "scope": "required",
      "hashes": [
        {
          "alg": "SHA-256",
          "content": "3c9f434acdac570134895afefa900713a4244bdb737155a8ce53e27ddc0c82b5"
        }
      ],
      "purl": "pkg:golang/github.com/opencontainers/runc@v1.1.1",
      "externalReferences": [
        {
          "url": "https://github.com/opencontainers/runc",
          "type": "vcs"
        }
      ]
    },
    {
      "type": "library",
      "bom-ref": "pkg:golang/github.com/pkg/errors@v0.9.1",
      "name": "github.com/pkg/errors",
      "version": "v0.9.1",
      "scope": "required",
      "hashes": [
        {
          "alg": "SHA-256",
          "content": "14404bc75cd2db5e28c298f2eeab017a2c5b51192e850030acae54c0b193c2de"
        }
      ],
      "purl": "pkg:golang/github.com/pkg/errors@v0.9.1",
      "externalReferences": [
        {
          "url": "https://github.com/pkg/errors",
          "type": "vcs"
        }
      ]
    },
    {
      "type": "library",
      "bom-ref": "pkg:golang/github.com/sirupsen/logrus@v1.8.1",
      "name": "github.com/sirupsen/logrus",
      "version": "v1.8.1",
      "scope": "required",
      "hashes": [
        {
          "alg": "SHA-256",
          "content": "7492ae1e0aa4d4d35096aa00e814e533559ff43387dcd063432bb487df806591"
        }
      ],
      "purl": "pkg:golang/github.com/sirupsen/logrus@v1.8.1",
      "externalReferences": [
        {
          "url": "https://github.com/sirupsen/logrus",
          "type": "vcs"
        }
      ]
    },
    {
      "type": "library",
      "bom-ref": "pkg:golang/github.com/xeipuuv/gojsonpointer@v0.0.0-20180127040702-4e3ac2762d5f",
      "name": "github.com/xeipuuv/gojsonpointer",
      "version": "v0.0.0-20180127040702-4e3ac2762d5f",
      "scope": "required",
      "hashes": [
        {
          "alg": "SHA-256",
          "content": "27d106a5c66d3f413fadaa2b08cc6514649306bb1295a0c67f78d4feabc01367"
        }
      ],
      "purl": "pkg:golang/github.com/xeipuuv/gojsonpointer@v0.0.0-20180127040702-4e3ac2762d5f",
      "externalReferences": [
        {
          "url": "https://github.com/xeipuuv/gojsonpointer",
          "type": "vcs"
        }
      ]
    },
    {
      "type": "library",
      "bom-ref": "pkg:golang/github.com/xeipuuv/gojsonreference@v0.0.0-20180127040603-bd5ef7bd5415",
      "name": "github.com/xeipuuv/gojsonreference",
      "version": "v0.0.0-20180127040603-bd5ef7bd5415",
      "scope": "required",
      "hashes": [
        {
          "alg": "SHA-256",
          "content": "133256807a2fa27b7b36c723a40c57b0303c4bc04c62f7bc639fbb72e444ed1d"
        }
      ],
      "purl": "pkg:golang/github.com/xeipuuv/gojsonreference@v0.0.0-20180127040603-bd5ef7bd5415",
      "externalReferences": [
        {
          "url": "https://github.com/xeipuuv/gojsonreference",
          "type": "vcs"
        }
      ]
    },
    {
      "type": "library",
      "bom-ref": "pkg:golang/github.com/xeipuuv/gojsonschema@v1.2.0",
      "name": "github.com/xeipuuv/gojsonschema",
      "version": "v1.2.0",
      "scope": "required",
      "hashes": [
        {
          "alg": "SHA-256",
          "content": "2e160946cf8be1f06d8d951fb92648286795bb4411cbc7b95e2ec3d7b53167be"
        }
      ],
      "purl": "pkg:golang/github.com/xeipuuv/gojsonschema@v1.2.0",
      "externalReferences": [
        {
          "url": "https://github.com/xeipuuv/gojsonschema",
          "type": "vcs"
        }
      ]
    },
    {
      "type": "library",
      "bom-ref": "pkg:golang/golang.org/x/net@v0.0.0-20201224014010-6772e930b67b",
      "name": "golang.org/x/net",
      "version": "v0.0.0-20201224014010-6772e930b67b",
      "scope": "required",
      "hashes": [
        {
          "alg": "SHA-256",
          "content": "885c1283bb79199981fd0e538e2100b1da0b0eb749442d51885d9686e576f50c"
        }
      ],
      "purl": "pkg:golang/golang.org/x/net@v0.0.0-20201224014010-6772e930b67b"
    },
    {
      "type": "library",
      "bom-ref": "pkg:golang/golang.org/x/sys@v0.0.0-20220412211240-33da011f77ad",
      "name": "golang.org/x/sys",
      "version": "v0.0.0-20220412211240-33da011f77ad",
      "scope": "required",
      "hashes": [
        {
          "alg": "SHA-256",
          "content": "9ed8cc9ece70c8ffdf37ae6d7410f883c279c3c9f4d79fa2208b3daed8d7918d"
        }
      ],
      "purl": "pkg:golang/golang.org/x/sys@v0.0.0-20220412211240-33da011f77ad"
    },
    {
      "type": "library",
      "bom-ref": "pkg:golang/gopkg.in/yaml.v2@v2.3.0",
      "name": "gopkg.in/yaml.v2",
      "version": "v2.3.0",
      "scope": "required",
      "hashes": [
        {
          "alg": "SHA-256",
          "content": "725c940101ce3371b43377f9bd08fb2ee26b113be3568b776797a5f677df52d5"
        }
      ],
      "purl": "pkg:golang/gopkg.in/yaml.v2@v2.3.0",
      "externalReferences": [
        {
          "url": "https://github.com/go-yaml/yaml",
          "type": "vcs"
        }
      ]
    },
    {
      "type": "library",
      "bom-ref": "pkg:golang/github.com/docker/cli@v20.10.14+incompatible",
      "group": "github.com/docker",
      "name": "cli",
      "version": "v20.10.14+incompatible",
      "description": "",
      "scope": "optional",
      "hashes": [
        {
          "alg": "SHA-256",
          "content": "24baf3aa7283698068a7b1f68daa8fb54e211ef30a3febe30b0bb6baccdc2c8f"
        }
      ],
      "purl": "pkg:golang/github.com/docker/cli@v20.10.14+incompatible"
    },
    {
      "type": "library",
      "bom-ref": "pkg:golang/github.com/docker/docker@v20.10.7+incompatible",
      "group": "github.com/docker",
      "name": "docker",
      "version": "v20.10.7+incompatible",
      "description": "",
      "scope": "optional",
      "hashes": [
        {
          "alg": "SHA-256",
          "content": "784281d0dd2be4d5ff235904bde133d396dcbbcb4b0bff1acc966cbe2ba9f129"
        }
      ],
      "purl": "pkg:golang/github.com/docker/docker@v20.10.7+incompatible"
    },
    {
      "type": "library",
      "bom-ref": "pkg:golang/github.com/ory/dockertest/v3",
      "group": "github.com/ory/dockertest",
      "name": "v3",
      "version": "",
      "description": "",
      "scope": "required",
      "purl": "pkg:golang/github.com/ory/dockertest/v3"
    }
  ],
  "dependencies": [
    {
      "ref": "pkg:golang/github.com/Azure/go-ansiterm@v0.0.0-20170929234023-d6e3b3328b78"
    },
    {
      "ref": "pkg:golang/github.com/Microsoft/go-winio@v0.5.2",
      "dependsOn": [
        "pkg:golang/github.com/sirupsen/logrus@v1.8.1",
        "pkg:golang/golang.org/x/sys@v0.0.0-20220412211240-33da011f77ad"
      ]
    },
    {
      "ref": "pkg:golang/github.com/Nvveen/Gotty@v0.0.0-20120604004816-cd527374f1e5"
    },
    {
      "ref": "pkg:golang/github.com/cenkalti/backoff/v4@v4.1.3"
    },
    {
      "ref": "pkg:golang/github.com/containerd/continuity@v0.3.0",
      "dependsOn": [
        "pkg:golang/github.com/Microsoft/go-winio@v0.5.2",
        "pkg:golang/github.com/opencontainers/go-digest@v1.0.0",
        "pkg:golang/github.com/sirupsen/logrus@v1.8.1",
        "pkg:golang/golang.org/x/sys@v0.0.0-20220412211240-33da011f77ad"
      ]
    },
    {
      "ref": "pkg:golang/github.com/docker/cli@v20.10.14"
    },
    {
      "ref": "pkg:golang/github.com/docker/docker@v20.10.7"
    },
    {
      "ref": "pkg:golang/github.com/docker/go-connections@v0.4.0"
    },
    {
      "ref": "pkg:golang/github.com/docker/go-units@v0.4.0"
    },
    {
      "ref": "pkg:golang/github.com/gogo/protobuf@v1.3.2"
    },
    {
      "ref": "pkg:golang/github.com/google/shlex@v0.0.0-20191202100458-e7afc7fbc510"
    },
    {
      "ref": "pkg:golang/github.com/imdario/mergo@v0.3.12",
      "dependsOn": [
        "pkg:golang/gopkg.in/yaml.v2@v2.3.0"
      ]
    },
    {
      "ref": "pkg:golang/github.com/mitchellh/mapstructure@v1.4.1"
    },
    {
      "ref": "pkg:golang/github.com/moby/term@v0.0.0-20201216013528-df9cb8a40635",
      "dependsOn": [
        "pkg:golang/github.com/Azure/go-ansiterm@v0.0.0-20170929234023-d6e3b3328b78",
        "pkg:golang/github.com/pkg/errors@v0.9.1",
        "pkg:golang/golang.org/x/sys@v0.0.0-20220412211240-33da011f77ad"
      ]
    },
    {
      "ref": "pkg:golang/github.com/opencontainers/go-digest@v1.0.0"
    },
    {
      "ref": "pkg:golang/github.com/opencontainers/image-spec@v1.0.2"
    },
    {
      "ref": "pkg:golang/github.com/opencontainers/runc@v1.1.1",
      "dependsOn": [
        "pkg:golang/github.com/docker/go-units@v0.4.0",
        "pkg:golang/github.com/sirupsen/logrus@v1.8.1",
        "pkg:golang/golang.org/x/net@v0.0.0-20201224014010-6772e930b67b",
        "pkg:golang/golang.org/x/sys@v0.0.0-20220412211240-33da011f77ad"
      ]
    },
    {
      "ref": "pkg:golang/github.com/pkg/errors@v0.9.1"
    },
    {
      "ref": "pkg:golang/github.com/sirupsen/logrus@v1.8.1",
      "dependsOn": [
        "pkg:golang/golang.org/x/sys@v0.0.0-20220412211240-33da011f77ad"
      ]
    },
    {
      "ref": "pkg:golang/github.com/xeipuuv/gojsonpointer@v0.0.0-20180127040702-4e3ac2762d5f"
    },
    {
      "ref": "pkg:golang/github.com/xeipuuv/gojsonreference@v0.0.0-20180127040603-bd5ef7bd5415"
    },
    {
      "ref": "pkg:golang/github.com/xeipuuv/gojsonschema@v1.2.0",
      "dependsOn": [
        "pkg:golang/github.com/xeipuuv/gojsonpointer@v0.0.0-20180127040702-4e3ac2762d5f",
        "pkg:golang/github.com/xeipuuv/gojsonreference@v0.0.0-20180127040603-bd5ef7bd5415"
      ]
    },
    {
      "ref": "pkg:golang/golang.org/x/net@v0.0.0-20201224014010-6772e930b67b",
      "dependsOn": [
        "pkg:golang/golang.org/x/sys@v0.0.0-20220412211240-33da011f77ad"
      ]
    },
    {
      "ref": "pkg:golang/golang.org/x/sys@v0.0.0-20220412211240-33da011f77ad"
    },
    {
      "ref": "pkg:golang/gopkg.in/yaml.v2@v2.3.0"
    },
    {
      "ref": "pkg:golang/github.com/ory/dockertest/v3@v0.0.0-20220425161607-148c3da5afe5",
      "dependsOn": [
        "pkg:golang/github.com/Azure/go-ansiterm@v0.0.0-20170929234023-d6e3b3328b78",
        "pkg:golang/github.com/Microsoft/go-winio@v0.5.2",
        "pkg:golang/github.com/Nvveen/Gotty@v0.0.0-20120604004816-cd527374f1e5",
        "pkg:golang/github.com/cenkalti/backoff/v4@v4.1.3",
        "pkg:golang/github.com/containerd/continuity@v0.3.0",
        "pkg:golang/github.com/docker/cli@v20.10.14",
        "pkg:golang/github.com/docker/docker@v20.10.7",
        "pkg:golang/github.com/docker/go-connections@v0.4.0",
        "pkg:golang/github.com/docker/go-units@v0.4.0",
        "pkg:golang/github.com/gogo/protobuf@v1.3.2",
        "pkg:golang/github.com/google/shlex@v0.0.0-20191202100458-e7afc7fbc510",
        "pkg:golang/github.com/imdario/mergo@v0.3.12",
        "pkg:golang/github.com/mitchellh/mapstructure@v1.4.1",
        "pkg:golang/github.com/moby/term@v0.0.0-20201216013528-df9cb8a40635",
        "pkg:golang/github.com/opencontainers/go-digest@v1.0.0",
        "pkg:golang/github.com/opencontainers/image-spec@v1.0.2",
        "pkg:golang/github.com/opencontainers/runc@v1.1.1",
        "pkg:golang/github.com/pkg/errors@v0.9.1",
        "pkg:golang/github.com/sirupsen/logrus@v1.8.1",
        "pkg:golang/github.com/xeipuuv/gojsonpointer@v0.0.0-20180127040702-4e3ac2762d5f",
        "pkg:golang/github.com/xeipuuv/gojsonreference@v0.0.0-20180127040603-bd5ef7bd5415",
        "pkg:golang/github.com/xeipuuv/gojsonschema@v1.2.0",
        "pkg:golang/golang.org/x/net@v0.0.0-20201224014010-6772e930b67b",
        "pkg:golang/golang.org/x/sys@v0.0.0-20220412211240-33da011f77ad",
        "pkg:golang/gopkg.in/yaml.v2@v2.3.0"
      ]
    }
  ]
}
