{
  "bomFormat": "CycloneDX",
  "specVersion": "1.3",
  "version": 2,
  "metadata": {
    "tools": [
      {
        "vendor": "CycloneDX",
        "name": "cyclonedx-gomod",
        "version": "v0.0.0-unset",
        "hashes": [
          {
            "alg": "MD5",
            "content": "a35776fc9417e8071d3f1dcfa2f1dd19"
          },
          {
            "alg": "SHA-1",
            "content": "a19a8eed713eff5a2092e5283c201a146f19421d"
          },
          {
            "alg": "SHA-256",
            "content": "17b3b980b9a5d0f48ad52043dee5b31aff3ae6599a36bc94224dc7b6a46759ef"
          },
          {
            "alg": "SHA-512",
            "content": "9d4f06aab20cede94a1aedf11a300ae9de98871235c68c72e421cd6d45495910861b39e743ee0eceb11bbdcd2c9acc3312c19064cfe90177243fb43127fcfa46"
          }
        ]
      },
      {
        "vendor": "AppThreat",
        "name": "cdxgen",
        "version": "3.0.10"
      },
      {
        "vendor": "Fortress Information Security",
        "name": "Github Extractor",
        "version": "1.15.1"
      }
    ],
    "authors": [
      {
        "name": "Fortress Information Security",
        "email": "sales@fortressinfosec.com",
        "phone": "1-407-573-6800"
      }
    ],
    "timestamp": "2022-07-26T23:36:36Z",
    "component": {
      "type": "application",
      "name": "ccat",
      "version": "v1.1.0",
      "group": "owenthereal",
      "externalReferences": [
        {
          "url": "https://github.com/owenthereal/ccat.git",
          "type": "distribution"
        }
      ]
    }
  },
  "components": [
    {
      "type": "library",
      "bom-ref": "pkg:golang/github.com/inconshreveable/mousetrap@v1.0.0",
      "name": "github.com/inconshreveable/mousetrap",
      "version": "v1.0.0",
      "scope": "required",
      "hashes": [
        {
          "alg": "SHA-256",
          "content": "67cb6ee6cada2d709721c011c41a7ff1c6ef97055aed9d4d1e0f5710a86d4af3"
        }
      ],
      "purl": "pkg:golang/github.com/inconshreveable/mousetrap@v1.0.0",
      "externalReferences": [
        {
          "url": "https://github.com/inconshreveable/mousetrap",
          "type": "vcs"
        }
      ]
    },
    {
      "type": "library",
      "bom-ref": "pkg:golang/github.com/mattn/go-colorable@v0.0.6",
      "name": "github.com/mattn/go-colorable",
      "version": "v0.0.6",
      "scope": "required",
      "hashes": [
        {
          "alg": "SHA-256",
          "content": "8c6aa53a80a3a9547885f4cef47d6aad1db18b4c59358997d93d71970ecfefd7"
        }
      ],
      "purl": "pkg:golang/github.com/mattn/go-colorable@v0.0.6",
      "externalReferences": [
        {
          "url": "https://github.com/mattn/go-colorable",
          "type": "vcs"
        }
      ]
    },
    {
      "type": "library",
      "bom-ref": "pkg:golang/github.com/mattn/go-isatty@v0.0.2",
      "name": "github.com/mattn/go-isatty",
      "version": "v0.0.2",
      "scope": "required",
      "hashes": [
        {
          "alg": "SHA-256",
          "content": "17e0e75a4b7269dc673aba2128b3540bdfc68c58a2e512606381851ba8a5820c"
        }
      ],
      "purl": "pkg:golang/github.com/mattn/go-isatty@v0.0.2",
      "externalReferences": [
        {
          "url": "https://github.com/mattn/go-isatty",
          "type": "vcs"
        }
      ]
    },
    {
      "type": "library",
      "bom-ref": "pkg:golang/github.com/sourcegraph/annotate@v0.0.0-20160123013949-f4cad6c6324d",
      "name": "github.com/sourcegraph/annotate",
      "version": "v0.0.0-20160123013949-f4cad6c6324d",
      "scope": "required",
      "hashes": [
        {
          "alg": "SHA-256",
          "content": "c8a9bb5d957a8fd12fea5a233f65da22c8694f8ca692a84c7928213b93ecd341"
        }
      ],
      "purl": "pkg:golang/github.com/sourcegraph/annotate@v0.0.0-20160123013949-f4cad6c6324d",
      "externalReferences": [
        {
          "url": "https://github.com/sourcegraph/annotate",
          "type": "vcs"
        }
      ]
    },
    {
      "type": "library",
      "bom-ref": "pkg:golang/github.com/sourcegraph/syntaxhighlight@v0.0.0-20170531221838-bd320f5d308e",
      "name": "github.com/sourcegraph/syntaxhighlight",
      "version": "v0.0.0-20170531221838-bd320f5d308e",
      "scope": "required",
      "hashes": [
        {
          "alg": "SHA-256",
          "content": "aa91bdddc3f00397fbb3f64f0499c639840d2bfbcab1a0dab1eb8a4f902c79ef"
        }
      ],
      "purl": "pkg:golang/github.com/sourcegraph/syntaxhighlight@v0.0.0-20170531221838-bd320f5d308e",
      "externalReferences": [
        {
          "url": "https://github.com/sourcegraph/syntaxhighlight",
          "type": "vcs"
        }
      ]
    },
    {
      "type": "library",
      "bom-ref": "pkg:golang/github.com/spf13/cobra@v0.0.0-20170711120833-c46add8a6528",
      "name": "github.com/spf13/cobra",
      "version": "v0.0.0-20170711120833-c46add8a6528",
      "scope": "required",
      "hashes": [
        {
          "alg": "SHA-256",
          "content": "264113fdc3a3a0bd3fea66792885866fe7c03260938cdfdc9452f5ec1b0dbac5"
        }
      ],
      "purl": "pkg:golang/github.com/spf13/cobra@v0.0.0-20170711120833-c46add8a6528",
      "externalReferences": [
        {
          "url": "https://github.com/spf13/cobra",
          "type": "vcs"
        }
      ]
    },
    {
      "type": "library",
      "bom-ref": "pkg:golang/github.com/spf13/pflag@v1.0.0",
      "name": "github.com/spf13/pflag",
      "version": "v1.0.0",
      "scope": "required",
      "hashes": [
        {
          "alg": "SHA-256",
          "content": "a1a3db7437bfc7452771a86ec223f15b51982728a544076c3e7ab77b5c9a3dc2"
        }
      ],
      "purl": "pkg:golang/github.com/spf13/pflag@v1.0.0",
      "externalReferences": [
        {
          "url": "https://github.com/spf13/pflag",
          "type": "vcs"
        }
      ]
    },
    {
      "type": "library",
      "bom-ref": "pkg:golang/golang.org/x/sys@v0.0.0-20170710161658-abf9c25f5445",
      "name": "golang.org/x/sys",
      "version": "v0.0.0-20170710161658-abf9c25f5445",
      "scope": "required",
      "hashes": [
        {
          "alg": "SHA-256",
          "content": "8a1c5c1c2a1e3fa4151cb9efb783d7be9801f54f787a70f739510cf94700b95b"
        }
      ],
      "purl": "pkg:golang/golang.org/x/sys@v0.0.0-20170710161658-abf9c25f5445"
    },
    {
      "type": "library",
      "bom-ref": "pkg:golang/github.com/kr/pretty@v0.3.0",
      "group": "github.com/kr",
      "name": "pretty",
      "version": "v0.3.0",
      "description": "",
      "hashes": [
        {
          "alg": "SHA-256",
          "content": "eb8d20a7835f41df292395cec29e5f9cd7955a3ebb1bb08593f49a4909fb3419"
        }
      ],
      "purl": "pkg:golang/github.com/kr/pretty@v0.3.0"
    }
  ],
  "dependencies": [
    {
      "ref": "pkg:golang/github.com/inconshreveable/mousetrap@v1.0.0"
    },
    {
      "ref": "pkg:golang/github.com/mattn/go-colorable@v0.0.6"
    },
    {
      "ref": "pkg:golang/github.com/mattn/go-isatty@v0.0.2"
    },
    {
      "ref": "pkg:golang/github.com/sourcegraph/annotate@v0.0.0-20160123013949-f4cad6c6324d"
    },
    {
      "ref": "pkg:golang/github.com/sourcegraph/syntaxhighlight@v0.0.0-20170531221838-bd320f5d308e"
    },
    {
      "ref": "pkg:golang/github.com/spf13/cobra@v0.0.0-20170711120833-c46add8a6528"
    },
    {
      "ref": "pkg:golang/github.com/spf13/pflag@v1.0.0"
    },
    {
      "ref": "pkg:golang/golang.org/x/sys@v0.0.0-20170710161658-abf9c25f5445"
    },
    {
      "ref": "pkg:golang/github.com/jingweno/ccat@v0.0.0-20201006210721-27844a750a88",
      "dependsOn": [
        "pkg:golang/github.com/inconshreveable/mousetrap@v1.0.0",
        "pkg:golang/github.com/mattn/go-colorable@v0.0.6",
        "pkg:golang/github.com/mattn/go-isatty@v0.0.2",
        "pkg:golang/github.com/sourcegraph/annotate@v0.0.0-20160123013949-f4cad6c6324d",
        "pkg:golang/github.com/sourcegraph/syntaxhighlight@v0.0.0-20170531221838-bd320f5d308e",
        "pkg:golang/github.com/spf13/cobra@v0.0.0-20170711120833-c46add8a6528",
        "pkg:golang/github.com/spf13/pflag@v1.0.0",
        "pkg:golang/golang.org/x/sys@v0.0.0-20170710161658-abf9c25f5445"
      ]
    }
  ]
}
