{
  "bomFormat": "CycloneDX",
  "specVersion": "1.3",
  "version": 1,
  "metadata": {
    "tools": [
      {
        "vendor": "CycloneDX",
        "name": "cyclonedx-gomod",
        "version": "v0.0.0-unset",
        "hashes": [
          {
            "alg": "MD5",
            "content": "a35776fc9417e8071d3f1dcfa2f1dd19"
          },
          {
            "alg": "SHA-1",
            "content": "a19a8eed713eff5a2092e5283c201a146f19421d"
          },
          {
            "alg": "SHA-256",
            "content": "17b3b980b9a5d0f48ad52043dee5b31aff3ae6599a36bc94224dc7b6a46759ef"
          },
          {
            "alg": "SHA-512",
            "content": "9d4f06aab20cede94a1aedf11a300ae9de98871235c68c72e421cd6d45495910861b39e743ee0eceb11bbdcd2c9acc3312c19064cfe90177243fb43127fcfa46"
          }
        ]
      },
      {
        "vendor": "CycloneDX",
        "name": "Node.js module",
        "version": "3.0.3"
      },
      {
        "vendor": "Fortress Information Security",
        "name": "Github Extractor",
        "version": "1.15.1"
      }
    ],
    "authors": [
      {
        "name": "Fortress Information Security",
        "email": "sales@fortressinfosec.com",
        "phone": "1-407-573-6800"
      }
    ],
    "timestamp": "2022-06-01T21:00:00Z",
    "component": {
      "type": "application",
      "name": "perkeep",
      "version": "",
      "group": "perkeep",
      "externalReferences": [
        {
          "url": "https://github.com/perkeep/perkeep.git",
          "type": "distribution"
        },
        {
          "type": "website",
          "url": "https://perkeep.org/",
          "comment": "As set via `homepage` in Github API"
        }
      ]
    }
  },
  "components": [
    {
      "type": "library",
      "bom-ref": "pkg:golang/bazil.org/fuse@v0.0.0-20180421153158-65cc252bf669",
      "name": "bazil.org/fuse",
      "version": "v0.0.0-20180421153158-65cc252bf669",
      "scope": "required",
      "hashes": [
        {
          "alg": "SHA-256",
          "content": "14d091a578aab86d5aa32a9c2165459a94d2295731d9b403dfcb9965e1ad765c"
        }
      ],
      "purl": "pkg:golang/bazil.org/fuse@v0.0.0-20180421153158-65cc252bf669"
    },
    {
      "type": "library",
      "bom-ref": "pkg:golang/cloud.google.com/go@v0.80.0",
      "name": "cloud.google.com/go",
      "version": "v0.80.0",
      "scope": "required",
      "hashes": [
        {
          "alg": "SHA-256",
          "content": "90077200cae3f428ea3921a296eb1e563220032437bb100362d51847a33061e6"
        }
      ],
      "purl": "pkg:golang/cloud.google.com/go@v0.80.0"
    },
    {
      "type": "library",
      "bom-ref": "pkg:golang/cloud.google.com/go/datastore@v1.1.0",
      "name": "cloud.google.com/go/datastore",
      "version": "v1.1.0",
      "scope": "required",
      "hashes": [
        {
          "alg": "SHA-256",
          "content": "fcc6b2f688d78d190f04d56babea162ea9960a4af8394e6e458dbd6eed264724"
        }
      ],
      "purl": "pkg:golang/cloud.google.com/go/datastore@v1.1.0"
    },
    {
      "type": "library",
      "bom-ref": "pkg:golang/cloud.google.com/go/logging@v1.3.0",
      "name": "cloud.google.com/go/logging",
      "version": "v1.3.0",
      "scope": "required",
      "hashes": [
        {
          "alg": "SHA-256",
          "content": "35c836b01afe494b5da929b0449e56c2e146f149b7a7f699991a7a12d0fd90fc"
        }
      ],
      "purl": "pkg:golang/cloud.google.com/go/logging@v1.3.0"
    },
    {
      "type": "library",
      "bom-ref": "pkg:golang/cloud.google.com/go/storage@v1.10.0",
      "name": "cloud.google.com/go/storage",
      "version": "v1.10.0",
      "scope": "required",
      "hashes": [
        {
          "alg": "SHA-256",
          "content": "493805cf2539ffc9a2325d3fff32a1d9a41e4f279a507dd637d6d2522274f5b0"
        }
      ],
      "purl": "pkg:golang/cloud.google.com/go/storage@v1.10.0"
    },
    {
      "type": "library",
      "bom-ref": "pkg:golang/filippo.io/age@v1.0.0",
      "name": "filippo.io/age",
      "version": "v1.0.0",
      "scope": "required",
      "hashes": [
        {
          "alg": "SHA-256",
          "content": "57aab5e27d26a98537a8a16467aa0e685f685e778ebe24b7b9b5ec4950514b37"
        }
      ],
      "purl": "pkg:golang/filippo.io/age@v1.0.0"
    },
    {
      "type": "library",
      "bom-ref": "pkg:golang/github.com/BurntSushi/toml@v0.3.1",
      "name": "github.com/BurntSushi/toml",
      "version": "v0.3.1",
      "scope": "required",
      "hashes": [
        {
          "alg": "SHA-256",
          "content": "597918625e98af7a817f52bbf440672f899a9343a29817c1d1751ff55976f0e4"
        }
      ],
      "purl": "pkg:golang/github.com/BurntSushi/toml@v0.3.1",
      "externalReferences": [
        {
          "url": "https://github.com/BurntSushi/toml",
          "type": "vcs"
        }
      ]
    },
    {
      "type": "library",
      "bom-ref": "pkg:golang/github.com/aws/aws-sdk-go@v1.14.31",
      "name": "github.com/aws/aws-sdk-go",
      "version": "v1.14.31",
      "scope": "required",
      "hashes": [
        {
          "alg": "SHA-256",
          "content": "6a6868aef2a1d73371a3d6029edbc0e6e0e6830fa90985cea78c4ef164b5a038"
        }
      ],
      "purl": "pkg:golang/github.com/aws/aws-sdk-go@v1.14.31",
      "externalReferences": [
        {
          "url": "https://github.com/aws/aws-sdk-go",
          "type": "vcs"
        }
      ]
    },
    {
      "type": "library",
      "bom-ref": "pkg:golang/github.com/bradfitz/latlong@v0.0.0-20170410180902-f3db6d0dff40",
      "name": "github.com/bradfitz/latlong",
      "version": "v0.0.0-20170410180902-f3db6d0dff40",
      "scope": "required",
      "hashes": [
        {
          "alg": "SHA-256",
          "content": "c2c9f3e01d82487274f69c2d311794fc646a583b08ed749ab2aecda617a6dd79"
        }
      ],
      "purl": "pkg:golang/github.com/bradfitz/latlong@v0.0.0-20170410180902-f3db6d0dff40",
      "externalReferences": [
        {
          "url": "https://github.com/bradfitz/latlong",
          "type": "vcs"
        }
      ]
    },
    {
      "type": "library",
      "bom-ref": "pkg:golang/github.com/edsrzf/mmap-go@v1.1.0",
      "name": "github.com/edsrzf/mmap-go",
      "version": "v1.1.0",
      "scope": "required",
      "hashes": [
        {
          "alg": "SHA-256",
          "content": "e8453004b43f31caf51182c4e139f555d5b5038724a82416641c3c1ebd248e94"
        }
      ],
      "purl": "pkg:golang/github.com/edsrzf/mmap-go@v1.1.0",
      "externalReferences": [
        {
          "url": "https://github.com/edsrzf/mmap-go",
          "type": "vcs"
        }
      ]
    },
    {
      "type": "library",
      "bom-ref": "pkg:golang/github.com/fsnotify/fsnotify@v1.4.9",
      "name": "github.com/fsnotify/fsnotify",
      "version": "v1.4.9",
      "scope": "required",
      "hashes": [
        {
          "alg": "SHA-256",
          "content": "86c9acd50caed23827c0d5c8c5afbf57f3c3b14e827cb7fa08d3bc1fb216a12e"
        }
      ],
      "purl": "pkg:golang/github.com/fsnotify/fsnotify@v1.4.9",
      "externalReferences": [
        {
          "url": "https://github.com/fsnotify/fsnotify",
          "type": "vcs"
        }
      ]
    },
    {
      "type": "library",
      "bom-ref": "pkg:golang/github.com/garyburd/go-oauth@v0.0.0-20180319155456-bca2e7f09a17",
      "name": "github.com/garyburd/go-oauth",
      "version": "v0.0.0-20180319155456-bca2e7f09a17",
      "scope": "required",
      "hashes": [
        {
          "alg": "SHA-256",
          "content": "18e7cccfa71181327d8d6574a807b3bfae363a13e72841bb82d523252752b471"
        }
      ],
      "purl": "pkg:golang/github.com/garyburd/go-oauth@v0.0.0-20180319155456-bca2e7f09a17",
      "externalReferences": [
        {
          "url": "https://github.com/garyburd/go-oauth",
          "type": "vcs"
        }
      ]
    },
    {
      "type": "library",
      "bom-ref": "pkg:golang/github.com/go-ini/ini@v1.38.1",
      "name": "github.com/go-ini/ini",
      "version": "v1.38.1",
      "scope": "required",
      "hashes": [
        {
          "alg": "SHA-256",
          "content": "85bb5f33c7a6594568f469d74a5a1763215b5f167eb46eac6dea524ada1ed456"
        }
      ],
      "purl": "pkg:golang/github.com/go-ini/ini@v1.38.1",
      "externalReferences": [
        {
          "url": "https://github.com/go-ini/ini",
          "type": "vcs"
        }
      ]
    },
    {
      "type": "library",
      "bom-ref": "pkg:golang/github.com/go-sql-driver/mysql@v1.4.1-0.20180719071942-99ff426eb706",
      "name": "github.com/go-sql-driver/mysql",
      "version": "v1.4.1-0.20180719071942-99ff426eb706",
      "scope": "required",
      "hashes": [
        {
          "alg": "SHA-256",
          "content": "e95f31565991b203b9bfc4c9313918a60da1ce61f644cec7a6482d0edba9e273"
        }
      ],
      "purl": "pkg:golang/github.com/go-sql-driver/mysql@v1.4.1-0.20180719071942-99ff426eb706",
      "externalReferences": [
        {
          "url": "https://github.com/go-sql-driver/mysql",
          "type": "vcs"
        }
      ]
    },
    {
      "type": "library",
      "bom-ref": "pkg:golang/github.com/golang/groupcache@v0.0.0-20200121045136-8c9f03a8e57e",
      "name": "github.com/golang/groupcache",
      "version": "v0.0.0-20200121045136-8c9f03a8e57e",
      "scope": "required",
      "hashes": [
        {
          "alg": "SHA-256",
          "content": "d6bee952b69baa9d7c84e05cc01c224ec6e715e4d91d5f5e111fd04f92556716"
        }
      ],
      "purl": "pkg:golang/github.com/golang/groupcache@v0.0.0-20200121045136-8c9f03a8e57e",
      "externalReferences": [
        {
          "url": "https://github.com/golang/groupcache",
          "type": "vcs"
        }
      ]
    },
    {
      "type": "library",
      "bom-ref": "pkg:golang/github.com/golang/protobuf@v1.5.2",
      "name": "github.com/golang/protobuf",
      "version": "v1.5.2",
      "scope": "required",
      "hashes": [
        {
          "alg": "SHA-256",
          "content": "44e3ca04d15f4203943227c7c8ff8a61bbe98db76814db3e68aec35e58e2d13c"
        }
      ],
      "purl": "pkg:golang/github.com/golang/protobuf@v1.5.2",
      "externalReferences": [
        {
          "url": "https://github.com/golang/protobuf",
          "type": "vcs"
        }
      ]
    },
    {
      "type": "library",
      "bom-ref": "pkg:golang/github.com/golang/snappy@v0.0.3",
      "name": "github.com/golang/snappy",
      "version": "v0.0.3",
      "scope": "required",
      "hashes": [
        {
          "alg": "SHA-256",
          "content": "7c73e0e4641894278b20f07d059a8c551e6747d03e20ce7372079376331898b0"
        }
      ],
      "purl": "pkg:golang/github.com/golang/snappy@v0.0.3",
      "externalReferences": [
        {
          "url": "https://github.com/golang/snappy",
          "type": "vcs"
        }
      ]
    },
    {
      "type": "library",
      "bom-ref": "pkg:golang/github.com/google/go-cmp@v0.5.6",
      "name": "github.com/google/go-cmp",
      "version": "v0.5.6",
      "scope": "required",
      "hashes": [
        {
          "alg": "SHA-256",
          "content": "04a6ca0aabcfe88fab9851edd3a666c90b6f07cc40916761172af46543597314"
        }
      ],
      "purl": "pkg:golang/github.com/google/go-cmp@v0.5.6",
      "externalReferences": [
        {
          "url": "https://github.com/google/go-cmp",
          "type": "vcs"
        }
      ]
    },
    {
      "type": "library",
      "bom-ref": "pkg:golang/github.com/google/uuid@v1.3.0",
      "name": "github.com/google/uuid",
      "version": "v1.3.0",
      "scope": "required",
      "hashes": [
        {
          "alg": "SHA-256",
          "content": "b7a2625e09b05cc8c4b3c56eb172099360571ec9fec31f0165d4daa19e5fbbb2"
        }
      ],
      "purl": "pkg:golang/github.com/google/uuid@v1.3.0",
      "externalReferences": [
        {
          "url": "https://github.com/google/uuid",
          "type": "vcs"
        }
      ]
    },
    {
      "type": "library",
      "bom-ref": "pkg:golang/github.com/googleapis/gax-go/v2@v2.0.5",
      "name": "github.com/googleapis/gax-go/v2",
      "version": "v2.0.5",
      "scope": "required",
      "hashes": [
        {
          "alg": "SHA-256",
          "content": "b23641c068fd265c37dc898fb6f16f88662fb1e3ad0ccee1912281efe4efdd23"
        }
      ],
      "purl": "pkg:golang/github.com/googleapis/gax-go/v2@v2.0.5",
      "externalReferences": [
        {
          "url": "https://github.com/googleapis/gax-go",
          "type": "vcs"
        }
      ]
    },
    {
      "type": "library",
      "bom-ref": "pkg:golang/github.com/gopherjs/gopherjs@v0.0.0-20200217142428-fce0ec30dd00",
      "name": "github.com/gopherjs/gopherjs",
      "version": "v0.0.0-20200217142428-fce0ec30dd00",
      "scope": "required",
      "hashes": [
        {
          "alg": "SHA-256",
          "content": "9799403991329b7a0add24361c11d6b0951f6cd0624d7243796d900f1c3d010d"
        }
      ],
      "purl": "pkg:golang/github.com/gopherjs/gopherjs@v0.0.0-20200217142428-fce0ec30dd00",
      "externalReferences": [
        {
          "url": "https://github.com/gopherjs/gopherjs",
          "type": "vcs"
        }
      ]
    },
    {
      "type": "library",
      "bom-ref": "pkg:golang/github.com/gopherjs/jquery@v0.0.0-20180404123100-3ba2b901425e",
      "name": "github.com/gopherjs/jquery",
      "version": "v0.0.0-20180404123100-3ba2b901425e",
      "scope": "required",
      "hashes": [
        {
          "alg": "SHA-256",
          "content": "4dfd0f9c4a37eadab9ebf25ecf16db885a4471ed2998aead63b852e8f352eed2"
        }
      ],
      "purl": "pkg:golang/github.com/gopherjs/jquery@v0.0.0-20180404123100-3ba2b901425e",
      "externalReferences": [
        {
          "url": "https://github.com/gopherjs/jquery",
          "type": "vcs"
        }
      ]
    },
    {
      "type": "library",
      "bom-ref": "pkg:golang/github.com/goplusjs/gopherjs@v1.1.6",
      "name": "github.com/goplusjs/gopherjs",
      "version": "v1.1.6",
      "scope": "required",
      "hashes": [
        {
          "alg": "SHA-256",
          "content": "1528b70a81095d1c40d99e8f1e033f9f57ad529d413a5df52f5d781bba93a777"
        }
      ],
      "purl": "pkg:golang/github.com/goplusjs/gopherjs@v1.1.6",
      "externalReferences": [
        {
          "url": "https://github.com/goplusjs/gopherjs",
          "type": "vcs"
        }
      ]
    },
    {
      "type": "library",
      "bom-ref": "pkg:golang/github.com/gorilla/websocket@v1.4.2",
      "name": "github.com/gorilla/websocket",
      "version": "v1.4.2",
      "scope": "required",
      "hashes": [
        {
          "alg": "SHA-256",
          "content": "fbf4cc69361ce10162b4a271b10ed8c9edf90e45af91d2dcbc62aa33ec7451f7"
        }
      ],
      "purl": "pkg:golang/github.com/gorilla/websocket@v1.4.2",
      "externalReferences": [
        {
          "url": "https://github.com/gorilla/websocket",
          "type": "vcs"
        }
      ]
    },
    {
      "type": "library",
      "bom-ref": "pkg:golang/github.com/hjfreyer/taglib-go@v0.0.0-20151027170453-0ef8bba9c41b",
      "name": "github.com/hjfreyer/taglib-go",
      "version": "v0.0.0-20151027170453-0ef8bba9c41b",
      "scope": "required",
      "hashes": [
        {
          "alg": "SHA-256",
          "content": "43838e1661f5f1a2239c3265bd89b80579a91ca5e4d734c93f4419d28b4dc0fb"
        }
      ],
      "purl": "pkg:golang/github.com/hjfreyer/taglib-go@v0.0.0-20151027170453-0ef8bba9c41b",
      "externalReferences": [
        {
          "url": "https://github.com/hjfreyer/taglib-go",
          "type": "vcs"
        }
      ]
    },
    {
      "type": "library",
      "bom-ref": "pkg:golang/github.com/inconshreveable/mousetrap@v1.0.0",
      "name": "github.com/inconshreveable/mousetrap",
      "version": "v1.0.0",
      "scope": "required",
      "hashes": [
        {
          "alg": "SHA-256",
          "content": "67cb6ee6cada2d709721c011c41a7ff1c6ef97055aed9d4d1e0f5710a86d4af3"
        }
      ],
      "purl": "pkg:golang/github.com/inconshreveable/mousetrap@v1.0.0",
      "externalReferences": [
        {
          "url": "https://github.com/inconshreveable/mousetrap",
          "type": "vcs"
        }
      ]
    },
    {
      "type": "library",
      "bom-ref": "pkg:golang/github.com/jmespath/go-jmespath@v0.0.0-20160202185014-0b12d6b521d8",
      "name": "github.com/jmespath/go-jmespath",
      "version": "v0.0.0-20160202185014-0b12d6b521d8",
      "scope": "required",
      "hashes": [
        {
          "alg": "SHA-256",
          "content": "d7656faad47a028c2fde5fc44149687031d6d82a781bd589547eeec87f101491"
        }
      ],
      "purl": "pkg:golang/github.com/jmespath/go-jmespath@v0.0.0-20160202185014-0b12d6b521d8",
      "externalReferences": [
        {
          "url": "https://github.com/jmespath/go-jmespath",
          "type": "vcs"
        }
      ]
    },
    {
      "type": "library",
      "bom-ref": "pkg:golang/github.com/jstemmer/go-junit-report@v0.9.1",
      "name": "github.com/jstemmer/go-junit-report",
      "version": "v0.9.1",
      "scope": "required",
      "hashes": [
        {
          "alg": "SHA-256",
          "content": "e903d8aa8762bb71ae3cbfbb99fc7e3700dda76793929f487c4529800c14374a"
        }
      ],
      "purl": "pkg:golang/github.com/jstemmer/go-junit-report@v0.9.1",
      "externalReferences": [
        {
          "url": "https://github.com/jstemmer/go-junit-report",
          "type": "vcs"
        }
      ]
    },
    {
      "type": "library",
      "bom-ref": "pkg:golang/github.com/kballard/go-shellquote@v0.0.0-20180428030007-95032a82bc51",
      "name": "github.com/kballard/go-shellquote",
      "version": "v0.0.0-20180428030007-95032a82bc51",
      "scope": "required",
      "hashes": [
        {
          "alg": "SHA-256",
          "content": "67d9f61453545ecb217f024c060340d1153afe2ed655a01e82fdcfb6e2073ccb"
        }
      ],
      "purl": "pkg:golang/github.com/kballard/go-shellquote@v0.0.0-20180428030007-95032a82bc51",
      "externalReferences": [
        {
          "url": "https://github.com/kballard/go-shellquote",
          "type": "vcs"
        }
      ]
    },
    {
      "type": "library",
      "bom-ref": "pkg:golang/github.com/kisielk/gotool@v1.0.0",
      "name": "github.com/kisielk/gotool",
      "version": "v1.0.0",
      "scope": "required",
      "hashes": [
        {
          "alg": "SHA-256",
          "content": "015d9cfc4896dcaa8f353f592a5d3b7a1a001a2e02e7fd3509f6db96775c6a98"
        }
      ],
      "purl": "pkg:golang/github.com/kisielk/gotool@v1.0.0",
      "externalReferences": [
        {
          "url": "https://github.com/kisielk/gotool",
          "type": "vcs"
        }
      ]
    },
    {
      "type": "library",
      "bom-ref": "pkg:golang/github.com/kr/fs@v0.1.0",
      "name": "github.com/kr/fs",
      "version": "v0.1.0",
      "scope": "required",
      "hashes": [
        {
          "alg": "SHA-256",
          "content": "26c91dbbd89e3406278f1b22d0b6d0a75ba520a655d4b00580ad6d5a1a59825f"
        }
      ],
      "purl": "pkg:golang/github.com/kr/fs@v0.1.0",
      "externalReferences": [
        {
          "url": "https://github.com/kr/fs",
          "type": "vcs"
        }
      ]
    },
    {
      "type": "library",
      "bom-ref": "pkg:golang/github.com/lib/pq@v1.10.2",
      "name": "github.com/lib/pq",
      "version": "v1.10.2",
      "scope": "required",
      "hashes": [
        {
          "alg": "SHA-256",
          "content": "02acdb66ce19a02069f86b5e8dca42a5cc4cdf3952331dbd7576d449e56d25bf"
        }
      ],
      "purl": "pkg:golang/github.com/lib/pq@v1.10.2",
      "externalReferences": [
        {
          "url": "https://github.com/lib/pq",
          "type": "vcs"
        }
      ]
    },
    {
      "type": "library",
      "bom-ref": "pkg:golang/github.com/mailgun/mailgun-go@v0.0.0-20171127222028-17e8bd11e87c",
      "name": "github.com/mailgun/mailgun-go",
      "version": "v0.0.0-20171127222028-17e8bd11e87c",
      "scope": "required",
      "hashes": [
        {
          "alg": "SHA-256",
          "content": "e61b8f87f31f596eb9731f0a58d543e260829f022b3625f86c5251e4e78e360d"
        }
      ],
      "purl": "pkg:golang/github.com/mailgun/mailgun-go@v0.0.0-20171127222028-17e8bd11e87c",
      "externalReferences": [
        {
          "url": "https://github.com/mailgun/mailgun-go",
          "type": "vcs"
        }
      ]
    },
    {
      "type": "library",
      "bom-ref": "pkg:golang/github.com/mattn/go-isatty@v0.0.12",
      "name": "github.com/mattn/go-isatty",
      "version": "v0.0.12",
      "scope": "required",
      "hashes": [
        {
          "alg": "SHA-256",
          "content": "c2ecac461143cf2c6012631fe718ef27633d759a1601734daf92d2052eee1d76"
        }
      ],
      "purl": "pkg:golang/github.com/mattn/go-isatty@v0.0.12",
      "externalReferences": [
        {
          "url": "https://github.com/mattn/go-isatty",
          "type": "vcs"
        }
      ]
    },
    {
      "type": "library",
      "bom-ref": "pkg:golang/github.com/mattn/go-mastodon@v0.0.5-0.20190517015615-8f6192e26b66",
      "name": "github.com/mattn/go-mastodon",
      "version": "v0.0.5-0.20190517015615-8f6192e26b66",
      "scope": "required",
      "hashes": [
        {
          "alg": "SHA-256",
          "content": "4db9da2c986afac16ea99d70c5d7c5e5493b036278d623a86c20859cb23e44f1"
        }
      ],
      "purl": "pkg:golang/github.com/mattn/go-mastodon@v0.0.5-0.20190517015615-8f6192e26b66",
      "externalReferences": [
        {
          "url": "https://github.com/mattn/go-mastodon",
          "type": "vcs"
        }
      ]
    },
    {
      "type": "library",
      "bom-ref": "pkg:golang/github.com/miekg/dns@v1.1.43",
      "name": "github.com/miekg/dns",
      "version": "v1.1.43",
      "scope": "required",
      "hashes": [
        {
          "alg": "SHA-256",
          "content": "24a7e9552081f38beb0261f3cabb31079340af990ba0c5d902b3d2c3b4258328"
        }
      ],
      "purl": "pkg:golang/github.com/miekg/dns@v1.1.43",
      "externalReferences": [
        {
          "url": "https://github.com/miekg/dns",
          "type": "vcs"
        }
      ]
    },
    {
      "type": "library",
      "bom-ref": "pkg:golang/github.com/neelance/astrewrite@v0.0.0-20160511093645-99348263ae86",
      "name": "github.com/neelance/astrewrite",
      "version": "v0.0.0-20160511093645-99348263ae86",
      "scope": "required",
      "hashes": [
        {
          "alg": "SHA-256",
          "content": "0faa5a18e6e2e56b9def183cdcc6841728f1401d56e5bcf9774205a69afeca69"
        }
      ],
      "purl": "pkg:golang/github.com/neelance/astrewrite@v0.0.0-20160511093645-99348263ae86",
      "externalReferences": [
        {
          "url": "https://github.com/neelance/astrewrite",
          "type": "vcs"
        }
      ]
    },
    {
      "type": "library",
      "bom-ref": "pkg:golang/github.com/neelance/sourcemap@v0.0.0-20151028013722-8c68805598ab",
      "name": "github.com/neelance/sourcemap",
      "version": "v0.0.0-20151028013722-8c68805598ab",
      "scope": "required",
      "hashes": [
        {
          "alg": "SHA-256",
          "content": "7855eff4dbb59466eb35b8fad7d696c197d51791c1ae6f4f96d7bc68da6db932"
        }
      ],
      "purl": "pkg:golang/github.com/neelance/sourcemap@v0.0.0-20151028013722-8c68805598ab",
      "externalReferences": [
        {
          "url": "https://github.com/neelance/sourcemap",
          "type": "vcs"
        }
      ]
    },
    {
      "type": "library",
      "bom-ref": "pkg:golang/github.com/nf/cr2@v0.0.0-20140528043846-05d46fef4f2f",
      "name": "github.com/nf/cr2",
      "version": "v0.0.0-20140528043846-05d46fef4f2f",
      "scope": "required",
      "hashes": [
        {
          "alg": "SHA-256",
          "content": "9f229dc7e8dcca421dc4636b6e0a3f4c68dd1a2f7d118f452810a3600512e1b5"
        }
      ],
      "purl": "pkg:golang/github.com/nf/cr2@v0.0.0-20140528043846-05d46fef4f2f",
      "externalReferences": [
        {
          "url": "https://github.com/nf/cr2",
          "type": "vcs"
        }
      ]
    },
    {
      "type": "library",
      "bom-ref": "pkg:golang/github.com/perkeep/b2@v0.0.0-20180913003434-1ae8d9b78db9",
      "name": "github.com/perkeep/b2",
      "version": "v0.0.0-20180913003434-1ae8d9b78db9",
      "scope": "required",
      "hashes": [
        {
          "alg": "SHA-256",
          "content": "5a7b380e7793e9d30d6c63f296429f754f7dda3b2810bedbbf09673d0e3af9f8"
        }
      ],
      "purl": "pkg:golang/github.com/perkeep/b2@v0.0.0-20180913003434-1ae8d9b78db9",
      "externalReferences": [
        {
          "url": "https://github.com/perkeep/b2",
          "type": "vcs"
        }
      ]
    },
    {
      "type": "library",
      "bom-ref": "pkg:golang/github.com/pkg/errors@v0.9.1",
      "name": "github.com/pkg/errors",
      "version": "v0.9.1",
      "scope": "required",
      "hashes": [
        {
          "alg": "SHA-256",
          "content": "14404bc75cd2db5e28c298f2eeab017a2c5b51192e850030acae54c0b193c2de"
        }
      ],
      "purl": "pkg:golang/github.com/pkg/errors@v0.9.1",
      "externalReferences": [
        {
          "url": "https://github.com/pkg/errors",
          "type": "vcs"
        }
      ]
    },
    {
      "type": "library",
      "bom-ref": "pkg:golang/github.com/pkg/sftp@v1.13.2",
      "name": "github.com/pkg/sftp",
      "version": "v1.13.2",
      "scope": "required",
      "hashes": [
        {
          "alg": "SHA-256",
          "content": "b5a2672a7b6c5a053ea9a7b6d51c79da52309dd01d2ab8f499f50d42ccf5cf84"
        }
      ],
      "purl": "pkg:golang/github.com/pkg/sftp@v1.13.2",
      "externalReferences": [
        {
          "url": "https://github.com/pkg/sftp",
          "type": "vcs"
        }
      ]
    },
    {
      "type": "library",
      "bom-ref": "pkg:golang/github.com/plaid/plaid-go@v0.0.0-20161222051224-02b6af68061b",
      "name": "github.com/plaid/plaid-go",
      "version": "v0.0.0-20161222051224-02b6af68061b",
      "scope": "required",
      "hashes": [
        {
          "alg": "SHA-256",
          "content": "0e89fa23f13c9cb093ea07418b5b0a07d858c64c7fdb8603ed75b04a5cbc204a"
        }
      ],
      "purl": "pkg:golang/github.com/plaid/plaid-go@v0.0.0-20161222051224-02b6af68061b",
      "externalReferences": [
        {
          "url": "https://github.com/plaid/plaid-go",
          "type": "vcs"
        }
      ]
    },
    {
      "type": "library",
      "bom-ref": "pkg:golang/github.com/remyoudompheng/bigfft@v0.0.0-20200410134404-eec4a21b6bb0",
      "name": "github.com/remyoudompheng/bigfft",
      "version": "v0.0.0-20200410134404-eec4a21b6bb0",
      "scope": "required",
      "hashes": [
        {
          "alg": "SHA-256",
          "content": "39d02c4d3cfa3a4158e50c63918c2b0a1c2e46bb85ebd735ebd74f2b6e8d5259"
        }
      ],
      "purl": "pkg:golang/github.com/remyoudompheng/bigfft@v0.0.0-20200410134404-eec4a21b6bb0",
      "externalReferences": [
        {
          "url": "https://github.com/remyoudompheng/bigfft",
          "type": "vcs"
        }
      ]
    },
    {
      "type": "library",
      "bom-ref": "pkg:golang/github.com/rogpeppe/go-internal@v1.3.0",
      "name": "github.com/rogpeppe/go-internal",
      "version": "v1.3.0",
      "scope": "required",
      "hashes": [
        {
          "alg": "SHA-256",
          "content": "451f5d17726da293efb64ae80d9b950fbaaab83d1b9c794a4aa690860c2df329"
        }
      ],
      "purl": "pkg:golang/github.com/rogpeppe/go-internal@v1.3.0",
      "externalReferences": [
        {
          "url": "https://github.com/rogpeppe/go-internal",
          "type": "vcs"
        }
      ]
    },
    {
      "type": "library",
      "bom-ref": "pkg:golang/github.com/russross/blackfriday@v2.0.0",
      "name": "github.com/russross/blackfriday",
      "version": "v2.0.0",
      "scope": "required",
      "hashes": [
        {
          "alg": "SHA-256",
          "content": "2fb39cef687bac3a8691b528acdfe7709e0dff2db6d3f6117b31ef06828b3850"
        }
      ],
      "purl": "pkg:golang/github.com/russross/blackfriday@v2.0.0",
      "externalReferences": [
        {
          "url": "https://github.com/russross/blackfriday",
          "type": "vcs"
        }
      ]
    },
    {
      "type": "library",
      "bom-ref": "pkg:golang/github.com/rwcarlsen/goexif@v0.0.0-20190401172101-9e8deecbddbd",
      "name": "github.com/rwcarlsen/goexif",
      "version": "v0.0.0-20190401172101-9e8deecbddbd",
      "scope": "required",
      "hashes": [
        {
          "alg": "SHA-256",
          "content": "0a61fdf89e994ac22350addd706b270a73b8d5e4413a7635db3c249f9a95c207"
        }
      ],
      "purl": "pkg:golang/github.com/rwcarlsen/goexif@v0.0.0-20190401172101-9e8deecbddbd",
      "externalReferences": [
        {
          "url": "https://github.com/rwcarlsen/goexif",
          "type": "vcs"
        }
      ]
    },
    {
      "type": "library",
      "bom-ref": "pkg:golang/github.com/shurcooL/httpfs@v0.0.0-20190707220628-8d4bc4ba7749",
      "name": "github.com/shurcooL/httpfs",
      "version": "v0.0.0-20190707220628-8d4bc4ba7749",
      "scope": "required",
      "hashes": [
        {
          "alg": "SHA-256",
          "content": "6d41ac127c8d6d53f0d3a06cf34b0278044094af25870a86ca2e944fcca6b869"
        }
      ],
      "purl": "pkg:golang/github.com/shurcooL/httpfs@v0.0.0-20190707220628-8d4bc4ba7749",
      "externalReferences": [
        {
          "url": "https://github.com/shurcooL/httpfs",
          "type": "vcs"
        }
      ]
    },
    {
      "type": "library",
      "bom-ref": "pkg:golang/github.com/shurcooL/sanitized_anchor_name@v1.0.0",
      "name": "github.com/shurcooL/sanitized_anchor_name",
      "version": "v1.0.0",
      "scope": "required",
      "hashes": [
        {
          "alg": "SHA-256",
          "content": "3dd9a808eeb0bdbb3eef2ac9c8c391b78fc1998e486322704bf90e896c7c987a"
        }
      ],
      "purl": "pkg:golang/github.com/shurcooL/sanitized_anchor_name@v1.0.0",
      "externalReferences": [
        {
          "url": "https://github.com/shurcooL/sanitized_anchor_name",
          "type": "vcs"
        }
      ]
    },
    {
      "type": "library",
      "bom-ref": "pkg:golang/github.com/spf13/cobra@v0.0.5",
      "name": "github.com/spf13/cobra",
      "version": "v0.0.5",
      "scope": "required",
      "hashes": [
        {
          "alg": "SHA-256",
          "content": "7f407e2e42d7e83b66447d62b28340f554ed3542bd2bcc58776f0934d7cebffb"
        }
      ],
      "purl": "pkg:golang/github.com/spf13/cobra@v0.0.5",
      "externalReferences": [
        {
          "url": "https://github.com/spf13/cobra",
          "type": "vcs"
        }
      ]
    },
    {
      "type": "library",
      "bom-ref": "pkg:golang/github.com/spf13/pflag@v1.0.5",
      "name": "github.com/spf13/pflag",
      "version": "v1.0.5",
      "scope": "required",
      "hashes": [
        {
          "alg": "SHA-256",
          "content": "8b2f951543823f56bef3216da3f76b836089e6ed3246807b7d9c370cabff2570"
        }
      ],
      "purl": "pkg:golang/github.com/spf13/pflag@v1.0.5",
      "externalReferences": [
        {
          "url": "https://github.com/spf13/pflag",
          "type": "vcs"
        }
      ]
    },
    {
      "type": "library",
      "bom-ref": "pkg:golang/github.com/syndtr/goleveldb@v1.0.1-0.20210305035536-64b5b1c73954",
      "name": "github.com/syndtr/goleveldb",
      "version": "v1.0.1-0.20210305035536-64b5b1c73954",
      "scope": "required",
      "hashes": [
        {
          "alg": "SHA-256",
          "content": "c5074c67558bae0924bce67f2c34318d5c4c2dd6f2ee8b1287864455ae6c223b"
        }
      ],
      "purl": "pkg:golang/github.com/syndtr/goleveldb@v1.0.1-0.20210305035536-64b5b1c73954",
      "externalReferences": [
        {
          "url": "https://github.com/syndtr/goleveldb",
          "type": "vcs"
        }
      ]
    },
    {
      "type": "library",
      "bom-ref": "pkg:golang/github.com/tgulacsi/picago@v0.0.0-20171229130838-9e1ac2306c70",
      "name": "github.com/tgulacsi/picago",
      "version": "v0.0.0-20171229130838-9e1ac2306c70",
      "scope": "required",
      "hashes": [
        {
          "alg": "SHA-256",
          "content": "7a5be97df027acb7169ecba7064bd3c31afe43bf5b3d2353d7edbfa4e1640a3d"
        }
      ],
      "purl": "pkg:golang/github.com/tgulacsi/picago@v0.0.0-20171229130838-9e1ac2306c70",
      "externalReferences": [
        {
          "url": "https://github.com/tgulacsi/picago",
          "type": "vcs"
        }
      ]
    },
    {
      "type": "library",
      "bom-ref": "pkg:golang/github.com/tomnomnom/linkheader@v0.0.0-20180905144013-02ca5825eb80",
      "name": "github.com/tomnomnom/linkheader",
      "version": "v0.0.0-20180905144013-02ca5825eb80",
      "scope": "required",
      "hashes": [
        {
          "alg": "SHA-256",
          "content": "9eb677c92358c096d2a43e9c7bd76e88ff90903dc9b8b09c5a475a7a1512ff76"
        }
      ],
      "purl": "pkg:golang/github.com/tomnomnom/linkheader@v0.0.0-20180905144013-02ca5825eb80",
      "externalReferences": [
        {
          "url": "https://github.com/tomnomnom/linkheader",
          "type": "vcs"
        }
      ]
    },
    {
      "type": "library",
      "bom-ref": "pkg:golang/github.com/visualfc/fastmod@v1.3.6",
      "name": "github.com/visualfc/fastmod",
      "version": "v1.3.6",
      "scope": "required",
      "hashes": [
        {
          "alg": "SHA-256",
          "content": "805bc0c64e95a046e4d091755cfd0ace76d097985824df59621458432de970ab"
        }
      ],
      "purl": "pkg:golang/github.com/visualfc/fastmod@v1.3.6",
      "externalReferences": [
        {
          "url": "https://github.com/visualfc/fastmod",
          "type": "vcs"
        }
      ]
    },
    {
      "type": "library",
      "bom-ref": "pkg:golang/github.com/visualfc/goversion@v1.0.0",
      "name": "github.com/visualfc/goversion",
      "version": "v1.0.0",
      "scope": "required",
      "hashes": [
        {
          "alg": "SHA-256",
          "content": "14080a3f8a5ab78833468bdd893ec0ab12c6de865786625577b15e91c8ca9e5b"
        }
      ],
      "purl": "pkg:golang/github.com/visualfc/goversion@v1.0.0",
      "externalReferences": [
        {
          "url": "https://github.com/visualfc/goversion",
          "type": "vcs"
        }
      ]
    },
    {
      "type": "library",
      "bom-ref": "pkg:golang/go.opencensus.io@v0.23.0",
      "name": "go.opencensus.io",
      "version": "v0.23.0",
      "scope": "required",
      "hashes": [
        {
          "alg": "SHA-256",
          "content": "82a0b0d0b7cbc52733f22ad28bc7b141cedfc90d1f29053faa70bf5fcf95ff53"
        }
      ],
      "purl": "pkg:golang/go.opencensus.io@v0.23.0"
    },
    {
      "type": "library",
      "bom-ref": "pkg:golang/go4.org@v0.0.0-20190218023631-ce4c26f7be8e",
      "name": "go4.org",
      "version": "v0.0.0-20190218023631-ce4c26f7be8e",
      "scope": "required",
      "hashes": [
        {
          "alg": "SHA-256",
          "content": "9bd2df011af6548396d2fb15d7d9042a9fec590bd99c6a1b03c247ba2fd72686"
        }
      ],
      "purl": "pkg:golang/go4.org@v0.0.0-20190218023631-ce4c26f7be8e"
    },
    {
      "type": "library",
      "bom-ref": "pkg:golang/golang.org/x/crypto@v0.0.0-20210817164053-32db794688a5",
      "name": "golang.org/x/crypto",
      "version": "v0.0.0-20210817164053-32db794688a5",
      "scope": "required",
      "hashes": [
        {
          "alg": "SHA-256",
          "content": "1d68ffc632077e3614e67557a53334b37f49f426cb9fb09ce5aec80b9af0b0c4"
        }
      ],
      "purl": "pkg:golang/golang.org/x/crypto@v0.0.0-20210817164053-32db794688a5"
    },
    {
      "type": "library",
      "bom-ref": "pkg:golang/golang.org/x/image@v0.0.0-20210628002857-a66eb6448b8d",
      "name": "golang.org/x/image",
      "version": "v0.0.0-20210628002857-a66eb6448b8d",
      "scope": "required",
      "hashes": [
        {
          "alg": "SHA-256",
          "content": "44d3c07e2da71d8ec2dacac057c038f63a6c62bd000de742935c2ae9f4cc4efb"
        }
      ],
      "purl": "pkg:golang/golang.org/x/image@v0.0.0-20210628002857-a66eb6448b8d"
    },
    {
      "type": "library",
      "bom-ref": "pkg:golang/golang.org/x/lint@v0.0.0-20210508222113-6edffad5e616",
      "name": "golang.org/x/lint",
      "version": "v0.0.0-20210508222113-6edffad5e616",
      "scope": "required",
      "hashes": [
        {
          "alg": "SHA-256",
          "content": "54b96267477efdabcfad75c7f8e6a475786926e128059bb08759b68fb53a22e8"
        }
      ],
      "purl": "pkg:golang/golang.org/x/lint@v0.0.0-20210508222113-6edffad5e616"
    },
    {
      "type": "library",
      "bom-ref": "pkg:golang/golang.org/x/mod@v0.4.2",
      "name": "golang.org/x/mod",
      "version": "v0.4.2",
      "scope": "required",
      "hashes": [
        {
          "alg": "SHA-256",
          "content": "1b3f7ab0858adce6a556ffc8fea37280fe36cf2a0aa77c69b5154259114406fa"
        }
      ],
      "purl": "pkg:golang/golang.org/x/mod@v0.4.2"
    },
    {
      "type": "library",
      "bom-ref": "pkg:golang/golang.org/x/net@v0.0.0-20210716203947-853a461950ff",
      "name": "golang.org/x/net",
      "version": "v0.0.0-20210716203947-853a461950ff",
      "scope": "required",
      "hashes": [
        {
          "alg": "SHA-256",
          "content": "8f610afd0a3160d06c5c8e11edf424911524f32eb09ce048fba8603dd3ffe83b"
        }
      ],
      "purl": "pkg:golang/golang.org/x/net@v0.0.0-20210716203947-853a461950ff"
    },
    {
      "type": "library",
      "bom-ref": "pkg:golang/golang.org/x/oauth2@v0.0.0-20210628180205-a41e5a781914",
      "name": "golang.org/x/oauth2",
      "version": "v0.0.0-20210628180205-a41e5a781914",
      "scope": "required",
      "hashes": [
        {
          "alg": "SHA-256",
          "content": "dc1e37056c34c4406c2d9fcd3b55402f3e9fa69537e3cd698a4fb62acbf8e73f"
        }
      ],
      "purl": "pkg:golang/golang.org/x/oauth2@v0.0.0-20210628180205-a41e5a781914"
    },
    {
      "type": "library",
      "bom-ref": "pkg:golang/golang.org/x/sync@v0.0.0-20210220032951-036812b2e83c",
      "name": "golang.org/x/sync",
      "version": "v0.0.0-20210220032951-036812b2e83c",
      "scope": "required",
      "hashes": [
        {
          "alg": "SHA-256",
          "content": "e4ab25198c05a6484687e435e9bc0c3f770ea27b47f0539ea7bb4657ce98ed24"
        }
      ],
      "purl": "pkg:golang/golang.org/x/sync@v0.0.0-20210220032951-036812b2e83c"
    },
    {
      "type": "library",
      "bom-ref": "pkg:golang/golang.org/x/sys@v0.0.0-20211216021012-1d35b9e2eb4e",
      "name": "golang.org/x/sys",
      "version": "v0.0.0-20211216021012-1d35b9e2eb4e",
      "scope": "required",
      "hashes": [
        {
          "alg": "SHA-256",
          "content": "7cb392939434d1e7e44af026fb8c5ca170fe45198b9a6ba53e7e48dd8f45d843"
        }
      ],
      "purl": "pkg:golang/golang.org/x/sys@v0.0.0-20211216021012-1d35b9e2eb4e"
    },
    {
      "type": "library",
      "bom-ref": "pkg:golang/golang.org/x/term@v0.0.0-20210615171337-6886f2dfbf5b",
      "name": "golang.org/x/term",
      "version": "v0.0.0-20210615171337-6886f2dfbf5b",
      "scope": "required",
      "hashes": [
        {
          "alg": "SHA-256",
          "content": "f732ae928d389d1e208d9e3e0cd8c7a9194026a6c91131f088d283a937ce8df1"
        }
      ],
      "purl": "pkg:golang/golang.org/x/term@v0.0.0-20210615171337-6886f2dfbf5b"
    },
    {
      "type": "library",
      "bom-ref": "pkg:golang/golang.org/x/text@v0.3.6",
      "name": "golang.org/x/text",
      "version": "v0.3.6",
      "scope": "required",
      "hashes": [
        {
          "alg": "SHA-256",
          "content": "691631371bfa886425c956999a4e998181036be260d7c0f179b3d2adde9b8353"
        }
      ],
      "purl": "pkg:golang/golang.org/x/text@v0.3.6"
    },
    {
      "type": "library",
      "bom-ref": "pkg:golang/golang.org/x/time@v0.0.0-20210723032227-1f47c861a9ac",
      "name": "golang.org/x/time",
      "version": "v0.0.0-20210723032227-1f47c861a9ac",
      "scope": "required",
      "hashes": [
        {
          "alg": "SHA-256",
          "content": "ef3933ec152dc0d145a9ca3027e44882ed8c695fcc6a9111903232fa6c0fca3b"
        }
      ],
      "purl": "pkg:golang/golang.org/x/time@v0.0.0-20210723032227-1f47c861a9ac"
    },
    {
      "type": "library",
      "bom-ref": "pkg:golang/golang.org/x/tools@v0.1.5",
      "name": "golang.org/x/tools",
      "version": "v0.1.5",
      "scope": "required",
      "hashes": [
        {
          "alg": "SHA-256",
          "content": "a2e7b0cc4ea9fbf544077d586274db109762f2916a2a9e0fe27f39bf0a370c70"
        }
      ],
      "purl": "pkg:golang/golang.org/x/tools@v0.1.5"
    },
    {
      "type": "library",
      "bom-ref": "pkg:golang/golang.org/x/xerrors@v0.0.0-20200804184101-5ec99f83aff1",
      "name": "golang.org/x/xerrors",
      "version": "v0.0.0-20200804184101-5ec99f83aff1",
      "scope": "required",
      "hashes": [
        {
          "alg": "SHA-256",
          "content": "828d5b2bf0ff045655d88f1c21077534a119fb4a304931b57c34dc8b822a15c1"
        }
      ],
      "purl": "pkg:golang/golang.org/x/xerrors@v0.0.0-20200804184101-5ec99f83aff1"
    },
    {
      "type": "library",
      "bom-ref": "pkg:golang/google.golang.org/api@v0.42.0",
      "name": "google.golang.org/api",
      "version": "v0.42.0",
      "scope": "required",
      "hashes": [
        {
          "alg": "SHA-256",
          "content": "baa0132e4a71881ae1aef16879b5d48efcb313d9d07fea55cb2d19d081c4f9f7"
        }
      ],
      "purl": "pkg:golang/google.golang.org/api@v0.42.0"
    },
    {
      "type": "library",
      "bom-ref": "pkg:golang/google.golang.org/appengine@v1.6.7",
      "name": "google.golang.org/appengine",
      "version": "v1.6.7",
      "scope": "required",
      "hashes": [
        {
          "alg": "SHA-256",
          "content": "159475ab47b1830c733f3a7f685f9571c1ab49fc5f3e9901aa320812adebbba7"
        }
      ],
      "purl": "pkg:golang/google.golang.org/appengine@v1.6.7"
    },
    {
      "type": "library",
      "bom-ref": "pkg:golang/google.golang.org/genproto@v0.0.0-20210716133855-ce7ef5c701ea",
      "name": "google.golang.org/genproto",
      "version": "v0.0.0-20210716133855-ce7ef5c701ea",
      "scope": "required",
      "hashes": [
        {
          "alg": "SHA-256",
          "content": "f19c82720ba052a6a6c69fef652109c3d08ccbb55995259824b2c93e2fdd4830"
        }
      ],
      "purl": "pkg:golang/google.golang.org/genproto@v0.0.0-20210716133855-ce7ef5c701ea"
    },
    {
      "type": "library",
      "bom-ref": "pkg:golang/google.golang.org/grpc@v1.39.0",
      "name": "google.golang.org/grpc",
      "version": "v1.39.0",
      "scope": "required",
      "hashes": [
        {
          "alg": "SHA-256",
          "content": "2a5cfc23d91db6420de84a471d438c2c26214e7ff65807b96b4b3585c0647532"
        }
      ],
      "purl": "pkg:golang/google.golang.org/grpc@v1.39.0"
    },
    {
      "type": "library",
      "bom-ref": "pkg:golang/google.golang.org/protobuf@v1.27.1",
      "name": "google.golang.org/protobuf",
      "version": "v1.27.1",
      "scope": "required",
      "hashes": [
        {
          "alg": "SHA-256",
          "content": "4a7a9b9c3c3557b46265c5cfc793047aa3efdacefd2fd8bb0495251bff91bab4"
        }
      ],
      "purl": "pkg:golang/google.golang.org/protobuf@v1.27.1"
    },
    {
      "type": "library",
      "bom-ref": "pkg:golang/gopkg.in/mgo.v2@v2.0.0-20160818020120-3f83fa500528",
      "name": "gopkg.in/mgo.v2",
      "version": "v2.0.0-20160818020120-3f83fa500528",
      "scope": "required",
      "hashes": [
        {
          "alg": "SHA-256",
          "content": "fec6aa5b09bbddd2e6bb36cd85ef7617442c67f2a214d0fe7ac1dca36bf58626"
        }
      ],
      "purl": "pkg:golang/gopkg.in/mgo.v2@v2.0.0-20160818020120-3f83fa500528",
      "externalReferences": [
        {
          "url": "https://github.com/go-mgo/mgo",
          "type": "vcs"
        }
      ]
    },
    {
      "type": "library",
      "bom-ref": "pkg:golang/honnef.co/go/js/dom@v0.0.0-20200509013220-d4405f7ab4d8",
      "name": "honnef.co/go/js/dom",
      "version": "v0.0.0-20200509013220-d4405f7ab4d8",
      "scope": "required",
      "hashes": [
        {
          "alg": "SHA-256",
          "content": "b9f000a3f2d54f59a7b06de2bc5a3711d19ae84e55782a011e3d21ae63f95e0d"
        }
      ],
      "purl": "pkg:golang/honnef.co/go/js/dom@v0.0.0-20200509013220-d4405f7ab4d8"
    },
    {
      "type": "library",
      "bom-ref": "pkg:golang/honnef.co/go/tools@v0.2.1",
      "name": "honnef.co/go/tools",
      "version": "v0.2.1",
      "scope": "required",
      "hashes": [
        {
          "alg": "SHA-256",
          "content": "fc43ebffff9430c5f0313917bc20a86890eaf1ca6330ef343aef8be0f0e8da66"
        }
      ],
      "purl": "pkg:golang/honnef.co/go/tools@v0.2.1"
    },
    {
      "type": "library",
      "bom-ref": "pkg:golang/lukechampine.com/uint128@v1.1.1",
      "name": "lukechampine.com/uint128",
      "version": "v1.1.1",
      "scope": "required",
      "hashes": [
        {
          "alg": "SHA-256",
          "content": "a67c42012cfbf3b88c7fed36b2c226aa4e8e2edf99e501cca19c945d1e33e895"
        }
      ],
      "purl": "pkg:golang/lukechampine.com/uint128@v1.1.1"
    },
    {
      "type": "library",
      "bom-ref": "pkg:golang/modernc.org/cc/v3@v3.35.18",
      "name": "modernc.org/cc/v3",
      "version": "v3.35.18",
      "scope": "required",
      "hashes": [
        {
          "alg": "SHA-256",
          "content": "acc66145c5ab6dad32de756676243b93102038e4aada6d9fd95ce31cb804b3a5"
        }
      ],
      "purl": "pkg:golang/modernc.org/cc/v3@v3.35.18"
    },
    {
      "type": "library",
      "bom-ref": "pkg:golang/modernc.org/ccgo/v3@v3.12.95",
      "name": "modernc.org/ccgo/v3",
      "version": "v3.12.95",
      "scope": "required",
      "hashes": [
        {
          "alg": "SHA-256",
          "content": "626d891b61b73f823266a8d34e88c74e5eea3b4472b177864983d2a0a3d20717"
        }
      ],
      "purl": "pkg:golang/modernc.org/ccgo/v3@v3.12.95"
    },
    {
      "type": "library",
      "bom-ref": "pkg:golang/modernc.org/fileutil@v1.0.1-0.20200808163328-2079183a536e",
      "name": "modernc.org/fileutil",
      "version": "v1.0.1-0.20200808163328-2079183a536e",
      "scope": "required",
      "hashes": [
        {
          "alg": "SHA-256",
          "content": "6a2f9f1d2003c39e832ebd3b27ebf99bd36654b60065525079000bf8fcd738bf"
        }
      ],
      "purl": "pkg:golang/modernc.org/fileutil@v1.0.1-0.20200808163328-2079183a536e"
    },
    {
      "type": "library",
      "bom-ref": "pkg:golang/modernc.org/internal@v1.0.3",
      "name": "modernc.org/internal",
      "version": "v1.0.3",
      "scope": "required",
      "hashes": [
        {
          "alg": "SHA-256",
          "content": "8afbb2ef47ad708c3b258e72e5e22311c125381a705ad015b3d6daba42f22b18"
        }
      ],
      "purl": "pkg:golang/modernc.org/internal@v1.0.3"
    },
    {
      "type": "library",
      "bom-ref": "pkg:golang/modernc.org/kv@v1.0.4",
      "name": "modernc.org/kv",
      "version": "v1.0.4",
      "scope": "required",
      "hashes": [
        {
          "alg": "SHA-256",
          "content": "388aac622698b2d66798deadf0fce8dc112cde80383098f44d48894f6bd1575b"
        }
      ],
      "purl": "pkg:golang/modernc.org/kv@v1.0.4"
    },
    {
      "type": "library",
      "bom-ref": "pkg:golang/modernc.org/libc@v1.11.104",
      "name": "modernc.org/libc",
      "version": "v1.11.104",
      "scope": "required",
      "hashes": [
        {
          "alg": "SHA-256",
          "content": "831a1ae5bdc73e8ececc3e2d2998e09f05e4ff0fffbb5a28bef8d230fdd0f7a4"
        }
      ],
      "purl": "pkg:golang/modernc.org/libc@v1.11.104"
    },
    {
      "type": "library",
      "bom-ref": "pkg:golang/modernc.org/lldb@v1.0.2",
      "name": "modernc.org/lldb",
      "version": "v1.0.2",
      "scope": "required",
      "hashes": [
        {
          "alg": "SHA-256",
          "content": "2c1c39f31545974d4eb8ce54f7efad2f2df09aef8fa16a24e93ddd1ee3637199"
        }
      ],
      "purl": "pkg:golang/modernc.org/lldb@v1.0.2"
    },
    {
      "type": "library",
      "bom-ref": "pkg:golang/modernc.org/mathutil@v1.4.1",
      "name": "modernc.org/mathutil",
      "version": "v1.4.1",
      "scope": "required",
      "hashes": [
        {
          "alg": "SHA-256",
          "content": "8a3ddf6067bccc117856efa0d284fb981d3aafcb2a1962ae26ed725de4786f2f"
        }
      ],
      "purl": "pkg:golang/modernc.org/mathutil@v1.4.1"
    },
    {
      "type": "library",
      "bom-ref": "pkg:golang/modernc.org/memory@v1.0.5",
      "name": "modernc.org/memory",
      "version": "v1.0.5",
      "scope": "required",
      "hashes": [
        {
          "alg": "SHA-256",
          "content": "5d1721f2dad5ec682f4de7368bb8dcdf7625508d112950c1bd9e5e6799bccb5e"
        }
      ],
      "purl": "pkg:golang/modernc.org/memory@v1.0.5"
    },
    {
      "type": "library",
      "bom-ref": "pkg:golang/modernc.org/opt@v0.1.1",
      "name": "modernc.org/opt",
      "version": "v0.1.1",
      "scope": "required",
      "hashes": [
        {
          "alg": "SHA-256",
          "content": "ff4457f7693dbf055e0d78fe5e7db70caa76549b9b2fb93ca8d7df343eaa9f70"
        }
      ],
      "purl": "pkg:golang/modernc.org/opt@v0.1.1"
    },
    {
      "type": "library",
      "bom-ref": "pkg:golang/modernc.org/sortutil@v1.1.0",
      "name": "modernc.org/sortutil",
      "version": "v1.1.0",
      "scope": "required",
      "hashes": [
        {
          "alg": "SHA-256",
          "content": "a0fdd4e2e33e353fea05071b83f2b68aa017d0dc7b0756fa619b6adc693f3e33"
        }
      ],
      "purl": "pkg:golang/modernc.org/sortutil@v1.1.0"
    },
    {
      "type": "library",
      "bom-ref": "pkg:golang/modernc.org/sqlite@v1.14.3",
      "name": "modernc.org/sqlite",
      "version": "v1.14.3",
      "scope": "required",
      "hashes": [
        {
          "alg": "SHA-256",
          "content": "a6cad3c20a44ba381610fdc535db02f72361e6d49e03bed4d067968471f85e64"
        }
      ],
      "purl": "pkg:golang/modernc.org/sqlite@v1.14.3"
    },
    {
      "type": "library",
      "bom-ref": "pkg:golang/modernc.org/strutil@v1.1.1",
      "name": "modernc.org/strutil",
      "version": "v1.1.1",
      "scope": "required",
      "hashes": [
        {
          "alg": "SHA-256",
          "content": "c6ff89d415d8dcea65d802eb070c9f122905023f299aa7299df9aec14c1ca33b"
        }
      ],
      "purl": "pkg:golang/modernc.org/strutil@v1.1.1"
    },
    {
      "type": "library",
      "bom-ref": "pkg:golang/modernc.org/token@v1.0.0",
      "name": "modernc.org/token",
      "version": "v1.0.0",
      "scope": "required",
      "hashes": [
        {
          "alg": "SHA-256",
          "content": "6b48da5a234c0e10d4b6a3a3d3dc2f8d6580a9ddeaed6a41ba598bf47d9e82c9"
        }
      ],
      "purl": "pkg:golang/modernc.org/token@v1.0.0"
    },
    {
      "type": "library",
      "bom-ref": "pkg:golang/modernc.org/zappy@v1.0.3",
      "name": "modernc.org/zappy",
      "version": "v1.0.3",
      "scope": "required",
      "hashes": [
        {
          "alg": "SHA-256",
          "content": "4ebf8fde47250d2aef0bacd8056da15a63a6bb94a31ba3edbc2b774428d19acb"
        }
      ],
      "purl": "pkg:golang/modernc.org/zappy@v1.0.3"
    },
    {
      "type": "library",
      "bom-ref": "pkg:golang/myitcv.io@v0.0.0-20201125173645-a7167afc9e13",
      "name": "myitcv.io",
      "version": "v0.0.0-20201125173645-a7167afc9e13",
      "scope": "required",
      "hashes": [
        {
          "alg": "SHA-256",
          "content": "926cbb3fc9f9cd633ee289662229996b2fc653e92c97e56cc433129a6d2a1a66"
        }
      ],
      "purl": "pkg:golang/myitcv.io@v0.0.0-20201125173645-a7167afc9e13"
    },
    {
      "type": "library",
      "bom-ref": "pkg:golang/rsc.io/pdf@v0.1.1",
      "name": "rsc.io/pdf",
      "version": "v0.1.1",
      "scope": "required",
      "hashes": [
        {
          "alg": "SHA-256",
          "content": "93531ccef60352f2417bdddb61def0ad92cb50470b640b85f36e3f2387b95ebe"
        }
      ],
      "purl": "pkg:golang/rsc.io/pdf@v0.1.1"
    },
    {
      "type": "library",
      "bom-ref": "pkg:golang/rsc.io/qr@v0.2.0",
      "name": "rsc.io/qr",
      "version": "v0.2.0",
      "scope": "required",
      "hashes": [
        {
          "alg": "SHA-256",
          "content": "eaf04b79ae7f3513154f3f15eba822a5e2f2719325ffe52516693c0efa90e966"
        }
      ],
      "purl": "pkg:golang/rsc.io/qr@v0.2.0"
    },
    {
      "type": "library",
      "publisher": "Vinay Sajip",
      "name": "logging",
      "version": "0.4.9.6",
      "description": "A logging module for Python",
      "hashes": [
        {
          "alg": "MD5",
          "content": "dc0a7ebc8b8970263911e11e7b7e1ca8"
        },
        {
          "alg": "SHA-256",
          "content": "26f6b50773f085042d301085bd1bf5d9f3735704db9f37c1ce6d8b85c38f2417"
        }
      ],
      "licenses": [
        {
          "license": {
            "name": "Copyright (C) 2001-2005 by Vinay Sajip. All Rights Reserved. See LICENSE for license."
          }
        }
      ],
      "purl": "pkg:pypi/logging@0.4.9.6",
      "modified": false
    }
  ],
  "dependencies": [
    {
      "ref": "pkg:golang/bazil.org/fuse@v0.0.0-20180421153158-65cc252bf669"
    },
    {
      "ref": "pkg:golang/cloud.google.com/go@v0.80.0",
      "dependsOn": [
        "pkg:golang/cloud.google.com/go/storage@v1.10.0",
        "pkg:golang/github.com/golang/protobuf@v1.5.2",
        "pkg:golang/github.com/google/go-cmp@v0.5.6",
        "pkg:golang/github.com/googleapis/gax-go/v2@v2.0.5",
        "pkg:golang/github.com/jstemmer/go-junit-report@v0.9.1",
        "pkg:golang/go.opencensus.io@v0.23.0",
        "pkg:golang/golang.org/x/lint@v0.0.0-20210508222113-6edffad5e616",
        "pkg:golang/golang.org/x/net@v0.0.0-20210716203947-853a461950ff",
        "pkg:golang/golang.org/x/oauth2@v0.0.0-20210628180205-a41e5a781914",
        "pkg:golang/golang.org/x/text@v0.3.6",
        "pkg:golang/golang.org/x/tools@v0.1.5",
        "pkg:golang/google.golang.org/api@v0.42.0",
        "pkg:golang/google.golang.org/genproto@v0.0.0-20210716133855-ce7ef5c701ea",
        "pkg:golang/google.golang.org/grpc@v1.39.0"
      ]
    },
    {
      "ref": "pkg:golang/cloud.google.com/go/datastore@v1.1.0",
      "dependsOn": [
        "pkg:golang/cloud.google.com/go@v0.80.0",
        "pkg:golang/github.com/golang/protobuf@v1.5.2",
        "pkg:golang/github.com/google/go-cmp@v0.5.6",
        "pkg:golang/github.com/googleapis/gax-go/v2@v2.0.5",
        "pkg:golang/golang.org/x/sys@v0.0.0-20211216021012-1d35b9e2eb4e",
        "pkg:golang/golang.org/x/tools@v0.1.5",
        "pkg:golang/google.golang.org/api@v0.42.0",
        "pkg:golang/google.golang.org/genproto@v0.0.0-20210716133855-ce7ef5c701ea",
        "pkg:golang/google.golang.org/grpc@v1.39.0"
      ]
    },
    {
      "ref": "pkg:golang/cloud.google.com/go/logging@v1.3.0",
      "dependsOn": [
        "pkg:golang/cloud.google.com/go@v0.80.0",
        "pkg:golang/cloud.google.com/go/storage@v1.10.0",
        "pkg:golang/github.com/golang/protobuf@v1.5.2",
        "pkg:golang/github.com/google/go-cmp@v0.5.6",
        "pkg:golang/github.com/googleapis/gax-go/v2@v2.0.5",
        "pkg:golang/go.opencensus.io@v0.23.0",
        "pkg:golang/golang.org/x/mod@v0.4.2",
        "pkg:golang/golang.org/x/oauth2@v0.0.0-20210628180205-a41e5a781914",
        "pkg:golang/golang.org/x/sys@v0.0.0-20211216021012-1d35b9e2eb4e",
        "pkg:golang/golang.org/x/tools@v0.1.5",
        "pkg:golang/google.golang.org/api@v0.42.0",
        "pkg:golang/google.golang.org/genproto@v0.0.0-20210716133855-ce7ef5c701ea",
        "pkg:golang/google.golang.org/grpc@v1.39.0"
      ]
    },
    {
      "ref": "pkg:golang/cloud.google.com/go/storage@v1.10.0",
      "dependsOn": [
        "pkg:golang/cloud.google.com/go@v0.80.0",
        "pkg:golang/github.com/golang/protobuf@v1.5.2",
        "pkg:golang/github.com/google/go-cmp@v0.5.6",
        "pkg:golang/github.com/googleapis/gax-go/v2@v2.0.5",
        "pkg:golang/golang.org/x/net@v0.0.0-20210716203947-853a461950ff",
        "pkg:golang/golang.org/x/oauth2@v0.0.0-20210628180205-a41e5a781914",
        "pkg:golang/golang.org/x/sys@v0.0.0-20211216021012-1d35b9e2eb4e",
        "pkg:golang/golang.org/x/tools@v0.1.5",
        "pkg:golang/google.golang.org/api@v0.42.0",
        "pkg:golang/google.golang.org/genproto@v0.0.0-20210716133855-ce7ef5c701ea",
        "pkg:golang/google.golang.org/grpc@v1.39.0"
      ]
    },
    {
      "ref": "pkg:golang/filippo.io/age@v1.0.0",
      "dependsOn": [
        "pkg:golang/golang.org/x/crypto@v0.0.0-20210817164053-32db794688a5",
        "pkg:golang/golang.org/x/sys@v0.0.0-20211216021012-1d35b9e2eb4e",
        "pkg:golang/golang.org/x/term@v0.0.0-20210615171337-6886f2dfbf5b"
      ]
    },
    {
      "ref": "pkg:golang/github.com/BurntSushi/toml@v0.3.1"
    },
    {
      "ref": "pkg:golang/github.com/aws/aws-sdk-go@v1.14.31",
      "dependsOn": [
        "pkg:golang/github.com/go-ini/ini@v1.38.1",
        "pkg:golang/github.com/jmespath/go-jmespath@v0.0.0-20160202185014-0b12d6b521d8"
      ]
    },
    {
      "ref": "pkg:golang/github.com/bradfitz/latlong@v0.0.0-20170410180902-f3db6d0dff40"
    },
    {
      "ref": "pkg:golang/github.com/edsrzf/mmap-go@v1.1.0",
      "dependsOn": [
        "pkg:golang/golang.org/x/sys@v0.0.0-20211216021012-1d35b9e2eb4e"
      ]
    },
    {
      "ref": "pkg:golang/github.com/fsnotify/fsnotify@v1.4.9",
      "dependsOn": [
        "pkg:golang/golang.org/x/sys@v0.0.0-20211216021012-1d35b9e2eb4e"
      ]
    },
    {
      "ref": "pkg:golang/github.com/garyburd/go-oauth@v0.0.0-20180319155456-bca2e7f09a17"
    },
    {
      "ref": "pkg:golang/github.com/go-ini/ini@v1.38.1"
    },
    {
      "ref": "pkg:golang/github.com/go-sql-driver/mysql@v1.4.1-0.20180719071942-99ff426eb706"
    },
    {
      "ref": "pkg:golang/github.com/golang/groupcache@v0.0.0-20200121045136-8c9f03a8e57e"
    },
    {
      "ref": "pkg:golang/github.com/golang/protobuf@v1.5.2",
      "dependsOn": [
        "pkg:golang/github.com/google/go-cmp@v0.5.6",
        "pkg:golang/google.golang.org/protobuf@v1.27.1"
      ]
    },
    {
      "ref": "pkg:golang/github.com/golang/snappy@v0.0.3"
    },
    {
      "ref": "pkg:golang/github.com/google/go-cmp@v0.5.6",
      "dependsOn": [
        "pkg:golang/golang.org/x/xerrors@v0.0.0-20200804184101-5ec99f83aff1"
      ]
    },
    {
      "ref": "pkg:golang/github.com/google/uuid@v1.3.0"
    },
    {
      "ref": "pkg:golang/github.com/googleapis/gax-go/v2@v2.0.5",
      "dependsOn": [
        "pkg:golang/google.golang.org/grpc@v1.39.0"
      ]
    },
    {
      "ref": "pkg:golang/github.com/gopherjs/gopherjs@v0.0.0-20200217142428-fce0ec30dd00"
    },
    {
      "ref": "pkg:golang/github.com/gopherjs/jquery@v0.0.0-20180404123100-3ba2b901425e"
    },
    {
      "ref": "pkg:golang/github.com/goplusjs/gopherjs@v1.1.6",
      "dependsOn": [
        "pkg:golang/github.com/fsnotify/fsnotify@v1.4.9",
        "pkg:golang/github.com/gopherjs/gopherjs@v0.0.0-20200217142428-fce0ec30dd00",
        "pkg:golang/github.com/kisielk/gotool@v1.0.0",
        "pkg:golang/github.com/neelance/astrewrite@v0.0.0-20160511093645-99348263ae86",
        "pkg:golang/github.com/neelance/sourcemap@v0.0.0-20151028013722-8c68805598ab",
        "pkg:golang/github.com/shurcooL/httpfs@v0.0.0-20190707220628-8d4bc4ba7749",
        "pkg:golang/github.com/spf13/cobra@v0.0.5",
        "pkg:golang/github.com/spf13/pflag@v1.0.5",
        "pkg:golang/github.com/visualfc/fastmod@v1.3.6",
        "pkg:golang/github.com/visualfc/goversion@v1.0.0",
        "pkg:golang/golang.org/x/crypto@v0.0.0-20210817164053-32db794688a5",
        "pkg:golang/golang.org/x/sys@v0.0.0-20211216021012-1d35b9e2eb4e",
        "pkg:golang/golang.org/x/tools@v0.1.5"
      ]
    },
    {
      "ref": "pkg:golang/github.com/gorilla/websocket@v1.4.2"
    },
    {
      "ref": "pkg:golang/github.com/hjfreyer/taglib-go@v0.0.0-20151027170453-0ef8bba9c41b"
    },
    {
      "ref": "pkg:golang/github.com/inconshreveable/mousetrap@v1.0.0"
    },
    {
      "ref": "pkg:golang/github.com/jmespath/go-jmespath@v0.0.0-20160202185014-0b12d6b521d8"
    },
    {
      "ref": "pkg:golang/github.com/jstemmer/go-junit-report@v0.9.1"
    },
    {
      "ref": "pkg:golang/github.com/kballard/go-shellquote@v0.0.0-20180428030007-95032a82bc51"
    },
    {
      "ref": "pkg:golang/github.com/kisielk/gotool@v1.0.0"
    },
    {
      "ref": "pkg:golang/github.com/kr/fs@v0.1.0"
    },
    {
      "ref": "pkg:golang/github.com/lib/pq@v1.10.2"
    },
    {
      "ref": "pkg:golang/github.com/mailgun/mailgun-go@v0.0.0-20171127222028-17e8bd11e87c"
    },
    {
      "ref": "pkg:golang/github.com/mattn/go-isatty@v0.0.12",
      "dependsOn": [
        "pkg:golang/golang.org/x/sys@v0.0.0-20211216021012-1d35b9e2eb4e"
      ]
    },
    {
      "ref": "pkg:golang/github.com/mattn/go-mastodon@v0.0.5-0.20190517015615-8f6192e26b66",
      "dependsOn": [
        "pkg:golang/github.com/gorilla/websocket@v1.4.2",
        "pkg:golang/github.com/mattn/go-isatty@v0.0.12",
        "pkg:golang/github.com/tomnomnom/linkheader@v0.0.0-20180905144013-02ca5825eb80",
        "pkg:golang/golang.org/x/net@v0.0.0-20210716203947-853a461950ff",
        "pkg:golang/golang.org/x/sys@v0.0.0-20211216021012-1d35b9e2eb4e"
      ]
    },
    {
      "ref": "pkg:golang/github.com/miekg/dns@v1.1.43",
      "dependsOn": [
        "pkg:golang/golang.org/x/net@v0.0.0-20210716203947-853a461950ff",
        "pkg:golang/golang.org/x/sync@v0.0.0-20210220032951-036812b2e83c",
        "pkg:golang/golang.org/x/sys@v0.0.0-20211216021012-1d35b9e2eb4e"
      ]
    },
    {
      "ref": "pkg:golang/github.com/neelance/astrewrite@v0.0.0-20160511093645-99348263ae86"
    },
    {
      "ref": "pkg:golang/github.com/neelance/sourcemap@v0.0.0-20151028013722-8c68805598ab"
    },
    {
      "ref": "pkg:golang/github.com/nf/cr2@v0.0.0-20140528043846-05d46fef4f2f"
    },
    {
      "ref": "pkg:golang/github.com/perkeep/b2@v0.0.0-20180913003434-1ae8d9b78db9"
    },
    {
      "ref": "pkg:golang/github.com/pkg/errors@v0.9.1"
    },
    {
      "ref": "pkg:golang/github.com/pkg/sftp@v1.13.2",
      "dependsOn": [
        "pkg:golang/github.com/kr/fs@v0.1.0",
        "pkg:golang/golang.org/x/crypto@v0.0.0-20210817164053-32db794688a5",
        "pkg:golang/golang.org/x/sys@v0.0.0-20211216021012-1d35b9e2eb4e"
      ]
    },
    {
      "ref": "pkg:golang/github.com/plaid/plaid-go@v0.0.0-20161222051224-02b6af68061b"
    },
    {
      "ref": "pkg:golang/github.com/remyoudompheng/bigfft@v0.0.0-20200410134404-eec4a21b6bb0"
    },
    {
      "ref": "pkg:golang/github.com/rogpeppe/go-internal@v1.3.0"
    },
    {
      "ref": "pkg:golang/github.com/russross/blackfriday@v2.0.0"
    },
    {
      "ref": "pkg:golang/github.com/rwcarlsen/goexif@v0.0.0-20190401172101-9e8deecbddbd"
    },
    {
      "ref": "pkg:golang/github.com/shurcooL/httpfs@v0.0.0-20190707220628-8d4bc4ba7749"
    },
    {
      "ref": "pkg:golang/github.com/shurcooL/sanitized_anchor_name@v1.0.0"
    },
    {
      "ref": "pkg:golang/github.com/spf13/cobra@v0.0.5",
      "dependsOn": [
        "pkg:golang/github.com/BurntSushi/toml@v0.3.1",
        "pkg:golang/github.com/inconshreveable/mousetrap@v1.0.0",
        "pkg:golang/github.com/spf13/pflag@v1.0.5"
      ]
    },
    {
      "ref": "pkg:golang/github.com/spf13/pflag@v1.0.5"
    },
    {
      "ref": "pkg:golang/github.com/syndtr/goleveldb@v1.0.1-0.20210305035536-64b5b1c73954",
      "dependsOn": [
        "pkg:golang/github.com/golang/snappy@v0.0.3",
        "pkg:golang/golang.org/x/net@v0.0.0-20210716203947-853a461950ff",
        "pkg:golang/golang.org/x/sys@v0.0.0-20211216021012-1d35b9e2eb4e",
        "pkg:golang/golang.org/x/text@v0.3.6",
        "pkg:golang/golang.org/x/xerrors@v0.0.0-20200804184101-5ec99f83aff1"
      ]
    },
    {
      "ref": "pkg:golang/github.com/tgulacsi/picago@v0.0.0-20171229130838-9e1ac2306c70"
    },
    {
      "ref": "pkg:golang/github.com/tomnomnom/linkheader@v0.0.0-20180905144013-02ca5825eb80"
    },
    {
      "ref": "pkg:golang/github.com/visualfc/fastmod@v1.3.6",
      "dependsOn": [
        "pkg:golang/golang.org/x/mod@v0.4.2"
      ]
    },
    {
      "ref": "pkg:golang/github.com/visualfc/goversion@v1.0.0"
    },
    {
      "ref": "pkg:golang/go.opencensus.io@v0.23.0",
      "dependsOn": [
        "pkg:golang/github.com/golang/groupcache@v0.0.0-20200121045136-8c9f03a8e57e",
        "pkg:golang/github.com/golang/protobuf@v1.5.2",
        "pkg:golang/github.com/google/go-cmp@v0.5.6",
        "pkg:golang/golang.org/x/net@v0.0.0-20210716203947-853a461950ff",
        "pkg:golang/google.golang.org/grpc@v1.39.0"
      ]
    },
    {
      "ref": "pkg:golang/go4.org@v0.0.0-20190218023631-ce4c26f7be8e"
    },
    {
      "ref": "pkg:golang/golang.org/x/crypto@v0.0.0-20210817164053-32db794688a5",
      "dependsOn": [
        "pkg:golang/golang.org/x/net@v0.0.0-20210716203947-853a461950ff",
        "pkg:golang/golang.org/x/sys@v0.0.0-20211216021012-1d35b9e2eb4e",
        "pkg:golang/golang.org/x/term@v0.0.0-20210615171337-6886f2dfbf5b",
        "pkg:golang/golang.org/x/text@v0.3.6"
      ]
    },
    {
      "ref": "pkg:golang/golang.org/x/image@v0.0.0-20210628002857-a66eb6448b8d",
      "dependsOn": [
        "pkg:golang/golang.org/x/text@v0.3.6"
      ]
    },
    {
      "ref": "pkg:golang/golang.org/x/lint@v0.0.0-20210508222113-6edffad5e616",
      "dependsOn": [
        "pkg:golang/golang.org/x/tools@v0.1.5"
      ]
    },
    {
      "ref": "pkg:golang/golang.org/x/mod@v0.4.2",
      "dependsOn": [
        "pkg:golang/golang.org/x/crypto@v0.0.0-20210817164053-32db794688a5",
        "pkg:golang/golang.org/x/tools@v0.1.5",
        "pkg:golang/golang.org/x/xerrors@v0.0.0-20200804184101-5ec99f83aff1"
      ]
    },
    {
      "ref": "pkg:golang/golang.org/x/net@v0.0.0-20210716203947-853a461950ff",
      "dependsOn": [
        "pkg:golang/golang.org/x/sys@v0.0.0-20211216021012-1d35b9e2eb4e",
        "pkg:golang/golang.org/x/term@v0.0.0-20210615171337-6886f2dfbf5b",
        "pkg:golang/golang.org/x/text@v0.3.6"
      ]
    },
    {
      "ref": "pkg:golang/golang.org/x/oauth2@v0.0.0-20210628180205-a41e5a781914",
      "dependsOn": [
        "pkg:golang/cloud.google.com/go@v0.80.0",
        "pkg:golang/golang.org/x/net@v0.0.0-20210716203947-853a461950ff",
        "pkg:golang/google.golang.org/appengine@v1.6.7"
      ]
    },
    {
      "ref": "pkg:golang/golang.org/x/sync@v0.0.0-20210220032951-036812b2e83c"
    },
    {
      "ref": "pkg:golang/golang.org/x/sys@v0.0.0-20211216021012-1d35b9e2eb4e"
    },
    {
      "ref": "pkg:golang/golang.org/x/term@v0.0.0-20210615171337-6886f2dfbf5b",
      "dependsOn": [
        "pkg:golang/golang.org/x/sys@v0.0.0-20211216021012-1d35b9e2eb4e"
      ]
    },
    {
      "ref": "pkg:golang/golang.org/x/text@v0.3.6",
      "dependsOn": [
        "pkg:golang/golang.org/x/tools@v0.1.5"
      ]
    },
    {
      "ref": "pkg:golang/golang.org/x/time@v0.0.0-20210723032227-1f47c861a9ac"
    },
    {
      "ref": "pkg:golang/golang.org/x/tools@v0.1.5",
      "dependsOn": [
        "pkg:golang/golang.org/x/mod@v0.4.2",
        "pkg:golang/golang.org/x/net@v0.0.0-20210716203947-853a461950ff",
        "pkg:golang/golang.org/x/sync@v0.0.0-20210220032951-036812b2e83c",
        "pkg:golang/golang.org/x/sys@v0.0.0-20211216021012-1d35b9e2eb4e",
        "pkg:golang/golang.org/x/xerrors@v0.0.0-20200804184101-5ec99f83aff1"
      ]
    },
    {
      "ref": "pkg:golang/golang.org/x/xerrors@v0.0.0-20200804184101-5ec99f83aff1"
    },
    {
      "ref": "pkg:golang/google.golang.org/api@v0.42.0",
      "dependsOn": [
        "pkg:golang/cloud.google.com/go@v0.80.0",
        "pkg:golang/github.com/google/go-cmp@v0.5.6",
        "pkg:golang/github.com/googleapis/gax-go/v2@v2.0.5",
        "pkg:golang/go.opencensus.io@v0.23.0",
        "pkg:golang/golang.org/x/lint@v0.0.0-20210508222113-6edffad5e616",
        "pkg:golang/golang.org/x/oauth2@v0.0.0-20210628180205-a41e5a781914",
        "pkg:golang/golang.org/x/sync@v0.0.0-20210220032951-036812b2e83c",
        "pkg:golang/golang.org/x/sys@v0.0.0-20211216021012-1d35b9e2eb4e",
        "pkg:golang/golang.org/x/tools@v0.1.5",
        "pkg:golang/google.golang.org/appengine@v1.6.7",
        "pkg:golang/google.golang.org/genproto@v0.0.0-20210716133855-ce7ef5c701ea",
        "pkg:golang/google.golang.org/grpc@v1.39.0"
      ]
    },
    {
      "ref": "pkg:golang/google.golang.org/appengine@v1.6.7",
      "dependsOn": [
        "pkg:golang/github.com/golang/protobuf@v1.5.2",
        "pkg:golang/golang.org/x/net@v0.0.0-20210716203947-853a461950ff",
        "pkg:golang/golang.org/x/text@v0.3.6"
      ]
    },
    {
      "ref": "pkg:golang/google.golang.org/genproto@v0.0.0-20210716133855-ce7ef5c701ea",
      "dependsOn": [
        "pkg:golang/github.com/golang/protobuf@v1.5.2",
        "pkg:golang/golang.org/x/lint@v0.0.0-20210508222113-6edffad5e616",
        "pkg:golang/golang.org/x/text@v0.3.6",
        "pkg:golang/golang.org/x/tools@v0.1.5",
        "pkg:golang/google.golang.org/grpc@v1.39.0",
        "pkg:golang/google.golang.org/protobuf@v1.27.1"
      ]
    },
    {
      "ref": "pkg:golang/google.golang.org/grpc@v1.39.0",
      "dependsOn": [
        "pkg:golang/github.com/golang/protobuf@v1.5.2",
        "pkg:golang/github.com/google/go-cmp@v0.5.6",
        "pkg:golang/github.com/google/uuid@v1.3.0",
        "pkg:golang/golang.org/x/net@v0.0.0-20210716203947-853a461950ff",
        "pkg:golang/golang.org/x/oauth2@v0.0.0-20210628180205-a41e5a781914",
        "pkg:golang/golang.org/x/sys@v0.0.0-20211216021012-1d35b9e2eb4e",
        "pkg:golang/google.golang.org/genproto@v0.0.0-20210716133855-ce7ef5c701ea",
        "pkg:golang/google.golang.org/protobuf@v1.27.1"
      ]
    },
    {
      "ref": "pkg:golang/google.golang.org/protobuf@v1.27.1",
      "dependsOn": [
        "pkg:golang/github.com/golang/protobuf@v1.5.2",
        "pkg:golang/github.com/google/go-cmp@v0.5.6"
      ]
    },
    {
      "ref": "pkg:golang/gopkg.in/mgo.v2@v2.0.0-20160818020120-3f83fa500528"
    },
    {
      "ref": "pkg:golang/honnef.co/go/js/dom@v0.0.0-20200509013220-d4405f7ab4d8"
    },
    {
      "ref": "pkg:golang/honnef.co/go/tools@v0.2.1",
      "dependsOn": [
        "pkg:golang/github.com/BurntSushi/toml@v0.3.1",
        "pkg:golang/golang.org/x/tools@v0.1.5"
      ]
    },
    {
      "ref": "pkg:golang/lukechampine.com/uint128@v1.1.1"
    },
    {
      "ref": "pkg:golang/modernc.org/cc/v3@v3.35.18",
      "dependsOn": [
        "pkg:golang/github.com/google/go-cmp@v0.5.6",
        "pkg:golang/lukechampine.com/uint128@v1.1.1",
        "pkg:golang/modernc.org/mathutil@v1.4.1",
        "pkg:golang/modernc.org/strutil@v1.1.1",
        "pkg:golang/modernc.org/token@v1.0.0"
      ]
    },
    {
      "ref": "pkg:golang/modernc.org/ccgo/v3@v3.12.95",
      "dependsOn": [
        "pkg:golang/github.com/kballard/go-shellquote@v0.0.0-20180428030007-95032a82bc51",
        "pkg:golang/golang.org/x/sys@v0.0.0-20211216021012-1d35b9e2eb4e",
        "pkg:golang/golang.org/x/tools@v0.1.5",
        "pkg:golang/modernc.org/cc/v3@v3.35.18",
        "pkg:golang/modernc.org/libc@v1.11.104",
        "pkg:golang/modernc.org/mathutil@v1.4.1",
        "pkg:golang/modernc.org/opt@v0.1.1"
      ]
    },
    {
      "ref": "pkg:golang/modernc.org/fileutil@v1.0.1-0.20200808163328-2079183a536e"
    },
    {
      "ref": "pkg:golang/modernc.org/internal@v1.0.3",
      "dependsOn": [
        "pkg:golang/github.com/edsrzf/mmap-go@v1.1.0",
        "pkg:golang/github.com/remyoudompheng/bigfft@v0.0.0-20200410134404-eec4a21b6bb0",
        "pkg:golang/modernc.org/fileutil@v1.0.1-0.20200808163328-2079183a536e",
        "pkg:golang/modernc.org/mathutil@v1.4.1"
      ]
    },
    {
      "ref": "pkg:golang/modernc.org/kv@v1.0.4",
      "dependsOn": [
        "pkg:golang/modernc.org/fileutil@v1.0.1-0.20200808163328-2079183a536e",
        "pkg:golang/modernc.org/internal@v1.0.3",
        "pkg:golang/modernc.org/lldb@v1.0.2",
        "pkg:golang/modernc.org/mathutil@v1.4.1"
      ]
    },
    {
      "ref": "pkg:golang/modernc.org/libc@v1.11.104",
      "dependsOn": [
        "pkg:golang/github.com/google/uuid@v1.3.0",
        "pkg:golang/github.com/mattn/go-isatty@v0.0.12",
        "pkg:golang/golang.org/x/sys@v0.0.0-20211216021012-1d35b9e2eb4e",
        "pkg:golang/modernc.org/ccgo/v3@v3.12.95",
        "pkg:golang/modernc.org/mathutil@v1.4.1",
        "pkg:golang/modernc.org/memory@v1.0.5"
      ]
    },
    {
      "ref": "pkg:golang/modernc.org/lldb@v1.0.2",
      "dependsOn": [
        "pkg:golang/modernc.org/fileutil@v1.0.1-0.20200808163328-2079183a536e",
        "pkg:golang/modernc.org/internal@v1.0.3",
        "pkg:golang/modernc.org/mathutil@v1.4.1",
        "pkg:golang/modernc.org/sortutil@v1.1.0",
        "pkg:golang/modernc.org/zappy@v1.0.3"
      ]
    },
    {
      "ref": "pkg:golang/modernc.org/mathutil@v1.4.1",
      "dependsOn": [
        "pkg:golang/github.com/remyoudompheng/bigfft@v0.0.0-20200410134404-eec4a21b6bb0"
      ]
    },
    {
      "ref": "pkg:golang/modernc.org/memory@v1.0.5",
      "dependsOn": [
        "pkg:golang/modernc.org/mathutil@v1.4.1"
      ]
    },
    {
      "ref": "pkg:golang/modernc.org/opt@v0.1.1"
    },
    {
      "ref": "pkg:golang/modernc.org/sortutil@v1.1.0",
      "dependsOn": [
        "pkg:golang/github.com/remyoudompheng/bigfft@v0.0.0-20200410134404-eec4a21b6bb0",
        "pkg:golang/modernc.org/mathutil@v1.4.1"
      ]
    },
    {
      "ref": "pkg:golang/modernc.org/sqlite@v1.14.3",
      "dependsOn": [
        "pkg:golang/golang.org/x/sys@v0.0.0-20211216021012-1d35b9e2eb4e",
        "pkg:golang/modernc.org/ccgo/v3@v3.12.95",
        "pkg:golang/modernc.org/libc@v1.11.104",
        "pkg:golang/modernc.org/mathutil@v1.4.1"
      ]
    },
    {
      "ref": "pkg:golang/modernc.org/strutil@v1.1.1",
      "dependsOn": [
        "pkg:golang/modernc.org/mathutil@v1.4.1"
      ]
    },
    {
      "ref": "pkg:golang/modernc.org/token@v1.0.0"
    },
    {
      "ref": "pkg:golang/modernc.org/zappy@v1.0.3",
      "dependsOn": [
        "pkg:golang/github.com/golang/snappy@v0.0.3",
        "pkg:golang/modernc.org/internal@v1.0.3",
        "pkg:golang/modernc.org/mathutil@v1.4.1"
      ]
    },
    {
      "ref": "pkg:golang/myitcv.io@v0.0.0-20201125173645-a7167afc9e13",
      "dependsOn": [
        "pkg:golang/github.com/golang/protobuf@v1.5.2",
        "pkg:golang/github.com/gopherjs/gopherjs@v0.0.0-20200217142428-fce0ec30dd00",
        "pkg:golang/github.com/kisielk/gotool@v1.0.0",
        "pkg:golang/github.com/kr/fs@v0.1.0",
        "pkg:golang/github.com/rogpeppe/go-internal@v1.3.0",
        "pkg:golang/github.com/russross/blackfriday@v2.0.0",
        "pkg:golang/golang.org/x/net@v0.0.0-20210716203947-853a461950ff",
        "pkg:golang/golang.org/x/oauth2@v0.0.0-20210628180205-a41e5a781914",
        "pkg:golang/golang.org/x/tools@v0.1.5",
        "pkg:golang/honnef.co/go/js/dom@v0.0.0-20200509013220-d4405f7ab4d8"
      ]
    },
    {
      "ref": "pkg:golang/rsc.io/pdf@v0.1.1"
    },
    {
      "ref": "pkg:golang/rsc.io/qr@v0.2.0"
    },
    {
      "ref": "pkg:golang/perkeep.org@v0.0.0-20220428190407-d605f86c82b6",
      "dependsOn": [
        "pkg:golang/bazil.org/fuse@v0.0.0-20180421153158-65cc252bf669",
        "pkg:golang/cloud.google.com/go@v0.80.0",
        "pkg:golang/cloud.google.com/go/datastore@v1.1.0",
        "pkg:golang/cloud.google.com/go/logging@v1.3.0",
        "pkg:golang/cloud.google.com/go/storage@v1.10.0",
        "pkg:golang/filippo.io/age@v1.0.0",
        "pkg:golang/github.com/aws/aws-sdk-go@v1.14.31",
        "pkg:golang/github.com/bradfitz/latlong@v0.0.0-20170410180902-f3db6d0dff40",
        "pkg:golang/github.com/garyburd/go-oauth@v0.0.0-20180319155456-bca2e7f09a17",
        "pkg:golang/github.com/go-ini/ini@v1.38.1",
        "pkg:golang/github.com/go-sql-driver/mysql@v1.4.1-0.20180719071942-99ff426eb706",
        "pkg:golang/github.com/google/go-cmp@v0.5.6",
        "pkg:golang/github.com/gopherjs/gopherjs@v0.0.0-20200217142428-fce0ec30dd00",
        "pkg:golang/github.com/gopherjs/jquery@v0.0.0-20180404123100-3ba2b901425e",
        "pkg:golang/github.com/goplusjs/gopherjs@v1.1.6",
        "pkg:golang/github.com/gorilla/websocket@v1.4.2",
        "pkg:golang/github.com/hjfreyer/taglib-go@v0.0.0-20151027170453-0ef8bba9c41b",
        "pkg:golang/github.com/lib/pq@v1.10.2",
        "pkg:golang/github.com/mailgun/mailgun-go@v0.0.0-20171127222028-17e8bd11e87c",
        "pkg:golang/github.com/mattn/go-mastodon@v0.0.5-0.20190517015615-8f6192e26b66",
        "pkg:golang/github.com/miekg/dns@v1.1.43",
        "pkg:golang/github.com/nf/cr2@v0.0.0-20140528043846-05d46fef4f2f",
        "pkg:golang/github.com/perkeep/b2@v0.0.0-20180913003434-1ae8d9b78db9",
        "pkg:golang/github.com/pkg/errors@v0.9.1",
        "pkg:golang/github.com/pkg/sftp@v1.13.2",
        "pkg:golang/github.com/plaid/plaid-go@v0.0.0-20161222051224-02b6af68061b",
        "pkg:golang/github.com/russross/blackfriday@v2.0.0",
        "pkg:golang/github.com/rwcarlsen/goexif@v0.0.0-20190401172101-9e8deecbddbd",
        "pkg:golang/github.com/shurcooL/sanitized_anchor_name@v1.0.0",
        "pkg:golang/github.com/syndtr/goleveldb@v1.0.1-0.20210305035536-64b5b1c73954",
        "pkg:golang/github.com/tgulacsi/picago@v0.0.0-20171229130838-9e1ac2306c70",
        "pkg:golang/go4.org@v0.0.0-20190218023631-ce4c26f7be8e",
        "pkg:golang/golang.org/x/crypto@v0.0.0-20210817164053-32db794688a5",
        "pkg:golang/golang.org/x/image@v0.0.0-20210628002857-a66eb6448b8d",
        "pkg:golang/golang.org/x/net@v0.0.0-20210716203947-853a461950ff",
        "pkg:golang/golang.org/x/oauth2@v0.0.0-20210628180205-a41e5a781914",
        "pkg:golang/golang.org/x/sync@v0.0.0-20210220032951-036812b2e83c",
        "pkg:golang/golang.org/x/time@v0.0.0-20210723032227-1f47c861a9ac",
        "pkg:golang/golang.org/x/tools@v0.1.5",
        "pkg:golang/google.golang.org/api@v0.42.0",
        "pkg:golang/google.golang.org/genproto@v0.0.0-20210716133855-ce7ef5c701ea",
        "pkg:golang/gopkg.in/mgo.v2@v2.0.0-20160818020120-3f83fa500528",
        "pkg:golang/honnef.co/go/js/dom@v0.0.0-20200509013220-d4405f7ab4d8",
        "pkg:golang/honnef.co/go/tools@v0.2.1",
        "pkg:golang/modernc.org/fileutil@v1.0.1-0.20200808163328-2079183a536e",
        "pkg:golang/modernc.org/kv@v1.0.4",
        "pkg:golang/modernc.org/sqlite@v1.14.3",
        "pkg:golang/myitcv.io@v0.0.0-20201125173645-a7167afc9e13",
        "pkg:golang/rsc.io/pdf@v0.1.1",
        "pkg:golang/rsc.io/qr@v0.2.0"
      ]
    }
  ]
}
