{
  "bomFormat": "CycloneDX",
  "specVersion": "1.3",
  "version": 1,
  "metadata": {
    "tools": [
      {
        "vendor": "CycloneDX",
        "name": "Node.js module",
        "version": "3.0.3"
      },
      {
        "vendor": "AppThreat",
        "name": "cdxgen",
        "version": "3.0.10"
      },
      {
        "vendor": "Fortress Information Security",
        "name": "Github Extractor",
        "version": "1.15.1"
      }
    ],
    "authors": [
      {
        "name": "Fortress Information Security",
        "email": "sales@fortressinfosec.com",
        "phone": "1-407-573-6800"
      }
    ],
    "timestamp": "2022-06-01T21:00:00Z",
    "component": {
      "type": "application",
      "name": "coz",
      "version": "0.2.2",
      "group": "plasma-umass",
      "externalReferences": [
        {
          "url": "https://github.com/plasma-umass/coz.git",
          "type": "distribution"
        },
        {
          "type": "website",
          "url": "null",
          "comment": "As set via `homepage` in Github API"
        }
      ]
    }
  },
  "components": [
    {
      "type": "library",
      "bom-ref": "pkg:crates/coz@0.1.3",
      "group": "",
      "name": "coz",
      "version": "0.1.3",
      "description": "",
      "purl": "pkg:crates/coz@0.1.3"
    },
    {
      "type": "library",
      "bom-ref": "pkg:crates/libc@0.2",
      "group": "",
      "name": "libc",
      "version": "0.2",
      "description": "",
      "purl": "pkg:crates/libc@0.2"
    },
    {
      "type": "library",
      "bom-ref": "pkg:crates/once_cell@1.1",
      "group": "",
      "name": "once_cell",
      "version": "1.1",
      "description": "",
      "purl": "pkg:crates/once_cell@1.1"
    },
    {
      "type": "library",
      "bom-ref": "pkg:crates/debug@1",
      "group": "",
      "name": "debug",
      "version": "1",
      "description": "",
      "purl": "pkg:crates/debug@1"
    }
  ]
}
