{
  "bomFormat": "CycloneDX",
  "specVersion": "1.3",
  "version": 1,
  "metadata": {
    "tools": [
      {
        "vendor": "CycloneDX",
        "name": "Node.js module",
        "version": "3.0.3"
      },
      {
        "vendor": "AppThreat",
        "name": "cdxgen",
        "version": "3.0.10"
      },
      {
        "vendor": "Fortress Information Security",
        "name": "Github Extractor",
        "version": "1.15.1"
      }
    ],
    "authors": [
      {
        "name": "Fortress Information Security",
        "email": "sales@fortressinfosec.com",
        "phone": "1-407-573-6800"
      }
    ],
    "timestamp": "2022-06-01T21:00:00Z",
    "component": {
      "type": "application",
      "name": "play",
      "version": "",
      "group": "play",
      "externalReferences": [
        {
          "url": "https://github.com/play/play.git",
          "type": "distribution"
        },
        {
          "type": "website",
          "url": "http://zachholman.com/screencast/play/",
          "comment": "As set via `homepage` in Github API"
        }
      ]
    }
  },
  "components": [
    {
      "type": "library",
      "bom-ref": "pkg:rubygems/SystemTimer@1.2.3",
      "group": "",
      "name": "SystemTimer",
      "version": "1.2.3",
      "description": "",
      "purl": "pkg:rubygems/SystemTimer@1.2.3"
    },
    {
      "type": "library",
      "bom-ref": "pkg:rubygems/addressable@2.3.3",
      "group": "",
      "name": "addressable",
      "version": "2.3.3",
      "description": "",
      "purl": "pkg:rubygems/addressable@2.3.3"
    },
    {
      "type": "library",
      "bom-ref": "pkg:rubygems/coffee-script@2.2.0",
      "group": "",
      "name": "coffee-script",
      "version": "2.2.0",
      "description": "",
      "purl": "pkg:rubygems/coffee-script@2.2.0"
    },
    {
      "type": "library",
      "bom-ref": "pkg:rubygems/coffee-script-source@1.2.0",
      "group": "",
      "name": "coffee-script-source",
      "version": "1.2.0",
      "description": "",
      "purl": "pkg:rubygems/coffee-script-source@1.2.0"
    },
    {
      "type": "library",
      "bom-ref": "pkg:rubygems/daemons@1.1.6",
      "group": "",
      "name": "daemons",
      "version": "1.1.6",
      "description": "",
      "purl": "pkg:rubygems/daemons@1.1.6"
    },
    {
      "type": "library",
      "bom-ref": "pkg:rubygems/eventmachine@0.12.10",
      "group": "",
      "name": "eventmachine",
      "version": "0.12.10",
      "description": "",
      "purl": "pkg:rubygems/eventmachine@0.12.10"
    },
    {
      "type": "library",
      "bom-ref": "pkg:rubygems/execjs@1.3.0",
      "group": "",
      "name": "execjs",
      "version": "1.3.0",
      "description": "",
      "purl": "pkg:rubygems/execjs@1.3.0"
    },
    {
      "type": "library",
      "bom-ref": "pkg:rubygems/faraday@0.8.7",
      "group": "",
      "name": "faraday",
      "version": "0.8.7",
      "description": "",
      "purl": "pkg:rubygems/faraday@0.8.7"
    },
    {
      "type": "library",
      "bom-ref": "pkg:rubygems/faraday_middleware@0.9.0",
      "group": "",
      "name": "faraday_middleware",
      "version": "0.9.0",
      "description": "",
      "purl": "pkg:rubygems/faraday_middleware@0.9.0"
    },
    {
      "type": "library",
      "bom-ref": "pkg:rubygems/foreman@0.39.0",
      "group": "",
      "name": "foreman",
      "version": "0.39.0",
      "description": "",
      "purl": "pkg:rubygems/foreman@0.39.0"
    },
    {
      "type": "library",
      "bom-ref": "pkg:rubygems/hashie@2.0.3",
      "group": "",
      "name": "hashie",
      "version": "2.0.3",
      "description": "",
      "purl": "pkg:rubygems/hashie@2.0.3"
    },
    {
      "type": "library",
      "bom-ref": "pkg:rubygems/hike@1.2.1",
      "group": "",
      "name": "hike",
      "version": "1.2.1",
      "description": "",
      "purl": "pkg:rubygems/hike@1.2.1"
    },
    {
      "type": "library",
      "bom-ref": "pkg:rubygems/json@1.7.5",
      "group": "",
      "name": "json",
      "version": "1.7.5",
      "description": "",
      "purl": "pkg:rubygems/json@1.7.5"
    },
    {
      "type": "library",
      "bom-ref": "pkg:rubygems/metaclass@0.0.1",
      "group": "",
      "name": "metaclass",
      "version": "0.0.1",
      "description": "",
      "purl": "pkg:rubygems/metaclass@0.0.1"
    },
    {
      "type": "library",
      "bom-ref": "pkg:rubygems/mocha@0.11.1",
      "group": "",
      "name": "mocha",
      "version": "0.11.1",
      "description": "",
      "purl": "pkg:rubygems/mocha@0.11.1"
    },
    {
      "type": "library",
      "bom-ref": "pkg:rubygems/multi_json@1.3.6",
      "group": "",
      "name": "multi_json",
      "version": "1.3.6",
      "description": "",
      "purl": "pkg:rubygems/multi_json@1.3.6"
    },
    {
      "type": "library",
      "bom-ref": "pkg:rubygems/multipart-post@1.2.0",
      "group": "",
      "name": "multipart-post",
      "version": "1.2.0",
      "description": "",
      "purl": "pkg:rubygems/multipart-post@1.2.0"
    },
    {
      "type": "library",
      "bom-ref": "pkg:rubygems/mustache@0.99.4",
      "group": "",
      "name": "mustache",
      "version": "0.99.4",
      "description": "",
      "purl": "pkg:rubygems/mustache@0.99.4"
    },
    {
      "type": "library",
      "bom-ref": "pkg:rubygems/netrc@0.7.7",
      "group": "",
      "name": "netrc",
      "version": "0.7.7",
      "description": "",
      "purl": "pkg:rubygems/netrc@0.7.7"
    },
    {
      "type": "library",
      "bom-ref": "pkg:rubygems/octokit@1.24.0",
      "group": "",
      "name": "octokit",
      "version": "1.24.0",
      "description": "",
      "purl": "pkg:rubygems/octokit@1.24.0"
    },
    {
      "type": "library",
      "bom-ref": "pkg:rubygems/pusher@0.9.2",
      "group": "",
      "name": "pusher",
      "version": "0.9.2",
      "description": "",
      "purl": "pkg:rubygems/pusher@0.9.2"
    },
    {
      "type": "library",
      "bom-ref": "pkg:rubygems/rack@1.3.6",
      "group": "",
      "name": "rack",
      "version": "1.3.6",
      "description": "",
      "purl": "pkg:rubygems/rack@1.3.6"
    },
    {
      "type": "library",
      "bom-ref": "pkg:rubygems/rack-protection@1.2.0",
      "group": "",
      "name": "rack-protection",
      "version": "1.2.0",
      "description": "",
      "purl": "pkg:rubygems/rack-protection@1.2.0"
    },
    {
      "type": "library",
      "bom-ref": "pkg:rubygems/rack-test@0.6.1",
      "group": "",
      "name": "rack-test",
      "version": "0.6.1",
      "description": "",
      "purl": "pkg:rubygems/rack-test@0.6.1"
    },
    {
      "type": "library",
      "bom-ref": "pkg:rubygems/rake@0.9.2.2",
      "group": "",
      "name": "rake",
      "version": "0.9.2.2",
      "description": "",
      "purl": "pkg:rubygems/rake@0.9.2.2"
    },
    {
      "type": "library",
      "bom-ref": "pkg:rubygems/rb-appscript@0.6.1",
      "group": "",
      "name": "rb-appscript",
      "version": "0.6.1",
      "description": "",
      "purl": "pkg:rubygems/rb-appscript@0.6.1"
    },
    {
      "type": "library",
      "bom-ref": "pkg:rubygems/redis@2.2.2",
      "group": "",
      "name": "redis",
      "version": "2.2.2",
      "description": "",
      "purl": "pkg:rubygems/redis@2.2.2"
    },
    {
      "type": "library",
      "bom-ref": "pkg:rubygems/ruby-hmac@0.4.0",
      "group": "",
      "name": "ruby-hmac",
      "version": "0.4.0",
      "description": "",
      "purl": "pkg:rubygems/ruby-hmac@0.4.0"
    },
    {
      "type": "library",
      "bom-ref": "pkg:rubygems/sass@3.1.12",
      "group": "",
      "name": "sass",
      "version": "3.1.12",
      "description": "",
      "purl": "pkg:rubygems/sass@3.1.12"
    },
    {
      "type": "library",
      "bom-ref": "pkg:rubygems/shotgun@0.9",
      "group": "",
      "name": "shotgun",
      "version": "0.9",
      "description": "",
      "purl": "pkg:rubygems/shotgun@0.9"
    },
    {
      "type": "library",
      "bom-ref": "pkg:rubygems/signature@0.1.2",
      "group": "",
      "name": "signature",
      "version": "0.1.2",
      "description": "",
      "purl": "pkg:rubygems/signature@0.1.2"
    },
    {
      "type": "library",
      "bom-ref": "pkg:rubygems/sinatra@1.3.2",
      "group": "",
      "name": "sinatra",
      "version": "1.3.2",
      "description": "",
      "purl": "pkg:rubygems/sinatra@1.3.2"
    },
    {
      "type": "library",
      "bom-ref": "pkg:rubygems/sinatra_auth_github@0.13.3",
      "group": "",
      "name": "sinatra_auth_github",
      "version": "0.13.3",
      "description": "",
      "purl": "pkg:rubygems/sinatra_auth_github@0.13.3"
    },
    {
      "type": "library",
      "bom-ref": "pkg:rubygems/sprockets@2.3.0",
      "group": "",
      "name": "sprockets",
      "version": "2.3.0",
      "description": "",
      "purl": "pkg:rubygems/sprockets@2.3.0"
    },
    {
      "type": "library",
      "bom-ref": "pkg:rubygems/term-ansicolor@1.0.7",
      "group": "",
      "name": "term-ansicolor",
      "version": "1.0.7",
      "description": "",
      "purl": "pkg:rubygems/term-ansicolor@1.0.7"
    },
    {
      "type": "library",
      "bom-ref": "pkg:rubygems/thin@1.3.1",
      "group": "",
      "name": "thin",
      "version": "1.3.1",
      "description": "",
      "purl": "pkg:rubygems/thin@1.3.1"
    },
    {
      "type": "library",
      "bom-ref": "pkg:rubygems/thor@0.14.6",
      "group": "",
      "name": "thor",
      "version": "0.14.6",
      "description": "",
      "purl": "pkg:rubygems/thor@0.14.6"
    },
    {
      "type": "library",
      "bom-ref": "pkg:rubygems/tilt@1.3.3",
      "group": "",
      "name": "tilt",
      "version": "1.3.3",
      "description": "",
      "purl": "pkg:rubygems/tilt@1.3.3"
    },
    {
      "type": "library",
      "bom-ref": "pkg:rubygems/warden@1.2.1",
      "group": "",
      "name": "warden",
      "version": "1.2.1",
      "description": "",
      "purl": "pkg:rubygems/warden@1.2.1"
    },
    {
      "type": "library",
      "bom-ref": "pkg:rubygems/warden-github@0.13.2",
      "group": "",
      "name": "warden-github",
      "version": "0.13.2",
      "description": "",
      "purl": "pkg:rubygems/warden-github@0.13.2"
    },
    {
      "type": "library",
      "bom-ref": "pkg:rubygems/yajl-ruby@1.1.0",
      "group": "",
      "name": "yajl-ruby",
      "version": "1.1.0",
      "description": "",
      "purl": "pkg:rubygems/yajl-ruby@1.1.0"
    }
  ]
}
