{
  "bomFormat": "CycloneDX",
  "specVersion": "1.3",
  "version": 1,
  "metadata": {
    "tools": [
      {
        "vendor": "CycloneDX",
        "name": "Node.js module",
        "version": "3.0.3"
      },
      {
        "vendor": "AppThreat",
        "name": "cdxgen",
        "version": "3.0.10"
      },
      {
        "vendor": "Fortress Information Security",
        "name": "Github Extractor",
        "version": "1.15.1"
      }
    ],
    "authors": [
      {
        "name": "Fortress Information Security",
        "email": "sales@fortressinfosec.com",
        "phone": "1-407-573-6800"
      }
    ],
    "timestamp": "2022-06-01T21:00:00Z",
    "component": {
      "type": "application",
      "name": "akri",
      "version": "",
      "group": "project-akri",
      "externalReferences": [
        {
          "url": "https://github.com/project-akri/akri.git",
          "type": "distribution"
        },
        {
          "type": "website",
          "url": "https://docs.akri.sh/",
          "comment": "As set via `homepage` in Github API"
        }
      ]
    }
  },
  "components": [
    {
      "type": "library",
      "publisher": "Kubernetes",
      "name": "kubernetes",
      "version": "23.6.0",
      "description": "Kubernetes python client",
      "hashes": [
        {
          "alg": "MD5",
          "content": "8c98859ac3c7463c7d82cc4bc9353b08"
        },
        {
          "alg": "SHA-256",
          "content": "dd58e286a53071bc8e32041f07f3c2236b3ed8ca5b9f57794a5077358f7ccb06"
        }
      ],
      "licenses": [
        {
          "license": {
            "name": "Apache License Version 2.0"
          }
        }
      ],
      "purl": "pkg:pypi/kubernetes@23.6.0",
      "modified": false
    },
    {
      "type": "library",
      "publisher": "The gRPC Authors",
      "name": "grpc",
      "version": "1.0.0",
      "description": "Please install the official package with: pip install grpcio",
      "hashes": [
        {
          "alg": "MD5",
          "content": "ce4e2193e5791df9df7e63215f4e87f3"
        },
        {
          "alg": "SHA-256",
          "content": "e1aa035512b1cc8d5ce84685f30eae463dad9123d858f5676b1159a2b80eea86"
        }
      ],
      "licenses": [
        {
          "license": {
            "name": "Apache License 2.0"
          }
        }
      ],
      "purl": "pkg:pypi/grpc@1.0.0",
      "modified": false
    },
    {
      "type": "library",
      "publisher": "Vinay Sajip",
      "name": "logging",
      "version": "0.4.9.6",
      "description": "A logging module for Python",
      "hashes": [
        {
          "alg": "MD5",
          "content": "dc0a7ebc8b8970263911e11e7b7e1ca8"
        },
        {
          "alg": "SHA-256",
          "content": "26f6b50773f085042d301085bd1bf5d9f3735704db9f37c1ce6d8b85c38f2417"
        }
      ],
      "licenses": [
        {
          "license": {
            "name": "Copyright (C) 2001-2005 by Vinay Sajip. All Rights Reserved. See LICENSE for license."
          }
        }
      ],
      "purl": "pkg:pypi/logging@0.4.9.6",
      "modified": false
    },
    {
      "type": "library",
      "publisher": "Armin Ronacher",
      "name": "flask",
      "version": "2.1.2",
      "description": "A simple framework for building complex web applications.",
      "hashes": [
        {
          "alg": "MD5",
          "content": "07aede47b441c019aeebbeaed6a76215"
        },
        {
          "alg": "SHA-256",
          "content": "fad5b446feb0d6db6aec0c3184d16a8c1f6c3e464b511649c8918a9be100b4fe"
        }
      ],
      "licenses": [
        {
          "license": {
            "name": "BSD-3-Clause"
          }
        }
      ],
      "purl": "pkg:pypi/flask@2.1.2",
      "modified": false
    },
    {
      "type": "library",
      "publisher": "Mario Vilas",
      "name": "google",
      "version": "3.0.0",
      "description": "Python bindings to the Google search engine.",
      "hashes": [
        {
          "alg": "MD5",
          "content": "30c719790d3e7e57e9482d108eda355c"
        },
        {
          "alg": "SHA-256",
          "content": "889cf695f84e4ae2c55fbc0cfdaf4c1e729417fa52ab1db0485202ba173e4935"
        }
      ],
      "purl": "pkg:pypi/google@3.0.0",
      "modified": false
    },
    {
      "type": "library",
      "publisher": "Zope Foundation and Contributors",
      "name": "datetime",
      "version": "4.4",
      "description": "This package provides a DateTime data type, as known from Zope. Unless you need to communicate with Zope APIs, you're probably better off using Python's built-in datetime module.",
      "hashes": [
        {
          "alg": "MD5",
          "content": "ad1e82d858ed7c8cd2ea437b4cb695ed"
        },
        {
          "alg": "SHA-256",
          "content": "4fcca115ddb466a1104df08d5c2a2f5805d14ca317800e1bfcea8f3d69f66e57"
        }
      ],
      "licenses": [
        {
          "license": {
            "name": "ZPL 2.1"
          }
        }
      ],
      "purl": "pkg:pypi/datetime@4.4",
      "modified": false
    },
    {
      "type": "library",
      "publisher": "Travis E. Oliphant et al.",
      "name": "numpy",
      "version": "1.22.4",
      "description": "NumPy is the fundamental package for array computing with Python.",
      "hashes": [
        {
          "alg": "MD5",
          "content": "ab803b24ea557452e828adba1b986af3"
        },
        {
          "alg": "SHA-256",
          "content": "0791fbd1e43bf74b3502133207e378901272f3c156c4df4954cad833b1380207"
        }
      ],
      "licenses": [
        {
          "license": {
            "name": "BSD"
          }
        }
      ],
      "purl": "pkg:pypi/numpy@1.22.4",
      "modified": false
    },
    {
      "type": "library",
      "name": "sklearn",
      "version": "0.0",
      "description": "A set of python modules for machine learning and data mining",
      "hashes": [
        {
          "alg": "MD5",
          "content": "2f838446781e075ca99dfab2643a3199"
        },
        {
          "alg": "SHA-256",
          "content": "e23001573aa194b834122d2b9562459bf5ae494a2d59ca6b8aa22c85a44c0e31"
        }
      ],
      "purl": "pkg:pypi/sklearn@0.0",
      "modified": false
    },
    {
      "type": "library",
      "bom-ref": "pkg:pypi/grpcio@1.41.0",
      "group": "",
      "name": "grpcio",
      "version": "1.41.0",
      "description": "HTTP/2-based RPC framework",
      "hashes": [
        {
          "alg": "SHA-256",
          "content": "9ecd0fc34aa46eeac24f4d20e67bafaf72ca914f99690bf2898674905eaddaf9"
        }
      ],
      "licenses": [
        {
          "license": {
            "id": "Apache-2.0",
            "url": "https://opensource.org/licenses/Apache-2.0"
          }
        }
      ],
      "purl": "pkg:pypi/grpcio@1.41.0",
      "externalReferences": [
        {
          "url": "https://grpc.io",
          "type": "website"
        }
      ]
    },
    {
      "type": "library",
      "bom-ref": "pkg:pypi/grpcio-tools@1.41.0",
      "group": "",
      "name": "grpcio-tools",
      "version": "1.41.0",
      "description": "Protobuf code generator for gRPC",
      "hashes": [
        {
          "alg": "SHA-256",
          "content": "6622feec0a3f326fb86cf01bf1bcbfec23548ae4d80706d88b296d792d816f0e"
        }
      ],
      "licenses": [
        {
          "license": {
            "id": "Apache-2.0",
            "url": "https://opensource.org/licenses/Apache-2.0"
          }
        }
      ],
      "purl": "pkg:pypi/grpcio-tools@1.41.0",
      "externalReferences": [
        {
          "url": "https://grpc.io",
          "type": "website"
        }
      ]
    },
    {
      "type": "library",
      "bom-ref": "pkg:pypi/flask@2.0.2",
      "group": "",
      "name": "Flask",
      "version": "2.0.2",
      "description": "A simple framework for building complex web applications.",
      "hashes": [
        {
          "alg": "SHA-256",
          "content": "cb90f62f1d8e4dc4621f52106613488b5ba826b2e1e10a33eac92f723093ab6a"
        }
      ],
      "licenses": [
        {
          "license": {
            "id": "BSD-3-Clause",
            "url": "https://opensource.org/licenses/BSD-3-Clause"
          }
        }
      ],
      "purl": "pkg:pypi/flask@2.0.2",
      "externalReferences": [
        {
          "url": "https://palletsprojects.com/p/flask",
          "type": "website"
        }
      ]
    },
    {
      "type": "library",
      "bom-ref": "pkg:pypi/numpy@1.21.4",
      "group": "",
      "name": "numpy",
      "version": "1.21.4",
      "description": "NumPy is the fundamental package for array computing with Python.",
      "hashes": [
        {
          "alg": "SHA-256",
          "content": "8890b3360f345e8360133bc078d2dacc2843b6ee6059b568781b15b97acbe39f"
        }
      ],
      "licenses": [
        {
          "license": {
            "id": "0BSD",
            "url": "https://opensource.org/licenses/0BSD"
          }
        }
      ],
      "purl": "pkg:pypi/numpy@1.21.4",
      "externalReferences": [
        {
          "url": "https://www.numpy.org",
          "type": "website"
        }
      ]
    },
    {
      "type": "library",
      "bom-ref": "pkg:pypi/protobuf@3.19.1",
      "group": "",
      "name": "protobuf",
      "version": "3.19.1",
      "description": "",
      "hashes": [
        {
          "alg": "SHA-256",
          "content": "d80f80eb175bf5f1169139c2e0c5ada98b1c098e2b3c3736667f28cbbea39fc8"
        }
      ],
      "licenses": [
        {
          "license": {
            "name": "3-Clause BSD License"
          }
        }
      ],
      "purl": "pkg:pypi/protobuf@3.19.1",
      "externalReferences": [
        {
          "url": "https://developers.google.com/protocol-buffers/",
          "type": "website"
        }
      ]
    },
    {
      "type": "library",
      "bom-ref": "pkg:pypi/scikit-learn@1.0.1",
      "group": "",
      "name": "scikit_learn",
      "version": "1.0.1",
      "description": "A set of python modules for machine learning and data mining",
      "hashes": [
        {
          "alg": "SHA-256",
          "content": "116e05fd990d9b363fc29bd3699ec2117d7da9088f6ca9a90173b240c5a063f1"
        }
      ],
      "licenses": [
        {
          "license": {
            "name": "new BSD"
          }
        }
      ],
      "purl": "pkg:pypi/scikit-learn@1.0.1",
      "externalReferences": [
        {
          "url": "http://scikit-learn.org",
          "type": "website"
        }
      ]
    },
    {
      "type": "library",
      "bom-ref": "pkg:pypi/kubernetes@19.15.0",
      "group": "",
      "name": "kubernetes",
      "version": "19.15.0",
      "description": "Kubernetes python client",
      "hashes": [
        {
          "alg": "SHA-256",
          "content": "52312adda60d92ba45b325f2c1505924656389222005f7e089718e1ad03bc07f"
        }
      ],
      "licenses": [
        {
          "license": {
            "id": "Apache-2.0",
            "url": "https://opensource.org/licenses/Apache-2.0"
          }
        }
      ],
      "purl": "pkg:pypi/kubernetes@19.15.0",
      "externalReferences": [
        {
          "url": "https://github.com/kubernetes-client/python",
          "type": "vcs"
        }
      ]
    }
  ]
}
