{
  "bomFormat": "CycloneDX",
  "specVersion": "1.3",
  "version": 1,
  "metadata": {
    "tools": [
      {
        "vendor": "AppThreat",
        "name": "cdxgen",
        "version": "3.0.10"
      },
      {
        "vendor": "Fortress Information Security",
        "name": "Github Extractor",
        "version": "1.15.1"
      }
    ],
    "authors": [
      {
        "name": "Fortress Information Security",
        "email": "sales@fortressinfosec.com",
        "phone": "1-407-573-6800"
      }
    ],
    "timestamp": "2022-06-01T21:00:00Z",
    "component": {
      "type": "application",
      "name": "pip",
      "version": "",
      "group": "pypa",
      "externalReferences": [
        {
          "url": "https://github.com/pypa/pip.git",
          "type": "distribution"
        },
        {
          "type": "website",
          "url": "https://pip.pypa.io/",
          "comment": "As set via `homepage` in Github API"
        }
      ]
    }
  },
  "components": [
    {
      "type": "library",
      "publisher": "Python Packaging Authority",
      "name": "setuptools",
      "version": "62.1.0",
      "description": "Easily download, build, install, upgrade, and uninstall Python packages",
      "hashes": [
        {
          "alg": "MD5",
          "content": "101d2e2bf9b7682ab90d9a7bd487bdbe"
        },
        {
          "alg": "SHA-256",
          "content": "26ead7d1f93efc0f8c804d9fafafbe4a44b179580a7105754b245155f9af05a8"
        }
      ],
      "purl": "pkg:pypi/setuptools@62.1.0",
      "modified": false
    },
    {
      "type": "library",
      "publisher": "Antoine Pitrou",
      "name": "pathlib",
      "version": "1.0.1",
      "description": "Object-oriented filesystem paths",
      "hashes": [
        {
          "alg": "MD5",
          "content": "f26b13acf298a15cdb46a3dffc8eb0de"
        },
        {
          "alg": "SHA-256",
          "content": "f35f95ab8b0f59e6d354090350b44a80a80635d22efdedfa84c7ad1cf0a74147"
        }
      ],
      "licenses": [
        {
          "license": {
            "name": "MIT License"
          }
        }
      ],
      "purl": "pkg:pypi/pathlib@1.0.1",
      "modified": false
    },
    {
      "type": "library",
      "publisher": "Alethea Katherine Flowers",
      "name": "nox",
      "version": "2022.1.7",
      "description": "Flexible test automation.",
      "hashes": [
        {
          "alg": "MD5",
          "content": "aaf5513b8a6fe3a1ef32f248e28a1ccd"
        },
        {
          "alg": "SHA-256",
          "content": "efee12f02d39405b16d68f60e7a06fe1fc450ae58669d6cdda8c7f48e3bae9e3"
        }
      ],
      "licenses": [
        {
          "license": {
            "name": "Apache-2.0"
          }
        }
      ],
      "purl": "pkg:pypi/nox@2022.1.7",
      "modified": false
    },
    {
      "type": "library",
      "publisher": "Zope Foundation and Contributors",
      "name": "datetime",
      "version": "4.4",
      "description": "This package provides a DateTime data type, as known from Zope. Unless you need to communicate with Zope APIs, you're probably better off using Python's built-in datetime module.",
      "hashes": [
        {
          "alg": "MD5",
          "content": "ad1e82d858ed7c8cd2ea437b4cb695ed"
        },
        {
          "alg": "SHA-256",
          "content": "4fcca115ddb466a1104df08d5c2a2f5805d14ca317800e1bfcea8f3d69f66e57"
        }
      ],
      "licenses": [
        {
          "license": {
            "name": "ZPL 2.1"
          }
        }
      ],
      "purl": "pkg:pypi/datetime@4.4",
      "modified": false
    },
    {
      "type": "library",
      "publisher": "Donald Stufft and individual contributors",
      "name": "packaging",
      "version": "21.3",
      "description": "Core utilities for Python packages",
      "hashes": [
        {
          "alg": "MD5",
          "content": "670a7057642064a747bd8274b24eb3f9"
        },
        {
          "alg": "SHA-256",
          "content": "ef103e05f519cdc783ae24ea4e2e0f508a9c99b2d4969652eed6a2e1ea5bd522"
        }
      ],
      "licenses": [
        {
          "license": {
            "name": "BSD-2-Clause or Apache-2.0"
          }
        }
      ],
      "purl": "pkg:pypi/packaging@21.3",
      "modified": false
    },
    {
      "type": "library",
      "publisher": "David Goodger",
      "name": "docutils",
      "version": "0.18.1",
      "description": "Docutils -- Python Documentation Utilities",
      "hashes": [
        {
          "alg": "MD5",
          "content": "fb64f4546e57ee206f16138612df8307"
        },
        {
          "alg": "SHA-256",
          "content": "23010f129180089fbcd3bc08cfefccb3b890b0050e1ca00c867036e9d161b98c"
        }
      ],
      "licenses": [
        {
          "license": {
            "name": "public domain, Python, 2-Clause BSD, GPL 3 (see COPYING.txt)"
          }
        }
      ],
      "purl": "pkg:pypi/docutils@0.18.1",
      "modified": false
    },
    {
      "type": "library",
      "publisher": "Georg Brandl",
      "name": "sphinx",
      "version": "4.5.0",
      "description": "Python documentation generator",
      "hashes": [
        {
          "alg": "MD5",
          "content": "783dccaf6949b2015b5eca6e1366bdbd"
        },
        {
          "alg": "SHA-256",
          "content": "ebf612653238bcc8f4359627a9b7ce44ede6fdd75d9d30f68255c7383d3a6226"
        }
      ],
      "licenses": [
        {
          "license": {
            "name": "BSD"
          }
        }
      ],
      "purl": "pkg:pypi/sphinx@4.5.0",
      "modified": false
    },
    {
      "type": "library",
      "name": "io",
      "version": "0.0.1",
      "purl": "pkg:pypi/io@0.0.1",
      "modified": false
    },
    {
      "type": "library",
      "publisher": "Thomas Waldmann",
      "name": "argparse",
      "version": "1.4.0",
      "description": "Python command-line parsing library",
      "hashes": [
        {
          "alg": "MD5",
          "content": "c37216a954c8669054e2b2c54853dd49"
        },
        {
          "alg": "SHA-256",
          "content": "c31647edb69fd3d465a847ea3157d37bed1f95f19760b11a47aa91c04b666314"
        }
      ],
      "licenses": [
        {
          "license": {
            "name": "Python Software Foundation License"
          }
        }
      ],
      "purl": "pkg:pypi/argparse@1.4.0",
      "modified": false
    },
    {
      "type": "library",
      "publisher": "Tadayoshi Funaba",
      "name": "calendar",
      "version": "1.11.4",
      "description": "Calendrical calculation modules",
      "purl": "pkg:pypi/calendar@1.11.4",
      "modified": false
    },
    {
      "type": "library",
      "name": "email",
      "version": "4.0.2",
      "description": "Standalone email package",
      "hashes": [
        {
          "alg": "MD5",
          "content": "67707dc0fab874edc5ac45f95ec9ec87"
        },
        {
          "alg": "SHA-256",
          "content": "e2254c9b4e4cf33553f7dfc85b500eea4c3e96733736f38c9dbfc3dcc6303705"
        }
      ],
      "purl": "pkg:pypi/email@4.0.2",
      "modified": false
    },
    {
      "type": "library",
      "name": "hashlib",
      "version": "20081119",
      "description": "Secure hash and message digest algorithm library",
      "hashes": [
        {
          "alg": "MD5",
          "content": "46e59db6d5cac34b3344ef0c30d0897f"
        },
        {
          "alg": "SHA-256",
          "content": "419de2fd10ae71ed9c6adcb55903f116abd1d8acc8c814dfd5f839b4d5013e38"
        }
      ],
      "purl": "pkg:pypi/hashlib@20081119",
      "modified": false
    },
    {
      "type": "library",
      "publisher": "Ben Finney",
      "name": "enum",
      "version": "0.4.7",
      "description": "Robust enumerated type support in Python.",
      "hashes": [
        {
          "alg": "MD5",
          "content": "e7d170e3f84435b77058de625c96ef58"
        },
        {
          "alg": "SHA-256",
          "content": "8c7cf3587eda51008bcc1eed99ea2c331ccd265c231dbaa95ec5258d3dc03100"
        }
      ],
      "licenses": [
        {
          "license": {
            "name": "GPL-3.0+"
          }
        }
      ],
      "purl": "pkg:pypi/enum@0.4.7",
      "modified": false
    },
    {
      "type": "library",
      "publisher": "Jindrich K. Smitka",
      "name": "railroad",
      "version": "0.5.0",
      "description": "A functional library for data processing.",
      "hashes": [
        {
          "alg": "MD5",
          "content": "f0ba3a62fb2d15d576621e8ddf7637fa"
        },
        {
          "alg": "SHA-256",
          "content": "79d1355e1ff007a699e938ddc9fe265d75e17568a3196a72b6c2452b5e9aaade"
        }
      ],
      "licenses": [
        {
          "license": {
            "name": "MIT"
          }
        }
      ],
      "purl": "pkg:pypi/railroad@0.5.0",
      "modified": false
    },
    {
      "type": "library",
      "publisher": "Armin Ronacher",
      "name": "jinja2",
      "version": "3.1.2",
      "description": "A very fast and expressive template engine.",
      "hashes": [
        {
          "alg": "MD5",
          "content": "00ccdb509d3592cc2163b286177d75c8"
        },
        {
          "alg": "SHA-256",
          "content": "6088930bfe239f0e6710546ab9c19c9ef35e29792895fed6e6e31a023a182a61"
        }
      ],
      "licenses": [
        {
          "license": {
            "name": "BSD-3-Clause"
          }
        }
      ],
      "purl": "pkg:pypi/jinja2@3.1.2",
      "modified": false
    },
    {
      "type": "library",
      "publisher": "Facebook",
      "name": "tornado",
      "version": "6.1",
      "description": "Tornado is a Python web framework and asynchronous networking library, originally developed at FriendFeed.",
      "hashes": [
        {
          "alg": "MD5",
          "content": "20495caae481252995557144c93164b5"
        },
        {
          "alg": "SHA-256",
          "content": "548430be2740e327b3fe0201abe471f314741efcb0067ec4f2d7dcfb4825f3e4"
        }
      ],
      "licenses": [
        {
          "license": {
            "name": "http://www.apache.org/licenses/LICENSE-2.0"
          }
        }
      ],
      "purl": "pkg:pypi/tornado@6.1",
      "modified": false
    },
    {
      "type": "library",
      "publisher": "Guido van Rossum (and others)",
      "name": "asyncio",
      "version": "3.4.3",
      "description": "reference implementation of PEP 3156",
      "hashes": [
        {
          "alg": "MD5",
          "content": "82ea7f22832529b1d68109f077c3e977"
        },
        {
          "alg": "SHA-256",
          "content": "c4d18b22701821de07bd6aea8b53d21449ec0ec5680645e5317062ea21817d2d"
        }
      ],
      "licenses": [
        {
          "license": {
            "name": "PSF"
          }
        }
      ],
      "purl": "pkg:pypi/asyncio@3.4.3",
      "modified": false
    },
    {
      "type": "library",
      "publisher": "William Pearson",
      "name": "toml",
      "version": "0.10.2",
      "description": "Python Library for Tom's Obvious, Minimal Language",
      "hashes": [
        {
          "alg": "MD5",
          "content": "dc26cd71b80d6757139f38156a43c545"
        },
        {
          "alg": "SHA-256",
          "content": "806143ae5bfb6a3c6e736a764057db0e6a0e05e338b5630894a5f779cabb4f9b"
        }
      ],
      "licenses": [
        {
          "license": {
            "name": "MIT"
          }
        }
      ],
      "purl": "pkg:pypi/toml@0.10.2",
      "modified": false
    },
    {
      "type": "library",
      "publisher": "Fredrik Lundh",
      "name": "xmlrpclib",
      "version": "1.0.1",
      "description": "Stand-alone distribution of xmlrpclib.",
      "licenses": [
        {
          "license": {
            "name": "Python (BSD type)"
          }
        }
      ],
      "purl": "pkg:pypi/xmlrpclib@1.0.1",
      "modified": false
    },
    {
      "type": "library",
      "publisher": "Jason Ward",
      "name": "HTMLParser",
      "version": "0.0.2",
      "description": "Backport of HTMLParser from python 2.7",
      "hashes": [
        {
          "alg": "MD5",
          "content": "1219bfea68b0cc2633444dabfe5f6fdc"
        },
        {
          "alg": "SHA-256",
          "content": "c5681d3d8642767739e4c08b1b19b3ff44263280ff1923b1c5424052bedb2087"
        }
      ],
      "licenses": [
        {
          "license": {
            "name": "BSD"
          }
        }
      ],
      "purl": "pkg:pypi/htmlparser@0.0.2",
      "modified": false
    },
    {
      "type": "library",
      "publisher": "Franck Cuny",
      "name": "http",
      "version": "0.02",
      "description": "HTTP library for Python",
      "hashes": [
        {
          "alg": "MD5",
          "content": "9e4684a411a9cf371cbd0bc8658a803a"
        },
        {
          "alg": "SHA-256",
          "content": "071bc409f687535b6e31a94bced6a7773905abad8d2f236b406202b7283f682c"
        }
      ],
      "licenses": [
        {
          "license": {
            "name": "MIT"
          }
        }
      ],
      "purl": "pkg:pypi/http@0.02",
      "modified": false
    },
    {
      "type": "library",
      "publisher": "Dave Cole",
      "name": "csv",
      "version": "1.0",
      "description": "Fast CSV Parser for Python",
      "licenses": [
        {
          "license": {
            "name": "BSD"
          }
        }
      ],
      "purl": "pkg:pypi/csv@1.0",
      "modified": false
    },
    {
      "type": "library",
      "publisher": "Greg Ward",
      "name": "distutils",
      "version": "1.0",
      "description": "Python Distribution Utilities",
      "purl": "pkg:pypi/distutils@1.0",
      "modified": false
    },
    {
      "type": "library",
      "publisher": "lxml dev team",
      "name": "lxml",
      "version": "4.8.0",
      "description": "Powerful and Pythonic XML processing library combining libxml2/libxslt with the ElementTree API.",
      "hashes": [
        {
          "alg": "MD5",
          "content": "7ad82f2befca9ee0f3dc073ae7e0b85a"
        },
        {
          "alg": "SHA-256",
          "content": "8b99ec73073b37f9ebe8caf399001848fced9c08064effdbfc4da2b5a8d07b93"
        }
      ],
      "licenses": [
        {
          "license": {
            "name": "BSD"
          }
        }
      ],
      "purl": "pkg:pypi/lxml@4.8.0",
      "modified": false
    },
    {
      "type": "library",
      "publisher": "Edgewall Software",
      "name": "genshi",
      "version": "0.7.7",
      "description": "A toolkit for generation of output for the web",
      "hashes": [
        {
          "alg": "MD5",
          "content": "633461a871e932b353d8d3d8f7535144"
        },
        {
          "alg": "SHA-256",
          "content": "bed85e4015485a808bdd8d5bbb25cdc5fc093efab50776e2888be7b45b46f084"
        }
      ],
      "licenses": [
        {
          "license": {
            "name": "BSD"
          }
        }
      ],
      "purl": "pkg:pypi/genshi@0.7.7",
      "modified": false
    },
    {
      "type": "library",
      "publisher": "Eric V. Smith",
      "name": "dataclasses",
      "version": "0.8",
      "description": "A backport of the dataclasses module for Python 3.6",
      "hashes": [
        {
          "alg": "MD5",
          "content": "0d6e5bb7adcc8fb0de3ef1ace1b32999"
        },
        {
          "alg": "SHA-256",
          "content": "0201d89fa866f68c8ebd9d08ee6ff50c0b255f8ec63a71c16fda7af82bb887bf"
        }
      ],
      "licenses": [
        {
          "license": {
            "name": "Apache"
          }
        }
      ],
      "purl": "pkg:pypi/dataclasses@0.8",
      "modified": false
    },
    {
      "type": "library",
      "publisher": "Yijun Yu",
      "name": "ast",
      "version": "0.0.2",
      "description": "Conversion between protobuf3 and srcML.",
      "hashes": [
        {
          "alg": "MD5",
          "content": "866a45bda3dc0b19f8da494f6a548a8d"
        },
        {
          "alg": "SHA-256",
          "content": "04cf2827c4048d18635ca8f85357a4285d140424ac26028be0dc585f824e07cd"
        }
      ],
      "licenses": [
        {
          "license": {
            "name": "MIT"
          }
        }
      ],
      "purl": "pkg:pypi/ast@0.0.2",
      "modified": false
    },
    {
      "type": "library",
      "publisher": "Laurence Rowe",
      "name": "hmac",
      "version": "20101005",
      "description": "HMAC (Keyed-Hashing for Message Authentication) Python module.",
      "hashes": [
        {
          "alg": "MD5",
          "content": "ae279b102795c18bc5f1393ef228ea6d"
        },
        {
          "alg": "SHA-256",
          "content": "f597438cfe5d4c47c6f75d00ff9f219cb80ed8e9132ccc4ab3a954bd97c15805"
        }
      ],
      "licenses": [
        {
          "license": {
            "name": "PSF license"
          }
        }
      ],
      "purl": "pkg:pypi/hmac@20101005",
      "modified": false
    },
    {
      "type": "library",
      "publisher": "Ka-Ping Yee",
      "name": "uuid",
      "version": "1.30",
      "description": "UUID object and generation functions (Python 2.3 or higher)",
      "hashes": [
        {
          "alg": "MD5",
          "content": "639b310f1fe6800e4bf8aa1dd9333117"
        },
        {
          "alg": "SHA-256",
          "content": "1f87cc004ac5120466f36c5beae48b4c48cc411968eed0eaecd3da82aa96193f"
        }
      ],
      "purl": "pkg:pypi/uuid@1.30",
      "modified": false
    },
    {
      "type": "library",
      "publisher": "Michael Foord",
      "name": "unittest",
      "version": "0.0",
      "hashes": [
        {
          "alg": "MD5",
          "content": "2a416384f814604ed854d40f352f1191"
        },
        {
          "alg": "SHA-256",
          "content": "1b492484bea7f68abda5fcc61412e77b6a105e5842355d630f8b75f01add3555"
        }
      ],
      "purl": "pkg:pypi/unittest@0.0",
      "modified": false
    },
    {
      "type": "library",
      "publisher": "holger krekel, Ronny Pfannschmidt, Benjamin Peterson and others",
      "name": "py",
      "version": "1.11.0",
      "description": "library with cross-python path, ini-parsing, io, code, log facilities",
      "hashes": [
        {
          "alg": "MD5",
          "content": "52d444d43edb21938fad6010a2134cc3"
        },
        {
          "alg": "SHA-256",
          "content": "607c53218732647dff4acdfcd50cb62615cedf612e72d1724fb1a0cc6405b378"
        }
      ],
      "licenses": [
        {
          "license": {
            "name": "MIT license"
          }
        }
      ],
      "purl": "pkg:pypi/py@1.11.0",
      "modified": false
    },
    {
      "type": "library",
      "publisher": "Holger Krekel, Bruno Oliveira, Ronny Pfannschmidt, Floris Bruynooghe, Brianna Laugher, Florian Bruhin and others",
      "name": "pytest",
      "version": "7.1.2",
      "description": "pytest: simple powerful testing with Python",
      "hashes": [
        {
          "alg": "MD5",
          "content": "6f5a9e12007a2529cb00d3b5a8af33a1"
        },
        {
          "alg": "SHA-256",
          "content": "13d0e3ccfc2b6e26be000cb6568c832ba67ba32e719443bfe725814d3c42433c"
        }
      ],
      "licenses": [
        {
          "license": {
            "name": "MIT"
          }
        }
      ],
      "purl": "pkg:pypi/pytest@7.1.2",
      "modified": false
    },
    {
      "type": "library",
      "publisher": "Florian Berger",
      "name": "simple",
      "version": "0.1.1",
      "description": "simple.gui - Simplified GUI generation using Tkinter",
      "licenses": [
        {
          "license": {
            "name": "GPL"
          }
        }
      ],
      "purl": "pkg:pypi/simple@0.1.1",
      "modified": false
    },
    {
      "type": "library",
      "publisher": "Jeff Hykin",
      "name": "simple_namespace",
      "version": "1.0.0",
      "description": "Organize code better with namespaces",
      "hashes": [
        {
          "alg": "MD5",
          "content": "db80dedd338567c545d884f0844318f2"
        },
        {
          "alg": "SHA-256",
          "content": "abbcb832ee44a6fbf4c0fa654388ad90d11297ab71b9d3d7bc4e2e882e57173f"
        }
      ],
      "licenses": [
        {
          "license": {
            "name": "MIT"
          }
        }
      ],
      "purl": "pkg:pypi/simple-namespace@1.0.0",
      "modified": false
    },
    {
      "type": "library",
      "publisher": "Steve Pulec",
      "name": "freezegun",
      "version": "1.2.1",
      "description": "Let your Python tests travel through time",
      "hashes": [
        {
          "alg": "MD5",
          "content": "c93debd7b0d707cd24f3556a4bb3294e"
        },
        {
          "alg": "SHA-256",
          "content": "15103a67dfa868ad809a8f508146e396be2995172d25f927e48ce51c0bf5cb09"
        }
      ],
      "licenses": [
        {
          "license": {
            "name": "Apache 2.0"
          }
        }
      ],
      "purl": "pkg:pypi/freezegun@1.2.1",
      "modified": false
    },
    {
      "type": "library",
      "publisher": "Stephan Klein",
      "name": "signal",
      "version": "0.1",
      "description": "Send SMS messages via ADB and your Android phone. Comes with a CLI.",
      "licenses": [
        {
          "license": {
            "name": "MIT"
          }
        }
      ],
      "purl": "pkg:pypi/signal@0.1",
      "modified": false
    },
    {
      "type": "library",
      "publisher": "Armin Ronacher",
      "name": "werkzeug",
      "version": "2.1.2",
      "description": "The comprehensive WSGI web application library.",
      "hashes": [
        {
          "alg": "MD5",
          "content": "efb5ba74b1048640df0036b7b74ddf46"
        },
        {
          "alg": "SHA-256",
          "content": "72a4b735692dd3135217911cbeaa1be5fa3f62bffb8745c5215420a03dc55255"
        }
      ],
      "licenses": [
        {
          "license": {
            "name": "BSD-3-Clause"
          }
        }
      ],
      "purl": "pkg:pypi/werkzeug@2.1.2",
      "modified": false
    },
    {
      "type": "library",
      "publisher": "Bernat Gabor",
      "name": "virtualenv",
      "version": "20.14.1",
      "description": "Virtual Python Environment builder",
      "hashes": [
        {
          "alg": "MD5",
          "content": "3d68ba9e0a4a8feb49848a95f55f2607"
        },
        {
          "alg": "SHA-256",
          "content": "e617f16e25b42eb4f6e74096b9c9e37713cf10bf30168fb4a739f3fa8f898a3a"
        }
      ],
      "licenses": [
        {
          "license": {
            "name": "MIT"
          }
        }
      ],
      "purl": "pkg:pypi/virtualenv@20.14.1",
      "modified": false
    },
    {
      "type": "library",
      "publisher": "Ian Bicking",
      "name": "scripttest",
      "version": "1.3",
      "description": "Helper to test command-line scripts",
      "hashes": [
        {
          "alg": "MD5",
          "content": "1d1c5117ccfc7b5961cae6c1020c0848"
        },
        {
          "alg": "SHA-256",
          "content": "951cfc25219b0cd003493a565f2e621fd791beaae9f9a3bdd7024d8626419c38"
        }
      ],
      "licenses": [
        {
          "license": {
            "name": "MIT"
          }
        }
      ],
      "purl": "pkg:pypi/scripttest@1.3",
      "modified": false
    },
    {
      "type": "library",
      "name": "tomli_w",
      "version": "1.0.0",
      "description": "A lil' TOML writer",
      "hashes": [
        {
          "alg": "MD5",
          "content": "7c0782596359b7e86959c82200a75bc7"
        },
        {
          "alg": "SHA-256",
          "content": "9f2a07e8be30a0729e533ec968016807069991ae2fd921a78d42f429ae5f4463"
        }
      ],
      "purl": "pkg:pypi/tomli-w@1.0.0",
      "modified": false
    },
    {
      "type": "library",
      "bom-ref": "pkg:pypi/sphinx@4.2,",
      "group": "",
      "name": "sphinx",
      "version": "4.2,",
      "description": "Python documentation generator",
      "licenses": [
        {
          "license": {
            "id": "0BSD",
            "url": "https://opensource.org/licenses/0BSD"
          }
        }
      ],
      "purl": "pkg:pypi/sphinx@4.2,",
      "externalReferences": [
        {
          "url": "https://www.sphinx-doc.org/",
          "type": "website"
        }
      ]
    },
    {
      "type": "library",
      "bom-ref": "pkg:pypi/towncrier@21.9.0",
      "group": "",
      "name": "towncrier",
      "version": "21.9.0",
      "description": "Building newsfiles for your project.",
      "hashes": [
        {
          "alg": "SHA-256",
          "content": "fc5a88a2a54988e3a8ed2b60d553599da8330f65722cc607c839614ed87e0f92"
        }
      ],
      "licenses": [
        {
          "license": {
            "id": "MIT",
            "url": "https://opensource.org/licenses/MIT"
          }
        }
      ],
      "purl": "pkg:pypi/towncrier@21.9.0",
      "externalReferences": [
        {
          "url": "https://github.com/hawkowl/towncrier",
          "type": "vcs"
        }
      ]
    },
    {
      "type": "library",
      "bom-ref": "pkg:pypi/furo@2022.4.7",
      "group": "",
      "name": "furo",
      "version": "2022.4.7",
      "description": "A clean customisable Sphinx documentation theme.",
      "hashes": [
        {
          "alg": "SHA-256",
          "content": "7f3e3d2fb977483590f8ecb2c2cd511bd82661b79c18efb24de9558bc9cdf2d7"
        }
      ],
      "purl": "pkg:pypi/furo@2022.4.7"
    },
    {
      "type": "library",
      "bom-ref": "pkg:pypi/myst-parser",
      "group": "",
      "name": "myst_parser",
      "version": "0.0.0",
      "description": "An extended commonmark compliant parser, with bridges to docutils & sphinx.",
      "purl": "pkg:pypi/myst-parser"
    },
    {
      "type": "library",
      "bom-ref": "pkg:pypi/sphinx-copybutton@0.5.0",
      "group": "",
      "name": "sphinx-copybutton",
      "version": "0.5.0",
      "description": "Add a copy button to each of your code cells.",
      "hashes": [
        {
          "alg": "SHA-256",
          "content": "9684dec7434bd73f0eea58dda93f9bb879d24bff2d8b187b1f2ec08dfe7b5f48"
        }
      ],
      "licenses": [
        {
          "license": {
            "id": "MIT",
            "url": "https://opensource.org/licenses/MIT"
          }
        }
      ],
      "purl": "pkg:pypi/sphinx-copybutton@0.5.0",
      "externalReferences": [
        {
          "url": "https://github.com/executablebooks/sphinx-copybutton",
          "type": "vcs"
        }
      ]
    },
    {
      "type": "library",
      "bom-ref": "pkg:pypi/sphinx-inline-tabs@2022.1.2b11",
      "group": "",
      "name": "sphinx-inline-tabs",
      "version": "2022.1.2b11",
      "description": "Add inline tabbed content to your Sphinx documentation.",
      "hashes": [
        {
          "alg": "SHA-256",
          "content": "bb4e807769ef52301a186d0678da719120b978a1af4fd62a1e9453684e962dbc"
        }
      ],
      "purl": "pkg:pypi/sphinx-inline-tabs@2022.1.2b11",
      "externalReferences": [
        {
          "url": "https://github.com/pradyunsg/sphinx-inline-tabs",
          "type": "vcs"
        }
      ]
    },
    {
      "type": "library",
      "bom-ref": "pkg:pypi/sphinxcontrib-towncrier@0.2.0a0",
      "group": "",
      "name": "sphinxcontrib-towncrier",
      "version": "0.2.0a0",
      "description": "An RST directive for injecting a Towncrier-generated changelog draft containing fragments for the unreleased (next) project version",
      "hashes": [
        {
          "alg": "SHA-256",
          "content": "3cd4295c0198e753d964e2c06ee4ecd91a73a8d103385d08af9b05487ae68dd0"
        }
      ],
      "licenses": [
        {
          "license": {
            "id": "BSD-3-Clause",
            "url": "https://opensource.org/licenses/BSD-3-Clause"
          }
        }
      ],
      "purl": "pkg:pypi/sphinxcontrib-towncrier@0.2.0a0",
      "externalReferences": [
        {
          "url": "https://github.com/sphinx-contrib/sphinxcontrib-towncrier",
          "type": "vcs"
        }
      ]
    },
    {
      "type": "library",
      "bom-ref": "pkg:pypi/.",
      "group": "",
      "name": ".",
      "version": "0.0.0",
      "description": "",
      "purl": "pkg:pypi/."
    },
    {
      "type": "library",
      "bom-ref": "pkg:pypi/cryptography@37.0.2",
      "group": "",
      "name": "cryptography",
      "version": "37.0.2",
      "description": "cryptography is a package which provides cryptographic recipes and primitives to Python developers.",
      "hashes": [
        {
          "alg": "SHA-256",
          "content": "ef15c2df7656763b4ff20a9bc4381d8352e6640cfeb95c2972c38ef508e75181"
        }
      ],
      "licenses": [
        {
          "license": {
            "name": "BSD-3-Clause OR Apache-2.0"
          }
        }
      ],
      "purl": "pkg:pypi/cryptography@37.0.2",
      "externalReferences": [
        {
          "url": "https://github.com/pyca/cryptography",
          "type": "vcs"
        }
      ]
    },
    {
      "type": "library",
      "bom-ref": "pkg:pypi/pytest-cov@3.0.0",
      "group": "",
      "name": "pytest-cov",
      "version": "3.0.0",
      "description": "Pytest plugin for measuring coverage.",
      "hashes": [
        {
          "alg": "SHA-256",
          "content": "578d5d15ac4a25e5f961c938b85a05b09fdaae9deef3bb6de9a6e766622ca7a6"
        }
      ],
      "licenses": [
        {
          "license": {
            "id": "MIT",
            "url": "https://opensource.org/licenses/MIT"
          }
        }
      ],
      "purl": "pkg:pypi/pytest-cov@3.0.0",
      "externalReferences": [
        {
          "url": "https://github.com/pytest-dev/pytest-cov",
          "type": "vcs"
        }
      ]
    },
    {
      "type": "library",
      "bom-ref": "pkg:pypi/pytest-rerunfailures@10.2",
      "group": "",
      "name": "pytest-rerunfailures",
      "version": "10.2",
      "description": "pytest plugin to re-run tests to eliminate flaky failures",
      "hashes": [
        {
          "alg": "SHA-256",
          "content": "d31d8e828dfd39363ad99cd390187bf506c7a433a89f15c3126c7d16ab723fe2"
        }
      ],
      "licenses": [
        {
          "license": {
            "name": "Mozilla Public License 2.0 (MPL 2.0)"
          }
        }
      ],
      "purl": "pkg:pypi/pytest-rerunfailures@10.2",
      "externalReferences": [
        {
          "url": "https://github.com/pytest-dev/pytest-rerunfailures",
          "type": "vcs"
        }
      ]
    },
    {
      "type": "library",
      "bom-ref": "pkg:pypi/pytest-xdist@2.5.0",
      "group": "",
      "name": "pytest-xdist",
      "version": "2.5.0",
      "description": "pytest xdist plugin for distributed testing and loop-on-failing modes",
      "hashes": [
        {
          "alg": "SHA-256",
          "content": "6fe5c74fec98906deb8f2d2b616b5c782022744978e7bd4695d39c8f42d0ce65"
        }
      ],
      "licenses": [
        {
          "license": {
            "id": "MIT",
            "url": "https://opensource.org/licenses/MIT"
          }
        }
      ],
      "purl": "pkg:pypi/pytest-xdist@2.5.0",
      "externalReferences": [
        {
          "url": "https://github.com/pytest-dev/pytest-xdist",
          "type": "vcs"
        }
      ]
    },
    {
      "type": "library",
      "bom-ref": "pkg:pypi/virtualenv < 20.0",
      "group": "",
      "name": "virtualenv < 20.0",
      "version": "0.0.0",
      "description": "",
      "purl": "pkg:pypi/virtualenv < 20.0"
    },
    {
      "type": "library",
      "bom-ref": "pkg:pypi/wheel@0.37.1",
      "group": "",
      "name": "wheel",
      "version": "0.37.1",
      "description": "A built-package format for Python",
      "hashes": [
        {
          "alg": "SHA-256",
          "content": "4bdcd7d840138086126cd09254dc6195fb4fc6f01c050a1d7236f2630db1d22a"
        }
      ],
      "licenses": [
        {
          "license": {
            "id": "MIT",
            "url": "https://opensource.org/licenses/MIT"
          }
        }
      ],
      "purl": "pkg:pypi/wheel@0.37.1",
      "externalReferences": [
        {
          "url": "https://github.com/pypa/wheel",
          "type": "vcs"
        }
      ]
    }
  ]
}
