{
  "bomFormat": "CycloneDX",
  "specVersion": "1.3",
  "serialNumber": "urn:uuid:ea468e47-aee3-4383-abd0-a612f23ead30",
  "version": 1,
  "metadata": {
    "timestamp": "2022-06-06T20:17:38Z",
    "tools": [
      {
        "vendor": "AppThreat",
        "name": "cdxgen",
        "version": "3.0.10"
      },
      {
        "vendor": "Fortress Information Security",
        "name": "Github Extractor",
        "version": "1.15.1"
      }
    ],
    "authors": [
      {
        "name": "Team AppThreat",
        "email": "cloud@appthreat.com"
      },
      {
        "name": "Fortress Information Security",
        "email": "sales@fortressinfosec.com",
        "phone": "1-407-573-6800"
      }
    ],
    "component": {
      "type": "application",
      "name": "tfs",
      "version": "",
      "group": "redox-os",
      "externalReferences": [
        {
          "url": "https://github.com/redox-os/tfs.git",
          "type": "distribution"
        },
        {
          "type": "website",
          "url": "null",
          "comment": "As set via `homepage` in Github API"
        }
      ]
    }
  },
  "components": [
    {
      "type": "library",
      "bom-ref": "pkg:crates/atomic-hashmap@0.1.0",
      "group": "",
      "name": "atomic-hashmap",
      "version": "0.1.0",
      "description": "",
      "purl": "pkg:crates/atomic-hashmap@0.1.0"
    },
    {
      "type": "library",
      "bom-ref": "pkg:crates/conc@0.2",
      "group": "",
      "name": "conc",
      "version": "0.2",
      "description": "",
      "purl": "pkg:crates/conc@0.2"
    },
    {
      "type": "library",
      "bom-ref": "pkg:crates/cbloom@0.1.1",
      "group": "",
      "name": "cbloom",
      "version": "0.1.1",
      "description": "",
      "purl": "pkg:crates/cbloom@0.1.1"
    },
    {
      "type": "library",
      "bom-ref": "pkg:crates/chashmap@2.2.1",
      "group": "",
      "name": "chashmap",
      "version": "2.2.1",
      "description": "",
      "purl": "pkg:crates/chashmap@2.2.1"
    },
    {
      "type": "library",
      "bom-ref": "pkg:crates/parking_lot@0.4",
      "group": "",
      "name": "parking_lot",
      "version": "0.4",
      "description": "",
      "purl": "pkg:crates/parking_lot@0.4"
    },
    {
      "type": "library",
      "bom-ref": "pkg:crates/owning_ref@0.3",
      "group": "",
      "name": "owning_ref",
      "version": "0.3",
      "description": "",
      "purl": "pkg:crates/owning_ref@0.3"
    },
    {
      "type": "library",
      "bom-ref": "pkg:crates/conc@0.5.1",
      "group": "",
      "name": "conc",
      "version": "0.5.1",
      "description": "",
      "purl": "pkg:crates/conc@0.5.1"
    },
    {
      "type": "library",
      "bom-ref": "pkg:crates/lazy_static@0.2",
      "group": "",
      "name": "lazy_static",
      "version": "0.2",
      "description": "",
      "purl": "pkg:crates/lazy_static@0.2"
    },
    {
      "type": "library",
      "bom-ref": "pkg:crates/rand@0.3",
      "group": "",
      "name": "rand",
      "version": "0.3",
      "description": "",
      "purl": "pkg:crates/rand@0.3"
    },
    {
      "type": "library",
      "bom-ref": "pkg:crates/optional@true",
      "group": "",
      "name": "optional",
      "version": "true",
      "description": "",
      "purl": "pkg:crates/optional@true"
    },
    {
      "type": "library",
      "bom-ref": "pkg:crates/debug-tools@[backtrace]",
      "group": "",
      "name": "debug-tools",
      "version": "[backtrace]",
      "description": "",
      "purl": "pkg:crates/debug-tools@[backtrace]"
    },
    {
      "type": "library",
      "bom-ref": "pkg:crates/control-flow@0.1.1",
      "group": "",
      "name": "control-flow",
      "version": "0.1.1",
      "description": "",
      "purl": "pkg:crates/control-flow@0.1.1"
    },
    {
      "type": "library",
      "bom-ref": "pkg:crates/tfs-core@0.1.0",
      "group": "",
      "name": "tfs-core",
      "version": "0.1.0",
      "description": "",
      "purl": "pkg:crates/tfs-core@0.1.0"
    },
    {
      "type": "library",
      "bom-ref": "pkg:crates/cbloom@0.1",
      "group": "",
      "name": "cbloom",
      "version": "0.1",
      "description": "",
      "purl": "pkg:crates/cbloom@0.1"
    },
    {
      "type": "library",
      "bom-ref": "pkg:crates/crossbeam@0.2",
      "group": "",
      "name": "crossbeam",
      "version": "0.2",
      "description": "",
      "purl": "pkg:crates/crossbeam@0.2"
    },
    {
      "type": "library",
      "bom-ref": "pkg:crates/futures@0.1",
      "group": "",
      "name": "futures",
      "version": "0.1",
      "description": "",
      "purl": "pkg:crates/futures@0.1"
    },
    {
      "type": "library",
      "bom-ref": "pkg:crates/little-endian@1.0",
      "group": "",
      "name": "little-endian",
      "version": "1.0",
      "description": "",
      "purl": "pkg:crates/little-endian@1.0"
    },
    {
      "type": "library",
      "bom-ref": "pkg:crates/lz4-compress@0.1",
      "group": "",
      "name": "lz4-compress",
      "version": "0.1",
      "description": "",
      "purl": "pkg:crates/lz4-compress@0.1"
    },
    {
      "type": "library",
      "bom-ref": "pkg:crates/mlcr@0.2",
      "group": "",
      "name": "mlcr",
      "version": "0.2",
      "description": "",
      "purl": "pkg:crates/mlcr@0.2"
    },
    {
      "type": "library",
      "bom-ref": "pkg:crates/ring@0.7",
      "group": "",
      "name": "ring",
      "version": "0.7",
      "description": "",
      "purl": "pkg:crates/ring@0.7"
    },
    {
      "type": "library",
      "bom-ref": "pkg:crates/ring-pwhash@0.1",
      "group": "",
      "name": "ring-pwhash",
      "version": "0.1",
      "description": "",
      "purl": "pkg:crates/ring-pwhash@0.1"
    },
    {
      "type": "library",
      "bom-ref": "pkg:crates/seahash@3.0",
      "group": "",
      "name": "seahash",
      "version": "3.0",
      "description": "",
      "purl": "pkg:crates/seahash@3.0"
    },
    {
      "type": "library",
      "bom-ref": "pkg:crates/slog@1.5",
      "group": "",
      "name": "slog",
      "version": "1.5",
      "description": "",
      "purl": "pkg:crates/slog@1.5"
    },
    {
      "type": "library",
      "bom-ref": "pkg:crates/speck@1.0",
      "group": "",
      "name": "speck",
      "version": "1.0",
      "description": "",
      "purl": "pkg:crates/speck@1.0"
    },
    {
      "type": "library",
      "bom-ref": "pkg:crates/thread-object@0.2",
      "group": "",
      "name": "thread-object",
      "version": "0.2",
      "description": "",
      "purl": "pkg:crates/thread-object@0.2"
    },
    {
      "type": "library",
      "bom-ref": "pkg:crates/type-name@0.1",
      "group": "",
      "name": "type-name",
      "version": "0.1",
      "description": "",
      "purl": "pkg:crates/type-name@0.1"
    },
    {
      "type": "library",
      "bom-ref": "pkg:crates/security@[]",
      "group": "",
      "name": "security",
      "version": "[]",
      "description": "",
      "purl": "pkg:crates/security@[]"
    },
    {
      "type": "library",
      "bom-ref": "pkg:crates/little-endian@1.0.0",
      "group": "",
      "name": "little-endian",
      "version": "1.0.0",
      "description": "",
      "purl": "pkg:crates/little-endian@1.0.0"
    },
    {
      "type": "library",
      "bom-ref": "pkg:crates/lz4-compress@0.1.1",
      "group": "",
      "name": "lz4-compress",
      "version": "0.1.1",
      "description": "",
      "purl": "pkg:crates/lz4-compress@0.1.1"
    },
    {
      "type": "library",
      "bom-ref": "pkg:crates/byteorder@1",
      "group": "",
      "name": "byteorder",
      "version": "1",
      "description": "",
      "purl": "pkg:crates/byteorder@1"
    },
    {
      "type": "library",
      "bom-ref": "pkg:crates/quick-error@1",
      "group": "",
      "name": "quick-error",
      "version": "1",
      "description": "",
      "purl": "pkg:crates/quick-error@1"
    },
    {
      "type": "library",
      "bom-ref": "pkg:crates/mlcr@0.2.0",
      "group": "",
      "name": "mlcr",
      "version": "0.2.0",
      "description": "",
      "purl": "pkg:crates/mlcr@0.2.0"
    },
    {
      "type": "library",
      "bom-ref": "pkg:crates/nn@0.1",
      "group": "",
      "name": "nn",
      "version": "0.1",
      "description": "",
      "purl": "pkg:crates/nn@0.1"
    },
    {
      "type": "library",
      "bom-ref": "pkg:crates/parking_lot@0.3",
      "group": "",
      "name": "parking_lot",
      "version": "0.3",
      "description": "",
      "purl": "pkg:crates/parking_lot@0.3"
    },
    {
      "type": "library",
      "bom-ref": "pkg:crates/seahash@3.0.5",
      "group": "",
      "name": "seahash",
      "version": "3.0.5",
      "description": "",
      "purl": "pkg:crates/seahash@3.0.5"
    },
    {
      "type": "library",
      "bom-ref": "pkg:crates/speck@1.1.0",
      "group": "",
      "name": "speck",
      "version": "1.1.0",
      "description": "",
      "purl": "pkg:crates/speck@1.1.0"
    },
    {
      "type": "library",
      "bom-ref": "pkg:crates/thread-object@0.2.0",
      "group": "",
      "name": "thread-object",
      "version": "0.2.0",
      "description": "",
      "purl": "pkg:crates/thread-object@0.2.0"
    },
    {
      "type": "library",
      "bom-ref": "pkg:crates/type-name@0.1.0",
      "group": "",
      "name": "type-name",
      "version": "0.1.0",
      "description": "",
      "purl": "pkg:crates/type-name@0.1.0"
    },
    {
      "type": "library",
      "bom-ref": "pkg:crates/zmicro@0.1.0",
      "group": "",
      "name": "zmicro",
      "version": "0.1.0",
      "description": "",
      "purl": "pkg:crates/zmicro@0.1.0"
    }
  ],
  "externalReferences": [
    {
      "url": "/project/src",
      "type": "other",
      "comment": "Base path"
    },
    {
      "url": "/project/src/atomic-hashmap/Cargo.toml, /project/src/cbloom/Cargo.toml, /project/src/chashmap/Cargo.toml, /project/src/conc/Cargo.toml, /project/src/control-flow/Cargo.toml, /project/src/core/Cargo.toml, /project/src/little-endian/Cargo.toml, /project/src/lz4/Cargo.toml, /project/src/mlcr/Cargo.toml, /project/src/seahash/Cargo.toml, /project/src/speck/Cargo.toml, /project/src/thread-object/Cargo.toml, /project/src/type-name/Cargo.toml, /project/src/zmicro/Cargo.toml",
      "type": "other",
      "comment": "Package file"
    }
  ]
}
