{
  "bomFormat": "CycloneDX",
  "specVersion": "1.3",
  "version": 1,
  "metadata": {
    "tools": [
      {
        "vendor": "CycloneDX",
        "name": "cyclonedx-gomod",
        "version": "v0.0.0-unset",
        "hashes": [
          {
            "alg": "MD5",
            "content": "a35776fc9417e8071d3f1dcfa2f1dd19"
          },
          {
            "alg": "SHA-1",
            "content": "a19a8eed713eff5a2092e5283c201a146f19421d"
          },
          {
            "alg": "SHA-256",
            "content": "17b3b980b9a5d0f48ad52043dee5b31aff3ae6599a36bc94224dc7b6a46759ef"
          },
          {
            "alg": "SHA-512",
            "content": "9d4f06aab20cede94a1aedf11a300ae9de98871235c68c72e421cd6d45495910861b39e743ee0eceb11bbdcd2c9acc3312c19064cfe90177243fb43127fcfa46"
          }
        ]
      },
      {
        "vendor": "AppThreat",
        "name": "cdxgen",
        "version": "3.0.10"
      },
      {
        "vendor": "Fortress Information Security",
        "name": "Github Extractor",
        "version": "1.15.1"
      }
    ],
    "authors": [
      {
        "name": "Fortress Information Security",
        "email": "sales@fortressinfosec.com",
        "phone": "1-407-573-6800"
      }
    ],
    "timestamp": "2022-06-01T21:00:00Z",
    "component": {
      "type": "application",
      "name": "tview",
      "version": "",
      "group": "rivo",
      "externalReferences": [
        {
          "url": "https://github.com/rivo/tview.git",
          "type": "distribution"
        },
        {
          "type": "website",
          "url": "null",
          "comment": "As set via `homepage` in Github API"
        }
      ]
    }
  },
  "components": [
    {
      "type": "library",
      "bom-ref": "pkg:golang/github.com/gdamore/encoding@v1.0.0",
      "name": "github.com/gdamore/encoding",
      "version": "v1.0.0",
      "scope": "required",
      "hashes": [
        {
          "alg": "SHA-256",
          "content": "fbb3a843505ce9e4e6e67894cc16b40adb21e896cc5ba45af9836e02d0c1764a"
        }
      ],
      "purl": "pkg:golang/github.com/gdamore/encoding@v1.0.0",
      "externalReferences": [
        {
          "url": "https://github.com/gdamore/encoding",
          "type": "vcs"
        }
      ]
    },
    {
      "type": "library",
      "bom-ref": "pkg:golang/github.com/gdamore/tcell/v2@v2.4.1-0.20210905002822-f057f0a857a1",
      "name": "github.com/gdamore/tcell/v2",
      "version": "v2.4.1-0.20210905002822-f057f0a857a1",
      "scope": "required",
      "hashes": [
        {
          "alg": "SHA-256",
          "content": "42ac0f642c21fe4d6e62aabab9749bf5344385391f41b3bcd2ff3386721ee733"
        }
      ],
      "purl": "pkg:golang/github.com/gdamore/tcell/v2@v2.4.1-0.20210905002822-f057f0a857a1",
      "externalReferences": [
        {
          "url": "https://github.com/gdamore/tcell",
          "type": "vcs"
        }
      ]
    },
    {
      "type": "library",
      "bom-ref": "pkg:golang/github.com/lucasb-eyer/go-colorful@v1.2.0",
      "name": "github.com/lucasb-eyer/go-colorful",
      "version": "v1.2.0",
      "scope": "required",
      "hashes": [
        {
          "alg": "SHA-256",
          "content": "d679e918eae1c9966e3727eed508ca89420243be3edc534237af408fa2bb9e46"
        }
      ],
      "purl": "pkg:golang/github.com/lucasb-eyer/go-colorful@v1.2.0",
      "externalReferences": [
        {
          "url": "https://github.com/lucasb-eyer/go-colorful",
          "type": "vcs"
        }
      ]
    },
    {
      "type": "library",
      "bom-ref": "pkg:golang/github.com/mattn/go-runewidth@v0.0.13",
      "name": "github.com/mattn/go-runewidth",
      "version": "v0.0.13",
      "scope": "required",
      "hashes": [
        {
          "alg": "SHA-256",
          "content": "9531a60ec6c062de4398ae8e9e857b12e205d7010814073195deb2a54e0e4a05"
        }
      ],
      "purl": "pkg:golang/github.com/mattn/go-runewidth@v0.0.13",
      "externalReferences": [
        {
          "url": "https://github.com/mattn/go-runewidth",
          "type": "vcs"
        }
      ]
    },
    {
      "type": "library",
      "bom-ref": "pkg:golang/github.com/rivo/uniseg@v0.2.0",
      "name": "github.com/rivo/uniseg",
      "version": "v0.2.0",
      "scope": "required",
      "hashes": [
        {
          "alg": "SHA-256",
          "content": "4b5a43f7079906e25d166a303706e98bb049f1335fb725089a3ff45908bbda36"
        }
      ],
      "purl": "pkg:golang/github.com/rivo/uniseg@v0.2.0",
      "externalReferences": [
        {
          "url": "https://github.com/rivo/uniseg",
          "type": "vcs"
        }
      ]
    },
    {
      "type": "library",
      "bom-ref": "pkg:golang/golang.org/x/sys@v0.0.0-20210309074719-68d13333faf2",
      "name": "golang.org/x/sys",
      "version": "v0.0.0-20210309074719-68d13333faf2",
      "scope": "required",
      "hashes": [
        {
          "alg": "SHA-256",
          "content": "e3a50bcd128b8750b0811ab6742e52941cc4aaa3428bcaeb78e66736b6ea7086"
        }
      ],
      "purl": "pkg:golang/golang.org/x/sys@v0.0.0-20210309074719-68d13333faf2"
    },
    {
      "type": "library",
      "bom-ref": "pkg:golang/golang.org/x/term@v0.0.0-20210220032956-6a3ed077a48d",
      "name": "golang.org/x/term",
      "version": "v0.0.0-20210220032956-6a3ed077a48d",
      "scope": "required",
      "hashes": [
        {
          "alg": "SHA-256",
          "content": "499c6f2c1a133f9c873b716b778cf8beb17e0c15fdbcc55a9dc86cc1aebdb681"
        }
      ],
      "purl": "pkg:golang/golang.org/x/term@v0.0.0-20210220032956-6a3ed077a48d"
    },
    {
      "type": "library",
      "bom-ref": "pkg:golang/golang.org/x/text@v0.3.6",
      "name": "golang.org/x/text",
      "version": "v0.3.6",
      "scope": "required",
      "hashes": [
        {
          "alg": "SHA-256",
          "content": "691631371bfa886425c956999a4e998181036be260d7c0f179b3d2adde9b8353"
        }
      ],
      "purl": "pkg:golang/golang.org/x/text@v0.3.6"
    },
    {
      "type": "library",
      "bom-ref": "pkg:golang/github.com/rivo/tview",
      "group": "github.com/rivo",
      "name": "tview",
      "version": "",
      "description": "",
      "scope": "required",
      "purl": "pkg:golang/github.com/rivo/tview"
    }
  ],
  "dependencies": [
    {
      "ref": "pkg:golang/github.com/gdamore/encoding@v1.0.0",
      "dependsOn": [
        "pkg:golang/golang.org/x/text@v0.3.6"
      ]
    },
    {
      "ref": "pkg:golang/github.com/gdamore/tcell/v2@v2.4.1-0.20210905002822-f057f0a857a1",
      "dependsOn": [
        "pkg:golang/github.com/gdamore/encoding@v1.0.0",
        "pkg:golang/github.com/lucasb-eyer/go-colorful@v1.2.0",
        "pkg:golang/github.com/mattn/go-runewidth@v0.0.13",
        "pkg:golang/golang.org/x/sys@v0.0.0-20210309074719-68d13333faf2",
        "pkg:golang/golang.org/x/term@v0.0.0-20210220032956-6a3ed077a48d",
        "pkg:golang/golang.org/x/text@v0.3.6"
      ]
    },
    {
      "ref": "pkg:golang/github.com/lucasb-eyer/go-colorful@v1.2.0"
    },
    {
      "ref": "pkg:golang/github.com/mattn/go-runewidth@v0.0.13",
      "dependsOn": [
        "pkg:golang/github.com/rivo/uniseg@v0.2.0"
      ]
    },
    {
      "ref": "pkg:golang/github.com/rivo/uniseg@v0.2.0"
    },
    {
      "ref": "pkg:golang/golang.org/x/sys@v0.0.0-20210309074719-68d13333faf2"
    },
    {
      "ref": "pkg:golang/golang.org/x/term@v0.0.0-20210220032956-6a3ed077a48d",
      "dependsOn": [
        "pkg:golang/golang.org/x/sys@v0.0.0-20210309074719-68d13333faf2"
      ]
    },
    {
      "ref": "pkg:golang/golang.org/x/text@v0.3.6"
    },
    {
      "ref": "pkg:golang/github.com/rivo/tview@v0.0.0-20220307232120-9994674d60a8",
      "dependsOn": [
        "pkg:golang/github.com/gdamore/tcell/v2@v2.4.1-0.20210905002822-f057f0a857a1",
        "pkg:golang/github.com/lucasb-eyer/go-colorful@v1.2.0",
        "pkg:golang/github.com/mattn/go-runewidth@v0.0.13",
        "pkg:golang/github.com/rivo/uniseg@v0.2.0",
        "pkg:golang/golang.org/x/sys@v0.0.0-20210309074719-68d13333faf2",
        "pkg:golang/golang.org/x/term@v0.0.0-20210220032956-6a3ed077a48d"
      ]
    }
  ]
}
