{
  "bomFormat": "CycloneDX",
  "specVersion": "1.3",
  "version": 1,
  "metadata": {
    "tools": [
      {
        "vendor": "CycloneDX",
        "name": "Node.js module",
        "version": "3.0.3"
      },
      {
        "vendor": "AppThreat",
        "name": "cdxgen",
        "version": "3.0.10"
      },
      {
        "vendor": "Fortress Information Security",
        "name": "Github Extractor",
        "version": "1.15.1"
      }
    ],
    "authors": [
      {
        "name": "Fortress Information Security",
        "email": "sales@fortressinfosec.com",
        "phone": "1-407-573-6800"
      }
    ],
    "timestamp": "2022-06-01T21:00:00Z",
    "component": {
      "type": "application",
      "name": "Kaffeine",
      "version": "",
      "group": "romainbutteaud",
      "externalReferences": [
        {
          "url": "https://github.com/romainbutteaud/Kaffeine.git",
          "type": "distribution"
        },
        {
          "type": "website",
          "url": "kaffeine.herokuapp.com",
          "comment": "As set via `homepage` in Github API"
        }
      ]
    }
  },
  "components": [
    {
      "type": "library",
      "bom-ref": "pkg:rubygems/actioncable@5.2.3",
      "group": "",
      "name": "actioncable",
      "version": "5.2.3",
      "description": "",
      "purl": "pkg:rubygems/actioncable@5.2.3"
    },
    {
      "type": "library",
      "bom-ref": "pkg:rubygems/actionmailer@5.2.3",
      "group": "",
      "name": "actionmailer",
      "version": "5.2.3",
      "description": "",
      "purl": "pkg:rubygems/actionmailer@5.2.3"
    },
    {
      "type": "library",
      "bom-ref": "pkg:rubygems/actionpack@5.2.3",
      "group": "",
      "name": "actionpack",
      "version": "5.2.3",
      "description": "",
      "purl": "pkg:rubygems/actionpack@5.2.3"
    },
    {
      "type": "library",
      "bom-ref": "pkg:rubygems/actionview@5.2.3",
      "group": "",
      "name": "actionview",
      "version": "5.2.3",
      "description": "",
      "purl": "pkg:rubygems/actionview@5.2.3"
    },
    {
      "type": "library",
      "bom-ref": "pkg:rubygems/activejob@5.2.3",
      "group": "",
      "name": "activejob",
      "version": "5.2.3",
      "description": "",
      "purl": "pkg:rubygems/activejob@5.2.3"
    },
    {
      "type": "library",
      "bom-ref": "pkg:rubygems/activemodel@5.2.3",
      "group": "",
      "name": "activemodel",
      "version": "5.2.3",
      "description": "",
      "purl": "pkg:rubygems/activemodel@5.2.3"
    },
    {
      "type": "library",
      "bom-ref": "pkg:rubygems/activerecord@5.2.3",
      "group": "",
      "name": "activerecord",
      "version": "5.2.3",
      "description": "",
      "purl": "pkg:rubygems/activerecord@5.2.3"
    },
    {
      "type": "library",
      "bom-ref": "pkg:rubygems/activestorage@5.2.3",
      "group": "",
      "name": "activestorage",
      "version": "5.2.3",
      "description": "",
      "purl": "pkg:rubygems/activestorage@5.2.3"
    },
    {
      "type": "library",
      "bom-ref": "pkg:rubygems/activesupport@5.2.3",
      "group": "",
      "name": "activesupport",
      "version": "5.2.3",
      "description": "",
      "purl": "pkg:rubygems/activesupport@5.2.3"
    },
    {
      "type": "library",
      "bom-ref": "pkg:rubygems/arel@9.0.0",
      "group": "",
      "name": "arel",
      "version": "9.0.0",
      "description": "",
      "purl": "pkg:rubygems/arel@9.0.0"
    },
    {
      "type": "library",
      "bom-ref": "pkg:rubygems/builder@3.2.3",
      "group": "",
      "name": "builder",
      "version": "3.2.3",
      "description": "",
      "purl": "pkg:rubygems/builder@3.2.3"
    },
    {
      "type": "library",
      "bom-ref": "pkg:rubygems/coffee-rails@5.0.0",
      "group": "",
      "name": "coffee-rails",
      "version": "5.0.0",
      "description": "",
      "purl": "pkg:rubygems/coffee-rails@5.0.0"
    },
    {
      "type": "library",
      "bom-ref": "pkg:rubygems/coffee-script@2.4.1",
      "group": "",
      "name": "coffee-script",
      "version": "2.4.1",
      "description": "",
      "purl": "pkg:rubygems/coffee-script@2.4.1"
    },
    {
      "type": "library",
      "bom-ref": "pkg:rubygems/coffee-script-source@1.12.2",
      "group": "",
      "name": "coffee-script-source",
      "version": "1.12.2",
      "description": "",
      "purl": "pkg:rubygems/coffee-script-source@1.12.2"
    },
    {
      "type": "library",
      "bom-ref": "pkg:rubygems/concurrent-ruby@1.1.5",
      "group": "",
      "name": "concurrent-ruby",
      "version": "1.1.5",
      "description": "",
      "purl": "pkg:rubygems/concurrent-ruby@1.1.5"
    },
    {
      "type": "library",
      "bom-ref": "pkg:rubygems/crass@1.0.4",
      "group": "",
      "name": "crass",
      "version": "1.0.4",
      "description": "",
      "purl": "pkg:rubygems/crass@1.0.4"
    },
    {
      "type": "library",
      "bom-ref": "pkg:rubygems/erubi@1.8.0",
      "group": "",
      "name": "erubi",
      "version": "1.8.0",
      "description": "",
      "purl": "pkg:rubygems/erubi@1.8.0"
    },
    {
      "type": "library",
      "bom-ref": "pkg:rubygems/ethon@0.12.0",
      "group": "",
      "name": "ethon",
      "version": "0.12.0",
      "description": "",
      "purl": "pkg:rubygems/ethon@0.12.0"
    },
    {
      "type": "library",
      "bom-ref": "pkg:rubygems/execjs@2.7.0",
      "group": "",
      "name": "execjs",
      "version": "2.7.0",
      "description": "",
      "purl": "pkg:rubygems/execjs@2.7.0"
    },
    {
      "type": "library",
      "bom-ref": "pkg:rubygems/ffi@1.11.1",
      "group": "",
      "name": "ffi",
      "version": "1.11.1",
      "description": "",
      "purl": "pkg:rubygems/ffi@1.11.1"
    },
    {
      "type": "library",
      "bom-ref": "pkg:rubygems/figaro@1.1.1",
      "group": "",
      "name": "figaro",
      "version": "1.1.1",
      "description": "",
      "purl": "pkg:rubygems/figaro@1.1.1"
    },
    {
      "type": "library",
      "bom-ref": "pkg:rubygems/font-awesome-rails@4.7.0.5",
      "group": "",
      "name": "font-awesome-rails",
      "version": "4.7.0.5",
      "description": "",
      "purl": "pkg:rubygems/font-awesome-rails@4.7.0.5"
    },
    {
      "type": "library",
      "bom-ref": "pkg:rubygems/globalid@0.4.2",
      "group": "",
      "name": "globalid",
      "version": "0.4.2",
      "description": "",
      "purl": "pkg:rubygems/globalid@0.4.2"
    },
    {
      "type": "library",
      "bom-ref": "pkg:rubygems/i18n@1.6.0",
      "group": "",
      "name": "i18n",
      "version": "1.6.0",
      "description": "",
      "purl": "pkg:rubygems/i18n@1.6.0"
    },
    {
      "type": "library",
      "bom-ref": "pkg:rubygems/jbuilder@2.9.1",
      "group": "",
      "name": "jbuilder",
      "version": "2.9.1",
      "description": "",
      "purl": "pkg:rubygems/jbuilder@2.9.1"
    },
    {
      "type": "library",
      "bom-ref": "pkg:rubygems/jquery-rails@4.3.5",
      "group": "",
      "name": "jquery-rails",
      "version": "4.3.5",
      "description": "",
      "purl": "pkg:rubygems/jquery-rails@4.3.5"
    },
    {
      "type": "library",
      "bom-ref": "pkg:rubygems/loofah@2.2.3",
      "group": "",
      "name": "loofah",
      "version": "2.2.3",
      "description": "",
      "purl": "pkg:rubygems/loofah@2.2.3"
    },
    {
      "type": "library",
      "bom-ref": "pkg:rubygems/mail@2.7.1",
      "group": "",
      "name": "mail",
      "version": "2.7.1",
      "description": "",
      "purl": "pkg:rubygems/mail@2.7.1"
    },
    {
      "type": "library",
      "bom-ref": "pkg:rubygems/marcel@0.3.3",
      "group": "",
      "name": "marcel",
      "version": "0.3.3",
      "description": "",
      "purl": "pkg:rubygems/marcel@0.3.3"
    },
    {
      "type": "library",
      "bom-ref": "pkg:rubygems/method_source@0.9.2",
      "group": "",
      "name": "method_source",
      "version": "0.9.2",
      "description": "",
      "purl": "pkg:rubygems/method_source@0.9.2"
    },
    {
      "type": "library",
      "bom-ref": "pkg:rubygems/mimemagic@0.3.3",
      "group": "",
      "name": "mimemagic",
      "version": "0.3.3",
      "description": "",
      "purl": "pkg:rubygems/mimemagic@0.3.3"
    },
    {
      "type": "library",
      "bom-ref": "pkg:rubygems/mini_mime@1.0.2",
      "group": "",
      "name": "mini_mime",
      "version": "1.0.2",
      "description": "",
      "purl": "pkg:rubygems/mini_mime@1.0.2"
    },
    {
      "type": "library",
      "bom-ref": "pkg:rubygems/mini_portile2@2.4.0",
      "group": "",
      "name": "mini_portile2",
      "version": "2.4.0",
      "description": "",
      "purl": "pkg:rubygems/mini_portile2@2.4.0"
    },
    {
      "type": "library",
      "bom-ref": "pkg:rubygems/minitest@5.11.3",
      "group": "",
      "name": "minitest",
      "version": "5.11.3",
      "description": "",
      "purl": "pkg:rubygems/minitest@5.11.3"
    },
    {
      "type": "library",
      "bom-ref": "pkg:rubygems/nio4r@2.4.0",
      "group": "",
      "name": "nio4r",
      "version": "2.4.0",
      "description": "",
      "purl": "pkg:rubygems/nio4r@2.4.0"
    },
    {
      "type": "library",
      "bom-ref": "pkg:rubygems/nokogiri@1.10.3",
      "group": "",
      "name": "nokogiri",
      "version": "1.10.3",
      "description": "",
      "purl": "pkg:rubygems/nokogiri@1.10.3"
    },
    {
      "type": "library",
      "bom-ref": "pkg:rubygems/pg@1.1.4",
      "group": "",
      "name": "pg",
      "version": "1.1.4",
      "description": "",
      "purl": "pkg:rubygems/pg@1.1.4"
    },
    {
      "type": "library",
      "bom-ref": "pkg:rubygems/rack@2.0.7",
      "group": "",
      "name": "rack",
      "version": "2.0.7",
      "description": "",
      "purl": "pkg:rubygems/rack@2.0.7"
    },
    {
      "type": "library",
      "bom-ref": "pkg:rubygems/rack-test@1.1.0",
      "group": "",
      "name": "rack-test",
      "version": "1.1.0",
      "description": "",
      "purl": "pkg:rubygems/rack-test@1.1.0"
    },
    {
      "type": "library",
      "bom-ref": "pkg:rubygems/rails@5.2.3",
      "group": "",
      "name": "rails",
      "version": "5.2.3",
      "description": "",
      "purl": "pkg:rubygems/rails@5.2.3"
    },
    {
      "type": "library",
      "bom-ref": "pkg:rubygems/rails-assets-css-modal@1.5.0",
      "group": "",
      "name": "rails-assets-css-modal",
      "version": "1.5.0",
      "description": "",
      "purl": "pkg:rubygems/rails-assets-css-modal@1.5.0"
    },
    {
      "type": "library",
      "bom-ref": "pkg:rubygems/rails-dom-testing@2.0.3",
      "group": "",
      "name": "rails-dom-testing",
      "version": "2.0.3",
      "description": "",
      "purl": "pkg:rubygems/rails-dom-testing@2.0.3"
    },
    {
      "type": "library",
      "bom-ref": "pkg:rubygems/rails-html-sanitizer@1.0.4",
      "group": "",
      "name": "rails-html-sanitizer",
      "version": "1.0.4",
      "description": "",
      "purl": "pkg:rubygems/rails-html-sanitizer@1.0.4"
    },
    {
      "type": "library",
      "bom-ref": "pkg:rubygems/rails_12factor@0.0.3",
      "group": "",
      "name": "rails_12factor",
      "version": "0.0.3",
      "description": "",
      "purl": "pkg:rubygems/rails_12factor@0.0.3"
    },
    {
      "type": "library",
      "bom-ref": "pkg:rubygems/rails_serve_static_assets@0.0.5",
      "group": "",
      "name": "rails_serve_static_assets",
      "version": "0.0.5",
      "description": "",
      "purl": "pkg:rubygems/rails_serve_static_assets@0.0.5"
    },
    {
      "type": "library",
      "bom-ref": "pkg:rubygems/rails_stdout_logging@0.0.5",
      "group": "",
      "name": "rails_stdout_logging",
      "version": "0.0.5",
      "description": "",
      "purl": "pkg:rubygems/rails_stdout_logging@0.0.5"
    },
    {
      "type": "library",
      "bom-ref": "pkg:rubygems/railties@5.2.3",
      "group": "",
      "name": "railties",
      "version": "5.2.3",
      "description": "",
      "purl": "pkg:rubygems/railties@5.2.3"
    },
    {
      "type": "library",
      "bom-ref": "pkg:rubygems/rake@12.3.3",
      "group": "",
      "name": "rake",
      "version": "12.3.3",
      "description": "",
      "purl": "pkg:rubygems/rake@12.3.3"
    },
    {
      "type": "library",
      "bom-ref": "pkg:rubygems/rb-fsevent@0.10.3",
      "group": "",
      "name": "rb-fsevent",
      "version": "0.10.3",
      "description": "",
      "purl": "pkg:rubygems/rb-fsevent@0.10.3"
    },
    {
      "type": "library",
      "bom-ref": "pkg:rubygems/rb-inotify@0.10.0",
      "group": "",
      "name": "rb-inotify",
      "version": "0.10.0",
      "description": "",
      "purl": "pkg:rubygems/rb-inotify@0.10.0"
    },
    {
      "type": "library",
      "bom-ref": "pkg:rubygems/rdoc@6.1.1",
      "group": "",
      "name": "rdoc",
      "version": "6.1.1",
      "description": "",
      "purl": "pkg:rubygems/rdoc@6.1.1"
    },
    {
      "type": "library",
      "bom-ref": "pkg:rubygems/sass@3.7.4",
      "group": "",
      "name": "sass",
      "version": "3.7.4",
      "description": "",
      "purl": "pkg:rubygems/sass@3.7.4"
    },
    {
      "type": "library",
      "bom-ref": "pkg:rubygems/sass-listen@4.0.0",
      "group": "",
      "name": "sass-listen",
      "version": "4.0.0",
      "description": "",
      "purl": "pkg:rubygems/sass-listen@4.0.0"
    },
    {
      "type": "library",
      "bom-ref": "pkg:rubygems/sass-rails@5.0.7",
      "group": "",
      "name": "sass-rails",
      "version": "5.0.7",
      "description": "",
      "purl": "pkg:rubygems/sass-rails@5.0.7"
    },
    {
      "type": "library",
      "bom-ref": "pkg:rubygems/sdoc@1.0.0",
      "group": "",
      "name": "sdoc",
      "version": "1.0.0",
      "description": "",
      "purl": "pkg:rubygems/sdoc@1.0.0"
    },
    {
      "type": "library",
      "bom-ref": "pkg:rubygems/spring@2.1.0",
      "group": "",
      "name": "spring",
      "version": "2.1.0",
      "description": "",
      "purl": "pkg:rubygems/spring@2.1.0"
    },
    {
      "type": "library",
      "bom-ref": "pkg:rubygems/sprockets@3.7.2",
      "group": "",
      "name": "sprockets",
      "version": "3.7.2",
      "description": "",
      "purl": "pkg:rubygems/sprockets@3.7.2"
    },
    {
      "type": "library",
      "bom-ref": "pkg:rubygems/sprockets-rails@3.2.1",
      "group": "",
      "name": "sprockets-rails",
      "version": "3.2.1",
      "description": "",
      "purl": "pkg:rubygems/sprockets-rails@3.2.1"
    },
    {
      "type": "library",
      "bom-ref": "pkg:rubygems/thor@0.20.3",
      "group": "",
      "name": "thor",
      "version": "0.20.3",
      "description": "",
      "purl": "pkg:rubygems/thor@0.20.3"
    },
    {
      "type": "library",
      "bom-ref": "pkg:rubygems/thread_safe@0.3.6",
      "group": "",
      "name": "thread_safe",
      "version": "0.3.6",
      "description": "",
      "purl": "pkg:rubygems/thread_safe@0.3.6"
    },
    {
      "type": "library",
      "bom-ref": "pkg:rubygems/tilt@2.0.9",
      "group": "",
      "name": "tilt",
      "version": "2.0.9",
      "description": "",
      "purl": "pkg:rubygems/tilt@2.0.9"
    },
    {
      "type": "library",
      "bom-ref": "pkg:rubygems/turbolinks@5.2.0",
      "group": "",
      "name": "turbolinks",
      "version": "5.2.0",
      "description": "",
      "purl": "pkg:rubygems/turbolinks@5.2.0"
    },
    {
      "type": "library",
      "bom-ref": "pkg:rubygems/turbolinks-source@5.2.0",
      "group": "",
      "name": "turbolinks-source",
      "version": "5.2.0",
      "description": "",
      "purl": "pkg:rubygems/turbolinks-source@5.2.0"
    },
    {
      "type": "library",
      "bom-ref": "pkg:rubygems/typhoeus@1.3.1",
      "group": "",
      "name": "typhoeus",
      "version": "1.3.1",
      "description": "",
      "purl": "pkg:rubygems/typhoeus@1.3.1"
    },
    {
      "type": "library",
      "bom-ref": "pkg:rubygems/tzinfo@1.2.5",
      "group": "",
      "name": "tzinfo",
      "version": "1.2.5",
      "description": "",
      "purl": "pkg:rubygems/tzinfo@1.2.5"
    },
    {
      "type": "library",
      "bom-ref": "pkg:rubygems/uglifier@4.1.20",
      "group": "",
      "name": "uglifier",
      "version": "4.1.20",
      "description": "",
      "purl": "pkg:rubygems/uglifier@4.1.20"
    },
    {
      "type": "library",
      "bom-ref": "pkg:rubygems/websocket-driver@0.7.1",
      "group": "",
      "name": "websocket-driver",
      "version": "0.7.1",
      "description": "",
      "purl": "pkg:rubygems/websocket-driver@0.7.1"
    },
    {
      "type": "library",
      "bom-ref": "pkg:rubygems/websocket-extensions@0.1.4",
      "group": "",
      "name": "websocket-extensions",
      "version": "0.1.4",
      "description": "",
      "purl": "pkg:rubygems/websocket-extensions@0.1.4"
    }
  ]
}
