{
  "bomFormat": "CycloneDX",
  "specVersion": "1.3",
  "serialNumber": "urn:uuid:4cca95b4-c47c-4850-af9a-21baf6120c18",
  "version": 2,
  "metadata": {
    "timestamp": "2022-07-26T23:36:14Z",
    "tools": [
      {
        "vendor": "AppThreat",
        "name": "cdxgen",
        "version": "3.0.10"
      },
      {
        "vendor": "Fortress Information Security",
        "name": "GitHub Extractor",
        "version": "1.15.1"
      }
    ],
    "authors": [
      {
        "name": "Team AppThreat",
        "email": "cloud@appthreat.com"
      },
      {
        "name": "Fortress Information Security",
        "email": "sales@fortressinfosec.com",
        "phone": "1-407-573-6800"
      }
    ],
    "component": {
      "type": "application",
      "name": "async-book",
      "version": "",
      "group": "rust-lang",
      "externalReferences": [
        {
          "url": "https://github.com/rust-lang/async-book.git",
          "type": "distribution"
        }
      ]
    }
  },
  "components": [
    {
      "type": "library",
      "bom-ref": "pkg:crates/example_01_02_why_async@0.1.0",
      "group": "",
      "name": "example_01_02_why_async",
      "version": "0.1.0",
      "description": "",
      "purl": "pkg:crates/example_01_02_why_async@0.1.0"
    },
    {
      "type": "library",
      "bom-ref": "pkg:crates/example_01_04_async_await_primer@0.1.0",
      "group": "",
      "name": "example_01_04_async_await_primer",
      "version": "0.1.0",
      "description": "",
      "purl": "pkg:crates/example_01_04_async_await_primer@0.1.0"
    },
    {
      "type": "library",
      "bom-ref": "pkg:crates/futures@0.3",
      "group": "",
      "name": "futures",
      "version": "0.3",
      "description": "",
      "purl": "pkg:crates/futures@0.3"
    },
    {
      "type": "library",
      "bom-ref": "pkg:crates/example_02_02_future_trait@0.1.0",
      "group": "",
      "name": "example_02_02_future_trait",
      "version": "0.1.0",
      "description": "",
      "purl": "pkg:crates/example_02_02_future_trait@0.1.0"
    },
    {
      "type": "library",
      "bom-ref": "pkg:crates/example_02_03_timer@0.1.0",
      "group": "",
      "name": "example_02_03_timer",
      "version": "0.1.0",
      "description": "",
      "purl": "pkg:crates/example_02_03_timer@0.1.0"
    },
    {
      "type": "library",
      "bom-ref": "pkg:crates/example_02_04_executor@0.1.0",
      "group": "",
      "name": "example_02_04_executor",
      "version": "0.1.0",
      "description": "",
      "purl": "pkg:crates/example_02_04_executor@0.1.0"
    },
    {
      "type": "library",
      "bom-ref": "pkg:crates/example_03_01_async_await@0.1.0",
      "group": "",
      "name": "example_03_01_async_await",
      "version": "0.1.0",
      "description": "",
      "purl": "pkg:crates/example_03_01_async_await@0.1.0"
    },
    {
      "type": "library",
      "bom-ref": "pkg:crates/example_05_01_streams@0.1.0",
      "group": "",
      "name": "example_05_01_streams",
      "version": "0.1.0",
      "description": "",
      "purl": "pkg:crates/example_05_01_streams@0.1.0"
    },
    {
      "type": "library",
      "bom-ref": "pkg:crates/example_05_02_iteration_and_concurrency@0.1.0",
      "group": "",
      "name": "example_05_02_iteration_and_concurrency",
      "version": "0.1.0",
      "description": "",
      "purl": "pkg:crates/example_05_02_iteration_and_concurrency@0.1.0"
    },
    {
      "type": "library",
      "bom-ref": "pkg:crates/example_06_02_join@0.1.0",
      "group": "",
      "name": "example_06_02_join",
      "version": "0.1.0",
      "description": "",
      "purl": "pkg:crates/example_06_02_join@0.1.0"
    },
    {
      "type": "library",
      "bom-ref": "pkg:crates/example_06_03_select@0.1.0",
      "group": "",
      "name": "example_06_03_select",
      "version": "0.1.0",
      "description": "",
      "purl": "pkg:crates/example_06_03_select@0.1.0"
    },
    {
      "type": "library",
      "bom-ref": "pkg:crates/example_07_05_recursion@0.1.0",
      "group": "",
      "name": "example_07_05_recursion",
      "version": "0.1.0",
      "description": "",
      "purl": "pkg:crates/example_07_05_recursion@0.1.0"
    },
    {
      "type": "library",
      "bom-ref": "pkg:crates/sync_tcp_server@0.1.0",
      "group": "",
      "name": "sync_tcp_server",
      "version": "0.1.0",
      "description": "",
      "purl": "pkg:crates/sync_tcp_server@0.1.0"
    },
    {
      "type": "library",
      "bom-ref": "pkg:crates/async_tcp_server@1.6",
      "group": "",
      "name": "async_tcp_server",
      "version": "1.6",
      "description": "",
      "purl": "pkg:crates/async_tcp_server@1.6"
    },
    {
      "type": "library",
      "bom-ref": "pkg:crates/slow_request@1.6",
      "group": "",
      "name": "slow_request",
      "version": "1.6",
      "description": "",
      "purl": "pkg:crates/slow_request@1.6"
    },
    {
      "type": "library",
      "bom-ref": "pkg:crates/concurrent_tcp_server@0.1.0",
      "group": "",
      "name": "concurrent_tcp_server",
      "version": "0.1.0",
      "description": "",
      "purl": "pkg:crates/concurrent_tcp_server@0.1.0"
    },
    {
      "type": "library",
      "bom-ref": "pkg:crates/features@[attributes]",
      "group": "",
      "name": "features",
      "version": "[attributes]",
      "description": "",
      "purl": "pkg:crates/features@[attributes]"
    },
    {
      "type": "library",
      "bom-ref": "pkg:crates/final_tcp_server@0.1.0",
      "group": "",
      "name": "final_tcp_server",
      "version": "0.1.0",
      "description": "",
      "purl": "pkg:crates/final_tcp_server@0.1.0"
    }
  ],
  "externalReferences": [
    {
      "url": "/project/src",
      "type": "other",
      "comment": "Base path"
    },
    {
      "url": "/project/src/examples/01_02_why_async/Cargo.toml, /project/src/examples/01_04_async_await_primer/Cargo.toml, /project/src/examples/02_02_future_trait/Cargo.toml, /project/src/examples/02_03_timer/Cargo.toml, /project/src/examples/02_04_executor/Cargo.toml, /project/src/examples/03_01_async_await/Cargo.toml, /project/src/examples/05_01_streams/Cargo.toml, /project/src/examples/05_02_iteration_and_concurrency/Cargo.toml, /project/src/examples/06_02_join/Cargo.toml, /project/src/examples/06_03_select/Cargo.toml, /project/src/examples/07_05_recursion/Cargo.toml, /project/src/examples/09_01_sync_tcp_server/Cargo.toml, /project/src/examples/09_02_async_tcp_server/Cargo.toml, /project/src/examples/09_03_slow_request/Cargo.toml, /project/src/examples/09_04_concurrent_tcp_server/Cargo.toml, /project/src/examples/09_05_final_tcp_server/Cargo.toml, /project/src/examples/Cargo.toml",
      "type": "other",
      "comment": "Package file"
    }
  ]
}
