{
  "bomFormat": "CycloneDX",
  "specVersion": "1.3",
  "version": 1,
  "metadata": {
    "tools": [
      {
        "vendor": "CycloneDX",
        "name": "cyclonedx-gomod",
        "version": "v0.0.0-unset",
        "hashes": [
          {
            "alg": "MD5",
            "content": "a35776fc9417e8071d3f1dcfa2f1dd19"
          },
          {
            "alg": "SHA-1",
            "content": "a19a8eed713eff5a2092e5283c201a146f19421d"
          },
          {
            "alg": "SHA-256",
            "content": "17b3b980b9a5d0f48ad52043dee5b31aff3ae6599a36bc94224dc7b6a46759ef"
          },
          {
            "alg": "SHA-512",
            "content": "9d4f06aab20cede94a1aedf11a300ae9de98871235c68c72e421cd6d45495910861b39e743ee0eceb11bbdcd2c9acc3312c19064cfe90177243fb43127fcfa46"
          }
        ]
      },
      {
        "vendor": "AppThreat",
        "name": "cdxgen",
        "version": "3.0.10"
      },
      {
        "vendor": "Fortress Information Security",
        "name": "Github Extractor",
        "version": "1.15.1"
      }
    ],
    "authors": [
      {
        "name": "Fortress Information Security",
        "email": "sales@fortressinfosec.com",
        "phone": "1-407-573-6800"
      }
    ],
    "timestamp": "2022-06-01T21:00:00Z",
    "component": {
      "type": "application",
      "name": "portmaster",
      "version": "v0.8.12",
      "group": "safing",
      "externalReferences": [
        {
          "url": "https://github.com/safing/portmaster.git",
          "type": "distribution"
        },
        {
          "type": "website",
          "url": "https://safing.io",
          "comment": "As set via `homepage` in Github API"
        }
      ]
    }
  },
  "components": [
    {
      "type": "library",
      "bom-ref": "pkg:golang/github.com/VictoriaMetrics/metrics@v1.18.1",
      "name": "github.com/VictoriaMetrics/metrics",
      "version": "v1.18.1",
      "scope": "required",
      "hashes": [
        {
          "alg": "SHA-256",
          "content": "399d3e9134eda3ca0f7c79d50274cea329745e5461464a10ac3da7d9c3ae470d"
        }
      ],
      "purl": "pkg:golang/github.com/VictoriaMetrics/metrics@v1.18.1",
      "externalReferences": [
        {
          "url": "https://github.com/VictoriaMetrics/metrics",
          "type": "vcs"
        }
      ]
    },
    {
      "type": "library",
      "bom-ref": "pkg:golang/github.com/aead/ecdh@v0.2.0",
      "name": "github.com/aead/ecdh",
      "version": "v0.2.0",
      "scope": "required",
      "hashes": [
        {
          "alg": "SHA-256",
          "content": "a58a29e78c556aafc211110511cba41d165f4dd8e25af608b190d75eb05aa504"
        }
      ],
      "purl": "pkg:golang/github.com/aead/ecdh@v0.2.0",
      "externalReferences": [
        {
          "url": "https://github.com/aead/ecdh",
          "type": "vcs"
        }
      ]
    },
    {
      "type": "library",
      "bom-ref": "pkg:golang/github.com/aead/serpent@v0.0.0-20160714141033-fba169763ea6",
      "name": "github.com/aead/serpent",
      "version": "v0.0.0-20160714141033-fba169763ea6",
      "scope": "required",
      "hashes": [
        {
          "alg": "SHA-256",
          "content": "e4bf0c8fd0a8f6c255816dd3a589368311899c38ec62e6e835371199bb46286b"
        }
      ],
      "purl": "pkg:golang/github.com/aead/serpent@v0.0.0-20160714141033-fba169763ea6",
      "externalReferences": [
        {
          "url": "https://github.com/aead/serpent",
          "type": "vcs"
        }
      ]
    },
    {
      "type": "library",
      "bom-ref": "pkg:golang/github.com/agext/levenshtein@v1.2.3",
      "name": "github.com/agext/levenshtein",
      "version": "v1.2.3",
      "scope": "required",
      "hashes": [
        {
          "alg": "SHA-256",
          "content": "601d9f1c49f45096a01bc4f5aeb5a49c4dd943358cd3a3bc00c01ab4d9fb966a"
        }
      ],
      "purl": "pkg:golang/github.com/agext/levenshtein@v1.2.3",
      "externalReferences": [
        {
          "url": "https://github.com/agext/levenshtein",
          "type": "vcs"
        }
      ]
    },
    {
      "type": "library",
      "bom-ref": "pkg:golang/github.com/armon/go-radix@v1.0.0",
      "name": "github.com/armon/go-radix",
      "version": "v1.0.0",
      "scope": "required",
      "hashes": [
        {
          "alg": "SHA-256",
          "content": "178cfa2b311e79020c78b15af7b89953abeea73a1e70a754e535f6e12369a572"
        }
      ],
      "purl": "pkg:golang/github.com/armon/go-radix@v1.0.0",
      "externalReferences": [
        {
          "url": "https://github.com/armon/go-radix",
          "type": "vcs"
        }
      ]
    },
    {
      "type": "library",
      "bom-ref": "pkg:golang/github.com/awalterschulze/gographviz@v2.0.3",
      "name": "github.com/awalterschulze/gographviz",
      "version": "v2.0.3",
      "scope": "required",
      "hashes": [
        {
          "alg": "SHA-256",
          "content": "0bdceae5ebcd7d38982bdb2a6f11cc9169fde0f596532b7eecc46c73bd13bc82"
        }
      ],
      "purl": "pkg:golang/github.com/awalterschulze/gographviz@v2.0.3",
      "externalReferences": [
        {
          "url": "https://github.com/awalterschulze/gographviz",
          "type": "vcs"
        }
      ]
    },
    {
      "type": "library",
      "bom-ref": "pkg:golang/github.com/bluele/gcache@v0.0.2",
      "name": "github.com/bluele/gcache",
      "version": "v0.0.2",
      "scope": "required",
      "hashes": [
        {
          "alg": "SHA-256",
          "content": "59c6df75720283b1bf0c6061d4f15f722ae458e415fafd3bef2175a52cb70c6c"
        }
      ],
      "purl": "pkg:golang/github.com/bluele/gcache@v0.0.2",
      "externalReferences": [
        {
          "url": "https://github.com/bluele/gcache",
          "type": "vcs"
        }
      ]
    },
    {
      "type": "library",
      "bom-ref": "pkg:golang/github.com/cookieo9/resources-go@v0.0.0-20150225115733-d27c04069d0d",
      "name": "github.com/cookieo9/resources-go",
      "version": "v0.0.0-20150225115733-d27c04069d0d",
      "scope": "required",
      "hashes": [
        {
          "alg": "SHA-256",
          "content": "3be81c21b1eff04a1c0d123cb303c6608e973c90db759eba8de5ea7e85e27cb1"
        }
      ],
      "purl": "pkg:golang/github.com/cookieo9/resources-go@v0.0.0-20150225115733-d27c04069d0d",
      "externalReferences": [
        {
          "url": "https://github.com/cookieo9/resources-go",
          "type": "vcs"
        }
      ]
    },
    {
      "type": "library",
      "bom-ref": "pkg:golang/github.com/coreos/go-iptables@v0.6.0",
      "name": "github.com/coreos/go-iptables",
      "version": "v0.6.0",
      "scope": "required",
      "hashes": [
        {
          "alg": "SHA-256",
          "content": "8acf6a9d930f6232ddf0b62a9a6fea944fb0c048092244d8761577adf668e239"
        }
      ],
      "purl": "pkg:golang/github.com/coreos/go-iptables@v0.6.0",
      "externalReferences": [
        {
          "url": "https://github.com/coreos/go-iptables",
          "type": "vcs"
        }
      ]
    },
    {
      "type": "library",
      "bom-ref": "pkg:golang/github.com/florianl/go-nfqueue@v1.3.1",
      "name": "github.com/florianl/go-nfqueue",
      "version": "v1.3.1",
      "scope": "required",
      "hashes": [
        {
          "alg": "SHA-256",
          "content": "92143d7d80ab8dbbb9085f1d645e791b6453204210448d008f99379ac251e86c"
        }
      ],
      "purl": "pkg:golang/github.com/florianl/go-nfqueue@v1.3.1",
      "externalReferences": [
        {
          "url": "https://github.com/florianl/go-nfqueue",
          "type": "vcs"
        }
      ]
    },
    {
      "type": "library",
      "bom-ref": "pkg:golang/github.com/fxamacker/cbor/v2@v2.4.0",
      "name": "github.com/fxamacker/cbor/v2",
      "version": "v2.4.0",
      "scope": "required",
      "hashes": [
        {
          "alg": "SHA-256",
          "content": "ae2d00ae5391fb95ee9ce3fc091528c13d294893b0856d3df19094cac9190fcf"
        }
      ],
      "purl": "pkg:golang/github.com/fxamacker/cbor/v2@v2.4.0",
      "externalReferences": [
        {
          "url": "https://github.com/fxamacker/cbor",
          "type": "vcs"
        }
      ]
    },
    {
      "type": "library",
      "bom-ref": "pkg:golang/github.com/ghodss/yaml@v1.0.0",
      "name": "github.com/ghodss/yaml",
      "version": "v1.0.0",
      "scope": "required",
      "hashes": [
        {
          "alg": "SHA-256",
          "content": "c101ca11a8612fac265ddcf0586d7580854290ebf4e5b34e87e4719f4ca78009"
        }
      ],
      "purl": "pkg:golang/github.com/ghodss/yaml@v1.0.0",
      "externalReferences": [
        {
          "url": "https://github.com/ghodss/yaml",
          "type": "vcs"
        }
      ]
    },
    {
      "type": "library",
      "bom-ref": "pkg:golang/github.com/go-ole/go-ole@v1.2.6",
      "name": "github.com/go-ole/go-ole",
      "version": "v1.2.6",
      "scope": "required",
      "hashes": [
        {
          "alg": "SHA-256",
          "content": "fc5a5fea814fa1e16293db72eec8a86f41ba29ef10bd012e55cb82869c17ce96"
        }
      ],
      "purl": "pkg:golang/github.com/go-ole/go-ole@v1.2.6",
      "externalReferences": [
        {
          "url": "https://github.com/go-ole/go-ole",
          "type": "vcs"
        }
      ]
    },
    {
      "type": "library",
      "bom-ref": "pkg:golang/github.com/godbus/dbus/v5@v5.1.0",
      "name": "github.com/godbus/dbus/v5",
      "version": "v5.1.0",
      "scope": "required",
      "hashes": [
        {
          "alg": "SHA-256",
          "content": "e0a2e40314f768e63c2e2e054497bf2af868345171a349ba7cdb8550ef102549"
        }
      ],
      "purl": "pkg:golang/github.com/godbus/dbus/v5@v5.1.0",
      "externalReferences": [
        {
          "url": "https://github.com/godbus/dbus",
          "type": "vcs"
        }
      ]
    },
    {
      "type": "library",
      "bom-ref": "pkg:golang/github.com/gofrs/uuid@v4.2.0",
      "name": "github.com/gofrs/uuid",
      "version": "v4.2.0",
      "scope": "required",
      "hashes": [
        {
          "alg": "SHA-256",
          "content": "767c0f522fb40f916646ccd2d12b497dc848f3d3ae45185c8d57f36fcfebc93a"
        }
      ],
      "purl": "pkg:golang/github.com/gofrs/uuid@v4.2.0",
      "externalReferences": [
        {
          "url": "https://github.com/gofrs/uuid",
          "type": "vcs"
        }
      ]
    },
    {
      "type": "library",
      "bom-ref": "pkg:golang/github.com/google/go-cmp@v0.5.8",
      "name": "github.com/google/go-cmp",
      "version": "v0.5.8",
      "scope": "required",
      "hashes": [
        {
          "alg": "SHA-256",
          "content": "7ba3fbab6964d4efaa2496f806d0905e52bcbd610ef15d597ae11d24d3aa6728"
        }
      ],
      "purl": "pkg:golang/github.com/google/go-cmp@v0.5.8",
      "externalReferences": [
        {
          "url": "https://github.com/google/go-cmp",
          "type": "vcs"
        }
      ]
    },
    {
      "type": "library",
      "bom-ref": "pkg:golang/github.com/google/gopacket@v1.1.19",
      "name": "github.com/google/gopacket",
      "version": "v1.1.19",
      "scope": "required",
      "hashes": [
        {
          "alg": "SHA-256",
          "content": "bdeb3c4671593c68859d34b4b8f412b63c2bbbab8eea1fa796bf63e9f2fb905f"
        }
      ],
      "purl": "pkg:golang/github.com/google/gopacket@v1.1.19",
      "externalReferences": [
        {
          "url": "https://github.com/google/gopacket",
          "type": "vcs"
        }
      ]
    },
    {
      "type": "library",
      "bom-ref": "pkg:golang/github.com/gorilla/mux@v1.8.0",
      "name": "github.com/gorilla/mux",
      "version": "v1.8.0",
      "scope": "required",
      "hashes": [
        {
          "alg": "SHA-256",
          "content": "8b8d1aa9f911d61d9294df61a23c15e5903dd7071714ebe474d21e1433f99282"
        }
      ],
      "purl": "pkg:golang/github.com/gorilla/mux@v1.8.0",
      "externalReferences": [
        {
          "url": "https://github.com/gorilla/mux",
          "type": "vcs"
        }
      ]
    },
    {
      "type": "library",
      "bom-ref": "pkg:golang/github.com/gorilla/websocket@v1.5.0",
      "name": "github.com/gorilla/websocket",
      "version": "v1.5.0",
      "scope": "required",
      "hashes": [
        {
          "alg": "SHA-256",
          "content": "3cfc069368f3ec478fa681cdffe0a56d9bbc48fc62aa5bb5db064fff7b169a77"
        }
      ],
      "purl": "pkg:golang/github.com/gorilla/websocket@v1.5.0",
      "externalReferences": [
        {
          "url": "https://github.com/gorilla/websocket",
          "type": "vcs"
        }
      ]
    },
    {
      "type": "library",
      "bom-ref": "pkg:golang/github.com/hashicorp/errwrap@v1.1.0",
      "name": "github.com/hashicorp/errwrap",
      "version": "v1.1.0",
      "scope": "required",
      "hashes": [
        {
          "alg": "SHA-256",
          "content": "3b1ace7a1ef91145cc63c4c18da8367f35c6678d0b07a20ac38e587865036362"
        }
      ],
      "purl": "pkg:golang/github.com/hashicorp/errwrap@v1.1.0",
      "externalReferences": [
        {
          "url": "https://github.com/hashicorp/errwrap",
          "type": "vcs"
        }
      ]
    },
    {
      "type": "library",
      "bom-ref": "pkg:golang/github.com/hashicorp/go-multierror@v1.1.1",
      "name": "github.com/hashicorp/go-multierror",
      "version": "v1.1.1",
      "scope": "required",
      "hashes": [
        {
          "alg": "SHA-256",
          "content": "1f90e412d7fa097745a74374126e540b04295cc5a47bc200d3e943e3c6b0318a"
        }
      ],
      "purl": "pkg:golang/github.com/hashicorp/go-multierror@v1.1.1",
      "externalReferences": [
        {
          "url": "https://github.com/hashicorp/go-multierror",
          "type": "vcs"
        }
      ]
    },
    {
      "type": "library",
      "bom-ref": "pkg:golang/github.com/hashicorp/go-version@v1.4.0",
      "name": "github.com/hashicorp/go-version",
      "version": "v1.4.0",
      "scope": "required",
      "hashes": [
        {
          "alg": "SHA-256",
          "content": "68043382a22b44a45aef0ef908aa5b07162c994a0f8f3566d56e7d71ad4bd09e"
        }
      ],
      "purl": "pkg:golang/github.com/hashicorp/go-version@v1.4.0",
      "externalReferences": [
        {
          "url": "https://github.com/hashicorp/go-version",
          "type": "vcs"
        }
      ]
    },
    {
      "type": "library",
      "bom-ref": "pkg:golang/github.com/inconshreveable/mousetrap@v1.0.0",
      "name": "github.com/inconshreveable/mousetrap",
      "version": "v1.0.0",
      "scope": "required",
      "hashes": [
        {
          "alg": "SHA-256",
          "content": "67cb6ee6cada2d709721c011c41a7ff1c6ef97055aed9d4d1e0f5710a86d4af3"
        }
      ],
      "purl": "pkg:golang/github.com/inconshreveable/mousetrap@v1.0.0",
      "externalReferences": [
        {
          "url": "https://github.com/inconshreveable/mousetrap",
          "type": "vcs"
        }
      ]
    },
    {
      "type": "library",
      "bom-ref": "pkg:golang/github.com/josharian/native@v1.0.0",
      "name": "github.com/josharian/native",
      "version": "v1.0.0",
      "scope": "required",
      "hashes": [
        {
          "alg": "SHA-256",
          "content": "4ecfc4f3309212c1b5edd52abfb8e85c91726ee30b8d07d6134e2db013834f19"
        }
      ],
      "purl": "pkg:golang/github.com/josharian/native@v1.0.0",
      "externalReferences": [
        {
          "url": "https://github.com/josharian/native",
          "type": "vcs"
        }
      ]
    },
    {
      "type": "library",
      "bom-ref": "pkg:golang/github.com/kardianos/osext@v0.0.0-20190222173326-2bc1f35cddc0",
      "name": "github.com/kardianos/osext",
      "version": "v0.0.0-20190222173326-2bc1f35cddc0",
      "scope": "required",
      "hashes": [
        {
          "alg": "SHA-256",
          "content": "8904f0ffc1564ee73bba26927a95f0c9fde8e761da518715f93bbae92dc5e460"
        }
      ],
      "purl": "pkg:golang/github.com/kardianos/osext@v0.0.0-20190222173326-2bc1f35cddc0",
      "externalReferences": [
        {
          "url": "https://github.com/kardianos/osext",
          "type": "vcs"
        }
      ]
    },
    {
      "type": "library",
      "bom-ref": "pkg:golang/github.com/mdlayher/netlink@v1.6.0",
      "name": "github.com/mdlayher/netlink",
      "version": "v1.6.0",
      "scope": "required",
      "hashes": [
        {
          "alg": "SHA-256",
          "content": "ace1d7e7297baa79698959055a8a9c72e7a9a4cb57cdece21635808cb83ab33d"
        }
      ],
      "purl": "pkg:golang/github.com/mdlayher/netlink@v1.6.0",
      "externalReferences": [
        {
          "url": "https://github.com/mdlayher/netlink",
          "type": "vcs"
        }
      ]
    },
    {
      "type": "library",
      "bom-ref": "pkg:golang/github.com/mdlayher/socket@v0.2.3",
      "name": "github.com/mdlayher/socket",
      "version": "v0.2.3",
      "scope": "required",
      "hashes": [
        {
          "alg": "SHA-256",
          "content": "5d90365f64e374ec0da0d3d53dc9510944685ff86890163c9e44e645914485e3"
        }
      ],
      "purl": "pkg:golang/github.com/mdlayher/socket@v0.2.3",
      "externalReferences": [
        {
          "url": "https://github.com/mdlayher/socket",
          "type": "vcs"
        }
      ]
    },
    {
      "type": "library",
      "bom-ref": "pkg:golang/github.com/miekg/dns@v1.1.48",
      "name": "github.com/miekg/dns",
      "version": "v1.1.48",
      "scope": "required",
      "hashes": [
        {
          "alg": "SHA-256",
          "content": "51c7ebec8215c8c073e25444f2a98652e6785addff646bbd86670c4f752ee2d4"
        }
      ],
      "purl": "pkg:golang/github.com/miekg/dns@v1.1.48",
      "externalReferences": [
        {
          "url": "https://github.com/miekg/dns",
          "type": "vcs"
        }
      ]
    },
    {
      "type": "library",
      "bom-ref": "pkg:golang/github.com/mitchellh/copystructure@v1.2.0",
      "name": "github.com/mitchellh/copystructure",
      "version": "v1.2.0",
      "scope": "required",
      "hashes": [
        {
          "alg": "SHA-256",
          "content": "be92974cde1ec1c8b4dd596383fabd42f086503b6d04e18121ad795af789246c"
        }
      ],
      "purl": "pkg:golang/github.com/mitchellh/copystructure@v1.2.0",
      "externalReferences": [
        {
          "url": "https://github.com/mitchellh/copystructure",
          "type": "vcs"
        }
      ]
    },
    {
      "type": "library",
      "bom-ref": "pkg:golang/github.com/mitchellh/reflectwalk@v1.0.2",
      "name": "github.com/mitchellh/reflectwalk",
      "version": "v1.0.2",
      "scope": "required",
      "hashes": [
        {
          "alg": "SHA-256",
          "content": "1b62f358a8b9db83d681dde62c757c63993bb3a5d4bd3d0679feb3c5221e5da4"
        }
      ],
      "purl": "pkg:golang/github.com/mitchellh/reflectwalk@v1.0.2",
      "externalReferences": [
        {
          "url": "https://github.com/mitchellh/reflectwalk",
          "type": "vcs"
        }
      ]
    },
    {
      "type": "library",
      "bom-ref": "pkg:golang/github.com/mr-tron/base58@v1.2.0",
      "name": "github.com/mr-tron/base58",
      "version": "v1.2.0",
      "scope": "required",
      "hashes": [
        {
          "alg": "SHA-256",
          "content": "4ff1c32418786423db537f7ff9cdeb46f134b8a050954dbbf9023c2c9e2deb8a"
        }
      ],
      "purl": "pkg:golang/github.com/mr-tron/base58@v1.2.0",
      "externalReferences": [
        {
          "url": "https://github.com/mr-tron/base58",
          "type": "vcs"
        }
      ]
    },
    {
      "type": "library",
      "bom-ref": "pkg:golang/github.com/oschwald/maxminddb-golang@v1.9.0",
      "name": "github.com/oschwald/maxminddb-golang",
      "version": "v1.9.0",
      "scope": "required",
      "hashes": [
        {
          "alg": "SHA-256",
          "content": "b489389efe954fd3a23f2ae70c07c94b5b35c4a0d03193ac1a88da6fa1230b56"
        }
      ],
      "purl": "pkg:golang/github.com/oschwald/maxminddb-golang@v1.9.0",
      "externalReferences": [
        {
          "url": "https://github.com/oschwald/maxminddb-golang",
          "type": "vcs"
        }
      ]
    },
    {
      "type": "library",
      "bom-ref": "pkg:golang/github.com/pkg/errors@v0.9.1",
      "name": "github.com/pkg/errors",
      "version": "v0.9.1",
      "scope": "required",
      "hashes": [
        {
          "alg": "SHA-256",
          "content": "14404bc75cd2db5e28c298f2eeab017a2c5b51192e850030acae54c0b193c2de"
        }
      ],
      "purl": "pkg:golang/github.com/pkg/errors@v0.9.1",
      "externalReferences": [
        {
          "url": "https://github.com/pkg/errors",
          "type": "vcs"
        }
      ]
    },
    {
      "type": "library",
      "bom-ref": "pkg:golang/github.com/rot256/pblind@v0.0.0-20211117203330-22455f90b565",
      "name": "github.com/rot256/pblind",
      "version": "v0.0.0-20211117203330-22455f90b565",
      "scope": "required",
      "hashes": [
        {
          "alg": "SHA-256",
          "content": "8d5393d16592ae3431ea962ae3ca92242ae54375d4d411ef108e8fb11b04f417"
        }
      ],
      "purl": "pkg:golang/github.com/rot256/pblind@v0.0.0-20211117203330-22455f90b565",
      "externalReferences": [
        {
          "url": "https://github.com/rot256/pblind",
          "type": "vcs"
        }
      ]
    },
    {
      "type": "library",
      "bom-ref": "pkg:golang/github.com/safing/jess@v0.2.3",
      "name": "github.com/safing/jess",
      "version": "v0.2.3",
      "scope": "required",
      "hashes": [
        {
          "alg": "SHA-256",
          "content": "7d59a41dd6d2a99fa6460c7e2a8161256ab42c075701b108c05a51795c9d3d2e"
        }
      ],
      "purl": "pkg:golang/github.com/safing/jess@v0.2.3",
      "externalReferences": [
        {
          "url": "https://github.com/safing/jess",
          "type": "vcs"
        }
      ]
    },
    {
      "type": "library",
      "bom-ref": "pkg:golang/github.com/safing/portbase@v0.14.3",
      "name": "github.com/safing/portbase",
      "version": "v0.14.3",
      "scope": "required",
      "hashes": [
        {
          "alg": "SHA-256",
          "content": "8a0e20c05c1685e3139b30ac9d9096d7e1dccfe410689c071174f32544be76b7"
        }
      ],
      "purl": "pkg:golang/github.com/safing/portbase@v0.14.3",
      "externalReferences": [
        {
          "url": "https://github.com/safing/portbase",
          "type": "vcs"
        }
      ]
    },
    {
      "type": "library",
      "bom-ref": "pkg:golang/github.com/safing/spn@v0.4.7",
      "name": "github.com/safing/spn",
      "version": "v0.4.7",
      "scope": "required",
      "hashes": [
        {
          "alg": "SHA-256",
          "content": "6027a7b0d27fea75bd4f340efa5bf68bfe7ca5c2038a595662001c956c51ed40"
        }
      ],
      "purl": "pkg:golang/github.com/safing/spn@v0.4.7",
      "externalReferences": [
        {
          "url": "https://github.com/safing/spn",
          "type": "vcs"
        }
      ]
    },
    {
      "type": "library",
      "bom-ref": "pkg:golang/github.com/satori/go.uuid@v1.2.0",
      "name": "github.com/satori/go.uuid",
      "version": "v1.2.0",
      "scope": "required",
      "hashes": [
        {
          "alg": "SHA-256",
          "content": "d2e617f5db19db20fbab646d2d1b4f49d1835b38de3374db3093fdbad800d30c"
        }
      ],
      "purl": "pkg:golang/github.com/satori/go.uuid@v1.2.0",
      "externalReferences": [
        {
          "url": "https://github.com/satori/go.uuid",
          "type": "vcs"
        }
      ]
    },
    {
      "type": "library",
      "bom-ref": "pkg:golang/github.com/seehuhn/fortuna@v1.0.1",
      "name": "github.com/seehuhn/fortuna",
      "version": "v1.0.1",
      "scope": "required",
      "hashes": [
        {
          "alg": "SHA-256",
          "content": "96ef7e087b264746d99f1e40cbae3a5ef092449f0f2538b95182700c15faf07d"
        }
      ],
      "purl": "pkg:golang/github.com/seehuhn/fortuna@v1.0.1",
      "externalReferences": [
        {
          "url": "https://github.com/seehuhn/fortuna",
          "type": "vcs"
        }
      ]
    },
    {
      "type": "library",
      "bom-ref": "pkg:golang/github.com/seehuhn/sha256d@v1.0.0",
      "name": "github.com/seehuhn/sha256d",
      "version": "v1.0.0",
      "scope": "required",
      "hashes": [
        {
          "alg": "SHA-256",
          "content": "4d74ec02e116af4d908d19b5e77167bef6fa7d75c3a3b066cb5162cf16ab198c"
        }
      ],
      "purl": "pkg:golang/github.com/seehuhn/sha256d@v1.0.0",
      "externalReferences": [
        {
          "url": "https://github.com/seehuhn/sha256d",
          "type": "vcs"
        }
      ]
    },
    {
      "type": "library",
      "bom-ref": "pkg:golang/github.com/shirou/gopsutil@v3.21.11",
      "name": "github.com/shirou/gopsutil",
      "version": "v3.21.11",
      "scope": "required",
      "hashes": [
        {
          "alg": "SHA-256",
          "content": "9dd8905f514b4428abf94c06eb7384eab802037f619fef6a0c43e2c602d8ad22"
        }
      ],
      "purl": "pkg:golang/github.com/shirou/gopsutil@v3.21.11",
      "externalReferences": [
        {
          "url": "https://github.com/shirou/gopsutil",
          "type": "vcs"
        }
      ]
    },
    {
      "type": "library",
      "bom-ref": "pkg:golang/github.com/spf13/cobra@v1.4.0",
      "name": "github.com/spf13/cobra",
      "version": "v1.4.0",
      "scope": "required",
      "hashes": [
        {
          "alg": "SHA-256",
          "content": "cbec09a71eb8c5c80ed55f91727c16d0b107c532918b66433d20635a7ae0f3c4"
        }
      ],
      "purl": "pkg:golang/github.com/spf13/cobra@v1.4.0",
      "externalReferences": [
        {
          "url": "https://github.com/spf13/cobra",
          "type": "vcs"
        }
      ]
    },
    {
      "type": "library",
      "bom-ref": "pkg:golang/github.com/spf13/pflag@v1.0.5",
      "name": "github.com/spf13/pflag",
      "version": "v1.0.5",
      "scope": "required",
      "hashes": [
        {
          "alg": "SHA-256",
          "content": "8b2f951543823f56bef3216da3f76b836089e6ed3246807b7d9c370cabff2570"
        }
      ],
      "purl": "pkg:golang/github.com/spf13/pflag@v1.0.5",
      "externalReferences": [
        {
          "url": "https://github.com/spf13/pflag",
          "type": "vcs"
        }
      ]
    },
    {
      "type": "library",
      "bom-ref": "pkg:golang/github.com/tannerryan/ring@v1.1.2",
      "name": "github.com/tannerryan/ring",
      "version": "v1.1.2",
      "scope": "required",
      "hashes": [
        {
          "alg": "SHA-256",
          "content": "8976b23a3a8740e2f3bb2f46c122ae1b79e159fcd092574c9508af72022bee04"
        }
      ],
      "purl": "pkg:golang/github.com/tannerryan/ring@v1.1.2",
      "externalReferences": [
        {
          "url": "https://github.com/tannerryan/ring",
          "type": "vcs"
        }
      ]
    },
    {
      "type": "library",
      "bom-ref": "pkg:golang/github.com/tevino/abool@v1.2.0",
      "name": "github.com/tevino/abool",
      "version": "v1.2.0",
      "scope": "required",
      "hashes": [
        {
          "alg": "SHA-256",
          "content": "85e0240a52fc1fac3e98ae6677d773b2ea2129e5c752963b570d1908a5be86e0"
        }
      ],
      "purl": "pkg:golang/github.com/tevino/abool@v1.2.0",
      "externalReferences": [
        {
          "url": "https://github.com/tevino/abool",
          "type": "vcs"
        }
      ]
    },
    {
      "type": "library",
      "bom-ref": "pkg:golang/github.com/tidwall/gjson@v1.14.1",
      "name": "github.com/tidwall/gjson",
      "version": "v1.14.1",
      "scope": "required",
      "hashes": [
        {
          "alg": "SHA-256",
          "content": "8b29936c6910061bdeab6d5b12f010f352342c4068ae4f0115ed425195ddcaea"
        }
      ],
      "purl": "pkg:golang/github.com/tidwall/gjson@v1.14.1",
      "externalReferences": [
        {
          "url": "https://github.com/tidwall/gjson",
          "type": "vcs"
        }
      ]
    },
    {
      "type": "library",
      "bom-ref": "pkg:golang/github.com/tidwall/match@v1.1.1",
      "name": "github.com/tidwall/match",
      "version": "v1.1.1",
      "scope": "required",
      "hashes": [
        {
          "alg": "SHA-256",
          "content": "f87a3bd7926994edfa41883037d3c660d86066fa1449cf57d9cf342954e2f860"
        }
      ],
      "purl": "pkg:golang/github.com/tidwall/match@v1.1.1",
      "externalReferences": [
        {
          "url": "https://github.com/tidwall/match",
          "type": "vcs"
        }
      ]
    },
    {
      "type": "library",
      "bom-ref": "pkg:golang/github.com/tidwall/pretty@v1.2.0",
      "name": "github.com/tidwall/pretty",
      "version": "v1.2.0",
      "scope": "required",
      "hashes": [
        {
          "alg": "SHA-256",
          "content": "456219120da227cfe0e9f0c3633329a1b99aa0687938b978017b465063dca82b"
        }
      ],
      "purl": "pkg:golang/github.com/tidwall/pretty@v1.2.0",
      "externalReferences": [
        {
          "url": "https://github.com/tidwall/pretty",
          "type": "vcs"
        }
      ]
    },
    {
      "type": "library",
      "bom-ref": "pkg:golang/github.com/tidwall/sjson@v1.2.4",
      "name": "github.com/tidwall/sjson",
      "version": "v1.2.4",
      "scope": "required",
      "hashes": [
        {
          "alg": "SHA-256",
          "content": "72e88bccb9da31e06146612fd342e9937b6462b731a666d4f35b406380f0d2d7"
        }
      ],
      "purl": "pkg:golang/github.com/tidwall/sjson@v1.2.4",
      "externalReferences": [
        {
          "url": "https://github.com/tidwall/sjson",
          "type": "vcs"
        }
      ]
    },
    {
      "type": "library",
      "bom-ref": "pkg:golang/github.com/tklauser/go-sysconf@v0.3.10",
      "name": "github.com/tklauser/go-sysconf",
      "version": "v0.3.10",
      "scope": "required",
      "hashes": [
        {
          "alg": "SHA-256",
          "content": "209d4064665159b63c4f955f934e03f56380e5649e8dd7e55f13f4dce52a00bc"
        }
      ],
      "purl": "pkg:golang/github.com/tklauser/go-sysconf@v0.3.10",
      "externalReferences": [
        {
          "url": "https://github.com/tklauser/go-sysconf",
          "type": "vcs"
        }
      ]
    },
    {
      "type": "library",
      "bom-ref": "pkg:golang/github.com/tklauser/numcpus@v0.4.0",
      "name": "github.com/tklauser/numcpus",
      "version": "v0.4.0",
      "scope": "required",
      "hashes": [
        {
          "alg": "SHA-256",
          "content": "139dc39b51e31f5fd1dbf6a80ad5ed3e0ce61259a7e7568e9210854ae66afffa"
        }
      ],
      "purl": "pkg:golang/github.com/tklauser/numcpus@v0.4.0",
      "externalReferences": [
        {
          "url": "https://github.com/tklauser/numcpus",
          "type": "vcs"
        }
      ]
    },
    {
      "type": "library",
      "bom-ref": "pkg:golang/github.com/umahmood/haversine@v0.0.0-20151105152445-808ab04add26",
      "name": "github.com/umahmood/haversine",
      "version": "v0.0.0-20151105152445-808ab04add26",
      "scope": "required",
      "hashes": [
        {
          "alg": "SHA-256",
          "content": "5051c59857e2c6999f441731baef8b03d97c31d5115957553541f13b99f5776c"
        }
      ],
      "purl": "pkg:golang/github.com/umahmood/haversine@v0.0.0-20151105152445-808ab04add26",
      "externalReferences": [
        {
          "url": "https://github.com/umahmood/haversine",
          "type": "vcs"
        }
      ]
    },
    {
      "type": "library",
      "bom-ref": "pkg:golang/github.com/valyala/fastrand@v1.1.0",
      "name": "github.com/valyala/fastrand",
      "version": "v1.1.0",
      "scope": "required",
      "hashes": [
        {
          "alg": "SHA-256",
          "content": "7fee4790b5b8aec83374da25794381ebd8724fd2250f665087d1b20cc7dbe46f"
        }
      ],
      "purl": "pkg:golang/github.com/valyala/fastrand@v1.1.0",
      "externalReferences": [
        {
          "url": "https://github.com/valyala/fastrand",
          "type": "vcs"
        }
      ]
    },
    {
      "type": "library",
      "bom-ref": "pkg:golang/github.com/valyala/histogram@v1.2.0",
      "name": "github.com/valyala/histogram",
      "version": "v1.2.0",
      "scope": "required",
      "hashes": [
        {
          "alg": "SHA-256",
          "content": "c3260601966ddc2a7052221bf4053f65b9658359655f2aed029452f35e4e2e84"
        }
      ],
      "purl": "pkg:golang/github.com/valyala/histogram@v1.2.0",
      "externalReferences": [
        {
          "url": "https://github.com/valyala/histogram",
          "type": "vcs"
        }
      ]
    },
    {
      "type": "library",
      "bom-ref": "pkg:golang/github.com/vmihailenco/msgpack/v5@v5.3.5",
      "name": "github.com/vmihailenco/msgpack/v5",
      "version": "v5.3.5",
      "scope": "required",
      "hashes": [
        {
          "alg": "SHA-256",
          "content": "e603b41f58942cb58686cd87e6d6c01c865357cfdc61a7dc14eafdce72399895"
        }
      ],
      "purl": "pkg:golang/github.com/vmihailenco/msgpack/v5@v5.3.5",
      "externalReferences": [
        {
          "url": "https://github.com/vmihailenco/msgpack",
          "type": "vcs"
        }
      ]
    },
    {
      "type": "library",
      "bom-ref": "pkg:golang/github.com/vmihailenco/tagparser/v2@v2.0.0",
      "name": "github.com/vmihailenco/tagparser/v2",
      "version": "v2.0.0",
      "scope": "required",
      "hashes": [
        {
          "alg": "SHA-256",
          "content": "cb4f5bb946d1f9be5ac9c54542cfe0ef4a6a29564d066c700213bbfc8c0d33d8"
        }
      ],
      "purl": "pkg:golang/github.com/vmihailenco/tagparser/v2@v2.0.0",
      "externalReferences": [
        {
          "url": "https://github.com/vmihailenco/tagparser",
          "type": "vcs"
        }
      ]
    },
    {
      "type": "library",
      "bom-ref": "pkg:golang/github.com/x448/float16@v0.8.4",
      "name": "github.com/x448/float16",
      "version": "v0.8.4",
      "scope": "required",
      "hashes": [
        {
          "alg": "SHA-256",
          "content": "a8bc08d48ef4f8d8d1154477cecd493d40a06825d2877496eb6b80293d664813"
        }
      ],
      "purl": "pkg:golang/github.com/x448/float16@v0.8.4",
      "externalReferences": [
        {
          "url": "https://github.com/x448/float16",
          "type": "vcs"
        }
      ]
    },
    {
      "type": "library",
      "bom-ref": "pkg:golang/github.com/yusufpapurcu/wmi@v1.2.2",
      "name": "github.com/yusufpapurcu/wmi",
      "version": "v1.2.2",
      "scope": "required",
      "hashes": [
        {
          "alg": "SHA-256",
          "content": "2813434a77b8bcfe666d25a725b3bee7520c397241ebb422602481aee6db3d18"
        }
      ],
      "purl": "pkg:golang/github.com/yusufpapurcu/wmi@v1.2.2",
      "externalReferences": [
        {
          "url": "https://github.com/yusufpapurcu/wmi",
          "type": "vcs"
        }
      ]
    },
    {
      "type": "library",
      "bom-ref": "pkg:golang/go.etcd.io/bbolt@v1.3.6",
      "name": "go.etcd.io/bbolt",
      "version": "v1.3.6",
      "scope": "required",
      "hashes": [
        {
          "alg": "SHA-256",
          "content": "fde71a25fd2c93597897a5786b077ae6fd82dc82f2ecc4a3facff1d400c220c5"
        }
      ],
      "purl": "pkg:golang/go.etcd.io/bbolt@v1.3.6"
    },
    {
      "type": "library",
      "bom-ref": "pkg:golang/golang.org/x/crypto@v0.0.0-20220427172511-eb4f295cb31f",
      "name": "golang.org/x/crypto",
      "version": "v0.0.0-20220427172511-eb4f295cb31f",
      "scope": "required",
      "hashes": [
        {
          "alg": "SHA-256",
          "content": "39e26313a1b8760098e0f217bc84506c4f3e457fae5d9c86854cbf92c3062687"
        }
      ],
      "purl": "pkg:golang/golang.org/x/crypto@v0.0.0-20220427172511-eb4f295cb31f"
    },
    {
      "type": "library",
      "bom-ref": "pkg:golang/golang.org/x/mod@v0.6.0-dev.0.20220106191415-9b9b3d81d5e3",
      "name": "golang.org/x/mod",
      "version": "v0.6.0-dev.0.20220106191415-9b9b3d81d5e3",
      "scope": "required",
      "hashes": [
        {
          "alg": "SHA-256",
          "content": "91082776dc8f056fc921811181dc5fc0c621dc0552b63f3c5904e53438b66bea"
        }
      ],
      "purl": "pkg:golang/golang.org/x/mod@v0.6.0-dev.0.20220106191415-9b9b3d81d5e3"
    },
    {
      "type": "library",
      "bom-ref": "pkg:golang/golang.org/x/net@v0.0.0-20220425223048-2871e0cb64e4",
      "name": "golang.org/x/net",
      "version": "v0.0.0-20220425223048-2871e0cb64e4",
      "scope": "required",
      "hashes": [
        {
          "alg": "SHA-256",
          "content": "1d5c9a783018bb1e299d8f83fd28b098b391dfa7b067888640822bb67b828c50"
        }
      ],
      "purl": "pkg:golang/golang.org/x/net@v0.0.0-20220425223048-2871e0cb64e4"
    },
    {
      "type": "library",
      "bom-ref": "pkg:golang/golang.org/x/sync@v0.0.0-20210220032951-036812b2e83c",
      "name": "golang.org/x/sync",
      "version": "v0.0.0-20210220032951-036812b2e83c",
      "scope": "required",
      "hashes": [
        {
          "alg": "SHA-256",
          "content": "e4ab25198c05a6484687e435e9bc0c3f770ea27b47f0539ea7bb4657ce98ed24"
        }
      ],
      "purl": "pkg:golang/golang.org/x/sync@v0.0.0-20210220032951-036812b2e83c"
    },
    {
      "type": "library",
      "bom-ref": "pkg:golang/golang.org/x/sys@v0.0.0-20220503163025-988cb79eb6c6",
      "name": "golang.org/x/sys",
      "version": "v0.0.0-20220503163025-988cb79eb6c6",
      "scope": "required",
      "hashes": [
        {
          "alg": "SHA-256",
          "content": "9e89e9b52a68438bd08f2ada5b6d035cf02096041f56733d642e8c98d2cc47ad"
        }
      ],
      "purl": "pkg:golang/golang.org/x/sys@v0.0.0-20220503163025-988cb79eb6c6"
    },
    {
      "type": "library",
      "bom-ref": "pkg:golang/golang.org/x/tools@v0.1.10",
      "name": "golang.org/x/tools",
      "version": "v0.1.10",
      "scope": "required",
      "hashes": [
        {
          "alg": "SHA-256",
          "content": "423151099c5d3a1049fd43609c164b6cd575dc395b9cad2abb28af4e75c9336d"
        }
      ],
      "purl": "pkg:golang/golang.org/x/tools@v0.1.10"
    },
    {
      "type": "library",
      "bom-ref": "pkg:golang/golang.org/x/xerrors@v0.0.0-20220411194840-2f41105eb62f",
      "name": "golang.org/x/xerrors",
      "version": "v0.0.0-20220411194840-2f41105eb62f",
      "scope": "required",
      "hashes": [
        {
          "alg": "SHA-256",
          "content": "18653e74b8ef942dea0f0a9880be948119875e138e827b346d9bb64f2e669ba5"
        }
      ],
      "purl": "pkg:golang/golang.org/x/xerrors@v0.0.0-20220411194840-2f41105eb62f"
    },
    {
      "type": "library",
      "bom-ref": "pkg:golang/gopkg.in/yaml.v2@v2.4.0",
      "name": "gopkg.in/yaml.v2",
      "version": "v2.4.0",
      "scope": "required",
      "hashes": [
        {
          "alg": "SHA-256",
          "content": "0fcc60c04098ec262fc7e6369f8b01cfddc99fd251bf1762cb2a3c0937ee29a6"
        }
      ],
      "purl": "pkg:golang/gopkg.in/yaml.v2@v2.4.0",
      "externalReferences": [
        {
          "url": "https://github.com/go-yaml/yaml",
          "type": "vcs"
        }
      ]
    },
    {
      "type": "library",
      "bom-ref": "pkg:golang/github.com/shirou/gopsutil@v3.21.11+incompatible",
      "group": "github.com/shirou",
      "name": "gopsutil",
      "version": "v3.21.11+incompatible",
      "description": "",
      "hashes": [
        {
          "alg": "SHA-256",
          "content": "e5be2fea17b832d30ec0c952d1350c4eed8f717520f3e135942ede0b750efd10"
        }
      ],
      "purl": "pkg:golang/github.com/shirou/gopsutil@v3.21.11+incompatible"
    },
    {
      "type": "library",
      "bom-ref": "pkg:golang/github.com/stretchr/testify@v1.7.1",
      "group": "github.com/stretchr",
      "name": "testify",
      "version": "v1.7.1",
      "description": "",
      "hashes": [
        {
          "alg": "SHA-256",
          "content": "e85abca11711e77aebcbdd34ccca898d1462c6bc17dca5fdeb6fe1fd6c23b5e8"
        }
      ],
      "purl": "pkg:golang/github.com/stretchr/testify@v1.7.1"
    },
    {
      "type": "library",
      "bom-ref": "pkg:golang/github.com/awalterschulze/gographviz@v2.0.3+incompatible",
      "group": "github.com/awalterschulze",
      "name": "gographviz",
      "version": "v2.0.3+incompatible",
      "description": "",
      "hashes": [
        {
          "alg": "SHA-256",
          "content": "184579c2683862ab8dc3bbf5924ca85fd7ad224f325665e3f809031eeb844c7b"
        }
      ],
      "purl": "pkg:golang/github.com/awalterschulze/gographviz@v2.0.3+incompatible"
    },
    {
      "type": "library",
      "bom-ref": "pkg:golang/github.com/davecgh/go-spew@v1.1.1",
      "group": "github.com/davecgh",
      "name": "go-spew",
      "version": "v1.1.1",
      "description": "",
      "hashes": [
        {
          "alg": "SHA-256",
          "content": "27b63c61c5b636286c826568fe6bf7940c25fec90e37888b1e34ac23e7391f7f"
        }
      ],
      "purl": "pkg:golang/github.com/davecgh/go-spew@v1.1.1"
    },
    {
      "type": "library",
      "bom-ref": "pkg:golang/github.com/gofrs/uuid@v4.2.0+incompatible",
      "group": "github.com/gofrs",
      "name": "uuid",
      "version": "v4.2.0+incompatible",
      "description": "",
      "hashes": [
        {
          "alg": "SHA-256",
          "content": "6f669026fdd9e05a7ac8dbb771d4a5941c5308b4719e994880ffdcd0dff4e253"
        }
      ],
      "purl": "pkg:golang/github.com/gofrs/uuid@v4.2.0+incompatible"
    },
    {
      "type": "library",
      "bom-ref": "pkg:golang/github.com/pmezard/go-difflib@v1.0.0",
      "group": "github.com/pmezard",
      "name": "go-difflib",
      "version": "v1.0.0",
      "description": "",
      "hashes": [
        {
          "alg": "SHA-256",
          "content": "88a1fbee4a05858c532b5a5c46790a92a7d3a20b1b83b819355638b110d867fe"
        }
      ],
      "purl": "pkg:golang/github.com/pmezard/go-difflib@v1.0.0"
    },
    {
      "type": "library",
      "bom-ref": "pkg:golang/gopkg.in/yaml.v3@v3.0.0-20210107192922-496545a6307b",
      "group": "gopkg.in",
      "name": "yaml.v3",
      "version": "v3.0.0-20210107192922-496545a6307b",
      "description": "",
      "hashes": [
        {
          "alg": "SHA-256",
          "content": "2b8bb293bcfb04210faaee84f82eb861fbf5710ee4cfbac866f89498df848043"
        }
      ],
      "purl": "pkg:golang/gopkg.in/yaml.v3@v3.0.0-20210107192922-496545a6307b"
    }
  ],
  "dependencies": [
    {
      "ref": "pkg:golang/github.com/VictoriaMetrics/metrics@v1.18.1",
      "dependsOn": [
        "pkg:golang/github.com/valyala/histogram@v1.2.0"
      ]
    },
    {
      "ref": "pkg:golang/github.com/aead/ecdh@v0.2.0",
      "dependsOn": [
        "pkg:golang/golang.org/x/crypto@v0.0.0-20220427172511-eb4f295cb31f"
      ]
    },
    {
      "ref": "pkg:golang/github.com/aead/serpent@v0.0.0-20160714141033-fba169763ea6"
    },
    {
      "ref": "pkg:golang/github.com/agext/levenshtein@v1.2.3"
    },
    {
      "ref": "pkg:golang/github.com/armon/go-radix@v1.0.0"
    },
    {
      "ref": "pkg:golang/github.com/awalterschulze/gographviz@v2.0.3"
    },
    {
      "ref": "pkg:golang/github.com/bluele/gcache@v0.0.2"
    },
    {
      "ref": "pkg:golang/github.com/cookieo9/resources-go@v0.0.0-20150225115733-d27c04069d0d"
    },
    {
      "ref": "pkg:golang/github.com/coreos/go-iptables@v0.6.0"
    },
    {
      "ref": "pkg:golang/github.com/florianl/go-nfqueue@v1.3.1",
      "dependsOn": [
        "pkg:golang/github.com/mdlayher/netlink@v1.6.0",
        "pkg:golang/github.com/pkg/errors@v0.9.1",
        "pkg:golang/golang.org/x/sys@v0.0.0-20220503163025-988cb79eb6c6"
      ]
    },
    {
      "ref": "pkg:golang/github.com/fxamacker/cbor/v2@v2.4.0",
      "dependsOn": [
        "pkg:golang/github.com/x448/float16@v0.8.4"
      ]
    },
    {
      "ref": "pkg:golang/github.com/ghodss/yaml@v1.0.0"
    },
    {
      "ref": "pkg:golang/github.com/go-ole/go-ole@v1.2.6",
      "dependsOn": [
        "pkg:golang/golang.org/x/sys@v0.0.0-20220503163025-988cb79eb6c6"
      ]
    },
    {
      "ref": "pkg:golang/github.com/godbus/dbus/v5@v5.1.0"
    },
    {
      "ref": "pkg:golang/github.com/gofrs/uuid@v4.2.0"
    },
    {
      "ref": "pkg:golang/github.com/google/go-cmp@v0.5.8"
    },
    {
      "ref": "pkg:golang/github.com/google/gopacket@v1.1.19",
      "dependsOn": [
        "pkg:golang/golang.org/x/net@v0.0.0-20220425223048-2871e0cb64e4",
        "pkg:golang/golang.org/x/sys@v0.0.0-20220503163025-988cb79eb6c6"
      ]
    },
    {
      "ref": "pkg:golang/github.com/gorilla/mux@v1.8.0"
    },
    {
      "ref": "pkg:golang/github.com/gorilla/websocket@v1.5.0"
    },
    {
      "ref": "pkg:golang/github.com/hashicorp/errwrap@v1.1.0"
    },
    {
      "ref": "pkg:golang/github.com/hashicorp/go-multierror@v1.1.1",
      "dependsOn": [
        "pkg:golang/github.com/hashicorp/errwrap@v1.1.0"
      ]
    },
    {
      "ref": "pkg:golang/github.com/hashicorp/go-version@v1.4.0"
    },
    {
      "ref": "pkg:golang/github.com/inconshreveable/mousetrap@v1.0.0"
    },
    {
      "ref": "pkg:golang/github.com/josharian/native@v1.0.0"
    },
    {
      "ref": "pkg:golang/github.com/kardianos/osext@v0.0.0-20190222173326-2bc1f35cddc0"
    },
    {
      "ref": "pkg:golang/github.com/mdlayher/netlink@v1.6.0",
      "dependsOn": [
        "pkg:golang/github.com/google/go-cmp@v0.5.8",
        "pkg:golang/github.com/josharian/native@v1.0.0",
        "pkg:golang/github.com/mdlayher/socket@v0.2.3",
        "pkg:golang/golang.org/x/net@v0.0.0-20220425223048-2871e0cb64e4",
        "pkg:golang/golang.org/x/sys@v0.0.0-20220503163025-988cb79eb6c6",
        "pkg:golang/golang.org/x/xerrors@v0.0.0-20220411194840-2f41105eb62f"
      ]
    },
    {
      "ref": "pkg:golang/github.com/mdlayher/socket@v0.2.3",
      "dependsOn": [
        "pkg:golang/github.com/google/go-cmp@v0.5.8",
        "pkg:golang/golang.org/x/net@v0.0.0-20220425223048-2871e0cb64e4",
        "pkg:golang/golang.org/x/sync@v0.0.0-20210220032951-036812b2e83c",
        "pkg:golang/golang.org/x/sys@v0.0.0-20220503163025-988cb79eb6c6"
      ]
    },
    {
      "ref": "pkg:golang/github.com/miekg/dns@v1.1.48",
      "dependsOn": [
        "pkg:golang/golang.org/x/net@v0.0.0-20220425223048-2871e0cb64e4",
        "pkg:golang/golang.org/x/sync@v0.0.0-20210220032951-036812b2e83c",
        "pkg:golang/golang.org/x/sys@v0.0.0-20220503163025-988cb79eb6c6",
        "pkg:golang/golang.org/x/tools@v0.1.10"
      ]
    },
    {
      "ref": "pkg:golang/github.com/mitchellh/copystructure@v1.2.0",
      "dependsOn": [
        "pkg:golang/github.com/mitchellh/reflectwalk@v1.0.2"
      ]
    },
    {
      "ref": "pkg:golang/github.com/mitchellh/reflectwalk@v1.0.2"
    },
    {
      "ref": "pkg:golang/github.com/mr-tron/base58@v1.2.0"
    },
    {
      "ref": "pkg:golang/github.com/oschwald/maxminddb-golang@v1.9.0",
      "dependsOn": [
        "pkg:golang/golang.org/x/sys@v0.0.0-20220503163025-988cb79eb6c6"
      ]
    },
    {
      "ref": "pkg:golang/github.com/pkg/errors@v0.9.1"
    },
    {
      "ref": "pkg:golang/github.com/rot256/pblind@v0.0.0-20211117203330-22455f90b565",
      "dependsOn": [
        "pkg:golang/golang.org/x/crypto@v0.0.0-20220427172511-eb4f295cb31f"
      ]
    },
    {
      "ref": "pkg:golang/github.com/safing/jess@v0.2.3",
      "dependsOn": [
        "pkg:golang/github.com/aead/ecdh@v0.2.0",
        "pkg:golang/github.com/inconshreveable/mousetrap@v1.0.0",
        "pkg:golang/github.com/mr-tron/base58@v1.2.0",
        "pkg:golang/github.com/safing/portbase@v0.14.3",
        "pkg:golang/github.com/satori/go.uuid@v1.2.0",
        "pkg:golang/github.com/spf13/cobra@v1.4.0",
        "pkg:golang/github.com/spf13/pflag@v1.0.5",
        "pkg:golang/github.com/tevino/abool@v1.2.0",
        "pkg:golang/golang.org/x/crypto@v0.0.0-20220427172511-eb4f295cb31f",
        "pkg:golang/golang.org/x/sys@v0.0.0-20220503163025-988cb79eb6c6"
      ]
    },
    {
      "ref": "pkg:golang/github.com/safing/portbase@v0.14.3",
      "dependsOn": [
        "pkg:golang/github.com/VictoriaMetrics/metrics@v1.18.1",
        "pkg:golang/github.com/aead/serpent@v0.0.0-20160714141033-fba169763ea6",
        "pkg:golang/github.com/armon/go-radix@v1.0.0",
        "pkg:golang/github.com/bluele/gcache@v0.0.2",
        "pkg:golang/github.com/fxamacker/cbor/v2@v2.4.0",
        "pkg:golang/github.com/gofrs/uuid@v4.2.0",
        "pkg:golang/github.com/gorilla/mux@v1.8.0",
        "pkg:golang/github.com/gorilla/websocket@v1.5.0",
        "pkg:golang/github.com/hashicorp/errwrap@v1.1.0",
        "pkg:golang/github.com/hashicorp/go-multierror@v1.1.1",
        "pkg:golang/github.com/hashicorp/go-version@v1.4.0",
        "pkg:golang/github.com/mitchellh/copystructure@v1.2.0",
        "pkg:golang/github.com/seehuhn/fortuna@v1.0.1",
        "pkg:golang/github.com/shirou/gopsutil@v3.21.11",
        "pkg:golang/github.com/tevino/abool@v1.2.0",
        "pkg:golang/github.com/tidwall/gjson@v1.14.1",
        "pkg:golang/github.com/tidwall/sjson@v1.2.4",
        "pkg:golang/github.com/tklauser/go-sysconf@v0.3.10",
        "pkg:golang/github.com/tklauser/numcpus@v0.4.0",
        "pkg:golang/github.com/vmihailenco/msgpack/v5@v5.3.5",
        "pkg:golang/github.com/yusufpapurcu/wmi@v1.2.2",
        "pkg:golang/go.etcd.io/bbolt@v1.3.6",
        "pkg:golang/golang.org/x/net@v0.0.0-20220425223048-2871e0cb64e4",
        "pkg:golang/golang.org/x/sync@v0.0.0-20210220032951-036812b2e83c",
        "pkg:golang/golang.org/x/sys@v0.0.0-20220503163025-988cb79eb6c6",
        "pkg:golang/golang.org/x/xerrors@v0.0.0-20220411194840-2f41105eb62f"
      ]
    },
    {
      "ref": "pkg:golang/github.com/safing/spn@v0.4.7",
      "dependsOn": [
        "pkg:golang/github.com/awalterschulze/gographviz@v2.0.3",
        "pkg:golang/github.com/ghodss/yaml@v1.0.0",
        "pkg:golang/github.com/mitchellh/copystructure@v1.2.0",
        "pkg:golang/github.com/mr-tron/base58@v1.2.0",
        "pkg:golang/github.com/rot256/pblind@v0.0.0-20211117203330-22455f90b565",
        "pkg:golang/github.com/safing/jess@v0.2.3",
        "pkg:golang/github.com/safing/portbase@v0.14.3",
        "pkg:golang/github.com/safing/portmaster",
        "pkg:golang/github.com/tevino/abool@v1.2.0",
        "pkg:golang/github.com/tidwall/gjson@v1.14.1",
        "pkg:golang/golang.org/x/crypto@v0.0.0-20220427172511-eb4f295cb31f",
        "pkg:golang/golang.org/x/net@v0.0.0-20220425223048-2871e0cb64e4",
        "pkg:golang/golang.org/x/sys@v0.0.0-20220503163025-988cb79eb6c6"
      ]
    },
    {
      "ref": "pkg:golang/github.com/satori/go.uuid@v1.2.0"
    },
    {
      "ref": "pkg:golang/github.com/seehuhn/fortuna@v1.0.1",
      "dependsOn": [
        "pkg:golang/github.com/seehuhn/sha256d@v1.0.0"
      ]
    },
    {
      "ref": "pkg:golang/github.com/seehuhn/sha256d@v1.0.0"
    },
    {
      "ref": "pkg:golang/github.com/shirou/gopsutil@v3.21.11"
    },
    {
      "ref": "pkg:golang/github.com/spf13/cobra@v1.4.0",
      "dependsOn": [
        "pkg:golang/github.com/inconshreveable/mousetrap@v1.0.0",
        "pkg:golang/github.com/spf13/pflag@v1.0.5",
        "pkg:golang/gopkg.in/yaml.v2@v2.4.0"
      ]
    },
    {
      "ref": "pkg:golang/github.com/spf13/pflag@v1.0.5"
    },
    {
      "ref": "pkg:golang/github.com/tannerryan/ring@v1.1.2"
    },
    {
      "ref": "pkg:golang/github.com/tevino/abool@v1.2.0"
    },
    {
      "ref": "pkg:golang/github.com/tidwall/gjson@v1.14.1",
      "dependsOn": [
        "pkg:golang/github.com/tidwall/match@v1.1.1",
        "pkg:golang/github.com/tidwall/pretty@v1.2.0"
      ]
    },
    {
      "ref": "pkg:golang/github.com/tidwall/match@v1.1.1"
    },
    {
      "ref": "pkg:golang/github.com/tidwall/pretty@v1.2.0"
    },
    {
      "ref": "pkg:golang/github.com/tidwall/sjson@v1.2.4",
      "dependsOn": [
        "pkg:golang/github.com/tidwall/gjson@v1.14.1",
        "pkg:golang/github.com/tidwall/pretty@v1.2.0"
      ]
    },
    {
      "ref": "pkg:golang/github.com/tklauser/go-sysconf@v0.3.10",
      "dependsOn": [
        "pkg:golang/github.com/tklauser/numcpus@v0.4.0",
        "pkg:golang/golang.org/x/sys@v0.0.0-20220503163025-988cb79eb6c6"
      ]
    },
    {
      "ref": "pkg:golang/github.com/tklauser/numcpus@v0.4.0",
      "dependsOn": [
        "pkg:golang/golang.org/x/sys@v0.0.0-20220503163025-988cb79eb6c6"
      ]
    },
    {
      "ref": "pkg:golang/github.com/umahmood/haversine@v0.0.0-20151105152445-808ab04add26"
    },
    {
      "ref": "pkg:golang/github.com/valyala/fastrand@v1.1.0"
    },
    {
      "ref": "pkg:golang/github.com/valyala/histogram@v1.2.0",
      "dependsOn": [
        "pkg:golang/github.com/valyala/fastrand@v1.1.0"
      ]
    },
    {
      "ref": "pkg:golang/github.com/vmihailenco/msgpack/v5@v5.3.5",
      "dependsOn": [
        "pkg:golang/github.com/vmihailenco/tagparser/v2@v2.0.0"
      ]
    },
    {
      "ref": "pkg:golang/github.com/vmihailenco/tagparser/v2@v2.0.0"
    },
    {
      "ref": "pkg:golang/github.com/x448/float16@v0.8.4"
    },
    {
      "ref": "pkg:golang/github.com/yusufpapurcu/wmi@v1.2.2",
      "dependsOn": [
        "pkg:golang/github.com/go-ole/go-ole@v1.2.6"
      ]
    },
    {
      "ref": "pkg:golang/go.etcd.io/bbolt@v1.3.6",
      "dependsOn": [
        "pkg:golang/golang.org/x/sys@v0.0.0-20220503163025-988cb79eb6c6"
      ]
    },
    {
      "ref": "pkg:golang/golang.org/x/crypto@v0.0.0-20220427172511-eb4f295cb31f",
      "dependsOn": [
        "pkg:golang/golang.org/x/net@v0.0.0-20220425223048-2871e0cb64e4",
        "pkg:golang/golang.org/x/sys@v0.0.0-20220503163025-988cb79eb6c6"
      ]
    },
    {
      "ref": "pkg:golang/golang.org/x/mod@v0.6.0-dev.0.20220106191415-9b9b3d81d5e3",
      "dependsOn": [
        "pkg:golang/golang.org/x/crypto@v0.0.0-20220427172511-eb4f295cb31f",
        "pkg:golang/golang.org/x/tools@v0.1.10",
        "pkg:golang/golang.org/x/xerrors@v0.0.0-20220411194840-2f41105eb62f"
      ]
    },
    {
      "ref": "pkg:golang/golang.org/x/net@v0.0.0-20220425223048-2871e0cb64e4",
      "dependsOn": [
        "pkg:golang/golang.org/x/sys@v0.0.0-20220503163025-988cb79eb6c6"
      ]
    },
    {
      "ref": "pkg:golang/golang.org/x/sync@v0.0.0-20210220032951-036812b2e83c"
    },
    {
      "ref": "pkg:golang/golang.org/x/sys@v0.0.0-20220503163025-988cb79eb6c6"
    },
    {
      "ref": "pkg:golang/golang.org/x/tools@v0.1.10",
      "dependsOn": [
        "pkg:golang/golang.org/x/mod@v0.6.0-dev.0.20220106191415-9b9b3d81d5e3",
        "pkg:golang/golang.org/x/net@v0.0.0-20220425223048-2871e0cb64e4",
        "pkg:golang/golang.org/x/sync@v0.0.0-20210220032951-036812b2e83c",
        "pkg:golang/golang.org/x/sys@v0.0.0-20220503163025-988cb79eb6c6",
        "pkg:golang/golang.org/x/xerrors@v0.0.0-20220411194840-2f41105eb62f"
      ]
    },
    {
      "ref": "pkg:golang/golang.org/x/xerrors@v0.0.0-20220411194840-2f41105eb62f"
    },
    {
      "ref": "pkg:golang/gopkg.in/yaml.v2@v2.4.0"
    },
    {
      "ref": "pkg:golang/github.com/safing/portmaster@v0.0.0-20220510160806-b6481da52704",
      "dependsOn": [
        "pkg:golang/github.com/VictoriaMetrics/metrics@v1.18.1",
        "pkg:golang/github.com/aead/ecdh@v0.2.0",
        "pkg:golang/github.com/aead/serpent@v0.0.0-20160714141033-fba169763ea6",
        "pkg:golang/github.com/agext/levenshtein@v1.2.3",
        "pkg:golang/github.com/armon/go-radix@v1.0.0",
        "pkg:golang/github.com/awalterschulze/gographviz@v2.0.3",
        "pkg:golang/github.com/bluele/gcache@v0.0.2",
        "pkg:golang/github.com/cookieo9/resources-go@v0.0.0-20150225115733-d27c04069d0d",
        "pkg:golang/github.com/coreos/go-iptables@v0.6.0",
        "pkg:golang/github.com/florianl/go-nfqueue@v1.3.1",
        "pkg:golang/github.com/fxamacker/cbor/v2@v2.4.0",
        "pkg:golang/github.com/ghodss/yaml@v1.0.0",
        "pkg:golang/github.com/go-ole/go-ole@v1.2.6",
        "pkg:golang/github.com/godbus/dbus/v5@v5.1.0",
        "pkg:golang/github.com/gofrs/uuid@v4.2.0",
        "pkg:golang/github.com/google/go-cmp@v0.5.8",
        "pkg:golang/github.com/google/gopacket@v1.1.19",
        "pkg:golang/github.com/gorilla/mux@v1.8.0",
        "pkg:golang/github.com/gorilla/websocket@v1.5.0",
        "pkg:golang/github.com/hashicorp/errwrap@v1.1.0",
        "pkg:golang/github.com/hashicorp/go-multierror@v1.1.1",
        "pkg:golang/github.com/hashicorp/go-version@v1.4.0",
        "pkg:golang/github.com/inconshreveable/mousetrap@v1.0.0",
        "pkg:golang/github.com/josharian/native@v1.0.0",
        "pkg:golang/github.com/kardianos/osext@v0.0.0-20190222173326-2bc1f35cddc0",
        "pkg:golang/github.com/mdlayher/netlink@v1.6.0",
        "pkg:golang/github.com/mdlayher/socket@v0.2.3",
        "pkg:golang/github.com/miekg/dns@v1.1.48",
        "pkg:golang/github.com/mitchellh/copystructure@v1.2.0",
        "pkg:golang/github.com/mitchellh/reflectwalk@v1.0.2",
        "pkg:golang/github.com/mr-tron/base58@v1.2.0",
        "pkg:golang/github.com/oschwald/maxminddb-golang@v1.9.0",
        "pkg:golang/github.com/pkg/errors@v0.9.1",
        "pkg:golang/github.com/rot256/pblind@v0.0.0-20211117203330-22455f90b565",
        "pkg:golang/github.com/safing/jess@v0.2.3",
        "pkg:golang/github.com/safing/portbase@v0.14.3",
        "pkg:golang/github.com/safing/spn@v0.4.7",
        "pkg:golang/github.com/satori/go.uuid@v1.2.0",
        "pkg:golang/github.com/seehuhn/fortuna@v1.0.1",
        "pkg:golang/github.com/seehuhn/sha256d@v1.0.0",
        "pkg:golang/github.com/shirou/gopsutil@v3.21.11",
        "pkg:golang/github.com/spf13/cobra@v1.4.0",
        "pkg:golang/github.com/spf13/pflag@v1.0.5",
        "pkg:golang/github.com/tannerryan/ring@v1.1.2",
        "pkg:golang/github.com/tevino/abool@v1.2.0",
        "pkg:golang/github.com/tidwall/gjson@v1.14.1",
        "pkg:golang/github.com/tidwall/match@v1.1.1",
        "pkg:golang/github.com/tidwall/pretty@v1.2.0",
        "pkg:golang/github.com/tidwall/sjson@v1.2.4",
        "pkg:golang/github.com/tklauser/go-sysconf@v0.3.10",
        "pkg:golang/github.com/tklauser/numcpus@v0.4.0",
        "pkg:golang/github.com/umahmood/haversine@v0.0.0-20151105152445-808ab04add26",
        "pkg:golang/github.com/valyala/fastrand@v1.1.0",
        "pkg:golang/github.com/valyala/histogram@v1.2.0",
        "pkg:golang/github.com/vmihailenco/msgpack/v5@v5.3.5",
        "pkg:golang/github.com/vmihailenco/tagparser/v2@v2.0.0",
        "pkg:golang/github.com/x448/float16@v0.8.4",
        "pkg:golang/github.com/yusufpapurcu/wmi@v1.2.2",
        "pkg:golang/go.etcd.io/bbolt@v1.3.6",
        "pkg:golang/golang.org/x/crypto@v0.0.0-20220427172511-eb4f295cb31f",
        "pkg:golang/golang.org/x/mod@v0.6.0-dev.0.20220106191415-9b9b3d81d5e3",
        "pkg:golang/golang.org/x/net@v0.0.0-20220425223048-2871e0cb64e4",
        "pkg:golang/golang.org/x/sync@v0.0.0-20210220032951-036812b2e83c",
        "pkg:golang/golang.org/x/sys@v0.0.0-20220503163025-988cb79eb6c6",
        "pkg:golang/golang.org/x/tools@v0.1.10",
        "pkg:golang/golang.org/x/xerrors@v0.0.0-20220411194840-2f41105eb62f",
        "pkg:golang/gopkg.in/yaml.v2@v2.4.0"
      ]
    }
  ]
}
