{
  "bomFormat": "CycloneDX",
  "specVersion": "1.3",
  "version": 1,
  "metadata": {
    "tools": [
      {
        "vendor": "CycloneDX",
        "name": "Node.js module",
        "version": "3.0.3"
      },
      {
        "vendor": "AppThreat",
        "name": "cdxgen",
        "version": "3.0.10"
      },
      {
        "vendor": "Fortress Information Security",
        "name": "GitHub Extractor",
        "version": "1.15.1"
      }
    ],
    "authors": [
      {
        "name": "Fortress Information Security",
        "email": "sales@fortressinfosec.com",
        "phone": "1-407-573-6800"
      }
    ],
    "timestamp": "2022-07-04T10:05:45Z",
    "component": {
      "type": "application",
      "name": "scalafmt",
      "version": "v3.5.8",
      "group": "scalameta",
      "externalReferences": [
        {
          "url": "https://github.com/scalameta/scalafmt.git",
          "type": "distribution"
        }
      ]
    }
  },
  "components": [
    {
      "type": "library",
      "bom-ref": "pkg:npm/prettier@2.0.4",
      "name": "prettier",
      "version": "2.0.4",
      "description": "Prettier is an opinionated code formatter",
      "hashes": [
        {
          "alg": "SHA-1",
          "content": "2d1bae173e355996ee355ec9830a7a1ee05457ef"
        }
      ],
      "licenses": [
        {
          "license": {
            "id": "MIT"
          }
        }
      ],
      "purl": "pkg:npm/prettier@2.0.4",
      "externalReferences": [
        {
          "url": "https://prettier.io",
          "type": "website"
        },
        {
          "url": "https://github.com/prettier/prettier/issues",
          "type": "issue-tracker"
        },
        {
          "url": "git+https://github.com/prettier/prettier.git",
          "type": "vcs"
        }
      ]
    }
  ]
}
