{
  "bomFormat": "CycloneDX",
  "specVersion": "1.3",
  "serialNumber": "urn:uuid:5e00399e-e7bb-40bf-96c8-8b1c1b95f088",
  "version": 1,
  "metadata": {
    "timestamp": "2022-06-06T19:13:26Z",
    "tools": [
      {
        "vendor": "AppThreat",
        "name": "cdxgen",
        "version": "3.0.10"
      },
      {
        "vendor": "Fortress Information Security",
        "name": "Github Extractor",
        "version": "1.15.1"
      }
    ],
    "authors": [
      {
        "name": "Team AppThreat",
        "email": "cloud@appthreat.com"
      },
      {
        "name": "Fortress Information Security",
        "email": "sales@fortressinfosec.com",
        "phone": "1-407-573-6800"
      }
    ],
    "component": {
      "type": "application",
      "name": "json",
      "version": "v1.0.81",
      "group": "serde-rs",
      "externalReferences": [
        {
          "url": "https://github.com/serde-rs/json.git",
          "type": "distribution"
        },
        {
          "type": "website",
          "url": "null",
          "comment": "As set via `homepage` in Github API"
        }
      ]
    }
  },
  "components": [
    {
      "type": "library",
      "bom-ref": "pkg:crates/serde_json@1.0.81 # remember to update html_root_url",
      "group": "",
      "name": "serde_json",
      "version": "1.0.81 # remember to update html_root_url",
      "description": "",
      "purl": "pkg:crates/serde_json@1.0.81 # remember to update html_root_url"
    },
    {
      "type": "library",
      "bom-ref": "pkg:crates/serde@1.0.100",
      "group": "",
      "name": "serde",
      "version": "1.0.100",
      "description": "",
      "purl": "pkg:crates/serde@1.0.100"
    },
    {
      "type": "library",
      "bom-ref": "pkg:crates/indexmap@1.5.2",
      "group": "",
      "name": "indexmap",
      "version": "1.5.2",
      "description": "",
      "purl": "pkg:crates/indexmap@1.5.2"
    },
    {
      "type": "library",
      "bom-ref": "pkg:crates/itoa@1.0",
      "group": "",
      "name": "itoa",
      "version": "1.0",
      "description": "",
      "purl": "pkg:crates/itoa@1.0"
    },
    {
      "type": "library",
      "bom-ref": "pkg:crates/ryu@1.0",
      "group": "",
      "name": "ryu",
      "version": "1.0",
      "description": "",
      "purl": "pkg:crates/ryu@1.0"
    },
    {
      "type": "library",
      "bom-ref": "pkg:crates/automod@1.0",
      "group": "",
      "name": "automod",
      "version": "1.0",
      "description": "",
      "purl": "pkg:crates/automod@1.0"
    },
    {
      "type": "library",
      "bom-ref": "pkg:crates/ref-cast@1.0",
      "group": "",
      "name": "ref-cast",
      "version": "1.0",
      "description": "",
      "purl": "pkg:crates/ref-cast@1.0"
    },
    {
      "type": "library",
      "bom-ref": "pkg:crates/serde_bytes@0.11",
      "group": "",
      "name": "serde_bytes",
      "version": "0.11",
      "description": "",
      "purl": "pkg:crates/serde_bytes@0.11"
    },
    {
      "type": "library",
      "bom-ref": "pkg:crates/serde_derive@1.0",
      "group": "",
      "name": "serde_derive",
      "version": "1.0",
      "description": "",
      "purl": "pkg:crates/serde_derive@1.0"
    },
    {
      "type": "library",
      "bom-ref": "pkg:crates/serde_stacker@0.1",
      "group": "",
      "name": "serde_stacker",
      "version": "0.1",
      "description": "",
      "purl": "pkg:crates/serde_stacker@0.1"
    },
    {
      "type": "library",
      "bom-ref": "pkg:crates/trybuild@1.0.49",
      "group": "",
      "name": "trybuild",
      "version": "1.0.49",
      "description": "",
      "purl": "pkg:crates/trybuild@1.0.49"
    },
    {
      "type": "library",
      "bom-ref": "pkg:crates/members@[tests/crate]",
      "group": "",
      "name": "members",
      "version": "[tests/crate]",
      "description": "",
      "purl": "pkg:crates/members@[tests/crate]"
    },
    {
      "type": "library",
      "bom-ref": "pkg:crates/features@[raw_value, unbounded_depth]",
      "group": "",
      "name": "features",
      "version": "[raw_value, unbounded_depth]",
      "description": "",
      "purl": "pkg:crates/features@[raw_value, unbounded_depth]"
    },
    {
      "type": "library",
      "bom-ref": "pkg:crates/targets@[x86_64-unknown-linux-gnu]",
      "group": "",
      "name": "targets",
      "version": "[x86_64-unknown-linux-gnu]",
      "description": "",
      "purl": "pkg:crates/targets@[x86_64-unknown-linux-gnu]"
    },
    {
      "type": "library",
      "bom-ref": "pkg:crates/rustdoc-args@[--cfg, docsrs]",
      "group": "",
      "name": "rustdoc-args",
      "version": "[--cfg, docsrs]",
      "description": "",
      "purl": "pkg:crates/rustdoc-args@[--cfg, docsrs]"
    },
    {
      "type": "library",
      "bom-ref": "pkg:crates/features@[raw_value]",
      "group": "",
      "name": "features",
      "version": "[raw_value]",
      "description": "",
      "purl": "pkg:crates/features@[raw_value]"
    },
    {
      "type": "library",
      "bom-ref": "pkg:crates/default@[std]",
      "group": "",
      "name": "default",
      "version": "[std]",
      "description": "",
      "purl": "pkg:crates/default@[std]"
    },
    {
      "type": "library",
      "bom-ref": "pkg:crates/std@[serde/std]",
      "group": "",
      "name": "std",
      "version": "[serde/std]",
      "description": "",
      "purl": "pkg:crates/std@[serde/std]"
    },
    {
      "type": "library",
      "bom-ref": "pkg:crates/alloc@[serde/alloc]",
      "group": "",
      "name": "alloc",
      "version": "[serde/alloc]",
      "description": "",
      "purl": "pkg:crates/alloc@[serde/alloc]"
    },
    {
      "type": "library",
      "bom-ref": "pkg:crates/preserve_order@[indexmap, std]",
      "group": "",
      "name": "preserve_order",
      "version": "[indexmap, std]",
      "description": "",
      "purl": "pkg:crates/preserve_order@[indexmap, std]"
    },
    {
      "type": "library",
      "bom-ref": "pkg:crates/float_roundtrip@[]",
      "group": "",
      "name": "float_roundtrip",
      "version": "[]",
      "description": "",
      "purl": "pkg:crates/float_roundtrip@[]"
    },
    {
      "type": "library",
      "bom-ref": "pkg:crates/arbitrary_precision@[]",
      "group": "",
      "name": "arbitrary_precision",
      "version": "[]",
      "description": "",
      "purl": "pkg:crates/arbitrary_precision@[]"
    },
    {
      "type": "library",
      "bom-ref": "pkg:crates/raw_value@[]",
      "group": "",
      "name": "raw_value",
      "version": "[]",
      "description": "",
      "purl": "pkg:crates/raw_value@[]"
    },
    {
      "type": "library",
      "bom-ref": "pkg:crates/unbounded_depth@[]",
      "group": "",
      "name": "unbounded_depth",
      "version": "[]",
      "description": "",
      "purl": "pkg:crates/unbounded_depth@[]"
    },
    {
      "type": "library",
      "bom-ref": "pkg:crates/serde_json-fuzz@0.0.0",
      "group": "",
      "name": "serde_json-fuzz",
      "version": "0.0.0",
      "description": "",
      "purl": "pkg:crates/serde_json-fuzz@0.0.0"
    },
    {
      "type": "library",
      "bom-ref": "pkg:crates/libfuzzer-sys@0.4",
      "group": "",
      "name": "libfuzzer-sys",
      "version": "0.4",
      "description": "",
      "purl": "pkg:crates/libfuzzer-sys@0.4"
    },
    {
      "type": "library",
      "bom-ref": "pkg:crates/name@from_slice",
      "group": "",
      "name": "name",
      "version": "from_slice",
      "description": "",
      "purl": "pkg:crates/name@from_slice"
    },
    {
      "type": "library",
      "bom-ref": "pkg:crates/test@false",
      "group": "",
      "name": "test",
      "version": "false",
      "description": "",
      "purl": "pkg:crates/test@false"
    },
    {
      "type": "library",
      "bom-ref": "pkg:crates/doc@false",
      "group": "",
      "name": "doc",
      "version": "false",
      "description": "",
      "purl": "pkg:crates/doc@false"
    },
    {
      "type": "library",
      "bom-ref": "pkg:crates/serde_json_test@0.0.0",
      "group": "",
      "name": "serde_json_test",
      "version": "0.0.0",
      "description": "",
      "purl": "pkg:crates/serde_json_test@0.0.0"
    },
    {
      "type": "library",
      "bom-ref": "pkg:crates/std@[serde_json/std]",
      "group": "",
      "name": "std",
      "version": "[serde_json/std]",
      "description": "",
      "purl": "pkg:crates/std@[serde_json/std]"
    },
    {
      "type": "library",
      "bom-ref": "pkg:crates/alloc@[serde_json/alloc]",
      "group": "",
      "name": "alloc",
      "version": "[serde_json/alloc]",
      "description": "",
      "purl": "pkg:crates/alloc@[serde_json/alloc]"
    },
    {
      "type": "library",
      "bom-ref": "pkg:crates/preserve_order@[serde_json/preserve_order]",
      "group": "",
      "name": "preserve_order",
      "version": "[serde_json/preserve_order]",
      "description": "",
      "purl": "pkg:crates/preserve_order@[serde_json/preserve_order]"
    },
    {
      "type": "library",
      "bom-ref": "pkg:crates/arbitrary_precision@[serde_json/arbitrary_precision]",
      "group": "",
      "name": "arbitrary_precision",
      "version": "[serde_json/arbitrary_precision]",
      "description": "",
      "purl": "pkg:crates/arbitrary_precision@[serde_json/arbitrary_precision]"
    },
    {
      "type": "library",
      "bom-ref": "pkg:crates/raw_value@[serde_json/raw_value]",
      "group": "",
      "name": "raw_value",
      "version": "[serde_json/raw_value]",
      "description": "",
      "purl": "pkg:crates/raw_value@[serde_json/raw_value]"
    },
    {
      "type": "library",
      "bom-ref": "pkg:crates/unbounded_depth@[serde_json/unbounded_depth]",
      "group": "",
      "name": "unbounded_depth",
      "version": "[serde_json/unbounded_depth]",
      "description": "",
      "purl": "pkg:crates/unbounded_depth@[serde_json/unbounded_depth]"
    }
  ],
  "externalReferences": [
    {
      "url": "/project/src",
      "type": "other",
      "comment": "Base path"
    },
    {
      "url": "/project/src/Cargo.toml, /project/src/fuzz/Cargo.toml, /project/src/tests/crate/Cargo.toml",
      "type": "other",
      "comment": "Package file"
    }
  ]
}
