{
  "bomFormat": "CycloneDX",
  "specVersion": "1.3",
  "version": 2,
  "metadata": {
    "tools": [
      {
        "vendor": "cyclonedx",
        "name": "cyclonedx-php-composer",
        "version": "3.10.0"
      },
      {
        "vendor": "AppThreat",
        "name": "cdxgen",
        "version": "3.0.10"
      },
      {
        "vendor": "Fortress Information Security",
        "name": "Github Extractor",
        "version": "1.15.1"
      }
    ],
    "authors": [
      {
        "name": "Fortress Information Security",
        "email": "sales@fortressinfosec.com",
        "phone": "1-407-573-6800"
      }
    ],
    "timestamp": "2022-07-26T23:34:39Z",
    "component": {
      "type": "application",
      "name": "simplepie",
      "version": "1.6.0",
      "group": "simplepie",
      "externalReferences": [
        {
          "url": "https://github.com/simplepie/simplepie.git",
          "type": "distribution"
        },
        {
          "type": "website",
          "url": "http://simplepie.org/",
          "comment": "As set via `homepage` in Github API"
        }
      ]
    }
  },
  "components": [
    {
      "type": "library",
      "bom-ref": "pkg:composer/cyclonedx/cyclonedx-library@1.5.0",
      "group": "cyclonedx",
      "name": "cyclonedx-library",
      "version": "1.5.0",
      "description": "Work with CycloneDX Software Bill-of-Materials (SBOM)",
      "licenses": [
        {
          "license": {
            "id": "Apache-2.0"
          }
        }
      ],
      "purl": "pkg:composer/cyclonedx/cyclonedx-library@1.5.0",
      "externalReferences": [
        {
          "url": "https://github.com/CycloneDX/cyclonedx-php-library.git",
          "type": "distribution",
          "comment": "As detected by composer's `getSourceUrls()` (type=git & reference=f41632e1d47001700ef93fa899e6dc49779aa784)"
        },
        {
          "url": "https://api.github.com/repos/CycloneDX/cyclonedx-php-library/zipball/f41632e1d47001700ef93fa899e6dc49779aa784",
          "type": "distribution",
          "comment": "As detected by composer's `getDistUrls()` (type=zip & reference=f41632e1d47001700ef93fa899e6dc49779aa784 & sha1=UNDEFINED)"
        },
        {
          "url": "https://github.com/CycloneDX/cyclonedx-php-library/",
          "type": "website",
          "comment": "As set via `homepage` in composer package definition."
        },
        {
          "url": "https://github.com/CycloneDX/cyclonedx-php-library/issues",
          "type": "issue-tracker",
          "comment": "As set via `support.issues` in composer package definition."
        },
        {
          "url": "https://github.com/CycloneDX/cyclonedx-php-library/tree/v1.5.0",
          "type": "distribution",
          "comment": "As set via `support.source` in composer package definition."
        }
      ]
    },
    {
      "type": "application",
      "bom-ref": "pkg:composer/cyclonedx/cyclonedx-php-composer@3.10.0",
      "group": "cyclonedx",
      "name": "cyclonedx-php-composer",
      "version": "3.10.0",
      "description": "Creates CycloneDX Software Bill-of-Materials (SBOM) from PHP Composer projects",
      "licenses": [
        {
          "license": {
            "id": "Apache-2.0"
          }
        }
      ],
      "purl": "pkg:composer/cyclonedx/cyclonedx-php-composer@3.10.0",
      "externalReferences": [
        {
          "url": "https://github.com/CycloneDX/cyclonedx-php-composer.git",
          "type": "distribution",
          "comment": "As detected by composer's `getSourceUrls()` (type=git & reference=341792df609deab6131ffa65f2f3b273f2e6128a)"
        },
        {
          "url": "https://api.github.com/repos/CycloneDX/cyclonedx-php-composer/zipball/341792df609deab6131ffa65f2f3b273f2e6128a",
          "type": "distribution",
          "comment": "As detected by composer's `getDistUrls()` (type=zip & reference=341792df609deab6131ffa65f2f3b273f2e6128a & sha1=UNDEFINED)"
        },
        {
          "url": "https://github.com/CycloneDX/cyclonedx-php-composer/",
          "type": "website",
          "comment": "As set via `homepage` in composer package definition."
        },
        {
          "url": "https://github.com/CycloneDX/cyclonedx-php-composer/issues",
          "type": "issue-tracker",
          "comment": "As set via `support.issues` in composer package definition."
        },
        {
          "url": "https://github.com/CycloneDX/cyclonedx-php-composer/tree/v3.10.0",
          "type": "distribution",
          "comment": "As set via `support.source` in composer package definition."
        }
      ]
    },
    {
      "type": "library",
      "bom-ref": "pkg:composer/doctrine/instantiator@1.4.1",
      "group": "doctrine",
      "name": "instantiator",
      "version": "1.4.1",
      "description": "A small, lightweight utility to instantiate objects in PHP without invoking their constructors",
      "licenses": [
        {
          "license": {
            "id": "MIT"
          }
        }
      ],
      "purl": "pkg:composer/doctrine/instantiator@1.4.1",
      "externalReferences": [
        {
          "url": "https://github.com/doctrine/instantiator.git",
          "type": "distribution",
          "comment": "As detected by composer's `getSourceUrls()` (type=git & reference=10dcfce151b967d20fde1b34ae6640712c3891bc)"
        },
        {
          "url": "https://api.github.com/repos/doctrine/instantiator/zipball/10dcfce151b967d20fde1b34ae6640712c3891bc",
          "type": "distribution",
          "comment": "As detected by composer's `getDistUrls()` (type=zip & reference=10dcfce151b967d20fde1b34ae6640712c3891bc & sha1=UNDEFINED)"
        },
        {
          "url": "https://www.doctrine-project.org/projects/instantiator.html",
          "type": "website",
          "comment": "As set via `homepage` in composer package definition."
        },
        {
          "url": "https://github.com/doctrine/instantiator/issues",
          "type": "issue-tracker",
          "comment": "As set via `support.issues` in composer package definition."
        },
        {
          "url": "https://github.com/doctrine/instantiator/tree/1.4.1",
          "type": "distribution",
          "comment": "As set via `support.source` in composer package definition."
        },
        {
          "url": "https://www.doctrine-project.org/sponsorship.html",
          "type": "other",
          "comment": "As set via `funding` in composer package definition. (type=custom)"
        },
        {
          "url": "https://www.patreon.com/phpdoctrine",
          "type": "other",
          "comment": "As set via `funding` in composer package definition. (type=patreon)"
        },
        {
          "url": "https://tidelift.com/funding/github/packagist/doctrine%2Finstantiator",
          "type": "other",
          "comment": "As set via `funding` in composer package definition. (type=tidelift)"
        }
      ]
    },
    {
      "type": "library",
      "bom-ref": "pkg:composer/myclabs/deep-copy@1.11.0",
      "group": "myclabs",
      "name": "deep-copy",
      "version": "1.11.0",
      "description": "Create deep copies (clones) of your objects",
      "licenses": [
        {
          "license": {
            "id": "MIT"
          }
        }
      ],
      "purl": "pkg:composer/myclabs/deep-copy@1.11.0",
      "externalReferences": [
        {
          "url": "https://github.com/myclabs/DeepCopy.git",
          "type": "distribution",
          "comment": "As detected by composer's `getSourceUrls()` (type=git & reference=14daed4296fae74d9e3201d2c4925d1acb7aa614)"
        },
        {
          "url": "https://api.github.com/repos/myclabs/DeepCopy/zipball/14daed4296fae74d9e3201d2c4925d1acb7aa614",
          "type": "distribution",
          "comment": "As detected by composer's `getDistUrls()` (type=zip & reference=14daed4296fae74d9e3201d2c4925d1acb7aa614 & sha1=UNDEFINED)"
        },
        {
          "url": "https://github.com/myclabs/DeepCopy/issues",
          "type": "issue-tracker",
          "comment": "As set via `support.issues` in composer package definition."
        },
        {
          "url": "https://github.com/myclabs/DeepCopy/tree/1.11.0",
          "type": "distribution",
          "comment": "As set via `support.source` in composer package definition."
        },
        {
          "url": "https://tidelift.com/funding/github/packagist/myclabs/deep-copy",
          "type": "other",
          "comment": "As set via `funding` in composer package definition. (type=tidelift)"
        }
      ]
    },
    {
      "type": "library",
      "bom-ref": "pkg:composer/nikic/php-parser@4.13.2",
      "group": "nikic",
      "name": "php-parser",
      "version": "4.13.2",
      "description": "A PHP parser written in PHP",
      "licenses": [
        {
          "license": {
            "id": "BSD-3-Clause"
          }
        }
      ],
      "purl": "pkg:composer/nikic/php-parser@4.13.2",
      "externalReferences": [
        {
          "url": "https://github.com/nikic/PHP-Parser.git",
          "type": "distribution",
          "comment": "As detected by composer's `getSourceUrls()` (type=git & reference=210577fe3cf7badcc5814d99455df46564f3c077)"
        },
        {
          "url": "https://api.github.com/repos/nikic/PHP-Parser/zipball/210577fe3cf7badcc5814d99455df46564f3c077",
          "type": "distribution",
          "comment": "As detected by composer's `getDistUrls()` (type=zip & reference=210577fe3cf7badcc5814d99455df46564f3c077 & sha1=UNDEFINED)"
        },
        {
          "url": "https://github.com/nikic/PHP-Parser/issues",
          "type": "issue-tracker",
          "comment": "As set via `support.issues` in composer package definition."
        },
        {
          "url": "https://github.com/nikic/PHP-Parser/tree/v4.13.2",
          "type": "distribution",
          "comment": "As set via `support.source` in composer package definition."
        }
      ]
    },
    {
      "type": "library",
      "bom-ref": "pkg:composer/package-url/packageurl-php@1.0.4",
      "group": "package-url",
      "name": "packageurl-php",
      "version": "1.0.4",
      "description": "A parser and builder based on the package url spec.",
      "licenses": [
        {
          "license": {
            "id": "MIT"
          }
        }
      ],
      "purl": "pkg:composer/package-url/packageurl-php@1.0.4",
      "externalReferences": [
        {
          "url": "https://github.com/package-url/packageurl-php.git",
          "type": "distribution",
          "comment": "As detected by composer's `getSourceUrls()` (type=git & reference=c45953babed516d27a0cf6c1a2d9f7e883ce214f)"
        },
        {
          "url": "https://api.github.com/repos/package-url/packageurl-php/zipball/c45953babed516d27a0cf6c1a2d9f7e883ce214f",
          "type": "distribution",
          "comment": "As detected by composer's `getDistUrls()` (type=zip & reference=c45953babed516d27a0cf6c1a2d9f7e883ce214f & sha1=UNDEFINED)"
        },
        {
          "url": "https://github.com/package-url/packageurl-php",
          "type": "website",
          "comment": "As set via `homepage` in composer package definition."
        },
        {
          "url": "https://github.com/package-url/packageurl-php/issues",
          "type": "issue-tracker",
          "comment": "As set via `support.issues` in composer package definition."
        },
        {
          "url": "https://github.com/package-url/packageurl-php/tree/1.0.4",
          "type": "distribution",
          "comment": "As set via `support.source` in composer package definition."
        }
      ]
    },
    {
      "type": "library",
      "bom-ref": "pkg:composer/phar-io/manifest@2.0.3",
      "group": "phar-io",
      "name": "manifest",
      "version": "2.0.3",
      "description": "Component for reading phar.io manifest information from a PHP Archive (PHAR)",
      "licenses": [
        {
          "license": {
            "id": "BSD-3-Clause"
          }
        }
      ],
      "purl": "pkg:composer/phar-io/manifest@2.0.3",
      "externalReferences": [
        {
          "url": "https://github.com/phar-io/manifest.git",
          "type": "distribution",
          "comment": "As detected by composer's `getSourceUrls()` (type=git & reference=97803eca37d319dfa7826cc2437fc020857acb53)"
        },
        {
          "url": "https://api.github.com/repos/phar-io/manifest/zipball/97803eca37d319dfa7826cc2437fc020857acb53",
          "type": "distribution",
          "comment": "As detected by composer's `getDistUrls()` (type=zip & reference=97803eca37d319dfa7826cc2437fc020857acb53 & sha1=UNDEFINED)"
        },
        {
          "url": "https://github.com/phar-io/manifest/issues",
          "type": "issue-tracker",
          "comment": "As set via `support.issues` in composer package definition."
        },
        {
          "url": "https://github.com/phar-io/manifest/tree/2.0.3",
          "type": "distribution",
          "comment": "As set via `support.source` in composer package definition."
        }
      ]
    },
    {
      "type": "library",
      "bom-ref": "pkg:composer/phar-io/version@3.2.1",
      "group": "phar-io",
      "name": "version",
      "version": "3.2.1",
      "description": "Library for handling version information and constraints",
      "licenses": [
        {
          "license": {
            "id": "BSD-3-Clause"
          }
        }
      ],
      "purl": "pkg:composer/phar-io/version@3.2.1",
      "externalReferences": [
        {
          "url": "https://github.com/phar-io/version.git",
          "type": "distribution",
          "comment": "As detected by composer's `getSourceUrls()` (type=git & reference=4f7fd7836c6f332bb2933569e566a0d6c4cbed74)"
        },
        {
          "url": "https://api.github.com/repos/phar-io/version/zipball/4f7fd7836c6f332bb2933569e566a0d6c4cbed74",
          "type": "distribution",
          "comment": "As detected by composer's `getDistUrls()` (type=zip & reference=4f7fd7836c6f332bb2933569e566a0d6c4cbed74 & sha1=UNDEFINED)"
        },
        {
          "url": "https://github.com/phar-io/version/issues",
          "type": "issue-tracker",
          "comment": "As set via `support.issues` in composer package definition."
        },
        {
          "url": "https://github.com/phar-io/version/tree/3.2.1",
          "type": "distribution",
          "comment": "As set via `support.source` in composer package definition."
        }
      ]
    },
    {
      "type": "library",
      "bom-ref": "pkg:composer/phpdocumentor/reflection-common@2.2.0",
      "group": "phpdocumentor",
      "name": "reflection-common",
      "version": "2.2.0",
      "description": "Common reflection classes used by phpdocumentor to reflect the code structure",
      "licenses": [
        {
          "license": {
            "id": "MIT"
          }
        }
      ],
      "purl": "pkg:composer/phpdocumentor/reflection-common@2.2.0",
      "externalReferences": [
        {
          "url": "https://github.com/phpDocumentor/ReflectionCommon.git",
          "type": "distribution",
          "comment": "As detected by composer's `getSourceUrls()` (type=git & reference=1d01c49d4ed62f25aa84a747ad35d5a16924662b)"
        },
        {
          "url": "https://api.github.com/repos/phpDocumentor/ReflectionCommon/zipball/1d01c49d4ed62f25aa84a747ad35d5a16924662b",
          "type": "distribution",
          "comment": "As detected by composer's `getDistUrls()` (type=zip & reference=1d01c49d4ed62f25aa84a747ad35d5a16924662b & sha1=UNDEFINED)"
        },
        {
          "url": "http://www.phpdoc.org",
          "type": "website",
          "comment": "As set via `homepage` in composer package definition."
        },
        {
          "url": "https://github.com/phpDocumentor/ReflectionCommon/issues",
          "type": "issue-tracker",
          "comment": "As set via `support.issues` in composer package definition."
        },
        {
          "url": "https://github.com/phpDocumentor/ReflectionCommon/tree/2.x",
          "type": "distribution",
          "comment": "As set via `support.source` in composer package definition."
        }
      ]
    },
    {
      "type": "library",
      "bom-ref": "pkg:composer/phpdocumentor/reflection-docblock@5.3.0",
      "group": "phpdocumentor",
      "name": "reflection-docblock",
      "version": "5.3.0",
      "description": "With this component, a library can provide support for annotations via DocBlocks or otherwise retrieve information that is embedded in a DocBlock.",
      "licenses": [
        {
          "license": {
            "id": "MIT"
          }
        }
      ],
      "purl": "pkg:composer/phpdocumentor/reflection-docblock@5.3.0",
      "externalReferences": [
        {
          "url": "https://github.com/phpDocumentor/ReflectionDocBlock.git",
          "type": "distribution",
          "comment": "As detected by composer's `getSourceUrls()` (type=git & reference=622548b623e81ca6d78b721c5e029f4ce664f170)"
        },
        {
          "url": "https://api.github.com/repos/phpDocumentor/ReflectionDocBlock/zipball/622548b623e81ca6d78b721c5e029f4ce664f170",
          "type": "distribution",
          "comment": "As detected by composer's `getDistUrls()` (type=zip & reference=622548b623e81ca6d78b721c5e029f4ce664f170 & sha1=UNDEFINED)"
        },
        {
          "url": "https://github.com/phpDocumentor/ReflectionDocBlock/issues",
          "type": "issue-tracker",
          "comment": "As set via `support.issues` in composer package definition."
        },
        {
          "url": "https://github.com/phpDocumentor/ReflectionDocBlock/tree/5.3.0",
          "type": "distribution",
          "comment": "As set via `support.source` in composer package definition."
        }
      ]
    },
    {
      "type": "library",
      "bom-ref": "pkg:composer/phpdocumentor/type-resolver@1.6.1",
      "group": "phpdocumentor",
      "name": "type-resolver",
      "version": "1.6.1",
      "description": "A PSR-5 based resolver of Class names, Types and Structural Element Names",
      "licenses": [
        {
          "license": {
            "id": "MIT"
          }
        }
      ],
      "purl": "pkg:composer/phpdocumentor/type-resolver@1.6.1",
      "externalReferences": [
        {
          "url": "https://github.com/phpDocumentor/TypeResolver.git",
          "type": "distribution",
          "comment": "As detected by composer's `getSourceUrls()` (type=git & reference=77a32518733312af16a44300404e945338981de3)"
        },
        {
          "url": "https://api.github.com/repos/phpDocumentor/TypeResolver/zipball/77a32518733312af16a44300404e945338981de3",
          "type": "distribution",
          "comment": "As detected by composer's `getDistUrls()` (type=zip & reference=77a32518733312af16a44300404e945338981de3 & sha1=UNDEFINED)"
        },
        {
          "url": "https://github.com/phpDocumentor/TypeResolver/issues",
          "type": "issue-tracker",
          "comment": "As set via `support.issues` in composer package definition."
        },
        {
          "url": "https://github.com/phpDocumentor/TypeResolver/tree/1.6.1",
          "type": "distribution",
          "comment": "As set via `support.source` in composer package definition."
        }
      ]
    },
    {
      "type": "library",
      "bom-ref": "pkg:composer/phplang/scope-exit@1.0.0",
      "group": "phplang",
      "name": "scope-exit",
      "version": "1.0.0",
      "description": "Emulation of SCOPE_EXIT construct from C++",
      "licenses": [
        {
          "license": {
            "name": "BSD"
          }
        }
      ],
      "purl": "pkg:composer/phplang/scope-exit@1.0.0",
      "externalReferences": [
        {
          "url": "https://github.com/phplang/scope-exit.git",
          "type": "distribution",
          "comment": "As detected by composer's `getSourceUrls()` (type=git & reference=239b73abe89f9414aa85a7ca075ec9445629192b)"
        },
        {
          "url": "https://api.github.com/repos/phplang/scope-exit/zipball/239b73abe89f9414aa85a7ca075ec9445629192b",
          "type": "distribution",
          "comment": "As detected by composer's `getDistUrls()` (type=zip & reference=239b73abe89f9414aa85a7ca075ec9445629192b & sha1=UNDEFINED)"
        },
        {
          "url": "https://github.com/phplang/scope-exit",
          "type": "website",
          "comment": "As set via `homepage` in composer package definition."
        },
        {
          "url": "https://github.com/phplang/scope-exit/issues",
          "type": "issue-tracker",
          "comment": "As set via `support.issues` in composer package definition."
        },
        {
          "url": "https://github.com/phplang/scope-exit/tree/master",
          "type": "distribution",
          "comment": "As set via `support.source` in composer package definition."
        }
      ]
    },
    {
      "type": "library",
      "bom-ref": "pkg:composer/phpspec/prophecy@1.15.0",
      "group": "phpspec",
      "name": "prophecy",
      "version": "1.15.0",
      "description": "Highly opinionated mocking framework for PHP 5.3+",
      "licenses": [
        {
          "license": {
            "id": "MIT"
          }
        }
      ],
      "purl": "pkg:composer/phpspec/prophecy@1.15.0",
      "externalReferences": [
        {
          "url": "https://github.com/phpspec/prophecy.git",
          "type": "distribution",
          "comment": "As detected by composer's `getSourceUrls()` (type=git & reference=bbcd7380b0ebf3961ee21409db7b38bc31d69a13)"
        },
        {
          "url": "https://api.github.com/repos/phpspec/prophecy/zipball/bbcd7380b0ebf3961ee21409db7b38bc31d69a13",
          "type": "distribution",
          "comment": "As detected by composer's `getDistUrls()` (type=zip & reference=bbcd7380b0ebf3961ee21409db7b38bc31d69a13 & sha1=UNDEFINED)"
        },
        {
          "url": "https://github.com/phpspec/prophecy",
          "type": "website",
          "comment": "As set via `homepage` in composer package definition."
        },
        {
          "url": "https://github.com/phpspec/prophecy/issues",
          "type": "issue-tracker",
          "comment": "As set via `support.issues` in composer package definition."
        },
        {
          "url": "https://github.com/phpspec/prophecy/tree/v1.15.0",
          "type": "distribution",
          "comment": "As set via `support.source` in composer package definition."
        }
      ]
    },
    {
      "type": "library",
      "bom-ref": "pkg:composer/phpunit/php-code-coverage@9.2.15",
      "group": "phpunit",
      "name": "php-code-coverage",
      "version": "9.2.15",
      "description": "Library that provides collection, processing, and rendering functionality for PHP code coverage information.",
      "licenses": [
        {
          "license": {
            "id": "BSD-3-Clause"
          }
        }
      ],
      "purl": "pkg:composer/phpunit/php-code-coverage@9.2.15",
      "externalReferences": [
        {
          "url": "https://github.com/sebastianbergmann/php-code-coverage.git",
          "type": "distribution",
          "comment": "As detected by composer's `getSourceUrls()` (type=git & reference=2e9da11878c4202f97915c1cb4bb1ca318a63f5f)"
        },
        {
          "url": "https://api.github.com/repos/sebastianbergmann/php-code-coverage/zipball/2e9da11878c4202f97915c1cb4bb1ca318a63f5f",
          "type": "distribution",
          "comment": "As detected by composer's `getDistUrls()` (type=zip & reference=2e9da11878c4202f97915c1cb4bb1ca318a63f5f & sha1=UNDEFINED)"
        },
        {
          "url": "https://github.com/sebastianbergmann/php-code-coverage",
          "type": "website",
          "comment": "As set via `homepage` in composer package definition."
        },
        {
          "url": "https://github.com/sebastianbergmann/php-code-coverage/issues",
          "type": "issue-tracker",
          "comment": "As set via `support.issues` in composer package definition."
        },
        {
          "url": "https://github.com/sebastianbergmann/php-code-coverage/tree/9.2.15",
          "type": "distribution",
          "comment": "As set via `support.source` in composer package definition."
        },
        {
          "url": "https://github.com/sebastianbergmann",
          "type": "other",
          "comment": "As set via `funding` in composer package definition. (type=github)"
        }
      ]
    },
    {
      "type": "library",
      "bom-ref": "pkg:composer/phpunit/php-file-iterator@3.0.6",
      "group": "phpunit",
      "name": "php-file-iterator",
      "version": "3.0.6",
      "description": "FilterIterator implementation that filters files based on a list of suffixes.",
      "licenses": [
        {
          "license": {
            "id": "BSD-3-Clause"
          }
        }
      ],
      "purl": "pkg:composer/phpunit/php-file-iterator@3.0.6",
      "externalReferences": [
        {
          "url": "https://github.com/sebastianbergmann/php-file-iterator.git",
          "type": "distribution",
          "comment": "As detected by composer's `getSourceUrls()` (type=git & reference=cf1c2e7c203ac650e352f4cc675a7021e7d1b3cf)"
        },
        {
          "url": "https://api.github.com/repos/sebastianbergmann/php-file-iterator/zipball/cf1c2e7c203ac650e352f4cc675a7021e7d1b3cf",
          "type": "distribution",
          "comment": "As detected by composer's `getDistUrls()` (type=zip & reference=cf1c2e7c203ac650e352f4cc675a7021e7d1b3cf & sha1=UNDEFINED)"
        },
        {
          "url": "https://github.com/sebastianbergmann/php-file-iterator/",
          "type": "website",
          "comment": "As set via `homepage` in composer package definition."
        },
        {
          "url": "https://github.com/sebastianbergmann/php-file-iterator/issues",
          "type": "issue-tracker",
          "comment": "As set via `support.issues` in composer package definition."
        },
        {
          "url": "https://github.com/sebastianbergmann/php-file-iterator/tree/3.0.6",
          "type": "distribution",
          "comment": "As set via `support.source` in composer package definition."
        },
        {
          "url": "https://github.com/sebastianbergmann",
          "type": "other",
          "comment": "As set via `funding` in composer package definition. (type=github)"
        }
      ]
    },
    {
      "type": "library",
      "bom-ref": "pkg:composer/phpunit/php-invoker@3.1.1",
      "group": "phpunit",
      "name": "php-invoker",
      "version": "3.1.1",
      "description": "Invoke callables with a timeout",
      "licenses": [
        {
          "license": {
            "id": "BSD-3-Clause"
          }
        }
      ],
      "purl": "pkg:composer/phpunit/php-invoker@3.1.1",
      "externalReferences": [
        {
          "url": "https://github.com/sebastianbergmann/php-invoker.git",
          "type": "distribution",
          "comment": "As detected by composer's `getSourceUrls()` (type=git & reference=5a10147d0aaf65b58940a0b72f71c9ac0423cc67)"
        },
        {
          "url": "https://api.github.com/repos/sebastianbergmann/php-invoker/zipball/5a10147d0aaf65b58940a0b72f71c9ac0423cc67",
          "type": "distribution",
          "comment": "As detected by composer's `getDistUrls()` (type=zip & reference=5a10147d0aaf65b58940a0b72f71c9ac0423cc67 & sha1=UNDEFINED)"
        },
        {
          "url": "https://github.com/sebastianbergmann/php-invoker/",
          "type": "website",
          "comment": "As set via `homepage` in composer package definition."
        },
        {
          "url": "https://github.com/sebastianbergmann/php-invoker/issues",
          "type": "issue-tracker",
          "comment": "As set via `support.issues` in composer package definition."
        },
        {
          "url": "https://github.com/sebastianbergmann/php-invoker/tree/3.1.1",
          "type": "distribution",
          "comment": "As set via `support.source` in composer package definition."
        },
        {
          "url": "https://github.com/sebastianbergmann",
          "type": "other",
          "comment": "As set via `funding` in composer package definition. (type=github)"
        }
      ]
    },
    {
      "type": "library",
      "bom-ref": "pkg:composer/phpunit/php-text-template@2.0.4",
      "group": "phpunit",
      "name": "php-text-template",
      "version": "2.0.4",
      "description": "Simple template engine.",
      "licenses": [
        {
          "license": {
            "id": "BSD-3-Clause"
          }
        }
      ],
      "purl": "pkg:composer/phpunit/php-text-template@2.0.4",
      "externalReferences": [
        {
          "url": "https://github.com/sebastianbergmann/php-text-template.git",
          "type": "distribution",
          "comment": "As detected by composer's `getSourceUrls()` (type=git & reference=5da5f67fc95621df9ff4c4e5a84d6a8a2acf7c28)"
        },
        {
          "url": "https://api.github.com/repos/sebastianbergmann/php-text-template/zipball/5da5f67fc95621df9ff4c4e5a84d6a8a2acf7c28",
          "type": "distribution",
          "comment": "As detected by composer's `getDistUrls()` (type=zip & reference=5da5f67fc95621df9ff4c4e5a84d6a8a2acf7c28 & sha1=UNDEFINED)"
        },
        {
          "url": "https://github.com/sebastianbergmann/php-text-template/",
          "type": "website",
          "comment": "As set via `homepage` in composer package definition."
        },
        {
          "url": "https://github.com/sebastianbergmann/php-text-template/issues",
          "type": "issue-tracker",
          "comment": "As set via `support.issues` in composer package definition."
        },
        {
          "url": "https://github.com/sebastianbergmann/php-text-template/tree/2.0.4",
          "type": "distribution",
          "comment": "As set via `support.source` in composer package definition."
        },
        {
          "url": "https://github.com/sebastianbergmann",
          "type": "other",
          "comment": "As set via `funding` in composer package definition. (type=github)"
        }
      ]
    },
    {
      "type": "library",
      "bom-ref": "pkg:composer/phpunit/php-timer@5.0.3",
      "group": "phpunit",
      "name": "php-timer",
      "version": "5.0.3",
      "description": "Utility class for timing",
      "licenses": [
        {
          "license": {
            "id": "BSD-3-Clause"
          }
        }
      ],
      "purl": "pkg:composer/phpunit/php-timer@5.0.3",
      "externalReferences": [
        {
          "url": "https://github.com/sebastianbergmann/php-timer.git",
          "type": "distribution",
          "comment": "As detected by composer's `getSourceUrls()` (type=git & reference=5a63ce20ed1b5bf577850e2c4e87f4aa902afbd2)"
        },
        {
          "url": "https://api.github.com/repos/sebastianbergmann/php-timer/zipball/5a63ce20ed1b5bf577850e2c4e87f4aa902afbd2",
          "type": "distribution",
          "comment": "As detected by composer's `getDistUrls()` (type=zip & reference=5a63ce20ed1b5bf577850e2c4e87f4aa902afbd2 & sha1=UNDEFINED)"
        },
        {
          "url": "https://github.com/sebastianbergmann/php-timer/",
          "type": "website",
          "comment": "As set via `homepage` in composer package definition."
        },
        {
          "url": "https://github.com/sebastianbergmann/php-timer/issues",
          "type": "issue-tracker",
          "comment": "As set via `support.issues` in composer package definition."
        },
        {
          "url": "https://github.com/sebastianbergmann/php-timer/tree/5.0.3",
          "type": "distribution",
          "comment": "As set via `support.source` in composer package definition."
        },
        {
          "url": "https://github.com/sebastianbergmann",
          "type": "other",
          "comment": "As set via `funding` in composer package definition. (type=github)"
        }
      ]
    },
    {
      "type": "library",
      "bom-ref": "pkg:composer/phpunit/phpunit@9.5.20",
      "group": "phpunit",
      "name": "phpunit",
      "version": "9.5.20",
      "description": "The PHP Unit Testing framework.",
      "licenses": [
        {
          "license": {
            "id": "BSD-3-Clause"
          }
        }
      ],
      "purl": "pkg:composer/phpunit/phpunit@9.5.20",
      "externalReferences": [
        {
          "url": "https://github.com/sebastianbergmann/phpunit.git",
          "type": "distribution",
          "comment": "As detected by composer's `getSourceUrls()` (type=git & reference=12bc8879fb65aef2138b26fc633cb1e3620cffba)"
        },
        {
          "url": "https://api.github.com/repos/sebastianbergmann/phpunit/zipball/12bc8879fb65aef2138b26fc633cb1e3620cffba",
          "type": "distribution",
          "comment": "As detected by composer's `getDistUrls()` (type=zip & reference=12bc8879fb65aef2138b26fc633cb1e3620cffba & sha1=UNDEFINED)"
        },
        {
          "url": "https://phpunit.de/",
          "type": "website",
          "comment": "As set via `homepage` in composer package definition."
        },
        {
          "url": "https://github.com/sebastianbergmann/phpunit/issues",
          "type": "issue-tracker",
          "comment": "As set via `support.issues` in composer package definition."
        },
        {
          "url": "https://github.com/sebastianbergmann/phpunit/tree/9.5.20",
          "type": "distribution",
          "comment": "As set via `support.source` in composer package definition."
        },
        {
          "url": "https://phpunit.de/sponsors.html",
          "type": "other",
          "comment": "As set via `funding` in composer package definition. (type=custom)"
        },
        {
          "url": "https://github.com/sebastianbergmann",
          "type": "other",
          "comment": "As set via `funding` in composer package definition. (type=github)"
        }
      ]
    },
    {
      "type": "library",
      "bom-ref": "pkg:composer/sebastian/cli-parser@1.0.1",
      "group": "sebastian",
      "name": "cli-parser",
      "version": "1.0.1",
      "description": "Library for parsing CLI options",
      "licenses": [
        {
          "license": {
            "id": "BSD-3-Clause"
          }
        }
      ],
      "purl": "pkg:composer/sebastian/cli-parser@1.0.1",
      "externalReferences": [
        {
          "url": "https://github.com/sebastianbergmann/cli-parser.git",
          "type": "distribution",
          "comment": "As detected by composer's `getSourceUrls()` (type=git & reference=442e7c7e687e42adc03470c7b668bc4b2402c0b2)"
        },
        {
          "url": "https://api.github.com/repos/sebastianbergmann/cli-parser/zipball/442e7c7e687e42adc03470c7b668bc4b2402c0b2",
          "type": "distribution",
          "comment": "As detected by composer's `getDistUrls()` (type=zip & reference=442e7c7e687e42adc03470c7b668bc4b2402c0b2 & sha1=UNDEFINED)"
        },
        {
          "url": "https://github.com/sebastianbergmann/cli-parser",
          "type": "website",
          "comment": "As set via `homepage` in composer package definition."
        },
        {
          "url": "https://github.com/sebastianbergmann/cli-parser/issues",
          "type": "issue-tracker",
          "comment": "As set via `support.issues` in composer package definition."
        },
        {
          "url": "https://github.com/sebastianbergmann/cli-parser/tree/1.0.1",
          "type": "distribution",
          "comment": "As set via `support.source` in composer package definition."
        },
        {
          "url": "https://github.com/sebastianbergmann",
          "type": "other",
          "comment": "As set via `funding` in composer package definition. (type=github)"
        }
      ]
    },
    {
      "type": "library",
      "bom-ref": "pkg:composer/sebastian/code-unit@1.0.8",
      "group": "sebastian",
      "name": "code-unit",
      "version": "1.0.8",
      "description": "Collection of value objects that represent the PHP code units",
      "licenses": [
        {
          "license": {
            "id": "BSD-3-Clause"
          }
        }
      ],
      "purl": "pkg:composer/sebastian/code-unit@1.0.8",
      "externalReferences": [
        {
          "url": "https://github.com/sebastianbergmann/code-unit.git",
          "type": "distribution",
          "comment": "As detected by composer's `getSourceUrls()` (type=git & reference=1fc9f64c0927627ef78ba436c9b17d967e68e120)"
        },
        {
          "url": "https://api.github.com/repos/sebastianbergmann/code-unit/zipball/1fc9f64c0927627ef78ba436c9b17d967e68e120",
          "type": "distribution",
          "comment": "As detected by composer's `getDistUrls()` (type=zip & reference=1fc9f64c0927627ef78ba436c9b17d967e68e120 & sha1=UNDEFINED)"
        },
        {
          "url": "https://github.com/sebastianbergmann/code-unit",
          "type": "website",
          "comment": "As set via `homepage` in composer package definition."
        },
        {
          "url": "https://github.com/sebastianbergmann/code-unit/issues",
          "type": "issue-tracker",
          "comment": "As set via `support.issues` in composer package definition."
        },
        {
          "url": "https://github.com/sebastianbergmann/code-unit/tree/1.0.8",
          "type": "distribution",
          "comment": "As set via `support.source` in composer package definition."
        },
        {
          "url": "https://github.com/sebastianbergmann",
          "type": "other",
          "comment": "As set via `funding` in composer package definition. (type=github)"
        }
      ]
    },
    {
      "type": "library",
      "bom-ref": "pkg:composer/sebastian/code-unit-reverse-lookup@2.0.3",
      "group": "sebastian",
      "name": "code-unit-reverse-lookup",
      "version": "2.0.3",
      "description": "Looks up which function or method a line of code belongs to",
      "licenses": [
        {
          "license": {
            "id": "BSD-3-Clause"
          }
        }
      ],
      "purl": "pkg:composer/sebastian/code-unit-reverse-lookup@2.0.3",
      "externalReferences": [
        {
          "url": "https://github.com/sebastianbergmann/code-unit-reverse-lookup.git",
          "type": "distribution",
          "comment": "As detected by composer's `getSourceUrls()` (type=git & reference=ac91f01ccec49fb77bdc6fd1e548bc70f7faa3e5)"
        },
        {
          "url": "https://api.github.com/repos/sebastianbergmann/code-unit-reverse-lookup/zipball/ac91f01ccec49fb77bdc6fd1e548bc70f7faa3e5",
          "type": "distribution",
          "comment": "As detected by composer's `getDistUrls()` (type=zip & reference=ac91f01ccec49fb77bdc6fd1e548bc70f7faa3e5 & sha1=UNDEFINED)"
        },
        {
          "url": "https://github.com/sebastianbergmann/code-unit-reverse-lookup/",
          "type": "website",
          "comment": "As set via `homepage` in composer package definition."
        },
        {
          "url": "https://github.com/sebastianbergmann/code-unit-reverse-lookup/issues",
          "type": "issue-tracker",
          "comment": "As set via `support.issues` in composer package definition."
        },
        {
          "url": "https://github.com/sebastianbergmann/code-unit-reverse-lookup/tree/2.0.3",
          "type": "distribution",
          "comment": "As set via `support.source` in composer package definition."
        },
        {
          "url": "https://github.com/sebastianbergmann",
          "type": "other",
          "comment": "As set via `funding` in composer package definition. (type=github)"
        }
      ]
    },
    {
      "type": "library",
      "bom-ref": "pkg:composer/sebastian/comparator@4.0.6",
      "group": "sebastian",
      "name": "comparator",
      "version": "4.0.6",
      "description": "Provides the functionality to compare PHP values for equality",
      "licenses": [
        {
          "license": {
            "id": "BSD-3-Clause"
          }
        }
      ],
      "purl": "pkg:composer/sebastian/comparator@4.0.6",
      "externalReferences": [
        {
          "url": "https://github.com/sebastianbergmann/comparator.git",
          "type": "distribution",
          "comment": "As detected by composer's `getSourceUrls()` (type=git & reference=55f4261989e546dc112258c7a75935a81a7ce382)"
        },
        {
          "url": "https://api.github.com/repos/sebastianbergmann/comparator/zipball/55f4261989e546dc112258c7a75935a81a7ce382",
          "type": "distribution",
          "comment": "As detected by composer's `getDistUrls()` (type=zip & reference=55f4261989e546dc112258c7a75935a81a7ce382 & sha1=UNDEFINED)"
        },
        {
          "url": "https://github.com/sebastianbergmann/comparator",
          "type": "website",
          "comment": "As set via `homepage` in composer package definition."
        },
        {
          "url": "https://github.com/sebastianbergmann/comparator/issues",
          "type": "issue-tracker",
          "comment": "As set via `support.issues` in composer package definition."
        },
        {
          "url": "https://github.com/sebastianbergmann/comparator/tree/4.0.6",
          "type": "distribution",
          "comment": "As set via `support.source` in composer package definition."
        },
        {
          "url": "https://github.com/sebastianbergmann",
          "type": "other",
          "comment": "As set via `funding` in composer package definition. (type=github)"
        }
      ]
    },
    {
      "type": "library",
      "bom-ref": "pkg:composer/sebastian/complexity@2.0.2",
      "group": "sebastian",
      "name": "complexity",
      "version": "2.0.2",
      "description": "Library for calculating the complexity of PHP code units",
      "licenses": [
        {
          "license": {
            "id": "BSD-3-Clause"
          }
        }
      ],
      "purl": "pkg:composer/sebastian/complexity@2.0.2",
      "externalReferences": [
        {
          "url": "https://github.com/sebastianbergmann/complexity.git",
          "type": "distribution",
          "comment": "As detected by composer's `getSourceUrls()` (type=git & reference=739b35e53379900cc9ac327b2147867b8b6efd88)"
        },
        {
          "url": "https://api.github.com/repos/sebastianbergmann/complexity/zipball/739b35e53379900cc9ac327b2147867b8b6efd88",
          "type": "distribution",
          "comment": "As detected by composer's `getDistUrls()` (type=zip & reference=739b35e53379900cc9ac327b2147867b8b6efd88 & sha1=UNDEFINED)"
        },
        {
          "url": "https://github.com/sebastianbergmann/complexity",
          "type": "website",
          "comment": "As set via `homepage` in composer package definition."
        },
        {
          "url": "https://github.com/sebastianbergmann/complexity/issues",
          "type": "issue-tracker",
          "comment": "As set via `support.issues` in composer package definition."
        },
        {
          "url": "https://github.com/sebastianbergmann/complexity/tree/2.0.2",
          "type": "distribution",
          "comment": "As set via `support.source` in composer package definition."
        },
        {
          "url": "https://github.com/sebastianbergmann",
          "type": "other",
          "comment": "As set via `funding` in composer package definition. (type=github)"
        }
      ]
    },
    {
      "type": "library",
      "bom-ref": "pkg:composer/sebastian/diff@4.0.4",
      "group": "sebastian",
      "name": "diff",
      "version": "4.0.4",
      "description": "Diff implementation",
      "licenses": [
        {
          "license": {
            "id": "BSD-3-Clause"
          }
        }
      ],
      "purl": "pkg:composer/sebastian/diff@4.0.4",
      "externalReferences": [
        {
          "url": "https://github.com/sebastianbergmann/diff.git",
          "type": "distribution",
          "comment": "As detected by composer's `getSourceUrls()` (type=git & reference=3461e3fccc7cfdfc2720be910d3bd73c69be590d)"
        },
        {
          "url": "https://api.github.com/repos/sebastianbergmann/diff/zipball/3461e3fccc7cfdfc2720be910d3bd73c69be590d",
          "type": "distribution",
          "comment": "As detected by composer's `getDistUrls()` (type=zip & reference=3461e3fccc7cfdfc2720be910d3bd73c69be590d & sha1=UNDEFINED)"
        },
        {
          "url": "https://github.com/sebastianbergmann/diff",
          "type": "website",
          "comment": "As set via `homepage` in composer package definition."
        },
        {
          "url": "https://github.com/sebastianbergmann/diff/issues",
          "type": "issue-tracker",
          "comment": "As set via `support.issues` in composer package definition."
        },
        {
          "url": "https://github.com/sebastianbergmann/diff/tree/4.0.4",
          "type": "distribution",
          "comment": "As set via `support.source` in composer package definition."
        },
        {
          "url": "https://github.com/sebastianbergmann",
          "type": "other",
          "comment": "As set via `funding` in composer package definition. (type=github)"
        }
      ]
    },
    {
      "type": "library",
      "bom-ref": "pkg:composer/sebastian/environment@5.1.4",
      "group": "sebastian",
      "name": "environment",
      "version": "5.1.4",
      "description": "Provides functionality to handle HHVM/PHP environments",
      "licenses": [
        {
          "license": {
            "id": "BSD-3-Clause"
          }
        }
      ],
      "purl": "pkg:composer/sebastian/environment@5.1.4",
      "externalReferences": [
        {
          "url": "https://github.com/sebastianbergmann/environment.git",
          "type": "distribution",
          "comment": "As detected by composer's `getSourceUrls()` (type=git & reference=1b5dff7bb151a4db11d49d90e5408e4e938270f7)"
        },
        {
          "url": "https://api.github.com/repos/sebastianbergmann/environment/zipball/1b5dff7bb151a4db11d49d90e5408e4e938270f7",
          "type": "distribution",
          "comment": "As detected by composer's `getDistUrls()` (type=zip & reference=1b5dff7bb151a4db11d49d90e5408e4e938270f7 & sha1=UNDEFINED)"
        },
        {
          "url": "http://www.github.com/sebastianbergmann/environment",
          "type": "website",
          "comment": "As set via `homepage` in composer package definition."
        },
        {
          "url": "https://github.com/sebastianbergmann/environment/issues",
          "type": "issue-tracker",
          "comment": "As set via `support.issues` in composer package definition."
        },
        {
          "url": "https://github.com/sebastianbergmann/environment/tree/5.1.4",
          "type": "distribution",
          "comment": "As set via `support.source` in composer package definition."
        },
        {
          "url": "https://github.com/sebastianbergmann",
          "type": "other",
          "comment": "As set via `funding` in composer package definition. (type=github)"
        }
      ]
    },
    {
      "type": "library",
      "bom-ref": "pkg:composer/sebastian/exporter@4.0.4",
      "group": "sebastian",
      "name": "exporter",
      "version": "4.0.4",
      "description": "Provides the functionality to export PHP variables for visualization",
      "licenses": [
        {
          "license": {
            "id": "BSD-3-Clause"
          }
        }
      ],
      "purl": "pkg:composer/sebastian/exporter@4.0.4",
      "externalReferences": [
        {
          "url": "https://github.com/sebastianbergmann/exporter.git",
          "type": "distribution",
          "comment": "As detected by composer's `getSourceUrls()` (type=git & reference=65e8b7db476c5dd267e65eea9cab77584d3cfff9)"
        },
        {
          "url": "https://api.github.com/repos/sebastianbergmann/exporter/zipball/65e8b7db476c5dd267e65eea9cab77584d3cfff9",
          "type": "distribution",
          "comment": "As detected by composer's `getDistUrls()` (type=zip & reference=65e8b7db476c5dd267e65eea9cab77584d3cfff9 & sha1=UNDEFINED)"
        },
        {
          "url": "https://www.github.com/sebastianbergmann/exporter",
          "type": "website",
          "comment": "As set via `homepage` in composer package definition."
        },
        {
          "url": "https://github.com/sebastianbergmann/exporter/issues",
          "type": "issue-tracker",
          "comment": "As set via `support.issues` in composer package definition."
        },
        {
          "url": "https://github.com/sebastianbergmann/exporter/tree/4.0.4",
          "type": "distribution",
          "comment": "As set via `support.source` in composer package definition."
        },
        {
          "url": "https://github.com/sebastianbergmann",
          "type": "other",
          "comment": "As set via `funding` in composer package definition. (type=github)"
        }
      ]
    },
    {
      "type": "library",
      "bom-ref": "pkg:composer/sebastian/global-state@5.0.5",
      "group": "sebastian",
      "name": "global-state",
      "version": "5.0.5",
      "description": "Snapshotting of global state",
      "licenses": [
        {
          "license": {
            "id": "BSD-3-Clause"
          }
        }
      ],
      "purl": "pkg:composer/sebastian/global-state@5.0.5",
      "externalReferences": [
        {
          "url": "https://github.com/sebastianbergmann/global-state.git",
          "type": "distribution",
          "comment": "As detected by composer's `getSourceUrls()` (type=git & reference=0ca8db5a5fc9c8646244e629625ac486fa286bf2)"
        },
        {
          "url": "https://api.github.com/repos/sebastianbergmann/global-state/zipball/0ca8db5a5fc9c8646244e629625ac486fa286bf2",
          "type": "distribution",
          "comment": "As detected by composer's `getDistUrls()` (type=zip & reference=0ca8db5a5fc9c8646244e629625ac486fa286bf2 & sha1=UNDEFINED)"
        },
        {
          "url": "http://www.github.com/sebastianbergmann/global-state",
          "type": "website",
          "comment": "As set via `homepage` in composer package definition."
        },
        {
          "url": "https://github.com/sebastianbergmann/global-state/issues",
          "type": "issue-tracker",
          "comment": "As set via `support.issues` in composer package definition."
        },
        {
          "url": "https://github.com/sebastianbergmann/global-state/tree/5.0.5",
          "type": "distribution",
          "comment": "As set via `support.source` in composer package definition."
        },
        {
          "url": "https://github.com/sebastianbergmann",
          "type": "other",
          "comment": "As set via `funding` in composer package definition. (type=github)"
        }
      ]
    },
    {
      "type": "library",
      "bom-ref": "pkg:composer/sebastian/lines-of-code@1.0.3",
      "group": "sebastian",
      "name": "lines-of-code",
      "version": "1.0.3",
      "description": "Library for counting the lines of code in PHP source code",
      "licenses": [
        {
          "license": {
            "id": "BSD-3-Clause"
          }
        }
      ],
      "purl": "pkg:composer/sebastian/lines-of-code@1.0.3",
      "externalReferences": [
        {
          "url": "https://github.com/sebastianbergmann/lines-of-code.git",
          "type": "distribution",
          "comment": "As detected by composer's `getSourceUrls()` (type=git & reference=c1c2e997aa3146983ed888ad08b15470a2e22ecc)"
        },
        {
          "url": "https://api.github.com/repos/sebastianbergmann/lines-of-code/zipball/c1c2e997aa3146983ed888ad08b15470a2e22ecc",
          "type": "distribution",
          "comment": "As detected by composer's `getDistUrls()` (type=zip & reference=c1c2e997aa3146983ed888ad08b15470a2e22ecc & sha1=UNDEFINED)"
        },
        {
          "url": "https://github.com/sebastianbergmann/lines-of-code",
          "type": "website",
          "comment": "As set via `homepage` in composer package definition."
        },
        {
          "url": "https://github.com/sebastianbergmann/lines-of-code/issues",
          "type": "issue-tracker",
          "comment": "As set via `support.issues` in composer package definition."
        },
        {
          "url": "https://github.com/sebastianbergmann/lines-of-code/tree/1.0.3",
          "type": "distribution",
          "comment": "As set via `support.source` in composer package definition."
        },
        {
          "url": "https://github.com/sebastianbergmann",
          "type": "other",
          "comment": "As set via `funding` in composer package definition. (type=github)"
        }
      ]
    },
    {
      "type": "library",
      "bom-ref": "pkg:composer/sebastian/object-enumerator@4.0.4",
      "group": "sebastian",
      "name": "object-enumerator",
      "version": "4.0.4",
      "description": "Traverses array structures and object graphs to enumerate all referenced objects",
      "licenses": [
        {
          "license": {
            "id": "BSD-3-Clause"
          }
        }
      ],
      "purl": "pkg:composer/sebastian/object-enumerator@4.0.4",
      "externalReferences": [
        {
          "url": "https://github.com/sebastianbergmann/object-enumerator.git",
          "type": "distribution",
          "comment": "As detected by composer's `getSourceUrls()` (type=git & reference=5c9eeac41b290a3712d88851518825ad78f45c71)"
        },
        {
          "url": "https://api.github.com/repos/sebastianbergmann/object-enumerator/zipball/5c9eeac41b290a3712d88851518825ad78f45c71",
          "type": "distribution",
          "comment": "As detected by composer's `getDistUrls()` (type=zip & reference=5c9eeac41b290a3712d88851518825ad78f45c71 & sha1=UNDEFINED)"
        },
        {
          "url": "https://github.com/sebastianbergmann/object-enumerator/",
          "type": "website",
          "comment": "As set via `homepage` in composer package definition."
        },
        {
          "url": "https://github.com/sebastianbergmann/object-enumerator/issues",
          "type": "issue-tracker",
          "comment": "As set via `support.issues` in composer package definition."
        },
        {
          "url": "https://github.com/sebastianbergmann/object-enumerator/tree/4.0.4",
          "type": "distribution",
          "comment": "As set via `support.source` in composer package definition."
        },
        {
          "url": "https://github.com/sebastianbergmann",
          "type": "other",
          "comment": "As set via `funding` in composer package definition. (type=github)"
        }
      ]
    },
    {
      "type": "library",
      "bom-ref": "pkg:composer/sebastian/object-reflector@2.0.4",
      "group": "sebastian",
      "name": "object-reflector",
      "version": "2.0.4",
      "description": "Allows reflection of object attributes, including inherited and non-public ones",
      "licenses": [
        {
          "license": {
            "id": "BSD-3-Clause"
          }
        }
      ],
      "purl": "pkg:composer/sebastian/object-reflector@2.0.4",
      "externalReferences": [
        {
          "url": "https://github.com/sebastianbergmann/object-reflector.git",
          "type": "distribution",
          "comment": "As detected by composer's `getSourceUrls()` (type=git & reference=b4f479ebdbf63ac605d183ece17d8d7fe49c15c7)"
        },
        {
          "url": "https://api.github.com/repos/sebastianbergmann/object-reflector/zipball/b4f479ebdbf63ac605d183ece17d8d7fe49c15c7",
          "type": "distribution",
          "comment": "As detected by composer's `getDistUrls()` (type=zip & reference=b4f479ebdbf63ac605d183ece17d8d7fe49c15c7 & sha1=UNDEFINED)"
        },
        {
          "url": "https://github.com/sebastianbergmann/object-reflector/",
          "type": "website",
          "comment": "As set via `homepage` in composer package definition."
        },
        {
          "url": "https://github.com/sebastianbergmann/object-reflector/issues",
          "type": "issue-tracker",
          "comment": "As set via `support.issues` in composer package definition."
        },
        {
          "url": "https://github.com/sebastianbergmann/object-reflector/tree/2.0.4",
          "type": "distribution",
          "comment": "As set via `support.source` in composer package definition."
        },
        {
          "url": "https://github.com/sebastianbergmann",
          "type": "other",
          "comment": "As set via `funding` in composer package definition. (type=github)"
        }
      ]
    },
    {
      "type": "library",
      "bom-ref": "pkg:composer/sebastian/recursion-context@4.0.4",
      "group": "sebastian",
      "name": "recursion-context",
      "version": "4.0.4",
      "description": "Provides functionality to recursively process PHP variables",
      "licenses": [
        {
          "license": {
            "id": "BSD-3-Clause"
          }
        }
      ],
      "purl": "pkg:composer/sebastian/recursion-context@4.0.4",
      "externalReferences": [
        {
          "url": "https://github.com/sebastianbergmann/recursion-context.git",
          "type": "distribution",
          "comment": "As detected by composer's `getSourceUrls()` (type=git & reference=cd9d8cf3c5804de4341c283ed787f099f5506172)"
        },
        {
          "url": "https://api.github.com/repos/sebastianbergmann/recursion-context/zipball/cd9d8cf3c5804de4341c283ed787f099f5506172",
          "type": "distribution",
          "comment": "As detected by composer's `getDistUrls()` (type=zip & reference=cd9d8cf3c5804de4341c283ed787f099f5506172 & sha1=UNDEFINED)"
        },
        {
          "url": "http://www.github.com/sebastianbergmann/recursion-context",
          "type": "website",
          "comment": "As set via `homepage` in composer package definition."
        },
        {
          "url": "https://github.com/sebastianbergmann/recursion-context/issues",
          "type": "issue-tracker",
          "comment": "As set via `support.issues` in composer package definition."
        },
        {
          "url": "https://github.com/sebastianbergmann/recursion-context/tree/4.0.4",
          "type": "distribution",
          "comment": "As set via `support.source` in composer package definition."
        },
        {
          "url": "https://github.com/sebastianbergmann",
          "type": "other",
          "comment": "As set via `funding` in composer package definition. (type=github)"
        }
      ]
    },
    {
      "type": "library",
      "bom-ref": "pkg:composer/sebastian/resource-operations@3.0.3",
      "group": "sebastian",
      "name": "resource-operations",
      "version": "3.0.3",
      "description": "Provides a list of PHP built-in functions that operate on resources",
      "licenses": [
        {
          "license": {
            "id": "BSD-3-Clause"
          }
        }
      ],
      "purl": "pkg:composer/sebastian/resource-operations@3.0.3",
      "externalReferences": [
        {
          "url": "https://github.com/sebastianbergmann/resource-operations.git",
          "type": "distribution",
          "comment": "As detected by composer's `getSourceUrls()` (type=git & reference=0f4443cb3a1d92ce809899753bc0d5d5a8dd19a8)"
        },
        {
          "url": "https://api.github.com/repos/sebastianbergmann/resource-operations/zipball/0f4443cb3a1d92ce809899753bc0d5d5a8dd19a8",
          "type": "distribution",
          "comment": "As detected by composer's `getDistUrls()` (type=zip & reference=0f4443cb3a1d92ce809899753bc0d5d5a8dd19a8 & sha1=UNDEFINED)"
        },
        {
          "url": "https://www.github.com/sebastianbergmann/resource-operations",
          "type": "website",
          "comment": "As set via `homepage` in composer package definition."
        },
        {
          "url": "https://github.com/sebastianbergmann/resource-operations/issues",
          "type": "issue-tracker",
          "comment": "As set via `support.issues` in composer package definition."
        },
        {
          "url": "https://github.com/sebastianbergmann/resource-operations/tree/3.0.3",
          "type": "distribution",
          "comment": "As set via `support.source` in composer package definition."
        },
        {
          "url": "https://github.com/sebastianbergmann",
          "type": "other",
          "comment": "As set via `funding` in composer package definition. (type=github)"
        }
      ]
    },
    {
      "type": "library",
      "bom-ref": "pkg:composer/sebastian/type@3.0.0",
      "group": "sebastian",
      "name": "type",
      "version": "3.0.0",
      "description": "Collection of value objects that represent the types of the PHP type system",
      "licenses": [
        {
          "license": {
            "id": "BSD-3-Clause"
          }
        }
      ],
      "purl": "pkg:composer/sebastian/type@3.0.0",
      "externalReferences": [
        {
          "url": "https://github.com/sebastianbergmann/type.git",
          "type": "distribution",
          "comment": "As detected by composer's `getSourceUrls()` (type=git & reference=b233b84bc4465aff7b57cf1c4bc75c86d00d6dad)"
        },
        {
          "url": "https://api.github.com/repos/sebastianbergmann/type/zipball/b233b84bc4465aff7b57cf1c4bc75c86d00d6dad",
          "type": "distribution",
          "comment": "As detected by composer's `getDistUrls()` (type=zip & reference=b233b84bc4465aff7b57cf1c4bc75c86d00d6dad & sha1=UNDEFINED)"
        },
        {
          "url": "https://github.com/sebastianbergmann/type",
          "type": "website",
          "comment": "As set via `homepage` in composer package definition."
        },
        {
          "url": "https://github.com/sebastianbergmann/type/issues",
          "type": "issue-tracker",
          "comment": "As set via `support.issues` in composer package definition."
        },
        {
          "url": "https://github.com/sebastianbergmann/type/tree/3.0.0",
          "type": "distribution",
          "comment": "As set via `support.source` in composer package definition."
        },
        {
          "url": "https://github.com/sebastianbergmann",
          "type": "other",
          "comment": "As set via `funding` in composer package definition. (type=github)"
        }
      ]
    },
    {
      "type": "library",
      "bom-ref": "pkg:composer/sebastian/version@3.0.2",
      "group": "sebastian",
      "name": "version",
      "version": "3.0.2",
      "description": "Library that helps with managing the version number of Git-hosted PHP projects",
      "licenses": [
        {
          "license": {
            "id": "BSD-3-Clause"
          }
        }
      ],
      "purl": "pkg:composer/sebastian/version@3.0.2",
      "externalReferences": [
        {
          "url": "https://github.com/sebastianbergmann/version.git",
          "type": "distribution",
          "comment": "As detected by composer's `getSourceUrls()` (type=git & reference=c6c1022351a901512170118436c764e473f6de8c)"
        },
        {
          "url": "https://api.github.com/repos/sebastianbergmann/version/zipball/c6c1022351a901512170118436c764e473f6de8c",
          "type": "distribution",
          "comment": "As detected by composer's `getDistUrls()` (type=zip & reference=c6c1022351a901512170118436c764e473f6de8c & sha1=UNDEFINED)"
        },
        {
          "url": "https://github.com/sebastianbergmann/version",
          "type": "website",
          "comment": "As set via `homepage` in composer package definition."
        },
        {
          "url": "https://github.com/sebastianbergmann/version/issues",
          "type": "issue-tracker",
          "comment": "As set via `support.issues` in composer package definition."
        },
        {
          "url": "https://github.com/sebastianbergmann/version/tree/3.0.2",
          "type": "distribution",
          "comment": "As set via `support.source` in composer package definition."
        },
        {
          "url": "https://github.com/sebastianbergmann",
          "type": "other",
          "comment": "As set via `funding` in composer package definition. (type=github)"
        }
      ]
    },
    {
      "type": "library",
      "bom-ref": "pkg:composer/swaggest/json-diff@3.8.3",
      "group": "swaggest",
      "name": "json-diff",
      "version": "3.8.3",
      "description": "JSON diff/rearrange/patch/pointer library for PHP",
      "licenses": [
        {
          "license": {
            "id": "MIT"
          }
        }
      ],
      "purl": "pkg:composer/swaggest/json-diff@3.8.3",
      "externalReferences": [
        {
          "url": "https://github.com/swaggest/json-diff.git",
          "type": "distribution",
          "comment": "As detected by composer's `getSourceUrls()` (type=git & reference=bb3e3b4e9d842bb2e48f31ea568d0459968d1d42)"
        },
        {
          "url": "https://api.github.com/repos/swaggest/json-diff/zipball/bb3e3b4e9d842bb2e48f31ea568d0459968d1d42",
          "type": "distribution",
          "comment": "As detected by composer's `getDistUrls()` (type=zip & reference=bb3e3b4e9d842bb2e48f31ea568d0459968d1d42 & sha1=UNDEFINED)"
        },
        {
          "url": "https://github.com/swaggest/json-diff/issues",
          "type": "issue-tracker",
          "comment": "As set via `support.issues` in composer package definition."
        },
        {
          "url": "https://github.com/swaggest/json-diff/tree/v3.8.3",
          "type": "distribution",
          "comment": "As set via `support.source` in composer package definition."
        }
      ]
    },
    {
      "type": "library",
      "bom-ref": "pkg:composer/swaggest/json-schema@0.12.39",
      "group": "swaggest",
      "name": "json-schema",
      "version": "0.12.39",
      "description": "High definition PHP structures with JSON-schema based validation",
      "licenses": [
        {
          "license": {
            "id": "MIT"
          }
        }
      ],
      "purl": "pkg:composer/swaggest/json-schema@0.12.39",
      "externalReferences": [
        {
          "url": "https://github.com/swaggest/php-json-schema.git",
          "type": "distribution",
          "comment": "As detected by composer's `getSourceUrls()` (type=git & reference=193ba39cce1ffa2d55ddd5445315e945a63298a2)"
        },
        {
          "url": "https://api.github.com/repos/swaggest/php-json-schema/zipball/193ba39cce1ffa2d55ddd5445315e945a63298a2",
          "type": "distribution",
          "comment": "As detected by composer's `getDistUrls()` (type=zip & reference=193ba39cce1ffa2d55ddd5445315e945a63298a2 & sha1=UNDEFINED)"
        },
        {
          "url": "mailto:vearutop@gmail.com",
          "type": "other",
          "comment": "As set via `support.email` in composer package definition."
        },
        {
          "url": "https://github.com/swaggest/php-json-schema/issues",
          "type": "issue-tracker",
          "comment": "As set via `support.issues` in composer package definition."
        },
        {
          "url": "https://github.com/swaggest/php-json-schema/tree/v0.12.39",
          "type": "distribution",
          "comment": "As set via `support.source` in composer package definition."
        }
      ]
    },
    {
      "type": "library",
      "bom-ref": "pkg:composer/symfony/polyfill-ctype@1.25.0",
      "group": "symfony",
      "name": "polyfill-ctype",
      "version": "1.25.0",
      "description": "Symfony polyfill for ctype functions",
      "licenses": [
        {
          "license": {
            "id": "MIT"
          }
        }
      ],
      "purl": "pkg:composer/symfony/polyfill-ctype@1.25.0",
      "externalReferences": [
        {
          "url": "https://github.com/symfony/polyfill-ctype.git",
          "type": "distribution",
          "comment": "As detected by composer's `getSourceUrls()` (type=git & reference=30885182c981ab175d4d034db0f6f469898070ab)"
        },
        {
          "url": "https://api.github.com/repos/symfony/polyfill-ctype/zipball/30885182c981ab175d4d034db0f6f469898070ab",
          "type": "distribution",
          "comment": "As detected by composer's `getDistUrls()` (type=zip & reference=30885182c981ab175d4d034db0f6f469898070ab & sha1=UNDEFINED)"
        },
        {
          "url": "https://symfony.com",
          "type": "website",
          "comment": "As set via `homepage` in composer package definition."
        },
        {
          "url": "https://github.com/symfony/polyfill-ctype/tree/v1.25.0",
          "type": "distribution",
          "comment": "As set via `support.source` in composer package definition."
        },
        {
          "url": "https://symfony.com/sponsor",
          "type": "other",
          "comment": "As set via `funding` in composer package definition. (type=custom)"
        },
        {
          "url": "https://github.com/fabpot",
          "type": "other",
          "comment": "As set via `funding` in composer package definition. (type=github)"
        },
        {
          "url": "https://tidelift.com/funding/github/packagist/symfony/symfony",
          "type": "other",
          "comment": "As set via `funding` in composer package definition. (type=tidelift)"
        }
      ]
    },
    {
      "type": "library",
      "bom-ref": "pkg:composer/symfony/polyfill-mbstring@1.25.0",
      "group": "symfony",
      "name": "polyfill-mbstring",
      "version": "1.25.0",
      "description": "Symfony polyfill for the Mbstring extension",
      "licenses": [
        {
          "license": {
            "id": "MIT"
          }
        }
      ],
      "purl": "pkg:composer/symfony/polyfill-mbstring@1.25.0",
      "externalReferences": [
        {
          "url": "https://github.com/symfony/polyfill-mbstring.git",
          "type": "distribution",
          "comment": "As detected by composer's `getSourceUrls()` (type=git & reference=0abb51d2f102e00a4eefcf46ba7fec406d245825)"
        },
        {
          "url": "https://api.github.com/repos/symfony/polyfill-mbstring/zipball/0abb51d2f102e00a4eefcf46ba7fec406d245825",
          "type": "distribution",
          "comment": "As detected by composer's `getDistUrls()` (type=zip & reference=0abb51d2f102e00a4eefcf46ba7fec406d245825 & sha1=UNDEFINED)"
        },
        {
          "url": "https://symfony.com",
          "type": "website",
          "comment": "As set via `homepage` in composer package definition."
        },
        {
          "url": "https://github.com/symfony/polyfill-mbstring/tree/v1.25.0",
          "type": "distribution",
          "comment": "As set via `support.source` in composer package definition."
        },
        {
          "url": "https://symfony.com/sponsor",
          "type": "other",
          "comment": "As set via `funding` in composer package definition. (type=custom)"
        },
        {
          "url": "https://github.com/fabpot",
          "type": "other",
          "comment": "As set via `funding` in composer package definition. (type=github)"
        },
        {
          "url": "https://tidelift.com/funding/github/packagist/symfony/symfony",
          "type": "other",
          "comment": "As set via `funding` in composer package definition. (type=tidelift)"
        }
      ]
    },
    {
      "type": "library",
      "bom-ref": "pkg:composer/theseer/tokenizer@1.2.1",
      "group": "theseer",
      "name": "tokenizer",
      "version": "1.2.1",
      "description": "A small library for converting tokenized PHP source code into XML and potentially other formats",
      "licenses": [
        {
          "license": {
            "id": "BSD-3-Clause"
          }
        }
      ],
      "purl": "pkg:composer/theseer/tokenizer@1.2.1",
      "externalReferences": [
        {
          "url": "https://github.com/theseer/tokenizer.git",
          "type": "distribution",
          "comment": "As detected by composer's `getSourceUrls()` (type=git & reference=34a41e998c2183e22995f158c581e7b5e755ab9e)"
        },
        {
          "url": "https://api.github.com/repos/theseer/tokenizer/zipball/34a41e998c2183e22995f158c581e7b5e755ab9e",
          "type": "distribution",
          "comment": "As detected by composer's `getDistUrls()` (type=zip & reference=34a41e998c2183e22995f158c581e7b5e755ab9e & sha1=UNDEFINED)"
        },
        {
          "url": "https://github.com/theseer/tokenizer/issues",
          "type": "issue-tracker",
          "comment": "As set via `support.issues` in composer package definition."
        },
        {
          "url": "https://github.com/theseer/tokenizer/tree/1.2.1",
          "type": "distribution",
          "comment": "As set via `support.source` in composer package definition."
        },
        {
          "url": "https://github.com/theseer",
          "type": "other",
          "comment": "As set via `funding` in composer package definition. (type=github)"
        }
      ]
    },
    {
      "type": "library",
      "bom-ref": "pkg:composer/webmozart/assert@1.10.0",
      "group": "webmozart",
      "name": "assert",
      "version": "1.10.0",
      "description": "Assertions to validate method input/output with nice error messages.",
      "licenses": [
        {
          "license": {
            "id": "MIT"
          }
        }
      ],
      "purl": "pkg:composer/webmozart/assert@1.10.0",
      "externalReferences": [
        {
          "url": "https://github.com/webmozarts/assert.git",
          "type": "distribution",
          "comment": "As detected by composer's `getSourceUrls()` (type=git & reference=6964c76c7804814a842473e0c8fd15bab0f18e25)"
        },
        {
          "url": "https://api.github.com/repos/webmozarts/assert/zipball/6964c76c7804814a842473e0c8fd15bab0f18e25",
          "type": "distribution",
          "comment": "As detected by composer's `getDistUrls()` (type=zip & reference=6964c76c7804814a842473e0c8fd15bab0f18e25 & sha1=UNDEFINED)"
        },
        {
          "url": "https://github.com/webmozarts/assert/issues",
          "type": "issue-tracker",
          "comment": "As set via `support.issues` in composer package definition."
        },
        {
          "url": "https://github.com/webmozarts/assert/tree/1.10.0",
          "type": "distribution",
          "comment": "As set via `support.source` in composer package definition."
        }
      ]
    },
    {
      "type": "library",
      "bom-ref": "pkg:composer/yoast/phpunit-polyfills@1.0.3",
      "group": "yoast",
      "name": "phpunit-polyfills",
      "version": "1.0.3",
      "description": "Set of polyfills for changed PHPUnit functionality to allow for creating PHPUnit cross-version compatible tests",
      "licenses": [
        {
          "license": {
            "id": "BSD-3-Clause"
          }
        }
      ],
      "purl": "pkg:composer/yoast/phpunit-polyfills@1.0.3",
      "externalReferences": [
        {
          "url": "https://github.com/Yoast/PHPUnit-Polyfills.git",
          "type": "distribution",
          "comment": "As detected by composer's `getSourceUrls()` (type=git & reference=5ea3536428944955f969bc764bbe09738e151ada)"
        },
        {
          "url": "https://api.github.com/repos/Yoast/PHPUnit-Polyfills/zipball/5ea3536428944955f969bc764bbe09738e151ada",
          "type": "distribution",
          "comment": "As detected by composer's `getDistUrls()` (type=zip & reference=5ea3536428944955f969bc764bbe09738e151ada & sha1=UNDEFINED)"
        },
        {
          "url": "https://github.com/Yoast/PHPUnit-Polyfills",
          "type": "website",
          "comment": "As set via `homepage` in composer package definition."
        },
        {
          "url": "https://github.com/Yoast/PHPUnit-Polyfills/issues",
          "type": "issue-tracker",
          "comment": "As set via `support.issues` in composer package definition."
        },
        {
          "url": "https://github.com/Yoast/PHPUnit-Polyfills",
          "type": "distribution",
          "comment": "As set via `support.source` in composer package definition."
        }
      ]
    },
    {
      "type": "library",
      "bom-ref": "pkg:composer/phar-io/version@3.0.1",
      "group": "phar-io",
      "name": "version",
      "version": "3.0.1",
      "description": "Library for handling version information and constraints",
      "licenses": [
        {
          "license": {
            "id": "BSD-3-Clause",
            "url": "https://opensource.org/licenses/BSD-3-Clause"
          }
        }
      ],
      "purl": "pkg:composer/phar-io/version@3.0.1",
      "externalReferences": [
        {
          "url": "https://github.com/phar-io/version.git",
          "type": "vcs"
        }
      ]
    },
    {
      "type": "library",
      "bom-ref": "pkg:composer/symfony/polyfill-mbstring@1.19.0",
      "group": "symfony",
      "name": "polyfill-mbstring",
      "version": "1.19.0",
      "description": "Symfony polyfill for the Mbstring extension",
      "licenses": [
        {
          "license": {
            "id": "MIT",
            "url": "https://opensource.org/licenses/MIT"
          }
        }
      ],
      "purl": "pkg:composer/symfony/polyfill-mbstring@1.19.0",
      "externalReferences": [
        {
          "url": "https://github.com/symfony/polyfill-mbstring.git",
          "type": "vcs"
        }
      ]
    }
  ],
  "dependencies": [
    {
      "ref": "pkg:composer/cyclonedx/cyclonedx-library@1.5.0",
      "dependsOn": [
        "pkg:composer/package-url/packageurl-php@1.0.4",
        "pkg:composer/swaggest/json-schema@0.12.39"
      ]
    },
    {
      "ref": "pkg:composer/cyclonedx/cyclonedx-php-composer@3.10.0",
      "dependsOn": [
        "pkg:composer/cyclonedx/cyclonedx-library@1.5.0",
        "pkg:composer/package-url/packageurl-php@1.0.4"
      ]
    },
    {
      "ref": "pkg:composer/doctrine/instantiator@1.4.1"
    },
    {
      "ref": "pkg:composer/myclabs/deep-copy@1.11.0"
    },
    {
      "ref": "pkg:composer/nikic/php-parser@4.13.2"
    },
    {
      "ref": "pkg:composer/package-url/packageurl-php@1.0.4"
    },
    {
      "ref": "pkg:composer/phar-io/manifest@2.0.3",
      "dependsOn": [
        "pkg:composer/phar-io/version@3.2.1"
      ]
    },
    {
      "ref": "pkg:composer/phar-io/version@3.2.1"
    },
    {
      "ref": "pkg:composer/phpdocumentor/reflection-common@2.2.0"
    },
    {
      "ref": "pkg:composer/phpdocumentor/reflection-docblock@5.3.0",
      "dependsOn": [
        "pkg:composer/phpdocumentor/reflection-common@2.2.0",
        "pkg:composer/phpdocumentor/type-resolver@1.6.1",
        "pkg:composer/webmozart/assert@1.10.0"
      ]
    },
    {
      "ref": "pkg:composer/phpdocumentor/type-resolver@1.6.1",
      "dependsOn": [
        "pkg:composer/phpdocumentor/reflection-common@2.2.0"
      ]
    },
    {
      "ref": "pkg:composer/phplang/scope-exit@1.0.0"
    },
    {
      "ref": "pkg:composer/phpspec/prophecy@1.15.0",
      "dependsOn": [
        "pkg:composer/doctrine/instantiator@1.4.1",
        "pkg:composer/phpdocumentor/reflection-docblock@5.3.0",
        "pkg:composer/sebastian/comparator@4.0.6",
        "pkg:composer/sebastian/recursion-context@4.0.4"
      ]
    },
    {
      "ref": "pkg:composer/phpunit/php-code-coverage@9.2.15",
      "dependsOn": [
        "pkg:composer/nikic/php-parser@4.13.2",
        "pkg:composer/phpunit/php-file-iterator@3.0.6",
        "pkg:composer/phpunit/php-text-template@2.0.4",
        "pkg:composer/sebastian/code-unit-reverse-lookup@2.0.3",
        "pkg:composer/sebastian/complexity@2.0.2",
        "pkg:composer/sebastian/environment@5.1.4",
        "pkg:composer/sebastian/lines-of-code@1.0.3",
        "pkg:composer/sebastian/version@3.0.2",
        "pkg:composer/theseer/tokenizer@1.2.1"
      ]
    },
    {
      "ref": "pkg:composer/phpunit/php-file-iterator@3.0.6"
    },
    {
      "ref": "pkg:composer/phpunit/php-invoker@3.1.1"
    },
    {
      "ref": "pkg:composer/phpunit/php-text-template@2.0.4"
    },
    {
      "ref": "pkg:composer/phpunit/php-timer@5.0.3"
    },
    {
      "ref": "pkg:composer/phpunit/phpunit@9.5.20",
      "dependsOn": [
        "pkg:composer/doctrine/instantiator@1.4.1",
        "pkg:composer/myclabs/deep-copy@1.11.0",
        "pkg:composer/phar-io/manifest@2.0.3",
        "pkg:composer/phar-io/version@3.2.1",
        "pkg:composer/phpspec/prophecy@1.15.0",
        "pkg:composer/phpunit/php-code-coverage@9.2.15",
        "pkg:composer/phpunit/php-file-iterator@3.0.6",
        "pkg:composer/phpunit/php-invoker@3.1.1",
        "pkg:composer/phpunit/php-text-template@2.0.4",
        "pkg:composer/phpunit/php-timer@5.0.3",
        "pkg:composer/sebastian/cli-parser@1.0.1",
        "pkg:composer/sebastian/code-unit@1.0.8",
        "pkg:composer/sebastian/comparator@4.0.6",
        "pkg:composer/sebastian/diff@4.0.4",
        "pkg:composer/sebastian/environment@5.1.4",
        "pkg:composer/sebastian/exporter@4.0.4",
        "pkg:composer/sebastian/global-state@5.0.5",
        "pkg:composer/sebastian/object-enumerator@4.0.4",
        "pkg:composer/sebastian/resource-operations@3.0.3",
        "pkg:composer/sebastian/type@3.0.0",
        "pkg:composer/sebastian/version@3.0.2"
      ]
    },
    {
      "ref": "pkg:composer/sebastian/cli-parser@1.0.1"
    },
    {
      "ref": "pkg:composer/sebastian/code-unit@1.0.8"
    },
    {
      "ref": "pkg:composer/sebastian/code-unit-reverse-lookup@2.0.3"
    },
    {
      "ref": "pkg:composer/sebastian/comparator@4.0.6",
      "dependsOn": [
        "pkg:composer/sebastian/diff@4.0.4",
        "pkg:composer/sebastian/exporter@4.0.4"
      ]
    },
    {
      "ref": "pkg:composer/sebastian/complexity@2.0.2",
      "dependsOn": [
        "pkg:composer/nikic/php-parser@4.13.2"
      ]
    },
    {
      "ref": "pkg:composer/sebastian/diff@4.0.4"
    },
    {
      "ref": "pkg:composer/sebastian/environment@5.1.4"
    },
    {
      "ref": "pkg:composer/sebastian/exporter@4.0.4",
      "dependsOn": [
        "pkg:composer/sebastian/recursion-context@4.0.4"
      ]
    },
    {
      "ref": "pkg:composer/sebastian/global-state@5.0.5",
      "dependsOn": [
        "pkg:composer/sebastian/object-reflector@2.0.4",
        "pkg:composer/sebastian/recursion-context@4.0.4"
      ]
    },
    {
      "ref": "pkg:composer/sebastian/lines-of-code@1.0.3",
      "dependsOn": [
        "pkg:composer/nikic/php-parser@4.13.2"
      ]
    },
    {
      "ref": "pkg:composer/sebastian/object-enumerator@4.0.4",
      "dependsOn": [
        "pkg:composer/sebastian/object-reflector@2.0.4",
        "pkg:composer/sebastian/recursion-context@4.0.4"
      ]
    },
    {
      "ref": "pkg:composer/sebastian/object-reflector@2.0.4"
    },
    {
      "ref": "pkg:composer/sebastian/recursion-context@4.0.4"
    },
    {
      "ref": "pkg:composer/sebastian/resource-operations@3.0.3"
    },
    {
      "ref": "pkg:composer/sebastian/type@3.0.0"
    },
    {
      "ref": "pkg:composer/sebastian/version@3.0.2"
    },
    {
      "ref": "pkg:composer/swaggest/json-diff@3.8.3"
    },
    {
      "ref": "pkg:composer/swaggest/json-schema@0.12.39",
      "dependsOn": [
        "pkg:composer/phplang/scope-exit@1.0.0",
        "pkg:composer/swaggest/json-diff@3.8.3",
        "pkg:composer/symfony/polyfill-mbstring@1.25.0"
      ]
    },
    {
      "ref": "pkg:composer/symfony/polyfill-ctype@1.25.0"
    },
    {
      "ref": "pkg:composer/symfony/polyfill-mbstring@1.25.0"
    },
    {
      "ref": "pkg:composer/theseer/tokenizer@1.2.1"
    },
    {
      "ref": "pkg:composer/webmozart/assert@1.10.0",
      "dependsOn": [
        "pkg:composer/symfony/polyfill-ctype@1.25.0"
      ]
    },
    {
      "ref": "pkg:composer/yoast/phpunit-polyfills@1.0.3",
      "dependsOn": [
        "pkg:composer/phpunit/phpunit@9.5.20"
      ]
    },
    {
      "ref": "pkg:composer/simplepie/simplepie@dev-master",
      "dependsOn": [
        "pkg:composer/yoast/phpunit-polyfills@1.0.3",
        "pkg:composer/cyclonedx/cyclonedx-php-composer@3.10.0"
      ]
    }
  ]
}
