{
  "bomFormat": "CycloneDX",
  "specVersion": "1.3",
  "version": 1,
  "metadata": {
    "tools": [
      {
        "vendor": "AppThreat",
        "name": "cdxgen",
        "version": "3.0.10"
      },
      {
        "vendor": "Fortress Information Security",
        "name": "Github Extractor",
        "version": "1.15.1"
      }
    ],
    "authors": [
      {
        "name": "Fortress Information Security",
        "email": "sales@fortressinfosec.com",
        "phone": "1-407-573-6800"
      }
    ],
    "timestamp": "2022-06-01T21:00:00Z",
    "component": {
      "type": "application",
      "name": "TextBlob",
      "version": "0.7.0",
      "group": "sloria",
      "externalReferences": [
        {
          "url": "https://github.com/sloria/TextBlob.git",
          "type": "distribution"
        },
        {
          "type": "website",
          "url": "https://textblob.readthedocs.io/",
          "comment": "As set via `homepage` in Github API"
        }
      ]
    }
  },
  "components": [
    {
      "type": "library",
      "publisher": "Jason Pellerin",
      "name": "nose",
      "version": "1.3.7",
      "description": "nose extends unittest to make testing easier",
      "hashes": [
        {
          "alg": "MD5",
          "content": "3135984cc9cfcbe5d9c46e166d6743b0"
        },
        {
          "alg": "SHA-256",
          "content": "9ff7c6cc443f8c51994b34a667bbcf45afd6d945be7477b52e97516fd17c53ac"
        }
      ],
      "licenses": [
        {
          "license": {
            "name": "GNU LGPL"
          }
        }
      ],
      "purl": "pkg:pypi/nose@1.3.7",
      "modified": false
    },
    {
      "type": "library",
      "publisher": "Travis E. Oliphant et al.",
      "name": "numpy",
      "version": "1.22.3",
      "description": "NumPy is the fundamental package for array computing with Python.",
      "hashes": [
        {
          "alg": "MD5",
          "content": "99d2dfb943327b108b2c3b923bd42000"
        },
        {
          "alg": "SHA-256",
          "content": "c34ea7e9d13a70bf2ab64a2532fe149a9aced424cd05a2c4ba662fd989e3e45f"
        }
      ],
      "licenses": [
        {
          "license": {
            "name": "BSD"
          }
        }
      ],
      "purl": "pkg:pypi/numpy@1.22.3",
      "modified": false
    },
    {
      "type": "library",
      "publisher": "Python Packaging Authority",
      "name": "setuptools",
      "version": "62.1.0",
      "description": "Easily download, build, install, upgrade, and uninstall Python packages",
      "hashes": [
        {
          "alg": "MD5",
          "content": "101d2e2bf9b7682ab90d9a7bd487bdbe"
        },
        {
          "alg": "SHA-256",
          "content": "26ead7d1f93efc0f8c804d9fafafbe4a44b179580a7105754b245155f9af05a8"
        }
      ],
      "purl": "pkg:pypi/setuptools@62.1.0",
      "modified": false
    },
    {
      "type": "library",
      "publisher": "Jeff Forcier",
      "name": "invoke",
      "version": "1.7.0",
      "description": "Pythonic task execution",
      "hashes": [
        {
          "alg": "MD5",
          "content": "2b36f39ced22fa06216f736a5e702455"
        },
        {
          "alg": "SHA-256",
          "content": "a5159fc63dba6ca2a87a1e33d282b99cea69711b03c64a35bb4e1c53c6c4afa0"
        }
      ],
      "licenses": [
        {
          "license": {
            "name": "BSD"
          }
        }
      ],
      "purl": "pkg:pypi/invoke@1.7.0",
      "modified": false
    },
    {
      "type": "library",
      "publisher": "Zope Foundation and Contributors",
      "name": "datetime",
      "version": "4.4",
      "description": "This package provides a DateTime data type, as known from Zope. Unless you need to communicate with Zope APIs, you're probably better off using Python's built-in datetime module.",
      "hashes": [
        {
          "alg": "MD5",
          "content": "ad1e82d858ed7c8cd2ea437b4cb695ed"
        },
        {
          "alg": "SHA-256",
          "content": "4fcca115ddb466a1104df08d5c2a2f5805d14ca317800e1bfcea8f3d69f66e57"
        }
      ],
      "licenses": [
        {
          "license": {
            "name": "ZPL 2.1"
          }
        }
      ],
      "purl": "pkg:pypi/datetime@4.4",
      "modified": false
    },
    {
      "type": "library",
      "publisher": "Georg Brandl",
      "name": "pygments",
      "version": "2.12.0",
      "description": "Pygments is a syntax highlighting package written in Python.",
      "hashes": [
        {
          "alg": "MD5",
          "content": "4eedd9be3c932cc2b9c3c73b65938663"
        },
        {
          "alg": "SHA-256",
          "content": "dc9c10fb40944260f6ed4c688ece0cd2048414940f1cea51b8b226318411c519"
        }
      ],
      "licenses": [
        {
          "license": {
            "name": "BSD License"
          }
        }
      ],
      "purl": "pkg:pypi/pygments@2.12.0",
      "modified": false
    },
    {
      "type": "library",
      "publisher": "Dave Cole",
      "name": "csv",
      "version": "1.0",
      "description": "Fast CSV Parser for Python",
      "licenses": [
        {
          "license": {
            "name": "BSD"
          }
        }
      ],
      "purl": "pkg:pypi/csv@1.0",
      "modified": false
    },
    {
      "type": "library",
      "publisher": "Dima Dorfman",
      "name": "functools",
      "version": "0.5",
      "description": "Fast tools for functional programming",
      "hashes": [
        {
          "alg": "MD5",
          "content": "91111c28ee685a2f89f1a41e6f0ce8ea"
        },
        {
          "alg": "SHA-256",
          "content": "596ed8999dee419c0749a41bfdd82e4697e80ea27ee01c716003ef55be9a54c5"
        }
      ],
      "licenses": [
        {
          "license": {
            "name": "BSD"
          }
        }
      ],
      "purl": "pkg:pypi/functools@0.5",
      "modified": false
    },
    {
      "type": "library",
      "publisher": "NLTK Team",
      "name": "nltk",
      "version": "3.7",
      "description": "Natural Language Toolkit",
      "hashes": [
        {
          "alg": "MD5",
          "content": "dcebc5c1dcd02d4336072872db2468e6"
        },
        {
          "alg": "SHA-256",
          "content": "ba3de02490308b248f9b94c8bc1ac0683e9aa2ec49ee78536d8667afb5e3eec8"
        }
      ],
      "licenses": [
        {
          "license": {
            "name": "Apache License, Version 2.0"
          }
        }
      ],
      "purl": "pkg:pypi/nltk@3.7",
      "modified": false
    },
    {
      "type": "library",
      "publisher": "mrheyilun",
      "name": "text",
      "version": "1.0.0",
      "purl": "pkg:pypi/text@1.0.0",
      "modified": false
    },
    {
      "type": "library",
      "publisher": "Michael Foord",
      "name": "unittest",
      "version": "0.0",
      "hashes": [
        {
          "alg": "MD5",
          "content": "2a416384f814604ed854d40f352f1191"
        },
        {
          "alg": "SHA-256",
          "content": "1b492484bea7f68abda5fcc61412e77b6a105e5842355d630f8b75f01add3555"
        }
      ],
      "purl": "pkg:pypi/unittest@0.0",
      "modified": false
    },
    {
      "type": "library",
      "publisher": "Testing Cabal",
      "name": "mock",
      "version": "4.0.3",
      "description": "Rolling backport of unittest.mock for all Pythons",
      "hashes": [
        {
          "alg": "MD5",
          "content": "510ed2443516623e5bf3d07d52cf87e4"
        },
        {
          "alg": "SHA-256",
          "content": "122fcb64ee37cfad5b3f48d7a7d51875d7031aaf3d8be7c42e2bee25044eee62"
        }
      ],
      "purl": "pkg:pypi/mock@4.0.3",
      "modified": false
    },
    {
      "type": "library",
      "bom-ref": "pkg:pypi/sphinx@3.5.4",
      "group": "",
      "name": "sphinx",
      "version": "3.5.4",
      "description": "Python documentation generator",
      "hashes": [
        {
          "alg": "SHA-256",
          "content": "2320d4e994a191f4b4be27da514e46b3d6b420f2ff895d064f52415d342461e8"
        }
      ],
      "licenses": [
        {
          "license": {
            "id": "0BSD",
            "url": "https://opensource.org/licenses/0BSD"
          }
        }
      ],
      "purl": "pkg:pypi/sphinx@3.5.4",
      "externalReferences": [
        {
          "url": "https://www.sphinx-doc.org/",
          "type": "website"
        }
      ]
    },
    {
      "type": "library",
      "bom-ref": "pkg:pypi/pyyaml@3.13",
      "group": "",
      "name": "PyYAML",
      "version": "3.13",
      "description": "YAML parser and emitter for Python",
      "hashes": [
        {
          "alg": "SHA-256",
          "content": "d5eef459e30b09f5a098b9cea68bebfeb268697f78d647bd255a085371ac7f3f"
        }
      ],
      "licenses": [
        {
          "license": {
            "id": "MIT",
            "url": "https://opensource.org/licenses/MIT"
          }
        }
      ],
      "purl": "pkg:pypi/pyyaml@3.13",
      "externalReferences": [
        {
          "url": "https://pyyaml.org/",
          "type": "website"
        }
      ]
    },
    {
      "type": "library",
      "bom-ref": "pkg:pypi/sphinx-issues@1.2.0",
      "group": "",
      "name": "sphinx-issues",
      "version": "1.2.0",
      "description": "A Sphinx extension for linking to your project's issue tracker",
      "hashes": [
        {
          "alg": "SHA-256",
          "content": "1208e1869742b7800a45b3c47ab987b87b2ad2024cbc36e0106e8bba3549dd22"
        }
      ],
      "licenses": [
        {
          "license": {
            "id": "MIT",
            "url": "https://opensource.org/licenses/MIT"
          }
        }
      ],
      "purl": "pkg:pypi/sphinx-issues@1.2.0",
      "externalReferences": [
        {
          "url": "https://github.com/sloria/sphinx-issues",
          "type": "vcs"
        }
      ]
    }
  ]
}
