{
  "bomFormat": "CycloneDX",
  "specVersion": "1.3",
  "version": 1,
  "metadata": {
    "tools": [
      {
        "vendor": "CycloneDX",
        "name": "cyclonedx-gomod",
        "version": "v0.0.0-unset",
        "hashes": [
          {
            "alg": "MD5",
            "content": "a35776fc9417e8071d3f1dcfa2f1dd19"
          },
          {
            "alg": "SHA-1",
            "content": "a19a8eed713eff5a2092e5283c201a146f19421d"
          },
          {
            "alg": "SHA-256",
            "content": "17b3b980b9a5d0f48ad52043dee5b31aff3ae6599a36bc94224dc7b6a46759ef"
          },
          {
            "alg": "SHA-512",
            "content": "9d4f06aab20cede94a1aedf11a300ae9de98871235c68c72e421cd6d45495910861b39e743ee0eceb11bbdcd2c9acc3312c19064cfe90177243fb43127fcfa46"
          }
        ]
      },
      {
        "vendor": "AppThreat",
        "name": "cdxgen",
        "version": "3.0.10"
      },
      {
        "vendor": "Fortress Information Security",
        "name": "Github Extractor",
        "version": "1.15.1"
      }
    ],
    "authors": [
      {
        "name": "Fortress Information Security",
        "email": "sales@fortressinfosec.com",
        "phone": "1-407-573-6800"
      }
    ],
    "timestamp": "2022-06-01T21:00:00Z",
    "component": {
      "type": "application",
      "name": "goproxy",
      "version": "v11.8",
      "group": "snail007",
      "externalReferences": [
        {
          "url": "https://github.com/snail007/goproxy.git",
          "type": "distribution"
        },
        {
          "type": "website",
          "url": "https://snail007.host900.com/goproxy/manual/zh/",
          "comment": "As set via `homepage` in Github API"
        }
      ]
    }
  },
  "components": [
    {
      "type": "library",
      "bom-ref": "pkg:golang/github.com/alecthomas/template@v0.0.0-20190718012654-fb15b899a751",
      "name": "github.com/alecthomas/template",
      "version": "v0.0.0-20190718012654-fb15b899a751",
      "scope": "required",
      "hashes": [
        {
          "alg": "SHA-256",
          "content": "258a7b21b42369fa01fad040de03321d81eba4eb4db8388afee079b97c6ae703"
        }
      ],
      "purl": "pkg:golang/github.com/alecthomas/template@v0.0.0-20190718012654-fb15b899a751",
      "externalReferences": [
        {
          "url": "https://github.com/alecthomas/template",
          "type": "vcs"
        }
      ]
    },
    {
      "type": "library",
      "bom-ref": "pkg:golang/github.com/alecthomas/units@v0.0.0-20210208195552-ff826a37aa15",
      "name": "github.com/alecthomas/units",
      "version": "v0.0.0-20210208195552-ff826a37aa15",
      "scope": "required",
      "hashes": [
        {
          "alg": "SHA-256",
          "content": "014342afd0a226ec2b4584b75e27aa17e67d07d80dc68fde00d009085d9e88de"
        }
      ],
      "purl": "pkg:golang/github.com/alecthomas/units@v0.0.0-20210208195552-ff826a37aa15",
      "externalReferences": [
        {
          "url": "https://github.com/alecthomas/units",
          "type": "vcs"
        }
      ]
    },
    {
      "type": "library",
      "bom-ref": "pkg:golang/golang.org/x/time@v0.0.0-20210220033141-f8bda1e9f3ba",
      "name": "golang.org/x/time",
      "version": "v0.0.0-20210220033141-f8bda1e9f3ba",
      "scope": "required",
      "hashes": [
        {
          "alg": "SHA-256",
          "content": "3bc984d3fb78d7d7a8230853169295907893b3f220a3081f923db901c66bb621"
        }
      ],
      "purl": "pkg:golang/golang.org/x/time@v0.0.0-20210220033141-f8bda1e9f3ba"
    },
    {
      "type": "library",
      "bom-ref": "pkg:golang/gopkg.in/alecthomas/kingpin.v2@v2.2.6",
      "name": "gopkg.in/alecthomas/kingpin.v2",
      "version": "v2.2.6",
      "scope": "required",
      "hashes": [
        {
          "alg": "SHA-256",
          "content": "8cc173e8c7cb3f4ff87d4c9995ef35ad7528c4e0458b5f555052950ce41fa337"
        }
      ],
      "purl": "pkg:golang/gopkg.in/alecthomas/kingpin.v2@v2.2.6",
      "externalReferences": [
        {
          "url": "https://github.com/alecthomas/kingpin",
          "type": "vcs"
        }
      ]
    },
    {
      "type": "library",
      "bom-ref": "pkg:golang/github.com/snail007/goproxy",
      "group": "github.com/snail007",
      "name": "goproxy",
      "version": "",
      "description": "",
      "scope": "required",
      "purl": "pkg:golang/github.com/snail007/goproxy"
    }
  ],
  "dependencies": [
    {
      "ref": "pkg:golang/github.com/alecthomas/template@v0.0.0-20190718012654-fb15b899a751"
    },
    {
      "ref": "pkg:golang/github.com/alecthomas/units@v0.0.0-20210208195552-ff826a37aa15"
    },
    {
      "ref": "pkg:golang/golang.org/x/time@v0.0.0-20210220033141-f8bda1e9f3ba"
    },
    {
      "ref": "pkg:golang/gopkg.in/alecthomas/kingpin.v2@v2.2.6"
    },
    {
      "ref": "pkg:golang/github.com/snail007/goproxy@v11.6",
      "dependsOn": [
        "pkg:golang/github.com/alecthomas/template@v0.0.0-20190718012654-fb15b899a751",
        "pkg:golang/github.com/alecthomas/units@v0.0.0-20210208195552-ff826a37aa15",
        "pkg:golang/golang.org/x/time@v0.0.0-20210220033141-f8bda1e9f3ba",
        "pkg:golang/gopkg.in/alecthomas/kingpin.v2@v2.2.6"
      ]
    }
  ]
}
