{
  "bomFormat": "CycloneDX",
  "specVersion": "1.3",
  "version": 1,
  "metadata": {
    "tools": [
      {
        "vendor": "CycloneDX",
        "name": "cyclonedx-gomod",
        "version": "v0.0.0-unset",
        "hashes": [
          {
            "alg": "MD5",
            "content": "a35776fc9417e8071d3f1dcfa2f1dd19"
          },
          {
            "alg": "SHA-1",
            "content": "a19a8eed713eff5a2092e5283c201a146f19421d"
          },
          {
            "alg": "SHA-256",
            "content": "17b3b980b9a5d0f48ad52043dee5b31aff3ae6599a36bc94224dc7b6a46759ef"
          },
          {
            "alg": "SHA-512",
            "content": "9d4f06aab20cede94a1aedf11a300ae9de98871235c68c72e421cd6d45495910861b39e743ee0eceb11bbdcd2c9acc3312c19064cfe90177243fb43127fcfa46"
          }
        ]
      },
      {
        "vendor": "AppThreat",
        "name": "cdxgen",
        "version": "3.0.10"
      },
      {
        "vendor": "Fortress Information Security",
        "name": "Github Extractor",
        "version": "1.15.1"
      }
    ],
    "authors": [
      {
        "name": "Fortress Information Security",
        "email": "sales@fortressinfosec.com",
        "phone": "1-407-573-6800"
      }
    ],
    "timestamp": "2022-06-01T21:00:00Z",
    "component": {
      "type": "application",
      "name": "roshi",
      "version": "",
      "group": "soundcloud",
      "externalReferences": [
        {
          "url": "https://github.com/soundcloud/roshi.git",
          "type": "distribution"
        },
        {
          "type": "website",
          "url": "null",
          "comment": "As set via `homepage` in Github API"
        }
      ]
    }
  },
  "components": [
    {
      "type": "library",
      "bom-ref": "pkg:golang/github.com/beorn7/perks@v1.0.1",
      "name": "github.com/beorn7/perks",
      "version": "v1.0.1",
      "scope": "required",
      "hashes": [
        {
          "alg": "SHA-256",
          "content": "5656ca2a735f57c6c9cdeaa86b870e2aa3ba6d8af75a0299c4ef19d7afa1b0e3"
        }
      ],
      "purl": "pkg:golang/github.com/beorn7/perks@v1.0.1",
      "externalReferences": [
        {
          "url": "https://github.com/beorn7/perks",
          "type": "vcs"
        }
      ]
    },
    {
      "type": "library",
      "bom-ref": "pkg:golang/github.com/garyburd/redigo@v1.6.0",
      "name": "github.com/garyburd/redigo",
      "version": "v1.6.0",
      "scope": "required",
      "hashes": [
        {
          "alg": "SHA-256",
          "content": "d15aee0a99fbc80208bbba565429500bcc3108911c1b79f2ce93121ca8b53d07"
        }
      ],
      "purl": "pkg:golang/github.com/garyburd/redigo@v1.6.0",
      "externalReferences": [
        {
          "url": "https://github.com/garyburd/redigo",
          "type": "vcs"
        }
      ]
    },
    {
      "type": "library",
      "bom-ref": "pkg:golang/github.com/golang/protobuf@v1.4.2",
      "name": "github.com/golang/protobuf",
      "version": "v1.4.2",
      "scope": "required",
      "hashes": [
        {
          "alg": "SHA-256",
          "content": "f99e4a1828b38326426c6875299a80d1f70b2e4c1bb232334b8695dafef0257d"
        }
      ],
      "purl": "pkg:golang/github.com/golang/protobuf@v1.4.2",
      "externalReferences": [
        {
          "url": "https://github.com/golang/protobuf",
          "type": "vcs"
        }
      ]
    },
    {
      "type": "library",
      "bom-ref": "pkg:golang/github.com/gorilla/context@v1.1.1",
      "name": "github.com/gorilla/context",
      "version": "v1.1.1",
      "scope": "required",
      "hashes": [
        {
          "alg": "SHA-256",
          "content": "016c257972645ff9e1714f5b6529d9a22de1fea198a9000686aeb365efda416f"
        }
      ],
      "purl": "pkg:golang/github.com/gorilla/context@v1.1.1",
      "externalReferences": [
        {
          "url": "https://github.com/gorilla/context",
          "type": "vcs"
        }
      ]
    },
    {
      "type": "library",
      "bom-ref": "pkg:golang/github.com/gorilla/mux@v1.7.4",
      "name": "github.com/gorilla/mux",
      "version": "v1.7.4",
      "scope": "required",
      "hashes": [
        {
          "alg": "SHA-256",
          "content": "56e67cbb26c79569aa574dfecd1cddc0a2f8b549c8a7530042da75988144d5b7"
        }
      ],
      "purl": "pkg:golang/github.com/gorilla/mux@v1.7.4",
      "externalReferences": [
        {
          "url": "https://github.com/gorilla/mux",
          "type": "vcs"
        }
      ]
    },
    {
      "type": "library",
      "bom-ref": "pkg:golang/github.com/gorilla/pat@v1.0.1",
      "name": "github.com/gorilla/pat",
      "version": "v1.0.1",
      "scope": "required",
      "hashes": [
        {
          "alg": "SHA-256",
          "content": "39e4a88fab1f7f0e3f99a8e26c063604052c5e334fedf104fb0df42a272468be"
        }
      ],
      "purl": "pkg:golang/github.com/gorilla/pat@v1.0.1",
      "externalReferences": [
        {
          "url": "https://github.com/gorilla/pat",
          "type": "vcs"
        }
      ]
    },
    {
      "type": "library",
      "bom-ref": "pkg:golang/github.com/matttproud/golang_protobuf_extensions@v1.0.1",
      "name": "github.com/matttproud/golang_protobuf_extensions",
      "version": "v1.0.1",
      "scope": "required",
      "hashes": [
        {
          "alg": "SHA-256",
          "content": "e21a7d8e41f184c1e4aa4ac1dc8c748de812e6cc7f464a80465b1667aa48c225"
        }
      ],
      "purl": "pkg:golang/github.com/matttproud/golang_protobuf_extensions@v1.0.1",
      "externalReferences": [
        {
          "url": "https://github.com/matttproud/golang_protobuf_extensions",
          "type": "vcs"
        }
      ]
    },
    {
      "type": "library",
      "bom-ref": "pkg:golang/github.com/peterbourgon/g2s@v0.0.0-20170223122336-d4e7ad98afea",
      "name": "github.com/peterbourgon/g2s",
      "version": "v0.0.0-20170223122336-d4e7ad98afea",
      "scope": "required",
      "hashes": [
        {
          "alg": "SHA-256",
          "content": "b0ac31cb51fde67a5abb0bbcbed17de6f1bfb32acbd29f1f499a3f5e50e0e609"
        }
      ],
      "purl": "pkg:golang/github.com/peterbourgon/g2s@v0.0.0-20170223122336-d4e7ad98afea",
      "externalReferences": [
        {
          "url": "https://github.com/peterbourgon/g2s",
          "type": "vcs"
        }
      ]
    },
    {
      "type": "library",
      "bom-ref": "pkg:golang/github.com/prometheus/client_golang@v0.9.4",
      "name": "github.com/prometheus/client_golang",
      "version": "v0.9.4",
      "scope": "required",
      "hashes": [
        {
          "alg": "SHA-256",
          "content": "63c13f25a68f6e61525b657cd406ff77cc9915841019b9e2d5bd633dc1bd63a0"
        }
      ],
      "purl": "pkg:golang/github.com/prometheus/client_golang@v0.9.4",
      "externalReferences": [
        {
          "url": "https://github.com/prometheus/client_golang",
          "type": "vcs"
        }
      ]
    },
    {
      "type": "library",
      "bom-ref": "pkg:golang/github.com/prometheus/client_model@v0.2.0",
      "name": "github.com/prometheus/client_model",
      "version": "v0.2.0",
      "scope": "required",
      "hashes": [
        {
          "alg": "SHA-256",
          "content": "baae61d1df86bb18972c92cd001320a76a945833e22ef802cf3d9d511fbf5bf3"
        }
      ],
      "purl": "pkg:golang/github.com/prometheus/client_model@v0.2.0",
      "externalReferences": [
        {
          "url": "https://github.com/prometheus/client_model",
          "type": "vcs"
        }
      ]
    },
    {
      "type": "library",
      "bom-ref": "pkg:golang/github.com/prometheus/common@v0.4.1",
      "name": "github.com/prometheus/common",
      "version": "v0.4.1",
      "scope": "required",
      "hashes": [
        {
          "alg": "SHA-256",
          "content": "2b430602922842f330dbb45374990f6ebdc967b0cd6edc503728b949354ce8ac"
        }
      ],
      "purl": "pkg:golang/github.com/prometheus/common@v0.4.1",
      "externalReferences": [
        {
          "url": "https://github.com/prometheus/common",
          "type": "vcs"
        }
      ]
    },
    {
      "type": "library",
      "bom-ref": "pkg:golang/github.com/prometheus/procfs@v0.1.3",
      "name": "github.com/prometheus/procfs",
      "version": "v0.1.3",
      "scope": "required",
      "hashes": [
        {
          "alg": "SHA-256",
          "content": "174fadaaf84e92cab6dac73a8821c5e561a55a37708fdda9d2e745875545052f"
        }
      ],
      "purl": "pkg:golang/github.com/prometheus/procfs@v0.1.3",
      "externalReferences": [
        {
          "url": "https://github.com/prometheus/procfs",
          "type": "vcs"
        }
      ]
    },
    {
      "type": "library",
      "bom-ref": "pkg:golang/github.com/tsenart/tb@v0.0.0-20181025101425-0d2499c8b6e9",
      "name": "github.com/tsenart/tb",
      "version": "v0.0.0-20181025101425-0d2499c8b6e9",
      "scope": "required",
      "hashes": [
        {
          "alg": "SHA-256",
          "content": "9236f08ad3861f8eaf0f4d5fdacde57817eb32778f41adcd4802255b7e4cbd8f"
        }
      ],
      "purl": "pkg:golang/github.com/tsenart/tb@v0.0.0-20181025101425-0d2499c8b6e9",
      "externalReferences": [
        {
          "url": "https://github.com/tsenart/tb",
          "type": "vcs"
        }
      ]
    },
    {
      "type": "library",
      "bom-ref": "pkg:golang/golang.org/x/sys@v0.0.0-20200615200032-f1bc736245b1",
      "name": "golang.org/x/sys",
      "version": "v0.0.0-20200615200032-f1bc736245b1",
      "scope": "required",
      "hashes": [
        {
          "alg": "SHA-256",
          "content": "a202c9333faaa736afee518c875d0b32f02433f7c0a0695a8a21d888561d9bcd"
        }
      ],
      "purl": "pkg:golang/golang.org/x/sys@v0.0.0-20200615200032-f1bc736245b1"
    },
    {
      "type": "library",
      "bom-ref": "pkg:golang/google.golang.org/protobuf@v1.23.0",
      "name": "google.golang.org/protobuf",
      "version": "v1.23.0",
      "scope": "required",
      "hashes": [
        {
          "alg": "SHA-256",
          "content": "e0c634eb47c1d432c6301ffb3014cb9f041463af85d3d1848b3e92b2b36acb33"
        }
      ],
      "purl": "pkg:golang/google.golang.org/protobuf@v1.23.0"
    },
    {
      "type": "library",
      "publisher": "Python Packaging Authority",
      "name": "setuptools",
      "version": "62.1.0",
      "description": "Easily download, build, install, upgrade, and uninstall Python packages",
      "hashes": [
        {
          "alg": "MD5",
          "content": "101d2e2bf9b7682ab90d9a7bd487bdbe"
        },
        {
          "alg": "SHA-256",
          "content": "26ead7d1f93efc0f8c804d9fafafbe4a44b179580a7105754b245155f9af05a8"
        }
      ],
      "purl": "pkg:pypi/setuptools@62.1.0",
      "modified": false
    },
    {
      "type": "library",
      "publisher": "Mario Vilas",
      "name": "google",
      "version": "3.0.0",
      "description": "Python bindings to the Google search engine.",
      "hashes": [
        {
          "alg": "MD5",
          "content": "30c719790d3e7e57e9482d108eda355c"
        },
        {
          "alg": "SHA-256",
          "content": "889cf695f84e4ae2c55fbc0cfdaf4c1e729417fa52ab1db0485202ba173e4935"
        }
      ],
      "purl": "pkg:pypi/google@3.0.0",
      "modified": false
    },
    {
      "type": "library",
      "bom-ref": "pkg:golang/github.com/soundcloud/roshi",
      "group": "github.com/soundcloud",
      "name": "roshi",
      "version": "",
      "description": "",
      "scope": "optional",
      "purl": "pkg:golang/github.com/soundcloud/roshi"
    }
  ],
  "dependencies": [
    {
      "ref": "pkg:golang/github.com/beorn7/perks@v1.0.1"
    },
    {
      "ref": "pkg:golang/github.com/garyburd/redigo@v1.6.0"
    },
    {
      "ref": "pkg:golang/github.com/golang/protobuf@v1.4.2",
      "dependsOn": [
        "pkg:golang/google.golang.org/protobuf@v1.23.0"
      ]
    },
    {
      "ref": "pkg:golang/github.com/gorilla/context@v1.1.1"
    },
    {
      "ref": "pkg:golang/github.com/gorilla/mux@v1.7.4"
    },
    {
      "ref": "pkg:golang/github.com/gorilla/pat@v1.0.1"
    },
    {
      "ref": "pkg:golang/github.com/matttproud/golang_protobuf_extensions@v1.0.1"
    },
    {
      "ref": "pkg:golang/github.com/peterbourgon/g2s@v0.0.0-20170223122336-d4e7ad98afea"
    },
    {
      "ref": "pkg:golang/github.com/prometheus/client_golang@v0.9.4",
      "dependsOn": [
        "pkg:golang/github.com/beorn7/perks@v1.0.1",
        "pkg:golang/github.com/golang/protobuf@v1.4.2",
        "pkg:golang/github.com/prometheus/client_model@v0.2.0",
        "pkg:golang/github.com/prometheus/common@v0.4.1",
        "pkg:golang/github.com/prometheus/procfs@v0.1.3"
      ]
    },
    {
      "ref": "pkg:golang/github.com/prometheus/client_model@v0.2.0",
      "dependsOn": [
        "pkg:golang/github.com/golang/protobuf@v1.4.2"
      ]
    },
    {
      "ref": "pkg:golang/github.com/prometheus/common@v0.4.1",
      "dependsOn": [
        "pkg:golang/github.com/beorn7/perks@v1.0.1",
        "pkg:golang/github.com/golang/protobuf@v1.4.2",
        "pkg:golang/github.com/matttproud/golang_protobuf_extensions@v1.0.1",
        "pkg:golang/github.com/prometheus/client_golang@v0.9.4",
        "pkg:golang/github.com/prometheus/client_model@v0.2.0",
        "pkg:golang/github.com/prometheus/procfs@v0.1.3",
        "pkg:golang/golang.org/x/sys@v0.0.0-20200615200032-f1bc736245b1"
      ]
    },
    {
      "ref": "pkg:golang/github.com/prometheus/procfs@v0.1.3",
      "dependsOn": [
        "pkg:golang/golang.org/x/sys@v0.0.0-20200615200032-f1bc736245b1"
      ]
    },
    {
      "ref": "pkg:golang/github.com/tsenart/tb@v0.0.0-20181025101425-0d2499c8b6e9"
    },
    {
      "ref": "pkg:golang/golang.org/x/sys@v0.0.0-20200615200032-f1bc736245b1"
    },
    {
      "ref": "pkg:golang/google.golang.org/protobuf@v1.23.0",
      "dependsOn": [
        "pkg:golang/github.com/golang/protobuf@v1.4.2"
      ]
    },
    {
      "ref": "pkg:golang/github.com/soundcloud/roshi@v0.0.0-20210409173748-37e77dceaada",
      "dependsOn": [
        "pkg:golang/github.com/beorn7/perks@v1.0.1",
        "pkg:golang/github.com/garyburd/redigo@v1.6.0",
        "pkg:golang/github.com/golang/protobuf@v1.4.2",
        "pkg:golang/github.com/gorilla/context@v1.1.1",
        "pkg:golang/github.com/gorilla/mux@v1.7.4",
        "pkg:golang/github.com/gorilla/pat@v1.0.1",
        "pkg:golang/github.com/peterbourgon/g2s@v0.0.0-20170223122336-d4e7ad98afea",
        "pkg:golang/github.com/prometheus/client_golang@v0.9.4",
        "pkg:golang/github.com/prometheus/client_model@v0.2.0",
        "pkg:golang/github.com/prometheus/procfs@v0.1.3",
        "pkg:golang/github.com/tsenart/tb@v0.0.0-20181025101425-0d2499c8b6e9",
        "pkg:golang/golang.org/x/sys@v0.0.0-20200615200032-f1bc736245b1"
      ]
    }
  ]
}
