{
  "bomFormat": "CycloneDX",
  "specVersion": "1.3",
  "version": 1,
  "components": [
    {
      "type": "library",
      "publisher": "Chris Higgs, Stuart Hodgson",
      "name": "cocotb",
      "version": "1.6.2",
      "description": "cocotb is a coroutine based cosimulation library for writing VHDL and Verilog testbenches in Python.",
      "hashes": [
        {
          "alg": "MD5",
          "content": "1872ac7fcf75675629316518aa80041e"
        },
        {
          "alg": "SHA-256",
          "content": "498fb5ef6ec36d6320e829e61f0f24fd53f477005162cce7f98cb2bd95e0bd4b"
        }
      ],
      "licenses": [
        {
          "license": {
            "name": "BSD"
          }
        }
      ],
      "purl": "pkg:pypi/cocotb@1.6.2",
      "modified": false
    },
    {
      "type": "library",
      "publisher": "Dima Dorfman",
      "name": "functools",
      "version": "0.5",
      "description": "Fast tools for functional programming",
      "hashes": [
        {
          "alg": "MD5",
          "content": "91111c28ee685a2f89f1a41e6f0ce8ea"
        },
        {
          "alg": "SHA-256",
          "content": "596ed8999dee419c0749a41bfdd82e4697e80ea27ee01c716003ef55be9a54c5"
        }
      ],
      "licenses": [
        {
          "license": {
            "name": "BSD"
          }
        }
      ],
      "purl": "pkg:pypi/functools@0.5",
      "modified": false
    },
    {
      "type": "library",
      "publisher": "Sameer Gauria",
      "name": "Verilog_VCD",
      "version": "1.11",
      "description": "Module to Parse VCD (Value-Change-Dump) files",
      "hashes": [
        {
          "alg": "MD5",
          "content": "024d1937894969608da5b35506fea9a3"
        },
        {
          "alg": "SHA-256",
          "content": "2ffa5e3711c57d1312dc411a1918a1f8f171ff10f043c7749fb129ab7642683a"
        }
      ],
      "purl": "pkg:pypi/verilog-vcd@1.11",
      "modified": false
    }
  ],
  "metadata": {
    "authors": [
      {
        "name": "Fortress Information Security",
        "email": "sales@fortressinfosec.com",
        "phone": "1-407-573-6800"
      }
    ],
    "tools": [
      {
        "vendor": "Fortress Information Security",
        "name": "GitHub Extractor",
        "version": "1.15.1"
      }
    ],
    "timestamp": "2022-07-03T21:16:53Z",
    "component": {
      "type": "application",
      "name": "SpinalHDL",
      "version": "v1.7.0",
      "group": "SpinalHDL",
      "externalReferences": [
        {
          "url": "https://github.com/SpinalHDL/SpinalHDL.git",
          "type": "distribution"
        }
      ]
    }
  }
}
