{
  "bomFormat": "CycloneDX",
  "specVersion": "1.3",
  "version": 1,
  "metadata": {
    "tools": [
      {
        "vendor": "CycloneDX",
        "name": "Node.js module",
        "version": "3.0.3"
      },
      {
        "vendor": "AppThreat",
        "name": "cdxgen",
        "version": "3.0.10"
      },
      {
        "vendor": "Fortress Information Security",
        "name": "Github Extractor",
        "version": "1.15.1"
      }
    ],
    "authors": [
      {
        "name": "Fortress Information Security",
        "email": "sales@fortressinfosec.com",
        "phone": "1-407-573-6800"
      }
    ],
    "timestamp": "2022-06-01T21:00:00Z",
    "component": {
      "type": "application",
      "name": "stateright",
      "version": "",
      "group": "stateright",
      "externalReferences": [
        {
          "url": "https://github.com/stateright/stateright.git",
          "type": "distribution"
        },
        {
          "type": "website",
          "url": "https://docs.rs/stateright",
          "comment": "As set via `homepage` in Github API"
        }
      ]
    }
  },
  "components": [
    {
      "type": "library",
      "bom-ref": "pkg:crates/stateright@0.29.0",
      "group": "",
      "name": "stateright",
      "version": "0.29.0",
      "description": "",
      "purl": "pkg:crates/stateright@0.29.0"
    },
    {
      "type": "library",
      "bom-ref": "pkg:crates/ahash@0.3",
      "group": "",
      "name": "ahash",
      "version": "0.3",
      "description": "",
      "purl": "pkg:crates/ahash@0.3"
    },
    {
      "type": "library",
      "bom-ref": "pkg:crates/actix-web@1.0",
      "group": "",
      "name": "actix-web",
      "version": "1.0",
      "description": "",
      "purl": "pkg:crates/actix-web@1.0"
    },
    {
      "type": "library",
      "bom-ref": "pkg:crates/choice@0.0.2",
      "group": "",
      "name": "choice",
      "version": "0.0.2",
      "description": "",
      "purl": "pkg:crates/choice@0.0.2"
    },
    {
      "type": "library",
      "bom-ref": "pkg:crates/crossbeam-utils@0.7",
      "group": "",
      "name": "crossbeam-utils",
      "version": "0.7",
      "description": "",
      "purl": "pkg:crates/crossbeam-utils@0.7"
    },
    {
      "type": "library",
      "bom-ref": "pkg:crates/dashmap@3.11",
      "group": "",
      "name": "dashmap",
      "version": "3.11",
      "description": "",
      "purl": "pkg:crates/dashmap@3.11"
    },
    {
      "type": "library",
      "bom-ref": "pkg:crates/id-set@0.2.2",
      "group": "",
      "name": "id-set",
      "version": "0.2.2",
      "description": "",
      "purl": "pkg:crates/id-set@0.2.2"
    },
    {
      "type": "library",
      "bom-ref": "pkg:crates/log@0.4",
      "group": "",
      "name": "log",
      "version": "0.4",
      "description": "",
      "purl": "pkg:crates/log@0.4"
    },
    {
      "type": "library",
      "bom-ref": "pkg:crates/nohash-hasher@0.2.0",
      "group": "",
      "name": "nohash-hasher",
      "version": "0.2.0",
      "description": "",
      "purl": "pkg:crates/nohash-hasher@0.2.0"
    },
    {
      "type": "library",
      "bom-ref": "pkg:crates/parking_lot@0.11",
      "group": "",
      "name": "parking_lot",
      "version": "0.11",
      "description": "",
      "purl": "pkg:crates/parking_lot@0.11"
    },
    {
      "type": "library",
      "bom-ref": "pkg:crates/rand@0.7",
      "group": "",
      "name": "rand",
      "version": "0.7",
      "description": "",
      "purl": "pkg:crates/rand@0.7"
    },
    {
      "type": "library",
      "bom-ref": "pkg:crates/serde@1.0",
      "group": "",
      "name": "serde",
      "version": "1.0",
      "description": "",
      "purl": "pkg:crates/serde@1.0"
    },
    {
      "type": "library",
      "bom-ref": "pkg:crates/env_logger@0.7",
      "group": "",
      "name": "env_logger",
      "version": "0.7",
      "description": "",
      "purl": "pkg:crates/env_logger@0.7"
    },
    {
      "type": "library",
      "bom-ref": "pkg:crates/lazy_static@1.4.0",
      "group": "",
      "name": "lazy_static",
      "version": "1.4.0",
      "description": "",
      "purl": "pkg:crates/lazy_static@1.4.0"
    },
    {
      "type": "library",
      "bom-ref": "pkg:crates/num_cpus@1.13",
      "group": "",
      "name": "num_cpus",
      "version": "1.13",
      "description": "",
      "purl": "pkg:crates/num_cpus@1.13"
    },
    {
      "type": "library",
      "bom-ref": "pkg:crates/pico-args@0.4",
      "group": "",
      "name": "pico-args",
      "version": "0.4",
      "description": "",
      "purl": "pkg:crates/pico-args@0.4"
    },
    {
      "type": "library",
      "bom-ref": "pkg:crates/serde_json@1.0",
      "group": "",
      "name": "serde_json",
      "version": "1.0",
      "description": "",
      "purl": "pkg:crates/serde_json@1.0"
    }
  ]
}
