{
  "bomFormat": "CycloneDX",
  "specVersion": "1.3",
  "version": 1,
  "metadata": {
    "tools": [
      {
        "vendor": "CycloneDX",
        "name": "Node.js module",
        "version": "3.0.3"
      },
      {
        "vendor": "AppThreat",
        "name": "cdxgen",
        "version": "3.0.10"
      },
      {
        "vendor": "Fortress Information Security",
        "name": "GitHub Extractor",
        "version": "1.15.1"
      }
    ],
    "authors": [
      {
        "name": "Fortress Information Security",
        "email": "sales@fortressinfosec.com",
        "phone": "1-407-573-6800"
      }
    ],
    "timestamp": "2022-06-30T07:19:52Z",
    "component": {
      "type": "application",
      "name": "tfjs-core",
      "version": "v0.6.0",
      "group": "tensorflow",
      "externalReferences": [
        {
          "url": "https://github.com/tensorflow/tfjs-core.git",
          "type": "distribution"
        }
      ]
    }
  },
  "components": [
    {
      "type": "library",
      "bom-ref": "pkg:npm/balanced-match@1.0.2",
      "name": "balanced-match",
      "version": "1.0.2",
      "description": "Match balanced character pairs, like \"{\" and \"}\"",
      "hashes": [
        {
          "alg": "SHA-1",
          "content": "e83e3a7e3f300b34cb9d87f615fa0cbf357690ee"
        }
      ],
      "licenses": [
        {
          "license": {
            "id": "MIT"
          }
        }
      ],
      "purl": "pkg:npm/balanced-match@1.0.2",
      "externalReferences": [
        {
          "url": "https://github.com/juliangruber/balanced-match",
          "type": "website"
        },
        {
          "url": "https://github.com/juliangruber/balanced-match/issues",
          "type": "issue-tracker"
        },
        {
          "url": "git://github.com/juliangruber/balanced-match.git",
          "type": "vcs"
        }
      ]
    },
    {
      "type": "library",
      "bom-ref": "pkg:npm/async@1.5.2",
      "name": "async",
      "version": "1.5.2",
      "description": "Higher-order functions and common patterns for asynchronous code",
      "hashes": [
        {
          "alg": "SHA-1",
          "content": "ec6a61ae56480c0c3cb241c95618e20892f9672a"
        }
      ],
      "licenses": [
        {
          "license": {
            "id": "MIT"
          }
        }
      ],
      "purl": "pkg:npm/async@1.5.2",
      "externalReferences": [
        {
          "url": "https://github.com/caolan/async#readme",
          "type": "website"
        },
        {
          "url": "https://github.com/caolan/async/issues",
          "type": "issue-tracker"
        },
        {
          "url": "git+https://github.com/caolan/async.git",
          "type": "vcs"
        }
      ]
    },
    {
      "type": "library",
      "bom-ref": "pkg:npm/brace-expansion@1.1.11",
      "name": "brace-expansion",
      "version": "1.1.11",
      "description": "Brace expansion as known from sh/bash",
      "hashes": [
        {
          "alg": "SHA-1",
          "content": "3c7fcbf529d87226f3d2f52b966ff5271eb441dd"
        }
      ],
      "licenses": [
        {
          "license": {
            "id": "MIT"
          }
        }
      ],
      "purl": "pkg:npm/brace-expansion@1.1.11",
      "externalReferences": [
        {
          "url": "https://github.com/juliangruber/brace-expansion",
          "type": "website"
        },
        {
          "url": "https://github.com/juliangruber/brace-expansion/issues",
          "type": "issue-tracker"
        },
        {
          "url": "git://github.com/juliangruber/brace-expansion.git",
          "type": "vcs"
        }
      ]
    },
    {
      "type": "library",
      "bom-ref": "pkg:npm/concat-map@0.0.1",
      "name": "concat-map",
      "version": "0.0.1",
      "description": "concatenative mapdashery",
      "hashes": [
        {
          "alg": "SHA-1",
          "content": "d8a96bd77fd68df7793a73036a3ba0d5405d477b"
        }
      ],
      "licenses": [
        {
          "license": {
            "id": "MIT"
          }
        }
      ],
      "purl": "pkg:npm/concat-map@0.0.1",
      "externalReferences": [
        {
          "url": "https://github.com/substack/node-concat-map#readme",
          "type": "website"
        },
        {
          "url": "https://github.com/substack/node-concat-map/issues",
          "type": "issue-tracker"
        },
        {
          "url": "git://github.com/substack/node-concat-map.git",
          "type": "vcs"
        }
      ]
    },
    {
      "type": "library",
      "bom-ref": "pkg:npm/fs.realpath@1.0.0",
      "name": "fs.realpath",
      "version": "1.0.0",
      "description": "Use node's fs.realpath, but fall back to the JS implementation if the native one fails",
      "hashes": [
        {
          "alg": "SHA-1",
          "content": "1504ad2523158caa40db4a2787cb01411994ea4f"
        }
      ],
      "licenses": [
        {
          "license": {
            "id": "ISC"
          }
        }
      ],
      "purl": "pkg:npm/fs.realpath@1.0.0",
      "externalReferences": [
        {
          "url": "https://github.com/isaacs/fs.realpath#readme",
          "type": "website"
        },
        {
          "url": "https://github.com/isaacs/fs.realpath/issues",
          "type": "issue-tracker"
        },
        {
          "url": "git+https://github.com/isaacs/fs.realpath.git",
          "type": "vcs"
        }
      ]
    },
    {
      "type": "library",
      "bom-ref": "pkg:npm/function-bind@1.1.1",
      "name": "function-bind",
      "version": "1.1.1",
      "description": "Implementation of Function.prototype.bind",
      "hashes": [
        {
          "alg": "SHA-1",
          "content": "a56899d3ea3c9bab874bb9773b7c5ede92f4895d"
        }
      ],
      "licenses": [
        {
          "license": {
            "id": "MIT"
          }
        }
      ],
      "purl": "pkg:npm/function-bind@1.1.1",
      "externalReferences": [
        {
          "url": "https://github.com/Raynos/function-bind",
          "type": "website"
        },
        {
          "url": "https://github.com/Raynos/function-bind/issues",
          "type": "issue-tracker"
        },
        {
          "url": "git://github.com/Raynos/function-bind.git",
          "type": "vcs"
        }
      ]
    },
    {
      "type": "library",
      "bom-ref": "pkg:npm/glob@7.2.3",
      "name": "glob",
      "version": "7.2.3",
      "description": "a little globber",
      "hashes": [
        {
          "alg": "SHA-1",
          "content": "b8df0fb802bbfa8e89bd1d938b4e16578ed44f2b"
        }
      ],
      "licenses": [
        {
          "license": {
            "id": "ISC"
          }
        }
      ],
      "purl": "pkg:npm/glob@7.2.3",
      "externalReferences": [
        {
          "url": "https://github.com/isaacs/node-glob#readme",
          "type": "website"
        },
        {
          "url": "https://github.com/isaacs/node-glob/issues",
          "type": "issue-tracker"
        },
        {
          "url": "git://github.com/isaacs/node-glob.git",
          "type": "vcs"
        }
      ]
    },
    {
      "type": "library",
      "bom-ref": "pkg:npm/inflight@1.0.6",
      "name": "inflight",
      "version": "1.0.6",
      "description": "Add callbacks to requests in flight to avoid async duplication",
      "hashes": [
        {
          "alg": "SHA-1",
          "content": "49bd6331d7d02d0c09bc910a1075ba8165b56df9"
        }
      ],
      "licenses": [
        {
          "license": {
            "id": "ISC"
          }
        }
      ],
      "purl": "pkg:npm/inflight@1.0.6",
      "externalReferences": [
        {
          "url": "https://github.com/isaacs/inflight",
          "type": "website"
        },
        {
          "url": "https://github.com/isaacs/inflight/issues",
          "type": "issue-tracker"
        },
        {
          "url": "git+https://github.com/npm/inflight.git",
          "type": "vcs"
        }
      ]
    },
    {
      "type": "library",
      "bom-ref": "pkg:npm/once@1.4.0",
      "name": "once",
      "version": "1.4.0",
      "description": "Run a function exactly one time",
      "hashes": [
        {
          "alg": "SHA-1",
          "content": "583b1aa775961d4b113ac17d9c50baef9dd76bd1"
        }
      ],
      "licenses": [
        {
          "license": {
            "id": "ISC"
          }
        }
      ],
      "purl": "pkg:npm/once@1.4.0",
      "externalReferences": [
        {
          "url": "https://github.com/isaacs/once#readme",
          "type": "website"
        },
        {
          "url": "https://github.com/isaacs/once/issues",
          "type": "issue-tracker"
        },
        {
          "url": "git://github.com/isaacs/once.git",
          "type": "vcs"
        }
      ]
    },
    {
      "type": "library",
      "bom-ref": "pkg:npm/wrappy@1.0.2",
      "name": "wrappy",
      "version": "1.0.2",
      "description": "Callback wrapping utility",
      "hashes": [
        {
          "alg": "SHA-1",
          "content": "b5243d8f3ec1aa35f1364605bc0d1036e30ab69f"
        }
      ],
      "licenses": [
        {
          "license": {
            "id": "ISC"
          }
        }
      ],
      "purl": "pkg:npm/wrappy@1.0.2",
      "externalReferences": [
        {
          "url": "https://github.com/npm/wrappy",
          "type": "website"
        },
        {
          "url": "https://github.com/npm/wrappy/issues",
          "type": "issue-tracker"
        },
        {
          "url": "git+https://github.com/npm/wrappy.git",
          "type": "vcs"
        }
      ]
    },
    {
      "type": "library",
      "bom-ref": "pkg:npm/inherits@2.0.4",
      "name": "inherits",
      "version": "2.0.4",
      "description": "Browser-friendly inheritance fully compatible with standard node.js inherits()",
      "hashes": [
        {
          "alg": "SHA-1",
          "content": "0fa2c64f932917c3433a0ded55363aae37416b7c"
        }
      ],
      "licenses": [
        {
          "license": {
            "id": "ISC"
          }
        }
      ],
      "purl": "pkg:npm/inherits@2.0.4",
      "externalReferences": [
        {
          "url": "https://github.com/isaacs/inherits#readme",
          "type": "website"
        },
        {
          "url": "https://github.com/isaacs/inherits/issues",
          "type": "issue-tracker"
        },
        {
          "url": "git://github.com/isaacs/inherits.git",
          "type": "vcs"
        }
      ]
    },
    {
      "type": "library",
      "bom-ref": "pkg:npm/minimatch@3.1.2",
      "name": "minimatch",
      "version": "3.1.2",
      "description": "a glob matcher in javascript",
      "hashes": [
        {
          "alg": "SHA-1",
          "content": "19cd194bfd3e428f049a70817c038d89ab4be35b"
        }
      ],
      "licenses": [
        {
          "license": {
            "id": "ISC"
          }
        }
      ],
      "purl": "pkg:npm/minimatch@3.1.2",
      "externalReferences": [
        {
          "url": "https://github.com/isaacs/minimatch#readme",
          "type": "website"
        },
        {
          "url": "https://github.com/isaacs/minimatch/issues",
          "type": "issue-tracker"
        },
        {
          "url": "git://github.com/isaacs/minimatch.git",
          "type": "vcs"
        }
      ]
    },
    {
      "type": "library",
      "bom-ref": "pkg:npm/path-is-absolute@1.0.1",
      "name": "path-is-absolute",
      "version": "1.0.1",
      "description": "Node.js 0.12 path.isAbsolute() ponyfill",
      "hashes": [
        {
          "alg": "SHA-1",
          "content": "174b9268735534ffbc7ace6bf53a5a9e1b5c5f5f"
        }
      ],
      "licenses": [
        {
          "license": {
            "id": "MIT"
          }
        }
      ],
      "purl": "pkg:npm/path-is-absolute@1.0.1",
      "externalReferences": [
        {
          "url": "https://github.com/sindresorhus/path-is-absolute#readme",
          "type": "website"
        },
        {
          "url": "https://github.com/sindresorhus/path-is-absolute/issues",
          "type": "issue-tracker"
        },
        {
          "url": "git+https://github.com/sindresorhus/path-is-absolute.git",
          "type": "vcs"
        }
      ]
    },
    {
      "type": "library",
      "bom-ref": "pkg:npm/has@1.0.3",
      "name": "has",
      "version": "1.0.3",
      "description": "Object.prototype.hasOwnProperty.call shortcut",
      "hashes": [
        {
          "alg": "SHA-1",
          "content": "722d7cbfc1f6aa8241f16dd814e011e1f41e8796"
        }
      ],
      "licenses": [
        {
          "license": {
            "id": "MIT"
          }
        }
      ],
      "purl": "pkg:npm/has@1.0.3",
      "externalReferences": [
        {
          "url": "https://github.com/tarruda/has",
          "type": "website"
        },
        {
          "url": "https://github.com/tarruda/has/issues",
          "type": "issue-tracker"
        },
        {
          "url": "git://github.com/tarruda/has.git",
          "type": "vcs"
        }
      ]
    },
    {
      "type": "library",
      "bom-ref": "pkg:npm/is-core-module@2.9.0",
      "name": "is-core-module",
      "version": "2.9.0",
      "description": "Is this specifier a node.js core module?",
      "hashes": [
        {
          "alg": "SHA-1",
          "content": "e1c34429cd51c6dd9e09e0799e396e27b19a9c69"
        }
      ],
      "licenses": [
        {
          "license": {
            "id": "MIT"
          }
        }
      ],
      "purl": "pkg:npm/is-core-module@2.9.0",
      "externalReferences": [
        {
          "url": "https://github.com/inspect-js/is-core-module",
          "type": "website"
        },
        {
          "url": "https://github.com/inspect-js/is-core-module/issues",
          "type": "issue-tracker"
        },
        {
          "url": "git+https://github.com/inspect-js/is-core-module.git",
          "type": "vcs"
        }
      ]
    },
    {
      "type": "library",
      "bom-ref": "pkg:npm/interpret@1.4.0",
      "name": "interpret",
      "version": "1.4.0",
      "description": "A dictionary of file extensions and associated module loaders.",
      "hashes": [
        {
          "alg": "SHA-1",
          "content": "665ab8bc4da27a774a40584e812e3e0fa45b1a1e"
        }
      ],
      "licenses": [
        {
          "license": {
            "id": "MIT"
          }
        }
      ],
      "purl": "pkg:npm/interpret@1.4.0",
      "externalReferences": [
        {
          "url": "https://github.com/gulpjs/interpret#readme",
          "type": "website"
        },
        {
          "url": "https://github.com/gulpjs/interpret/issues",
          "type": "issue-tracker"
        },
        {
          "url": "git+https://github.com/gulpjs/interpret.git",
          "type": "vcs"
        }
      ]
    },
    {
      "type": "library",
      "bom-ref": "pkg:npm/path-parse@1.0.7",
      "name": "path-parse",
      "version": "1.0.7",
      "description": "Node.js path.parse() ponyfill",
      "hashes": [
        {
          "alg": "SHA-1",
          "content": "fbc114b60ca42b30d9daf5858e4bd68bbedb6735"
        }
      ],
      "licenses": [
        {
          "license": {
            "id": "MIT"
          }
        }
      ],
      "purl": "pkg:npm/path-parse@1.0.7",
      "externalReferences": [
        {
          "url": "https://github.com/jbgutierrez/path-parse#readme",
          "type": "website"
        },
        {
          "url": "https://github.com/jbgutierrez/path-parse/issues",
          "type": "issue-tracker"
        },
        {
          "url": "git+https://github.com/jbgutierrez/path-parse.git",
          "type": "vcs"
        }
      ]
    },
    {
      "type": "library",
      "bom-ref": "pkg:npm/rechoir@0.6.2",
      "name": "rechoir",
      "version": "0.6.2",
      "description": "Require any supported file as a node module.",
      "hashes": [
        {
          "alg": "SHA-1",
          "content": "85204b54dba82d5742e28c96756ef43af50e3384"
        }
      ],
      "purl": "pkg:npm/rechoir@0.6.2",
      "externalReferences": [
        {
          "url": "https://github.com/tkellen/node-rechoir",
          "type": "website"
        },
        {
          "url": "https://github.com/tkellen/node-rechoir/issues",
          "type": "issue-tracker"
        },
        {
          "url": "git://github.com/tkellen/node-rechoir.git",
          "type": "vcs"
        }
      ]
    },
    {
      "type": "library",
      "bom-ref": "pkg:npm/resolve@1.22.1",
      "name": "resolve",
      "version": "1.22.1",
      "description": "resolve like require.resolve() on behalf of files asynchronously and synchronously",
      "hashes": [
        {
          "alg": "SHA-1",
          "content": "27cb2ebb53f91abb49470a928bba7558066ac177"
        }
      ],
      "licenses": [
        {
          "license": {
            "id": "MIT"
          }
        }
      ],
      "purl": "pkg:npm/resolve@1.22.1",
      "externalReferences": [
        {
          "url": "https://github.com/browserify/resolve#readme",
          "type": "website"
        },
        {
          "url": "https://github.com/browserify/resolve/issues",
          "type": "issue-tracker"
        },
        {
          "url": "git://github.com/browserify/resolve.git",
          "type": "vcs"
        }
      ]
    },
    {
      "type": "library",
      "bom-ref": "pkg:npm/supports-preserve-symlinks-flag@1.0.0",
      "name": "supports-preserve-symlinks-flag",
      "version": "1.0.0",
      "description": "Determine if the current node version supports the `--preserve-symlinks` flag.",
      "hashes": [
        {
          "alg": "SHA-1",
          "content": "6eda4bd344a3c94aea376d4cc31bc77311039e09"
        }
      ],
      "licenses": [
        {
          "license": {
            "id": "MIT"
          }
        }
      ],
      "purl": "pkg:npm/supports-preserve-symlinks-flag@1.0.0",
      "externalReferences": [
        {
          "url": "https://github.com/inspect-js/node-supports-preserve-symlinks-flag#readme",
          "type": "website"
        },
        {
          "url": "https://github.com/inspect-js/node-supports-preserve-symlinks-flag/issues",
          "type": "issue-tracker"
        },
        {
          "url": "git+https://github.com/inspect-js/node-supports-preserve-symlinks-flag.git",
          "type": "vcs"
        }
      ]
    },
    {
      "type": "library",
      "bom-ref": "pkg:npm/clang-format@1.2.4",
      "name": "clang-format",
      "version": "1.2.4",
      "description": "node wrapper around clang-format",
      "hashes": [
        {
          "alg": "SHA-1",
          "content": "4bb4b0a98180428deb093cf20982e9fc1af20b6c"
        }
      ],
      "licenses": [
        {
          "license": {
            "id": "Apache-2.0"
          }
        }
      ],
      "purl": "pkg:npm/clang-format@1.2.4",
      "externalReferences": [
        {
          "url": "https://github.com/angular/clang-format#readme",
          "type": "website"
        },
        {
          "url": "https://github.com/angular/clang-format/issues",
          "type": "issue-tracker"
        },
        {
          "url": "git+ssh://git@github.com/angular/clang-format.git",
          "type": "vcs"
        }
      ]
    },
    {
      "type": "library",
      "bom-ref": "pkg:npm/shelljs@0.8.5",
      "name": "shelljs",
      "version": "0.8.5",
      "description": "Portable Unix shell commands for Node.js",
      "hashes": [
        {
          "alg": "SHA-1",
          "content": "de055408d8361bed66c669d2f000538ced8ee20c"
        }
      ],
      "licenses": [
        {
          "license": {
            "id": "BSD-3-Clause"
          }
        }
      ],
      "purl": "pkg:npm/shelljs@0.8.5",
      "externalReferences": [
        {
          "url": "http://github.com/shelljs/shelljs",
          "type": "website"
        },
        {
          "url": "https://github.com/shelljs/shelljs/issues",
          "type": "issue-tracker"
        },
        {
          "url": "git://github.com/shelljs/shelljs.git",
          "type": "vcs"
        }
      ]
    },
    {
      "type": "library",
      "bom-ref": "pkg:npm/agent-base@4.2.1",
      "group": "",
      "name": "agent-base",
      "version": "4.2.1",
      "description": "",
      "scope": "optional",
      "hashes": [
        {
          "alg": "SHA-512",
          "content": "255c1732bf671d84d45ec045294aa1270be571853f6e5ade38452484d476797648bf077e73ea395783200cf2969cc4bfe7a6b03774d1cc83fe2a83e7faba10b6"
        }
      ],
      "purl": "pkg:npm/agent-base@4.2.1"
    },
    {
      "type": "library",
      "bom-ref": "pkg:npm/ajv@6.10.0",
      "group": "",
      "name": "ajv",
      "version": "6.10.0",
      "description": "",
      "scope": "optional",
      "hashes": [
        {
          "alg": "SHA-512",
          "content": "9df7e13a99329831024324749a7b14b68084f11957dfc1b4ad83fec202d617266e532baea23492be2ffe7ae3a2401227eb7c216306152081f54ef137b6ee0e12"
        }
      ],
      "purl": "pkg:npm/ajv@6.10.0"
    },
    {
      "type": "library",
      "bom-ref": "pkg:npm/asn1@0.2.4",
      "group": "",
      "name": "asn1",
      "version": "0.2.4",
      "description": "",
      "scope": "optional",
      "hashes": [
        {
          "alg": "SHA-512",
          "content": "8f1c334292d08d29965e0c1a09913d373fa09401b4d721754275a06e11b01c8e40e85448118e8856ab478487a91ea23bfe4c84c9011a8010b998110594862f76"
        }
      ],
      "purl": "pkg:npm/asn1@0.2.4"
    },
    {
      "type": "library",
      "bom-ref": "pkg:npm/assert-plus@1.0.0",
      "group": "",
      "name": "assert-plus",
      "version": "1.0.0",
      "description": "",
      "scope": "optional",
      "hashes": [
        {
          "alg": "SHA-1",
          "content": "f12e0f3c5d77b0b1cdd9146942e4e96c1e4dd525"
        }
      ],
      "purl": "pkg:npm/assert-plus@1.0.0"
    },
    {
      "type": "library",
      "bom-ref": "pkg:npm/ast-types@0.12.3",
      "group": "",
      "name": "ast-types",
      "version": "0.12.3",
      "description": "",
      "scope": "optional",
      "hashes": [
        {
          "alg": "SHA-512",
          "content": "c0951c01fadd5be2200e8306373e4c99cbda84a801ec1c086cbba974a5551f11cd62df87551da4df9b3075836ff5a66917c9ef9648db9e4a76aeb370c4672464"
        }
      ],
      "purl": "pkg:npm/ast-types@0.12.3"
    },
    {
      "type": "library",
      "bom-ref": "pkg:npm/asynckit@0.4.0",
      "group": "",
      "name": "asynckit",
      "version": "0.4.0",
      "description": "",
      "scope": "optional",
      "hashes": [
        {
          "alg": "SHA-1",
          "content": "c79ed97f7f34cb8f2ba1bc9790bcc366474b4b79"
        }
      ],
      "purl": "pkg:npm/asynckit@0.4.0"
    },
    {
      "type": "library",
      "bom-ref": "pkg:npm/aws-sign2@0.7.0",
      "group": "",
      "name": "aws-sign2",
      "version": "0.7.0",
      "description": "",
      "scope": "optional",
      "hashes": [
        {
          "alg": "SHA-1",
          "content": "b46e890934a9591f2d2f6f86d7e6a9f1b3fe76a8"
        }
      ],
      "purl": "pkg:npm/aws-sign2@0.7.0"
    },
    {
      "type": "library",
      "bom-ref": "pkg:npm/aws4@1.8.0",
      "group": "",
      "name": "aws4",
      "version": "1.8.0",
      "description": "",
      "scope": "optional",
      "hashes": [
        {
          "alg": "SHA-512",
          "content": "45e671bcd1c83aff3c1654fbaf17172080b47cfb78299a996ce962bf25ad5cbb7c112c7ce3377790c0ba88ae6355e4b6aadfa0edfb52ef27b87e2d3a5f9aed45"
        }
      ],
      "purl": "pkg:npm/aws4@1.8.0"
    },
    {
      "type": "library",
      "bom-ref": "pkg:npm/bcrypt-pbkdf@1.0.2",
      "group": "",
      "name": "bcrypt-pbkdf",
      "version": "1.0.2",
      "description": "",
      "scope": "optional",
      "hashes": [
        {
          "alg": "SHA-1",
          "content": "a4301d389b6a43f9b67ff3ca11a3f6637e360e9e"
        }
      ],
      "purl": "pkg:npm/bcrypt-pbkdf@1.0.2"
    },
    {
      "type": "library",
      "bom-ref": "pkg:npm/bytes@3.0.0",
      "group": "",
      "name": "bytes",
      "version": "3.0.0",
      "description": "",
      "scope": "optional",
      "hashes": [
        {
          "alg": "SHA-1",
          "content": "d32815404d689699f85a4ea4fa8755dd13a96048"
        }
      ],
      "purl": "pkg:npm/bytes@3.0.0"
    },
    {
      "type": "library",
      "bom-ref": "pkg:npm/caseless@0.12.0",
      "group": "",
      "name": "caseless",
      "version": "0.12.0",
      "description": "",
      "scope": "optional",
      "hashes": [
        {
          "alg": "SHA-1",
          "content": "1b681c21ff84033c826543090689420d187151dc"
        }
      ],
      "purl": "pkg:npm/caseless@0.12.0"
    },
    {
      "type": "library",
      "bom-ref": "pkg:npm/co@4.6.0",
      "group": "",
      "name": "co",
      "version": "4.6.0",
      "description": "",
      "scope": "optional",
      "hashes": [
        {
          "alg": "SHA-1",
          "content": "6ea6bdf3d853ae54ccb8e47bfa0bf3f9031fb184"
        }
      ],
      "purl": "pkg:npm/co@4.6.0"
    },
    {
      "type": "library",
      "bom-ref": "pkg:npm/combined-stream@1.0.7",
      "group": "",
      "name": "combined-stream",
      "version": "1.0.7",
      "description": "",
      "scope": "optional",
      "hashes": [
        {
          "alg": "SHA-512",
          "content": "6eb5a5f72eaf381d7160f65ca5975edcdf730c1c974e8b0078c0e8e29d70ce8e9430e5f8bee981f933f5459efab1f13a31debc4343494ab13f81b7b3778525fb"
        }
      ],
      "purl": "pkg:npm/combined-stream@1.0.7"
    },
    {
      "type": "library",
      "bom-ref": "pkg:npm/core-util-is@1.0.2",
      "group": "",
      "name": "core-util-is",
      "version": "1.0.2",
      "description": "",
      "scope": "optional",
      "hashes": [
        {
          "alg": "SHA-1",
          "content": "b5fd54220aa2bc5ab57aab7140c940754503c1a7"
        }
      ],
      "purl": "pkg:npm/core-util-is@1.0.2"
    },
    {
      "type": "library",
      "bom-ref": "pkg:npm/dashdash@1.14.1",
      "group": "",
      "name": "dashdash",
      "version": "1.14.1",
      "description": "",
      "scope": "optional",
      "hashes": [
        {
          "alg": "SHA-1",
          "content": "853cfa0f7cbe2fed5de20326b8dd581035f6e2f0"
        }
      ],
      "purl": "pkg:npm/dashdash@1.14.1"
    },
    {
      "type": "library",
      "bom-ref": "pkg:npm/data-uri-to-buffer@2.0.1",
      "group": "",
      "name": "data-uri-to-buffer",
      "version": "2.0.1",
      "description": "",
      "scope": "optional",
      "hashes": [
        {
          "alg": "SHA-512",
          "content": "3a45552eb7ab7c0299956d9967755edb2eb98e0896a812ac4df5080056e7f2755b3dc09983a97a82290a94462fd245dc9b3a869ba985abf25fdafae2b8492ff0"
        }
      ],
      "purl": "pkg:npm/data-uri-to-buffer@2.0.1"
    },
    {
      "type": "library",
      "bom-ref": "pkg:npm/debug@4.1.1",
      "group": "",
      "name": "debug",
      "version": "4.1.1",
      "description": "",
      "scope": "optional",
      "hashes": [
        {
          "alg": "SHA-512",
          "content": "a58008cde468f09e8a3c4689d1558e8793f391bc3f45eb6ecde84633b411457e617b87cf1f1dab74a301db9e9e8490a45fe5d1426d7a7992ea2cd4bc45265767"
        }
      ],
      "purl": "pkg:npm/debug@4.1.1"
    },
    {
      "type": "library",
      "bom-ref": "pkg:npm/deep-is@0.1.3",
      "group": "",
      "name": "deep-is",
      "version": "0.1.3",
      "description": "",
      "scope": "optional",
      "hashes": [
        {
          "alg": "SHA-1",
          "content": "b369d6fb5dbc13eecf524f91b070feedc357cf34"
        }
      ],
      "purl": "pkg:npm/deep-is@0.1.3"
    },
    {
      "type": "library",
      "bom-ref": "pkg:npm/degenerator@1.0.4",
      "group": "",
      "name": "degenerator",
      "version": "1.0.4",
      "description": "",
      "scope": "optional",
      "hashes": [
        {
          "alg": "SHA-1",
          "content": "fcf490a37ece266464d9cc431ab98c5819ced095"
        }
      ],
      "purl": "pkg:npm/degenerator@1.0.4"
    },
    {
      "type": "library",
      "bom-ref": "pkg:npm/delayed-stream@1.0.0",
      "group": "",
      "name": "delayed-stream",
      "version": "1.0.0",
      "description": "",
      "scope": "optional",
      "hashes": [
        {
          "alg": "SHA-1",
          "content": "df3ae199acadfb7d440aaae0b29e2272b24ec619"
        }
      ],
      "purl": "pkg:npm/delayed-stream@1.0.0"
    },
    {
      "type": "library",
      "bom-ref": "pkg:npm/depd@1.1.2",
      "group": "",
      "name": "depd",
      "version": "1.1.2",
      "description": "",
      "scope": "optional",
      "hashes": [
        {
          "alg": "SHA-1",
          "content": "9bcd52e14c097763e749b274c4346ed2e560b5a9"
        }
      ],
      "purl": "pkg:npm/depd@1.1.2"
    },
    {
      "type": "library",
      "bom-ref": "pkg:npm/ecc-jsbn@0.1.2",
      "group": "",
      "name": "ecc-jsbn",
      "version": "0.1.2",
      "description": "",
      "scope": "optional",
      "hashes": [
        {
          "alg": "SHA-1",
          "content": "3a83a904e54353287874c564b7549386849a98c9"
        }
      ],
      "purl": "pkg:npm/ecc-jsbn@0.1.2"
    },
    {
      "type": "library",
      "bom-ref": "pkg:npm/es6-promise@4.2.6",
      "group": "",
      "name": "es6-promise",
      "version": "4.2.6",
      "description": "",
      "scope": "optional",
      "hashes": [
        {
          "alg": "SHA-512",
          "content": "69156019d9e65b63a2c9254f502f5eea6fa996894c0092a36674250b0352b8ae7243424deb50d948ed57d547ddd5fa2a5910258a0d2b85db930877bbb15b4ae5"
        }
      ],
      "purl": "pkg:npm/es6-promise@4.2.6"
    },
    {
      "type": "library",
      "bom-ref": "pkg:npm/es6-promisify@5.0.0",
      "group": "",
      "name": "es6-promisify",
      "version": "5.0.0",
      "description": "",
      "scope": "optional",
      "hashes": [
        {
          "alg": "SHA-1",
          "content": "5109d62f3e56ea967c4b63505aef08291c8a5203"
        }
      ],
      "purl": "pkg:npm/es6-promisify@5.0.0"
    },
    {
      "type": "library",
      "bom-ref": "pkg:npm/escodegen@1.11.1",
      "group": "",
      "name": "escodegen",
      "version": "1.11.1",
      "description": "",
      "scope": "optional",
      "hashes": [
        {
          "alg": "SHA-512",
          "content": "2708aa143f4a746555a5eb916baf32537cd99c110e70fb349ca5bbc19cd7932f19eed7df7585076ded756cf095e636252ba0d574a2d62e6d1fe48fd094bd0a9b"
        }
      ],
      "purl": "pkg:npm/escodegen@1.11.1"
    },
    {
      "type": "library",
      "bom-ref": "pkg:npm/esprima@3.1.3",
      "group": "",
      "name": "esprima",
      "version": "3.1.3",
      "description": "",
      "scope": "optional",
      "hashes": [
        {
          "alg": "SHA-1",
          "content": "fdca51cee6133895e3c88d535ce49dbff62a4633"
        }
      ],
      "purl": "pkg:npm/esprima@3.1.3"
    },
    {
      "type": "library",
      "bom-ref": "pkg:npm/estraverse@4.2.0",
      "group": "",
      "name": "estraverse",
      "version": "4.2.0",
      "description": "",
      "scope": "optional",
      "hashes": [
        {
          "alg": "SHA-1",
          "content": "0dee3fed31fcd469618ce7342099fc1afa0bdb13"
        }
      ],
      "purl": "pkg:npm/estraverse@4.2.0"
    },
    {
      "type": "library",
      "bom-ref": "pkg:npm/esutils@2.0.2",
      "group": "",
      "name": "esutils",
      "version": "2.0.2",
      "description": "",
      "scope": "optional",
      "hashes": [
        {
          "alg": "SHA-1",
          "content": "0abf4f1caa5bcb1f7a9d8acc6dea4faaa04bac9b"
        }
      ],
      "purl": "pkg:npm/esutils@2.0.2"
    },
    {
      "type": "library",
      "bom-ref": "pkg:npm/extend@3.0.2",
      "group": "",
      "name": "extend",
      "version": "3.0.2",
      "description": "",
      "scope": "optional",
      "hashes": [
        {
          "alg": "SHA-512",
          "content": "7e3aae0b9f5c0fb0b25babab3572b4141b9f9197288861bcd304ee3ee8d7e7dd1c0794ed967db4136501e12fd601156a8577df665d8b3604be81074f2088a6fe"
        }
      ],
      "purl": "pkg:npm/extend@3.0.2"
    },
    {
      "type": "library",
      "bom-ref": "pkg:npm/extsprintf@1.3.0",
      "group": "",
      "name": "extsprintf",
      "version": "1.3.0",
      "description": "",
      "scope": "optional",
      "hashes": [
        {
          "alg": "SHA-1",
          "content": "96918440e3041a7a414f8c52e3c574eb3c3e1e05"
        }
      ],
      "purl": "pkg:npm/extsprintf@1.3.0"
    },
    {
      "type": "library",
      "bom-ref": "pkg:npm/fast-deep-equal@2.0.1",
      "group": "",
      "name": "fast-deep-equal",
      "version": "2.0.1",
      "description": "",
      "scope": "optional",
      "hashes": [
        {
          "alg": "SHA-1",
          "content": "7b05218ddf9667bf7f370bf7fdb2cb15fdd0aa49"
        }
      ],
      "purl": "pkg:npm/fast-deep-equal@2.0.1"
    },
    {
      "type": "library",
      "bom-ref": "pkg:npm/fast-json-stable-stringify@2.0.0",
      "group": "",
      "name": "fast-json-stable-stringify",
      "version": "2.0.0",
      "description": "",
      "scope": "optional",
      "hashes": [
        {
          "alg": "SHA-1",
          "content": "d5142c0caee6b1189f87d3a76111064f86c8bbf2"
        }
      ],
      "purl": "pkg:npm/fast-json-stable-stringify@2.0.0"
    },
    {
      "type": "library",
      "bom-ref": "pkg:npm/fast-levenshtein@2.0.6",
      "group": "",
      "name": "fast-levenshtein",
      "version": "2.0.6",
      "description": "",
      "scope": "optional",
      "hashes": [
        {
          "alg": "SHA-1",
          "content": "3d8a5c66883a16a30ca8643e851f19baa7797917"
        }
      ],
      "purl": "pkg:npm/fast-levenshtein@2.0.6"
    },
    {
      "type": "library",
      "bom-ref": "pkg:npm/file-uri-to-path@1.0.0",
      "group": "",
      "name": "file-uri-to-path",
      "version": "1.0.0",
      "description": "",
      "scope": "optional",
      "hashes": [
        {
          "alg": "SHA-512",
          "content": "d19b7eb372fb55fd5b8b0599dbd6804625582f1ee23069c4525f71df77db07f8f78d1f35bbf3b62dba8af819b508348d0ca56d27f623c18ed351de5291e2d02f"
        }
      ],
      "purl": "pkg:npm/file-uri-to-path@1.0.0"
    },
    {
      "type": "library",
      "bom-ref": "pkg:npm/forever-agent@0.6.1",
      "group": "",
      "name": "forever-agent",
      "version": "0.6.1",
      "description": "",
      "scope": "optional",
      "hashes": [
        {
          "alg": "SHA-1",
          "content": "fbc71f0c41adeb37f96c577ad1ed42d8fdacca91"
        }
      ],
      "purl": "pkg:npm/forever-agent@0.6.1"
    },
    {
      "type": "library",
      "bom-ref": "pkg:npm/form-data@2.3.3",
      "group": "",
      "name": "form-data",
      "version": "2.3.3",
      "description": "",
      "scope": "optional",
      "hashes": [
        {
          "alg": "SHA-512",
          "content": "d652ca07632edda18fd50ff67823b1d1f35b44c7bb5ddc24b703abba17eaa9dd2b2095b03780e1f84de1acf4a50c25e7491ed4b59d4ddfcad55e6fbaf8c12125"
        }
      ],
      "purl": "pkg:npm/form-data@2.3.3"
    },
    {
      "type": "library",
      "bom-ref": "pkg:npm/ftp@0.3.10",
      "group": "",
      "name": "ftp",
      "version": "0.3.10",
      "description": "",
      "scope": "optional",
      "hashes": [
        {
          "alg": "SHA-1",
          "content": "9197d861ad8142f3e63d5a83bfe4c59f7330885d"
        }
      ],
      "purl": "pkg:npm/ftp@0.3.10"
    },
    {
      "type": "library",
      "bom-ref": "pkg:npm/readable-stream@1.1.14",
      "group": "",
      "name": "readable-stream",
      "version": "1.1.14",
      "description": "",
      "scope": "optional",
      "hashes": [
        {
          "alg": "SHA-1",
          "content": "7cf4c54ef648e3813084c636dd2079e166c081d9"
        }
      ],
      "purl": "pkg:npm/readable-stream@1.1.14"
    },
    {
      "type": "library",
      "bom-ref": "pkg:npm/get-uri@2.0.3",
      "group": "",
      "name": "get-uri",
      "version": "2.0.3",
      "description": "",
      "scope": "optional",
      "hashes": [
        {
          "alg": "SHA-512",
          "content": "c798fa2acec53a02c3fc696f8cac20bbbc1d98c479e62b911e19fc863ffe800f9e49bc50bd9f801289aafb7320544663d6fa62ef7f106a119b0824880ed5ed93"
        }
      ],
      "purl": "pkg:npm/get-uri@2.0.3"
    },
    {
      "type": "library",
      "bom-ref": "pkg:npm/getpass@0.1.7",
      "group": "",
      "name": "getpass",
      "version": "0.1.7",
      "description": "",
      "scope": "optional",
      "hashes": [
        {
          "alg": "SHA-1",
          "content": "5eff8e3e684d569ae4cb2b1282604e8ba62149fa"
        }
      ],
      "purl": "pkg:npm/getpass@0.1.7"
    },
    {
      "type": "library",
      "bom-ref": "pkg:npm/har-schema@2.0.0",
      "group": "",
      "name": "har-schema",
      "version": "2.0.0",
      "description": "",
      "scope": "optional",
      "hashes": [
        {
          "alg": "SHA-1",
          "content": "a94c2224ebcac04782a0d9035521f24735b7ec92"
        }
      ],
      "purl": "pkg:npm/har-schema@2.0.0"
    },
    {
      "type": "library",
      "bom-ref": "pkg:npm/har-validator@5.1.3",
      "group": "",
      "name": "har-validator",
      "version": "5.1.3",
      "description": "",
      "scope": "optional",
      "hashes": [
        {
          "alg": "SHA-512",
          "content": "b0dbce0b311036bfeaaef260737506fe40f842d947c9caf3c12fba99f4ebad2abdec1bda61c3d9648d594aa1923d1ef70b19f82ca4c3e0fb6d4707d4ee35aae6"
        }
      ],
      "purl": "pkg:npm/har-validator@5.1.3"
    },
    {
      "type": "library",
      "bom-ref": "pkg:npm/http-errors@1.6.3",
      "group": "",
      "name": "http-errors",
      "version": "1.6.3",
      "description": "",
      "scope": "optional",
      "hashes": [
        {
          "alg": "SHA-1",
          "content": "8b55680bb4be283a0b5bf4ea2e38580be1d9320d"
        }
      ],
      "purl": "pkg:npm/http-errors@1.6.3"
    },
    {
      "type": "library",
      "bom-ref": "pkg:npm/http-proxy-agent@2.1.0",
      "group": "",
      "name": "http-proxy-agent",
      "version": "2.1.0",
      "description": "",
      "scope": "optional",
      "hashes": [
        {
          "alg": "SHA-512",
          "content": "ab01db04b57b5af881974ad0b0ecc7ea8e65c32388bf0a7f05d167bd5c5739195dbb94e68c57e3cc17165164b9916019866bfe26d883852b900a9e2c05f6c882"
        }
      ],
      "purl": "pkg:npm/http-proxy-agent@2.1.0"
    },
    {
      "type": "library",
      "bom-ref": "pkg:npm/debug@3.1.0",
      "group": "",
      "name": "debug",
      "version": "3.1.0",
      "description": "",
      "scope": "optional",
      "hashes": [
        {
          "alg": "SHA-512",
          "content": "397f17a8feffd5af5caa4c58c36c97b2cd797f6e8d2960690d741dd3fb8afca3ea7508716cf6bdf78867ce3704d95a90a43b257f9e7bdb770a3d43864a6318de"
        }
      ],
      "purl": "pkg:npm/debug@3.1.0"
    },
    {
      "type": "library",
      "bom-ref": "pkg:npm/ms@2.0.0",
      "group": "",
      "name": "ms",
      "version": "2.0.0",
      "description": "",
      "scope": "optional",
      "hashes": [
        {
          "alg": "SHA-1",
          "content": "5608aeadfc00be6c2901df5f9861788de0d597c8"
        }
      ],
      "purl": "pkg:npm/ms@2.0.0"
    },
    {
      "type": "library",
      "bom-ref": "pkg:npm/http-signature@1.2.0",
      "group": "",
      "name": "http-signature",
      "version": "1.2.0",
      "description": "",
      "scope": "optional",
      "hashes": [
        {
          "alg": "SHA-1",
          "content": "9aecd925114772f3d95b65a60abb8f7c18fbace1"
        }
      ],
      "purl": "pkg:npm/http-signature@1.2.0"
    },
    {
      "type": "library",
      "bom-ref": "pkg:npm/https-proxy-agent@2.2.1",
      "group": "",
      "name": "https-proxy-agent",
      "version": "2.2.1",
      "description": "",
      "scope": "optional",
      "hashes": [
        {
          "alg": "SHA-512",
          "content": "1cf0934b52d6e756dcc8c61bc5420e3b81c43a5435ff5a9168559ccb1bf06aa512f5363cf1aa04b87518df792e021d5885555a0d084b66c9cf77e5cd01159995"
        }
      ],
      "purl": "pkg:npm/https-proxy-agent@2.2.1"
    },
    {
      "type": "library",
      "bom-ref": "pkg:npm/debug@3.2.6",
      "group": "",
      "name": "debug",
      "version": "3.2.6",
      "description": "",
      "scope": "optional",
      "hashes": [
        {
          "alg": "SHA-512",
          "content": "99e97e8dfee7aed125e4f9f5431e3acc0457283a416efcdecec7bba7b2ea20d99da0893c3d83f94b249ac44998bfa4d9d09c84280d61b0221de832218084ed59"
        }
      ],
      "purl": "pkg:npm/debug@3.2.6"
    },
    {
      "type": "library",
      "bom-ref": "pkg:npm/humanize-duration@3.10.0",
      "group": "",
      "name": "humanize-duration",
      "version": "3.10.0",
      "description": "",
      "scope": "required",
      "hashes": [
        {
          "alg": "SHA-1",
          "content": "4d15bccaefcb12401b4d80475cf6c49a039e3959"
        }
      ],
      "purl": "pkg:npm/humanize-duration@3.10.0"
    },
    {
      "type": "library",
      "bom-ref": "pkg:npm/iconv-lite@0.4.23",
      "group": "",
      "name": "iconv-lite",
      "version": "0.4.23",
      "description": "",
      "scope": "optional",
      "hashes": [
        {
          "alg": "SHA-512",
          "content": "9dec9351516d6a18dfd260777594fbeeefbc3b4401f3d8c57670647793f526060f6cf6a26b78175ce54bd9fabc57253680c303ed268ded0ba44c1fe999762f0c"
        }
      ],
      "purl": "pkg:npm/iconv-lite@0.4.23"
    },
    {
      "type": "library",
      "bom-ref": "pkg:npm/inflection@1.12.0",
      "group": "",
      "name": "inflection",
      "version": "1.12.0",
      "description": "",
      "scope": "optional",
      "hashes": [
        {
          "alg": "SHA-1",
          "content": "a200935656d6f5f6bc4dc7502e1aecb703228416"
        }
      ],
      "purl": "pkg:npm/inflection@1.12.0"
    },
    {
      "type": "library",
      "bom-ref": "pkg:npm/inherits@2.0.3",
      "group": "",
      "name": "inherits",
      "version": "2.0.3",
      "description": "",
      "scope": "optional",
      "hashes": [
        {
          "alg": "SHA-1",
          "content": "633c2c83e3da42a502f52466022480f4208261de"
        }
      ],
      "purl": "pkg:npm/inherits@2.0.3"
    },
    {
      "type": "library",
      "bom-ref": "pkg:npm/ip@1.1.5",
      "group": "",
      "name": "ip",
      "version": "1.1.5",
      "description": "",
      "scope": "optional",
      "hashes": [
        {
          "alg": "SHA-1",
          "content": "bdded70114290828c0a039e72ef25f5aaec4354a"
        }
      ],
      "purl": "pkg:npm/ip@1.1.5"
    },
    {
      "type": "library",
      "bom-ref": "pkg:npm/is-stream@1.1.0",
      "group": "",
      "name": "is-stream",
      "version": "1.1.0",
      "description": "",
      "scope": "optional",
      "hashes": [
        {
          "alg": "SHA-1",
          "content": "12d4a3dd4e68e0b79ceb8dbc84173ae80d91ca44"
        }
      ],
      "purl": "pkg:npm/is-stream@1.1.0"
    },
    {
      "type": "library",
      "bom-ref": "pkg:npm/is-typedarray@1.0.0",
      "group": "",
      "name": "is-typedarray",
      "version": "1.0.0",
      "description": "",
      "scope": "optional",
      "hashes": [
        {
          "alg": "SHA-1",
          "content": "e479c80858df0c1b11ddda6940f96011fcda4a9a"
        }
      ],
      "purl": "pkg:npm/is-typedarray@1.0.0"
    },
    {
      "type": "library",
      "bom-ref": "pkg:npm/isarray@0.0.1",
      "group": "",
      "name": "isarray",
      "version": "0.0.1",
      "description": "",
      "scope": "optional",
      "hashes": [
        {
          "alg": "SHA-1",
          "content": "8a18acfca9a8f4177e09abfc6038939b05d1eedf"
        }
      ],
      "purl": "pkg:npm/isarray@0.0.1"
    },
    {
      "type": "library",
      "bom-ref": "pkg:npm/isstream@0.1.2",
      "group": "",
      "name": "isstream",
      "version": "0.1.2",
      "description": "",
      "scope": "optional",
      "hashes": [
        {
          "alg": "SHA-1",
          "content": "47e63f7af55afa6f92e1500e690eb8b8529c099a"
        }
      ],
      "purl": "pkg:npm/isstream@0.1.2"
    },
    {
      "type": "library",
      "bom-ref": "pkg:npm/jsbn@0.1.1",
      "group": "",
      "name": "jsbn",
      "version": "0.1.1",
      "description": "",
      "scope": "optional",
      "hashes": [
        {
          "alg": "SHA-1",
          "content": "a5e654c2e5a2deb5f201d96cefbca80c0ef2f513"
        }
      ],
      "purl": "pkg:npm/jsbn@0.1.1"
    },
    {
      "type": "library",
      "bom-ref": "pkg:npm/json-schema@0.2.3",
      "group": "",
      "name": "json-schema",
      "version": "0.2.3",
      "description": "",
      "scope": "optional",
      "hashes": [
        {
          "alg": "SHA-1",
          "content": "b480c892e59a2f05954ce727bd3f2a4e882f9e13"
        }
      ],
      "purl": "pkg:npm/json-schema@0.2.3"
    },
    {
      "type": "library",
      "bom-ref": "pkg:npm/json-schema-traverse@0.4.1",
      "group": "",
      "name": "json-schema-traverse",
      "version": "0.4.1",
      "description": "",
      "scope": "optional",
      "hashes": [
        {
          "alg": "SHA-512",
          "content": "c5b6c21f9742614e53f0b704861ba1ec727cf075ee5b7aac237634cce64529f6441dca5688753f271ce4eb6f41aec69bfe63221d0b62f7030ffbce3944f7b756"
        }
      ],
      "purl": "pkg:npm/json-schema-traverse@0.4.1"
    },
    {
      "type": "library",
      "bom-ref": "pkg:npm/json-stringify-safe@5.0.1",
      "group": "",
      "name": "json-stringify-safe",
      "version": "5.0.1",
      "description": "",
      "scope": "optional",
      "hashes": [
        {
          "alg": "SHA-1",
          "content": "1296a2d58fd45f19a0f6ce01d65701e2c735b6eb"
        }
      ],
      "purl": "pkg:npm/json-stringify-safe@5.0.1"
    },
    {
      "type": "library",
      "bom-ref": "pkg:npm/jsprim@1.4.1",
      "group": "",
      "name": "jsprim",
      "version": "1.4.1",
      "description": "",
      "scope": "optional",
      "hashes": [
        {
          "alg": "SHA-1",
          "content": "313e66bc1e5cc06e438bc1b7499c2e5c56acb6a2"
        }
      ],
      "purl": "pkg:npm/jsprim@1.4.1"
    },
    {
      "type": "library",
      "bom-ref": "pkg:npm/levn@0.3.0",
      "group": "",
      "name": "levn",
      "version": "0.3.0",
      "description": "",
      "scope": "optional",
      "hashes": [
        {
          "alg": "SHA-1",
          "content": "3b09924edf9f083c0490fdd4c0bc4421e04764ee"
        }
      ],
      "purl": "pkg:npm/levn@0.3.0"
    },
    {
      "type": "library",
      "bom-ref": "pkg:npm/lodash@4.17.14",
      "group": "",
      "name": "lodash",
      "version": "4.17.14",
      "description": "",
      "scope": "optional",
      "hashes": [
        {
          "alg": "SHA-512",
          "content": "9a62986d6dc62ee25e5fe8863fe63b1a9d408861c66d71c23a1fe3666adac0c9ac13b312e339c8dd12f616c8dba8ec8c6b21c89e339eca45bb3c46a3524d7fc7"
        }
      ],
      "purl": "pkg:npm/lodash@4.17.14"
    },
    {
      "type": "library",
      "bom-ref": "pkg:npm/lru-cache@4.1.5",
      "group": "",
      "name": "lru-cache",
      "version": "4.1.5",
      "description": "",
      "scope": "optional",
      "hashes": [
        {
          "alg": "SHA-512",
          "content": "b166656c43f63ac1cd917acc97919893f8ca93bd0c06783a514e1823fa860d86e07fa61b3f812f9aa2126d70a826244ab3ed5b4a9147560431bc9d7b176962e6"
        }
      ],
      "purl": "pkg:npm/lru-cache@4.1.5"
    },
    {
      "type": "library",
      "bom-ref": "pkg:npm/mailgun-js@0.22.0",
      "group": "",
      "name": "mailgun-js",
      "version": "0.22.0",
      "description": "",
      "scope": "required",
      "hashes": [
        {
          "alg": "SHA-512",
          "content": "6b66a58399ee4d903d3ec6b5a5210812c6f1af566b9aac78564806090df4c558749081fb06ee7b01820ba3ed2ff102d2757b42c8b692f8a566742ad0a34b9614"
        }
      ],
      "purl": "pkg:npm/mailgun-js@0.22.0"
    },
    {
      "type": "library",
      "bom-ref": "pkg:npm/async@2.6.2",
      "group": "",
      "name": "async",
      "version": "2.6.2",
      "description": "",
      "scope": "optional",
      "hashes": [
        {
          "alg": "SHA-512",
          "content": "1f5a95621d4c62110414bb0ff7b7152aa086a3b29f0b24edeae116aac4c1afd48ef38a0af54c1bc9dff2096fbaaca24b1e4b013545566430237d2f82731d016e"
        }
      ],
      "purl": "pkg:npm/async@2.6.2"
    },
    {
      "type": "library",
      "bom-ref": "pkg:npm/mime-db@1.38.0",
      "group": "",
      "name": "mime-db",
      "version": "1.38.0",
      "description": "",
      "scope": "optional",
      "hashes": [
        {
          "alg": "SHA-512",
          "content": "6ea562a0c145cdcd9ac1c749648cd1dc78d9157db44218a5552ee1cad90aaefef11409fc6ccd60cdcfc5397d9ac0b212bd67b43d5f29b4529ca27fb0679a9892"
        }
      ],
      "purl": "pkg:npm/mime-db@1.38.0"
    },
    {
      "type": "library",
      "bom-ref": "pkg:npm/mime-types@2.1.22",
      "group": "",
      "name": "mime-types",
      "version": "2.1.22",
      "description": "",
      "scope": "optional",
      "hashes": [
        {
          "alg": "SHA-512",
          "content": "68697a4d91a7866fe58ba17bcb1f366c988167082211ae077fa08dafc60efabe541ebe77b524d865bd74db3c94e740ce59629e3afd2e40b44bd3ff4488a582a2"
        }
      ],
      "purl": "pkg:npm/mime-types@2.1.22"
    },
    {
      "type": "library",
      "bom-ref": "pkg:npm/ms@2.1.1",
      "group": "",
      "name": "ms",
      "version": "2.1.1",
      "description": "",
      "scope": "optional",
      "hashes": [
        {
          "alg": "SHA-512",
          "content": "b60a7e765e5c1a4dbcbad624b41b2b16a03b1ca82b8603ec83a67f11f856238825d47c2af01fc6998ff4a1767a9c5f210d57ac4bf1699d8683fe439685842fca"
        }
      ],
      "purl": "pkg:npm/ms@2.1.1"
    },
    {
      "type": "library",
      "bom-ref": "pkg:npm/netmask@1.0.6",
      "group": "",
      "name": "netmask",
      "version": "1.0.6",
      "description": "",
      "scope": "optional",
      "hashes": [
        {
          "alg": "SHA-1",
          "content": "20297e89d86f6f6400f250d9f4f6b4c1945fcd35"
        }
      ],
      "purl": "pkg:npm/netmask@1.0.6"
    },
    {
      "type": "library",
      "bom-ref": "pkg:npm/node-fetch@2.5.0",
      "group": "",
      "name": "node-fetch",
      "version": "2.5.0",
      "description": "",
      "scope": "required",
      "hashes": [
        {
          "alg": "SHA-512",
          "content": "62e64a96e856189c02714bb846566cb5d031afc6c57ce5476a47359a99701e493c27eb6a335639cab698bc8529797f1a63bf9cac2c2210b26aed5974a342d65f"
        }
      ],
      "purl": "pkg:npm/node-fetch@2.5.0"
    },
    {
      "type": "library",
      "bom-ref": "pkg:npm/oauth-sign@0.9.0",
      "group": "",
      "name": "oauth-sign",
      "version": "0.9.0",
      "description": "",
      "scope": "optional",
      "hashes": [
        {
          "alg": "SHA-512",
          "content": "7dec6150514f4c657cc9b02d48819b57a80e912bfc52d45b0c19c0c8b430e103ca920365b07d81c8f1ad314a9d5a4a2ce98091980a958b0819ac973f9910f365"
        }
      ],
      "purl": "pkg:npm/oauth-sign@0.9.0"
    },
    {
      "type": "library",
      "bom-ref": "pkg:npm/optionator@0.8.2",
      "group": "",
      "name": "optionator",
      "version": "0.8.2",
      "description": "",
      "scope": "optional",
      "hashes": [
        {
          "alg": "SHA-1",
          "content": "364c5e409d3f4d6301d6c0b4c05bba50180aeb64"
        }
      ],
      "purl": "pkg:npm/optionator@0.8.2"
    },
    {
      "type": "library",
      "bom-ref": "pkg:npm/pac-proxy-agent@3.0.0",
      "group": "",
      "name": "pac-proxy-agent",
      "version": "3.0.0",
      "description": "",
      "scope": "optional",
      "hashes": [
        {
          "alg": "SHA-512",
          "content": "00e517f63112fc49105f6cd1cf4016ee54b1f630fffe1412f3015706f72777f2763f2f4a68c24ca95fcb3ea26cb23d6d806b9fa2d6f69a6a2918f475e4e0efd5"
        }
      ],
      "purl": "pkg:npm/pac-proxy-agent@3.0.0"
    },
    {
      "type": "library",
      "bom-ref": "pkg:npm/pac-resolver@3.0.0",
      "group": "",
      "name": "pac-resolver",
      "version": "3.0.0",
      "description": "",
      "scope": "optional",
      "hashes": [
        {
          "alg": "SHA-512",
          "content": "b5c737f1bb23b84dd7679fb8bcff7a39f84eba0ad7f89727a546e17ee7382ee5c12d08684ed84eb2d65ea102410e74140d8cd899d2262ac6f3d314a5d7ff6a78"
        }
      ],
      "purl": "pkg:npm/pac-resolver@3.0.0"
    },
    {
      "type": "library",
      "bom-ref": "pkg:npm/path-proxy@1.0.0",
      "group": "",
      "name": "path-proxy",
      "version": "1.0.0",
      "description": "",
      "scope": "optional",
      "hashes": [
        {
          "alg": "SHA-1",
          "content": "18e8a36859fc9d2f1a53b48dee138543c020de5e"
        }
      ],
      "purl": "pkg:npm/path-proxy@1.0.0"
    },
    {
      "type": "library",
      "bom-ref": "pkg:npm/inflection@1.3.8",
      "group": "",
      "name": "inflection",
      "version": "1.3.8",
      "description": "",
      "scope": "optional",
      "hashes": [
        {
          "alg": "SHA-1",
          "content": "cbd160da9f75b14c3cc63578d4f396784bf3014e"
        }
      ],
      "purl": "pkg:npm/inflection@1.3.8"
    },
    {
      "type": "library",
      "bom-ref": "pkg:npm/performance-now@2.1.0",
      "group": "",
      "name": "performance-now",
      "version": "2.1.0",
      "description": "",
      "scope": "optional",
      "hashes": [
        {
          "alg": "SHA-1",
          "content": "6309f4e0e5fa913ec1c69307ae364b4b377c9e7b"
        }
      ],
      "purl": "pkg:npm/performance-now@2.1.0"
    },
    {
      "type": "library",
      "bom-ref": "pkg:npm/prelude-ls@1.1.2",
      "group": "",
      "name": "prelude-ls",
      "version": "1.1.2",
      "description": "",
      "scope": "optional",
      "hashes": [
        {
          "alg": "SHA-1",
          "content": "21932a549f5e52ffd9a827f570e04be62a97da54"
        }
      ],
      "purl": "pkg:npm/prelude-ls@1.1.2"
    },
    {
      "type": "library",
      "bom-ref": "pkg:npm/promisify-call@2.0.4",
      "group": "",
      "name": "promisify-call",
      "version": "2.0.4",
      "description": "",
      "scope": "optional",
      "hashes": [
        {
          "alg": "SHA-1",
          "content": "d48c2d45652ccccd52801ddecbd533a6d4bd5fba"
        }
      ],
      "purl": "pkg:npm/promisify-call@2.0.4"
    },
    {
      "type": "library",
      "bom-ref": "pkg:npm/proxy-agent@3.1.0",
      "group": "",
      "name": "proxy-agent",
      "version": "3.1.0",
      "description": "",
      "scope": "optional",
      "hashes": [
        {
          "alg": "SHA-512",
          "content": "2246d92f80a55b7c3004bfc00450f6cc9f223fce02634b8a32f04f93f39c7907bf7048ebc73375a4c1ec2f085bcd4a11846f506d2c580be67b2c191388136fac"
        }
      ],
      "purl": "pkg:npm/proxy-agent@3.1.0"
    },
    {
      "type": "library",
      "bom-ref": "pkg:npm/proxy-from-env@1.0.0",
      "group": "",
      "name": "proxy-from-env",
      "version": "1.0.0",
      "description": "",
      "scope": "optional",
      "hashes": [
        {
          "alg": "SHA-1",
          "content": "33c50398f70ea7eb96d21f7b817630a55791c7ee"
        }
      ],
      "purl": "pkg:npm/proxy-from-env@1.0.0"
    },
    {
      "type": "library",
      "bom-ref": "pkg:npm/pseudomap@1.0.2",
      "group": "",
      "name": "pseudomap",
      "version": "1.0.2",
      "description": "",
      "scope": "optional",
      "hashes": [
        {
          "alg": "SHA-1",
          "content": "f052a28da70e618917ef0a8ac34c1ae5a68286b3"
        }
      ],
      "purl": "pkg:npm/pseudomap@1.0.2"
    },
    {
      "type": "library",
      "bom-ref": "pkg:npm/psl@1.1.31",
      "group": "",
      "name": "psl",
      "version": "1.1.31",
      "description": "",
      "scope": "optional",
      "hashes": [
        {
          "alg": "SHA-512",
          "content": "ffaa6de3e0be4fec1952278a47adb43a9ccdfcb96734ab968f2d6214b43f506df926a1e547ff3d30fd5df7a7547e47fa0e77b74ee2d0cce60462c849f87c7c9b"
        }
      ],
      "purl": "pkg:npm/psl@1.1.31"
    },
    {
      "type": "library",
      "bom-ref": "pkg:npm/punycode@2.1.1",
      "group": "",
      "name": "punycode",
      "version": "2.1.1",
      "description": "",
      "scope": "optional",
      "hashes": [
        {
          "alg": "SHA-512",
          "content": "5d1b118dd7fe8f99a5fb2ffa18a1cf65bac5ffca766206b424fb5da93218d977b9a2124f0fdb1a0c924b3efa7df8d481a6b56f7af7576726e78f672ff0e11dd0"
        }
      ],
      "purl": "pkg:npm/punycode@2.1.1"
    },
    {
      "type": "library",
      "bom-ref": "pkg:npm/qs@6.5.2",
      "group": "",
      "name": "qs",
      "version": "6.5.2",
      "description": "",
      "scope": "optional",
      "hashes": [
        {
          "alg": "SHA-512",
          "content": "3796405f8fcbc49985fbbc0def8a540faa8087dff09ef750723abd4d98debef5f3494a3b6df9b0f75b1aa8c8f3192db1abdd7fa1d376756fd63a5eea40734318"
        }
      ],
      "purl": "pkg:npm/qs@6.5.2"
    },
    {
      "type": "library",
      "bom-ref": "pkg:npm/raw-body@2.3.3",
      "group": "",
      "name": "raw-body",
      "version": "2.3.3",
      "description": "",
      "scope": "optional",
      "hashes": [
        {
          "alg": "SHA-512",
          "content": "f5eb22125bf506b668237ac20ee3ae2820516ee0291866833d07e349f946c5dcb8a32cea821c6eea4944924548bc18def85174057f5ca04bfc2aa5ba5ffee78f"
        }
      ],
      "purl": "pkg:npm/raw-body@2.3.3"
    },
    {
      "type": "library",
      "bom-ref": "pkg:npm/readable-stream@3.3.0",
      "group": "",
      "name": "readable-stream",
      "version": "3.3.0",
      "description": "",
      "scope": "optional",
      "hashes": [
        {
          "alg": "SHA-512",
          "content": "12c23eb379375ec5be7d4f1f40008b379f64cb7e00675e0ba1e559a58c2666f95d085a34af48277a5c05d9370c8cba2bfc14cbe5a0c9541324b2cd1db614e83f"
        }
      ],
      "purl": "pkg:npm/readable-stream@3.3.0"
    },
    {
      "type": "library",
      "bom-ref": "pkg:npm/string_decoder@1.2.0",
      "group": "",
      "name": "string_decoder",
      "version": "1.2.0",
      "description": "",
      "scope": "optional",
      "hashes": [
        {
          "alg": "SHA-512",
          "content": "e98ab25fa65611882e031819cc718bed2b02786c775764ed393a99cf5c524d25a7aac6d6c1ba6d69f372bdffc00aab995175770c036be410c8c0d61ed66378db"
        }
      ],
      "purl": "pkg:npm/string_decoder@1.2.0"
    },
    {
      "type": "library",
      "bom-ref": "pkg:npm/request@2.88.0",
      "group": "",
      "name": "request",
      "version": "2.88.0",
      "description": "",
      "scope": "optional",
      "hashes": [
        {
          "alg": "SHA-512",
          "content": "340a814ab8a318b65d33459936c2272c9a6426890bef65d88d4a670748b0b1183187b741e823ab1e74c137037413e9470c0273bbb90b0240de634f33dbf03486"
        }
      ],
      "purl": "pkg:npm/request@2.88.0"
    },
    {
      "type": "library",
      "bom-ref": "pkg:npm/request-promise-core@1.1.2",
      "group": "",
      "name": "request-promise-core",
      "version": "1.1.2",
      "description": "",
      "scope": "optional",
      "hashes": [
        {
          "alg": "SHA-512",
          "content": "507632ab530ef06b1e7c612dec4a6b4bc52b5ec9b54f112f1545f520c4ee48b536461edf4c8745b65f310fb262118896536765f8d6008c24e4b137a1414c4f6a"
        }
      ],
      "purl": "pkg:npm/request-promise-core@1.1.2"
    },
    {
      "type": "library",
      "bom-ref": "pkg:npm/request-promise-native@1.0.7",
      "group": "",
      "name": "request-promise-native",
      "version": "1.0.7",
      "description": "",
      "scope": "required",
      "hashes": [
        {
          "alg": "SHA-512",
          "content": "ac83276c176035588bdfb9d9d5bdcbfd57cf3a94a2d13a950d03c0bcee94d7894ccce2ebb799e2971090aad0ca859783896d3f8640971a842386025dfed0a1eb"
        }
      ],
      "purl": "pkg:npm/request-promise-native@1.0.7"
    },
    {
      "type": "library",
      "bom-ref": "pkg:npm/safe-buffer@5.1.2",
      "group": "",
      "name": "safe-buffer",
      "version": "5.1.2",
      "description": "",
      "scope": "optional",
      "hashes": [
        {
          "alg": "SHA-512",
          "content": "19dd94641243917958ec66c9c5fb04f3f9ef2a45045351b7f1cd6c88de903fa6bd3d3f4c98707c1a7a6c71298c252a05f0b388aedf2e77fc0fb688f2b381bafa"
        }
      ],
      "purl": "pkg:npm/safe-buffer@5.1.2"
    },
    {
      "type": "library",
      "bom-ref": "pkg:npm/safer-buffer@2.1.2",
      "group": "",
      "name": "safer-buffer",
      "version": "2.1.2",
      "description": "",
      "scope": "optional",
      "hashes": [
        {
          "alg": "SHA-512",
          "content": "619a372bcd920fb462ca2d04d4440fa232f3ee4a5ea6749023d2323db1c78355d75debdbe5d248eeda72376003c467106c71bbbdcc911e4d1c6f0a9c42b894b6"
        }
      ],
      "purl": "pkg:npm/safer-buffer@2.1.2"
    },
    {
      "type": "library",
      "bom-ref": "pkg:npm/setprototypeof@1.1.0",
      "group": "",
      "name": "setprototypeof",
      "version": "1.1.0",
      "description": "",
      "scope": "optional",
      "hashes": [
        {
          "alg": "SHA-512",
          "content": "06f13f4f0a595f8157131c4ec59c9119042feb9d4c4b09962991aabe63dc4488c3a96b9bebb9132ae20cc78ddc659ad2fdc041cf005c3435a8171b765c4148a5"
        }
      ],
      "purl": "pkg:npm/setprototypeof@1.1.0"
    },
    {
      "type": "library",
      "bom-ref": "pkg:npm/smart-buffer@4.0.2",
      "group": "",
      "name": "smart-buffer",
      "version": "4.0.2",
      "description": "",
      "scope": "optional",
      "hashes": [
        {
          "alg": "SHA-512",
          "content": "243844a532b35eeb0ea9767405421d1fe0a315d3bf091ded2e57f908ddf8232a48fb13265d6d6e075e8e398f33ddc2026c994301527335bc0184d3b4c2df4e03"
        }
      ],
      "purl": "pkg:npm/smart-buffer@4.0.2"
    },
    {
      "type": "library",
      "bom-ref": "pkg:npm/socks@2.3.2",
      "group": "",
      "name": "socks",
      "version": "2.3.2",
      "description": "",
      "scope": "optional",
      "hashes": [
        {
          "alg": "SHA-512",
          "content": "a42a63c5080e0720c72e536a96787f98d480c48524c8106ec30853715f9e9d919b0da0a53ef1ddbe6eaebcec197c52646a6edc1a104d6dbe09c623fc519911bd"
        }
      ],
      "purl": "pkg:npm/socks@2.3.2"
    },
    {
      "type": "library",
      "bom-ref": "pkg:npm/socks-proxy-agent@4.0.2",
      "group": "",
      "name": "socks-proxy-agent",
      "version": "4.0.2",
      "description": "",
      "scope": "optional",
      "hashes": [
        {
          "alg": "SHA-512",
          "content": "353eacc87848f4b9ae10c48ae8a77657b80dbf92856682c4ed5e6e7569a7d1d7bedcc923dd4300fc024f2f278d515984942bab487b5474cdc44e9477cfbef45a"
        }
      ],
      "purl": "pkg:npm/socks-proxy-agent@4.0.2"
    },
    {
      "type": "library",
      "bom-ref": "pkg:npm/source-map@0.6.1",
      "group": "",
      "name": "source-map",
      "version": "0.6.1",
      "description": "",
      "scope": "optional",
      "hashes": [
        {
          "alg": "SHA-512",
          "content": "52381aa6e99695b3219018334fb624739617513e3a17488abbc4865ead1b7303f9773fe1d0f963e9e9c9aa3cf565bab697959aa989eb55bc16396332177178ee"
        }
      ],
      "purl": "pkg:npm/source-map@0.6.1"
    },
    {
      "type": "library",
      "bom-ref": "pkg:npm/sshpk@1.16.1",
      "group": "",
      "name": "sshpk",
      "version": "1.16.1",
      "description": "",
      "scope": "optional",
      "hashes": [
        {
          "alg": "SHA-512",
          "content": "1d75ea554abbfa970a78baaa663ea61c550cbd7b4e26dd6ea14c74f69156eb4d758a74ccc6a23c040f0f33de66cab232c8ac1d9f38dd1632e213a2813d5b4922"
        }
      ],
      "purl": "pkg:npm/sshpk@1.16.1"
    },
    {
      "type": "library",
      "bom-ref": "pkg:npm/statuses@1.5.0",
      "group": "",
      "name": "statuses",
      "version": "1.5.0",
      "description": "",
      "scope": "optional",
      "hashes": [
        {
          "alg": "SHA-1",
          "content": "161c7dac177659fd9811f43771fa99381478628c"
        }
      ],
      "purl": "pkg:npm/statuses@1.5.0"
    },
    {
      "type": "library",
      "bom-ref": "pkg:npm/stealthy-require@1.1.1",
      "group": "",
      "name": "stealthy-require",
      "version": "1.1.1",
      "description": "",
      "scope": "optional",
      "hashes": [
        {
          "alg": "SHA-1",
          "content": "35b09875b4ff49f26a777e509b3090a3226bf24b"
        }
      ],
      "purl": "pkg:npm/stealthy-require@1.1.1"
    },
    {
      "type": "library",
      "bom-ref": "pkg:npm/string_decoder@0.10.31",
      "group": "",
      "name": "string_decoder",
      "version": "0.10.31",
      "description": "",
      "scope": "optional",
      "hashes": [
        {
          "alg": "SHA-1",
          "content": "62e203bc41766c6c28c9fc84301dab1c5310fa94"
        }
      ],
      "purl": "pkg:npm/string_decoder@0.10.31"
    },
    {
      "type": "library",
      "bom-ref": "pkg:npm/thunkify@2.1.2",
      "group": "",
      "name": "thunkify",
      "version": "2.1.2",
      "description": "",
      "scope": "optional",
      "hashes": [
        {
          "alg": "SHA-1",
          "content": "faa0e9d230c51acc95ca13a361ac05ca7e04553d"
        }
      ],
      "purl": "pkg:npm/thunkify@2.1.2"
    },
    {
      "type": "library",
      "bom-ref": "pkg:npm/tough-cookie@2.4.3",
      "group": "",
      "name": "tough-cookie",
      "version": "2.4.3",
      "description": "",
      "scope": "optional",
      "hashes": [
        {
          "alg": "SHA-512",
          "content": "439b2b93fe2f0cce78589b098a8dd7367e8adac086f8243c1b95b3e9b661459a007bff93c63581fc69450276046e461594e37d14c93f7c4de1d912e93d7a3895"
        }
      ],
      "purl": "pkg:npm/tough-cookie@2.4.3"
    },
    {
      "type": "library",
      "bom-ref": "pkg:npm/punycode@1.4.1",
      "group": "",
      "name": "punycode",
      "version": "1.4.1",
      "description": "",
      "scope": "optional",
      "hashes": [
        {
          "alg": "SHA-1",
          "content": "c0d5a63b2718800ad8e1eb0fa5269c84dd41845e"
        }
      ],
      "purl": "pkg:npm/punycode@1.4.1"
    },
    {
      "type": "library",
      "bom-ref": "pkg:npm/tsscmp@1.0.6",
      "group": "",
      "name": "tsscmp",
      "version": "1.0.6",
      "description": "",
      "scope": "optional",
      "hashes": [
        {
          "alg": "SHA-512",
          "content": "2f186d0243c34e45423108edda1e9e055636f0a0a38a466a65f31c0b5e5805e3639205297427c1bb91e888e4c3bbceafeac984f323a3c8492d27c8656c034740"
        }
      ],
      "purl": "pkg:npm/tsscmp@1.0.6"
    },
    {
      "type": "library",
      "bom-ref": "pkg:npm/tunnel-agent@0.6.0",
      "group": "",
      "name": "tunnel-agent",
      "version": "0.6.0",
      "description": "",
      "scope": "optional",
      "hashes": [
        {
          "alg": "SHA-1",
          "content": "27a5dea06b36b04a0a9966774b290868f0fc40fd"
        }
      ],
      "purl": "pkg:npm/tunnel-agent@0.6.0"
    },
    {
      "type": "library",
      "bom-ref": "pkg:npm/tweetnacl@0.14.5",
      "group": "",
      "name": "tweetnacl",
      "version": "0.14.5",
      "description": "",
      "scope": "optional",
      "hashes": [
        {
          "alg": "SHA-1",
          "content": "5ae68177f192d4456269d108afa93ff8743f4f64"
        }
      ],
      "purl": "pkg:npm/tweetnacl@0.14.5"
    },
    {
      "type": "library",
      "bom-ref": "pkg:npm/type-check@0.3.2",
      "group": "",
      "name": "type-check",
      "version": "0.3.2",
      "description": "",
      "scope": "optional",
      "hashes": [
        {
          "alg": "SHA-1",
          "content": "5884cab512cf1d355e3fb784f30804b2b520db72"
        }
      ],
      "purl": "pkg:npm/type-check@0.3.2"
    },
    {
      "type": "library",
      "bom-ref": "pkg:npm/unpipe@1.0.0",
      "group": "",
      "name": "unpipe",
      "version": "1.0.0",
      "description": "",
      "scope": "optional",
      "hashes": [
        {
          "alg": "SHA-1",
          "content": "b2bf4ee8514aae6165b4817829d21b2ef49904ec"
        }
      ],
      "purl": "pkg:npm/unpipe@1.0.0"
    },
    {
      "type": "library",
      "bom-ref": "pkg:npm/uri-js@4.2.2",
      "group": "",
      "name": "uri-js",
      "version": "4.2.2",
      "description": "",
      "scope": "optional",
      "hashes": [
        {
          "alg": "SHA-512",
          "content": "298f45ae68abaa5f755f64208ebcb459de18f984ddadd661792f13170be46cb59ffc6e4a3490c287aa4a2f939972d116e3ed0169ae6274ad9942e10b4703f39d"
        }
      ],
      "purl": "pkg:npm/uri-js@4.2.2"
    },
    {
      "type": "library",
      "bom-ref": "pkg:npm/util-deprecate@1.0.2",
      "group": "",
      "name": "util-deprecate",
      "version": "1.0.2",
      "description": "",
      "scope": "optional",
      "hashes": [
        {
          "alg": "SHA-1",
          "content": "450d4dc9fa70de732762fbd2d4a28981419a0ccf"
        }
      ],
      "purl": "pkg:npm/util-deprecate@1.0.2"
    },
    {
      "type": "library",
      "bom-ref": "pkg:npm/uuid@3.3.2",
      "group": "",
      "name": "uuid",
      "version": "3.3.2",
      "description": "",
      "scope": "optional",
      "hashes": [
        {
          "alg": "SHA-512",
          "content": "c9726678d6b0dc39e728038a244e75b0bfd96987d6251975a4af5daf5f58142bb439b4b6df5001d7f2dba93291010e64c3c03dd2b03a7ebe2b88e5294d9bd064"
        }
      ],
      "purl": "pkg:npm/uuid@3.3.2"
    },
    {
      "type": "library",
      "bom-ref": "pkg:npm/verror@1.10.0",
      "group": "",
      "name": "verror",
      "version": "1.10.0",
      "description": "",
      "scope": "optional",
      "hashes": [
        {
          "alg": "SHA-1",
          "content": "3a105ca17053af55d6e270c1f8288682e18da400"
        }
      ],
      "purl": "pkg:npm/verror@1.10.0"
    },
    {
      "type": "library",
      "bom-ref": "pkg:npm/with-callback@1.0.2",
      "group": "",
      "name": "with-callback",
      "version": "1.0.2",
      "description": "",
      "scope": "optional",
      "hashes": [
        {
          "alg": "SHA-1",
          "content": "a09629b9a920028d721404fb435bdcff5c91bc21"
        }
      ],
      "purl": "pkg:npm/with-callback@1.0.2"
    },
    {
      "type": "library",
      "bom-ref": "pkg:npm/wordwrap@1.0.0",
      "group": "",
      "name": "wordwrap",
      "version": "1.0.0",
      "description": "",
      "scope": "optional",
      "hashes": [
        {
          "alg": "SHA-1",
          "content": "27584810891456a4171c8d0226441ade90cbcaeb"
        }
      ],
      "purl": "pkg:npm/wordwrap@1.0.0"
    },
    {
      "type": "library",
      "bom-ref": "pkg:npm/xregexp@2.0.0",
      "group": "",
      "name": "xregexp",
      "version": "2.0.0",
      "description": "",
      "scope": "optional",
      "hashes": [
        {
          "alg": "SHA-1",
          "content": "52a63e56ca0b84a7f3a5f3d61872f126ad7a5943"
        }
      ],
      "purl": "pkg:npm/xregexp@2.0.0"
    },
    {
      "type": "library",
      "bom-ref": "pkg:npm/yallist@2.1.2",
      "group": "",
      "name": "yallist",
      "version": "2.1.2",
      "description": "",
      "scope": "optional",
      "hashes": [
        {
          "alg": "SHA-1",
          "content": "1c11f9218f076089a47dd512f93c6699a6a81d52"
        }
      ],
      "purl": "pkg:npm/yallist@2.1.2"
    },
    {
      "type": "library",
      "bom-ref": "pkg:npm/abort-controller@3.0.0",
      "group": "",
      "name": "abort-controller",
      "version": "3.0.0",
      "description": "",
      "scope": "optional",
      "hashes": [
        {
          "alg": "SHA-512",
          "content": "87c950f2d69c6589d1def3504e089b8feb4e0c7239ffe974e80bb63dcae2bff1a67add1e6a3e13c161f8d6c3bdc271c3890b048f5f6ad1daf375675e007b707a"
        }
      ],
      "purl": "pkg:npm/abort-controller@3.0.0"
    },
    {
      "type": "library",
      "bom-ref": "pkg:npm/base64-js@1.3.0",
      "group": "",
      "name": "base64-js",
      "version": "1.3.0",
      "description": "",
      "scope": "required",
      "hashes": [
        {
          "alg": "SHA-512",
          "content": "71c6afff21afa1af340500e58c2c6c9a64375efc7ad3f5290488a3e50376d56df0062fe18480bd3a83be28ba6ef482534bd8f80d1549dda0c317d70c4a86b697"
        }
      ],
      "purl": "pkg:npm/base64-js@1.3.0"
    },
    {
      "type": "library",
      "bom-ref": "pkg:npm/bignumber.js@7.2.1",
      "group": "",
      "name": "bignumber.js",
      "version": "7.2.1",
      "description": "",
      "scope": "optional",
      "hashes": [
        {
          "alg": "SHA-512",
          "content": "4b85f3064e6c301f9171bfcb35ca735ebe7b5514f1800bda0040c0975030471dbb8f4d214fce0ee8e92d784eeef1407736e69aca0091ac4a6aa31e2e0ceadb75"
        }
      ],
      "purl": "pkg:npm/bignumber.js@7.2.1"
    },
    {
      "type": "library",
      "bom-ref": "pkg:npm/buffer-equal-constant-time@1.0.1",
      "group": "",
      "name": "buffer-equal-constant-time",
      "version": "1.0.1",
      "description": "",
      "scope": "optional",
      "hashes": [
        {
          "alg": "SHA-1",
          "content": "f8e71132f7ffe6e01a5c9697a4c6f3e48d5cc819"
        }
      ],
      "purl": "pkg:npm/buffer-equal-constant-time@1.0.1"
    },
    {
      "type": "library",
      "bom-ref": "pkg:npm/ecdsa-sig-formatter@1.0.11",
      "group": "",
      "name": "ecdsa-sig-formatter",
      "version": "1.0.11",
      "description": "",
      "scope": "optional",
      "hashes": [
        {
          "alg": "SHA-512",
          "content": "9da825dd162b6cdbfa91091e248a6de8d259cbcb702c1ff6bedcfac8df59e2f44a1cde3f41924811baa88402d283029d9e4b2e63793901d769e6583cb15a1571"
        }
      ],
      "purl": "pkg:npm/ecdsa-sig-formatter@1.0.11"
    },
    {
      "type": "library",
      "bom-ref": "pkg:npm/event-target-shim@5.0.1",
      "group": "",
      "name": "event-target-shim",
      "version": "5.0.1",
      "description": "",
      "scope": "optional",
      "hashes": [
        {
          "alg": "SHA-512",
          "content": "8bfd976e74b3feec51094ebe35d54980a5834cce36efe32a61b910cc3df6d43b8240952a3ae24a200d08336f96db1b581dd28e999e1d47a7c4c6c7784972fe59"
        }
      ],
      "purl": "pkg:npm/event-target-shim@5.0.1"
    },
    {
      "type": "library",
      "bom-ref": "pkg:npm/fast-text-encoding@1.0.0",
      "group": "",
      "name": "fast-text-encoding",
      "version": "1.0.0",
      "description": "",
      "scope": "optional",
      "hashes": [
        {
          "alg": "SHA-512",
          "content": "47d6c70afc1e531c70903c218dabf9bf1a45bdd3c69559e0b6a9b1e292197d252133f4383622141c1e39e8101ff90d4dc2edc711960e36dbbe4726be69fe2389"
        }
      ],
      "purl": "pkg:npm/fast-text-encoding@1.0.0"
    },
    {
      "type": "library",
      "bom-ref": "pkg:npm/gaxios@1.8.3",
      "group": "",
      "name": "gaxios",
      "version": "1.8.3",
      "description": "",
      "scope": "optional",
      "hashes": [
        {
          "alg": "SHA-512",
          "content": "e8b7353f43636cf350d851a04d1babcf7d8fe8592d3496f02ea5efad43617f0cca6fd8a2cdc5ae009887a121b65b5f3a2bd64bd17e924f9c43f60256847235b2"
        }
      ],
      "purl": "pkg:npm/gaxios@1.8.3"
    },
    {
      "type": "library",
      "bom-ref": "pkg:npm/gcp-metadata@1.0.0",
      "group": "",
      "name": "gcp-metadata",
      "version": "1.0.0",
      "description": "",
      "scope": "optional",
      "hashes": [
        {
          "alg": "SHA-512",
          "content": "43a1eb81fac241e122adc9cd3f7ac27048220efede17dfb507ed4c320a44d7dd3effed268d047c3f178e69183165699d0c017d108af21c1f60d66a0f8b0d526d"
        }
      ],
      "purl": "pkg:npm/gcp-metadata@1.0.0"
    },
    {
      "type": "library",
      "bom-ref": "pkg:npm/google-auth-library@3.1.2",
      "group": "",
      "name": "google-auth-library",
      "version": "3.1.2",
      "description": "",
      "scope": "optional",
      "hashes": [
        {
          "alg": "SHA-512",
          "content": "70340ccd3a2dc3258cae0e6344eeead00e132ffdc658180eec8eeae7118a3628857fd4a6198fce27562c2cc808d8c5471ec106caba989db9e6575004f99e839d"
        }
      ],
      "purl": "pkg:npm/google-auth-library@3.1.2"
    },
    {
      "type": "library",
      "bom-ref": "pkg:npm/google-p12-pem@1.0.4",
      "group": "",
      "name": "google-p12-pem",
      "version": "1.0.4",
      "description": "",
      "scope": "optional",
      "hashes": [
        {
          "alg": "SHA-512",
          "content": "4b02c0509a947d3076892fb015f492fc6f69edbb7879671cd8bc9fbe65177bb716a7aa779a9c43a3a2cb236f4c5dd53ac2f3dc43fba9dbdf17ec6302e7294094"
        }
      ],
      "purl": "pkg:npm/google-p12-pem@1.0.4"
    },
    {
      "type": "library",
      "bom-ref": "pkg:npm/googleapis@39.2.0",
      "group": "",
      "name": "googleapis",
      "version": "39.2.0",
      "description": "",
      "scope": "required",
      "hashes": [
        {
          "alg": "SHA-512",
          "content": "eba5fc4c6d41df7cc0b75efbb06d42a0aa181cf3ff07aead1299e74803460aaa2d32e63982a4903bc1bfd20a87651da346073908749234e2429e92344ae0f131"
        }
      ],
      "purl": "pkg:npm/googleapis@39.2.0"
    },
    {
      "type": "library",
      "bom-ref": "pkg:npm/googleapis-common@0.7.2",
      "group": "",
      "name": "googleapis-common",
      "version": "0.7.2",
      "description": "",
      "scope": "optional",
      "hashes": [
        {
          "alg": "SHA-512",
          "content": "f431092223b89d2ee7c34544d5856411f5c48fcc7c331b2e07ec9922938150b15237d38829c514f14b8a8126455389499918a831f9e092dadb90cc1625c52142"
        }
      ],
      "purl": "pkg:npm/googleapis-common@0.7.2"
    },
    {
      "type": "library",
      "bom-ref": "pkg:npm/gtoken@2.3.3",
      "group": "",
      "name": "gtoken",
      "version": "2.3.3",
      "description": "",
      "scope": "optional",
      "hashes": [
        {
          "alg": "SHA-512",
          "content": "11a078f5bbbf4c2a0d7908e1098288fc2baba2804a906c48a851ec580056d1bdb97e86c16154cc7bce00f04055559865f1e9a251d372a6297d86e30e4e6c809f"
        }
      ],
      "purl": "pkg:npm/gtoken@2.3.3"
    },
    {
      "type": "library",
      "bom-ref": "pkg:npm/json-bigint@0.3.0",
      "group": "",
      "name": "json-bigint",
      "version": "0.3.0",
      "description": "",
      "scope": "optional",
      "hashes": [
        {
          "alg": "SHA-1",
          "content": "0ccd912c4b8270d05f056fbd13814b53d3825b1e"
        }
      ],
      "purl": "pkg:npm/json-bigint@0.3.0"
    },
    {
      "type": "library",
      "bom-ref": "pkg:npm/jwa@1.4.1",
      "group": "",
      "name": "jwa",
      "version": "1.4.1",
      "description": "",
      "scope": "optional",
      "hashes": [
        {
          "alg": "SHA-512",
          "content": "aa22d7ff1844105294009e8588131b7acdf0f404f3ca4e56ec7bf3a5afd22d877136d9e0fa072eaefac8ed36c00a321796c272af4e7f4b5a14859adceb77af40"
        }
      ],
      "purl": "pkg:npm/jwa@1.4.1"
    },
    {
      "type": "library",
      "bom-ref": "pkg:npm/jws@3.2.2",
      "group": "",
      "name": "jws",
      "version": "3.2.2",
      "description": "",
      "scope": "optional",
      "hashes": [
        {
          "alg": "SHA-512",
          "content": "607959081ea5313965583b523c7cff6574ec8bc4b4d2eb0457abf5b63abcb4e519cf0ec3a520d65578d70eb7ba79dd70fe9778f79383a4765849d9114ec6b41c"
        }
      ],
      "purl": "pkg:npm/jws@3.2.2"
    },
    {
      "type": "library",
      "bom-ref": "pkg:npm/lru-cache@5.1.1",
      "group": "",
      "name": "lru-cache",
      "version": "5.1.1",
      "description": "",
      "scope": "optional",
      "hashes": [
        {
          "alg": "SHA-512",
          "content": "2a9340450037230bfe8d3034bad51555bae1f8996baf516fd1ee7a186cc014e5cdedd93f16f89a0d6f0b1e62b9d8395c1f858fda7ea023cbcdd5a7ac045828f7"
        }
      ],
      "purl": "pkg:npm/lru-cache@5.1.1"
    },
    {
      "type": "library",
      "bom-ref": "pkg:npm/mime@2.4.2",
      "group": "",
      "name": "mime",
      "version": "2.4.2",
      "description": "",
      "scope": "optional",
      "hashes": [
        {
          "alg": "SHA-512",
          "content": "cc905f64393046efa3dcf75dd9a1ec47919f1f68c85a198bd59cc1a1cf97fb7244b62da16c0ad673227ed65682d43dbf53f5b56bff827a08f4fce9c4536c9b8e"
        }
      ],
      "purl": "pkg:npm/mime@2.4.2"
    },
    {
      "type": "library",
      "bom-ref": "pkg:npm/node-fetch@2.3.0",
      "group": "",
      "name": "node-fetch",
      "version": "2.3.0",
      "description": "",
      "scope": "required",
      "hashes": [
        {
          "alg": "SHA-512",
          "content": "30e77ca55ddfc4435baf21122e054879a18aadd97eb9a62109249592378e6ffdf5fe78d3a5c8ace5a59f76a80d94722b28e2d16cc9df3c834f38c2f608815e5c"
        }
      ],
      "purl": "pkg:npm/node-fetch@2.3.0"
    },
    {
      "type": "library",
      "bom-ref": "pkg:npm/node-forge@0.8.2",
      "group": "",
      "name": "node-forge",
      "version": "0.8.2",
      "description": "",
      "scope": "optional",
      "hashes": [
        {
          "alg": "SHA-512",
          "content": "99743d181ab5377b830b2575a5d4b380882ec20b55a4cedfe7fe49e22a73d763ca5849663e95562c3b9697c8979a1cacaf6d7e5a65ff389e542b1f36c23a2682"
        }
      ],
      "purl": "pkg:npm/node-forge@0.8.2"
    },
    {
      "type": "library",
      "bom-ref": "pkg:npm/pify@4.0.1",
      "group": "",
      "name": "pify",
      "version": "4.0.1",
      "description": "",
      "scope": "optional",
      "hashes": [
        {
          "alg": "SHA-512",
          "content": "b81f3490115bfed7ddebc6d595e1bd4f9186b063e326b2c05294793d922b8419c86914d0463a9d252b082a438fe8e00815b8fb18eadcb9d739a4d8d9fa0795da"
        }
      ],
      "purl": "pkg:npm/pify@4.0.1"
    },
    {
      "type": "library",
      "bom-ref": "pkg:npm/qs@6.7.0",
      "group": "",
      "name": "qs",
      "version": "6.7.0",
      "description": "",
      "scope": "optional",
      "hashes": [
        {
          "alg": "SHA-512",
          "content": "54274144d1535f57f213b35be85628511a3f48f7bad9009a032cc9bd48f045a22c73e35e3c112788796fc459a65f9ebe1d9a61206b55d177828ab06da43ad3c9"
        }
      ],
      "purl": "pkg:npm/qs@6.7.0"
    },
    {
      "type": "library",
      "bom-ref": "pkg:npm/semver@5.7.0",
      "group": "",
      "name": "semver",
      "version": "5.7.0",
      "description": "",
      "scope": "optional",
      "hashes": [
        {
          "alg": "SHA-512",
          "content": "61ae768d25f6bbb40a821c5ea051a92f00ad1a5b7b8f4a18f4361be5aa6df673e5278d880feba54d71129edfea010728484472679b25dcb0c83b0d27027ff90c"
        }
      ],
      "purl": "pkg:npm/semver@5.7.0"
    },
    {
      "type": "library",
      "bom-ref": "pkg:npm/url-template@2.0.8",
      "group": "",
      "name": "url-template",
      "version": "2.0.8",
      "description": "",
      "scope": "optional",
      "hashes": [
        {
          "alg": "SHA-1",
          "content": "fc565a3cccbff7730c775f5641f9555791439f21"
        }
      ],
      "purl": "pkg:npm/url-template@2.0.8"
    },
    {
      "type": "library",
      "bom-ref": "pkg:npm/yallist@3.0.3",
      "group": "",
      "name": "yallist",
      "version": "3.0.3",
      "description": "",
      "scope": "optional",
      "hashes": [
        {
          "alg": "SHA-512",
          "content": "4be664f0311613aa0aa55faf237a9691a2be8d26c82bcea90b07b6205ff1c08a50f2312ec69c3d3726868e6a7df81a09bf9155da98aa0837280ad4ada698aad8"
        }
      ],
      "purl": "pkg:npm/yallist@3.0.3"
    }
  ]
}
