{
  "bomFormat": "CycloneDX",
  "specVersion": "1.3",
  "version": 1,
  "metadata": {
    "tools": [
      {
        "vendor": "CycloneDX",
        "name": "cyclonedx-gomod",
        "version": "v0.0.0-unset",
        "hashes": [
          {
            "alg": "MD5",
            "content": "a35776fc9417e8071d3f1dcfa2f1dd19"
          },
          {
            "alg": "SHA-1",
            "content": "a19a8eed713eff5a2092e5283c201a146f19421d"
          },
          {
            "alg": "SHA-256",
            "content": "17b3b980b9a5d0f48ad52043dee5b31aff3ae6599a36bc94224dc7b6a46759ef"
          },
          {
            "alg": "SHA-512",
            "content": "9d4f06aab20cede94a1aedf11a300ae9de98871235c68c72e421cd6d45495910861b39e743ee0eceb11bbdcd2c9acc3312c19064cfe90177243fb43127fcfa46"
          }
        ]
      },
      {
        "vendor": "AppThreat",
        "name": "cdxgen",
        "version": "3.0.10"
      },
      {
        "vendor": "Fortress Information Security",
        "name": "Github Extractor",
        "version": "1.15.1"
      }
    ],
    "authors": [
      {
        "name": "Fortress Information Security",
        "email": "sales@fortressinfosec.com",
        "phone": "1-407-573-6800"
      }
    ],
    "timestamp": "2022-06-01T21:00:00Z",
    "component": {
      "type": "application",
      "name": "terraform-docs",
      "version": "v0.16.0",
      "group": "terraform-docs",
      "externalReferences": [
        {
          "url": "https://github.com/terraform-docs/terraform-docs.git",
          "type": "distribution"
        },
        {
          "type": "website",
          "url": "https://terraform-docs.io",
          "comment": "As set via `homepage` in Github API"
        }
      ]
    }
  },
  "components": [
    {
      "type": "library",
      "bom-ref": "pkg:golang/github.com/BurntSushi/toml@v0.4.1",
      "name": "github.com/BurntSushi/toml",
      "version": "v0.4.1",
      "scope": "required",
      "hashes": [
        {
          "alg": "SHA-256",
          "content": "19a23b1220d70d17daf15b219138fb1729bb85afb2f3f5f12200f6a245088cbc"
        }
      ],
      "purl": "pkg:golang/github.com/BurntSushi/toml@v0.4.1",
      "externalReferences": [
        {
          "url": "https://github.com/BurntSushi/toml",
          "type": "vcs"
        }
      ]
    },
    {
      "type": "library",
      "bom-ref": "pkg:golang/github.com/Masterminds/goutils@v1.1.1",
      "name": "github.com/Masterminds/goutils",
      "version": "v1.1.1",
      "scope": "required",
      "hashes": [
        {
          "alg": "SHA-256",
          "content": "e6752b8a2dc53132f976253cd2e9c456f35ebf0d671f8f995780d22d524b4982"
        }
      ],
      "purl": "pkg:golang/github.com/Masterminds/goutils@v1.1.1",
      "externalReferences": [
        {
          "url": "https://github.com/Masterminds/goutils",
          "type": "vcs"
        }
      ]
    },
    {
      "type": "library",
      "bom-ref": "pkg:golang/github.com/Masterminds/semver/v3@v3.1.1",
      "name": "github.com/Masterminds/semver/v3",
      "version": "v3.1.1",
      "scope": "required",
      "hashes": [
        {
          "alg": "SHA-256",
          "content": "84b837b01ce9344ae7c6142d532fe698b47623d7e80ee8cd2b4df42067a6ad17"
        }
      ],
      "purl": "pkg:golang/github.com/Masterminds/semver/v3@v3.1.1",
      "externalReferences": [
        {
          "url": "https://github.com/Masterminds/semver",
          "type": "vcs"
        }
      ]
    },
    {
      "type": "library",
      "bom-ref": "pkg:golang/github.com/Masterminds/sprig/v3@v3.2.2",
      "name": "github.com/Masterminds/sprig/v3",
      "version": "v3.2.2",
      "scope": "required",
      "hashes": [
        {
          "alg": "SHA-256",
          "content": "d7b8d182026ee75f1daf741a69f8b34973a3298a7de3029f001c549b2c6fc57f"
        }
      ],
      "purl": "pkg:golang/github.com/Masterminds/sprig/v3@v3.2.2",
      "externalReferences": [
        {
          "url": "https://github.com/Masterminds/sprig",
          "type": "vcs"
        }
      ]
    },
    {
      "type": "library",
      "bom-ref": "pkg:golang/github.com/agext/levenshtein@v1.2.2",
      "name": "github.com/agext/levenshtein",
      "version": "v1.2.2",
      "scope": "required",
      "hashes": [
        {
          "alg": "SHA-256",
          "content": "d12fd883a2d8985279b2dc10791a7a11e39c09b8fbc62a9049d35e96c5ef6aa1"
        }
      ],
      "purl": "pkg:golang/github.com/agext/levenshtein@v1.2.2",
      "externalReferences": [
        {
          "url": "https://github.com/agext/levenshtein",
          "type": "vcs"
        }
      ]
    },
    {
      "type": "library",
      "bom-ref": "pkg:golang/github.com/apparentlymart/go-textseg/v13@v13.0.0",
      "name": "github.com/apparentlymart/go-textseg/v13",
      "version": "v13.0.0",
      "scope": "required",
      "hashes": [
        {
          "alg": "SHA-256",
          "content": "63e2af3c4d4d633d3197ad353d52267907c5c84cba893f7402f3d42f534d7cdc"
        }
      ],
      "purl": "pkg:golang/github.com/apparentlymart/go-textseg/v13@v13.0.0",
      "externalReferences": [
        {
          "url": "https://github.com/apparentlymart/go-textseg",
          "type": "vcs"
        }
      ]
    },
    {
      "type": "library",
      "bom-ref": "pkg:golang/github.com/fatih/color@v1.13.0",
      "name": "github.com/fatih/color",
      "version": "v1.13.0",
      "scope": "required",
      "hashes": [
        {
          "alg": "SHA-256",
          "content": "f0b3987352983cf9b228cb8df105760cd45635b2e8e8b67488bb3cfa6947e77c"
        }
      ],
      "purl": "pkg:golang/github.com/fatih/color@v1.13.0",
      "externalReferences": [
        {
          "url": "https://github.com/fatih/color",
          "type": "vcs"
        }
      ]
    },
    {
      "type": "library",
      "bom-ref": "pkg:golang/github.com/fsnotify/fsnotify@v1.5.1",
      "name": "github.com/fsnotify/fsnotify",
      "version": "v1.5.1",
      "scope": "required",
      "hashes": [
        {
          "alg": "SHA-256",
          "content": "9997105075505105a83d75edb9ff72b845cab9d915dacc75134e9469d296a602"
        }
      ],
      "purl": "pkg:golang/github.com/fsnotify/fsnotify@v1.5.1",
      "externalReferences": [
        {
          "url": "https://github.com/fsnotify/fsnotify",
          "type": "vcs"
        }
      ]
    },
    {
      "type": "library",
      "bom-ref": "pkg:golang/github.com/golang/protobuf@v1.5.2",
      "name": "github.com/golang/protobuf",
      "version": "v1.5.2",
      "scope": "required",
      "hashes": [
        {
          "alg": "SHA-256",
          "content": "44e3ca04d15f4203943227c7c8ff8a61bbe98db76814db3e68aec35e58e2d13c"
        }
      ],
      "purl": "pkg:golang/github.com/golang/protobuf@v1.5.2",
      "externalReferences": [
        {
          "url": "https://github.com/golang/protobuf",
          "type": "vcs"
        }
      ]
    },
    {
      "type": "library",
      "bom-ref": "pkg:golang/github.com/google/go-cmp@v0.5.6",
      "name": "github.com/google/go-cmp",
      "version": "v0.5.6",
      "scope": "required",
      "hashes": [
        {
          "alg": "SHA-256",
          "content": "04a6ca0aabcfe88fab9851edd3a666c90b6f07cc40916761172af46543597314"
        }
      ],
      "purl": "pkg:golang/github.com/google/go-cmp@v0.5.6",
      "externalReferences": [
        {
          "url": "https://github.com/google/go-cmp",
          "type": "vcs"
        }
      ]
    },
    {
      "type": "library",
      "bom-ref": "pkg:golang/github.com/google/uuid@v1.1.2",
      "name": "github.com/google/uuid",
      "version": "v1.1.2",
      "scope": "required",
      "hashes": [
        {
          "alg": "SHA-256",
          "content": "11585d4fed4ab1eca2d7fa5499729a17162c0cdcbd450624316447ebc27f5bb6"
        }
      ],
      "purl": "pkg:golang/github.com/google/uuid@v1.1.2",
      "externalReferences": [
        {
          "url": "https://github.com/google/uuid",
          "type": "vcs"
        }
      ]
    },
    {
      "type": "library",
      "bom-ref": "pkg:golang/github.com/hashicorp/go-hclog@v1.0.0",
      "name": "github.com/hashicorp/go-hclog",
      "version": "v1.0.0",
      "scope": "required",
      "hashes": [
        {
          "alg": "SHA-256",
          "content": "6e429fd017815dc4986bb7f91728bd80cb90f2036cc5e88da598d1e95c4d65ea"
        }
      ],
      "purl": "pkg:golang/github.com/hashicorp/go-hclog@v1.0.0",
      "externalReferences": [
        {
          "url": "https://github.com/hashicorp/go-hclog",
          "type": "vcs"
        }
      ]
    },
    {
      "type": "library",
      "bom-ref": "pkg:golang/github.com/hashicorp/go-plugin@v1.4.3",
      "name": "github.com/hashicorp/go-plugin",
      "version": "v1.4.3",
      "scope": "required",
      "hashes": [
        {
          "alg": "SHA-256",
          "content": "0d79af8af6d60f9a9d881b6cf53a410bb0582f50226b9b316d181007ebfa5193"
        }
      ],
      "purl": "pkg:golang/github.com/hashicorp/go-plugin@v1.4.3",
      "externalReferences": [
        {
          "url": "https://github.com/hashicorp/go-plugin",
          "type": "vcs"
        }
      ]
    },
    {
      "type": "library",
      "bom-ref": "pkg:golang/github.com/hashicorp/go-version@v1.4.0",
      "name": "github.com/hashicorp/go-version",
      "version": "v1.4.0",
      "scope": "required",
      "hashes": [
        {
          "alg": "SHA-256",
          "content": "68043382a22b44a45aef0ef908aa5b07162c994a0f8f3566d56e7d71ad4bd09e"
        }
      ],
      "purl": "pkg:golang/github.com/hashicorp/go-version@v1.4.0",
      "externalReferences": [
        {
          "url": "https://github.com/hashicorp/go-version",
          "type": "vcs"
        }
      ]
    },
    {
      "type": "library",
      "bom-ref": "pkg:golang/github.com/hashicorp/hcl@v1.0.0",
      "name": "github.com/hashicorp/hcl",
      "version": "v1.0.0",
      "scope": "required",
      "hashes": [
        {
          "alg": "SHA-256",
          "content": "d009e5ce3a62e2f11ab1378d167da62c98134b0b74fbab1fb224c6f2a7161b1e"
        }
      ],
      "purl": "pkg:golang/github.com/hashicorp/hcl@v1.0.0",
      "externalReferences": [
        {
          "url": "https://github.com/hashicorp/hcl",
          "type": "vcs"
        }
      ]
    },
    {
      "type": "library",
      "bom-ref": "pkg:golang/github.com/hashicorp/hcl/v2@v2.11.1",
      "name": "github.com/hashicorp/hcl/v2",
      "version": "v2.11.1",
      "scope": "required",
      "hashes": [
        {
          "alg": "SHA-256",
          "content": "c93c96717726f570744c493253f242454eab632e0afa680bb739f6c25ac96dc7"
        }
      ],
      "purl": "pkg:golang/github.com/hashicorp/hcl/v2@v2.11.1",
      "externalReferences": [
        {
          "url": "https://github.com/hashicorp/hcl",
          "type": "vcs"
        }
      ]
    },
    {
      "type": "library",
      "bom-ref": "pkg:golang/github.com/hashicorp/yamux@v0.0.0-20180604194846-3520598351bb",
      "name": "github.com/hashicorp/yamux",
      "version": "v0.0.0-20180604194846-3520598351bb",
      "scope": "required",
      "hashes": [
        {
          "alg": "SHA-256",
          "content": "6f9ae30a858773b7aa9804b8feaca4db566c1f26fa331bff8f2931bcd4e45383"
        }
      ],
      "purl": "pkg:golang/github.com/hashicorp/yamux@v0.0.0-20180604194846-3520598351bb",
      "externalReferences": [
        {
          "url": "https://github.com/hashicorp/yamux",
          "type": "vcs"
        }
      ]
    },
    {
      "type": "library",
      "bom-ref": "pkg:golang/github.com/huandu/xstrings@v1.3.1",
      "name": "github.com/huandu/xstrings",
      "version": "v1.3.1",
      "scope": "required",
      "hashes": [
        {
          "alg": "SHA-256",
          "content": "e2380194a2bab4b285bcef2ee699988c6f7572acad983083bc687b1025457c5b"
        }
      ],
      "purl": "pkg:golang/github.com/huandu/xstrings@v1.3.1",
      "externalReferences": [
        {
          "url": "https://github.com/huandu/xstrings",
          "type": "vcs"
        }
      ]
    },
    {
      "type": "library",
      "bom-ref": "pkg:golang/github.com/iancoleman/orderedmap@v0.2.0",
      "name": "github.com/iancoleman/orderedmap",
      "version": "v0.2.0",
      "scope": "required",
      "hashes": [
        {
          "alg": "SHA-256",
          "content": "b2ad4dfd3169607fbe69588f71a2a3cacddb0c2954114eece41fb3ea3abca4d0"
        }
      ],
      "purl": "pkg:golang/github.com/iancoleman/orderedmap@v0.2.0",
      "externalReferences": [
        {
          "url": "https://github.com/iancoleman/orderedmap",
          "type": "vcs"
        }
      ]
    },
    {
      "type": "library",
      "bom-ref": "pkg:golang/github.com/imdario/mergo@v0.3.12",
      "name": "github.com/imdario/mergo",
      "version": "v0.3.12",
      "scope": "required",
      "hashes": [
        {
          "alg": "SHA-256",
          "content": "6fa47606c9536c8113a002ca3fb2f152f8a34ec348f5301ef34a4b58dda0fc75"
        }
      ],
      "purl": "pkg:golang/github.com/imdario/mergo@v0.3.12",
      "externalReferences": [
        {
          "url": "https://github.com/imdario/mergo",
          "type": "vcs"
        }
      ]
    },
    {
      "type": "library",
      "bom-ref": "pkg:golang/github.com/inconshreveable/mousetrap@v1.0.0",
      "name": "github.com/inconshreveable/mousetrap",
      "version": "v1.0.0",
      "scope": "required",
      "hashes": [
        {
          "alg": "SHA-256",
          "content": "67cb6ee6cada2d709721c011c41a7ff1c6ef97055aed9d4d1e0f5710a86d4af3"
        }
      ],
      "purl": "pkg:golang/github.com/inconshreveable/mousetrap@v1.0.0",
      "externalReferences": [
        {
          "url": "https://github.com/inconshreveable/mousetrap",
          "type": "vcs"
        }
      ]
    },
    {
      "type": "library",
      "bom-ref": "pkg:golang/github.com/magiconair/properties@v1.8.5",
      "name": "github.com/magiconair/properties",
      "version": "v1.8.5",
      "scope": "required",
      "hashes": [
        {
          "alg": "SHA-256",
          "content": "6fa909b3e1263c53181a4a30f46894c82c8ebc8c187ad609ddf49a59a93f1a5b"
        }
      ],
      "purl": "pkg:golang/github.com/magiconair/properties@v1.8.5",
      "externalReferences": [
        {
          "url": "https://github.com/magiconair/properties",
          "type": "vcs"
        }
      ]
    },
    {
      "type": "library",
      "bom-ref": "pkg:golang/github.com/mattn/go-colorable@v0.1.12",
      "name": "github.com/mattn/go-colorable",
      "version": "v0.1.12",
      "scope": "required",
      "hashes": [
        {
          "alg": "SHA-256",
          "content": "8c5f83bba0253c88ecd8189489094a397d2bb774ae8c7c4f9e4b0f2996da038d"
        }
      ],
      "purl": "pkg:golang/github.com/mattn/go-colorable@v0.1.12",
      "externalReferences": [
        {
          "url": "https://github.com/mattn/go-colorable",
          "type": "vcs"
        }
      ]
    },
    {
      "type": "library",
      "bom-ref": "pkg:golang/github.com/mattn/go-isatty@v0.0.14",
      "name": "github.com/mattn/go-isatty",
      "version": "v0.0.14",
      "scope": "required",
      "hashes": [
        {
          "alg": "SHA-256",
          "content": "c95b806b2b3a0477f18a38193f3c3edd996ee724202863f6fe17106c76fb4bd6"
        }
      ],
      "purl": "pkg:golang/github.com/mattn/go-isatty@v0.0.14",
      "externalReferences": [
        {
          "url": "https://github.com/mattn/go-isatty",
          "type": "vcs"
        }
      ]
    },
    {
      "type": "library",
      "bom-ref": "pkg:golang/github.com/mitchellh/copystructure@v1.0.0",
      "name": "github.com/mitchellh/copystructure",
      "version": "v1.0.0",
      "scope": "required",
      "hashes": [
        {
          "alg": "SHA-256",
          "content": "2da8acae3f9b001e9bff227007906ddc84d984625daa6c6ab8c29e67e9a69054"
        }
      ],
      "purl": "pkg:golang/github.com/mitchellh/copystructure@v1.0.0",
      "externalReferences": [
        {
          "url": "https://github.com/mitchellh/copystructure",
          "type": "vcs"
        }
      ]
    },
    {
      "type": "library",
      "bom-ref": "pkg:golang/github.com/mitchellh/go-homedir@v1.1.0",
      "name": "github.com/mitchellh/go-homedir",
      "version": "v1.1.0",
      "scope": "required",
      "hashes": [
        {
          "alg": "SHA-256",
          "content": "96e905f738971710c53e4035becaf9ce97355ee3c39ffc059edab9986fb81346"
        }
      ],
      "purl": "pkg:golang/github.com/mitchellh/go-homedir@v1.1.0",
      "externalReferences": [
        {
          "url": "https://github.com/mitchellh/go-homedir",
          "type": "vcs"
        }
      ]
    },
    {
      "type": "library",
      "bom-ref": "pkg:golang/github.com/mitchellh/go-testing-interface@v1.0.0",
      "name": "github.com/mitchellh/go-testing-interface",
      "version": "v1.0.0",
      "scope": "required",
      "hashes": [
        {
          "alg": "SHA-256",
          "content": "7f353f25535c6aa1d011c54500a791e357e488b7483eb79f3af546d5567de94d"
        }
      ],
      "purl": "pkg:golang/github.com/mitchellh/go-testing-interface@v1.0.0",
      "externalReferences": [
        {
          "url": "https://github.com/mitchellh/go-testing-interface",
          "type": "vcs"
        }
      ]
    },
    {
      "type": "library",
      "bom-ref": "pkg:golang/github.com/mitchellh/go-wordwrap@v1.0.0",
      "name": "github.com/mitchellh/go-wordwrap",
      "version": "v1.0.0",
      "scope": "required",
      "hashes": [
        {
          "alg": "SHA-256",
          "content": "e8694727f2d318cac825bc2076a765d9e107f28f84c71ff49bc8abf469ecd2ee"
        }
      ],
      "purl": "pkg:golang/github.com/mitchellh/go-wordwrap@v1.0.0",
      "externalReferences": [
        {
          "url": "https://github.com/mitchellh/go-wordwrap",
          "type": "vcs"
        }
      ]
    },
    {
      "type": "library",
      "bom-ref": "pkg:golang/github.com/mitchellh/mapstructure@v1.4.3",
      "name": "github.com/mitchellh/mapstructure",
      "version": "v1.4.3",
      "scope": "required",
      "hashes": [
        {
          "alg": "SHA-256",
          "content": "395a300d20a5970fd88dd2e46a6dffb26ef012d3b2e7d77c9dd1a009cca3f1cb"
        }
      ],
      "purl": "pkg:golang/github.com/mitchellh/mapstructure@v1.4.3",
      "externalReferences": [
        {
          "url": "https://github.com/mitchellh/mapstructure",
          "type": "vcs"
        }
      ]
    },
    {
      "type": "library",
      "bom-ref": "pkg:golang/github.com/mitchellh/reflectwalk@v1.0.0",
      "name": "github.com/mitchellh/reflectwalk",
      "version": "v1.0.0",
      "scope": "required",
      "hashes": [
        {
          "alg": "SHA-256",
          "content": "f43fbca08b2407854904de5216599cdbb7d29480596a8bf55a993f21f8a42cd6"
        }
      ],
      "purl": "pkg:golang/github.com/mitchellh/reflectwalk@v1.0.0",
      "externalReferences": [
        {
          "url": "https://github.com/mitchellh/reflectwalk",
          "type": "vcs"
        }
      ]
    },
    {
      "type": "library",
      "bom-ref": "pkg:golang/github.com/oklog/run@v1.0.0",
      "name": "github.com/oklog/run",
      "version": "v1.0.0",
      "scope": "required",
      "hashes": [
        {
          "alg": "SHA-256",
          "content": "46eedd0ed24d3b20baea043975099a09ad2a22c014158dec1692b55e4f2282bc"
        }
      ],
      "purl": "pkg:golang/github.com/oklog/run@v1.0.0",
      "externalReferences": [
        {
          "url": "https://github.com/oklog/run",
          "type": "vcs"
        }
      ]
    },
    {
      "type": "library",
      "bom-ref": "pkg:golang/github.com/pelletier/go-toml@v1.9.4",
      "name": "github.com/pelletier/go-toml",
      "version": "v1.9.4",
      "scope": "required",
      "hashes": [
        {
          "alg": "SHA-256",
          "content": "b6310d17a31f64083c7b8666653796696893daf5edb283bafa2b8e8c58440b03"
        }
      ],
      "purl": "pkg:golang/github.com/pelletier/go-toml@v1.9.4",
      "externalReferences": [
        {
          "url": "https://github.com/pelletier/go-toml",
          "type": "vcs"
        }
      ]
    },
    {
      "type": "library",
      "bom-ref": "pkg:golang/github.com/shopspring/decimal@v1.2.0",
      "name": "github.com/shopspring/decimal",
      "version": "v1.2.0",
      "scope": "required",
      "hashes": [
        {
          "alg": "SHA-256",
          "content": "69b4804d7990118c9286ec48e3fbf25b7b55d4caca009cc267fd332d45d86ec4"
        }
      ],
      "purl": "pkg:golang/github.com/shopspring/decimal@v1.2.0",
      "externalReferences": [
        {
          "url": "https://github.com/shopspring/decimal",
          "type": "vcs"
        }
      ]
    },
    {
      "type": "library",
      "bom-ref": "pkg:golang/github.com/spf13/afero@v1.6.0",
      "name": "github.com/spf13/afero",
      "version": "v1.6.0",
      "scope": "required",
      "hashes": [
        {
          "alg": "SHA-256",
          "content": "c686b1dac2760d3f12f31036a5a3c58c309270235e5ac83be551b40cb46b7a26"
        }
      ],
      "purl": "pkg:golang/github.com/spf13/afero@v1.6.0",
      "externalReferences": [
        {
          "url": "https://github.com/spf13/afero",
          "type": "vcs"
        }
      ]
    },
    {
      "type": "library",
      "bom-ref": "pkg:golang/github.com/spf13/cast@v1.4.1",
      "name": "github.com/spf13/cast",
      "version": "v1.4.1",
      "scope": "required",
      "hashes": [
        {
          "alg": "SHA-256",
          "content": "b348737be274d7de997c4313b3cd0ded4945b74043b90ed0f890e71e231629d0"
        }
      ],
      "purl": "pkg:golang/github.com/spf13/cast@v1.4.1",
      "externalReferences": [
        {
          "url": "https://github.com/spf13/cast",
          "type": "vcs"
        }
      ]
    },
    {
      "type": "library",
      "bom-ref": "pkg:golang/github.com/spf13/cobra@v1.3.0",
      "name": "github.com/spf13/cobra",
      "version": "v1.3.0",
      "scope": "required",
      "hashes": [
        {
          "alg": "SHA-256",
          "content": "47b712bc6bbe56ffaa5f4816e51ffce5dc769269894f9cf934cf227dd623767d"
        }
      ],
      "purl": "pkg:golang/github.com/spf13/cobra@v1.3.0",
      "externalReferences": [
        {
          "url": "https://github.com/spf13/cobra",
          "type": "vcs"
        }
      ]
    },
    {
      "type": "library",
      "bom-ref": "pkg:golang/github.com/spf13/jwalterweatherman@v1.1.0",
      "name": "github.com/spf13/jwalterweatherman",
      "version": "v1.1.0",
      "scope": "required",
      "hashes": [
        {
          "alg": "SHA-256",
          "content": "b9eeafa02e5b47917c6312394baee3f62e7cd8553842fa366e6aa7a8c6000c59"
        }
      ],
      "purl": "pkg:golang/github.com/spf13/jwalterweatherman@v1.1.0",
      "externalReferences": [
        {
          "url": "https://github.com/spf13/jwalterweatherman",
          "type": "vcs"
        }
      ]
    },
    {
      "type": "library",
      "bom-ref": "pkg:golang/github.com/spf13/pflag@v1.0.5",
      "name": "github.com/spf13/pflag",
      "version": "v1.0.5",
      "scope": "required",
      "hashes": [
        {
          "alg": "SHA-256",
          "content": "8b2f951543823f56bef3216da3f76b836089e6ed3246807b7d9c370cabff2570"
        }
      ],
      "purl": "pkg:golang/github.com/spf13/pflag@v1.0.5",
      "externalReferences": [
        {
          "url": "https://github.com/spf13/pflag",
          "type": "vcs"
        }
      ]
    },
    {
      "type": "library",
      "bom-ref": "pkg:golang/github.com/spf13/viper@v1.10.1",
      "name": "github.com/spf13/viper",
      "version": "v1.10.1",
      "scope": "required",
      "hashes": [
        {
          "alg": "SHA-256",
          "content": "9ee259b98a46ee04e3fd7aa253083c6c0d1ca75f8cda60b727883996e51804a9"
        }
      ],
      "purl": "pkg:golang/github.com/spf13/viper@v1.10.1",
      "externalReferences": [
        {
          "url": "https://github.com/spf13/viper",
          "type": "vcs"
        }
      ]
    },
    {
      "type": "library",
      "bom-ref": "pkg:golang/github.com/subosito/gotenv@v1.2.0",
      "name": "github.com/subosito/gotenv",
      "version": "v1.2.0",
      "scope": "required",
      "hashes": [
        {
          "alg": "SHA-256",
          "content": "4a5af547d1f102510a79f82ae639fd53e0e711394851ae877e01338f483977bb"
        }
      ],
      "purl": "pkg:golang/github.com/subosito/gotenv@v1.2.0",
      "externalReferences": [
        {
          "url": "https://github.com/subosito/gotenv",
          "type": "vcs"
        }
      ]
    },
    {
      "type": "library",
      "bom-ref": "pkg:golang/github.com/terraform-docs/terraform-config-inspect@v0.0.0-20210728164355-9c1f178932fa",
      "name": "github.com/terraform-docs/terraform-config-inspect",
      "version": "v0.0.0-20210728164355-9c1f178932fa",
      "scope": "required",
      "hashes": [
        {
          "alg": "SHA-256",
          "content": "c1dc9fdd3a1bc18170b2a9d418972374d1f129fc073c56da3a49c125e8671753"
        }
      ],
      "purl": "pkg:golang/github.com/terraform-docs/terraform-config-inspect@v0.0.0-20210728164355-9c1f178932fa",
      "externalReferences": [
        {
          "url": "https://github.com/terraform-docs/terraform-config-inspect",
          "type": "vcs"
        }
      ]
    },
    {
      "type": "library",
      "bom-ref": "pkg:golang/github.com/zclconf/go-cty@v1.8.0",
      "name": "github.com/zclconf/go-cty",
      "version": "v1.8.0",
      "scope": "required",
      "hashes": [
        {
          "alg": "SHA-256",
          "content": "b3802fa9a790cc922ede776fe205488699550f492b53e6e0adc2d25549da5ae0"
        }
      ],
      "purl": "pkg:golang/github.com/zclconf/go-cty@v1.8.0",
      "externalReferences": [
        {
          "url": "https://github.com/zclconf/go-cty",
          "type": "vcs"
        }
      ]
    },
    {
      "type": "library",
      "bom-ref": "pkg:golang/golang.org/x/crypto@v0.0.0-20210817164053-32db794688a5",
      "name": "golang.org/x/crypto",
      "version": "v0.0.0-20210817164053-32db794688a5",
      "scope": "required",
      "hashes": [
        {
          "alg": "SHA-256",
          "content": "1d68ffc632077e3614e67557a53334b37f49f426cb9fb09ce5aec80b9af0b0c4"
        }
      ],
      "purl": "pkg:golang/golang.org/x/crypto@v0.0.0-20210817164053-32db794688a5"
    },
    {
      "type": "library",
      "bom-ref": "pkg:golang/golang.org/x/mod@v0.5.0",
      "name": "golang.org/x/mod",
      "version": "v0.5.0",
      "scope": "required",
      "hashes": [
        {
          "alg": "SHA-256",
          "content": "506db5b8e96665a6c0e1f5b98bb657e9b8f0d7110b10683f64b819abd6ae93f4"
        }
      ],
      "purl": "pkg:golang/golang.org/x/mod@v0.5.0"
    },
    {
      "type": "library",
      "bom-ref": "pkg:golang/golang.org/x/net@v0.0.0-20210813160813-60bc85c4be6d",
      "name": "golang.org/x/net",
      "version": "v0.0.0-20210813160813-60bc85c4be6d",
      "scope": "required",
      "hashes": [
        {
          "alg": "SHA-256",
          "content": "2ceed7a5360cc13ab18cb70658f8a32b7bd15e0d5a59d94d39538746ae3977b7"
        }
      ],
      "purl": "pkg:golang/golang.org/x/net@v0.0.0-20210813160813-60bc85c4be6d"
    },
    {
      "type": "library",
      "bom-ref": "pkg:golang/golang.org/x/sys@v0.0.0-20211210111614-af8b64212486",
      "name": "golang.org/x/sys",
      "version": "v0.0.0-20211210111614-af8b64212486",
      "scope": "required",
      "hashes": [
        {
          "alg": "SHA-256",
          "content": "e61a73e5a46bf96d5ead808be4946149404946987b97d5e436f7a813196b2989"
        }
      ],
      "purl": "pkg:golang/golang.org/x/sys@v0.0.0-20211210111614-af8b64212486"
    },
    {
      "type": "library",
      "bom-ref": "pkg:golang/golang.org/x/text@v0.3.7",
      "name": "golang.org/x/text",
      "version": "v0.3.7",
      "scope": "required",
      "hashes": [
        {
          "alg": "SHA-256",
          "content": "a25a70bcfd8a69c5b5656bec47bb90868c9362f280ba97d0ad118114cdf9d869"
        }
      ],
      "purl": "pkg:golang/golang.org/x/text@v0.3.7"
    },
    {
      "type": "library",
      "bom-ref": "pkg:golang/golang.org/x/tools@v0.1.5",
      "name": "golang.org/x/tools",
      "version": "v0.1.5",
      "scope": "required",
      "hashes": [
        {
          "alg": "SHA-256",
          "content": "a2e7b0cc4ea9fbf544077d586274db109762f2916a2a9e0fe27f39bf0a370c70"
        }
      ],
      "purl": "pkg:golang/golang.org/x/tools@v0.1.5"
    },
    {
      "type": "library",
      "bom-ref": "pkg:golang/golang.org/x/xerrors@v0.0.0-20200804184101-5ec99f83aff1",
      "name": "golang.org/x/xerrors",
      "version": "v0.0.0-20200804184101-5ec99f83aff1",
      "scope": "required",
      "hashes": [
        {
          "alg": "SHA-256",
          "content": "828d5b2bf0ff045655d88f1c21077534a119fb4a304931b57c34dc8b822a15c1"
        }
      ],
      "purl": "pkg:golang/golang.org/x/xerrors@v0.0.0-20200804184101-5ec99f83aff1"
    },
    {
      "type": "library",
      "bom-ref": "pkg:golang/google.golang.org/genproto@v0.0.0-20211208223120-3a66f561d7aa",
      "name": "google.golang.org/genproto",
      "version": "v0.0.0-20211208223120-3a66f561d7aa",
      "scope": "required",
      "hashes": [
        {
          "alg": "SHA-256",
          "content": "23461c2b3d08ece02175da3bc9af24327be9ae1716334e393e690174c3bdccdd"
        }
      ],
      "purl": "pkg:golang/google.golang.org/genproto@v0.0.0-20211208223120-3a66f561d7aa"
    },
    {
      "type": "library",
      "bom-ref": "pkg:golang/google.golang.org/grpc@v1.43.0",
      "name": "google.golang.org/grpc",
      "version": "v1.43.0",
      "scope": "required",
      "hashes": [
        {
          "alg": "SHA-256",
          "content": "11ebbb6d9b436760e9442b0b85495cacb9ef61a30ad46cfce9afa1315bc42e63"
        }
      ],
      "purl": "pkg:golang/google.golang.org/grpc@v1.43.0"
    },
    {
      "type": "library",
      "bom-ref": "pkg:golang/google.golang.org/protobuf@v1.27.1",
      "name": "google.golang.org/protobuf",
      "version": "v1.27.1",
      "scope": "required",
      "hashes": [
        {
          "alg": "SHA-256",
          "content": "4a7a9b9c3c3557b46265c5cfc793047aa3efdacefd2fd8bb0495251bff91bab4"
        }
      ],
      "purl": "pkg:golang/google.golang.org/protobuf@v1.27.1"
    },
    {
      "type": "library",
      "bom-ref": "pkg:golang/gopkg.in/ini.v1@v1.66.2",
      "name": "gopkg.in/ini.v1",
      "version": "v1.66.2",
      "scope": "required",
      "hashes": [
        {
          "alg": "SHA-256",
          "content": "5df47574e62e6f2b4acb84a1cdcd8b1ebac6854d250c27c3186d722cf9a982c2"
        }
      ],
      "purl": "pkg:golang/gopkg.in/ini.v1@v1.66.2",
      "externalReferences": [
        {
          "url": "https://github.com/go-ini/ini",
          "type": "vcs"
        }
      ]
    },
    {
      "type": "library",
      "bom-ref": "pkg:golang/gopkg.in/yaml.v2@v2.4.0",
      "name": "gopkg.in/yaml.v2",
      "version": "v2.4.0",
      "scope": "required",
      "hashes": [
        {
          "alg": "SHA-256",
          "content": "0fcc60c04098ec262fc7e6369f8b01cfddc99fd251bf1762cb2a3c0937ee29a6"
        }
      ],
      "purl": "pkg:golang/gopkg.in/yaml.v2@v2.4.0",
      "externalReferences": [
        {
          "url": "https://github.com/go-yaml/yaml",
          "type": "vcs"
        }
      ]
    },
    {
      "type": "library",
      "bom-ref": "pkg:golang/gopkg.in/yaml.v3@v3.0.0-20210107192922-496545a6307b",
      "name": "gopkg.in/yaml.v3",
      "version": "v3.0.0-20210107192922-496545a6307b",
      "scope": "required",
      "hashes": [
        {
          "alg": "SHA-256",
          "content": "87ca83a2d6843ee2404eb3265b4e0d0b083bbf6d9a1c7dbcc30a5ab9484af4ea"
        }
      ],
      "purl": "pkg:golang/gopkg.in/yaml.v3@v3.0.0-20210107192922-496545a6307b",
      "externalReferences": [
        {
          "url": "https://github.com/go-yaml/yaml",
          "type": "vcs"
        }
      ]
    },
    {
      "type": "library",
      "bom-ref": "pkg:golang/honnef.co/go/tools@v0.2.0",
      "name": "honnef.co/go/tools",
      "version": "v0.2.0",
      "scope": "required",
      "hashes": [
        {
          "alg": "SHA-256",
          "content": "c2cf007db8135f7a087332cf34f0aee75ebaa0183d493daf36cd2b721b7e9831"
        }
      ],
      "purl": "pkg:golang/honnef.co/go/tools@v0.2.0"
    },
    {
      "type": "library",
      "bom-ref": "pkg:golang/mvdan.cc/xurls/v2@v2.3.0",
      "name": "mvdan.cc/xurls/v2",
      "version": "v2.3.0",
      "scope": "required",
      "hashes": [
        {
          "alg": "SHA-256",
          "content": "e7d3a59dbb7aed42a9c45d44c15068a49be449406682d6f8ebc1381955886752"
        }
      ],
      "purl": "pkg:golang/mvdan.cc/xurls/v2@v2.3.0"
    },
    {
      "type": "library",
      "bom-ref": "pkg:golang/github.com/terraform-docs/terraform-docs",
      "group": "github.com/terraform-docs",
      "name": "terraform-docs",
      "version": "",
      "description": "",
      "scope": "required",
      "purl": "pkg:golang/github.com/terraform-docs/terraform-docs"
    }
  ],
  "dependencies": [
    {
      "ref": "pkg:golang/github.com/BurntSushi/toml@v0.4.1"
    },
    {
      "ref": "pkg:golang/github.com/Masterminds/goutils@v1.1.1"
    },
    {
      "ref": "pkg:golang/github.com/Masterminds/semver/v3@v3.1.1"
    },
    {
      "ref": "pkg:golang/github.com/Masterminds/sprig/v3@v3.2.2",
      "dependsOn": [
        "pkg:golang/github.com/Masterminds/goutils@v1.1.1",
        "pkg:golang/github.com/Masterminds/semver/v3@v3.1.1",
        "pkg:golang/github.com/google/uuid@v1.1.2",
        "pkg:golang/github.com/huandu/xstrings@v1.3.1",
        "pkg:golang/github.com/imdario/mergo@v0.3.12",
        "pkg:golang/github.com/mitchellh/copystructure@v1.0.0",
        "pkg:golang/github.com/shopspring/decimal@v1.2.0",
        "pkg:golang/github.com/spf13/cast@v1.4.1",
        "pkg:golang/golang.org/x/crypto@v0.0.0-20210817164053-32db794688a5"
      ]
    },
    {
      "ref": "pkg:golang/github.com/agext/levenshtein@v1.2.2"
    },
    {
      "ref": "pkg:golang/github.com/apparentlymart/go-textseg/v13@v13.0.0"
    },
    {
      "ref": "pkg:golang/github.com/fatih/color@v1.13.0",
      "dependsOn": [
        "pkg:golang/github.com/mattn/go-colorable@v0.1.12",
        "pkg:golang/github.com/mattn/go-isatty@v0.0.14"
      ]
    },
    {
      "ref": "pkg:golang/github.com/fsnotify/fsnotify@v1.5.1",
      "dependsOn": [
        "pkg:golang/golang.org/x/sys@v0.0.0-20211210111614-af8b64212486"
      ]
    },
    {
      "ref": "pkg:golang/github.com/golang/protobuf@v1.5.2",
      "dependsOn": [
        "pkg:golang/github.com/google/go-cmp@v0.5.6",
        "pkg:golang/google.golang.org/protobuf@v1.27.1"
      ]
    },
    {
      "ref": "pkg:golang/github.com/google/go-cmp@v0.5.6",
      "dependsOn": [
        "pkg:golang/golang.org/x/xerrors@v0.0.0-20200804184101-5ec99f83aff1"
      ]
    },
    {
      "ref": "pkg:golang/github.com/google/uuid@v1.1.2"
    },
    {
      "ref": "pkg:golang/github.com/hashicorp/go-hclog@v1.0.0",
      "dependsOn": [
        "pkg:golang/github.com/fatih/color@v1.13.0",
        "pkg:golang/github.com/mattn/go-colorable@v0.1.12",
        "pkg:golang/github.com/mattn/go-isatty@v0.0.14"
      ]
    },
    {
      "ref": "pkg:golang/github.com/hashicorp/go-plugin@v1.4.3",
      "dependsOn": [
        "pkg:golang/github.com/golang/protobuf@v1.5.2",
        "pkg:golang/github.com/hashicorp/go-hclog@v1.0.0",
        "pkg:golang/github.com/hashicorp/yamux@v0.0.0-20180604194846-3520598351bb",
        "pkg:golang/github.com/mitchellh/go-testing-interface@v1.0.0",
        "pkg:golang/github.com/oklog/run@v1.0.0",
        "pkg:golang/golang.org/x/net@v0.0.0-20210813160813-60bc85c4be6d",
        "pkg:golang/google.golang.org/grpc@v1.43.0"
      ]
    },
    {
      "ref": "pkg:golang/github.com/hashicorp/go-version@v1.4.0"
    },
    {
      "ref": "pkg:golang/github.com/hashicorp/hcl@v1.0.0"
    },
    {
      "ref": "pkg:golang/github.com/hashicorp/hcl/v2@v2.11.1",
      "dependsOn": [
        "pkg:golang/github.com/agext/levenshtein@v1.2.2",
        "pkg:golang/github.com/apparentlymart/go-textseg/v13@v13.0.0",
        "pkg:golang/github.com/google/go-cmp@v0.5.6",
        "pkg:golang/github.com/mitchellh/go-wordwrap@v1.0.0",
        "pkg:golang/github.com/spf13/pflag@v1.0.5",
        "pkg:golang/github.com/zclconf/go-cty@v1.8.0",
        "pkg:golang/golang.org/x/crypto@v0.0.0-20210817164053-32db794688a5",
        "pkg:golang/golang.org/x/sys@v0.0.0-20211210111614-af8b64212486"
      ]
    },
    {
      "ref": "pkg:golang/github.com/hashicorp/yamux@v0.0.0-20180604194846-3520598351bb"
    },
    {
      "ref": "pkg:golang/github.com/huandu/xstrings@v1.3.1"
    },
    {
      "ref": "pkg:golang/github.com/iancoleman/orderedmap@v0.2.0"
    },
    {
      "ref": "pkg:golang/github.com/imdario/mergo@v0.3.12",
      "dependsOn": [
        "pkg:golang/gopkg.in/yaml.v2@v2.4.0"
      ]
    },
    {
      "ref": "pkg:golang/github.com/inconshreveable/mousetrap@v1.0.0"
    },
    {
      "ref": "pkg:golang/github.com/magiconair/properties@v1.8.5"
    },
    {
      "ref": "pkg:golang/github.com/mattn/go-colorable@v0.1.12",
      "dependsOn": [
        "pkg:golang/github.com/mattn/go-isatty@v0.0.14",
        "pkg:golang/golang.org/x/sys@v0.0.0-20211210111614-af8b64212486"
      ]
    },
    {
      "ref": "pkg:golang/github.com/mattn/go-isatty@v0.0.14",
      "dependsOn": [
        "pkg:golang/golang.org/x/sys@v0.0.0-20211210111614-af8b64212486"
      ]
    },
    {
      "ref": "pkg:golang/github.com/mitchellh/copystructure@v1.0.0",
      "dependsOn": [
        "pkg:golang/github.com/mitchellh/reflectwalk@v1.0.0"
      ]
    },
    {
      "ref": "pkg:golang/github.com/mitchellh/go-homedir@v1.1.0"
    },
    {
      "ref": "pkg:golang/github.com/mitchellh/go-testing-interface@v1.0.0"
    },
    {
      "ref": "pkg:golang/github.com/mitchellh/go-wordwrap@v1.0.0"
    },
    {
      "ref": "pkg:golang/github.com/mitchellh/mapstructure@v1.4.3"
    },
    {
      "ref": "pkg:golang/github.com/mitchellh/reflectwalk@v1.0.0"
    },
    {
      "ref": "pkg:golang/github.com/oklog/run@v1.0.0"
    },
    {
      "ref": "pkg:golang/github.com/pelletier/go-toml@v1.9.4"
    },
    {
      "ref": "pkg:golang/github.com/shopspring/decimal@v1.2.0"
    },
    {
      "ref": "pkg:golang/github.com/spf13/afero@v1.6.0",
      "dependsOn": [
        "pkg:golang/golang.org/x/crypto@v0.0.0-20210817164053-32db794688a5",
        "pkg:golang/golang.org/x/text@v0.3.7"
      ]
    },
    {
      "ref": "pkg:golang/github.com/spf13/cast@v1.4.1"
    },
    {
      "ref": "pkg:golang/github.com/spf13/cobra@v1.3.0",
      "dependsOn": [
        "pkg:golang/github.com/inconshreveable/mousetrap@v1.0.0",
        "pkg:golang/github.com/spf13/pflag@v1.0.5",
        "pkg:golang/github.com/spf13/viper@v1.10.1",
        "pkg:golang/gopkg.in/yaml.v2@v2.4.0"
      ]
    },
    {
      "ref": "pkg:golang/github.com/spf13/jwalterweatherman@v1.1.0"
    },
    {
      "ref": "pkg:golang/github.com/spf13/pflag@v1.0.5"
    },
    {
      "ref": "pkg:golang/github.com/spf13/viper@v1.10.1",
      "dependsOn": [
        "pkg:golang/github.com/fatih/color@v1.13.0",
        "pkg:golang/github.com/fsnotify/fsnotify@v1.5.1",
        "pkg:golang/github.com/golang/protobuf@v1.5.2",
        "pkg:golang/github.com/google/go-cmp@v0.5.6",
        "pkg:golang/github.com/hashicorp/go-hclog@v1.0.0",
        "pkg:golang/github.com/hashicorp/hcl@v1.0.0",
        "pkg:golang/github.com/magiconair/properties@v1.8.5",
        "pkg:golang/github.com/mattn/go-colorable@v0.1.12",
        "pkg:golang/github.com/mattn/go-isatty@v0.0.14",
        "pkg:golang/github.com/mitchellh/go-homedir@v1.1.0",
        "pkg:golang/github.com/mitchellh/mapstructure@v1.4.3",
        "pkg:golang/github.com/pelletier/go-toml@v1.9.4",
        "pkg:golang/github.com/spf13/afero@v1.6.0",
        "pkg:golang/github.com/spf13/cast@v1.4.1",
        "pkg:golang/github.com/spf13/jwalterweatherman@v1.1.0",
        "pkg:golang/github.com/spf13/pflag@v1.0.5",
        "pkg:golang/github.com/subosito/gotenv@v1.2.0",
        "pkg:golang/golang.org/x/crypto@v0.0.0-20210817164053-32db794688a5",
        "pkg:golang/golang.org/x/net@v0.0.0-20210813160813-60bc85c4be6d",
        "pkg:golang/golang.org/x/sys@v0.0.0-20211210111614-af8b64212486",
        "pkg:golang/golang.org/x/text@v0.3.7",
        "pkg:golang/golang.org/x/xerrors@v0.0.0-20200804184101-5ec99f83aff1",
        "pkg:golang/google.golang.org/genproto@v0.0.0-20211208223120-3a66f561d7aa",
        "pkg:golang/google.golang.org/grpc@v1.43.0",
        "pkg:golang/google.golang.org/protobuf@v1.27.1",
        "pkg:golang/gopkg.in/ini.v1@v1.66.2",
        "pkg:golang/gopkg.in/yaml.v2@v2.4.0",
        "pkg:golang/gopkg.in/yaml.v3@v3.0.0-20210107192922-496545a6307b"
      ]
    },
    {
      "ref": "pkg:golang/github.com/subosito/gotenv@v1.2.0"
    },
    {
      "ref": "pkg:golang/github.com/terraform-docs/terraform-config-inspect@v0.0.0-20210728164355-9c1f178932fa",
      "dependsOn": [
        "pkg:golang/github.com/agext/levenshtein@v1.2.2",
        "pkg:golang/github.com/google/go-cmp@v0.5.6",
        "pkg:golang/github.com/hashicorp/hcl@v1.0.0",
        "pkg:golang/github.com/hashicorp/hcl/v2@v2.11.1",
        "pkg:golang/github.com/mitchellh/go-wordwrap@v1.0.0",
        "pkg:golang/github.com/spf13/pflag@v1.0.5",
        "pkg:golang/github.com/zclconf/go-cty@v1.8.0"
      ]
    },
    {
      "ref": "pkg:golang/github.com/zclconf/go-cty@v1.8.0",
      "dependsOn": [
        "pkg:golang/github.com/apparentlymart/go-textseg/v13@v13.0.0",
        "pkg:golang/github.com/google/go-cmp@v0.5.6",
        "pkg:golang/golang.org/x/text@v0.3.7"
      ]
    },
    {
      "ref": "pkg:golang/golang.org/x/crypto@v0.0.0-20210817164053-32db794688a5",
      "dependsOn": [
        "pkg:golang/golang.org/x/net@v0.0.0-20210813160813-60bc85c4be6d",
        "pkg:golang/golang.org/x/sys@v0.0.0-20211210111614-af8b64212486",
        "pkg:golang/golang.org/x/text@v0.3.7"
      ]
    },
    {
      "ref": "pkg:golang/golang.org/x/mod@v0.5.0",
      "dependsOn": [
        "pkg:golang/golang.org/x/crypto@v0.0.0-20210817164053-32db794688a5",
        "pkg:golang/golang.org/x/tools@v0.1.5",
        "pkg:golang/golang.org/x/xerrors@v0.0.0-20200804184101-5ec99f83aff1"
      ]
    },
    {
      "ref": "pkg:golang/golang.org/x/net@v0.0.0-20210813160813-60bc85c4be6d",
      "dependsOn": [
        "pkg:golang/golang.org/x/sys@v0.0.0-20211210111614-af8b64212486",
        "pkg:golang/golang.org/x/text@v0.3.7"
      ]
    },
    {
      "ref": "pkg:golang/golang.org/x/sys@v0.0.0-20211210111614-af8b64212486"
    },
    {
      "ref": "pkg:golang/golang.org/x/text@v0.3.7",
      "dependsOn": [
        "pkg:golang/golang.org/x/tools@v0.1.5"
      ]
    },
    {
      "ref": "pkg:golang/golang.org/x/tools@v0.1.5",
      "dependsOn": [
        "pkg:golang/golang.org/x/mod@v0.5.0",
        "pkg:golang/golang.org/x/net@v0.0.0-20210813160813-60bc85c4be6d",
        "pkg:golang/golang.org/x/sys@v0.0.0-20211210111614-af8b64212486",
        "pkg:golang/golang.org/x/xerrors@v0.0.0-20200804184101-5ec99f83aff1"
      ]
    },
    {
      "ref": "pkg:golang/golang.org/x/xerrors@v0.0.0-20200804184101-5ec99f83aff1"
    },
    {
      "ref": "pkg:golang/google.golang.org/genproto@v0.0.0-20211208223120-3a66f561d7aa",
      "dependsOn": [
        "pkg:golang/github.com/golang/protobuf@v1.5.2",
        "pkg:golang/golang.org/x/net@v0.0.0-20210813160813-60bc85c4be6d",
        "pkg:golang/golang.org/x/sys@v0.0.0-20211210111614-af8b64212486",
        "pkg:golang/golang.org/x/text@v0.3.7",
        "pkg:golang/google.golang.org/grpc@v1.43.0",
        "pkg:golang/google.golang.org/protobuf@v1.27.1"
      ]
    },
    {
      "ref": "pkg:golang/google.golang.org/grpc@v1.43.0",
      "dependsOn": [
        "pkg:golang/github.com/golang/protobuf@v1.5.2",
        "pkg:golang/github.com/google/go-cmp@v0.5.6",
        "pkg:golang/github.com/google/uuid@v1.1.2",
        "pkg:golang/golang.org/x/net@v0.0.0-20210813160813-60bc85c4be6d",
        "pkg:golang/golang.org/x/sys@v0.0.0-20211210111614-af8b64212486",
        "pkg:golang/google.golang.org/genproto@v0.0.0-20211208223120-3a66f561d7aa",
        "pkg:golang/google.golang.org/protobuf@v1.27.1"
      ]
    },
    {
      "ref": "pkg:golang/google.golang.org/protobuf@v1.27.1",
      "dependsOn": [
        "pkg:golang/github.com/golang/protobuf@v1.5.2",
        "pkg:golang/github.com/google/go-cmp@v0.5.6"
      ]
    },
    {
      "ref": "pkg:golang/gopkg.in/ini.v1@v1.66.2"
    },
    {
      "ref": "pkg:golang/gopkg.in/yaml.v2@v2.4.0"
    },
    {
      "ref": "pkg:golang/gopkg.in/yaml.v3@v3.0.0-20210107192922-496545a6307b"
    },
    {
      "ref": "pkg:golang/honnef.co/go/tools@v0.2.0",
      "dependsOn": [
        "pkg:golang/github.com/BurntSushi/toml@v0.4.1",
        "pkg:golang/golang.org/x/tools@v0.1.5"
      ]
    },
    {
      "ref": "pkg:golang/mvdan.cc/xurls/v2@v2.3.0"
    },
    {
      "ref": "pkg:golang/github.com/terraform-docs/terraform-docs@v0.0.0-20220107192101-f5c7c6fbaf2b",
      "dependsOn": [
        "pkg:golang/github.com/BurntSushi/toml@v0.4.1",
        "pkg:golang/github.com/Masterminds/sprig/v3@v3.2.2",
        "pkg:golang/github.com/hashicorp/go-hclog@v1.0.0",
        "pkg:golang/github.com/hashicorp/go-plugin@v1.4.3",
        "pkg:golang/github.com/hashicorp/go-version@v1.4.0",
        "pkg:golang/github.com/hashicorp/hcl/v2@v2.11.1",
        "pkg:golang/github.com/iancoleman/orderedmap@v0.2.0",
        "pkg:golang/github.com/imdario/mergo@v0.3.12",
        "pkg:golang/github.com/mitchellh/go-homedir@v1.1.0",
        "pkg:golang/github.com/spf13/cobra@v1.3.0",
        "pkg:golang/github.com/spf13/pflag@v1.0.5",
        "pkg:golang/github.com/spf13/viper@v1.10.1",
        "pkg:golang/github.com/terraform-docs/terraform-config-inspect@v0.0.0-20210728164355-9c1f178932fa",
        "pkg:golang/gopkg.in/yaml.v3@v3.0.0-20210107192922-496545a6307b",
        "pkg:golang/honnef.co/go/tools@v0.2.0",
        "pkg:golang/mvdan.cc/xurls/v2@v2.3.0"
      ]
    }
  ]
}
