{
  "bomFormat": "CycloneDX",
  "specVersion": "1.3",
  "serialNumber": "urn:uuid:5f71365e-2092-4b5d-be4d-8b53f6acf346",
  "version": 1,
  "metadata": {
    "timestamp": "2022-06-06T19:24:06Z",
    "tools": [
      {
        "vendor": "AppThreat",
        "name": "cdxgen",
        "version": "3.0.10"
      },
      {
        "vendor": "Fortress Information Security",
        "name": "Github Extractor",
        "version": "1.15.1"
      }
    ],
    "authors": [
      {
        "name": "Team AppThreat",
        "email": "cloud@appthreat.com"
      },
      {
        "name": "Fortress Information Security",
        "email": "sales@fortressinfosec.com",
        "phone": "1-407-573-6800"
      }
    ],
    "component": {
      "type": "application",
      "name": "helix",
      "version": "",
      "group": "tildeio",
      "externalReferences": [
        {
          "url": "https://github.com/tildeio/helix.git",
          "type": "distribution"
        },
        {
          "type": "website",
          "url": "https://usehelix.com",
          "comment": "As set via `homepage` in Github API"
        }
      ]
    }
  },
  "components": [
    {
      "type": "library",
      "bom-ref": "pkg:crates/helix@0.7.5",
      "group": "",
      "name": "helix",
      "version": "0.7.5",
      "description": "",
      "purl": "pkg:crates/helix@0.7.5"
    },
    {
      "type": "library",
      "bom-ref": "pkg:crates/libc@0.2.0",
      "group": "",
      "name": "libc",
      "version": "0.2.0",
      "description": "",
      "purl": "pkg:crates/libc@0.2.0"
    },
    {
      "type": "library",
      "bom-ref": "pkg:crates/cstr-macro@0.1.0",
      "group": "",
      "name": "cstr-macro",
      "version": "0.1.0",
      "description": "",
      "purl": "pkg:crates/cstr-macro@0.1.0"
    },
    {
      "type": "library",
      "bom-ref": "pkg:crates/libcruby-sys@0.7.5",
      "group": "",
      "name": "libcruby-sys",
      "version": "0.7.5",
      "description": "",
      "purl": "pkg:crates/libcruby-sys@0.7.5"
    },
    {
      "type": "library",
      "bom-ref": "pkg:crates/libc@>= 0.1.0",
      "group": "",
      "name": "libc",
      "version": ">= 0.1.0",
      "description": "",
      "purl": "pkg:crates/libc@>= 0.1.0"
    },
    {
      "type": "library",
      "bom-ref": "pkg:crates/calculator@0.1.0",
      "group": "",
      "name": "calculator",
      "version": "0.1.0",
      "description": "",
      "purl": "pkg:crates/calculator@0.1.0"
    },
    {
      "type": "library",
      "bom-ref": "pkg:crates/console@0.1.0",
      "group": "",
      "name": "console",
      "version": "0.1.0",
      "description": "",
      "purl": "pkg:crates/console@0.1.0"
    },
    {
      "type": "library",
      "bom-ref": "pkg:crates/docopt@0.1.0",
      "group": "",
      "name": "docopt",
      "version": "0.1.0",
      "description": "",
      "purl": "pkg:crates/docopt@0.1.0"
    },
    {
      "type": "library",
      "bom-ref": "pkg:crates/docopt@*",
      "group": "",
      "name": "docopt",
      "version": "*",
      "description": "",
      "purl": "pkg:crates/docopt@*"
    },
    {
      "type": "library",
      "bom-ref": "pkg:crates/duration@0.1.0",
      "group": "",
      "name": "duration",
      "version": "0.1.0",
      "description": "",
      "purl": "pkg:crates/duration@0.1.0"
    },
    {
      "type": "library",
      "bom-ref": "pkg:crates/game_of_life@0.1.0",
      "group": "",
      "name": "game_of_life",
      "version": "0.1.0",
      "description": "",
      "purl": "pkg:crates/game_of_life@0.1.0"
    },
    {
      "type": "library",
      "bom-ref": "pkg:crates/termion@*",
      "group": "",
      "name": "termion",
      "version": "*",
      "description": "",
      "purl": "pkg:crates/termion@*"
    },
    {
      "type": "library",
      "bom-ref": "pkg:crates/rand@*",
      "group": "",
      "name": "rand",
      "version": "*",
      "description": "",
      "purl": "pkg:crates/rand@*"
    },
    {
      "type": "library",
      "bom-ref": "pkg:crates/geometry@0.1.0",
      "group": "",
      "name": "geometry",
      "version": "0.1.0",
      "description": "",
      "purl": "pkg:crates/geometry@0.1.0"
    },
    {
      "type": "library",
      "bom-ref": "pkg:crates/json_builder@0.1.0",
      "group": "",
      "name": "json_builder",
      "version": "0.1.0",
      "description": "",
      "purl": "pkg:crates/json_builder@0.1.0"
    },
    {
      "type": "library",
      "bom-ref": "pkg:crates/serde_json@*",
      "group": "",
      "name": "serde_json",
      "version": "*",
      "description": "",
      "purl": "pkg:crates/serde_json@*"
    },
    {
      "type": "library",
      "bom-ref": "pkg:crates/membership@0.1.0",
      "group": "",
      "name": "membership",
      "version": "0.1.0",
      "description": "",
      "purl": "pkg:crates/membership@0.1.0"
    },
    {
      "type": "library",
      "bom-ref": "pkg:crates/text_transform@0.1.0",
      "group": "",
      "name": "text_transform",
      "version": "0.1.0",
      "description": "",
      "purl": "pkg:crates/text_transform@0.1.0"
    },
    {
      "type": "library",
      "bom-ref": "pkg:crates/turbo_blank@0.1.0",
      "group": "",
      "name": "turbo_blank",
      "version": "0.1.0",
      "description": "",
      "purl": "pkg:crates/turbo_blank@0.1.0"
    },
    {
      "type": "library",
      "bom-ref": "pkg:crates/unit@0.1.0",
      "group": "",
      "name": "unit",
      "version": "0.1.0",
      "description": "",
      "purl": "pkg:crates/unit@0.1.0"
    },
    {
      "type": "library",
      "bom-ref": "pkg:crates/<%@0.1.0",
      "group": "",
      "name": "<%",
      "version": "0.1.0",
      "description": "",
      "purl": "pkg:crates/<%@0.1.0"
    },
    {
      "type": "library",
      "bom-ref": "pkg:crates/helix@<%= HelixRuntime::VERSION %>",
      "group": "",
      "name": "helix",
      "version": "<%= HelixRuntime::VERSION %>",
      "description": "",
      "purl": "pkg:crates/helix@<%= HelixRuntime::VERSION %>"
    }
  ],
  "externalReferences": [
    {
      "url": "/project/src",
      "type": "other",
      "comment": "Base path"
    },
    {
      "url": "/project/src/Cargo.toml, /project/src/crates/cstr-macro/Cargo.toml, /project/src/crates/libcruby-sys/Cargo.toml, /project/src/examples/calculator/Cargo.toml, /project/src/examples/console/Cargo.toml, /project/src/examples/docopt/Cargo.toml, /project/src/examples/duration/Cargo.toml, /project/src/examples/game_of_life/Cargo.toml, /project/src/examples/geometry/Cargo.toml, /project/src/examples/json_builder/Cargo.toml, /project/src/examples/membership/Cargo.toml, /project/src/examples/text_transform/Cargo.toml, /project/src/examples/turbo_blank/Cargo.toml, /project/src/examples/unit/Cargo.toml, /project/src/ruby/lib/helix_runtime/cli/templates/Cargo.toml",
      "type": "other",
      "comment": "Package file"
    }
  ]
}
