{
  "bomFormat": "CycloneDX",
  "specVersion": "1.3",
  "version": 1,
  "metadata": {
    "tools": [
      {
        "vendor": "CycloneDX",
        "name": "cyclonedx-gomod",
        "version": "v0.0.0-unset",
        "hashes": [
          {
            "alg": "MD5",
            "content": "a35776fc9417e8071d3f1dcfa2f1dd19"
          },
          {
            "alg": "SHA-1",
            "content": "a19a8eed713eff5a2092e5283c201a146f19421d"
          },
          {
            "alg": "SHA-256",
            "content": "17b3b980b9a5d0f48ad52043dee5b31aff3ae6599a36bc94224dc7b6a46759ef"
          },
          {
            "alg": "SHA-512",
            "content": "9d4f06aab20cede94a1aedf11a300ae9de98871235c68c72e421cd6d45495910861b39e743ee0eceb11bbdcd2c9acc3312c19064cfe90177243fb43127fcfa46"
          }
        ]
      },
      {
        "vendor": "AppThreat",
        "name": "cdxgen",
        "version": "3.0.10"
      },
      {
        "vendor": "Fortress Information Security",
        "name": "Github Extractor",
        "version": "1.15.1"
      }
    ],
    "authors": [
      {
        "name": "Fortress Information Security",
        "email": "sales@fortressinfosec.com",
        "phone": "1-407-573-6800"
      }
    ],
    "timestamp": "2022-06-01T21:00:00Z",
    "component": {
      "type": "application",
      "name": "fx",
      "version": "v1.17.1",
      "group": "uber-go",
      "externalReferences": [
        {
          "url": "https://github.com/uber-go/fx.git",
          "type": "distribution"
        },
        {
          "type": "website",
          "url": "https://go.uber.org/fx",
          "comment": "As set via `homepage` in Github API"
        }
      ]
    }
  },
  "components": [
    {
      "type": "library",
      "bom-ref": "pkg:golang/go.uber.org/atomic@v1.6.0",
      "name": "go.uber.org/atomic",
      "version": "v1.6.0",
      "scope": "required",
      "hashes": [
        {
          "alg": "SHA-256",
          "content": "1338f72469ac3a71b53284564243c1b0a2def43c160fd41e5f34d1cf395d3559"
        }
      ],
      "purl": "pkg:golang/go.uber.org/atomic@v1.6.0"
    },
    {
      "type": "library",
      "bom-ref": "pkg:golang/go.uber.org/dig@v1.14.1",
      "name": "go.uber.org/dig",
      "version": "v1.14.1",
      "scope": "required",
      "hashes": [
        {
          "alg": "SHA-256",
          "content": "7f26a4460643762d85f05830249a1119a9e03123d32313d22c6cd1dce874ff9e"
        }
      ],
      "purl": "pkg:golang/go.uber.org/dig@v1.14.1"
    },
    {
      "type": "library",
      "bom-ref": "pkg:golang/go.uber.org/multierr@v1.5.0",
      "name": "go.uber.org/multierr",
      "version": "v1.5.0",
      "scope": "required",
      "hashes": [
        {
          "alg": "SHA-256",
          "content": "2826b85df33c096142a715d11a893e434492ff45c184c0db1c71800502ef0f60"
        }
      ],
      "purl": "pkg:golang/go.uber.org/multierr@v1.5.0"
    },
    {
      "type": "library",
      "bom-ref": "pkg:golang/go.uber.org/zap@v1.16.0",
      "name": "go.uber.org/zap",
      "version": "v1.16.0",
      "scope": "required",
      "hashes": [
        {
          "alg": "SHA-256",
          "content": "b854595f290918af652d8e07b604b0e380e721c00cfa44413fbc799be36900e3"
        }
      ],
      "purl": "pkg:golang/go.uber.org/zap@v1.16.0"
    },
    {
      "type": "library",
      "bom-ref": "pkg:golang/golang.org/x/sys@v0.0.0-20210903071746-97244b99971b",
      "name": "golang.org/x/sys",
      "version": "v0.0.0-20210903071746-97244b99971b",
      "scope": "required",
      "hashes": [
        {
          "alg": "SHA-256",
          "content": "dc3ab47951e7d2e6902663cefbf6983c8fdf44ca9dad50dbbbb310724bb9e208"
        }
      ],
      "purl": "pkg:golang/golang.org/x/sys@v0.0.0-20210903071746-97244b99971b"
    },
    {
      "type": "library",
      "bom-ref": "pkg:golang/go.uber.org/fx",
      "group": "go.uber.org",
      "name": "fx",
      "version": "",
      "description": "",
      "scope": "required",
      "purl": "pkg:golang/go.uber.org/fx"
    }
  ],
  "dependencies": [
    {
      "ref": "pkg:golang/go.uber.org/atomic@v1.6.0"
    },
    {
      "ref": "pkg:golang/go.uber.org/dig@v1.14.1"
    },
    {
      "ref": "pkg:golang/go.uber.org/multierr@v1.5.0",
      "dependsOn": [
        "pkg:golang/go.uber.org/atomic@v1.6.0"
      ]
    },
    {
      "ref": "pkg:golang/go.uber.org/zap@v1.16.0",
      "dependsOn": [
        "pkg:golang/go.uber.org/atomic@v1.6.0",
        "pkg:golang/go.uber.org/multierr@v1.5.0"
      ]
    },
    {
      "ref": "pkg:golang/golang.org/x/sys@v0.0.0-20210903071746-97244b99971b"
    },
    {
      "ref": "pkg:golang/go.uber.org/fx@v0.0.0-20220504145838-c8d593ac8f9c",
      "dependsOn": [
        "pkg:golang/go.uber.org/atomic@v1.6.0",
        "pkg:golang/go.uber.org/dig@v1.14.1",
        "pkg:golang/go.uber.org/multierr@v1.5.0",
        "pkg:golang/go.uber.org/zap@v1.16.0",
        "pkg:golang/golang.org/x/sys@v0.0.0-20210903071746-97244b99971b"
      ]
    }
  ]
}
