{
  "bomFormat": "CycloneDX",
  "specVersion": "1.3",
  "version": 1,
  "metadata": {
    "tools": [
      {
        "vendor": "AppThreat",
        "name": "cdxgen",
        "version": "3.0.10"
      },
      {
        "vendor": "Fortress Information Security",
        "name": "Github Extractor",
        "version": "1.15.1"
      }
    ],
    "authors": [
      {
        "name": "Fortress Information Security",
        "email": "sales@fortressinfosec.com",
        "phone": "1-407-573-6800"
      }
    ],
    "timestamp": "2022-06-01T21:00:00Z",
    "component": {
      "type": "application",
      "name": "undetected-chromedriver",
      "version": "",
      "group": "ultrafunkamsterdam",
      "externalReferences": [
        {
          "url": "https://github.com/ultrafunkamsterdam/undetected-chromedriver.git",
          "type": "distribution"
        },
        {
          "type": "website",
          "url": "https://github.com/UltrafunkAmsterdam/undetected-chromedriver",
          "comment": "As set via `homepage` in Github API"
        }
      ]
    }
  },
  "components": [
    {
      "type": "library",
      "publisher": "Python Packaging Authority",
      "name": "setuptools",
      "version": "62.1.0",
      "description": "Easily download, build, install, upgrade, and uninstall Python packages",
      "hashes": [
        {
          "alg": "MD5",
          "content": "101d2e2bf9b7682ab90d9a7bd487bdbe"
        },
        {
          "alg": "SHA-256",
          "content": "26ead7d1f93efc0f8c804d9fafafbe4a44b179580a7105754b245155f9af05a8"
        }
      ],
      "purl": "pkg:pypi/setuptools@62.1.0",
      "modified": false
    },
    {
      "type": "library",
      "name": "io",
      "version": "0.0.1",
      "purl": "pkg:pypi/io@0.0.1",
      "modified": false
    },
    {
      "type": "library",
      "publisher": "Vinay Sajip",
      "name": "logging",
      "version": "0.4.9.6",
      "description": "A logging module for Python",
      "hashes": [
        {
          "alg": "MD5",
          "content": "dc0a7ebc8b8970263911e11e7b7e1ca8"
        },
        {
          "alg": "SHA-256",
          "content": "26f6b50773f085042d301085bd1bf5d9f3735704db9f37c1ce6d8b85c38f2417"
        }
      ],
      "licenses": [
        {
          "license": {
            "name": "Copyright (C) 2001-2005 by Vinay Sajip. All Rights Reserved. See LICENSE for license."
          }
        }
      ],
      "purl": "pkg:pypi/logging@0.4.9.6",
      "modified": false
    },
    {
      "type": "library",
      "publisher": "Greg Ward",
      "name": "distutils",
      "version": "1.0",
      "description": "Python Distribution Utilities",
      "purl": "pkg:pypi/distutils@1.0",
      "modified": false
    },
    {
      "type": "library",
      "publisher": "Ilkka Tuohela",
      "name": "secrets",
      "version": "1.0.2",
      "description": "Scripts to manage LDAP users and change LDAP passwords",
      "hashes": [
        {
          "alg": "MD5",
          "content": "68bcc959655c314d2c52158317638472"
        },
        {
          "alg": "SHA-256",
          "content": "15a7e07b91bd3fd42b0893415fc1be14236e030d7edb33492cf966cf3936e815"
        }
      ],
      "licenses": [
        {
          "license": {
            "name": "PSF"
          }
        }
      ],
      "purl": "pkg:pypi/secrets@1.0.2",
      "modified": false
    },
    {
      "type": "library",
      "publisher": "Guido van Rossum (and others)",
      "name": "asyncio",
      "version": "3.4.3",
      "description": "reference implementation of PEP 3156",
      "hashes": [
        {
          "alg": "MD5",
          "content": "82ea7f22832529b1d68109f077c3e977"
        },
        {
          "alg": "SHA-256",
          "content": "c4d18b22701821de07bd6aea8b53d21449ec0ec5680645e5317062ea21817d2d"
        }
      ],
      "licenses": [
        {
          "license": {
            "name": "PSF"
          }
        }
      ],
      "purl": "pkg:pypi/asyncio@3.4.3",
      "modified": false
    },
    {
      "type": "library",
      "publisher": "Guido van Rossum, Jukka Lehtosalo, Łukasz Langa, Ivan Levkivskyi",
      "name": "typing",
      "version": "3.10.0.0",
      "description": "Type Hints for Python",
      "hashes": [
        {
          "alg": "MD5",
          "content": "cf38139027dc160e3ecd8e5ccf151da9"
        },
        {
          "alg": "SHA-256",
          "content": "12fbdfbe7d6cca1a42e485229afcb0b0c8259258cfb919b8a5e2a5c953742f89"
        }
      ],
      "licenses": [
        {
          "license": {
            "name": "PSF"
          }
        }
      ],
      "purl": "pkg:pypi/typing@3.10.0.0",
      "modified": false
    },
    {
      "type": "library",
      "publisher": "Dima Dorfman",
      "name": "functools",
      "version": "0.5",
      "description": "Fast tools for functional programming",
      "hashes": [
        {
          "alg": "MD5",
          "content": "91111c28ee685a2f89f1a41e6f0ce8ea"
        },
        {
          "alg": "SHA-256",
          "content": "596ed8999dee419c0749a41bfdd82e4697e80ea27ee01c716003ef55be9a54c5"
        }
      ],
      "licenses": [
        {
          "license": {
            "name": "BSD"
          }
        }
      ],
      "purl": "pkg:pypi/functools@0.5",
      "modified": false
    },
    {
      "type": "library",
      "name": "selenium",
      "version": "4.1.5",
      "hashes": [
        {
          "alg": "MD5",
          "content": "a2878c4245e3742ab692f5b6955f8530"
        },
        {
          "alg": "SHA-256",
          "content": "866b6dd6c459210662bff922ee7c33162d21920fbf6811e8e5a52be3866a687f"
        }
      ],
      "licenses": [
        {
          "license": {
            "name": "Apache 2.0"
          }
        }
      ],
      "purl": "pkg:pypi/selenium@4.1.5",
      "modified": false
    },
    {
      "type": "library",
      "publisher": "Christian Heimes",
      "name": "multiprocessing",
      "version": "2.6.2.1",
      "description": "Backport of the multiprocessing package to Python 2.4 and 2.5",
      "hashes": [
        {
          "alg": "MD5",
          "content": "5cc484396c040102116ccc2355379c72"
        },
        {
          "alg": "SHA-256",
          "content": "ef3b81ad85d7de252e5491b1daac028e17f9741cbe3625032e6eaa4ad4c79900"
        }
      ],
      "licenses": [
        {
          "license": {
            "name": "BSD Licence"
          }
        }
      ],
      "purl": "pkg:pypi/multiprocessing@2.6.2.1",
      "modified": false
    },
    {
      "type": "library",
      "publisher": "Stephan Klein",
      "name": "signal",
      "version": "0.1",
      "description": "Send SMS messages via ADB and your Android phone. Comes with a CLI.",
      "licenses": [
        {
          "license": {
            "name": "MIT"
          }
        }
      ],
      "purl": "pkg:pypi/signal@0.1",
      "modified": false
    },
    {
      "type": "library",
      "publisher": "Kenneth Reitz",
      "name": "requests",
      "version": "2.27.1",
      "description": "Python HTTP for Humans.",
      "hashes": [
        {
          "alg": "MD5",
          "content": "435db0f122c83decd27524f690e89650"
        },
        {
          "alg": "SHA-256",
          "content": "f22fa1e554c9ddfd16e6e41ac79759e17be9e492b3587efa038054674760e72d"
        }
      ],
      "licenses": [
        {
          "license": {
            "name": "Apache 2.0"
          }
        }
      ],
      "purl": "pkg:pypi/requests@2.27.1",
      "modified": false
    },
    {
      "type": "library",
      "publisher": "Aymeric Augustin",
      "name": "websockets",
      "version": "10.3",
      "description": "An implementation of the WebSocket Protocol (RFC 6455 & 7692)",
      "hashes": [
        {
          "alg": "MD5",
          "content": "1cee1d326b788dfe7fad319cd5eaca33"
        },
        {
          "alg": "SHA-256",
          "content": "3eda1cb7e9da1b22588cefff09f0951771d6ee9fa8dbe66f5ae04cc5f26b2b55"
        }
      ],
      "licenses": [
        {
          "license": {
            "name": "BSD"
          }
        }
      ],
      "purl": "pkg:pypi/websockets@10.3",
      "modified": false
    },
    {
      "type": "library",
      "publisher": "Holger Krekel, Bruno Oliveira, Ronny Pfannschmidt, Floris Bruynooghe, Brianna Laugher, Florian Bruhin and others",
      "name": "pytest",
      "version": "7.1.2",
      "description": "pytest: simple powerful testing with Python",
      "hashes": [
        {
          "alg": "MD5",
          "content": "6f5a9e12007a2529cb00d3b5a8af33a1"
        },
        {
          "alg": "SHA-256",
          "content": "13d0e3ccfc2b6e26be000cb6568c832ba67ba32e719443bfe725814d3c42433c"
        }
      ],
      "licenses": [
        {
          "license": {
            "name": "MIT"
          }
        }
      ],
      "purl": "pkg:pypi/pytest@7.1.2",
      "modified": false
    },
    {
      "type": "library",
      "publisher": "UltrafunkAmsterdam",
      "name": "undetected_chromedriver",
      "version": "3.1.5.post4",
      "description": "('Selenium.webdriver.Chrome replacement with compatiblity for Brave, and other Chromium based browsers.', 'Not triggered by CloudFlare/Imperva/hCaptcha and such.', 'NOTE: results may vary due to many factors. No guarantees are given, except for ongoing efforts in understanding detection algorithms.')",
      "hashes": [
        {
          "alg": "MD5",
          "content": "f5fb4ae8cc15909f0b4c62a038233281"
        },
        {
          "alg": "SHA-256",
          "content": "cfd77c38d86825f2f2b5ab296bf7814ef8f7199c3d9f46f24e57b93ea1662223"
        }
      ],
      "licenses": [
        {
          "license": {
            "name": "GPL-3.0"
          }
        }
      ],
      "purl": "pkg:pypi/undetected-chromedriver@3.1.5.post4",
      "modified": false
    },
    {
      "type": "library",
      "bom-ref": "pkg:pypi/selenium@4.0.0",
      "group": "",
      "name": "selenium",
      "version": "4.0.0",
      "description": "",
      "hashes": [
        {
          "alg": "SHA-256",
          "content": "c942b166a21ce9c9065ad249b54059e926d39f9000167b5ca0fa4950d2ef9a82"
        }
      ],
      "licenses": [
        {
          "license": {
            "id": "Apache-2.0",
            "url": "https://opensource.org/licenses/Apache-2.0"
          }
        }
      ],
      "purl": "pkg:pypi/selenium@4.0.0",
      "externalReferences": [
        {
          "url": "https://www.selenium.dev",
          "type": "website"
        }
      ]
    }
  ]
}
