{
  "bomFormat": "CycloneDX",
  "specVersion": "1.3",
  "version": 1,
  "metadata": {
    "tools": [
      {
        "vendor": "CycloneDX",
        "name": "cyclonedx-gomod",
        "version": "v0.0.0-unset",
        "hashes": [
          {
            "alg": "MD5",
            "content": "a35776fc9417e8071d3f1dcfa2f1dd19"
          },
          {
            "alg": "SHA-1",
            "content": "a19a8eed713eff5a2092e5283c201a146f19421d"
          },
          {
            "alg": "SHA-256",
            "content": "17b3b980b9a5d0f48ad52043dee5b31aff3ae6599a36bc94224dc7b6a46759ef"
          },
          {
            "alg": "SHA-512",
            "content": "9d4f06aab20cede94a1aedf11a300ae9de98871235c68c72e421cd6d45495910861b39e743ee0eceb11bbdcd2c9acc3312c19064cfe90177243fb43127fcfa46"
          }
        ]
      },
      {
        "vendor": "AppThreat",
        "name": "cdxgen",
        "version": "3.0.10"
      },
      {
        "vendor": "Fortress Information Security",
        "name": "Github Extractor",
        "version": "1.15.1"
      }
    ],
    "authors": [
      {
        "name": "Fortress Information Security",
        "email": "sales@fortressinfosec.com",
        "phone": "1-407-573-6800"
      }
    ],
    "timestamp": "2022-06-01T21:00:00Z",
    "component": {
      "type": "application",
      "name": "cli",
      "version": "v2.8.1",
      "group": "urfave",
      "externalReferences": [
        {
          "url": "https://github.com/urfave/cli.git",
          "type": "distribution"
        },
        {
          "type": "website",
          "url": "null",
          "comment": "As set via `homepage` in Github API"
        }
      ]
    }
  },
  "components": [
    {
      "type": "library",
      "bom-ref": "pkg:golang/github.com/BurntSushi/toml@v1.1.0",
      "name": "github.com/BurntSushi/toml",
      "version": "v1.1.0",
      "scope": "required",
      "hashes": [
        {
          "alg": "SHA-256",
          "content": "92c12bcc3108d6484e8863e0a70b88ef1d9e6f1fee5d0370ef12699fd12ad7e2"
        }
      ],
      "purl": "pkg:golang/github.com/BurntSushi/toml@v1.1.0",
      "externalReferences": [
        {
          "url": "https://github.com/BurntSushi/toml",
          "type": "vcs"
        }
      ]
    },
    {
      "type": "library",
      "bom-ref": "pkg:golang/github.com/cpuguy83/go-md2man/v2@v2.0.1",
      "name": "github.com/cpuguy83/go-md2man/v2",
      "version": "v2.0.1",
      "scope": "required",
      "hashes": [
        {
          "alg": "SHA-256",
          "content": "aff9b2116cd5f657ec335b452e00f2bb46ad16d2757d79f6eb52ca623ff70f15"
        }
      ],
      "purl": "pkg:golang/github.com/cpuguy83/go-md2man/v2@v2.0.1",
      "externalReferences": [
        {
          "url": "https://github.com/cpuguy83/go-md2man",
          "type": "vcs"
        }
      ]
    },
    {
      "type": "library",
      "bom-ref": "pkg:golang/github.com/russross/blackfriday/v2@v2.1.0",
      "name": "github.com/russross/blackfriday/v2",
      "version": "v2.1.0",
      "scope": "required",
      "hashes": [
        {
          "alg": "SHA-256",
          "content": "248387e79ff4716c8eba296bf7faa5ae6d0149795daa7ab032c7f7e4b77aee69"
        }
      ],
      "purl": "pkg:golang/github.com/russross/blackfriday/v2@v2.1.0",
      "externalReferences": [
        {
          "url": "https://github.com/russross/blackfriday",
          "type": "vcs"
        }
      ]
    },
    {
      "type": "library",
      "bom-ref": "pkg:golang/golang.org/x/text@v0.3.7",
      "name": "golang.org/x/text",
      "version": "v0.3.7",
      "scope": "required",
      "hashes": [
        {
          "alg": "SHA-256",
          "content": "a25a70bcfd8a69c5b5656bec47bb90868c9362f280ba97d0ad118114cdf9d869"
        }
      ],
      "purl": "pkg:golang/golang.org/x/text@v0.3.7"
    },
    {
      "type": "library",
      "bom-ref": "pkg:golang/gopkg.in/yaml.v2@v2.4.0",
      "name": "gopkg.in/yaml.v2",
      "version": "v2.4.0",
      "scope": "required",
      "hashes": [
        {
          "alg": "SHA-256",
          "content": "0fcc60c04098ec262fc7e6369f8b01cfddc99fd251bf1762cb2a3c0937ee29a6"
        }
      ],
      "purl": "pkg:golang/gopkg.in/yaml.v2@v2.4.0",
      "externalReferences": [
        {
          "url": "https://github.com/go-yaml/yaml",
          "type": "vcs"
        }
      ]
    },
    {
      "type": "library",
      "bom-ref": "pkg:golang/github.com/urfave/cli/v2",
      "group": "github.com/urfave/cli",
      "name": "v2",
      "version": "",
      "description": "",
      "scope": "required",
      "purl": "pkg:golang/github.com/urfave/cli/v2"
    }
  ],
  "dependencies": [
    {
      "ref": "pkg:golang/github.com/BurntSushi/toml@v1.1.0"
    },
    {
      "ref": "pkg:golang/github.com/cpuguy83/go-md2man/v2@v2.0.1",
      "dependsOn": [
        "pkg:golang/github.com/russross/blackfriday/v2@v2.1.0"
      ]
    },
    {
      "ref": "pkg:golang/github.com/russross/blackfriday/v2@v2.1.0"
    },
    {
      "ref": "pkg:golang/golang.org/x/text@v0.3.7"
    },
    {
      "ref": "pkg:golang/gopkg.in/yaml.v2@v2.4.0"
    },
    {
      "ref": "pkg:golang/github.com/urfave/cli/v2@v0.0.0-20220507083502-c6f73934732c",
      "dependsOn": [
        "pkg:golang/github.com/BurntSushi/toml@v1.1.0",
        "pkg:golang/github.com/cpuguy83/go-md2man/v2@v2.0.1",
        "pkg:golang/github.com/russross/blackfriday/v2@v2.1.0",
        "pkg:golang/golang.org/x/text@v0.3.7",
        "pkg:golang/gopkg.in/yaml.v2@v2.4.0"
      ]
    }
  ]
}
