{
  "bomFormat": "CycloneDX",
  "specVersion": "1.3",
  "version": 1,
  "metadata": {
    "tools": [
      {
        "vendor": "CycloneDX",
        "name": "Node.js module",
        "version": "3.0.3"
      },
      {
        "vendor": "cyclonedx",
        "name": "cyclonedx-php-composer",
        "version": "3.10.0"
      },
      {
        "vendor": "AppThreat",
        "name": "cdxgen",
        "version": "3.0.10"
      },
      {
        "vendor": "Fortress Information Security",
        "name": "Github Extractor",
        "version": "1.15.1"
      }
    ],
    "authors": [
      {
        "name": "Fortress Information Security",
        "email": "sales@fortressinfosec.com",
        "phone": "1-407-573-6800"
      }
    ],
    "timestamp": "2022-06-01T21:00:00Z",
    "component": {
      "type": "application",
      "name": "vaex",
      "version": "vaexpaper_v1",
      "group": "vaexio",
      "externalReferences": [
        {
          "url": "https://github.com/vaexio/vaex.git",
          "type": "distribution"
        },
        {
          "type": "website",
          "url": "https://vaex.io",
          "comment": "As set via `homepage` in Github API"
        }
      ]
    }
  },
  "components": [
    {
      "type": "library",
      "publisher": "Python Packaging Authority",
      "name": "setuptools",
      "version": "62.1.0",
      "description": "Easily download, build, install, upgrade, and uninstall Python packages",
      "hashes": [
        {
          "alg": "MD5",
          "content": "101d2e2bf9b7682ab90d9a7bd487bdbe"
        },
        {
          "alg": "SHA-256",
          "content": "26ead7d1f93efc0f8c804d9fafafbe4a44b179580a7105754b245155f9af05a8"
        }
      ],
      "purl": "pkg:pypi/setuptools@62.1.0",
      "modified": false
    },
    {
      "type": "library",
      "publisher": "The pip developers",
      "name": "pip",
      "version": "22.0.4",
      "description": "The PyPA recommended tool for installing Python packages.",
      "hashes": [
        {
          "alg": "MD5",
          "content": "271aee4d4372295af4847a19d64c3595"
        },
        {
          "alg": "SHA-256",
          "content": "c6aca0f2f081363f689f041d90dab2a07a9a07fb840284db2218117a52da800b"
        }
      ],
      "licenses": [
        {
          "license": {
            "name": "MIT"
          }
        }
      ],
      "purl": "pkg:pypi/pip@22.0.4",
      "modified": false
    },
    {
      "type": "library",
      "publisher": "Greg Ward",
      "name": "distutils",
      "version": "1.0",
      "description": "Python Distribution Utilities",
      "purl": "pkg:pypi/distutils@1.0",
      "modified": false
    },
    {
      "type": "library",
      "publisher": "Ronald Oussoren",
      "name": "macholib",
      "version": "1.16",
      "description": "Mach-O header analysis and editing",
      "hashes": [
        {
          "alg": "MD5",
          "content": "a7ab8a6b3aa90e83faa33b65c46a3c27"
        },
        {
          "alg": "SHA-256",
          "content": "5a0742b587e6e57bfade1ab90651d4877185bf66fd4a176a488116de36878229"
        }
      ],
      "licenses": [
        {
          "license": {
            "name": "MIT"
          }
        }
      ],
      "purl": "pkg:pypi/macholib@1.16",
      "modified": false
    },
    {
      "type": "library",
      "publisher": "Maarten A. Breddels",
      "name": "releash",
      "version": "0.4.0",
      "description": "Release with relish to PyPi and conda-forge, version bumping, pure bliss!",
      "hashes": [
        {
          "alg": "MD5",
          "content": "131bbde59c3a2fe97ca0f0e3da0bb980"
        },
        {
          "alg": "SHA-256",
          "content": "b4c8b39ccbbe49ab2b7976a5ee0227807f62f20c6c3d71fbb21ea61d957e4c24"
        }
      ],
      "licenses": [
        {
          "license": {
            "name": "MIT"
          }
        }
      ],
      "purl": "pkg:pypi/releash@0.4.0",
      "modified": false
    },
    {
      "type": "library",
      "publisher": "Zope Foundation and Contributors",
      "name": "datetime",
      "version": "4.4",
      "description": "This package provides a DateTime data type, as known from Zope. Unless you need to communicate with Zope APIs, you're probably better off using Python's built-in datetime module.",
      "hashes": [
        {
          "alg": "MD5",
          "content": "ad1e82d858ed7c8cd2ea437b4cb695ed"
        },
        {
          "alg": "SHA-256",
          "content": "4fcca115ddb466a1104df08d5c2a2f5805d14ca317800e1bfcea8f3d69f66e57"
        }
      ],
      "licenses": [
        {
          "license": {
            "name": "ZPL 2.1"
          }
        }
      ],
      "purl": "pkg:pypi/datetime@4.4",
      "modified": false
    },
    {
      "type": "library",
      "publisher": "The Pandas Development Team",
      "name": "pandas",
      "version": "1.4.2",
      "description": "Powerful data structures for data analysis, time series, and statistics",
      "hashes": [
        {
          "alg": "MD5",
          "content": "d03e1ba43fac967c83ca8223248cc32f"
        },
        {
          "alg": "SHA-256",
          "content": "09d8be7dd9e1c4c98224c4dfe8abd60d145d934e9fc1f5f411266308ae683e6a"
        }
      ],
      "licenses": [
        {
          "license": {
            "name": "BSD-3-Clause"
          }
        }
      ],
      "purl": "pkg:pypi/pandas@1.4.2",
      "modified": false
    },
    {
      "type": "library",
      "name": "pyarrow",
      "version": "7.0.0",
      "description": "Python library for Apache Arrow",
      "hashes": [
        {
          "alg": "MD5",
          "content": "ea7a683d84d38b542ec3aad0a4ad2199"
        },
        {
          "alg": "SHA-256",
          "content": "087769dac6e567d58d59b94c4f866b3356c00d3db5b261387ece47e7324c2150"
        }
      ],
      "licenses": [
        {
          "license": {
            "name": "Apache License, Version 2.0"
          }
        }
      ],
      "purl": "pkg:pypi/pyarrow@7.0.0",
      "modified": false
    },
    {
      "type": "library",
      "publisher": "John D. Hunter, Michael Droettboom",
      "name": "matplotlib",
      "version": "3.5.2",
      "description": "Python plotting package",
      "hashes": [
        {
          "alg": "MD5",
          "content": "36ccc2efc47ed886836b2c7c3d3b9b3a"
        },
        {
          "alg": "SHA-256",
          "content": "24173c23d1bcbaed5bf47b8785d27933a1ac26a5d772200a0f3e0e38f471b001"
        }
      ],
      "licenses": [
        {
          "license": {
            "name": "PSF"
          }
        }
      ],
      "purl": "pkg:pypi/matplotlib@3.5.2",
      "modified": false
    },
    {
      "type": "library",
      "publisher": "IPython Development Team",
      "name": "ipywidgets",
      "version": "7.7.0",
      "description": "IPython HTML widgets for Jupyter",
      "hashes": [
        {
          "alg": "MD5",
          "content": "c9e30dc5687d1f6b104b95c75390610a"
        },
        {
          "alg": "SHA-256",
          "content": "e58ff58bc94d481e91ecb6e13a5cb96a87b6b8ade135e055603d0ca24593df38"
        }
      ],
      "licenses": [
        {
          "license": {
            "name": "BSD"
          }
        }
      ],
      "purl": "pkg:pypi/ipywidgets@7.7.0",
      "modified": false
    },
    {
      "type": "library",
      "publisher": "Maarten A. Breddels",
      "name": "ipyvolume",
      "version": "0.5.2",
      "description": "IPython widget for rendering 3d volumes",
      "hashes": [
        {
          "alg": "MD5",
          "content": "58b3e021bf60b62557193f3bb5d82e39"
        },
        {
          "alg": "SHA-256",
          "content": "dccae36f5744bf262ea3f0367e36e341290847b3da37928cb86197380d8c8257"
        }
      ],
      "licenses": [
        {
          "license": {
            "name": "MIT"
          }
        }
      ],
      "purl": "pkg:pypi/ipyvolume@0.5.2",
      "modified": false
    },
    {
      "type": "library",
      "publisher": "The BQplot Development Team",
      "name": "bqplot",
      "version": "0.12.33",
      "description": "Interactive plotting for the Jupyter notebook, using d3.js and ipywidgets.",
      "hashes": [
        {
          "alg": "MD5",
          "content": "3622f399d6f2bafdbc930f8193b52ac8"
        },
        {
          "alg": "SHA-256",
          "content": "259e7fae15c1255e0bbbf7e85ed1576acce33f38d31aa0611e0318d3d18196c1"
        }
      ],
      "licenses": [
        {
          "license": {
            "name": "Apache"
          }
        }
      ],
      "purl": "pkg:pypi/bqplot@0.12.33",
      "modified": false
    },
    {
      "type": "library",
      "publisher": "IPython Development Team",
      "name": "traitlets",
      "version": "5.1.1",
      "description": "Traitlets Python configuration system",
      "hashes": [
        {
          "alg": "MD5",
          "content": "257c2158ed18ed953d536a0a61406e2d"
        },
        {
          "alg": "SHA-256",
          "content": "2d313cc50a42cd6c277e7d7dc8d4d7fedd06a2c215f78766ae7b1a66277e0033"
        }
      ],
      "licenses": [
        {
          "license": {
            "name": "BSD"
          }
        }
      ],
      "purl": "pkg:pypi/traitlets@5.1.1",
      "modified": false
    },
    {
      "type": "library",
      "publisher": "Mario Buikhuizen, Maarten Breddels",
      "name": "ipyvuetify",
      "version": "1.8.2",
      "description": "Jupyter widgets based on vuetify UI components",
      "hashes": [
        {
          "alg": "MD5",
          "content": "7696ca1dc8175183de1a23c0dbe64870"
        },
        {
          "alg": "SHA-256",
          "content": "250e290bc7ad1c3a01e8844d5d714e11e390f258af5ef01857c06bcc6efba11d"
        }
      ],
      "purl": "pkg:pypi/ipyvuetify@1.8.2",
      "modified": false
    },
    {
      "type": "library",
      "name": "lightgbm",
      "version": "3.3.2",
      "description": "LightGBM Python Package",
      "hashes": [
        {
          "alg": "MD5",
          "content": "70b4afa3770fd57d5d93f9120ed5a041"
        },
        {
          "alg": "SHA-256",
          "content": "e4f1529cad416066964f9af0efad208787861e9f2181b7f9ee7fc9bacc082d4f"
        }
      ],
      "licenses": [
        {
          "license": {
            "name": "The MIT License (Microsoft)"
          }
        }
      ],
      "purl": "pkg:pypi/lightgbm@3.3.2",
      "modified": false
    },
    {
      "type": "library",
      "name": "xgboost",
      "version": "1.6.0",
      "description": "XGBoost Python Package",
      "hashes": [
        {
          "alg": "MD5",
          "content": "3af221e329a179950d25447fcda10071"
        },
        {
          "alg": "SHA-256",
          "content": "e2f9baca0b7cbc208ad4fbafa4cd70b50b292717ee8ba817a3ba7a0fe49de958"
        }
      ],
      "licenses": [
        {
          "license": {
            "name": "Apache-2.0"
          }
        }
      ],
      "purl": "pkg:pypi/xgboost@1.6.0",
      "modified": false
    },
    {
      "type": "library",
      "name": "dask",
      "version": "2022.5.0",
      "description": "Parallel PyData with Task Scheduling",
      "hashes": [
        {
          "alg": "MD5",
          "content": "cae2fe0e3676df6ec36eccff1811950b"
        },
        {
          "alg": "SHA-256",
          "content": "1b168877673a3d12778e319a1a406bb33b5abe942d8b6fae70ed02cb6019868a"
        }
      ],
      "licenses": [
        {
          "license": {
            "name": "BSD"
          }
        }
      ],
      "purl": "pkg:pypi/dask@2022.5.0",
      "modified": false
    },
    {
      "type": "library",
      "publisher": "Chris P",
      "name": "plotly",
      "version": "5.7.0",
      "description": "An open-source, interactive data visualization library for Python",
      "hashes": [
        {
          "alg": "MD5",
          "content": "f65e4d67891f4a25c9c45e5530e43615"
        },
        {
          "alg": "SHA-256",
          "content": "3a35131762c6567813012462e1d496e1d3898f56ab3d386b32f103f7f0c79cf1"
        }
      ],
      "licenses": [
        {
          "license": {
            "name": "MIT"
          }
        }
      ],
      "purl": "pkg:pypi/plotly@5.7.0",
      "modified": false
    },
    {
      "type": "library",
      "publisher": "Facebook",
      "name": "tornado",
      "version": "6.1",
      "description": "Tornado is a Python web framework and asynchronous networking library, originally developed at FriendFeed.",
      "hashes": [
        {
          "alg": "MD5",
          "content": "20495caae481252995557144c93164b5"
        },
        {
          "alg": "SHA-256",
          "content": "548430be2740e327b3fe0201abe471f314741efcb0067ec4f2d7dcfb4825f3e4"
        }
      ],
      "licenses": [
        {
          "license": {
            "name": "http://www.apache.org/licenses/LICENSE-2.0"
          }
        }
      ],
      "purl": "pkg:pypi/tornado@6.1",
      "modified": false
    },
    {
      "type": "library",
      "publisher": "Eric Hauser",
      "name": "graphene_tornado",
      "version": "2.6.1",
      "description": "Graphene Tornado integration",
      "hashes": [
        {
          "alg": "MD5",
          "content": "6c703a7750ae089ac1259ed94ee80a41"
        },
        {
          "alg": "SHA-256",
          "content": "291c61452917f9fa014ec69d73cef1f74f7f2f39fd85aa6a84a7e20332b7ce4d"
        }
      ],
      "licenses": [
        {
          "license": {
            "name": "MIT"
          }
        }
      ],
      "purl": "pkg:pypi/graphene-tornado@2.6.1",
      "modified": false
    },
    {
      "type": "library",
      "publisher": "Syrus Akbary",
      "name": "graphene",
      "version": "3.0",
      "description": "GraphQL Framework for Python",
      "hashes": [
        {
          "alg": "MD5",
          "content": "560638244350fccfc7890ce85685c98b"
        },
        {
          "alg": "SHA-256",
          "content": "57ce5ee7c9dc194224a1df96e4f7cb48d31eae96c791091d059f8f3d4d131390"
        }
      ],
      "licenses": [
        {
          "license": {
            "name": "MIT"
          }
        }
      ],
      "purl": "pkg:pypi/graphene@3.0",
      "modified": false
    },
    {
      "type": "library",
      "publisher": "Yijun Yu",
      "name": "ast",
      "version": "0.0.2",
      "description": "Conversion between protobuf3 and srcML.",
      "hashes": [
        {
          "alg": "MD5",
          "content": "866a45bda3dc0b19f8da494f6a548a8d"
        },
        {
          "alg": "SHA-256",
          "content": "04cf2827c4048d18635ca8f85357a4285d140424ac26028be0dc585f824e07cd"
        }
      ],
      "licenses": [
        {
          "license": {
            "name": "MIT"
          }
        }
      ],
      "purl": "pkg:pypi/ast@0.0.2",
      "modified": false
    },
    {
      "type": "library",
      "publisher": "Dima Dorfman",
      "name": "functools",
      "version": "0.5",
      "description": "Fast tools for functional programming",
      "hashes": [
        {
          "alg": "MD5",
          "content": "91111c28ee685a2f89f1a41e6f0ce8ea"
        },
        {
          "alg": "SHA-256",
          "content": "596ed8999dee419c0749a41bfdd82e4697e80ea27ee01c716003ef55be9a54c5"
        }
      ],
      "licenses": [
        {
          "license": {
            "name": "BSD"
          }
        }
      ],
      "purl": "pkg:pypi/functools@0.5",
      "modified": false
    },
    {
      "type": "library",
      "publisher": "Vinay Sajip",
      "name": "logging",
      "version": "0.4.9.6",
      "description": "A logging module for Python",
      "hashes": [
        {
          "alg": "MD5",
          "content": "dc0a7ebc8b8970263911e11e7b7e1ca8"
        },
        {
          "alg": "SHA-256",
          "content": "26f6b50773f085042d301085bd1bf5d9f3735704db9f37c1ce6d8b85c38f2417"
        }
      ],
      "licenses": [
        {
          "license": {
            "name": "Copyright (C) 2001-2005 by Vinay Sajip. All Rights Reserved. See LICENSE for license."
          }
        }
      ],
      "purl": "pkg:pypi/logging@0.4.9.6",
      "modified": false
    },
    {
      "type": "library",
      "publisher": "Benjamin Peterson",
      "name": "six",
      "version": "1.16.0",
      "description": "Python 2 and 3 compatibility utilities",
      "hashes": [
        {
          "alg": "MD5",
          "content": "529d7fd7e14612ccde86417b4402d6f3"
        },
        {
          "alg": "SHA-256",
          "content": "8abb2f1d86890a2dfb989f9a77cfcfd3e47c2a354b01111771326f8aa26e0254"
        }
      ],
      "licenses": [
        {
          "license": {
            "name": "MIT"
          }
        }
      ],
      "purl": "pkg:pypi/six@1.16.0",
      "modified": false
    },
    {
      "type": "library",
      "publisher": "xarray Developers",
      "name": "xarray",
      "version": "2022.3.0",
      "description": "N-D labeled arrays and datasets in Python",
      "hashes": [
        {
          "alg": "MD5",
          "content": "92356f76e453c093662adbd817fcce59"
        },
        {
          "alg": "SHA-256",
          "content": "560f36eaabe7a989d5583d37ec753dd737357aa6a6453e55c80bb4f92291a69e"
        }
      ],
      "licenses": [
        {
          "license": {
            "name": "Apache"
          }
        }
      ],
      "purl": "pkg:pypi/xarray@2022.3.0",
      "modified": false
    },
    {
      "type": "library",
      "publisher": "Will McGugan",
      "name": "rich",
      "version": "12.3.0",
      "description": "Render rich text, tables, progress bars, syntax highlighting, markdown and more to the terminal",
      "hashes": [
        {
          "alg": "MD5",
          "content": "f7fcd3f2a3f71117df822a99eacf47a3"
        },
        {
          "alg": "SHA-256",
          "content": "0eb63013630c6ee1237e0e395d51cb23513de6b5531235e33889e8842bdf3a6f"
        }
      ],
      "licenses": [
        {
          "license": {
            "name": "MIT"
          }
        }
      ],
      "purl": "pkg:pypi/rich@12.3.0",
      "modified": false
    },
    {
      "type": "library",
      "publisher": "Thomas Waldmann",
      "name": "argparse",
      "version": "1.4.0",
      "description": "Python command-line parsing library",
      "hashes": [
        {
          "alg": "MD5",
          "content": "c37216a954c8669054e2b2c54853dd49"
        },
        {
          "alg": "SHA-256",
          "content": "c31647edb69fd3d465a847ea3157d37bed1f95f19760b11a47aa91c04b666314"
        }
      ],
      "licenses": [
        {
          "license": {
            "name": "Python Software Foundation License"
          }
        }
      ],
      "purl": "pkg:pypi/argparse@1.4.0",
      "modified": false
    },
    {
      "type": "library",
      "publisher": "Antoine Pitrou",
      "name": "pathlib",
      "version": "1.0.1",
      "description": "Object-oriented filesystem paths",
      "hashes": [
        {
          "alg": "MD5",
          "content": "f26b13acf298a15cdb46a3dffc8eb0de"
        },
        {
          "alg": "SHA-256",
          "content": "f35f95ab8b0f59e6d354090350b44a80a80635d22efdedfa84c7ad1cf0a74147"
        }
      ],
      "licenses": [
        {
          "license": {
            "name": "MIT License"
          }
        }
      ],
      "purl": "pkg:pypi/pathlib@1.0.1",
      "modified": false
    },
    {
      "type": "library",
      "publisher": "Ka-Ping Yee",
      "name": "uuid",
      "version": "1.30",
      "description": "UUID object and generation functions (Python 2.3 or higher)",
      "hashes": [
        {
          "alg": "MD5",
          "content": "639b310f1fe6800e4bf8aa1dd9333117"
        },
        {
          "alg": "SHA-256",
          "content": "1f87cc004ac5120466f36c5beae48b4c48cc411968eed0eaecd3da82aa96193f"
        }
      ],
      "purl": "pkg:pypi/uuid@1.30",
      "modified": false
    },
    {
      "type": "library",
      "publisher": "Guido van Rossum, Jukka Lehtosalo, Łukasz Langa, Ivan Levkivskyi",
      "name": "typing",
      "version": "3.10.0.0",
      "description": "Type Hints for Python",
      "hashes": [
        {
          "alg": "MD5",
          "content": "cf38139027dc160e3ecd8e5ccf151da9"
        },
        {
          "alg": "SHA-256",
          "content": "12fbdfbe7d6cca1a42e485229afcb0b0c8259258cfb919b8a5e2a5c953742f89"
        }
      ],
      "licenses": [
        {
          "license": {
            "name": "PSF"
          }
        }
      ],
      "purl": "pkg:pypi/typing@3.10.0.0",
      "modified": false
    },
    {
      "type": "library",
      "publisher": "Marco Sulla",
      "name": "frozendict",
      "version": "2.3.2",
      "description": "A simple immutable dictionary",
      "hashes": [
        {
          "alg": "MD5",
          "content": "d1fa518d67adef402df500deb62287c8"
        },
        {
          "alg": "SHA-256",
          "content": "6882a9bbe08ab9b5ff96ce11bdff3fe40b114b9813bc6801261e2a7b45e20012"
        }
      ],
      "licenses": [
        {
          "license": {
            "name": "LGPL v3"
          }
        }
      ],
      "purl": "pkg:pypi/frozendict@2.3.2",
      "modified": false
    },
    {
      "type": "library",
      "publisher": "Guido van Rossum (and others)",
      "name": "asyncio",
      "version": "3.4.3",
      "description": "reference implementation of PEP 3156",
      "hashes": [
        {
          "alg": "MD5",
          "content": "82ea7f22832529b1d68109f077c3e977"
        },
        {
          "alg": "SHA-256",
          "content": "c4d18b22701821de07bd6aea8b53d21449ec0ec5680645e5317062ea21817d2d"
        }
      ],
      "licenses": [
        {
          "license": {
            "name": "PSF"
          }
        }
      ],
      "purl": "pkg:pypi/asyncio@3.4.3",
      "modified": false
    },
    {
      "type": "library",
      "publisher": "Ewald R. de Wit",
      "name": "nest_asyncio",
      "version": "1.5.5",
      "description": "Patch asyncio to allow nested event loops",
      "hashes": [
        {
          "alg": "MD5",
          "content": "0a321e2fec8a51bd0568ec7181d9469b"
        },
        {
          "alg": "SHA-256",
          "content": "b98e3ec1b246135e4642eceffa5a6c23a3ab12c82ff816a92c612d68205813b2"
        }
      ],
      "licenses": [
        {
          "license": {
            "name": "BSD"
          }
        }
      ],
      "purl": "pkg:pypi/nest-asyncio@1.5.5",
      "modified": false
    },
    {
      "type": "library",
      "publisher": "Holger Krekel, Bruno Oliveira, Ronny Pfannschmidt, Floris Bruynooghe, Brianna Laugher, Florian Bruhin and others",
      "name": "pytest",
      "version": "7.1.2",
      "description": "pytest: simple powerful testing with Python",
      "hashes": [
        {
          "alg": "MD5",
          "content": "6f5a9e12007a2529cb00d3b5a8af33a1"
        },
        {
          "alg": "SHA-256",
          "content": "13d0e3ccfc2b6e26be000cb6568c832ba67ba32e719443bfe725814d3c42433c"
        }
      ],
      "licenses": [
        {
          "license": {
            "name": "MIT"
          }
        }
      ],
      "purl": "pkg:pypi/pytest@7.1.2",
      "modified": false
    },
    {
      "type": "library",
      "publisher": "Samuel Colvin",
      "name": "pydantic",
      "version": "1.9.0",
      "description": "Data validation and settings management using python 3.6 type hinting",
      "hashes": [
        {
          "alg": "MD5",
          "content": "67d68a805f50480adbea1335ec3b1895"
        },
        {
          "alg": "SHA-256",
          "content": "085ca1de245782e9b46cefcf99deecc67d418737a1fd3f6a4f511344b613a5b3"
        }
      ],
      "licenses": [
        {
          "license": {
            "name": "MIT"
          }
        }
      ],
      "purl": "pkg:pypi/pydantic@1.9.0",
      "modified": false
    },
    {
      "type": "library",
      "publisher": "Jean Pimentel",
      "name": "numbers",
      "version": "0.1",
      "description": "interesting numbers!",
      "purl": "pkg:pypi/numbers@0.1",
      "modified": false
    },
    {
      "type": "library",
      "publisher": "Benedikt Schmitt",
      "name": "filelock",
      "version": "3.6.0",
      "description": "A platform independent file lock.",
      "hashes": [
        {
          "alg": "MD5",
          "content": "12ac1a6c5008ee6077d64eda43c369b0"
        },
        {
          "alg": "SHA-256",
          "content": "f8314284bfffbdcfa0ff3d7992b023d4c628ced6feb957351d4c48d059f56bc0"
        }
      ],
      "licenses": [
        {
          "license": {
            "name": "Unlicense"
          }
        }
      ],
      "purl": "pkg:pypi/filelock@3.6.0",
      "modified": false
    },
    {
      "type": "library",
      "publisher": "Jack O'Connor <oconnor663@gmail.com>",
      "name": "blake3",
      "version": "0.3.1",
      "description": "Python bindings for the Rust blake3 crate",
      "hashes": [
        {
          "alg": "MD5",
          "content": "4f264cb33e69e4ed6bf0b129fa2beca0"
        },
        {
          "alg": "SHA-256",
          "content": "2393b81dcd307823238798b400ec1460f2a09a3e1c2f442b3b53dc040addd54f"
        }
      ],
      "licenses": [
        {
          "license": {
            "name": "CC0-1.0 OR Apache-2.0"
          }
        }
      ],
      "purl": "pkg:pypi/blake3@0.3.1",
      "modified": false
    },
    {
      "type": "library",
      "publisher": "Brett Cannon",
      "name": "importlib",
      "version": "1.0.4",
      "description": "Backport of importlib.import_module() from Python 2.7",
      "hashes": [
        {
          "alg": "MD5",
          "content": "5f9a0803bca7ba95f670d1464984296f"
        },
        {
          "alg": "SHA-256",
          "content": "b6ee7066fea66e35f8d0acee24d98006de1a0a8a94a8ce6efe73a9a23c8d9826"
        }
      ],
      "purl": "pkg:pypi/importlib@1.0.4",
      "modified": false
    },
    {
      "type": "library",
      "publisher": "Ben Finney",
      "name": "enum",
      "version": "0.4.7",
      "description": "Robust enumerated type support in Python.",
      "hashes": [
        {
          "alg": "MD5",
          "content": "e7d170e3f84435b77058de625c96ef58"
        },
        {
          "alg": "SHA-256",
          "content": "8c7cf3587eda51008bcc1eed99ea2c331ccd265c231dbaa95ec5258d3dc03100"
        }
      ],
      "licenses": [
        {
          "license": {
            "name": "GPL-3.0+"
          }
        }
      ],
      "purl": "pkg:pypi/enum@0.4.7",
      "modified": false
    },
    {
      "type": "library",
      "publisher": "Yesudeep Mangalapilly",
      "name": "watchdog",
      "version": "2.1.7",
      "description": "Filesystem events monitoring",
      "hashes": [
        {
          "alg": "MD5",
          "content": "205b7d4e916f76489e140d99126feb12"
        },
        {
          "alg": "SHA-256",
          "content": "351e09b6d9374d5bcb947e6ac47a608ec25b9d70583e9db00b2fcdb97b00b572"
        }
      ],
      "licenses": [
        {
          "license": {
            "name": "Apache License 2.0"
          }
        }
      ],
      "purl": "pkg:pypi/watchdog@2.1.7",
      "modified": false
    },
    {
      "type": "library",
      "publisher": "Michael M. Tiller",
      "name": "aplus",
      "version": "0.11.0",
      "hashes": [
        {
          "alg": "MD5",
          "content": "cb3009b753154aea6bbf3c6088b2a509"
        },
        {
          "alg": "SHA-256",
          "content": "4f57025413bd9611fb54782b8f46946ea874ae7bb6dd876c0ec45c6a8d60f6e7"
        }
      ],
      "purl": "pkg:pypi/aplus@0.11.0",
      "modified": false
    },
    {
      "type": "library",
      "publisher": "Secret Labs AB (PythonWare)",
      "name": "PIL",
      "version": "1.1.6",
      "description": "Python Imaging Library",
      "licenses": [
        {
          "license": {
            "name": "Python (MIT style)"
          }
        }
      ],
      "purl": "pkg:pypi/pil@1.1.6",
      "modified": false
    },
    {
      "type": "library",
      "publisher": "Stephan Klein",
      "name": "signal",
      "version": "0.1",
      "description": "Send SMS messages via ADB and your Android phone. Comes with a CLI.",
      "licenses": [
        {
          "license": {
            "name": "MIT"
          }
        }
      ],
      "purl": "pkg:pypi/signal@0.1",
      "modified": false
    },
    {
      "type": "library",
      "publisher": "Tom Aldcroft",
      "name": "asciitable",
      "version": "0.8.0",
      "description": "Extensible ASCII table reader and writer",
      "hashes": [
        {
          "alg": "MD5",
          "content": "27e42e69f8114e54724cd81ef1d0e88d"
        },
        {
          "alg": "SHA-256",
          "content": "d6ab300ee16e39863679fe6fe6955d9538c96cec36af200f375e382d11035bb7"
        }
      ],
      "licenses": [
        {
          "license": {
            "name": "BSD"
          }
        }
      ],
      "purl": "pkg:pypi/asciitable@0.8.0",
      "modified": false
    },
    {
      "type": "library",
      "publisher": "Thomas Heller",
      "name": "ctypes",
      "version": "1.0.2",
      "description": "create and manipulate C data types in Python, call functions in shared libraries",
      "licenses": [
        {
          "license": {
            "name": "MIT License"
          }
        }
      ],
      "purl": "pkg:pypi/ctypes@1.0.2",
      "modified": false
    },
    {
      "type": "library",
      "publisher": "Akihiko ITOH",
      "name": "mab",
      "version": "0.1.24",
      "description": "Multi-Armed Bandits Algorithms",
      "hashes": [
        {
          "alg": "MD5",
          "content": "32cf6c30bc15daf17525f1c4b6a4b47a"
        },
        {
          "alg": "SHA-256",
          "content": "2f11111b949de5df4a520e892d708e48de02305208196abb96f345c192f0767c"
        }
      ],
      "licenses": [
        {
          "license": {
            "name": "MIT"
          }
        }
      ],
      "purl": "pkg:pypi/mab@0.1.24",
      "modified": false
    },
    {
      "type": "library",
      "publisher": "Christian Heimes",
      "name": "multiprocessing",
      "version": "2.6.2.1",
      "description": "Backport of the multiprocessing package to Python 2.4 and 2.5",
      "hashes": [
        {
          "alg": "MD5",
          "content": "5cc484396c040102116ccc2355379c72"
        },
        {
          "alg": "SHA-256",
          "content": "ef3b81ad85d7de252e5491b1daac028e17f9741cbe3625032e6eaa4ad4c79900"
        }
      ],
      "licenses": [
        {
          "license": {
            "name": "BSD Licence"
          }
        }
      ],
      "purl": "pkg:pypi/multiprocessing@2.6.2.1",
      "modified": false
    },
    {
      "type": "library",
      "publisher": "Ed Schofield",
      "name": "future",
      "version": "0.18.2",
      "description": "Clean single-source support for Python 3 and 2",
      "hashes": [
        {
          "alg": "MD5",
          "content": "e4579c836b9c025872efe230f6270349"
        },
        {
          "alg": "SHA-256",
          "content": "b1bead90b70cf6ec3f0710ae53a525360fa360d306a86583adc6bf83a4db537d"
        }
      ],
      "licenses": [
        {
          "license": {
            "name": "MIT"
          }
        }
      ],
      "purl": "pkg:pypi/future@0.18.2",
      "modified": false
    },
    {
      "type": "library",
      "publisher": "Thomas Kemmer",
      "name": "cachetools",
      "version": "5.0.0",
      "description": "Extensible memoizing collections and decorators",
      "hashes": [
        {
          "alg": "MD5",
          "content": "ca6bc6138bc9b20b878c2f4dbe384c92"
        },
        {
          "alg": "SHA-256",
          "content": "8fecd4203a38af17928be7b90689d8083603073622229ca7077b72d8e5a976e4"
        }
      ],
      "licenses": [
        {
          "license": {
            "name": "MIT"
          }
        }
      ],
      "purl": "pkg:pypi/cachetools@5.0.0",
      "modified": false
    },
    {
      "type": "library",
      "publisher": "Grant Jenks",
      "name": "diskcache",
      "version": "5.4.0",
      "description": "Disk Cache -- Disk and file backed persistent cache.",
      "hashes": [
        {
          "alg": "MD5",
          "content": "ca82e5fedfa6325f23aa3ae9703b0628"
        },
        {
          "alg": "SHA-256",
          "content": "af3ec6d7f167bbef7b6c33d9ee22f86d3e8f2dd7131eb7c4703d8d91ccdc0cc4"
        }
      ],
      "licenses": [
        {
          "license": {
            "name": "Apache 2.0"
          }
        }
      ],
      "purl": "pkg:pypi/diskcache@5.4.0",
      "modified": false
    },
    {
      "type": "library",
      "publisher": "The IPython Development Team",
      "name": "IPython",
      "version": "8.3.0",
      "description": "IPython: Productive Interactive Computing",
      "hashes": [
        {
          "alg": "MD5",
          "content": "9f8b1a1c0995397a09fef315fcfb380a"
        },
        {
          "alg": "SHA-256",
          "content": "341456643a764c28f670409bbd5d2518f9b82c013441084ff2c2fc999698f83b"
        }
      ],
      "licenses": [
        {
          "license": {
            "name": "BSD"
          }
        }
      ],
      "purl": "pkg:pypi/ipython@8.3.0",
      "modified": false
    },
    {
      "type": "library",
      "publisher": "Cloudpipe",
      "name": "cloudpickle",
      "version": "2.0.0",
      "description": "Extended pickling support for Python objects",
      "hashes": [
        {
          "alg": "MD5",
          "content": "a897cd4df193aedbf48f8a5837879697"
        },
        {
          "alg": "SHA-256",
          "content": "6b2df9741d06f43839a3275c4e6632f7df6487a1f181f5f46a052d3c917c3d11"
        }
      ],
      "licenses": [
        {
          "license": {
            "name": "BSD 3-Clause License"
          }
        }
      ],
      "purl": "pkg:pypi/cloudpickle@2.0.0",
      "modified": false
    },
    {
      "type": "library",
      "publisher": "Sergey Astanin",
      "name": "tabulate",
      "version": "0.8.9",
      "description": "Pretty-print tabular data",
      "hashes": [
        {
          "alg": "MD5",
          "content": "1a2ab1fba64a6c181c0c0924601c0851"
        },
        {
          "alg": "SHA-256",
          "content": "d7c013fe7abbc5e491394e10fa845f8f32fe54f8dc60c6622c6cf482d25d47e4"
        }
      ],
      "licenses": [
        {
          "license": {
            "name": "MIT"
          }
        }
      ],
      "purl": "pkg:pypi/tabulate@0.8.9",
      "modified": false
    },
    {
      "type": "library",
      "publisher": "Sebastian Bank",
      "name": "graphviz",
      "version": "0.20",
      "description": "Simple Python interface for Graphviz",
      "hashes": [
        {
          "alg": "MD5",
          "content": "73c23049ff4e9cb0cff8f037f69f9d75"
        },
        {
          "alg": "SHA-256",
          "content": "62c5f48bcc534a45b4588c548ff75e419c1f1f3a33d31a91796ae80a7f581e4a"
        }
      ],
      "licenses": [
        {
          "license": {
            "name": "MIT"
          }
        }
      ],
      "purl": "pkg:pypi/graphviz@0.20",
      "modified": false
    },
    {
      "type": "library",
      "name": "numba",
      "version": "0.55.1",
      "description": "compiling Python code using LLVM",
      "hashes": [
        {
          "alg": "MD5",
          "content": "5c530aed5e12fd86f6a2fa4da16467a7"
        },
        {
          "alg": "SHA-256",
          "content": "b72350160eb9a73a36aa17d808f954353a263a0295d495497c87439d79bdaec7"
        }
      ],
      "licenses": [
        {
          "license": {
            "name": "BSD"
          }
        }
      ],
      "purl": "pkg:pypi/numba@0.55.1",
      "modified": false
    },
    {
      "type": "library",
      "publisher": "Kenneth Reitz",
      "name": "requests",
      "version": "2.27.1",
      "description": "Python HTTP for Humans.",
      "hashes": [
        {
          "alg": "MD5",
          "content": "435db0f122c83decd27524f690e89650"
        },
        {
          "alg": "SHA-256",
          "content": "f22fa1e554c9ddfd16e6e41ac79759e17be9e492b3587efa038054674760e72d"
        }
      ],
      "licenses": [
        {
          "license": {
            "name": "Apache 2.0"
          }
        }
      ],
      "purl": "pkg:pypi/requests@2.27.1",
      "modified": false
    },
    {
      "type": "library",
      "publisher": "Tom Christie",
      "name": "starlette",
      "version": "0.20.0",
      "description": "The little ASGI library that shines.",
      "hashes": [
        {
          "alg": "MD5",
          "content": "fff50cebe03cc27044c9d3ae3bcb44a9"
        },
        {
          "alg": "SHA-256",
          "content": "006a726e2398dc0c88c41b1810f66669932ada3ac8539e4ad6a981fde791343b"
        }
      ],
      "licenses": [
        {
          "license": {
            "name": "BSD"
          }
        }
      ],
      "purl": "pkg:pypi/starlette@0.20.0",
      "modified": false
    },
    {
      "type": "library",
      "publisher": "Łukasz Langa",
      "name": "configparser",
      "version": "5.2.0",
      "description": "Updated configparser from Python 3.8 for Python 2.6+.",
      "hashes": [
        {
          "alg": "MD5",
          "content": "69bab6f43cd4375830a54a53a50129fa"
        },
        {
          "alg": "SHA-256",
          "content": "e8b39238fb6f0153a069aa253d349467c3c4737934f253ef6abac5fe0eca1e5d"
        }
      ],
      "purl": "pkg:pypi/configparser@5.2.0",
      "modified": false
    },
    {
      "type": "library",
      "name": "fsspec",
      "version": "2022.3.0",
      "description": "File-system specification",
      "hashes": [
        {
          "alg": "MD5",
          "content": "62e65aa88dc080c1459f32da6d6afee2"
        },
        {
          "alg": "SHA-256",
          "content": "a53491b003210fce6911dd8f2d37e20c41a27ce52a655eef11b885d1578ed4cf"
        }
      ],
      "licenses": [
        {
          "license": {
            "name": "BSD"
          }
        }
      ],
      "purl": "pkg:pypi/fsspec@2022.3.0",
      "modified": false
    },
    {
      "type": "library",
      "publisher": "Michael Foord",
      "name": "unittest",
      "version": "0.0",
      "hashes": [
        {
          "alg": "MD5",
          "content": "2a416384f814604ed854d40f352f1191"
        },
        {
          "alg": "SHA-256",
          "content": "1b492484bea7f68abda5fcc61412e77b6a105e5842355d630f8b75f01add3555"
        }
      ],
      "purl": "pkg:pypi/unittest@0.0",
      "modified": false
    },
    {
      "type": "library",
      "publisher": "Giampaolo Rodola",
      "name": "psutil",
      "version": "5.9.0",
      "description": "Cross-platform lib for process and system monitoring in Python.",
      "hashes": [
        {
          "alg": "MD5",
          "content": "75d0c4cf515a5acd882fd30e87f6d13f"
        },
        {
          "alg": "SHA-256",
          "content": "7d190ee2eaef7831163f254dc58f6d2e2a22e27382b936aab51c835fc080c3d3"
        }
      ],
      "licenses": [
        {
          "license": {
            "name": "BSD"
          }
        }
      ],
      "purl": "pkg:pypi/psutil@5.9.0",
      "modified": false
    },
    {
      "type": "library",
      "publisher": "Luigi Paioro",
      "name": "sampy",
      "version": "1.11.1",
      "description": "Python SAMP protocol implementation",
      "licenses": [
        {
          "license": {
            "name": "GNU General Public License"
          }
        }
      ],
      "purl": "pkg:pypi/sampy@1.11.1",
      "modified": false
    },
    {
      "type": "library",
      "publisher": "Bokeh Team",
      "name": "bokeh",
      "version": "2.4.2",
      "description": "Interactive plots and applications in the browser from Python",
      "hashes": [
        {
          "alg": "MD5",
          "content": "1907aac4854779577f9c627d50804522"
        },
        {
          "alg": "SHA-256",
          "content": "2a842d717feeee802e668054277c09054b6f1561557a16dddaf5f7c452f2728c"
        }
      ],
      "licenses": [
        {
          "license": {
            "name": "BSD-3-Clause"
          }
        }
      ],
      "purl": "pkg:pypi/bokeh@2.4.2",
      "modified": false
    },
    {
      "type": "library",
      "publisher": "Volodymyr Buell",
      "name": "javaobj",
      "version": "0.1.0",
      "description": "Module for serializing and de-serializing Java objects.",
      "hashes": [
        {
          "alg": "MD5",
          "content": "5608c2c76ed2fe76a35517a6f600a469"
        },
        {
          "alg": "SHA-256",
          "content": "ed917ca5d2b4692b7e7ec1f738d2029f5b31895a4bd272d3790bcdbfeef64510"
        }
      ],
      "licenses": [
        {
          "license": {
            "name": "APL2"
          }
        }
      ],
      "purl": "pkg:pypi/javaobj@0.1.0",
      "modified": false
    },
    {
      "type": "library",
      "publisher": "Mario Vilas",
      "name": "google",
      "version": "3.0.0",
      "description": "Python bindings to the Google search engine.",
      "hashes": [
        {
          "alg": "MD5",
          "content": "30c719790d3e7e57e9482d108eda355c"
        },
        {
          "alg": "SHA-256",
          "content": "889cf695f84e4ae2c55fbc0cfdaf4c1e729417fa52ab1db0485202ba173e4935"
        }
      ],
      "purl": "pkg:pypi/google@3.0.0",
      "modified": false
    },
    {
      "type": "library",
      "publisher": "Armin Ronacher",
      "name": "jinja2",
      "version": "3.1.2",
      "description": "A very fast and expressive template engine.",
      "hashes": [
        {
          "alg": "MD5",
          "content": "00ccdb509d3592cc2163b286177d75c8"
        },
        {
          "alg": "SHA-256",
          "content": "6088930bfe239f0e6710546ab9c19c9ef35e29792895fed6e6e31a023a182a61"
        }
      ],
      "licenses": [
        {
          "license": {
            "name": "BSD-3-Clause"
          }
        }
      ],
      "purl": "pkg:pypi/jinja2@3.1.2",
      "modified": false
    },
    {
      "type": "library",
      "publisher": "Google Inc.",
      "name": "tensorflow",
      "version": "2.8.0",
      "description": "TensorFlow is an open source machine learning framework for everyone.",
      "hashes": [
        {
          "alg": "MD5",
          "content": "198e5d8efbc7b35d8e2b503eaeb7d2c7"
        },
        {
          "alg": "SHA-256",
          "content": "b360c13b3e58b9a5c0780cbdb6b549eea73f620275fa203f8508fe418ae02735"
        }
      ],
      "licenses": [
        {
          "license": {
            "name": "Apache 2.0"
          }
        }
      ],
      "purl": "pkg:pypi/tensorflow@2.8.0",
      "modified": false
    },
    {
      "type": "library",
      "publisher": "CatBoost Developers",
      "name": "catboost",
      "version": "1.0.5",
      "description": "Catboost Python Package",
      "hashes": [
        {
          "alg": "MD5",
          "content": "56ed4b7e1804ae91eb63f1dd74266db2"
        },
        {
          "alg": "SHA-256",
          "content": "d092fd6e8a0b8ff541bc4934987eb7a715a132ddf2c80004486a684bc0ee6d2e"
        }
      ],
      "licenses": [
        {
          "license": {
            "name": "Apache License, Version 2.0"
          }
        }
      ],
      "purl": "pkg:pypi/catboost@1.0.5",
      "modified": false
    },
    {
      "type": "library",
      "publisher": "Erik Bernhardsson",
      "name": "annoy",
      "version": "1.17.0",
      "description": "Approximate Nearest Neighbors in C++/Python optimized for memory usage and loading/saving to disk.",
      "hashes": [
        {
          "alg": "MD5",
          "content": "0aeadef90af1f8c5933f28099eb9c933"
        },
        {
          "alg": "SHA-256",
          "content": "78df35a7c2c74b74d94b4bdc74ab4faa9a5ff67cb83d12902673d0d9bd02219d"
        }
      ],
      "licenses": [
        {
          "license": {
            "name": "Apache License 2.0"
          }
        }
      ],
      "purl": "pkg:pypi/annoy@1.17.0",
      "modified": false
    },
    {
      "type": "library",
      "publisher": "Olivier Grisel",
      "name": "pygbm",
      "version": "0.1.0",
      "description": "Experimental, numba-based Gradient Boosting Machines",
      "hashes": [
        {
          "alg": "MD5",
          "content": "9f94c5795c1ff5b3ec767261cc4fedba"
        },
        {
          "alg": "SHA-256",
          "content": "563184b56759daafcb9f4b81ac1ad264307aecb636cb1f9fc5c99876feed753c"
        }
      ],
      "licenses": [
        {
          "license": {
            "name": "MIT"
          }
        }
      ],
      "purl": "pkg:pypi/pygbm@0.1.0",
      "modified": false
    },
    {
      "type": "library",
      "publisher": "Leonard Richardson",
      "name": "bs4",
      "version": "0.0.1",
      "description": "Dummy package for Beautiful Soup",
      "hashes": [
        {
          "alg": "MD5",
          "content": "fe7e51587ac3b174608f3c4f8bd893ac"
        },
        {
          "alg": "SHA-256",
          "content": "36ecea1fd7cc5c0c6e4a1ff075df26d50da647b75376626cc186e2212886dd3a"
        }
      ],
      "purl": "pkg:pypi/bs4@0.0.1",
      "modified": false
    },
    {
      "type": "library",
      "publisher": "Mario Buikhuizen, Maarten Breddels",
      "name": "ipyvue",
      "version": "1.7.0",
      "description": "Jupyter widgets base for Vue libraries",
      "hashes": [
        {
          "alg": "MD5",
          "content": "b4d995d7d3b5591ba78526e57fda7005"
        },
        {
          "alg": "SHA-256",
          "content": "92039bfe6afdec45c93c0aba09e4efd44d64036947b4e3c4011275b4b11b4629"
        }
      ],
      "purl": "pkg:pypi/ipyvue@1.7.0",
      "modified": false
    },
    {
      "type": "library",
      "publisher": "Project Jupyter",
      "name": "ipyleaflet",
      "version": "0.16.0",
      "description": "A Jupyter widget for dynamic Leaflet maps",
      "hashes": [
        {
          "alg": "MD5",
          "content": "9fbb18576bd27bf59d7744e9ab2eabc8"
        },
        {
          "alg": "SHA-256",
          "content": "bd5706cf2e550ca63cbb39c35204ec4d345f062ee4728077313a634b5a717894"
        }
      ],
      "licenses": [
        {
          "license": {
            "name": "MIT License"
          }
        }
      ],
      "purl": "pkg:pypi/ipyleaflet@0.16.0",
      "modified": false
    },
    {
      "type": "library",
      "publisher": "Sebastián Ramírez",
      "name": "fastapi",
      "version": "0.76.0",
      "description": "FastAPI framework, high performance, easy to learn, fast to code, ready for production",
      "hashes": [
        {
          "alg": "MD5",
          "content": "0c6096cb72aec8776bdb52d5990bc1df"
        },
        {
          "alg": "SHA-256",
          "content": "1e05c868651e3935bd9b290c61a3661a54e37471d3a0700bc5e4380f9ed935ae"
        }
      ],
      "purl": "pkg:pypi/fastapi@0.76.0",
      "modified": false
    },
    {
      "type": "library",
      "publisher": "Tom Christie",
      "name": "uvicorn",
      "version": "0.17.6",
      "description": "The lightning-fast ASGI server.",
      "hashes": [
        {
          "alg": "MD5",
          "content": "d9d5d598aae4863e863b2519f2cac33f"
        },
        {
          "alg": "SHA-256",
          "content": "19e2a0e96c9ac5581c01eb1a79a7d2f72bb479691acd2b8921fce48ed5b961a6"
        }
      ],
      "licenses": [
        {
          "license": {
            "name": "BSD"
          }
        }
      ],
      "purl": "pkg:pypi/uvicorn@0.17.6",
      "modified": false
    },
    {
      "type": "library",
      "publisher": "Andrew Wooster",
      "name": "biplist",
      "version": "1.0.3",
      "description": "biplist is a library for reading/writing binary plists.",
      "hashes": [
        {
          "alg": "MD5",
          "content": "e2ff83d5f66e5798801d142eb7c1a07a"
        },
        {
          "alg": "SHA-256",
          "content": "4c0549764c5fe50b28042ec21aa2e14fe1a2224e239a1dae77d9e7f3932aa4c6"
        }
      ],
      "licenses": [
        {
          "license": {
            "name": "BSD"
          }
        }
      ],
      "purl": "pkg:pypi/biplist@1.0.3",
      "modified": false
    },
    {
      "type": "library",
      "name": "myst_parser",
      "version": "0.17.2",
      "description": "An extended commonmark compliant parser, with bridges to docutils & sphinx.",
      "hashes": [
        {
          "alg": "MD5",
          "content": "82f7c80153c30ad7b362c1baafc65eeb"
        },
        {
          "alg": "SHA-256",
          "content": "1635ce3c18965a528d6de980f989ff64d6a1effb482e1f611b1bfb79e38f3d98"
        }
      ],
      "purl": "pkg:pypi/myst-parser@0.17.2",
      "modified": false
    },
    {
      "type": "library",
      "name": "aiohttp",
      "version": "3.8.1",
      "description": "Async http client/server framework (asyncio)",
      "hashes": [
        {
          "alg": "MD5",
          "content": "924f3c0a0f17b3b26ea5371661291e7f"
        },
        {
          "alg": "SHA-256",
          "content": "1c182cb873bc91b411e184dab7a2b664d4fea2743df0e4d57402f7f3fa644bac"
        }
      ],
      "licenses": [
        {
          "license": {
            "name": "Apache 2"
          }
        }
      ],
      "purl": "pkg:pypi/aiohttp@3.8.1",
      "modified": false
    },
    {
      "type": "library",
      "publisher": "Max Halford",
      "name": "river",
      "version": "0.10.1",
      "description": "Online machine learning in Python",
      "hashes": [
        {
          "alg": "MD5",
          "content": "d20b612fddb6b29899dec7de6158cb09"
        },
        {
          "alg": "SHA-256",
          "content": "af88000d806d736b3c43ccce54a038feb19335f5f74cc847c1e6c7b5358a3501"
        }
      ],
      "licenses": [
        {
          "license": {
            "name": "BSD-3"
          }
        }
      ],
      "purl": "pkg:pypi/river@0.10.1",
      "modified": false
    },
    {
      "type": "library",
      "bom-ref": "pkg:composer/cyclonedx/cyclonedx-library@1.5.0",
      "group": "cyclonedx",
      "name": "cyclonedx-library",
      "version": "1.5.0",
      "description": "Work with CycloneDX Software Bill-of-Materials (SBOM)",
      "licenses": [
        {
          "license": {
            "id": "Apache-2.0"
          }
        }
      ],
      "purl": "pkg:composer/cyclonedx/cyclonedx-library@1.5.0",
      "externalReferences": [
        {
          "url": "https://github.com/CycloneDX/cyclonedx-php-library.git",
          "type": "distribution",
          "comment": "As detected by composer's `getSourceUrls()` (type=git & reference=f41632e1d47001700ef93fa899e6dc49779aa784)"
        },
        {
          "url": "https://api.github.com/repos/CycloneDX/cyclonedx-php-library/zipball/f41632e1d47001700ef93fa899e6dc49779aa784",
          "type": "distribution",
          "comment": "As detected by composer's `getDistUrls()` (type=zip & reference=f41632e1d47001700ef93fa899e6dc49779aa784 & sha1=UNDEFINED)"
        },
        {
          "url": "https://github.com/CycloneDX/cyclonedx-php-library/",
          "type": "website",
          "comment": "As set via `homepage` in composer package definition."
        },
        {
          "url": "https://github.com/CycloneDX/cyclonedx-php-library/issues",
          "type": "issue-tracker",
          "comment": "As set via `support.issues` in composer package definition."
        },
        {
          "url": "https://github.com/CycloneDX/cyclonedx-php-library/tree/v1.5.0",
          "type": "distribution",
          "comment": "As set via `support.source` in composer package definition."
        }
      ]
    },
    {
      "type": "application",
      "bom-ref": "pkg:composer/cyclonedx/cyclonedx-php-composer@3.10.0",
      "group": "cyclonedx",
      "name": "cyclonedx-php-composer",
      "version": "3.10.0",
      "description": "Creates CycloneDX Software Bill-of-Materials (SBOM) from PHP Composer projects",
      "licenses": [
        {
          "license": {
            "id": "Apache-2.0"
          }
        }
      ],
      "purl": "pkg:composer/cyclonedx/cyclonedx-php-composer@3.10.0",
      "externalReferences": [
        {
          "url": "https://github.com/CycloneDX/cyclonedx-php-composer.git",
          "type": "distribution",
          "comment": "As detected by composer's `getSourceUrls()` (type=git & reference=341792df609deab6131ffa65f2f3b273f2e6128a)"
        },
        {
          "url": "https://api.github.com/repos/CycloneDX/cyclonedx-php-composer/zipball/341792df609deab6131ffa65f2f3b273f2e6128a",
          "type": "distribution",
          "comment": "As detected by composer's `getDistUrls()` (type=zip & reference=341792df609deab6131ffa65f2f3b273f2e6128a & sha1=UNDEFINED)"
        },
        {
          "url": "https://github.com/CycloneDX/cyclonedx-php-composer/",
          "type": "website",
          "comment": "As set via `homepage` in composer package definition."
        },
        {
          "url": "https://github.com/CycloneDX/cyclonedx-php-composer/issues",
          "type": "issue-tracker",
          "comment": "As set via `support.issues` in composer package definition."
        },
        {
          "url": "https://github.com/CycloneDX/cyclonedx-php-composer/tree/v3.10.0",
          "type": "distribution",
          "comment": "As set via `support.source` in composer package definition."
        }
      ]
    },
    {
      "type": "library",
      "bom-ref": "pkg:composer/package-url/packageurl-php@1.0.4",
      "group": "package-url",
      "name": "packageurl-php",
      "version": "1.0.4",
      "description": "A parser and builder based on the package url spec.",
      "licenses": [
        {
          "license": {
            "id": "MIT"
          }
        }
      ],
      "purl": "pkg:composer/package-url/packageurl-php@1.0.4",
      "externalReferences": [
        {
          "url": "https://github.com/package-url/packageurl-php.git",
          "type": "distribution",
          "comment": "As detected by composer's `getSourceUrls()` (type=git & reference=c45953babed516d27a0cf6c1a2d9f7e883ce214f)"
        },
        {
          "url": "https://api.github.com/repos/package-url/packageurl-php/zipball/c45953babed516d27a0cf6c1a2d9f7e883ce214f",
          "type": "distribution",
          "comment": "As detected by composer's `getDistUrls()` (type=zip & reference=c45953babed516d27a0cf6c1a2d9f7e883ce214f & sha1=UNDEFINED)"
        },
        {
          "url": "https://github.com/package-url/packageurl-php",
          "type": "website",
          "comment": "As set via `homepage` in composer package definition."
        },
        {
          "url": "https://github.com/package-url/packageurl-php/issues",
          "type": "issue-tracker",
          "comment": "As set via `support.issues` in composer package definition."
        },
        {
          "url": "https://github.com/package-url/packageurl-php/tree/1.0.4",
          "type": "distribution",
          "comment": "As set via `support.source` in composer package definition."
        }
      ]
    },
    {
      "type": "library",
      "bom-ref": "pkg:composer/phplang/scope-exit@1.0.0",
      "group": "phplang",
      "name": "scope-exit",
      "version": "1.0.0",
      "description": "Emulation of SCOPE_EXIT construct from C++",
      "licenses": [
        {
          "license": {
            "name": "BSD"
          }
        }
      ],
      "purl": "pkg:composer/phplang/scope-exit@1.0.0",
      "externalReferences": [
        {
          "url": "https://github.com/phplang/scope-exit.git",
          "type": "distribution",
          "comment": "As detected by composer's `getSourceUrls()` (type=git & reference=239b73abe89f9414aa85a7ca075ec9445629192b)"
        },
        {
          "url": "https://api.github.com/repos/phplang/scope-exit/zipball/239b73abe89f9414aa85a7ca075ec9445629192b",
          "type": "distribution",
          "comment": "As detected by composer's `getDistUrls()` (type=zip & reference=239b73abe89f9414aa85a7ca075ec9445629192b & sha1=UNDEFINED)"
        },
        {
          "url": "https://github.com/phplang/scope-exit",
          "type": "website",
          "comment": "As set via `homepage` in composer package definition."
        },
        {
          "url": "https://github.com/phplang/scope-exit/issues",
          "type": "issue-tracker",
          "comment": "As set via `support.issues` in composer package definition."
        },
        {
          "url": "https://github.com/phplang/scope-exit/tree/master",
          "type": "distribution",
          "comment": "As set via `support.source` in composer package definition."
        }
      ]
    },
    {
      "type": "library",
      "bom-ref": "pkg:composer/swaggest/json-diff@3.8.3",
      "group": "swaggest",
      "name": "json-diff",
      "version": "3.8.3",
      "description": "JSON diff/rearrange/patch/pointer library for PHP",
      "licenses": [
        {
          "license": {
            "id": "MIT"
          }
        }
      ],
      "purl": "pkg:composer/swaggest/json-diff@3.8.3",
      "externalReferences": [
        {
          "url": "https://github.com/swaggest/json-diff.git",
          "type": "distribution",
          "comment": "As detected by composer's `getSourceUrls()` (type=git & reference=bb3e3b4e9d842bb2e48f31ea568d0459968d1d42)"
        },
        {
          "url": "https://api.github.com/repos/swaggest/json-diff/zipball/bb3e3b4e9d842bb2e48f31ea568d0459968d1d42",
          "type": "distribution",
          "comment": "As detected by composer's `getDistUrls()` (type=zip & reference=bb3e3b4e9d842bb2e48f31ea568d0459968d1d42 & sha1=UNDEFINED)"
        },
        {
          "url": "https://github.com/swaggest/json-diff/issues",
          "type": "issue-tracker",
          "comment": "As set via `support.issues` in composer package definition."
        },
        {
          "url": "https://github.com/swaggest/json-diff/tree/v3.8.3",
          "type": "distribution",
          "comment": "As set via `support.source` in composer package definition."
        }
      ]
    },
    {
      "type": "library",
      "bom-ref": "pkg:composer/swaggest/json-schema@0.12.39",
      "group": "swaggest",
      "name": "json-schema",
      "version": "0.12.39",
      "description": "High definition PHP structures with JSON-schema based validation",
      "licenses": [
        {
          "license": {
            "id": "MIT"
          }
        }
      ],
      "purl": "pkg:composer/swaggest/json-schema@0.12.39",
      "externalReferences": [
        {
          "url": "https://github.com/swaggest/php-json-schema.git",
          "type": "distribution",
          "comment": "As detected by composer's `getSourceUrls()` (type=git & reference=193ba39cce1ffa2d55ddd5445315e945a63298a2)"
        },
        {
          "url": "https://api.github.com/repos/swaggest/php-json-schema/zipball/193ba39cce1ffa2d55ddd5445315e945a63298a2",
          "type": "distribution",
          "comment": "As detected by composer's `getDistUrls()` (type=zip & reference=193ba39cce1ffa2d55ddd5445315e945a63298a2 & sha1=UNDEFINED)"
        },
        {
          "url": "mailto:vearutop@gmail.com",
          "type": "other",
          "comment": "As set via `support.email` in composer package definition."
        },
        {
          "url": "https://github.com/swaggest/php-json-schema/issues",
          "type": "issue-tracker",
          "comment": "As set via `support.issues` in composer package definition."
        },
        {
          "url": "https://github.com/swaggest/php-json-schema/tree/v0.12.39",
          "type": "distribution",
          "comment": "As set via `support.source` in composer package definition."
        }
      ]
    },
    {
      "type": "library",
      "bom-ref": "pkg:composer/symfony/polyfill-mbstring@1.25.0",
      "group": "symfony",
      "name": "polyfill-mbstring",
      "version": "1.25.0",
      "description": "Symfony polyfill for the Mbstring extension",
      "licenses": [
        {
          "license": {
            "id": "MIT"
          }
        }
      ],
      "purl": "pkg:composer/symfony/polyfill-mbstring@1.25.0",
      "externalReferences": [
        {
          "url": "https://github.com/symfony/polyfill-mbstring.git",
          "type": "distribution",
          "comment": "As detected by composer's `getSourceUrls()` (type=git & reference=0abb51d2f102e00a4eefcf46ba7fec406d245825)"
        },
        {
          "url": "https://api.github.com/repos/symfony/polyfill-mbstring/zipball/0abb51d2f102e00a4eefcf46ba7fec406d245825",
          "type": "distribution",
          "comment": "As detected by composer's `getDistUrls()` (type=zip & reference=0abb51d2f102e00a4eefcf46ba7fec406d245825 & sha1=UNDEFINED)"
        },
        {
          "url": "https://symfony.com",
          "type": "website",
          "comment": "As set via `homepage` in composer package definition."
        },
        {
          "url": "https://github.com/symfony/polyfill-mbstring/tree/v1.25.0",
          "type": "distribution",
          "comment": "As set via `support.source` in composer package definition."
        },
        {
          "url": "https://symfony.com/sponsor",
          "type": "other",
          "comment": "As set via `funding` in composer package definition. (type=custom)"
        },
        {
          "url": "https://github.com/fabpot",
          "type": "other",
          "comment": "As set via `funding` in composer package definition. (type=github)"
        },
        {
          "url": "https://tidelift.com/funding/github/packagist/symfony/symfony",
          "type": "other",
          "comment": "As set via `funding` in composer package definition. (type=tidelift)"
        }
      ]
    },
    {
      "type": "library",
      "bom-ref": "pkg:pypi/vaex@3.0.0",
      "group": "",
      "name": "vaex",
      "version": "3.0.0",
      "description": "Out-of-Core DataFrames to visualize and explore big tabular datasets",
      "hashes": [
        {
          "alg": "SHA-256",
          "content": "34f63158c6345ce72c380137f98ad80f1c7ee0efdb2ec66d7c529c477b8ee2fc"
        }
      ],
      "licenses": [
        {
          "license": {
            "id": "MIT",
            "url": "https://opensource.org/licenses/MIT"
          }
        }
      ],
      "purl": "pkg:pypi/vaex@3.0.0",
      "externalReferences": [
        {
          "url": "https://www.github.com/vaexio/vaex",
          "type": "vcs"
        }
      ]
    },
    {
      "type": "library",
      "bom-ref": "pkg:pypi/scipy@1.8.0",
      "group": "",
      "name": "scipy",
      "version": "1.8.0",
      "description": "SciPy: Scientific Library for Python",
      "hashes": [
        {
          "alg": "SHA-256",
          "content": "87b01c7d5761e8a266a0fbdb9d88dcba0910d63c1c671bdb4d99d29f469e9e03"
        }
      ],
      "licenses": [
        {
          "license": {
            "id": "0BSD",
            "url": "https://opensource.org/licenses/0BSD"
          }
        }
      ],
      "purl": "pkg:pypi/scipy@1.8.0",
      "externalReferences": [
        {
          "url": "https://www.scipy.org",
          "type": "website"
        }
      ]
    },
    {
      "type": "library",
      "bom-ref": "pkg:pypi/healpy@1.15.2",
      "group": "",
      "name": "healpy",
      "version": "1.15.2",
      "description": "Healpix tools package for Python",
      "hashes": [
        {
          "alg": "SHA-256",
          "content": "6cb706590711d9bbe423066d6c3f93b6fa9f5594bd99f832b991f3635b2aff11"
        }
      ],
      "licenses": [
        {
          "license": {
            "name": "GPLv2"
          }
        }
      ],
      "purl": "pkg:pypi/healpy@1.15.2",
      "externalReferences": [
        {
          "url": "http://github.com/healpy",
          "type": "vcs"
        }
      ]
    }
  ],
  "dependencies": [
    {
      "ref": "pkg:composer/cyclonedx/cyclonedx-library@1.5.0",
      "dependsOn": [
        "pkg:composer/package-url/packageurl-php@1.0.4",
        "pkg:composer/swaggest/json-schema@0.12.39"
      ]
    },
    {
      "ref": "pkg:composer/cyclonedx/cyclonedx-php-composer@3.10.0",
      "dependsOn": [
        "pkg:composer/cyclonedx/cyclonedx-library@1.5.0",
        "pkg:composer/package-url/packageurl-php@1.0.4"
      ]
    },
    {
      "ref": "pkg:composer/package-url/packageurl-php@1.0.4"
    },
    {
      "ref": "pkg:composer/phplang/scope-exit@1.0.0"
    },
    {
      "ref": "pkg:composer/swaggest/json-diff@3.8.3"
    },
    {
      "ref": "pkg:composer/swaggest/json-schema@0.12.39",
      "dependsOn": [
        "pkg:composer/phplang/scope-exit@1.0.0",
        "pkg:composer/swaggest/json-diff@3.8.3",
        "pkg:composer/symfony/polyfill-mbstring@1.25.0"
      ]
    },
    {
      "ref": "pkg:composer/symfony/polyfill-mbstring@1.25.0"
    },
    {
      "ref": "pkg:composer/__root__@dev-master",
      "dependsOn": [
        "pkg:composer/cyclonedx/cyclonedx-php-composer@3.10.0"
      ]
    }
  ]
}
