{
  "bomFormat": "CycloneDX",
  "specVersion": "1.3",
  "version": 1,
  "components": [
    {
      "type": "library",
      "publisher": "Thomas Waldmann",
      "name": "argparse",
      "version": "1.4.0",
      "description": "Python command-line parsing library",
      "hashes": [
        {
          "alg": "MD5",
          "content": "c37216a954c8669054e2b2c54853dd49"
        },
        {
          "alg": "SHA-256",
          "content": "c31647edb69fd3d465a847ea3157d37bed1f95f19760b11a47aa91c04b666314"
        }
      ],
      "licenses": [
        {
          "license": {
            "name": "Python Software Foundation License"
          }
        }
      ],
      "purl": "pkg:pypi/argparse@1.4.0",
      "modified": false
    },
    {
      "type": "library",
      "publisher": "Ludwig Schwardt; Sridhar Ratnakumar",
      "name": "readline",
      "version": "6.2.4.1",
      "description": "The standard Python readline extension statically linked against the GNU readline library.",
      "hashes": [
        {
          "alg": "MD5",
          "content": "578237939c81fdbc2c8334d168b17907"
        },
        {
          "alg": "SHA-256",
          "content": "e00f86e03dfe52e7d1502cec5c64070b32621c85509c0081a4cfa6a0294bd107"
        }
      ],
      "licenses": [
        {
          "license": {
            "name": "GNU GPL"
          }
        }
      ],
      "purl": "pkg:pypi/readline@6.2.4.1",
      "modified": false
    },
    {
      "type": "library",
      "publisher": "Andrey Mikhaylenko",
      "name": "tool",
      "version": "0.8.0",
      "description": "A compact modular conf/web/console framework.",
      "hashes": [
        {
          "alg": "MD5",
          "content": "9223bf620932e13bb5df71c8794d1da3"
        },
        {
          "alg": "SHA-256",
          "content": "5c596600abac4dc93d7854b0640fcc7577b7387f5b5f13bc873aed130aa8e881"
        }
      ],
      "licenses": [
        {
          "license": {
            "name": "GPL3"
          }
        }
      ],
      "purl": "pkg:pypi/tool@0.8.0",
      "modified": false
    },
    {
      "type": "library",
      "publisher": "rakesh",
      "name": "modules",
      "version": "1.0.0",
      "description": "Simple test on modules",
      "hashes": [
        {
          "alg": "MD5",
          "content": "24de7c60c3e1f481eef4339cbafece69"
        },
        {
          "alg": "SHA-256",
          "content": "5146b31b76e9899f95c19e3654c6aee2799694b912ca00faec6798725486934b"
        }
      ],
      "purl": "pkg:pypi/modules@1.0.0",
      "modified": false
    },
    {
      "type": "library",
      "publisher": "Gregory Petukhov",
      "name": "tools",
      "version": "0.1.9",
      "description": "Set of tools for web scraping projects",
      "hashes": [
        {
          "alg": "MD5",
          "content": "c60953c50e45c5793e161e522b1d1191"
        },
        {
          "alg": "SHA-256",
          "content": "7b7f998462cf5b02635fba76cc7cdb3653468aa46ff074b979dbecdb2a2fb014"
        }
      ],
      "licenses": [
        {
          "license": {
            "name": "MIT"
          }
        }
      ],
      "purl": "pkg:pypi/tools@0.1.9",
      "modified": false
    },
    {
      "type": "library",
      "publisher": "Zope Foundation and Contributors",
      "name": "datetime",
      "version": "4.4",
      "description": "This package provides a DateTime data type, as known from Zope. Unless you need to communicate with Zope APIs, you're probably better off using Python's built-in datetime module.",
      "hashes": [
        {
          "alg": "MD5",
          "content": "ad1e82d858ed7c8cd2ea437b4cb695ed"
        },
        {
          "alg": "SHA-256",
          "content": "4fcca115ddb466a1104df08d5c2a2f5805d14ca317800e1bfcea8f3d69f66e57"
        }
      ],
      "licenses": [
        {
          "license": {
            "name": "ZPL 2.1"
          }
        }
      ],
      "purl": "pkg:pypi/datetime@4.4",
      "modified": false
    },
    {
      "type": "library",
      "publisher": "Christopher Simpkins",
      "name": "Crypto",
      "version": "1.4.1",
      "description": "Simple symmetric GPG file encryption and decryption",
      "hashes": [
        {
          "alg": "MD5",
          "content": "39e5154b6b1fc3811ed359628f0f2def"
        },
        {
          "alg": "SHA-256",
          "content": "985120aa86f71545388199f96a2a0e00f7ccfe5ecd14c56355eb399e1a63d164"
        }
      ],
      "licenses": [
        {
          "license": {
            "name": "MIT license"
          }
        }
      ],
      "purl": "pkg:pypi/crypto@1.4.1",
      "modified": false
    },
    {
      "type": "library",
      "name": "hashlib",
      "version": "20081119",
      "description": "Secure hash and message digest algorithm library",
      "hashes": [
        {
          "alg": "MD5",
          "content": "46e59db6d5cac34b3344ef0c30d0897f"
        },
        {
          "alg": "SHA-256",
          "content": "419de2fd10ae71ed9c6adcb55903f116abd1d8acc8c814dfd5f839b4d5013e38"
        }
      ],
      "purl": "pkg:pypi/hashlib@20081119",
      "modified": false
    },
    {
      "type": "library",
      "publisher": "Philipp Hagemeister",
      "name": "ipaddress",
      "version": "1.0.23",
      "description": "IPv4/IPv6 manipulation library",
      "hashes": [
        {
          "alg": "MD5",
          "content": "1d1615d1bb0dd32b4f3e1cf6a24dca3a"
        },
        {
          "alg": "SHA-256",
          "content": "6e0f4a39e66cb5bb9a137b00276a2eff74f93b71dcbdad6f10ff7df9d3557fcc"
        }
      ],
      "licenses": [
        {
          "license": {
            "name": "Python Software Foundation License"
          }
        }
      ],
      "purl": "pkg:pypi/ipaddress@1.0.23",
      "modified": false
    },
    {
      "type": "library",
      "publisher": "Brett Cannon",
      "name": "importlib",
      "version": "1.0.4",
      "description": "Backport of importlib.import_module() from Python 2.7",
      "hashes": [
        {
          "alg": "MD5",
          "content": "5f9a0803bca7ba95f670d1464984296f"
        },
        {
          "alg": "SHA-256",
          "content": "b6ee7066fea66e35f8d0acee24d98006de1a0a8a94a8ce6efe73a9a23c8d9826"
        }
      ],
      "purl": "pkg:pypi/importlib@1.0.4",
      "modified": false
    }
  ],
  "metadata": {
    "tools": [
      {
        "vendor": "Fortress Information Security",
        "name": "Github Extractor",
        "version": "1.15.1"
      }
    ],
    "authors": [
      {
        "name": "Fortress Information Security",
        "email": "sales@fortressinfosec.com",
        "phone": "1-407-573-6800"
      }
    ],
    "timestamp": "2022-06-01T21:00:00Z",
    "component": {
      "type": "application",
      "name": "Veil",
      "version": "3.1.14",
      "group": "Veil-Framework",
      "externalReferences": [
        {
          "url": "https://github.com/Veil-Framework/Veil.git",
          "type": "distribution"
        },
        {
          "type": "website",
          "url": "null",
          "comment": "As set via `homepage` in Github API"
        }
      ]
    }
  }
}
