{
  "bomFormat": "CycloneDX",
  "specVersion": "1.3",
  "version": 1,
  "metadata": {
    "tools": [
      {
        "vendor": "AppThreat",
        "name": "cdxgen",
        "version": "3.0.10"
      },
      {
        "vendor": "Fortress Information Security",
        "name": "Github Extractor",
        "version": "1.15.1"
      }
    ],
    "authors": [
      {
        "name": "Fortress Information Security",
        "email": "sales@fortressinfosec.com",
        "phone": "1-407-573-6800"
      }
    ],
    "timestamp": "2022-06-01T21:00:00Z",
    "component": {
      "type": "application",
      "name": "profiling",
      "version": "0.1.1",
      "group": "what-studio",
      "externalReferences": [
        {
          "url": "https://github.com/what-studio/profiling.git",
          "type": "distribution"
        },
        {
          "type": "website",
          "url": "null",
          "comment": "As set via `homepage` in Github API"
        }
      ]
    }
  },
  "components": [
    {
      "type": "library",
      "publisher": "Python Packaging Authority",
      "name": "setuptools",
      "version": "62.1.0",
      "description": "Easily download, build, install, upgrade, and uninstall Python packages",
      "hashes": [
        {
          "alg": "MD5",
          "content": "101d2e2bf9b7682ab90d9a7bd487bdbe"
        },
        {
          "alg": "SHA-256",
          "content": "26ead7d1f93efc0f8c804d9fafafbe4a44b179580a7105754b245155f9af05a8"
        }
      ],
      "purl": "pkg:pypi/setuptools@62.1.0",
      "modified": false
    },
    {
      "type": "library",
      "publisher": "Benjamin Peterson",
      "name": "six",
      "version": "1.16.0",
      "description": "Python 2 and 3 compatibility utilities",
      "hashes": [
        {
          "alg": "MD5",
          "content": "529d7fd7e14612ccde86417b4402d6f3"
        },
        {
          "alg": "SHA-256",
          "content": "8abb2f1d86890a2dfb989f9a77cfcfd3e47c2a354b01111771326f8aa26e0254"
        }
      ],
      "licenses": [
        {
          "license": {
            "name": "MIT"
          }
        }
      ],
      "purl": "pkg:pypi/six@1.16.0",
      "modified": false
    },
    {
      "type": "library",
      "publisher": "Ian Ward",
      "name": "urwid",
      "version": "2.1.2",
      "description": "A full-featured console (xterm et al.) user interface library",
      "hashes": [
        {
          "alg": "MD5",
          "content": "f7f4e6bed9ba38965dbd619520f39287"
        },
        {
          "alg": "SHA-256",
          "content": "588bee9c1cb208d0906a9f73c613d2bd32c3ed3702012f51efe318a3f2127eae"
        }
      ],
      "licenses": [
        {
          "license": {
            "name": "LGPL"
          }
        }
      ],
      "purl": "pkg:pypi/urwid@2.1.2",
      "modified": false
    },
    {
      "type": "library",
      "publisher": "Zope Foundation and Contributors",
      "name": "datetime",
      "version": "4.4",
      "description": "This package provides a DateTime data type, as known from Zope. Unless you need to communicate with Zope APIs, you're probably better off using Python's built-in datetime module.",
      "hashes": [
        {
          "alg": "MD5",
          "content": "ad1e82d858ed7c8cd2ea437b4cb695ed"
        },
        {
          "alg": "SHA-256",
          "content": "4fcca115ddb466a1104df08d5c2a2f5805d14ca317800e1bfcea8f3d69f66e57"
        }
      ],
      "licenses": [
        {
          "license": {
            "name": "ZPL 2.1"
          }
        }
      ],
      "purl": "pkg:pypi/datetime@4.4",
      "modified": false
    },
    {
      "type": "library",
      "publisher": "Dima Dorfman",
      "name": "functools",
      "version": "0.5",
      "description": "Fast tools for functional programming",
      "hashes": [
        {
          "alg": "MD5",
          "content": "91111c28ee685a2f89f1a41e6f0ce8ea"
        },
        {
          "alg": "SHA-256",
          "content": "596ed8999dee419c0749a41bfdd82e4697e80ea27ee01c716003ef55be9a54c5"
        }
      ],
      "licenses": [
        {
          "license": {
            "name": "BSD"
          }
        }
      ],
      "purl": "pkg:pypi/functools@0.5",
      "modified": false
    },
    {
      "type": "library",
      "publisher": "Brett Cannon",
      "name": "importlib",
      "version": "1.0.4",
      "description": "Backport of importlib.import_module() from Python 2.7",
      "hashes": [
        {
          "alg": "MD5",
          "content": "5f9a0803bca7ba95f670d1464984296f"
        },
        {
          "alg": "SHA-256",
          "content": "b6ee7066fea66e35f8d0acee24d98006de1a0a8a94a8ce6efe73a9a23c8d9826"
        }
      ],
      "purl": "pkg:pypi/importlib@1.0.4",
      "modified": false
    },
    {
      "type": "library",
      "publisher": "Stephan Klein",
      "name": "signal",
      "version": "0.1",
      "description": "Send SMS messages via ADB and your Android phone. Comes with a CLI.",
      "licenses": [
        {
          "license": {
            "name": "MIT"
          }
        }
      ],
      "purl": "pkg:pypi/signal@0.1",
      "modified": false
    },
    {
      "type": "library",
      "publisher": "Armin Ronacher",
      "name": "click",
      "version": "8.1.3",
      "description": "Composable command line interface toolkit",
      "hashes": [
        {
          "alg": "MD5",
          "content": "7a8260e7bdac219be27f0bdda48e79ce"
        },
        {
          "alg": "SHA-256",
          "content": "bb4d8133cb15a609f44e8213d9b391b0809795062913b383c62be0ee95b1db48"
        }
      ],
      "licenses": [
        {
          "license": {
            "name": "BSD-3-Clause"
          }
        }
      ],
      "purl": "pkg:pypi/click@8.1.3",
      "modified": false
    },
    {
      "type": "library",
      "publisher": "Heungsub Lee",
      "name": "click_default_group",
      "version": "1.2.2",
      "description": "Extends click.Group to invoke a command without explicit subcommand name",
      "hashes": [
        {
          "alg": "MD5",
          "content": "4f0f38b1105d032a19f24c2661b0a82a"
        },
        {
          "alg": "SHA-256",
          "content": "d9560e8e8dfa44b3562fbc9425042a0fd6d21956fcc2db0077f63f34253ab904"
        }
      ],
      "licenses": [
        {
          "license": {
            "name": "BSD"
          }
        }
      ],
      "purl": "pkg:pypi/click-default-group@1.2.2",
      "modified": false
    },
    {
      "type": "library",
      "publisher": "Denis Bilenko",
      "name": "gevent",
      "version": "21.12.0",
      "description": "Coroutine-based network library",
      "hashes": [
        {
          "alg": "MD5",
          "content": "6f5a336733aed2a0eab175b0d4d7c8e7"
        },
        {
          "alg": "SHA-256",
          "content": "9f9652d1e4062d4b5b5a0a49ff679fa890430b5f76969d35dccb2df114c55e0f"
        }
      ],
      "licenses": [
        {
          "license": {
            "name": "MIT"
          }
        }
      ],
      "purl": "pkg:pypi/gevent@21.12.0",
      "modified": false
    },
    {
      "type": "library",
      "publisher": "Linden Lab",
      "name": "eventlet",
      "version": "0.33.0",
      "description": "Highly concurrent networking library",
      "hashes": [
        {
          "alg": "MD5",
          "content": "7fa8e738d39e0496bb9cf9eda1b5ab29"
        },
        {
          "alg": "SHA-256",
          "content": "d10a8fcc9e33381905d9873303fde96ebe3541c03fb795055d2c7347dce0639c"
        }
      ],
      "purl": "pkg:pypi/eventlet@0.33.0",
      "modified": false
    },
    {
      "type": "library",
      "publisher": "Heungsub Lee",
      "name": "valuedispatch",
      "version": "0.0.1",
      "description": "Dispatches value by singledispatch-like API",
      "hashes": [
        {
          "alg": "MD5",
          "content": "a44598c791aa643102693bb771d74131"
        },
        {
          "alg": "SHA-256",
          "content": "62f4712a28089396b9fcbb962cb5b17a0a404ea151b1719f0385f5a94cb7e52a"
        }
      ],
      "licenses": [
        {
          "license": {
            "name": "BSD"
          }
        }
      ],
      "purl": "pkg:pypi/valuedispatch@0.0.1",
      "modified": false
    },
    {
      "type": "library",
      "name": "io",
      "version": "0.0.1",
      "purl": "pkg:pypi/io@0.0.1",
      "modified": false
    },
    {
      "type": "library",
      "publisher": "Vinay Sajip",
      "name": "logging",
      "version": "0.4.9.6",
      "description": "A logging module for Python",
      "hashes": [
        {
          "alg": "MD5",
          "content": "dc0a7ebc8b8970263911e11e7b7e1ca8"
        },
        {
          "alg": "SHA-256",
          "content": "26f6b50773f085042d301085bd1bf5d9f3735704db9f37c1ce6d8b85c38f2417"
        }
      ],
      "licenses": [
        {
          "license": {
            "name": "Copyright (C) 2001-2005 by Vinay Sajip. All Rights Reserved. See LICENSE for license."
          }
        }
      ],
      "purl": "pkg:pypi/logging@0.4.9.6",
      "modified": false
    },
    {
      "type": "library",
      "publisher": "Holger Krekel, Bruno Oliveira, Ronny Pfannschmidt, Floris Bruynooghe, Brianna Laugher, Florian Bruhin and others",
      "name": "pytest",
      "version": "7.1.2",
      "description": "pytest: simple powerful testing with Python",
      "hashes": [
        {
          "alg": "MD5",
          "content": "6f5a9e12007a2529cb00d3b5a8af33a1"
        },
        {
          "alg": "SHA-256",
          "content": "13d0e3ccfc2b6e26be000cb6568c832ba67ba32e719443bfe725814d3c42433c"
        }
      ],
      "licenses": [
        {
          "license": {
            "name": "MIT"
          }
        }
      ],
      "purl": "pkg:pypi/pytest@7.1.2",
      "modified": false
    },
    {
      "type": "library",
      "bom-ref": "pkg:pypi/click@4.1",
      "group": "",
      "name": "click",
      "version": "4.1",
      "description": "Composable command line interface toolkit",
      "hashes": [
        {
          "alg": "SHA-256",
          "content": "c6848c6ea265af7dc3264ab83c2671ea3777c7e433019c7be18c9cc7878ee1f2"
        }
      ],
      "licenses": [
        {
          "license": {
            "id": "BSD-3-Clause",
            "url": "https://opensource.org/licenses/BSD-3-Clause"
          }
        }
      ],
      "purl": "pkg:pypi/click@4.1",
      "externalReferences": [
        {
          "url": "https://palletsprojects.com/p/click/",
          "type": "website"
        }
      ]
    },
    {
      "type": "library",
      "bom-ref": "pkg:pypi/click-default-group@1.2",
      "group": "",
      "name": "click-default-group",
      "version": "1.2",
      "description": "Extends click.Group to invoke a command without explicit subcommand name",
      "hashes": [
        {
          "alg": "SHA-256",
          "content": "ba8c43d9c384e1ea7127484c5fc8f4e1ca759519a64fff10718d53f4b82c412a"
        }
      ],
      "licenses": [
        {
          "license": {
            "id": "0BSD",
            "url": "https://opensource.org/licenses/0BSD"
          }
        }
      ],
      "purl": "pkg:pypi/click-default-group@1.2",
      "externalReferences": [
        {
          "url": "https://github.com/sublee/click-default-group/",
          "type": "vcs"
        }
      ]
    },
    {
      "type": "library",
      "bom-ref": "pkg:pypi/six@1.8.0",
      "group": "",
      "name": "six",
      "version": "1.8.0",
      "description": "Python 2 and 3 compatibility utilities",
      "hashes": [
        {
          "alg": "SHA-256",
          "content": "facfe0c7cceafd49e8f7e472111294566605fdfddc23011da06cc3a4601c9f7d"
        }
      ],
      "licenses": [
        {
          "license": {
            "id": "MIT",
            "url": "https://opensource.org/licenses/MIT"
          }
        }
      ],
      "purl": "pkg:pypi/six@1.8.0",
      "externalReferences": [
        {
          "url": "https://github.com/benjaminp/six",
          "type": "vcs"
        }
      ]
    },
    {
      "type": "library",
      "bom-ref": "pkg:pypi/urwid@1.2.1",
      "group": "",
      "name": "urwid",
      "version": "1.2.1",
      "description": "A full-featured console (xterm et al.) user interface library",
      "hashes": [
        {
          "alg": "SHA-256",
          "content": "9b9b5dabb7df6c0f12e84feed488f9a9ddd5c2d66d1b7c7c087055720b87c68c"
        }
      ],
      "licenses": [
        {
          "license": {
            "name": "LGPL"
          }
        }
      ],
      "purl": "pkg:pypi/urwid@1.2.1",
      "externalReferences": [
        {
          "url": "http://urwid.org/",
          "type": "website"
        }
      ]
    },
    {
      "type": "library",
      "bom-ref": "pkg:pypi/pytest<4.0.0",
      "group": "",
      "name": "pytest<4.0.0",
      "version": "0.0.0",
      "description": "",
      "purl": "pkg:pypi/pytest<4.0.0"
    },
    {
      "type": "library",
      "bom-ref": "pkg:pypi/pytest-benchmark@3.0.0",
      "group": "",
      "name": "pytest-benchmark",
      "version": "3.0.0",
      "description": "A ``pytest`` fixture for benchmarking code. It will group the tests into rounds that are calibrated to the chosen timer.",
      "hashes": [
        {
          "alg": "SHA-256",
          "content": "3560274259a43a6aa55a29932b28c5fd47e6d34dfeb83aa59f4f51d206b014c0"
        }
      ],
      "licenses": [
        {
          "license": {
            "id": "BSD-2-Clause",
            "url": "https://opensource.org/licenses/BSD-2-Clause"
          }
        }
      ],
      "purl": "pkg:pypi/pytest-benchmark@3.0.0",
      "externalReferences": [
        {
          "url": "https://github.com/ionelmc/pytest-benchmark",
          "type": "vcs"
        }
      ]
    },
    {
      "type": "library",
      "bom-ref": "pkg:pypi/pytest-rerunfailures@0.05",
      "group": "",
      "name": "pytest-rerunfailures",
      "version": "0.05",
      "description": "pytest plugin to re-run tests to eliminate flaky failures",
      "hashes": [
        {
          "alg": "SHA-256",
          "content": "3fb7e7ec1b9c3bd7ae734c6ae5712b9ac02313a34ced227170d0f638a2b854a2"
        }
      ],
      "licenses": [
        {
          "license": {
            "name": "Mozilla Public License 2.0 (MPL 2.0)"
          }
        }
      ],
      "purl": "pkg:pypi/pytest-rerunfailures@0.05",
      "externalReferences": [
        {
          "url": "https://github.com/pytest-dev/pytest-rerunfailures",
          "type": "vcs"
        }
      ]
    },
    {
      "type": "library",
      "bom-ref": "pkg:pypi/gevent@3",
      "group": "",
      "name": "gevent",
      "version": "3",
      "description": "Coroutine-based network library",
      "licenses": [
        {
          "license": {
            "id": "MIT",
            "url": "https://opensource.org/licenses/MIT"
          }
        }
      ],
      "purl": "pkg:pypi/gevent@3",
      "externalReferences": [
        {
          "url": "http://www.gevent.org/",
          "type": "website"
        }
      ]
    },
    {
      "type": "library",
      "bom-ref": "pkg:pypi/gevent@1.1rc1",
      "group": "",
      "name": "gevent",
      "version": "1.1rc1",
      "description": "Coroutine-based network library",
      "hashes": [
        {
          "alg": "SHA-256",
          "content": "b8899b1971426625ac4aa0e0cf60d30bb21cf04888c99f1c6587f20bcfb41471"
        }
      ],
      "licenses": [
        {
          "license": {
            "id": "MIT",
            "url": "https://opensource.org/licenses/MIT"
          }
        }
      ],
      "purl": "pkg:pypi/gevent@1.1rc1",
      "externalReferences": [
        {
          "url": "http://www.gevent.org/",
          "type": "website"
        }
      ]
    },
    {
      "type": "library",
      "bom-ref": "pkg:pypi/gevent@2.6.1",
      "group": "",
      "name": "gevent",
      "version": "2.6.1",
      "description": "Coroutine-based network library",
      "licenses": [
        {
          "license": {
            "id": "MIT",
            "url": "https://opensource.org/licenses/MIT"
          }
        }
      ],
      "purl": "pkg:pypi/gevent@2.6.1",
      "externalReferences": [
        {
          "url": "http://www.gevent.org/",
          "type": "website"
        }
      ]
    },
    {
      "type": "library",
      "bom-ref": "pkg:pypi/greenlet@2.4",
      "group": "",
      "name": "greenlet",
      "version": "2.4",
      "description": "Lightweight in-process concurrent programming",
      "licenses": [
        {
          "license": {
            "id": "MIT",
            "url": "https://opensource.org/licenses/MIT"
          }
        }
      ],
      "purl": "pkg:pypi/greenlet@2.4",
      "externalReferences": [
        {
          "url": "https://greenlet.readthedocs.io/",
          "type": "website"
        }
      ]
    },
    {
      "type": "library",
      "bom-ref": "pkg:pypi/yappi@2.6,!=3.0",
      "group": "",
      "name": "yappi",
      "version": "2.6,!=3.0",
      "description": "Yet Another Python Profiler",
      "licenses": [
        {
          "license": {
            "id": "MIT",
            "url": "https://opensource.org/licenses/MIT"
          }
        }
      ],
      "purl": "pkg:pypi/yappi@2.6,!=3.0",
      "externalReferences": [
        {
          "url": "https://github.com/sumerc/yappi",
          "type": "vcs"
        }
      ]
    }
  ]
}
