{
  "bomFormat": "CycloneDX",
  "specVersion": "1.3",
  "serialNumber": "urn:uuid:db5372c6-016d-4f3a-b3e4-1e65e4d1480f",
  "version": 2,
  "metadata": {
    "timestamp": "2022-07-26T23:33:42Z",
    "tools": [
      {
        "vendor": "AppThreat",
        "name": "cdxgen",
        "version": "3.0.10"
      },
      {
        "vendor": "Fortress Information Security",
        "name": "Github Extractor",
        "version": "1.15.1"
      }
    ],
    "authors": [
      {
        "name": "Team AppThreat",
        "email": "cloud@appthreat.com"
      },
      {
        "name": "Fortress Information Security",
        "email": "sales@fortressinfosec.com",
        "phone": "1-407-573-6800"
      }
    ],
    "component": {
      "type": "application",
      "name": "notty",
      "version": "",
      "group": "withoutboats",
      "externalReferences": [
        {
          "url": "https://github.com/withoutboats/notty.git",
          "type": "distribution"
        },
        {
          "type": "website",
          "url": "null",
          "comment": "As set via `homepage` in Github API"
        }
      ]
    }
  },
  "components": [
    {
      "type": "library",
      "bom-ref": "pkg:crates/notty@0.1.0",
      "group": "",
      "name": "notty",
      "version": "0.1.0",
      "description": "",
      "purl": "pkg:crates/notty@0.1.0"
    },
    {
      "type": "library",
      "bom-ref": "pkg:crates/base64@0.1.1",
      "group": "",
      "name": "base64",
      "version": "0.1.1",
      "description": "",
      "purl": "pkg:crates/base64@0.1.1"
    },
    {
      "type": "library",
      "bom-ref": "pkg:crates/mime@0.1.3",
      "group": "",
      "name": "mime",
      "version": "0.1.3",
      "description": "",
      "purl": "pkg:crates/mime@0.1.3"
    },
    {
      "type": "library",
      "bom-ref": "pkg:crates/unicode-width@0.1.3",
      "group": "",
      "name": "unicode-width",
      "version": "0.1.3",
      "description": "",
      "purl": "pkg:crates/unicode-width@0.1.3"
    },
    {
      "type": "library",
      "bom-ref": "pkg:crates/uuid@0.3.1",
      "group": "",
      "name": "uuid",
      "version": "0.3.1",
      "description": "",
      "purl": "pkg:crates/uuid@0.3.1"
    },
    {
      "type": "library",
      "bom-ref": "pkg:crates/git@https://github.com/withoutboats/notty-encoding",
      "group": "",
      "name": "git",
      "version": "https://github.com/withoutboats/notty-encoding",
      "description": "",
      "purl": "pkg:crates/git@https://github.com/withoutboats/notty-encoding"
    },
    {
      "type": "library",
      "bom-ref": "pkg:crates/notty-cairo@0.1.0",
      "group": "",
      "name": "notty-cairo",
      "version": "0.1.0",
      "description": "",
      "purl": "pkg:crates/notty-cairo@0.1.0"
    },
    {
      "type": "library",
      "bom-ref": "pkg:crates/cairo-rs@0.1.0",
      "group": "",
      "name": "cairo-rs",
      "version": "0.1.0",
      "description": "",
      "purl": "pkg:crates/cairo-rs@0.1.0"
    },
    {
      "type": "library",
      "bom-ref": "pkg:crates/gdk@0.5.0",
      "group": "",
      "name": "gdk",
      "version": "0.5.0",
      "description": "",
      "purl": "pkg:crates/gdk@0.5.0"
    },
    {
      "type": "library",
      "bom-ref": "pkg:crates/gdk-pixbuf@0.1.0",
      "group": "",
      "name": "gdk-pixbuf",
      "version": "0.1.0",
      "description": "",
      "purl": "pkg:crates/gdk-pixbuf@0.1.0"
    },
    {
      "type": "library",
      "bom-ref": "pkg:crates/gdk-pixbuf-sys@0.3.1",
      "group": "",
      "name": "gdk-pixbuf-sys",
      "version": "0.3.1",
      "description": "",
      "purl": "pkg:crates/gdk-pixbuf-sys@0.3.1"
    },
    {
      "type": "library",
      "bom-ref": "pkg:crates/glib@0.1.0",
      "group": "",
      "name": "glib",
      "version": "0.1.0",
      "description": "",
      "purl": "pkg:crates/glib@0.1.0"
    },
    {
      "type": "library",
      "bom-ref": "pkg:crates/gio-sys@0.3.1",
      "group": "",
      "name": "gio-sys",
      "version": "0.3.1",
      "description": "",
      "purl": "pkg:crates/gio-sys@0.3.1"
    },
    {
      "type": "library",
      "bom-ref": "pkg:crates/itertools@0.5.2",
      "group": "",
      "name": "itertools",
      "version": "0.5.2",
      "description": "",
      "purl": "pkg:crates/itertools@0.5.2"
    },
    {
      "type": "library",
      "bom-ref": "pkg:crates/libc@0.2.11",
      "group": "",
      "name": "libc",
      "version": "0.2.11",
      "description": "",
      "purl": "pkg:crates/libc@0.2.11"
    },
    {
      "type": "library",
      "bom-ref": "pkg:crates/pangocairo@0.1.0",
      "group": "",
      "name": "pangocairo",
      "version": "0.1.0",
      "description": "",
      "purl": "pkg:crates/pangocairo@0.1.0"
    },
    {
      "type": "library",
      "bom-ref": "pkg:crates/cairo-sys-rs@0.3.0",
      "group": "",
      "name": "cairo-sys-rs",
      "version": "0.3.0",
      "description": "",
      "purl": "pkg:crates/cairo-sys-rs@0.3.0"
    },
    {
      "type": "library",
      "bom-ref": "pkg:crates/gobject-sys@0.3.0",
      "group": "",
      "name": "gobject-sys",
      "version": "0.3.0",
      "description": "",
      "purl": "pkg:crates/gobject-sys@0.3.0"
    },
    {
      "type": "library",
      "bom-ref": "pkg:crates/pango@0.0.7",
      "group": "",
      "name": "pango",
      "version": "0.0.7",
      "description": "",
      "purl": "pkg:crates/pango@0.0.7"
    },
    {
      "type": "library",
      "bom-ref": "pkg:crates/pango-sys@0.3.0",
      "group": "",
      "name": "pango-sys",
      "version": "0.3.0",
      "description": "",
      "purl": "pkg:crates/pango-sys@0.3.0"
    },
    {
      "type": "library",
      "bom-ref": "pkg:crates/scaffolding-terminal@0.1.0",
      "group": "",
      "name": "scaffolding-terminal",
      "version": "0.1.0",
      "description": "",
      "purl": "pkg:crates/scaffolding-terminal@0.1.0"
    },
    {
      "type": "library",
      "bom-ref": "pkg:crates/cairo-rs@0.1",
      "group": "",
      "name": "cairo-rs",
      "version": "0.1",
      "description": "",
      "purl": "pkg:crates/cairo-rs@0.1"
    },
    {
      "type": "library",
      "bom-ref": "pkg:crates/gdk@0.5",
      "group": "",
      "name": "gdk",
      "version": "0.5",
      "description": "",
      "purl": "pkg:crates/gdk@0.5"
    },
    {
      "type": "library",
      "bom-ref": "pkg:crates/glib@0.1",
      "group": "",
      "name": "glib",
      "version": "0.1",
      "description": "",
      "purl": "pkg:crates/glib@0.1"
    },
    {
      "type": "library",
      "bom-ref": "pkg:crates/gtk-sys@0.3.1",
      "group": "",
      "name": "gtk-sys",
      "version": "0.3.1",
      "description": "",
      "purl": "pkg:crates/gtk-sys@0.3.1"
    },
    {
      "type": "library",
      "bom-ref": "pkg:crates/toml@0.1",
      "group": "",
      "name": "toml",
      "version": "0.1",
      "description": "",
      "purl": "pkg:crates/toml@0.1"
    },
    {
      "type": "library",
      "bom-ref": "pkg:crates/features@[v3_16]",
      "group": "",
      "name": "features",
      "version": "[v3_16]",
      "description": "",
      "purl": "pkg:crates/features@[v3_16]"
    },
    {
      "type": "library",
      "bom-ref": "pkg:crates/echotest@0.1.0",
      "group": "",
      "name": "echotest",
      "version": "0.1.0",
      "description": "",
      "purl": "pkg:crates/echotest@0.1.0"
    },
    {
      "type": "library",
      "bom-ref": "pkg:crates/tty@0.1.0",
      "group": "",
      "name": "tty",
      "version": "0.1.0",
      "description": "",
      "purl": "pkg:crates/tty@0.1.0"
    },
    {
      "type": "library",
      "bom-ref": "pkg:crates/libc@0.2.1",
      "group": "",
      "name": "libc",
      "version": "0.2.1",
      "description": "",
      "purl": "pkg:crates/libc@0.2.1"
    }
  ],
  "externalReferences": [
    {
      "url": "/project/src",
      "type": "other",
      "comment": "Base path"
    },
    {
      "url": "/project/src/Cargo.toml, /project/src/notty-cairo/Cargo.toml, /project/src/notty-cairo/pangocairo/Cargo.toml, /project/src/scaffolding/Cargo.toml, /project/src/scaffolding/echotest/Cargo.toml, /project/src/scaffolding/tty/Cargo.toml",
      "type": "other",
      "comment": "Package file"
    }
  ]
}
