{
  "bomFormat": "CycloneDX",
  "specVersion": "1.3",
  "serialNumber": "urn:uuid:4e721111-b179-4b75-9c5c-80ba7c29f048",
  "version": 1,
  "metadata": {
    "timestamp": "2022-06-01T23:38:32Z",
    "tools": [
      {
        "vendor": "AppThreat",
        "name": "cdxgen",
        "version": "3.0.10"
      },
      {
        "vendor": "Fortress Information Security",
        "name": "Github Extractor",
        "version": "1.15.1"
      }
    ],
    "authors": [
      {
        "name": "Team AppThreat",
        "email": "cloud@appthreat.com"
      },
      {
        "name": "Fortress Information Security",
        "email": "sales@fortressinfosec.com",
        "phone": "1-407-573-6800"
      }
    ],
    "component": {
      "type": "application",
      "name": "wpscan",
      "version": "v3.8.22",
      "group": "wpscanteam",
      "externalReferences": [
        {
          "url": "https://github.com/wpscanteam/wpscan.git",
          "type": "distribution"
        },
        {
          "type": "website",
          "url": "https://wpscan.com/wordpress-security-scanner",
          "comment": "As set via `homepage` in Github API"
        }
      ]
    }
  },
  "components": [
    {
      "type": "library",
      "bom-ref": "pkg:composer/composer/installers@1.12.0",
      "group": "composer",
      "name": "installers",
      "version": "1.12.0",
      "description": "A multi-framework Composer library installer",
      "licenses": [
        {
          "license": {
            "id": "MIT",
            "url": "https://opensource.org/licenses/MIT"
          }
        }
      ],
      "purl": "pkg:composer/composer/installers@1.12.0",
      "externalReferences": [
        {
          "url": "https://github.com/composer/installers.git",
          "type": "vcs"
        }
      ]
    },
    {
      "type": "library",
      "bom-ref": "pkg:composer/bleumi/bleumi-pay-sdk-php@1.0.23",
      "group": "bleumi",
      "name": "bleumi-pay-sdk-php",
      "version": "1.0.23",
      "description": "PHP SDK for Bleumi Pay REST API",
      "licenses": [
        {
          "license": {
            "id": "MIT",
            "url": "https://opensource.org/licenses/MIT"
          }
        }
      ],
      "purl": "pkg:composer/bleumi/bleumi-pay-sdk-php@1.0.23",
      "externalReferences": [
        {
          "url": "https://github.com/bleumi/bleumi-pay-sdk-php.git",
          "type": "vcs"
        }
      ]
    },
    {
      "type": "library",
      "bom-ref": "pkg:composer/guzzlehttp/guzzle@6.5.6",
      "group": "guzzlehttp",
      "name": "guzzle",
      "version": "6.5.6",
      "description": "Guzzle is a PHP HTTP client library",
      "licenses": [
        {
          "license": {
            "id": "MIT",
            "url": "https://opensource.org/licenses/MIT"
          }
        }
      ],
      "purl": "pkg:composer/guzzlehttp/guzzle@6.5.6",
      "externalReferences": [
        {
          "url": "https://github.com/guzzle/guzzle.git",
          "type": "vcs"
        }
      ]
    },
    {
      "type": "library",
      "bom-ref": "pkg:composer/guzzlehttp/promises@1.5.1",
      "group": "guzzlehttp",
      "name": "promises",
      "version": "1.5.1",
      "description": "Guzzle promises library",
      "licenses": [
        {
          "license": {
            "id": "MIT",
            "url": "https://opensource.org/licenses/MIT"
          }
        }
      ],
      "purl": "pkg:composer/guzzlehttp/promises@1.5.1",
      "externalReferences": [
        {
          "url": "https://github.com/guzzle/promises.git",
          "type": "vcs"
        }
      ]
    },
    {
      "type": "library",
      "bom-ref": "pkg:composer/guzzlehttp/psr7@1.8.5",
      "group": "guzzlehttp",
      "name": "psr7",
      "version": "1.8.5",
      "description": "PSR-7 message implementation that also provides common utility methods",
      "licenses": [
        {
          "license": {
            "id": "MIT",
            "url": "https://opensource.org/licenses/MIT"
          }
        }
      ],
      "purl": "pkg:composer/guzzlehttp/psr7@1.8.5",
      "externalReferences": [
        {
          "url": "https://github.com/guzzle/psr7.git",
          "type": "vcs"
        }
      ]
    },
    {
      "type": "library",
      "bom-ref": "pkg:composer/psr/http-message@1.0.1",
      "group": "psr",
      "name": "http-message",
      "version": "1.0.1",
      "description": "Common interface for HTTP messages",
      "licenses": [
        {
          "license": {
            "id": "MIT",
            "url": "https://opensource.org/licenses/MIT"
          }
        }
      ],
      "purl": "pkg:composer/psr/http-message@1.0.1",
      "externalReferences": [
        {
          "url": "https://github.com/php-fig/http-message.git",
          "type": "vcs"
        }
      ]
    },
    {
      "type": "library",
      "bom-ref": "pkg:composer/ralouphie/getallheaders@3.0.3",
      "group": "ralouphie",
      "name": "getallheaders",
      "version": "3.0.3",
      "description": "A polyfill for getallheaders.",
      "licenses": [
        {
          "license": {
            "id": "MIT",
            "url": "https://opensource.org/licenses/MIT"
          }
        }
      ],
      "purl": "pkg:composer/ralouphie/getallheaders@3.0.3",
      "externalReferences": [
        {
          "url": "https://github.com/ralouphie/getallheaders.git",
          "type": "vcs"
        }
      ]
    },
    {
      "type": "library",
      "bom-ref": "pkg:composer/symfony/polyfill-intl-idn@1.25.0",
      "group": "symfony",
      "name": "polyfill-intl-idn",
      "version": "1.25.0",
      "description": "Symfony polyfill for intl's idn_to_ascii and idn_to_utf8 functions",
      "licenses": [
        {
          "license": {
            "id": "MIT",
            "url": "https://opensource.org/licenses/MIT"
          }
        }
      ],
      "purl": "pkg:composer/symfony/polyfill-intl-idn@1.25.0",
      "externalReferences": [
        {
          "url": "https://github.com/symfony/polyfill-intl-idn.git",
          "type": "vcs"
        }
      ]
    },
    {
      "type": "library",
      "bom-ref": "pkg:composer/symfony/polyfill-intl-normalizer@1.25.0",
      "group": "symfony",
      "name": "polyfill-intl-normalizer",
      "version": "1.25.0",
      "description": "Symfony polyfill for intl's Normalizer class and related functions",
      "licenses": [
        {
          "license": {
            "id": "MIT",
            "url": "https://opensource.org/licenses/MIT"
          }
        }
      ],
      "purl": "pkg:composer/symfony/polyfill-intl-normalizer@1.25.0",
      "externalReferences": [
        {
          "url": "https://github.com/symfony/polyfill-intl-normalizer.git",
          "type": "vcs"
        }
      ]
    },
    {
      "type": "library",
      "bom-ref": "pkg:composer/symfony/polyfill-php72@1.25.0",
      "group": "symfony",
      "name": "polyfill-php72",
      "version": "1.25.0",
      "description": "Symfony polyfill backporting some PHP 7.2+ features to lower PHP versions",
      "licenses": [
        {
          "license": {
            "id": "MIT",
            "url": "https://opensource.org/licenses/MIT"
          }
        }
      ],
      "purl": "pkg:composer/symfony/polyfill-php72@1.25.0",
      "externalReferences": [
        {
          "url": "https://github.com/symfony/polyfill-php72.git",
          "type": "vcs"
        }
      ]
    },
    {
      "type": "library",
      "bom-ref": "pkg:composer/antidot-be/bpost-api-library@de-master",
      "group": "antidot-be",
      "name": "bpost-api-library",
      "version": "de-master",
      "description": "bpost API library is a PHP library to communicate with the bpost API.",
      "licenses": [
        {
          "license": {
            "id": "BSD-3-Clause",
            "url": "https://opensource.org/licenses/BSD-3-Clause"
          }
        }
      ],
      "purl": "pkg:composer/antidot-be/bpost-api-library@de-master",
      "externalReferences": [
        {
          "url": "https://github.com/Antidot-be/bpost-api-library.git",
          "type": "vcs"
        }
      ]
    },
    {
      "type": "library",
      "bom-ref": "pkg:composer/monolog/monolog@1.27.0",
      "group": "monolog",
      "name": "monolog",
      "version": "1.27.0",
      "description": "Sends your logs to files, sockets, inboxes, databases and various web services",
      "licenses": [
        {
          "license": {
            "id": "MIT",
            "url": "https://opensource.org/licenses/MIT"
          }
        }
      ],
      "purl": "pkg:composer/monolog/monolog@1.27.0",
      "externalReferences": [
        {
          "url": "https://github.com/Seldaek/monolog.git",
          "type": "vcs"
        }
      ]
    },
    {
      "type": "library",
      "bom-ref": "pkg:composer/psr/log@1.0.2",
      "group": "psr",
      "name": "log",
      "version": "1.0.2",
      "description": "Common interface for logging libraries",
      "licenses": [
        {
          "license": {
            "id": "MIT",
            "url": "https://opensource.org/licenses/MIT"
          }
        }
      ],
      "purl": "pkg:composer/psr/log@1.0.2",
      "externalReferences": [
        {
          "url": "https://github.com/php-fig/log.git",
          "type": "vcs"
        }
      ]
    },
    {
      "type": "library",
      "bom-ref": "pkg:composer/psr/log@1.1.0",
      "group": "psr",
      "name": "log",
      "version": "1.1.0",
      "description": "Common interface for logging libraries",
      "licenses": [
        {
          "license": {
            "id": "MIT",
            "url": "https://opensource.org/licenses/MIT"
          }
        }
      ],
      "purl": "pkg:composer/psr/log@1.1.0",
      "externalReferences": [
        {
          "url": "https://github.com/php-fig/log.git",
          "type": "vcs"
        }
      ]
    },
    {
      "type": "library",
      "bom-ref": "pkg:composer/cyclonecode/plugin@1.0.11",
      "group": "cyclonecode",
      "name": "plugin",
      "version": "1.0.11",
      "description": "Class for use when building wordpress plugins.",
      "licenses": [
        {
          "license": {
            "id": "GPL-2.0-or-later",
            "url": "https://opensource.org/licenses/GPL-2.0-or-later"
          }
        }
      ],
      "purl": "pkg:composer/cyclonecode/plugin@1.0.11",
      "externalReferences": [
        {
          "url": "https://github.com/Cyclonecode/Plugin.git",
          "type": "vcs"
        }
      ]
    },
    {
      "type": "library",
      "bom-ref": "pkg:composer/erusev/parsedown@1.7.4",
      "group": "erusev",
      "name": "parsedown",
      "version": "1.7.4",
      "description": "Parser for Markdown.",
      "licenses": [
        {
          "license": {
            "id": "MIT",
            "url": "https://opensource.org/licenses/MIT"
          }
        }
      ],
      "purl": "pkg:composer/erusev/parsedown@1.7.4",
      "externalReferences": [
        {
          "url": "https://github.com/erusev/parsedown.git",
          "type": "vcs"
        }
      ]
    },
    {
      "type": "library",
      "bom-ref": "pkg:composer/camoo/cache@1.0",
      "group": "camoo",
      "name": "cache",
      "version": "1.0",
      "description": "Cache FileSystem Library",
      "licenses": [
        {
          "license": {
            "id": "GPL-2.0-or-later",
            "url": "https://opensource.org/licenses/GPL-2.0-or-later"
          }
        }
      ],
      "purl": "pkg:composer/camoo/cache@1.0",
      "externalReferences": [
        {
          "url": "https://github.com/camoo/cache.git",
          "type": "vcs"
        }
      ]
    },
    {
      "type": "library",
      "bom-ref": "pkg:composer/camoo/enkap-oauth@1.0.4",
      "group": "camoo",
      "name": "enkap-oauth",
      "version": "1.0.4",
      "description": "E-commerce Plugins for SmobilPay. OAuth Library",
      "licenses": [
        {
          "license": {
            "id": "GPL-2.0-or-later",
            "url": "https://opensource.org/licenses/GPL-2.0-or-later"
          }
        }
      ],
      "purl": "pkg:composer/camoo/enkap-oauth@1.0.4",
      "externalReferences": [
        {
          "url": "https://github.com/camoo/enkap-oauth.git",
          "type": "vcs"
        }
      ]
    },
    {
      "type": "library",
      "bom-ref": "pkg:composer/defuse/php-encryption@2.3.1",
      "group": "defuse",
      "name": "php-encryption",
      "version": "2.3.1",
      "description": "Secure PHP Encryption Library",
      "licenses": [
        {
          "license": {
            "id": "MIT",
            "url": "https://opensource.org/licenses/MIT"
          }
        }
      ],
      "purl": "pkg:composer/defuse/php-encryption@2.3.1",
      "externalReferences": [
        {
          "url": "https://github.com/defuse/php-encryption.git",
          "type": "vcs"
        }
      ]
    },
    {
      "type": "library",
      "bom-ref": "pkg:composer/graham-campbell/result-type@1.0.4",
      "group": "graham-campbell",
      "name": "result-type",
      "version": "1.0.4",
      "description": "An Implementation Of The Result Type",
      "licenses": [
        {
          "license": {
            "id": "MIT",
            "url": "https://opensource.org/licenses/MIT"
          }
        }
      ],
      "purl": "pkg:composer/graham-campbell/result-type@1.0.4",
      "externalReferences": [
        {
          "url": "https://github.com/GrahamCampbell/Result-Type.git",
          "type": "vcs"
        }
      ]
    },
    {
      "type": "library",
      "bom-ref": "pkg:composer/guzzlehttp/guzzle@7.4.3",
      "group": "guzzlehttp",
      "name": "guzzle",
      "version": "7.4.3",
      "description": "Guzzle is a PHP HTTP client library",
      "licenses": [
        {
          "license": {
            "id": "MIT",
            "url": "https://opensource.org/licenses/MIT"
          }
        }
      ],
      "purl": "pkg:composer/guzzlehttp/guzzle@7.4.3",
      "externalReferences": [
        {
          "url": "https://github.com/guzzle/guzzle.git",
          "type": "vcs"
        }
      ]
    },
    {
      "type": "library",
      "bom-ref": "pkg:composer/guzzlehttp/psr7@2.2.1",
      "group": "guzzlehttp",
      "name": "psr7",
      "version": "2.2.1",
      "description": "PSR-7 message implementation that also provides common utility methods",
      "licenses": [
        {
          "license": {
            "id": "MIT",
            "url": "https://opensource.org/licenses/MIT"
          }
        }
      ],
      "purl": "pkg:composer/guzzlehttp/psr7@2.2.1",
      "externalReferences": [
        {
          "url": "https://github.com/guzzle/psr7.git",
          "type": "vcs"
        }
      ]
    },
    {
      "type": "library",
      "bom-ref": "pkg:composer/paragonie/random_compat@9.99.100",
      "group": "paragonie",
      "name": "random_compat",
      "version": "9.99.100",
      "description": "PHP 5.x polyfill for random_bytes() and random_int() from PHP 7",
      "licenses": [
        {
          "license": {
            "id": "MIT",
            "url": "https://opensource.org/licenses/MIT"
          }
        }
      ],
      "purl": "pkg:composer/paragonie/random_compat@9.99.100",
      "externalReferences": [
        {
          "url": "https://github.com/paragonie/random_compat.git",
          "type": "vcs"
        }
      ]
    },
    {
      "type": "library",
      "bom-ref": "pkg:composer/phpoption/phpoption@1.8.1",
      "group": "phpoption",
      "name": "phpoption",
      "version": "1.8.1",
      "description": "Option Type for PHP",
      "licenses": [
        {
          "license": {
            "id": "Apache-2.0",
            "url": "https://opensource.org/licenses/Apache-2.0"
          }
        }
      ],
      "purl": "pkg:composer/phpoption/phpoption@1.8.1",
      "externalReferences": [
        {
          "url": "https://github.com/schmittjoh/php-option.git",
          "type": "vcs"
        }
      ]
    },
    {
      "type": "library",
      "bom-ref": "pkg:composer/psr/cache@1.0.1",
      "group": "psr",
      "name": "cache",
      "version": "1.0.1",
      "description": "Common interface for caching libraries",
      "licenses": [
        {
          "license": {
            "id": "MIT",
            "url": "https://opensource.org/licenses/MIT"
          }
        }
      ],
      "purl": "pkg:composer/psr/cache@1.0.1",
      "externalReferences": [
        {
          "url": "https://github.com/php-fig/cache.git",
          "type": "vcs"
        }
      ]
    },
    {
      "type": "library",
      "bom-ref": "pkg:composer/psr/container@1.1.2",
      "group": "psr",
      "name": "container",
      "version": "1.1.2",
      "description": "Common Container Interface (PHP FIG PSR-11)",
      "licenses": [
        {
          "license": {
            "id": "MIT",
            "url": "https://opensource.org/licenses/MIT"
          }
        }
      ],
      "purl": "pkg:composer/psr/container@1.1.2",
      "externalReferences": [
        {
          "url": "https://github.com/php-fig/container.git",
          "type": "vcs"
        }
      ]
    },
    {
      "type": "library",
      "bom-ref": "pkg:composer/psr/http-client@1.0.1",
      "group": "psr",
      "name": "http-client",
      "version": "1.0.1",
      "description": "Common interface for HTTP clients",
      "licenses": [
        {
          "license": {
            "id": "MIT",
            "url": "https://opensource.org/licenses/MIT"
          }
        }
      ],
      "purl": "pkg:composer/psr/http-client@1.0.1",
      "externalReferences": [
        {
          "url": "https://github.com/php-fig/http-client.git",
          "type": "vcs"
        }
      ]
    },
    {
      "type": "library",
      "bom-ref": "pkg:composer/psr/http-factory@1.0.1",
      "group": "psr",
      "name": "http-factory",
      "version": "1.0.1",
      "description": "Common interfaces for PSR-7 HTTP message factories",
      "licenses": [
        {
          "license": {
            "id": "MIT",
            "url": "https://opensource.org/licenses/MIT"
          }
        }
      ],
      "purl": "pkg:composer/psr/http-factory@1.0.1",
      "externalReferences": [
        {
          "url": "https://github.com/php-fig/http-factory.git",
          "type": "vcs"
        }
      ]
    },
    {
      "type": "library",
      "bom-ref": "pkg:composer/psr/log@1.1.4",
      "group": "psr",
      "name": "log",
      "version": "1.1.4",
      "description": "Common interface for logging libraries",
      "licenses": [
        {
          "license": {
            "id": "MIT",
            "url": "https://opensource.org/licenses/MIT"
          }
        }
      ],
      "purl": "pkg:composer/psr/log@1.1.4",
      "externalReferences": [
        {
          "url": "https://github.com/php-fig/log.git",
          "type": "vcs"
        }
      ]
    },
    {
      "type": "library",
      "bom-ref": "pkg:composer/psr/simple-cache@1.0.1",
      "group": "psr",
      "name": "simple-cache",
      "version": "1.0.1",
      "description": "Common interfaces for simple caching",
      "licenses": [
        {
          "license": {
            "id": "MIT",
            "url": "https://opensource.org/licenses/MIT"
          }
        }
      ],
      "purl": "pkg:composer/psr/simple-cache@1.0.1",
      "externalReferences": [
        {
          "url": "https://github.com/php-fig/simple-cache.git",
          "type": "vcs"
        }
      ]
    },
    {
      "type": "library",
      "bom-ref": "pkg:composer/symfony/cache@5.4.9",
      "group": "symfony",
      "name": "cache",
      "version": "5.4.9",
      "description": "Provides an extended PSR-6, PSR-16 (and tags) implementation",
      "licenses": [
        {
          "license": {
            "id": "MIT",
            "url": "https://opensource.org/licenses/MIT"
          }
        }
      ],
      "purl": "pkg:composer/symfony/cache@5.4.9",
      "externalReferences": [
        {
          "url": "https://github.com/symfony/cache.git",
          "type": "vcs"
        }
      ]
    },
    {
      "type": "library",
      "bom-ref": "pkg:composer/symfony/cache-contracts@2.5.1",
      "group": "symfony",
      "name": "cache-contracts",
      "version": "2.5.1",
      "description": "Generic abstractions related to caching",
      "licenses": [
        {
          "license": {
            "id": "MIT",
            "url": "https://opensource.org/licenses/MIT"
          }
        }
      ],
      "purl": "pkg:composer/symfony/cache-contracts@2.5.1",
      "externalReferences": [
        {
          "url": "https://github.com/symfony/cache-contracts.git",
          "type": "vcs"
        }
      ]
    },
    {
      "type": "library",
      "bom-ref": "pkg:composer/symfony/deprecation-contracts@2.5.1",
      "group": "symfony",
      "name": "deprecation-contracts",
      "version": "2.5.1",
      "description": "A generic function and convention to trigger deprecation notices",
      "licenses": [
        {
          "license": {
            "id": "MIT",
            "url": "https://opensource.org/licenses/MIT"
          }
        }
      ],
      "purl": "pkg:composer/symfony/deprecation-contracts@2.5.1",
      "externalReferences": [
        {
          "url": "https://github.com/symfony/deprecation-contracts.git",
          "type": "vcs"
        }
      ]
    },
    {
      "type": "library",
      "bom-ref": "pkg:composer/symfony/polyfill-ctype@1.25.0",
      "group": "symfony",
      "name": "polyfill-ctype",
      "version": "1.25.0",
      "description": "Symfony polyfill for ctype functions",
      "licenses": [
        {
          "license": {
            "id": "MIT",
            "url": "https://opensource.org/licenses/MIT"
          }
        }
      ],
      "purl": "pkg:composer/symfony/polyfill-ctype@1.25.0",
      "externalReferences": [
        {
          "url": "https://github.com/symfony/polyfill-ctype.git",
          "type": "vcs"
        }
      ]
    },
    {
      "type": "library",
      "bom-ref": "pkg:composer/symfony/polyfill-mbstring@1.25.0",
      "group": "symfony",
      "name": "polyfill-mbstring",
      "version": "1.25.0",
      "description": "Symfony polyfill for the Mbstring extension",
      "licenses": [
        {
          "license": {
            "id": "MIT",
            "url": "https://opensource.org/licenses/MIT"
          }
        }
      ],
      "purl": "pkg:composer/symfony/polyfill-mbstring@1.25.0",
      "externalReferences": [
        {
          "url": "https://github.com/symfony/polyfill-mbstring.git",
          "type": "vcs"
        }
      ]
    },
    {
      "type": "library",
      "bom-ref": "pkg:composer/symfony/polyfill-php73@1.25.0",
      "group": "symfony",
      "name": "polyfill-php73",
      "version": "1.25.0",
      "description": "Symfony polyfill backporting some PHP 7.3+ features to lower PHP versions",
      "licenses": [
        {
          "license": {
            "id": "MIT",
            "url": "https://opensource.org/licenses/MIT"
          }
        }
      ],
      "purl": "pkg:composer/symfony/polyfill-php73@1.25.0",
      "externalReferences": [
        {
          "url": "https://github.com/symfony/polyfill-php73.git",
          "type": "vcs"
        }
      ]
    },
    {
      "type": "library",
      "bom-ref": "pkg:composer/symfony/polyfill-php80@1.25.0",
      "group": "symfony",
      "name": "polyfill-php80",
      "version": "1.25.0",
      "description": "Symfony polyfill backporting some PHP 8.0+ features to lower PHP versions",
      "licenses": [
        {
          "license": {
            "id": "MIT",
            "url": "https://opensource.org/licenses/MIT"
          }
        }
      ],
      "purl": "pkg:composer/symfony/polyfill-php80@1.25.0",
      "externalReferences": [
        {
          "url": "https://github.com/symfony/polyfill-php80.git",
          "type": "vcs"
        }
      ]
    },
    {
      "type": "library",
      "bom-ref": "pkg:composer/symfony/service-contracts@2.5.1",
      "group": "symfony",
      "name": "service-contracts",
      "version": "2.5.1",
      "description": "Generic abstractions related to writing services",
      "licenses": [
        {
          "license": {
            "id": "MIT",
            "url": "https://opensource.org/licenses/MIT"
          }
        }
      ],
      "purl": "pkg:composer/symfony/service-contracts@2.5.1",
      "externalReferences": [
        {
          "url": "https://github.com/symfony/service-contracts.git",
          "type": "vcs"
        }
      ]
    },
    {
      "type": "library",
      "bom-ref": "pkg:composer/symfony/var-exporter@5.4.9",
      "group": "symfony",
      "name": "var-exporter",
      "version": "5.4.9",
      "description": "Allows exporting any serializable PHP data structure to plain PHP code",
      "licenses": [
        {
          "license": {
            "id": "MIT",
            "url": "https://opensource.org/licenses/MIT"
          }
        }
      ],
      "purl": "pkg:composer/symfony/var-exporter@5.4.9",
      "externalReferences": [
        {
          "url": "https://github.com/symfony/var-exporter.git",
          "type": "vcs"
        }
      ]
    },
    {
      "type": "library",
      "bom-ref": "pkg:composer/vlucas/phpdotenv@5.4.1",
      "group": "vlucas",
      "name": "phpdotenv",
      "version": "5.4.1",
      "description": "Loads environment variables from `.env` to `getenv()`, `$_ENV` and `$_SERVER` automagically.",
      "licenses": [
        {
          "license": {
            "id": "BSD-3-Clause",
            "url": "https://opensource.org/licenses/BSD-3-Clause"
          }
        }
      ],
      "purl": "pkg:composer/vlucas/phpdotenv@5.4.1",
      "externalReferences": [
        {
          "url": "https://github.com/vlucas/phpdotenv.git",
          "type": "vcs"
        }
      ]
    },
    {
      "type": "library",
      "bom-ref": "pkg:composer/vlucas/valitron@1.4.10",
      "group": "vlucas",
      "name": "valitron",
      "version": "1.4.10",
      "description": "Simple, elegant, stand-alone validation library with NO dependencies",
      "licenses": [
        {
          "license": {
            "id": "BSD-3-Clause",
            "url": "https://opensource.org/licenses/BSD-3-Clause"
          }
        }
      ],
      "purl": "pkg:composer/vlucas/valitron@1.4.10",
      "externalReferences": [
        {
          "url": "https://github.com/vlucas/valitron.git",
          "type": "vcs"
        }
      ]
    },
    {
      "type": "library",
      "bom-ref": "pkg:composer/psr/container@1.1.1",
      "group": "psr",
      "name": "container",
      "version": "1.1.1",
      "description": "Common Container Interface (PHP FIG PSR-11)",
      "licenses": [
        {
          "license": {
            "id": "MIT",
            "url": "https://opensource.org/licenses/MIT"
          }
        }
      ],
      "purl": "pkg:composer/psr/container@1.1.1",
      "externalReferences": [
        {
          "url": "https://github.com/php-fig/container.git",
          "type": "vcs"
        }
      ]
    },
    {
      "type": "library",
      "bom-ref": "pkg:composer/symfony/cache@5.3.7",
      "group": "symfony",
      "name": "cache",
      "version": "5.3.7",
      "description": "Provides an extended PSR-6, PSR-16 (and tags) implementation",
      "licenses": [
        {
          "license": {
            "id": "MIT",
            "url": "https://opensource.org/licenses/MIT"
          }
        }
      ],
      "purl": "pkg:composer/symfony/cache@5.3.7",
      "externalReferences": [
        {
          "url": "https://github.com/symfony/cache.git",
          "type": "vcs"
        }
      ]
    },
    {
      "type": "library",
      "bom-ref": "pkg:composer/symfony/cache-contracts@2.4.0",
      "group": "symfony",
      "name": "cache-contracts",
      "version": "2.4.0",
      "description": "Generic abstractions related to caching",
      "licenses": [
        {
          "license": {
            "id": "MIT",
            "url": "https://opensource.org/licenses/MIT"
          }
        }
      ],
      "purl": "pkg:composer/symfony/cache-contracts@2.4.0",
      "externalReferences": [
        {
          "url": "https://github.com/symfony/cache-contracts.git",
          "type": "vcs"
        }
      ]
    },
    {
      "type": "library",
      "bom-ref": "pkg:composer/symfony/deprecation-contracts@2.4.0",
      "group": "symfony",
      "name": "deprecation-contracts",
      "version": "2.4.0",
      "description": "A generic function and convention to trigger deprecation notices",
      "licenses": [
        {
          "license": {
            "id": "MIT",
            "url": "https://opensource.org/licenses/MIT"
          }
        }
      ],
      "purl": "pkg:composer/symfony/deprecation-contracts@2.4.0",
      "externalReferences": [
        {
          "url": "https://github.com/symfony/deprecation-contracts.git",
          "type": "vcs"
        }
      ]
    },
    {
      "type": "library",
      "bom-ref": "pkg:composer/symfony/polyfill-php73@1.23.0",
      "group": "symfony",
      "name": "polyfill-php73",
      "version": "1.23.0",
      "description": "Symfony polyfill backporting some PHP 7.3+ features to lower PHP versions",
      "licenses": [
        {
          "license": {
            "id": "MIT",
            "url": "https://opensource.org/licenses/MIT"
          }
        }
      ],
      "purl": "pkg:composer/symfony/polyfill-php73@1.23.0",
      "externalReferences": [
        {
          "url": "https://github.com/symfony/polyfill-php73.git",
          "type": "vcs"
        }
      ]
    },
    {
      "type": "library",
      "bom-ref": "pkg:composer/symfony/polyfill-php80@1.23.1",
      "group": "symfony",
      "name": "polyfill-php80",
      "version": "1.23.1",
      "description": "Symfony polyfill backporting some PHP 8.0+ features to lower PHP versions",
      "licenses": [
        {
          "license": {
            "id": "MIT",
            "url": "https://opensource.org/licenses/MIT"
          }
        }
      ],
      "purl": "pkg:composer/symfony/polyfill-php80@1.23.1",
      "externalReferences": [
        {
          "url": "https://github.com/symfony/polyfill-php80.git",
          "type": "vcs"
        }
      ]
    },
    {
      "type": "library",
      "bom-ref": "pkg:composer/symfony/service-contracts@2.4.0",
      "group": "symfony",
      "name": "service-contracts",
      "version": "2.4.0",
      "description": "Generic abstractions related to writing services",
      "licenses": [
        {
          "license": {
            "id": "MIT",
            "url": "https://opensource.org/licenses/MIT"
          }
        }
      ],
      "purl": "pkg:composer/symfony/service-contracts@2.4.0",
      "externalReferences": [
        {
          "url": "https://github.com/symfony/service-contracts.git",
          "type": "vcs"
        }
      ]
    },
    {
      "type": "library",
      "bom-ref": "pkg:composer/symfony/var-exporter@5.3.7",
      "group": "symfony",
      "name": "var-exporter",
      "version": "5.3.7",
      "description": "Allows exporting any serializable PHP data structure to plain PHP code",
      "licenses": [
        {
          "license": {
            "id": "MIT",
            "url": "https://opensource.org/licenses/MIT"
          }
        }
      ],
      "purl": "pkg:composer/symfony/var-exporter@5.3.7",
      "externalReferences": [
        {
          "url": "https://github.com/symfony/var-exporter.git",
          "type": "vcs"
        }
      ]
    },
    {
      "type": "library",
      "bom-ref": "pkg:composer/graham-campbell/result-type@1.0.2",
      "group": "graham-campbell",
      "name": "result-type",
      "version": "1.0.2",
      "description": "An Implementation Of The Result Type",
      "licenses": [
        {
          "license": {
            "id": "MIT",
            "url": "https://opensource.org/licenses/MIT"
          }
        }
      ],
      "purl": "pkg:composer/graham-campbell/result-type@1.0.2",
      "externalReferences": [
        {
          "url": "https://github.com/GrahamCampbell/Result-Type.git",
          "type": "vcs"
        }
      ]
    },
    {
      "type": "library",
      "bom-ref": "pkg:composer/guzzlehttp/guzzle@7.3.0",
      "group": "guzzlehttp",
      "name": "guzzle",
      "version": "7.3.0",
      "description": "Guzzle is a PHP HTTP client library",
      "licenses": [
        {
          "license": {
            "id": "MIT",
            "url": "https://opensource.org/licenses/MIT"
          }
        }
      ],
      "purl": "pkg:composer/guzzlehttp/guzzle@7.3.0",
      "externalReferences": [
        {
          "url": "https://github.com/guzzle/guzzle.git",
          "type": "vcs"
        }
      ]
    },
    {
      "type": "library",
      "bom-ref": "pkg:composer/guzzlehttp/promises@1.4.1",
      "group": "guzzlehttp",
      "name": "promises",
      "version": "1.4.1",
      "description": "Guzzle promises library",
      "licenses": [
        {
          "license": {
            "id": "MIT",
            "url": "https://opensource.org/licenses/MIT"
          }
        }
      ],
      "purl": "pkg:composer/guzzlehttp/promises@1.4.1",
      "externalReferences": [
        {
          "url": "https://github.com/guzzle/promises.git",
          "type": "vcs"
        }
      ]
    },
    {
      "type": "library",
      "bom-ref": "pkg:composer/guzzlehttp/psr7@2.0.0",
      "group": "guzzlehttp",
      "name": "psr7",
      "version": "2.0.0",
      "description": "PSR-7 message implementation that also provides common utility methods",
      "licenses": [
        {
          "license": {
            "id": "MIT",
            "url": "https://opensource.org/licenses/MIT"
          }
        }
      ],
      "purl": "pkg:composer/guzzlehttp/psr7@2.0.0",
      "externalReferences": [
        {
          "url": "https://github.com/guzzle/psr7.git",
          "type": "vcs"
        }
      ]
    },
    {
      "type": "library",
      "bom-ref": "pkg:composer/phpoption/phpoption@1.8.0",
      "group": "phpoption",
      "name": "phpoption",
      "version": "1.8.0",
      "description": "Option Type for PHP",
      "licenses": [
        {
          "license": {
            "id": "Apache-2.0",
            "url": "https://opensource.org/licenses/Apache-2.0"
          }
        }
      ],
      "purl": "pkg:composer/phpoption/phpoption@1.8.0",
      "externalReferences": [
        {
          "url": "https://github.com/schmittjoh/php-option.git",
          "type": "vcs"
        }
      ]
    },
    {
      "type": "library",
      "bom-ref": "pkg:composer/symfony/cache@5.3.8",
      "group": "symfony",
      "name": "cache",
      "version": "5.3.8",
      "description": "Provides an extended PSR-6, PSR-16 (and tags) implementation",
      "licenses": [
        {
          "license": {
            "id": "MIT",
            "url": "https://opensource.org/licenses/MIT"
          }
        }
      ],
      "purl": "pkg:composer/symfony/cache@5.3.8",
      "externalReferences": [
        {
          "url": "https://github.com/symfony/cache.git",
          "type": "vcs"
        }
      ]
    },
    {
      "type": "library",
      "bom-ref": "pkg:composer/symfony/polyfill-ctype@1.23.0",
      "group": "symfony",
      "name": "polyfill-ctype",
      "version": "1.23.0",
      "description": "Symfony polyfill for ctype functions",
      "licenses": [
        {
          "license": {
            "id": "MIT",
            "url": "https://opensource.org/licenses/MIT"
          }
        }
      ],
      "purl": "pkg:composer/symfony/polyfill-ctype@1.23.0",
      "externalReferences": [
        {
          "url": "https://github.com/symfony/polyfill-ctype.git",
          "type": "vcs"
        }
      ]
    },
    {
      "type": "library",
      "bom-ref": "pkg:composer/symfony/polyfill-mbstring@1.23.1",
      "group": "symfony",
      "name": "polyfill-mbstring",
      "version": "1.23.1",
      "description": "Symfony polyfill for the Mbstring extension",
      "licenses": [
        {
          "license": {
            "id": "MIT",
            "url": "https://opensource.org/licenses/MIT"
          }
        }
      ],
      "purl": "pkg:composer/symfony/polyfill-mbstring@1.23.1",
      "externalReferences": [
        {
          "url": "https://github.com/symfony/polyfill-mbstring.git",
          "type": "vcs"
        }
      ]
    },
    {
      "type": "library",
      "bom-ref": "pkg:composer/symfony/var-exporter@5.3.8",
      "group": "symfony",
      "name": "var-exporter",
      "version": "5.3.8",
      "description": "Allows exporting any serializable PHP data structure to plain PHP code",
      "licenses": [
        {
          "license": {
            "id": "MIT",
            "url": "https://opensource.org/licenses/MIT"
          }
        }
      ],
      "purl": "pkg:composer/symfony/var-exporter@5.3.8",
      "externalReferences": [
        {
          "url": "https://github.com/symfony/var-exporter.git",
          "type": "vcs"
        }
      ]
    },
    {
      "type": "library",
      "bom-ref": "pkg:composer/vlucas/phpdotenv@5.3.0",
      "group": "vlucas",
      "name": "phpdotenv",
      "version": "5.3.0",
      "description": "Loads environment variables from `.env` to `getenv()`, `$_ENV` and `$_SERVER` automagically.",
      "licenses": [
        {
          "license": {
            "id": "BSD-3-Clause",
            "url": "https://opensource.org/licenses/BSD-3-Clause"
          }
        }
      ],
      "purl": "pkg:composer/vlucas/phpdotenv@5.3.0",
      "externalReferences": [
        {
          "url": "https://github.com/vlucas/phpdotenv.git",
          "type": "vcs"
        }
      ]
    },
    {
      "type": "library",
      "bom-ref": "pkg:composer/maennchen/zipstream-php@0.4.1",
      "group": "maennchen",
      "name": "zipstream-php",
      "version": "0.4.1",
      "description": "ZipStream is a library for dynamically streaming dynamic zip files from PHP without writing to the disk at all on the server.",
      "licenses": [
        {
          "license": {
            "id": "MIT",
            "url": "https://opensource.org/licenses/MIT"
          }
        }
      ],
      "purl": "pkg:composer/maennchen/zipstream-php@0.4.1",
      "externalReferences": [
        {
          "url": "https://github.com/maennchen/ZipStream-PHP.git",
          "type": "vcs"
        }
      ]
    },
    {
      "type": "library",
      "bom-ref": "pkg:composer/doctrine/inflector@1.4.4",
      "group": "doctrine",
      "name": "inflector",
      "version": "1.4.4",
      "description": "PHP Doctrine Inflector is a small library that can perform string manipulations with regard to upper/lowercase and singular/plural forms of words.",
      "licenses": [
        {
          "license": {
            "id": "MIT",
            "url": "https://opensource.org/licenses/MIT"
          }
        }
      ],
      "purl": "pkg:composer/doctrine/inflector@1.4.4",
      "externalReferences": [
        {
          "url": "https://github.com/doctrine/inflector.git",
          "type": "vcs"
        }
      ]
    },
    {
      "type": "library",
      "bom-ref": "pkg:composer/illuminate/container@5.8.36",
      "group": "illuminate",
      "name": "container",
      "version": "5.8.36",
      "description": "The Illuminate Container package.",
      "licenses": [
        {
          "license": {
            "id": "MIT",
            "url": "https://opensource.org/licenses/MIT"
          }
        }
      ],
      "purl": "pkg:composer/illuminate/container@5.8.36",
      "externalReferences": [
        {
          "url": "https://github.com/illuminate/container.git",
          "type": "vcs"
        }
      ]
    },
    {
      "type": "library",
      "bom-ref": "pkg:composer/illuminate/contracts@5.8.36",
      "group": "illuminate",
      "name": "contracts",
      "version": "5.8.36",
      "description": "The Illuminate Contracts package.",
      "licenses": [
        {
          "license": {
            "id": "MIT",
            "url": "https://opensource.org/licenses/MIT"
          }
        }
      ],
      "purl": "pkg:composer/illuminate/contracts@5.8.36",
      "externalReferences": [
        {
          "url": "https://github.com/illuminate/contracts.git",
          "type": "vcs"
        }
      ]
    },
    {
      "type": "library",
      "bom-ref": "pkg:composer/illuminate/database@5.8.36",
      "group": "illuminate",
      "name": "database",
      "version": "5.8.36",
      "description": "The Illuminate Database package.",
      "licenses": [
        {
          "license": {
            "id": "MIT",
            "url": "https://opensource.org/licenses/MIT"
          }
        }
      ],
      "purl": "pkg:composer/illuminate/database@5.8.36",
      "externalReferences": [
        {
          "url": "https://github.com/illuminate/database.git",
          "type": "vcs"
        }
      ]
    },
    {
      "type": "library",
      "bom-ref": "pkg:composer/illuminate/pagination@5.8.36",
      "group": "illuminate",
      "name": "pagination",
      "version": "5.8.36",
      "description": "The Illuminate Pagination package.",
      "licenses": [
        {
          "license": {
            "id": "MIT",
            "url": "https://opensource.org/licenses/MIT"
          }
        }
      ],
      "purl": "pkg:composer/illuminate/pagination@5.8.36",
      "externalReferences": [
        {
          "url": "https://github.com/illuminate/pagination.git",
          "type": "vcs"
        }
      ]
    },
    {
      "type": "library",
      "bom-ref": "pkg:composer/illuminate/support@5.8.36",
      "group": "illuminate",
      "name": "support",
      "version": "5.8.36",
      "description": "The Illuminate Support package.",
      "licenses": [
        {
          "license": {
            "id": "MIT",
            "url": "https://opensource.org/licenses/MIT"
          }
        }
      ],
      "purl": "pkg:composer/illuminate/support@5.8.36",
      "externalReferences": [
        {
          "url": "https://github.com/illuminate/support.git",
          "type": "vcs"
        }
      ]
    },
    {
      "type": "library",
      "bom-ref": "pkg:composer/league/container@3.3.0",
      "group": "league",
      "name": "container",
      "version": "3.3.0",
      "description": "A fast and intuitive dependency injection container.",
      "licenses": [
        {
          "license": {
            "id": "MIT",
            "url": "https://opensource.org/licenses/MIT"
          }
        }
      ],
      "purl": "pkg:composer/league/container@3.3.0",
      "externalReferences": [
        {
          "url": "https://github.com/thephpleague/container.git",
          "type": "vcs"
        }
      ]
    },
    {
      "type": "library",
      "bom-ref": "pkg:composer/nesbot/carbon@2.58.0",
      "group": "nesbot",
      "name": "carbon",
      "version": "2.58.0",
      "description": "An API extension for DateTime that supports 281 different languages.",
      "licenses": [
        {
          "license": {
            "id": "MIT",
            "url": "https://opensource.org/licenses/MIT"
          }
        }
      ],
      "purl": "pkg:composer/nesbot/carbon@2.58.0",
      "externalReferences": [
        {
          "url": "https://github.com/briannesbitt/Carbon.git",
          "type": "vcs"
        }
      ]
    },
    {
      "type": "library",
      "bom-ref": "pkg:composer/symfony/translation@5.4.9",
      "group": "symfony",
      "name": "translation",
      "version": "5.4.9",
      "description": "Provides tools to internationalize your application",
      "licenses": [
        {
          "license": {
            "id": "MIT",
            "url": "https://opensource.org/licenses/MIT"
          }
        }
      ],
      "purl": "pkg:composer/symfony/translation@5.4.9",
      "externalReferences": [
        {
          "url": "https://github.com/symfony/translation.git",
          "type": "vcs"
        }
      ]
    },
    {
      "type": "library",
      "bom-ref": "pkg:composer/symfony/translation-contracts@2.5.1",
      "group": "symfony",
      "name": "translation-contracts",
      "version": "2.5.1",
      "description": "Generic abstractions related to translation",
      "licenses": [
        {
          "license": {
            "id": "MIT",
            "url": "https://opensource.org/licenses/MIT"
          }
        }
      ],
      "purl": "pkg:composer/symfony/translation-contracts@2.5.1",
      "externalReferences": [
        {
          "url": "https://github.com/symfony/translation-contracts.git",
          "type": "vcs"
        }
      ]
    },
    {
      "type": "library",
      "bom-ref": "pkg:composer/tareq1988/wp-eloquent@de-master",
      "group": "tareq1988",
      "name": "wp-eloquent",
      "version": "de-master",
      "description": "Eloquent ORM for WordPress",
      "licenses": [
        {
          "license": {
            "id": "GPL-2.0-or-later",
            "url": "https://opensource.org/licenses/GPL-2.0-or-later"
          }
        }
      ],
      "purl": "pkg:composer/tareq1988/wp-eloquent@de-master",
      "externalReferences": [
        {
          "url": "https://github.com/tareq1988/wp-eloquent.git",
          "type": "vcs"
        }
      ]
    },
    {
      "type": "library",
      "bom-ref": "pkg:composer/wa72/url@0.7.1",
      "group": "wa72",
      "name": "url",
      "version": "0.7.1",
      "description": "Class for handling and manipulating URLs",
      "licenses": [
        {
          "license": {
            "id": "MIT",
            "url": "https://opensource.org/licenses/MIT"
          }
        }
      ],
      "purl": "pkg:composer/wa72/url@0.7.1",
      "externalReferences": [
        {
          "url": "https://github.com/wasinger/url.git",
          "type": "vcs"
        }
      ]
    },
    {
      "type": "library",
      "bom-ref": "pkg:composer/doctrine/inflector@1.3.0",
      "group": "doctrine",
      "name": "inflector",
      "version": "1.3.0",
      "description": "Common String Manipulations with regard to casing and singular/plural rules.",
      "licenses": [
        {
          "license": {
            "id": "MIT",
            "url": "https://opensource.org/licenses/MIT"
          }
        }
      ],
      "purl": "pkg:composer/doctrine/inflector@1.3.0",
      "externalReferences": [
        {
          "url": "https://github.com/doctrine/inflector.git",
          "type": "vcs"
        }
      ]
    },
    {
      "type": "library",
      "bom-ref": "pkg:composer/illuminate/container@5.6.15",
      "group": "illuminate",
      "name": "container",
      "version": "5.6.15",
      "description": "The Illuminate Container package.",
      "licenses": [
        {
          "license": {
            "id": "MIT",
            "url": "https://opensource.org/licenses/MIT"
          }
        }
      ],
      "purl": "pkg:composer/illuminate/container@5.6.15",
      "externalReferences": [
        {
          "url": "https://github.com/illuminate/container.git",
          "type": "vcs"
        }
      ]
    },
    {
      "type": "library",
      "bom-ref": "pkg:composer/illuminate/contracts@5.6.15",
      "group": "illuminate",
      "name": "contracts",
      "version": "5.6.15",
      "description": "The Illuminate Contracts package.",
      "licenses": [
        {
          "license": {
            "id": "MIT",
            "url": "https://opensource.org/licenses/MIT"
          }
        }
      ],
      "purl": "pkg:composer/illuminate/contracts@5.6.15",
      "externalReferences": [
        {
          "url": "https://github.com/illuminate/contracts.git",
          "type": "vcs"
        }
      ]
    },
    {
      "type": "library",
      "bom-ref": "pkg:composer/illuminate/database@5.6.15",
      "group": "illuminate",
      "name": "database",
      "version": "5.6.15",
      "description": "The Illuminate Database package.",
      "licenses": [
        {
          "license": {
            "id": "MIT",
            "url": "https://opensource.org/licenses/MIT"
          }
        }
      ],
      "purl": "pkg:composer/illuminate/database@5.6.15",
      "externalReferences": [
        {
          "url": "https://github.com/illuminate/database.git",
          "type": "vcs"
        }
      ]
    },
    {
      "type": "library",
      "bom-ref": "pkg:composer/illuminate/pagination@5.6.15",
      "group": "illuminate",
      "name": "pagination",
      "version": "5.6.15",
      "description": "The Illuminate Pagination package.",
      "licenses": [
        {
          "license": {
            "id": "MIT",
            "url": "https://opensource.org/licenses/MIT"
          }
        }
      ],
      "purl": "pkg:composer/illuminate/pagination@5.6.15",
      "externalReferences": [
        {
          "url": "https://github.com/illuminate/pagination.git",
          "type": "vcs"
        }
      ]
    },
    {
      "type": "library",
      "bom-ref": "pkg:composer/illuminate/support@5.6.15",
      "group": "illuminate",
      "name": "support",
      "version": "5.6.15",
      "description": "The Illuminate Support package.",
      "licenses": [
        {
          "license": {
            "id": "MIT",
            "url": "https://opensource.org/licenses/MIT"
          }
        }
      ],
      "purl": "pkg:composer/illuminate/support@5.6.15",
      "externalReferences": [
        {
          "url": "https://github.com/illuminate/support.git",
          "type": "vcs"
        }
      ]
    },
    {
      "type": "library",
      "bom-ref": "pkg:composer/nesbot/carbon@1.25.0",
      "group": "nesbot",
      "name": "carbon",
      "version": "1.25.0",
      "description": "A simple API extension for DateTime.",
      "licenses": [
        {
          "license": {
            "id": "MIT",
            "url": "https://opensource.org/licenses/MIT"
          }
        }
      ],
      "purl": "pkg:composer/nesbot/carbon@1.25.0",
      "externalReferences": [
        {
          "url": "https://github.com/briannesbitt/Carbon.git",
          "type": "vcs"
        }
      ]
    },
    {
      "type": "library",
      "bom-ref": "pkg:composer/psr/container@1.0.0",
      "group": "psr",
      "name": "container",
      "version": "1.0.0",
      "description": "Common Container Interface (PHP FIG PSR-11)",
      "licenses": [
        {
          "license": {
            "id": "MIT",
            "url": "https://opensource.org/licenses/MIT"
          }
        }
      ],
      "purl": "pkg:composer/psr/container@1.0.0",
      "externalReferences": [
        {
          "url": "https://github.com/php-fig/container.git",
          "type": "vcs"
        }
      ]
    },
    {
      "type": "library",
      "bom-ref": "pkg:composer/symfony/polyfill-mbstring@1.7.0",
      "group": "symfony",
      "name": "polyfill-mbstring",
      "version": "1.7.0",
      "description": "Symfony polyfill for the Mbstring extension",
      "licenses": [
        {
          "license": {
            "id": "MIT",
            "url": "https://opensource.org/licenses/MIT"
          }
        }
      ],
      "purl": "pkg:composer/symfony/polyfill-mbstring@1.7.0",
      "externalReferences": [
        {
          "url": "https://github.com/symfony/polyfill-mbstring.git",
          "type": "vcs"
        }
      ]
    },
    {
      "type": "library",
      "bom-ref": "pkg:composer/symfony/translation@4.0.6",
      "group": "symfony",
      "name": "translation",
      "version": "4.0.6",
      "description": "Symfony Translation Component",
      "licenses": [
        {
          "license": {
            "id": "MIT",
            "url": "https://opensource.org/licenses/MIT"
          }
        }
      ],
      "purl": "pkg:composer/symfony/translation@4.0.6",
      "externalReferences": [
        {
          "url": "https://github.com/symfony/translation.git",
          "type": "vcs"
        }
      ]
    },
    {
      "type": "library",
      "bom-ref": "pkg:composer/hametuha/hametwoo@0.8.10",
      "group": "hametuha",
      "name": "hametwoo",
      "version": "0.8.10",
      "description": "A utility classes for WooCommerce development",
      "licenses": [
        {
          "license": {
            "name": "GPLv3+"
          }
        }
      ],
      "purl": "pkg:composer/hametuha/hametwoo@0.8.10",
      "externalReferences": [
        {
          "url": "https://github.com/hametuha/hametwoo.git",
          "type": "vcs"
        }
      ]
    },
    {
      "type": "library",
      "bom-ref": "pkg:composer/elementsproject/lightning-charge-client-php@0.1.3",
      "group": "elementsproject",
      "name": "lightning-charge-client-php",
      "version": "0.1.3",
      "description": "PHP client for the Lightning Charge REST API",
      "licenses": [
        {
          "license": {
            "id": "MIT",
            "url": "https://opensource.org/licenses/MIT"
          }
        }
      ],
      "purl": "pkg:composer/elementsproject/lightning-charge-client-php@0.1.3",
      "externalReferences": [
        {
          "url": "https://github.com/ElementsProject/lightning-charge-client-php.git",
          "type": "vcs"
        }
      ]
    },
    {
      "type": "library",
      "bom-ref": "pkg:composer/tcdent/php-restclient@0.1.8",
      "group": "tcdent",
      "name": "php-restclient",
      "version": "0.1.8",
      "description": "A generic REST API client for PHP",
      "licenses": [
        {
          "license": {
            "id": "MIT",
            "url": "https://opensource.org/licenses/MIT"
          }
        }
      ],
      "purl": "pkg:composer/tcdent/php-restclient@0.1.8",
      "externalReferences": [
        {
          "url": "https://github.com/tcdent/php-restclient.git",
          "type": "vcs"
        }
      ]
    },
    {
      "type": "library",
      "bom-ref": "pkg:composer/tcdent/php-restclient@0.1.7",
      "group": "tcdent",
      "name": "php-restclient",
      "version": "0.1.7",
      "description": "A generic REST API client for PHP",
      "licenses": [
        {
          "license": {
            "id": "MIT",
            "url": "https://opensource.org/licenses/MIT"
          }
        }
      ],
      "purl": "pkg:composer/tcdent/php-restclient@0.1.7",
      "externalReferences": [
        {
          "url": "https://github.com/tcdent/php-restclient.git",
          "type": "vcs"
        }
      ]
    },
    {
      "type": "library",
      "bom-ref": "pkg:composer/apimatic/jsonmapper@2.0.3",
      "group": "apimatic",
      "name": "jsonmapper",
      "version": "2.0.3",
      "description": "Map nested JSON structures onto PHP classes",
      "licenses": [
        {
          "license": {
            "id": "OSL-3.0",
            "url": "https://opensource.org/licenses/OSL-3.0"
          }
        }
      ],
      "purl": "pkg:composer/apimatic/jsonmapper@2.0.3",
      "externalReferences": [
        {
          "url": "https://github.com/apimatic/jsonmapper.git",
          "type": "vcs"
        }
      ]
    },
    {
      "type": "library",
      "bom-ref": "pkg:composer/apimatic/unirest-php@2.2.2",
      "group": "apimatic",
      "name": "unirest-php",
      "version": "2.2.2",
      "description": "Unirest PHP",
      "licenses": [
        {
          "license": {
            "id": "MIT",
            "url": "https://opensource.org/licenses/MIT"
          }
        }
      ],
      "purl": "pkg:composer/apimatic/unirest-php@2.2.2",
      "externalReferences": [
        {
          "url": "https://github.com/apimatic/unirest-php.git",
          "type": "vcs"
        }
      ]
    },
    {
      "type": "library",
      "bom-ref": "pkg:composer/square/square@10.0.0.20210421",
      "group": "square",
      "name": "square",
      "version": "10.0.0.20210421",
      "description": "Use Square APIs to manage and run business including payment, customer, product, inventory, and employee management.",
      "licenses": [
        {
          "license": {
            "id": "MIT",
            "url": "https://opensource.org/licenses/MIT"
          }
        }
      ],
      "purl": "pkg:composer/square/square@10.0.0.20210421",
      "externalReferences": [
        {
          "url": "https://github.com/square/square-php-sdk.git",
          "type": "vcs"
        }
      ]
    },
    {
      "type": "library",
      "bom-ref": "pkg:composer/stripe/stripe-php@7.128.0",
      "group": "stripe",
      "name": "stripe-php",
      "version": "7.128.0",
      "description": "Stripe PHP Library",
      "licenses": [
        {
          "license": {
            "id": "MIT",
            "url": "https://opensource.org/licenses/MIT"
          }
        }
      ],
      "purl": "pkg:composer/stripe/stripe-php@7.128.0",
      "externalReferences": [
        {
          "url": "https://github.com/stripe/stripe-php.git",
          "type": "vcs"
        }
      ]
    },
    {
      "type": "library",
      "bom-ref": "pkg:composer/novinhubcom/php-sdk@0.0.3",
      "group": "novinhubcom",
      "name": "php-sdk",
      "version": "0.0.3",
      "description": "Novinhub SDK",
      "licenses": [
        {
          "license": {
            "id": "MIT",
            "url": "https://opensource.org/licenses/MIT"
          }
        }
      ],
      "purl": "pkg:composer/novinhubcom/php-sdk@0.0.3",
      "externalReferences": [
        {
          "url": "https://github.com/novinhubcom/php-sdk.git",
          "type": "vcs"
        }
      ]
    },
    {
      "type": "library",
      "bom-ref": "pkg:composer/paragonie/random_compat@2.0.21",
      "group": "paragonie",
      "name": "random_compat",
      "version": "2.0.21",
      "description": "PHP 5.x polyfill for random_bytes() and random_int() from PHP 7",
      "licenses": [
        {
          "license": {
            "id": "MIT",
            "url": "https://opensource.org/licenses/MIT"
          }
        }
      ],
      "purl": "pkg:composer/paragonie/random_compat@2.0.21",
      "externalReferences": [
        {
          "url": "https://github.com/paragonie/random_compat.git",
          "type": "vcs"
        }
      ]
    },
    {
      "type": "library",
      "bom-ref": "pkg:composer/symfony/polyfill-intl-idn@1.19.0",
      "group": "symfony",
      "name": "polyfill-intl-idn",
      "version": "1.19.0",
      "description": "Symfony polyfill for intl's idn_to_ascii and idn_to_utf8 functions",
      "licenses": [
        {
          "license": {
            "id": "MIT",
            "url": "https://opensource.org/licenses/MIT"
          }
        }
      ],
      "purl": "pkg:composer/symfony/polyfill-intl-idn@1.19.0",
      "externalReferences": [
        {
          "url": "https://github.com/symfony/polyfill-intl-idn.git",
          "type": "vcs"
        }
      ]
    },
    {
      "type": "library",
      "bom-ref": "pkg:composer/symfony/polyfill-intl-normalizer@1.19.0",
      "group": "symfony",
      "name": "polyfill-intl-normalizer",
      "version": "1.19.0",
      "description": "Symfony polyfill for intl's Normalizer class and related functions",
      "licenses": [
        {
          "license": {
            "id": "MIT",
            "url": "https://opensource.org/licenses/MIT"
          }
        }
      ],
      "purl": "pkg:composer/symfony/polyfill-intl-normalizer@1.19.0",
      "externalReferences": [
        {
          "url": "https://github.com/symfony/polyfill-intl-normalizer.git",
          "type": "vcs"
        }
      ]
    },
    {
      "type": "library",
      "bom-ref": "pkg:composer/symfony/polyfill-php70@1.19.0",
      "group": "symfony",
      "name": "polyfill-php70",
      "version": "1.19.0",
      "description": "Symfony polyfill backporting some PHP 7.0+ features to lower PHP versions",
      "licenses": [
        {
          "license": {
            "id": "MIT",
            "url": "https://opensource.org/licenses/MIT"
          }
        }
      ],
      "purl": "pkg:composer/symfony/polyfill-php70@1.19.0",
      "externalReferences": [
        {
          "url": "https://github.com/symfony/polyfill-php70.git",
          "type": "vcs"
        }
      ]
    },
    {
      "type": "library",
      "bom-ref": "pkg:composer/symfony/polyfill-php72@1.19.0",
      "group": "symfony",
      "name": "polyfill-php72",
      "version": "1.19.0",
      "description": "Symfony polyfill backporting some PHP 7.2+ features to lower PHP versions",
      "licenses": [
        {
          "license": {
            "id": "MIT",
            "url": "https://opensource.org/licenses/MIT"
          }
        }
      ],
      "purl": "pkg:composer/symfony/polyfill-php72@1.19.0",
      "externalReferences": [
        {
          "url": "https://github.com/symfony/polyfill-php72.git",
          "type": "vcs"
        }
      ]
    },
    {
      "type": "library",
      "bom-ref": "pkg:composer/apimatic/jsonmapper@1.3.1",
      "group": "apimatic",
      "name": "jsonmapper",
      "version": "1.3.1",
      "description": "Map nested JSON structures onto PHP classes",
      "licenses": [
        {
          "license": {
            "id": "OSL-3.0",
            "url": "https://opensource.org/licenses/OSL-3.0"
          }
        }
      ],
      "purl": "pkg:composer/apimatic/jsonmapper@1.3.1",
      "externalReferences": [
        {
          "url": "https://github.com/apimatic/jsonmapper.git",
          "type": "vcs"
        }
      ]
    },
    {
      "type": "library",
      "bom-ref": "pkg:composer/mashape/unirest-php@3.0.4",
      "group": "mashape",
      "name": "unirest-php",
      "version": "3.0.4",
      "description": "Unirest PHP",
      "licenses": [
        {
          "license": {
            "id": "MIT",
            "url": "https://opensource.org/licenses/MIT"
          }
        }
      ],
      "purl": "pkg:composer/mashape/unirest-php@3.0.4",
      "externalReferences": [
        {
          "url": "https://github.com/Mashape/unirest-php.git",
          "type": "vcs"
        }
      ]
    },
    {
      "type": "library",
      "bom-ref": "pkg:composer/monolog/monolog@2.6.0",
      "group": "monolog",
      "name": "monolog",
      "version": "2.6.0",
      "description": "Sends your logs to files, sockets, inboxes, databases and various web services",
      "licenses": [
        {
          "license": {
            "id": "MIT",
            "url": "https://opensource.org/licenses/MIT"
          }
        }
      ],
      "purl": "pkg:composer/monolog/monolog@2.6.0",
      "externalReferences": [
        {
          "url": "https://github.com/Seldaek/monolog.git",
          "type": "vcs"
        }
      ]
    },
    {
      "type": "library",
      "bom-ref": "pkg:composer/mundipagg/mundiapi@3.1.20",
      "group": "mundipagg",
      "name": "mundiapi",
      "version": "3.1.20",
      "description": "Mundipagg API",
      "licenses": [
        {
          "license": {
            "id": "MIT",
            "url": "https://opensource.org/licenses/MIT"
          }
        }
      ],
      "purl": "pkg:composer/mundipagg/mundiapi@3.1.20",
      "externalReferences": [
        {
          "url": "https://github.com/mundipagg/MundiAPI-PHP.git",
          "type": "vcs"
        }
      ]
    },
    {
      "type": "library",
      "bom-ref": "pkg:composer/pagarme/ecommerce-module-core@1.1.3",
      "group": "pagarme",
      "name": "ecommerce-module-core",
      "version": "1.1.3",
      "description": "Core component for Pagar.me e-commerce platform modules.",
      "licenses": [
        {
          "license": {
            "id": "MIT",
            "url": "https://opensource.org/licenses/MIT"
          }
        }
      ],
      "purl": "pkg:composer/pagarme/ecommerce-module-core@1.1.3",
      "externalReferences": [
        {
          "url": "https://github.com/pagarme/ecommerce-module-core.git",
          "type": "vcs"
        }
      ]
    },
    {
      "type": "library",
      "bom-ref": "pkg:composer/collizo4sky/persist-admin-notices-dismissal@1.4.4",
      "group": "collizo4sky",
      "name": "persist-admin-notices-dismissal",
      "version": "1.4.4",
      "description": "Simple library to persist dismissal of admin notices across pages in WordPress dashboard.",
      "licenses": [
        {
          "license": {
            "id": "GPL-3.0-or-later",
            "url": "https://opensource.org/licenses/GPL-3.0-or-later"
          }
        }
      ],
      "purl": "pkg:composer/collizo4sky/persist-admin-notices-dismissal@1.4.4",
      "externalReferences": [
        {
          "url": "https://github.com/w3guy/persist-admin-notices-dismissal.git",
          "type": "vcs"
        }
      ]
    },
    {
      "type": "library",
      "bom-ref": "pkg:composer/squizlabs/php_codesniffer@2.5.1",
      "group": "squizlabs",
      "name": "php_codesniffer",
      "version": "2.5.1",
      "description": "PHP_CodeSniffer tokenizes PHP, JavaScript and CSS files and detects violations of a defined set of coding standards.",
      "licenses": [
        {
          "license": {
            "id": "BSD-3-Clause",
            "url": "https://opensource.org/licenses/BSD-3-Clause"
          }
        }
      ],
      "purl": "pkg:composer/squizlabs/php_codesniffer@2.5.1",
      "externalReferences": [
        {
          "url": "https://github.com/squizlabs/PHP_CodeSniffer.git",
          "type": "vcs"
        }
      ]
    },
    {
      "type": "library",
      "bom-ref": "pkg:composer/phpdocumentor/reflection-common@2.0.0",
      "group": "phpdocumentor",
      "name": "reflection-common",
      "version": "2.0.0",
      "description": "Common reflection classes used by phpdocumentor to reflect the code structure",
      "licenses": [
        {
          "license": {
            "id": "MIT",
            "url": "https://opensource.org/licenses/MIT"
          }
        }
      ],
      "purl": "pkg:composer/phpdocumentor/reflection-common@2.0.0",
      "externalReferences": [
        {
          "url": "https://github.com/phpDocumentor/ReflectionCommon.git",
          "type": "vcs"
        }
      ]
    },
    {
      "type": "library",
      "bom-ref": "pkg:composer/composer/installers@2.1.1",
      "group": "composer",
      "name": "installers",
      "version": "2.1.1",
      "description": "A multi-framework Composer library installer",
      "licenses": [
        {
          "license": {
            "id": "MIT",
            "url": "https://opensource.org/licenses/MIT"
          }
        }
      ],
      "purl": "pkg:composer/composer/installers@2.1.1",
      "externalReferences": [
        {
          "url": "https://github.com/composer/installers.git",
          "type": "vcs"
        }
      ]
    },
    {
      "type": "library",
      "bom-ref": "pkg:composer/ddtraceweb/monolog-parser@1.3.1",
      "group": "ddtraceweb",
      "name": "monolog-parser",
      "version": "1.3.1",
      "description": "A parser for monolog log entries",
      "licenses": [
        {
          "license": {
            "id": "MIT",
            "url": "https://opensource.org/licenses/MIT"
          }
        }
      ],
      "purl": "pkg:composer/ddtraceweb/monolog-parser@1.3.1",
      "externalReferences": [
        {
          "url": "https://github.com/ddtraceweb/monolog-parser.git",
          "type": "vcs"
        }
      ]
    },
    {
      "type": "library",
      "bom-ref": "pkg:composer/inpsyde/wonolog@1.0.4",
      "group": "inpsyde",
      "name": "wonolog",
      "version": "1.0.4",
      "description": "Monolog-based logging package for WordPress.",
      "licenses": [
        {
          "license": {
            "id": "MIT",
            "url": "https://opensource.org/licenses/MIT"
          }
        }
      ],
      "purl": "pkg:composer/inpsyde/wonolog@1.0.4",
      "externalReferences": [
        {
          "url": "https://github.com/inpsyde/Wonolog.git",
          "type": "vcs"
        }
      ]
    },
    {
      "type": "library",
      "bom-ref": "pkg:composer/monolog/monolog@de-master",
      "group": "monolog",
      "name": "monolog",
      "version": "de-master",
      "description": "Sends your logs to files, sockets, inboxes, databases and various web services",
      "licenses": [
        {
          "license": {
            "id": "MIT",
            "url": "https://opensource.org/licenses/MIT"
          }
        }
      ],
      "purl": "pkg:composer/monolog/monolog@de-master",
      "externalReferences": [
        {
          "url": "https://github.com/Seldaek/monolog.git",
          "type": "vcs"
        }
      ]
    },
    {
      "type": "library",
      "bom-ref": "pkg:composer/psr/log@1.0.0",
      "group": "psr",
      "name": "log",
      "version": "1.0.0",
      "description": "Common interface for logging libraries",
      "licenses": [
        {
          "license": {
            "id": "MIT",
            "url": "https://opensource.org/licenses/MIT"
          }
        }
      ],
      "purl": "pkg:composer/psr/log@1.0.0",
      "externalReferences": [
        {
          "url": "https://github.com/php-fig/log",
          "type": "vcs"
        }
      ]
    },
    {
      "type": "library",
      "bom-ref": "pkg:composer/phar-io/version@2.0.1",
      "group": "phar-io",
      "name": "version",
      "version": "2.0.1",
      "description": "Library for handling version information and constraints",
      "licenses": [
        {
          "license": {
            "id": "BSD-3-Clause",
            "url": "https://opensource.org/licenses/BSD-3-Clause"
          }
        }
      ],
      "purl": "pkg:composer/phar-io/version@2.0.1",
      "externalReferences": [
        {
          "url": "https://github.com/phar-io/version.git",
          "type": "vcs"
        }
      ]
    },
    {
      "type": "library",
      "bom-ref": "pkg:composer/ericmann/sessionz@0.3.1",
      "group": "ericmann",
      "name": "sessionz",
      "version": "0.3.1",
      "description": "PHP Session Manager Interface",
      "licenses": [
        {
          "license": {
            "id": "MIT",
            "url": "https://opensource.org/licenses/MIT"
          }
        }
      ],
      "purl": "pkg:composer/ericmann/sessionz@0.3.1",
      "externalReferences": [
        {
          "url": "https://github.com/ericmann/sessionz.git",
          "type": "vcs"
        }
      ]
    },
    {
      "type": "library",
      "bom-ref": "pkg:composer/paragonie/random_compat@de-master",
      "group": "paragonie",
      "name": "random_compat",
      "version": "de-master",
      "description": "PHP 5.x polyfill for random_bytes() and random_int() from PHP 7",
      "licenses": [
        {
          "license": {
            "id": "MIT",
            "url": "https://opensource.org/licenses/MIT"
          }
        }
      ],
      "purl": "pkg:composer/paragonie/random_compat@de-master",
      "externalReferences": [
        {
          "url": "https://github.com/paragonie/random_compat.git",
          "type": "vcs"
        }
      ]
    }
  ],
  "externalReferences": [
    {
      "url": "/project/src",
      "type": "other",
      "comment": "Base path"
    },
    {
      "url": "/project/src/spec/fixtures/dynamic_finders/plugin_version/acf-conditional-logic-advanced/composer_file/composer.lock, /project/src/spec/fixtures/dynamic_finders/plugin_version/acf-to-rest-api/composer_file_/composer.lock, /project/src/spec/fixtures/dynamic_finders/plugin_version/acf-to-rest-api/composer_file/composer.lock, /project/src/spec/fixtures/dynamic_finders/plugin_version/acumulus/composer_file/libraries/Siel/composer.lock, /project/src/spec/fixtures/dynamic_finders/plugin_version/aged-content-message/composer_file/composer.lock, /project/src/spec/fixtures/dynamic_finders/plugin_version/billplz-for-edd/composer_file/composer.lock, /project/src/spec/fixtures/dynamic_finders/plugin_version/blade/composer_file/composer.lock, /project/src/spec/fixtures/dynamic_finders/plugin_version/bleumi-pay-crypto-payments-for-woocommerce/composer_file/composer.lock, /project/src/spec/fixtures/dynamic_finders/plugin_version/bpost-shipping/composer_file/composer.lock, /project/src/spec/fixtures/dynamic_finders/plugin_version/bpost-shipping/composer_file/vendor/antidot-be/bpost-api-library/composer.lock, /project/src/spec/fixtures/dynamic_finders/plugin_version/cision-modules/composer_file/composer.lock, /project/src/spec/fixtures/dynamic_finders/plugin_version/courier-notices/composer_file/composer.lock, /project/src/spec/fixtures/dynamic_finders/plugin_version/customer-area/composer_file/composer.lock, /project/src/spec/fixtures/dynamic_finders/plugin_version/disable-embeds/composer_file/composer.lock, /project/src/spec/fixtures/dynamic_finders/plugin_version/e-nkap-woocommerce-gateway/composer_file/composer.lock, /project/src/spec/fixtures/dynamic_finders/plugin_version/e-nkap-woocommerce-gateway/composer_file/vendor/camoo/cache/composer.lock, /project/src/spec/fixtures/dynamic_finders/plugin_version/e-nkap-woocommerce-gateway/composer_file/vendor/camoo/enkap-oauth/composer.lock, /project/src/spec/fixtures/dynamic_finders/plugin_version/editor-for-timber/composer_file/composer.lock, /project/src/spec/fixtures/dynamic_finders/plugin_version/export-media-library/composer_file/composer.lock, /project/src/spec/fixtures/dynamic_finders/plugin_version/export-media-library/composer_file/vendor/maennchen/zipstream-php/composer.lock, /project/src/spec/fixtures/dynamic_finders/plugin_version/fastpicker/composer_file/composer.lock, /project/src/spec/fixtures/dynamic_finders/plugin_version/featured-image-sharpen-up/composer_file/composer.lock, /project/src/spec/fixtures/dynamic_finders/plugin_version/http-requests-tracker/composer_file/composer.lock, /project/src/spec/fixtures/dynamic_finders/plugin_version/http-requests-tracker/composer_file/vendor/sirbrillig/phpcs-variable-analysis/VariableAnalysis/Tests/CodeAnalysis/composer.lock, /project/src/spec/fixtures/dynamic_finders/plugin_version/http-requests-tracker/composer_file/vendor/tareq1988/wp-eloquent/composer.lock, /project/src/spec/fixtures/dynamic_finders/plugin_version/inxpress-shipping-extension/composer_file/composer.lock, /project/src/spec/fixtures/dynamic_finders/plugin_version/keep-my-theme/composer_file/composer.lock, /project/src/spec/fixtures/dynamic_finders/plugin_version/kuroneko-pay/composer_file/composer.lock, /project/src/spec/fixtures/dynamic_finders/plugin_version/kuroneko-pay/composer_file/vendor/hametuha/hametwoo/composer.lock, /project/src/spec/fixtures/dynamic_finders/plugin_version/lightning-publisher/composer_file/composer.lock, /project/src/spec/fixtures/dynamic_finders/plugin_version/lightning-publisher/composer_file/vendor/elementsproject/lightning-charge-client-php/composer.lock, /project/src/spec/fixtures/dynamic_finders/plugin_version/listig/composer_file/composer.lock, /project/src/spec/fixtures/dynamic_finders/plugin_version/message-business/composer_file/composer.lock, /project/src/spec/fixtures/dynamic_finders/plugin_version/nofraud-protection/composer_file/composer.lock, /project/src/spec/fixtures/dynamic_finders/plugin_version/notify-for-woocommerce/composer_file/composer.lock, /project/src/spec/fixtures/dynamic_finders/plugin_version/novinhub/composer_file/composer.lock, /project/src/spec/fixtures/dynamic_finders/plugin_version/pagarme-payments-for-woocommerce/composer_file/composer.lock, /project/src/spec/fixtures/dynamic_finders/plugin_version/presbooks-openstax-import/composer_file/composer.lock, /project/src/spec/fixtures/dynamic_finders/plugin_version/presbooks-openstax-import/composer_file/vendor/fig-r/psr2r-sniffer/composer.lock, /project/src/spec/fixtures/dynamic_finders/plugin_version/pressbooks-cc-export/composer_file/composer.lock, /project/src/spec/fixtures/dynamic_finders/plugin_version/pressbooks-cc-export/composer_file/vendor/fig-r/psr2r-sniffer/composer.lock, /project/src/spec/fixtures/dynamic_finders/plugin_version/pressbooks-openstax-import/composer_file/composer.lock, /project/src/spec/fixtures/dynamic_finders/plugin_version/pressbooks-openstax-import/composer_file/vendor/phpdocumentor/type-resolver/composer.lock, /project/src/spec/fixtures/dynamic_finders/plugin_version/quantcast-choice/composer_file/composer.lock, /project/src/spec/fixtures/dynamic_finders/plugin_version/recommender/composer_file/composer.lock, /project/src/spec/fixtures/dynamic_finders/plugin_version/redux-framework/composer_file/composer.lock, /project/src/spec/fixtures/dynamic_finders/plugin_version/responsive-video-shortcodes/composer_file/composer.lock, /project/src/spec/fixtures/dynamic_finders/plugin_version/rtm-mail-wp-mail-logger/composer_file/composer.lock, /project/src/spec/fixtures/dynamic_finders/plugin_version/rtm-mail-wp-mail-logger/composer_file/vendor/ddtraceweb/monolog-parser/composer.lock, /project/src/spec/fixtures/dynamic_finders/plugin_version/selleradise-widgets/composer_file/composer.lock, /project/src/spec/fixtures/dynamic_finders/plugin_version/seo-wordpress/composer_file/composer.lock, /project/src/spec/fixtures/dynamic_finders/plugin_version/shoplic-payment-gateway/composer_file/composer.lock, /project/src/spec/fixtures/dynamic_finders/plugin_version/shoplic-payment-gateway/composer_file/vendor/phar-io/manifest/composer.lock, /project/src/spec/fixtures/dynamic_finders/plugin_version/shoplic-payment-gateway/composer_file/vendor/theseer/tokenizer/composer.lock, /project/src/spec/fixtures/dynamic_finders/plugin_version/simple-emzon-links/composer_file/composer.lock, /project/src/spec/fixtures/dynamic_finders/plugin_version/simple-history/composer_file/composer.lock, /project/src/spec/fixtures/dynamic_finders/plugin_version/starterblocks/composer_file/composer.lock, /project/src/spec/fixtures/dynamic_finders/plugin_version/trivia-adapter-pack/composer_file/composer.lock, /project/src/spec/fixtures/dynamic_finders/plugin_version/uniconsent-cmp/composer_file/composer.lock, /project/src/spec/fixtures/dynamic_finders/plugin_version/vercel-deploy-hooks/composer_file/composer.lock, /project/src/spec/fixtures/dynamic_finders/plugin_version/wp-currencies/composer_file/composer.lock, /project/src/spec/fixtures/dynamic_finders/plugin_version/wp-feed-post-thumbnail/composer_file/composer.lock, /project/src/spec/fixtures/dynamic_finders/plugin_version/wp-session-manager/composer_file/composer.lock, /project/src/spec/fixtures/dynamic_finders/plugin_version/wp-team-list/composer_file/composer.lock",
      "type": "other",
      "comment": "Package file"
    }
  ]
}
