{
  "bomFormat": "CycloneDX",
  "specVersion": "1.3",
  "version": 1,
  "metadata": {
    "tools": [
      {
        "vendor": "CycloneDX",
        "name": "cyclonedx-gomod",
        "version": "v0.0.0-unset",
        "hashes": [
          {
            "alg": "MD5",
            "content": "a35776fc9417e8071d3f1dcfa2f1dd19"
          },
          {
            "alg": "SHA-1",
            "content": "a19a8eed713eff5a2092e5283c201a146f19421d"
          },
          {
            "alg": "SHA-256",
            "content": "17b3b980b9a5d0f48ad52043dee5b31aff3ae6599a36bc94224dc7b6a46759ef"
          },
          {
            "alg": "SHA-512",
            "content": "9d4f06aab20cede94a1aedf11a300ae9de98871235c68c72e421cd6d45495910861b39e743ee0eceb11bbdcd2c9acc3312c19064cfe90177243fb43127fcfa46"
          }
        ]
      },
      {
        "vendor": "CycloneDX",
        "name": "Node.js module",
        "version": "3.0.3"
      },
      {
        "vendor": "AppThreat",
        "name": "cdxgen",
        "version": "3.0.10"
      },
      {
        "vendor": "Fortress Information Security",
        "name": "Github Extractor",
        "version": "1.15.1"
      }
    ],
    "authors": [
      {
        "name": "Fortress Information Security",
        "email": "sales@fortressinfosec.com",
        "phone": "1-407-573-6800"
      }
    ],
    "timestamp": "2022-06-01T21:00:00Z",
    "component": {
      "type": "application",
      "name": "go-gin-api",
      "version": "v1.2.7",
      "group": "xinliangnote",
      "externalReferences": [
        {
          "url": "https://github.com/xinliangnote/go-gin-api.git",
          "type": "distribution"
        },
        {
          "type": "website",
          "url": "https://www.yuque.com/xinliangnote/go-gin-api/ngc3x5",
          "comment": "As set via `homepage` in Github API"
        }
      ]
    }
  },
  "components": [
    {
      "type": "library",
      "bom-ref": "pkg:golang/github.com/99designs/gqlgen@v0.14.0",
      "name": "github.com/99designs/gqlgen",
      "version": "v0.14.0",
      "scope": "required",
      "hashes": [
        {
          "alg": "SHA-256",
          "content": "5a0f1a3584148cc47fe2ff96df10feed28b33b2ea54af55e434e80a1b3500172"
        }
      ],
      "purl": "pkg:golang/github.com/99designs/gqlgen@v0.14.0",
      "externalReferences": [
        {
          "url": "https://github.com/99designs/gqlgen",
          "type": "vcs"
        }
      ]
    },
    {
      "type": "library",
      "bom-ref": "pkg:golang/github.com/KyleBanks/depth@v1.2.1",
      "name": "github.com/KyleBanks/depth",
      "version": "v1.2.1",
      "scope": "required",
      "hashes": [
        {
          "alg": "SHA-256",
          "content": "e61f1f4000c5ad6b5aad376d0ee74c986b02ec63db380bba4550777dfb151477"
        }
      ],
      "purl": "pkg:golang/github.com/KyleBanks/depth@v1.2.1",
      "externalReferences": [
        {
          "url": "https://github.com/KyleBanks/depth",
          "type": "vcs"
        }
      ]
    },
    {
      "type": "library",
      "bom-ref": "pkg:golang/github.com/PuerkitoBio/purell@v1.1.1",
      "name": "github.com/PuerkitoBio/purell",
      "version": "v1.1.1",
      "scope": "required",
      "hashes": [
        {
          "alg": "SHA-256",
          "content": "58442a96a6866eb3e4c4b2567c1c1099f10013567b38d7432eaacddfcb4d15f2"
        }
      ],
      "purl": "pkg:golang/github.com/PuerkitoBio/purell@v1.1.1",
      "externalReferences": [
        {
          "url": "https://github.com/PuerkitoBio/purell",
          "type": "vcs"
        }
      ]
    },
    {
      "type": "library",
      "bom-ref": "pkg:golang/github.com/PuerkitoBio/urlesc@v0.0.0-20170810143723-de5bf2ad4578",
      "name": "github.com/PuerkitoBio/urlesc",
      "version": "v0.0.0-20170810143723-de5bf2ad4578",
      "scope": "required",
      "hashes": [
        {
          "alg": "SHA-256",
          "content": "77e05cedae6b2ee7d5fec4a4ffc76782e7ea7a57e1ea39eb8bce6b88c01a17f3"
        }
      ],
      "purl": "pkg:golang/github.com/PuerkitoBio/urlesc@v0.0.0-20170810143723-de5bf2ad4578",
      "externalReferences": [
        {
          "url": "https://github.com/PuerkitoBio/urlesc",
          "type": "vcs"
        }
      ]
    },
    {
      "type": "library",
      "bom-ref": "pkg:golang/github.com/StackExchange/wmi@v1.2.1",
      "name": "github.com/StackExchange/wmi",
      "version": "v1.2.1",
      "scope": "required",
      "hashes": [
        {
          "alg": "SHA-256",
          "content": "54891abc53d74a37274be3bcc93abb348df6934479023fafdfdcb6f556033920"
        }
      ],
      "purl": "pkg:golang/github.com/StackExchange/wmi@v1.2.1",
      "externalReferences": [
        {
          "url": "https://github.com/StackExchange/wmi",
          "type": "vcs"
        }
      ]
    },
    {
      "type": "library",
      "bom-ref": "pkg:golang/github.com/agnivade/levenshtein@v1.1.0",
      "name": "github.com/agnivade/levenshtein",
      "version": "v1.1.0",
      "scope": "required",
      "hashes": [
        {
          "alg": "SHA-256",
          "content": "9faa86c321c6eb5bf700171ed6b3d56649446114fc345a4232ba5974151b6063"
        }
      ],
      "purl": "pkg:golang/github.com/agnivade/levenshtein@v1.1.0",
      "externalReferences": [
        {
          "url": "https://github.com/agnivade/levenshtein",
          "type": "vcs"
        }
      ]
    },
    {
      "type": "library",
      "bom-ref": "pkg:golang/github.com/beorn7/perks@v1.0.1",
      "name": "github.com/beorn7/perks",
      "version": "v1.0.1",
      "scope": "required",
      "hashes": [
        {
          "alg": "SHA-256",
          "content": "5656ca2a735f57c6c9cdeaa86b870e2aa3ba6d8af75a0299c4ef19d7afa1b0e3"
        }
      ],
      "purl": "pkg:golang/github.com/beorn7/perks@v1.0.1",
      "externalReferences": [
        {
          "url": "https://github.com/beorn7/perks",
          "type": "vcs"
        }
      ]
    },
    {
      "type": "library",
      "bom-ref": "pkg:golang/github.com/cespare/xxhash/v2@v2.1.1",
      "name": "github.com/cespare/xxhash/v2",
      "version": "v2.1.1",
      "scope": "required",
      "hashes": [
        {
          "alg": "SHA-256",
          "content": "e8c9d137c353efe601a54216c47b5e7c564e29300f8068e9412c6a2cd9f4faa6"
        }
      ],
      "purl": "pkg:golang/github.com/cespare/xxhash/v2@v2.1.1",
      "externalReferences": [
        {
          "url": "https://github.com/cespare/xxhash",
          "type": "vcs"
        }
      ]
    },
    {
      "type": "library",
      "bom-ref": "pkg:golang/github.com/dave/dst@v0.26.2",
      "name": "github.com/dave/dst",
      "version": "v0.26.2",
      "scope": "required",
      "hashes": [
        {
          "alg": "SHA-256",
          "content": "967c4b00a237b71ecc80b3550e2ac50ac0d39531bd9ca4e4ec6729b4a7164b06"
        }
      ],
      "purl": "pkg:golang/github.com/dave/dst@v0.26.2",
      "externalReferences": [
        {
          "url": "https://github.com/dave/dst",
          "type": "vcs"
        }
      ]
    },
    {
      "type": "library",
      "bom-ref": "pkg:golang/github.com/fsnotify/fsnotify@v1.5.1",
      "name": "github.com/fsnotify/fsnotify",
      "version": "v1.5.1",
      "scope": "required",
      "hashes": [
        {
          "alg": "SHA-256",
          "content": "9997105075505105a83d75edb9ff72b845cab9d915dacc75134e9469d296a602"
        }
      ],
      "purl": "pkg:golang/github.com/fsnotify/fsnotify@v1.5.1",
      "externalReferences": [
        {
          "url": "https://github.com/fsnotify/fsnotify",
          "type": "vcs"
        }
      ]
    },
    {
      "type": "library",
      "bom-ref": "pkg:golang/github.com/gin-contrib/pprof@v1.3.0",
      "name": "github.com/gin-contrib/pprof",
      "version": "v1.3.0",
      "scope": "required",
      "hashes": [
        {
          "alg": "SHA-256",
          "content": "1bd78ae879db912a8364161bcc6e30ae30ac0387be72f6001d4670e96f96f4ad"
        }
      ],
      "purl": "pkg:golang/github.com/gin-contrib/pprof@v1.3.0",
      "externalReferences": [
        {
          "url": "https://github.com/gin-contrib/pprof",
          "type": "vcs"
        }
      ]
    },
    {
      "type": "library",
      "bom-ref": "pkg:golang/github.com/gin-contrib/sse@v0.1.0",
      "name": "github.com/gin-contrib/sse",
      "version": "v0.1.0",
      "scope": "required",
      "hashes": [
        {
          "alg": "SHA-256",
          "content": "63fca5ffe60d3bc1994a30218ccb12b8bb76f6e5911477476146f9958395f6a1"
        }
      ],
      "purl": "pkg:golang/github.com/gin-contrib/sse@v0.1.0",
      "externalReferences": [
        {
          "url": "https://github.com/gin-contrib/sse",
          "type": "vcs"
        }
      ]
    },
    {
      "type": "library",
      "bom-ref": "pkg:golang/github.com/gin-gonic/gin@v1.7.4",
      "name": "github.com/gin-gonic/gin",
      "version": "v1.7.4",
      "scope": "required",
      "hashes": [
        {
          "alg": "SHA-256",
          "content": "4265195ebbc9f6a67719f5af43edb09d6ff578fad3109a8f28c604537943fc33"
        }
      ],
      "purl": "pkg:golang/github.com/gin-gonic/gin@v1.7.4",
      "externalReferences": [
        {
          "url": "https://github.com/gin-gonic/gin",
          "type": "vcs"
        }
      ]
    },
    {
      "type": "library",
      "bom-ref": "pkg:golang/github.com/go-ole/go-ole@v1.2.5",
      "name": "github.com/go-ole/go-ole",
      "version": "v1.2.5",
      "scope": "required",
      "hashes": [
        {
          "alg": "SHA-256",
          "content": "b78306079c440d9bd723ed2b3238ec7c1b03ef2020a7fb3d64390bd499dd5f06"
        }
      ],
      "purl": "pkg:golang/github.com/go-ole/go-ole@v1.2.5",
      "externalReferences": [
        {
          "url": "https://github.com/go-ole/go-ole",
          "type": "vcs"
        }
      ]
    },
    {
      "type": "library",
      "bom-ref": "pkg:golang/github.com/go-openapi/jsonpointer@v0.19.5",
      "name": "github.com/go-openapi/jsonpointer",
      "version": "v0.19.5",
      "scope": "required",
      "hashes": [
        {
          "alg": "SHA-256",
          "content": "819afe088601c94aa372078b5e742eda01d8402f68ef71b65d478e1581080ae6"
        }
      ],
      "purl": "pkg:golang/github.com/go-openapi/jsonpointer@v0.19.5",
      "externalReferences": [
        {
          "url": "https://github.com/go-openapi/jsonpointer",
          "type": "vcs"
        }
      ]
    },
    {
      "type": "library",
      "bom-ref": "pkg:golang/github.com/go-openapi/jsonreference@v0.19.5",
      "name": "github.com/go-openapi/jsonreference",
      "version": "v0.19.5",
      "scope": "required",
      "hashes": [
        {
          "alg": "SHA-256",
          "content": "d5624fff08b83a3078895f0a55b1fbdeb41aa226a526baaff208ad64bc462ed3"
        }
      ],
      "purl": "pkg:golang/github.com/go-openapi/jsonreference@v0.19.5",
      "externalReferences": [
        {
          "url": "https://github.com/go-openapi/jsonreference",
          "type": "vcs"
        }
      ]
    },
    {
      "type": "library",
      "bom-ref": "pkg:golang/github.com/go-openapi/spec@v0.20.3",
      "name": "github.com/go-openapi/spec",
      "version": "v0.20.3",
      "scope": "required",
      "hashes": [
        {
          "alg": "SHA-256",
          "content": "b87f5143abddc8f4acda94b2f5f2fc40fb290c5d8030830fb662b97284928ed4"
        }
      ],
      "purl": "pkg:golang/github.com/go-openapi/spec@v0.20.3",
      "externalReferences": [
        {
          "url": "https://github.com/go-openapi/spec",
          "type": "vcs"
        }
      ]
    },
    {
      "type": "library",
      "bom-ref": "pkg:golang/github.com/go-openapi/swag@v0.19.14",
      "name": "github.com/go-openapi/swag",
      "version": "v0.19.14",
      "scope": "required",
      "hashes": [
        {
          "alg": "SHA-256",
          "content": "826def38e5df8aec398bda7937dc49bdf8efba87e9caf2c0f56afa41f2b91678"
        }
      ],
      "purl": "pkg:golang/github.com/go-openapi/swag@v0.19.14",
      "externalReferences": [
        {
          "url": "https://github.com/go-openapi/swag",
          "type": "vcs"
        }
      ]
    },
    {
      "type": "library",
      "bom-ref": "pkg:golang/github.com/go-playground/locales@v0.14.0",
      "name": "github.com/go-playground/locales",
      "version": "v0.14.0",
      "scope": "required",
      "hashes": [
        {
          "alg": "SHA-256",
          "content": "bb9d2cdf6de3b551ae80a95c61ecb30b47ad0f51e27cc8ea989a9bf16ba07d45"
        }
      ],
      "purl": "pkg:golang/github.com/go-playground/locales@v0.14.0",
      "externalReferences": [
        {
          "url": "https://github.com/go-playground/locales",
          "type": "vcs"
        }
      ]
    },
    {
      "type": "library",
      "bom-ref": "pkg:golang/github.com/go-playground/universal-translator@v0.18.0",
      "name": "github.com/go-playground/universal-translator",
      "version": "v0.18.0",
      "scope": "required",
      "hashes": [
        {
          "alg": "SHA-256",
          "content": "f36772cbaa783ae26ae3f081c8534e9ff8d8ae744f02b1f001c98ba09671ca1a"
        }
      ],
      "purl": "pkg:golang/github.com/go-playground/universal-translator@v0.18.0",
      "externalReferences": [
        {
          "url": "https://github.com/go-playground/universal-translator",
          "type": "vcs"
        }
      ]
    },
    {
      "type": "library",
      "bom-ref": "pkg:golang/github.com/go-playground/validator/v10@v10.9.0",
      "name": "github.com/go-playground/validator/v10",
      "version": "v10.9.0",
      "scope": "required",
      "hashes": [
        {
          "alg": "SHA-256",
          "content": "3604ed98de7c0f49bcf94bb1b58986ced04907b5673e08e3db6d48d501dc8b60"
        }
      ],
      "purl": "pkg:golang/github.com/go-playground/validator/v10@v10.9.0",
      "externalReferences": [
        {
          "url": "https://github.com/go-playground/validator",
          "type": "vcs"
        }
      ]
    },
    {
      "type": "library",
      "bom-ref": "pkg:golang/github.com/go-redis/redis/v7@v7.4.1",
      "name": "github.com/go-redis/redis/v7",
      "version": "v7.4.1",
      "scope": "required",
      "hashes": [
        {
          "alg": "SHA-256",
          "content": "3c04af7f7ea0c94a6bdb374e512ffd66a73cd066ccfbd043ca22522430cead32"
        }
      ],
      "purl": "pkg:golang/github.com/go-redis/redis/v7@v7.4.1",
      "externalReferences": [
        {
          "url": "https://github.com/go-redis/redis",
          "type": "vcs"
        }
      ]
    },
    {
      "type": "library",
      "bom-ref": "pkg:golang/github.com/go-sql-driver/mysql@v1.6.0",
      "name": "github.com/go-sql-driver/mysql",
      "version": "v1.6.0",
      "scope": "required",
      "hashes": [
        {
          "alg": "SHA-256",
          "content": "0424e1e1328d51898e98c51c437222a73179a6b8a0ca54bb5d78c491f087b8e1"
        }
      ],
      "purl": "pkg:golang/github.com/go-sql-driver/mysql@v1.6.0",
      "externalReferences": [
        {
          "url": "https://github.com/go-sql-driver/mysql",
          "type": "vcs"
        }
      ]
    },
    {
      "type": "library",
      "bom-ref": "pkg:golang/github.com/golang/protobuf@v1.5.2",
      "name": "github.com/golang/protobuf",
      "version": "v1.5.2",
      "scope": "required",
      "hashes": [
        {
          "alg": "SHA-256",
          "content": "44e3ca04d15f4203943227c7c8ff8a61bbe98db76814db3e68aec35e58e2d13c"
        }
      ],
      "purl": "pkg:golang/github.com/golang/protobuf@v1.5.2",
      "externalReferences": [
        {
          "url": "https://github.com/golang/protobuf",
          "type": "vcs"
        }
      ]
    },
    {
      "type": "library",
      "bom-ref": "pkg:golang/github.com/gorilla/websocket@v1.4.2",
      "name": "github.com/gorilla/websocket",
      "version": "v1.4.2",
      "scope": "required",
      "hashes": [
        {
          "alg": "SHA-256",
          "content": "fbf4cc69361ce10162b4a271b10ed8c9edf90e45af91d2dcbc62aa33ec7451f7"
        }
      ],
      "purl": "pkg:golang/github.com/gorilla/websocket@v1.4.2",
      "externalReferences": [
        {
          "url": "https://github.com/gorilla/websocket",
          "type": "vcs"
        }
      ]
    },
    {
      "type": "library",
      "bom-ref": "pkg:golang/github.com/hashicorp/golang-lru@v0.5.1",
      "name": "github.com/hashicorp/golang-lru",
      "version": "v0.5.1",
      "scope": "required",
      "hashes": [
        {
          "alg": "SHA-256",
          "content": "d2111104c244d5e8ad88b92286b32f455058024a47cdcfc9dd074337e7407205"
        }
      ],
      "purl": "pkg:golang/github.com/hashicorp/golang-lru@v0.5.1",
      "externalReferences": [
        {
          "url": "https://github.com/hashicorp/golang-lru",
          "type": "vcs"
        }
      ]
    },
    {
      "type": "library",
      "bom-ref": "pkg:golang/github.com/hashicorp/hcl@v1.0.0",
      "name": "github.com/hashicorp/hcl",
      "version": "v1.0.0",
      "scope": "required",
      "hashes": [
        {
          "alg": "SHA-256",
          "content": "d009e5ce3a62e2f11ab1378d167da62c98134b0b74fbab1fb224c6f2a7161b1e"
        }
      ],
      "purl": "pkg:golang/github.com/hashicorp/hcl@v1.0.0",
      "externalReferences": [
        {
          "url": "https://github.com/hashicorp/hcl",
          "type": "vcs"
        }
      ]
    },
    {
      "type": "library",
      "bom-ref": "pkg:golang/github.com/jakecoffman/cron@v0.0.0-20190106200828-7e2009c226a5",
      "name": "github.com/jakecoffman/cron",
      "version": "v0.0.0-20190106200828-7e2009c226a5",
      "scope": "required",
      "hashes": [
        {
          "alg": "SHA-256",
          "content": "902be6dc6deef9e4d16e37cb3f27ec7f39c9b6b69811f65eaff52f43a09a4212"
        }
      ],
      "purl": "pkg:golang/github.com/jakecoffman/cron@v0.0.0-20190106200828-7e2009c226a5",
      "externalReferences": [
        {
          "url": "https://github.com/jakecoffman/cron",
          "type": "vcs"
        }
      ]
    },
    {
      "type": "library",
      "bom-ref": "pkg:golang/github.com/jinzhu/gorm@v1.9.16",
      "name": "github.com/jinzhu/gorm",
      "version": "v1.9.16",
      "scope": "required",
      "hashes": [
        {
          "alg": "SHA-256",
          "content": "f88c888cf10004a469b2efc5f0ebc33f2f5fc90960b20da5b8c5766481f98b9a"
        }
      ],
      "purl": "pkg:golang/github.com/jinzhu/gorm@v1.9.16",
      "externalReferences": [
        {
          "url": "https://github.com/jinzhu/gorm",
          "type": "vcs"
        }
      ]
    },
    {
      "type": "library",
      "bom-ref": "pkg:golang/github.com/jinzhu/inflection@v1.0.0",
      "name": "github.com/jinzhu/inflection",
      "version": "v1.0.0",
      "scope": "required",
      "hashes": [
        {
          "alg": "SHA-256",
          "content": "2b7d7b16acee85673c62f4959453020946f7e8efd2f4c08a44323b42444a0ff1"
        }
      ],
      "purl": "pkg:golang/github.com/jinzhu/inflection@v1.0.0",
      "externalReferences": [
        {
          "url": "https://github.com/jinzhu/inflection",
          "type": "vcs"
        }
      ]
    },
    {
      "type": "library",
      "bom-ref": "pkg:golang/github.com/jinzhu/now@v1.1.2",
      "name": "github.com/jinzhu/now",
      "version": "v1.1.2",
      "scope": "required",
      "hashes": [
        {
          "alg": "SHA-256",
          "content": "7952a07c8772f5beb36d604c805a5f0cfa003227f04996a053d1e6114eb38222"
        }
      ],
      "purl": "pkg:golang/github.com/jinzhu/now@v1.1.2",
      "externalReferences": [
        {
          "url": "https://github.com/jinzhu/now",
          "type": "vcs"
        }
      ]
    },
    {
      "type": "library",
      "bom-ref": "pkg:golang/github.com/josharian/intern@v1.0.0",
      "name": "github.com/josharian/intern",
      "version": "v1.0.0",
      "scope": "required",
      "hashes": [
        {
          "alg": "SHA-256",
          "content": "be54b8cf9e2849d8e6d1b823462808f86d47a45fad23ef6b1392cbcce83c1e66"
        }
      ],
      "purl": "pkg:golang/github.com/josharian/intern@v1.0.0",
      "externalReferences": [
        {
          "url": "https://github.com/josharian/intern",
          "type": "vcs"
        }
      ]
    },
    {
      "type": "library",
      "bom-ref": "pkg:golang/github.com/json-iterator/go@v1.1.11",
      "name": "github.com/json-iterator/go",
      "version": "v1.1.11",
      "scope": "required",
      "hashes": [
        {
          "alg": "SHA-256",
          "content": "b955005e11764e8f1c6f0ff7c4dde9c63ea493b4d82acf7c348ad3a8f94c5804"
        }
      ],
      "purl": "pkg:golang/github.com/json-iterator/go@v1.1.11",
      "externalReferences": [
        {
          "url": "https://github.com/json-iterator/go",
          "type": "vcs"
        }
      ]
    },
    {
      "type": "library",
      "bom-ref": "pkg:golang/github.com/leodido/go-urn@v1.2.1",
      "name": "github.com/leodido/go-urn",
      "version": "v1.2.1",
      "scope": "required",
      "hashes": [
        {
          "alg": "SHA-256",
          "content": "06aa406800aecd54a08bf54bcc6648a1b4f6cf8bf9de98e8b3235df58bfa9ffc"
        }
      ],
      "purl": "pkg:golang/github.com/leodido/go-urn@v1.2.1",
      "externalReferences": [
        {
          "url": "https://github.com/leodido/go-urn",
          "type": "vcs"
        }
      ]
    },
    {
      "type": "library",
      "bom-ref": "pkg:golang/github.com/magiconair/properties@v1.8.5",
      "name": "github.com/magiconair/properties",
      "version": "v1.8.5",
      "scope": "required",
      "hashes": [
        {
          "alg": "SHA-256",
          "content": "6fa909b3e1263c53181a4a30f46894c82c8ebc8c187ad609ddf49a59a93f1a5b"
        }
      ],
      "purl": "pkg:golang/github.com/magiconair/properties@v1.8.5",
      "externalReferences": [
        {
          "url": "https://github.com/magiconair/properties",
          "type": "vcs"
        }
      ]
    },
    {
      "type": "library",
      "bom-ref": "pkg:golang/github.com/mailru/easyjson@v0.7.6",
      "name": "github.com/mailru/easyjson",
      "version": "v0.7.6",
      "scope": "required",
      "hashes": [
        {
          "alg": "SHA-256",
          "content": "f324c85676600a888cd5382aa1e4e5f8b7d4e4983aff12f74211909e298b6270"
        }
      ],
      "purl": "pkg:golang/github.com/mailru/easyjson@v0.7.6",
      "externalReferences": [
        {
          "url": "https://github.com/mailru/easyjson",
          "type": "vcs"
        }
      ]
    },
    {
      "type": "library",
      "bom-ref": "pkg:golang/github.com/mattn/go-isatty@v0.0.12",
      "name": "github.com/mattn/go-isatty",
      "version": "v0.0.12",
      "scope": "required",
      "hashes": [
        {
          "alg": "SHA-256",
          "content": "c2ecac461143cf2c6012631fe718ef27633d759a1601734daf92d2052eee1d76"
        }
      ],
      "purl": "pkg:golang/github.com/mattn/go-isatty@v0.0.12",
      "externalReferences": [
        {
          "url": "https://github.com/mattn/go-isatty",
          "type": "vcs"
        }
      ]
    },
    {
      "type": "library",
      "bom-ref": "pkg:golang/github.com/matttproud/golang_protobuf_extensions@v1.0.1",
      "name": "github.com/matttproud/golang_protobuf_extensions",
      "version": "v1.0.1",
      "scope": "required",
      "hashes": [
        {
          "alg": "SHA-256",
          "content": "e21a7d8e41f184c1e4aa4ac1dc8c748de812e6cc7f464a80465b1667aa48c225"
        }
      ],
      "purl": "pkg:golang/github.com/matttproud/golang_protobuf_extensions@v1.0.1",
      "externalReferences": [
        {
          "url": "https://github.com/matttproud/golang_protobuf_extensions",
          "type": "vcs"
        }
      ]
    },
    {
      "type": "library",
      "bom-ref": "pkg:golang/github.com/mitchellh/mapstructure@v1.4.2",
      "name": "github.com/mitchellh/mapstructure",
      "version": "v1.4.2",
      "scope": "required",
      "hashes": [
        {
          "alg": "SHA-256",
          "content": "ea1ec0434ca14dc22c9859a7030425b3be63a761b3b38881f16ee98cc3beaeaa"
        }
      ],
      "purl": "pkg:golang/github.com/mitchellh/mapstructure@v1.4.2",
      "externalReferences": [
        {
          "url": "https://github.com/mitchellh/mapstructure",
          "type": "vcs"
        }
      ]
    },
    {
      "type": "library",
      "bom-ref": "pkg:golang/github.com/modern-go/concurrent@v0.0.0-20180306012644-bacd9c7ef1dd",
      "name": "github.com/modern-go/concurrent",
      "version": "v0.0.0-20180306012644-bacd9c7ef1dd",
      "scope": "required",
      "hashes": [
        {
          "alg": "SHA-256",
          "content": "4d12da67d703ff0f0f561f779ec3d76b556b43a8e5c0be6837c975e1095c35f8"
        }
      ],
      "purl": "pkg:golang/github.com/modern-go/concurrent@v0.0.0-20180306012644-bacd9c7ef1dd",
      "externalReferences": [
        {
          "url": "https://github.com/modern-go/concurrent",
          "type": "vcs"
        }
      ]
    },
    {
      "type": "library",
      "bom-ref": "pkg:golang/github.com/modern-go/reflect2@v1.0.1",
      "name": "github.com/modern-go/reflect2",
      "version": "v1.0.1",
      "scope": "required",
      "hashes": [
        {
          "alg": "SHA-256",
          "content": "f5fe35dacfba4666172d665213355580f18aec2d8fa611e3e5126bbdfc7d0162"
        }
      ],
      "purl": "pkg:golang/github.com/modern-go/reflect2@v1.0.1",
      "externalReferences": [
        {
          "url": "https://github.com/modern-go/reflect2",
          "type": "vcs"
        }
      ]
    },
    {
      "type": "library",
      "bom-ref": "pkg:golang/github.com/pelletier/go-toml@v1.9.4",
      "name": "github.com/pelletier/go-toml",
      "version": "v1.9.4",
      "scope": "required",
      "hashes": [
        {
          "alg": "SHA-256",
          "content": "b6310d17a31f64083c7b8666653796696893daf5edb283bafa2b8e8c58440b03"
        }
      ],
      "purl": "pkg:golang/github.com/pelletier/go-toml@v1.9.4",
      "externalReferences": [
        {
          "url": "https://github.com/pelletier/go-toml",
          "type": "vcs"
        }
      ]
    },
    {
      "type": "library",
      "bom-ref": "pkg:golang/github.com/pkg/errors@v0.9.1",
      "name": "github.com/pkg/errors",
      "version": "v0.9.1",
      "scope": "required",
      "hashes": [
        {
          "alg": "SHA-256",
          "content": "14404bc75cd2db5e28c298f2eeab017a2c5b51192e850030acae54c0b193c2de"
        }
      ],
      "purl": "pkg:golang/github.com/pkg/errors@v0.9.1",
      "externalReferences": [
        {
          "url": "https://github.com/pkg/errors",
          "type": "vcs"
        }
      ]
    },
    {
      "type": "library",
      "bom-ref": "pkg:golang/github.com/prometheus/client_golang@v1.11.0",
      "name": "github.com/prometheus/client_golang",
      "version": "v1.11.0",
      "scope": "required",
      "hashes": [
        {
          "alg": "SHA-256",
          "content": "1cd90b3801103080effcafb4e2bba4acbc7a721ee6b124707f7fd20121401ad4"
        }
      ],
      "purl": "pkg:golang/github.com/prometheus/client_golang@v1.11.0",
      "externalReferences": [
        {
          "url": "https://github.com/prometheus/client_golang",
          "type": "vcs"
        }
      ]
    },
    {
      "type": "library",
      "bom-ref": "pkg:golang/github.com/prometheus/client_model@v0.2.0",
      "name": "github.com/prometheus/client_model",
      "version": "v0.2.0",
      "scope": "required",
      "hashes": [
        {
          "alg": "SHA-256",
          "content": "baae61d1df86bb18972c92cd001320a76a945833e22ef802cf3d9d511fbf5bf3"
        }
      ],
      "purl": "pkg:golang/github.com/prometheus/client_model@v0.2.0",
      "externalReferences": [
        {
          "url": "https://github.com/prometheus/client_model",
          "type": "vcs"
        }
      ]
    },
    {
      "type": "library",
      "bom-ref": "pkg:golang/github.com/prometheus/common@v0.26.0",
      "name": "github.com/prometheus/common",
      "version": "v0.26.0",
      "scope": "required",
      "hashes": [
        {
          "alg": "SHA-256",
          "content": "88c0244b64c3a0d5a728cf8aa299f1ffcb67112b487e9600d2eaf4c50cf384c4"
        }
      ],
      "purl": "pkg:golang/github.com/prometheus/common@v0.26.0",
      "externalReferences": [
        {
          "url": "https://github.com/prometheus/common",
          "type": "vcs"
        }
      ]
    },
    {
      "type": "library",
      "bom-ref": "pkg:golang/github.com/prometheus/procfs@v0.6.0",
      "name": "github.com/prometheus/procfs",
      "version": "v0.6.0",
      "scope": "required",
      "hashes": [
        {
          "alg": "SHA-256",
          "content": "9b1cb82f68cfeaa3289ea9aaf9a4ed3b1d627d5594806fd30269ed81b877c6fe"
        }
      ],
      "purl": "pkg:golang/github.com/prometheus/procfs@v0.6.0",
      "externalReferences": [
        {
          "url": "https://github.com/prometheus/procfs",
          "type": "vcs"
        }
      ]
    },
    {
      "type": "library",
      "bom-ref": "pkg:golang/github.com/rs/cors@v1.8.0",
      "name": "github.com/rs/cors",
      "version": "v1.8.0",
      "scope": "required",
      "hashes": [
        {
          "alg": "SHA-256",
          "content": "3f628ccdc170acfa128e417558b44fb29dd430bcaa97c2f8bfd850a5578ae6ca"
        }
      ],
      "purl": "pkg:golang/github.com/rs/cors@v1.8.0",
      "externalReferences": [
        {
          "url": "https://github.com/rs/cors",
          "type": "vcs"
        }
      ]
    },
    {
      "type": "library",
      "bom-ref": "pkg:golang/github.com/shirou/gopsutil@v3.21.10",
      "name": "github.com/shirou/gopsutil",
      "version": "v3.21.10",
      "scope": "required",
      "hashes": [
        {
          "alg": "SHA-256",
          "content": "4476926403c49bc86b7cddcfb8faff86bef8fc8c18d8853f26c28999866bca15"
        }
      ],
      "purl": "pkg:golang/github.com/shirou/gopsutil@v3.21.10",
      "externalReferences": [
        {
          "url": "https://github.com/shirou/gopsutil",
          "type": "vcs"
        }
      ]
    },
    {
      "type": "library",
      "bom-ref": "pkg:golang/github.com/speps/go-hashids@v1.0.0",
      "name": "github.com/speps/go-hashids",
      "version": "v1.0.0",
      "scope": "required",
      "hashes": [
        {
          "alg": "SHA-256",
          "content": "8dd142d3b3eb13144ce0e83912fe38d754e8c7be5a169902efb3659aeb5a74d2"
        }
      ],
      "purl": "pkg:golang/github.com/speps/go-hashids@v1.0.0",
      "externalReferences": [
        {
          "url": "https://github.com/speps/go-hashids",
          "type": "vcs"
        }
      ]
    },
    {
      "type": "library",
      "bom-ref": "pkg:golang/github.com/spf13/afero@v1.6.0",
      "name": "github.com/spf13/afero",
      "version": "v1.6.0",
      "scope": "required",
      "hashes": [
        {
          "alg": "SHA-256",
          "content": "c686b1dac2760d3f12f31036a5a3c58c309270235e5ac83be551b40cb46b7a26"
        }
      ],
      "purl": "pkg:golang/github.com/spf13/afero@v1.6.0",
      "externalReferences": [
        {
          "url": "https://github.com/spf13/afero",
          "type": "vcs"
        }
      ]
    },
    {
      "type": "library",
      "bom-ref": "pkg:golang/github.com/spf13/cast@v1.4.1",
      "name": "github.com/spf13/cast",
      "version": "v1.4.1",
      "scope": "required",
      "hashes": [
        {
          "alg": "SHA-256",
          "content": "b348737be274d7de997c4313b3cd0ded4945b74043b90ed0f890e71e231629d0"
        }
      ],
      "purl": "pkg:golang/github.com/spf13/cast@v1.4.1",
      "externalReferences": [
        {
          "url": "https://github.com/spf13/cast",
          "type": "vcs"
        }
      ]
    },
    {
      "type": "library",
      "bom-ref": "pkg:golang/github.com/spf13/jwalterweatherman@v1.1.0",
      "name": "github.com/spf13/jwalterweatherman",
      "version": "v1.1.0",
      "scope": "required",
      "hashes": [
        {
          "alg": "SHA-256",
          "content": "b9eeafa02e5b47917c6312394baee3f62e7cd8553842fa366e6aa7a8c6000c59"
        }
      ],
      "purl": "pkg:golang/github.com/spf13/jwalterweatherman@v1.1.0",
      "externalReferences": [
        {
          "url": "https://github.com/spf13/jwalterweatherman",
          "type": "vcs"
        }
      ]
    },
    {
      "type": "library",
      "bom-ref": "pkg:golang/github.com/spf13/pflag@v1.0.5",
      "name": "github.com/spf13/pflag",
      "version": "v1.0.5",
      "scope": "required",
      "hashes": [
        {
          "alg": "SHA-256",
          "content": "8b2f951543823f56bef3216da3f76b836089e6ed3246807b7d9c370cabff2570"
        }
      ],
      "purl": "pkg:golang/github.com/spf13/pflag@v1.0.5",
      "externalReferences": [
        {
          "url": "https://github.com/spf13/pflag",
          "type": "vcs"
        }
      ]
    },
    {
      "type": "library",
      "bom-ref": "pkg:golang/github.com/spf13/viper@v1.9.0",
      "name": "github.com/spf13/viper",
      "version": "v1.9.0",
      "scope": "required",
      "hashes": [
        {
          "alg": "SHA-256",
          "content": "c91e845e34e9d32d1c2cdf0e660d4245998e05d23cf14706921832261bba9d99"
        }
      ],
      "purl": "pkg:golang/github.com/spf13/viper@v1.9.0",
      "externalReferences": [
        {
          "url": "https://github.com/spf13/viper",
          "type": "vcs"
        }
      ]
    },
    {
      "type": "library",
      "bom-ref": "pkg:golang/github.com/subosito/gotenv@v1.2.0",
      "name": "github.com/subosito/gotenv",
      "version": "v1.2.0",
      "scope": "required",
      "hashes": [
        {
          "alg": "SHA-256",
          "content": "4a5af547d1f102510a79f82ae639fd53e0e711394851ae877e01338f483977bb"
        }
      ],
      "purl": "pkg:golang/github.com/subosito/gotenv@v1.2.0",
      "externalReferences": [
        {
          "url": "https://github.com/subosito/gotenv",
          "type": "vcs"
        }
      ]
    },
    {
      "type": "library",
      "bom-ref": "pkg:golang/github.com/swaggo/gin-swagger@v1.3.3",
      "name": "github.com/swaggo/gin-swagger",
      "version": "v1.3.3",
      "scope": "required",
      "hashes": [
        {
          "alg": "SHA-256",
          "content": "5c7c9899e355146e4f6f25871b88d7b713a6d8fe248996a90c25acc830e243f2"
        }
      ],
      "purl": "pkg:golang/github.com/swaggo/gin-swagger@v1.3.3",
      "externalReferences": [
        {
          "url": "https://github.com/swaggo/gin-swagger",
          "type": "vcs"
        }
      ]
    },
    {
      "type": "library",
      "bom-ref": "pkg:golang/github.com/swaggo/swag@v1.7.4",
      "name": "github.com/swaggo/swag",
      "version": "v1.7.4",
      "scope": "required",
      "hashes": [
        {
          "alg": "SHA-256",
          "content": "ba9fa2c72f323aa24a88572e84c824b98b85e319debee8671405d717c3927cd8"
        }
      ],
      "purl": "pkg:golang/github.com/swaggo/swag@v1.7.4",
      "externalReferences": [
        {
          "url": "https://github.com/swaggo/swag",
          "type": "vcs"
        }
      ]
    },
    {
      "type": "library",
      "bom-ref": "pkg:golang/github.com/tklauser/go-sysconf@v0.3.9",
      "name": "github.com/tklauser/go-sysconf",
      "version": "v0.3.9",
      "scope": "required",
      "hashes": [
        {
          "alg": "SHA-256",
          "content": "25e515740396861c55714e84aabfc04c51e05e4fe69a222d74a7893debf7bd3a"
        }
      ],
      "purl": "pkg:golang/github.com/tklauser/go-sysconf@v0.3.9",
      "externalReferences": [
        {
          "url": "https://github.com/tklauser/go-sysconf",
          "type": "vcs"
        }
      ]
    },
    {
      "type": "library",
      "bom-ref": "pkg:golang/github.com/tklauser/numcpus@v0.3.0",
      "name": "github.com/tklauser/numcpus",
      "version": "v0.3.0",
      "scope": "required",
      "hashes": [
        {
          "alg": "SHA-256",
          "content": "20bb9151006db2c827c70d175c88ca502e7a7e09ceac5a1043fe3e0de5366e24"
        }
      ],
      "purl": "pkg:golang/github.com/tklauser/numcpus@v0.3.0",
      "externalReferences": [
        {
          "url": "https://github.com/tklauser/numcpus",
          "type": "vcs"
        }
      ]
    },
    {
      "type": "library",
      "bom-ref": "pkg:golang/github.com/ugorji/go/codec@v1.1.7",
      "name": "github.com/ugorji/go/codec",
      "version": "v1.1.7",
      "scope": "required",
      "hashes": [
        {
          "alg": "SHA-256",
          "content": "d92bd0695675a2e62baca2b0a12936a7377803d7af94a25bf684cbf8e68b512b"
        }
      ],
      "purl": "pkg:golang/github.com/ugorji/go/codec@v1.1.7",
      "externalReferences": [
        {
          "url": "https://github.com/ugorji/go/codec",
          "type": "vcs"
        }
      ]
    },
    {
      "type": "library",
      "bom-ref": "pkg:golang/github.com/vektah/gqlparser/v2@v2.2.0",
      "name": "github.com/vektah/gqlparser/v2",
      "version": "v2.2.0",
      "scope": "required",
      "hashes": [
        {
          "alg": "SHA-256",
          "content": "6c0737b257a4000256eac6538b4eda1aad0eadf6828e3e23c40440682ee0d843"
        }
      ],
      "purl": "pkg:golang/github.com/vektah/gqlparser/v2@v2.2.0",
      "externalReferences": [
        {
          "url": "https://github.com/vektah/gqlparser",
          "type": "vcs"
        }
      ]
    },
    {
      "type": "library",
      "bom-ref": "pkg:golang/go.uber.org/atomic@v1.7.0",
      "name": "go.uber.org/atomic",
      "version": "v1.7.0",
      "scope": "required",
      "hashes": [
        {
          "alg": "SHA-256",
          "content": "00352a9991a02c30df6d22fd6663f1293c9b7281181e0a587c42cda0dfbb86cc"
        }
      ],
      "purl": "pkg:golang/go.uber.org/atomic@v1.7.0"
    },
    {
      "type": "library",
      "bom-ref": "pkg:golang/go.uber.org/multierr@v1.7.0",
      "name": "go.uber.org/multierr",
      "version": "v1.7.0",
      "scope": "required",
      "hashes": [
        {
          "alg": "SHA-256",
          "content": "cda88efeb9a01636e609775260959071dbce0acb6199d6877ebdc69b62b1e047"
        }
      ],
      "purl": "pkg:golang/go.uber.org/multierr@v1.7.0"
    },
    {
      "type": "library",
      "bom-ref": "pkg:golang/go.uber.org/zap@v1.19.1",
      "name": "go.uber.org/zap",
      "version": "v1.19.1",
      "scope": "required",
      "hashes": [
        {
          "alg": "SHA-256",
          "content": "b9ee351ce29dd6f194471ae678a22010b19bde33d6f433140c6b6c8a76e51f02"
        }
      ],
      "purl": "pkg:golang/go.uber.org/zap@v1.19.1"
    },
    {
      "type": "library",
      "bom-ref": "pkg:golang/golang.org/x/crypto@v0.0.0-20210817164053-32db794688a5",
      "name": "golang.org/x/crypto",
      "version": "v0.0.0-20210817164053-32db794688a5",
      "scope": "required",
      "hashes": [
        {
          "alg": "SHA-256",
          "content": "1d68ffc632077e3614e67557a53334b37f49f426cb9fb09ce5aec80b9af0b0c4"
        }
      ],
      "purl": "pkg:golang/golang.org/x/crypto@v0.0.0-20210817164053-32db794688a5"
    },
    {
      "type": "library",
      "bom-ref": "pkg:golang/golang.org/x/mod@v0.4.2",
      "name": "golang.org/x/mod",
      "version": "v0.4.2",
      "scope": "required",
      "hashes": [
        {
          "alg": "SHA-256",
          "content": "1b3f7ab0858adce6a556ffc8fea37280fe36cf2a0aa77c69b5154259114406fa"
        }
      ],
      "purl": "pkg:golang/golang.org/x/mod@v0.4.2"
    },
    {
      "type": "library",
      "bom-ref": "pkg:golang/golang.org/x/net@v0.0.0-20210805182204-aaa1db679c0d",
      "name": "golang.org/x/net",
      "version": "v0.0.0-20210805182204-aaa1db679c0d",
      "scope": "required",
      "hashes": [
        {
          "alg": "SHA-256",
          "content": "db470cc25d9f1c0ce424c100fbc278260a8141c406cdb8ac5e8df530879e9d72"
        }
      ],
      "purl": "pkg:golang/golang.org/x/net@v0.0.0-20210805182204-aaa1db679c0d"
    },
    {
      "type": "library",
      "bom-ref": "pkg:golang/golang.org/x/sys@v0.0.0-20210823070655-63515b42dcdf",
      "name": "golang.org/x/sys",
      "version": "v0.0.0-20210823070655-63515b42dcdf",
      "scope": "required",
      "hashes": [
        {
          "alg": "SHA-256",
          "content": "dae7290c299f925f0177f16c2ed883eb9dd67fde9c5b7eecfa21b1f77cecbb89"
        }
      ],
      "purl": "pkg:golang/golang.org/x/sys@v0.0.0-20210823070655-63515b42dcdf"
    },
    {
      "type": "library",
      "bom-ref": "pkg:golang/golang.org/x/text@v0.3.6",
      "name": "golang.org/x/text",
      "version": "v0.3.6",
      "scope": "required",
      "hashes": [
        {
          "alg": "SHA-256",
          "content": "691631371bfa886425c956999a4e998181036be260d7c0f179b3d2adde9b8353"
        }
      ],
      "purl": "pkg:golang/golang.org/x/text@v0.3.6"
    },
    {
      "type": "library",
      "bom-ref": "pkg:golang/golang.org/x/time@v0.0.0-20211116232009-f0f3c7e86c11",
      "name": "golang.org/x/time",
      "version": "v0.0.0-20211116232009-f0f3c7e86c11",
      "scope": "required",
      "hashes": [
        {
          "alg": "SHA-256",
          "content": "199a243487ae5649776991c972146baf5dd60aca25b34d8c2d4733d54f62b3a3"
        }
      ],
      "purl": "pkg:golang/golang.org/x/time@v0.0.0-20211116232009-f0f3c7e86c11"
    },
    {
      "type": "library",
      "bom-ref": "pkg:golang/golang.org/x/tools@v0.1.7",
      "name": "golang.org/x/tools",
      "version": "v0.1.7",
      "scope": "required",
      "hashes": [
        {
          "alg": "SHA-256",
          "content": "ea3f0281a9ed0b2df273c24606a9032cc296a99d110d4da0d4756069ca231964"
        }
      ],
      "purl": "pkg:golang/golang.org/x/tools@v0.1.7"
    },
    {
      "type": "library",
      "bom-ref": "pkg:golang/golang.org/x/xerrors@v0.0.0-20200804184101-5ec99f83aff1",
      "name": "golang.org/x/xerrors",
      "version": "v0.0.0-20200804184101-5ec99f83aff1",
      "scope": "required",
      "hashes": [
        {
          "alg": "SHA-256",
          "content": "828d5b2bf0ff045655d88f1c21077534a119fb4a304931b57c34dc8b822a15c1"
        }
      ],
      "purl": "pkg:golang/golang.org/x/xerrors@v0.0.0-20200804184101-5ec99f83aff1"
    },
    {
      "type": "library",
      "bom-ref": "pkg:golang/google.golang.org/protobuf@v1.27.1",
      "name": "google.golang.org/protobuf",
      "version": "v1.27.1",
      "scope": "required",
      "hashes": [
        {
          "alg": "SHA-256",
          "content": "4a7a9b9c3c3557b46265c5cfc793047aa3efdacefd2fd8bb0495251bff91bab4"
        }
      ],
      "purl": "pkg:golang/google.golang.org/protobuf@v1.27.1"
    },
    {
      "type": "library",
      "bom-ref": "pkg:golang/gopkg.in/alexcesaro/quotedprintable.v3@v3.0.0-20150716171945-2caba252f4dc",
      "name": "gopkg.in/alexcesaro/quotedprintable.v3",
      "version": "v3.0.0-20150716171945-2caba252f4dc",
      "scope": "required",
      "hashes": [
        {
          "alg": "SHA-256",
          "content": "da018a944dbe6ac355f66ef1af2c25dfa618367046e59434aff04e3b1a8fa669"
        }
      ],
      "purl": "pkg:golang/gopkg.in/alexcesaro/quotedprintable.v3@v3.0.0-20150716171945-2caba252f4dc",
      "externalReferences": [
        {
          "url": "https://github.com/alexcesaro/quotedprintable",
          "type": "vcs"
        }
      ]
    },
    {
      "type": "library",
      "bom-ref": "pkg:golang/gopkg.in/gomail.v2@v2.0.0-20160411212932-81ebce5c23df",
      "name": "gopkg.in/gomail.v2",
      "version": "v2.0.0-20160411212932-81ebce5c23df",
      "scope": "required",
      "hashes": [
        {
          "alg": "SHA-256",
          "content": "9fb5aa0aea8eb826cdafad7b457398d005915f18301323e9db3fa9d3e86032e1"
        }
      ],
      "purl": "pkg:golang/gopkg.in/gomail.v2@v2.0.0-20160411212932-81ebce5c23df",
      "externalReferences": [
        {
          "url": "https://github.com/go-gomail/gomail",
          "type": "vcs"
        }
      ]
    },
    {
      "type": "library",
      "bom-ref": "pkg:golang/gopkg.in/ini.v1@v1.63.2",
      "name": "gopkg.in/ini.v1",
      "version": "v1.63.2",
      "scope": "required",
      "hashes": [
        {
          "alg": "SHA-256",
          "content": "b462bf0b2060ed23336fad2f3f5334def359dd50eedf01902709fb4b18bdaf77"
        }
      ],
      "purl": "pkg:golang/gopkg.in/ini.v1@v1.63.2",
      "externalReferences": [
        {
          "url": "https://github.com/go-ini/ini",
          "type": "vcs"
        }
      ]
    },
    {
      "type": "library",
      "bom-ref": "pkg:golang/gopkg.in/natefinch/lumberjack.v2@v2.0.0",
      "name": "gopkg.in/natefinch/lumberjack.v2",
      "version": "v2.0.0",
      "scope": "required",
      "hashes": [
        {
          "alg": "SHA-256",
          "content": "d4b734ecaafba98e14d983e8b818e908bc698b2c48568c6a5e09172e49c0384f"
        }
      ],
      "purl": "pkg:golang/gopkg.in/natefinch/lumberjack.v2@v2.0.0",
      "externalReferences": [
        {
          "url": "https://github.com/natefinch/lumberjack",
          "type": "vcs"
        }
      ]
    },
    {
      "type": "library",
      "bom-ref": "pkg:golang/gopkg.in/yaml.v2@v2.4.0",
      "name": "gopkg.in/yaml.v2",
      "version": "v2.4.0",
      "scope": "required",
      "hashes": [
        {
          "alg": "SHA-256",
          "content": "0fcc60c04098ec262fc7e6369f8b01cfddc99fd251bf1762cb2a3c0937ee29a6"
        }
      ],
      "purl": "pkg:golang/gopkg.in/yaml.v2@v2.4.0",
      "externalReferences": [
        {
          "url": "https://github.com/go-yaml/yaml",
          "type": "vcs"
        }
      ]
    },
    {
      "type": "library",
      "bom-ref": "pkg:golang/gorm.io/driver/mysql@v1.2.0",
      "name": "gorm.io/driver/mysql",
      "version": "v1.2.0",
      "scope": "required",
      "hashes": [
        {
          "alg": "SHA-256",
          "content": "97cfbd5708e3cb3124c343cd3c13abd891e12ce19593b5c49e5e61938d9b72fb"
        }
      ],
      "purl": "pkg:golang/gorm.io/driver/mysql@v1.2.0"
    },
    {
      "type": "library",
      "bom-ref": "pkg:golang/gorm.io/gorm@v1.22.3",
      "name": "gorm.io/gorm",
      "version": "v1.22.3",
      "scope": "required",
      "hashes": [
        {
          "alg": "SHA-256",
          "content": "fc94bacfe192b4442f24d5b7b75153c09c06fe067e03b72b15d46ab6f1b97a10"
        }
      ],
      "purl": "pkg:golang/gorm.io/gorm@v1.22.3"
    },
    {
      "type": "library",
      "bom-ref": "pkg:golang/github.com/xinliangnote/go-gin-api",
      "group": "github.com/xinliangnote",
      "name": "go-gin-api",
      "version": "",
      "description": "",
      "scope": "required",
      "purl": "pkg:golang/github.com/xinliangnote/go-gin-api"
    },
    {
      "type": "library",
      "bom-ref": "pkg:golang/github.com/shirou/gopsutil@v3.21.10+incompatible",
      "group": "github.com/shirou",
      "name": "gopsutil",
      "version": "v3.21.10+incompatible",
      "description": "",
      "scope": "optional",
      "hashes": [
        {
          "alg": "SHA-256",
          "content": "e5be2fea17b832d30ec0c952d1350c4eed8f717520f3e135942ede0b750efd10"
        }
      ],
      "purl": "pkg:golang/github.com/shirou/gopsutil@v3.21.10+incompatible"
    }
  ],
  "dependencies": [
    {
      "ref": "pkg:golang/github.com/99designs/gqlgen@v0.14.0",
      "dependsOn": [
        "pkg:golang/github.com/agnivade/levenshtein@v1.1.0",
        "pkg:golang/github.com/gorilla/websocket@v1.4.2",
        "pkg:golang/github.com/hashicorp/golang-lru@v0.5.1",
        "pkg:golang/github.com/mattn/go-isatty@v0.0.12",
        "pkg:golang/github.com/mitchellh/mapstructure@v1.4.2",
        "pkg:golang/github.com/pkg/errors@v0.9.1",
        "pkg:golang/github.com/rs/cors@v1.8.0",
        "pkg:golang/github.com/vektah/gqlparser/v2@v2.2.0",
        "pkg:golang/golang.org/x/tools@v0.1.7",
        "pkg:golang/gopkg.in/yaml.v2@v2.4.0"
      ]
    },
    {
      "ref": "pkg:golang/github.com/KyleBanks/depth@v1.2.1"
    },
    {
      "ref": "pkg:golang/github.com/PuerkitoBio/purell@v1.1.1"
    },
    {
      "ref": "pkg:golang/github.com/PuerkitoBio/urlesc@v0.0.0-20170810143723-de5bf2ad4578"
    },
    {
      "ref": "pkg:golang/github.com/StackExchange/wmi@v1.2.1",
      "dependsOn": [
        "pkg:golang/github.com/go-ole/go-ole@v1.2.5"
      ]
    },
    {
      "ref": "pkg:golang/github.com/agnivade/levenshtein@v1.1.0"
    },
    {
      "ref": "pkg:golang/github.com/beorn7/perks@v1.0.1"
    },
    {
      "ref": "pkg:golang/github.com/cespare/xxhash/v2@v2.1.1"
    },
    {
      "ref": "pkg:golang/github.com/dave/dst@v0.26.2",
      "dependsOn": [
        "pkg:golang/golang.org/x/tools@v0.1.7"
      ]
    },
    {
      "ref": "pkg:golang/github.com/fsnotify/fsnotify@v1.5.1",
      "dependsOn": [
        "pkg:golang/golang.org/x/sys@v0.0.0-20210823070655-63515b42dcdf"
      ]
    },
    {
      "ref": "pkg:golang/github.com/gin-contrib/pprof@v1.3.0",
      "dependsOn": [
        "pkg:golang/github.com/gin-gonic/gin@v1.7.4"
      ]
    },
    {
      "ref": "pkg:golang/github.com/gin-contrib/sse@v0.1.0"
    },
    {
      "ref": "pkg:golang/github.com/gin-gonic/gin@v1.7.4",
      "dependsOn": [
        "pkg:golang/github.com/gin-contrib/sse@v0.1.0",
        "pkg:golang/github.com/go-playground/validator/v10@v10.9.0",
        "pkg:golang/github.com/golang/protobuf@v1.5.2",
        "pkg:golang/github.com/json-iterator/go@v1.1.11",
        "pkg:golang/github.com/mattn/go-isatty@v0.0.12",
        "pkg:golang/github.com/ugorji/go/codec@v1.1.7",
        "pkg:golang/gopkg.in/yaml.v2@v2.4.0"
      ]
    },
    {
      "ref": "pkg:golang/github.com/go-ole/go-ole@v1.2.5",
      "dependsOn": [
        "pkg:golang/golang.org/x/sys@v0.0.0-20210823070655-63515b42dcdf"
      ]
    },
    {
      "ref": "pkg:golang/github.com/go-openapi/jsonpointer@v0.19.5",
      "dependsOn": [
        "pkg:golang/github.com/go-openapi/swag@v0.19.14",
        "pkg:golang/github.com/mailru/easyjson@v0.7.6"
      ]
    },
    {
      "ref": "pkg:golang/github.com/go-openapi/jsonreference@v0.19.5",
      "dependsOn": [
        "pkg:golang/github.com/PuerkitoBio/purell@v1.1.1",
        "pkg:golang/github.com/PuerkitoBio/urlesc@v0.0.0-20170810143723-de5bf2ad4578",
        "pkg:golang/github.com/go-openapi/jsonpointer@v0.19.5",
        "pkg:golang/golang.org/x/net@v0.0.0-20210805182204-aaa1db679c0d",
        "pkg:golang/golang.org/x/text@v0.3.6"
      ]
    },
    {
      "ref": "pkg:golang/github.com/go-openapi/spec@v0.20.3",
      "dependsOn": [
        "pkg:golang/github.com/go-openapi/jsonpointer@v0.19.5",
        "pkg:golang/github.com/go-openapi/jsonreference@v0.19.5",
        "pkg:golang/github.com/go-openapi/swag@v0.19.14",
        "pkg:golang/golang.org/x/net@v0.0.0-20210805182204-aaa1db679c0d",
        "pkg:golang/golang.org/x/text@v0.3.6",
        "pkg:golang/gopkg.in/yaml.v2@v2.4.0"
      ]
    },
    {
      "ref": "pkg:golang/github.com/go-openapi/swag@v0.19.14",
      "dependsOn": [
        "pkg:golang/github.com/mailru/easyjson@v0.7.6",
        "pkg:golang/gopkg.in/yaml.v2@v2.4.0"
      ]
    },
    {
      "ref": "pkg:golang/github.com/go-playground/locales@v0.14.0",
      "dependsOn": [
        "pkg:golang/golang.org/x/text@v0.3.6"
      ]
    },
    {
      "ref": "pkg:golang/github.com/go-playground/universal-translator@v0.18.0",
      "dependsOn": [
        "pkg:golang/github.com/go-playground/locales@v0.14.0"
      ]
    },
    {
      "ref": "pkg:golang/github.com/go-playground/validator/v10@v10.9.0",
      "dependsOn": [
        "pkg:golang/github.com/go-playground/locales@v0.14.0",
        "pkg:golang/github.com/go-playground/universal-translator@v0.18.0",
        "pkg:golang/github.com/leodido/go-urn@v1.2.1",
        "pkg:golang/golang.org/x/crypto@v0.0.0-20210817164053-32db794688a5",
        "pkg:golang/golang.org/x/sys@v0.0.0-20210823070655-63515b42dcdf",
        "pkg:golang/golang.org/x/text@v0.3.6"
      ]
    },
    {
      "ref": "pkg:golang/github.com/go-redis/redis/v7@v7.4.1",
      "dependsOn": [
        "pkg:golang/github.com/golang/protobuf@v1.5.2",
        "pkg:golang/golang.org/x/net@v0.0.0-20210805182204-aaa1db679c0d",
        "pkg:golang/golang.org/x/sys@v0.0.0-20210823070655-63515b42dcdf",
        "pkg:golang/golang.org/x/text@v0.3.6",
        "pkg:golang/gopkg.in/yaml.v2@v2.4.0"
      ]
    },
    {
      "ref": "pkg:golang/github.com/go-sql-driver/mysql@v1.6.0"
    },
    {
      "ref": "pkg:golang/github.com/golang/protobuf@v1.5.2",
      "dependsOn": [
        "pkg:golang/google.golang.org/protobuf@v1.27.1"
      ]
    },
    {
      "ref": "pkg:golang/github.com/gorilla/websocket@v1.4.2"
    },
    {
      "ref": "pkg:golang/github.com/hashicorp/golang-lru@v0.5.1"
    },
    {
      "ref": "pkg:golang/github.com/hashicorp/hcl@v1.0.0"
    },
    {
      "ref": "pkg:golang/github.com/jakecoffman/cron@v0.0.0-20190106200828-7e2009c226a5"
    },
    {
      "ref": "pkg:golang/github.com/jinzhu/gorm@v1.9.16",
      "dependsOn": [
        "pkg:golang/github.com/go-sql-driver/mysql@v1.6.0",
        "pkg:golang/github.com/jinzhu/inflection@v1.0.0",
        "pkg:golang/github.com/jinzhu/now@v1.1.2",
        "pkg:golang/golang.org/x/crypto@v0.0.0-20210817164053-32db794688a5"
      ]
    },
    {
      "ref": "pkg:golang/github.com/jinzhu/inflection@v1.0.0"
    },
    {
      "ref": "pkg:golang/github.com/jinzhu/now@v1.1.2"
    },
    {
      "ref": "pkg:golang/github.com/josharian/intern@v1.0.0"
    },
    {
      "ref": "pkg:golang/github.com/json-iterator/go@v1.1.11",
      "dependsOn": [
        "pkg:golang/github.com/modern-go/concurrent@v0.0.0-20180306012644-bacd9c7ef1dd",
        "pkg:golang/github.com/modern-go/reflect2@v1.0.1"
      ]
    },
    {
      "ref": "pkg:golang/github.com/leodido/go-urn@v1.2.1"
    },
    {
      "ref": "pkg:golang/github.com/magiconair/properties@v1.8.5"
    },
    {
      "ref": "pkg:golang/github.com/mailru/easyjson@v0.7.6",
      "dependsOn": [
        "pkg:golang/github.com/josharian/intern@v1.0.0"
      ]
    },
    {
      "ref": "pkg:golang/github.com/mattn/go-isatty@v0.0.12",
      "dependsOn": [
        "pkg:golang/golang.org/x/sys@v0.0.0-20210823070655-63515b42dcdf"
      ]
    },
    {
      "ref": "pkg:golang/github.com/matttproud/golang_protobuf_extensions@v1.0.1"
    },
    {
      "ref": "pkg:golang/github.com/mitchellh/mapstructure@v1.4.2"
    },
    {
      "ref": "pkg:golang/github.com/modern-go/concurrent@v0.0.0-20180306012644-bacd9c7ef1dd"
    },
    {
      "ref": "pkg:golang/github.com/modern-go/reflect2@v1.0.1"
    },
    {
      "ref": "pkg:golang/github.com/pelletier/go-toml@v1.9.4"
    },
    {
      "ref": "pkg:golang/github.com/pkg/errors@v0.9.1"
    },
    {
      "ref": "pkg:golang/github.com/prometheus/client_golang@v1.11.0",
      "dependsOn": [
        "pkg:golang/github.com/beorn7/perks@v1.0.1",
        "pkg:golang/github.com/cespare/xxhash/v2@v2.1.1",
        "pkg:golang/github.com/golang/protobuf@v1.5.2",
        "pkg:golang/github.com/json-iterator/go@v1.1.11",
        "pkg:golang/github.com/prometheus/client_model@v0.2.0",
        "pkg:golang/github.com/prometheus/common@v0.26.0",
        "pkg:golang/github.com/prometheus/procfs@v0.6.0",
        "pkg:golang/golang.org/x/sys@v0.0.0-20210823070655-63515b42dcdf",
        "pkg:golang/golang.org/x/text@v0.3.6",
        "pkg:golang/google.golang.org/protobuf@v1.27.1"
      ]
    },
    {
      "ref": "pkg:golang/github.com/prometheus/client_model@v0.2.0",
      "dependsOn": [
        "pkg:golang/github.com/golang/protobuf@v1.5.2"
      ]
    },
    {
      "ref": "pkg:golang/github.com/prometheus/common@v0.26.0",
      "dependsOn": [
        "pkg:golang/github.com/golang/protobuf@v1.5.2",
        "pkg:golang/github.com/matttproud/golang_protobuf_extensions@v1.0.1",
        "pkg:golang/github.com/pkg/errors@v0.9.1",
        "pkg:golang/github.com/prometheus/client_golang@v1.11.0",
        "pkg:golang/github.com/prometheus/client_model@v0.2.0",
        "pkg:golang/golang.org/x/net@v0.0.0-20210805182204-aaa1db679c0d",
        "pkg:golang/golang.org/x/sys@v0.0.0-20210823070655-63515b42dcdf",
        "pkg:golang/gopkg.in/yaml.v2@v2.4.0"
      ]
    },
    {
      "ref": "pkg:golang/github.com/prometheus/procfs@v0.6.0",
      "dependsOn": [
        "pkg:golang/golang.org/x/sys@v0.0.0-20210823070655-63515b42dcdf"
      ]
    },
    {
      "ref": "pkg:golang/github.com/rs/cors@v1.8.0",
      "dependsOn": [
        "pkg:golang/github.com/gin-gonic/gin@v1.7.4"
      ]
    },
    {
      "ref": "pkg:golang/github.com/shirou/gopsutil@v3.21.10"
    },
    {
      "ref": "pkg:golang/github.com/speps/go-hashids@v1.0.0"
    },
    {
      "ref": "pkg:golang/github.com/spf13/afero@v1.6.0",
      "dependsOn": [
        "pkg:golang/golang.org/x/crypto@v0.0.0-20210817164053-32db794688a5",
        "pkg:golang/golang.org/x/text@v0.3.6"
      ]
    },
    {
      "ref": "pkg:golang/github.com/spf13/cast@v1.4.1"
    },
    {
      "ref": "pkg:golang/github.com/spf13/jwalterweatherman@v1.1.0"
    },
    {
      "ref": "pkg:golang/github.com/spf13/pflag@v1.0.5"
    },
    {
      "ref": "pkg:golang/github.com/spf13/viper@v1.9.0",
      "dependsOn": [
        "pkg:golang/github.com/fsnotify/fsnotify@v1.5.1",
        "pkg:golang/github.com/hashicorp/hcl@v1.0.0",
        "pkg:golang/github.com/magiconair/properties@v1.8.5",
        "pkg:golang/github.com/mitchellh/mapstructure@v1.4.2",
        "pkg:golang/github.com/pelletier/go-toml@v1.9.4",
        "pkg:golang/github.com/spf13/afero@v1.6.0",
        "pkg:golang/github.com/spf13/cast@v1.4.1",
        "pkg:golang/github.com/spf13/jwalterweatherman@v1.1.0",
        "pkg:golang/github.com/spf13/pflag@v1.0.5",
        "pkg:golang/github.com/subosito/gotenv@v1.2.0",
        "pkg:golang/gopkg.in/ini.v1@v1.63.2",
        "pkg:golang/gopkg.in/yaml.v2@v2.4.0"
      ]
    },
    {
      "ref": "pkg:golang/github.com/subosito/gotenv@v1.2.0"
    },
    {
      "ref": "pkg:golang/github.com/swaggo/gin-swagger@v1.3.3",
      "dependsOn": [
        "pkg:golang/github.com/gin-gonic/gin@v1.7.4",
        "pkg:golang/github.com/swaggo/swag@v1.7.4",
        "pkg:golang/golang.org/x/net@v0.0.0-20210805182204-aaa1db679c0d"
      ]
    },
    {
      "ref": "pkg:golang/github.com/swaggo/swag@v1.7.4",
      "dependsOn": [
        "pkg:golang/github.com/KyleBanks/depth@v1.2.1",
        "pkg:golang/github.com/go-openapi/spec@v0.20.3",
        "pkg:golang/golang.org/x/tools@v0.1.7"
      ]
    },
    {
      "ref": "pkg:golang/github.com/tklauser/go-sysconf@v0.3.9",
      "dependsOn": [
        "pkg:golang/github.com/tklauser/numcpus@v0.3.0",
        "pkg:golang/golang.org/x/sys@v0.0.0-20210823070655-63515b42dcdf"
      ]
    },
    {
      "ref": "pkg:golang/github.com/tklauser/numcpus@v0.3.0",
      "dependsOn": [
        "pkg:golang/golang.org/x/sys@v0.0.0-20210823070655-63515b42dcdf"
      ]
    },
    {
      "ref": "pkg:golang/github.com/ugorji/go/codec@v1.1.7"
    },
    {
      "ref": "pkg:golang/github.com/vektah/gqlparser/v2@v2.2.0",
      "dependsOn": [
        "pkg:golang/github.com/agnivade/levenshtein@v1.1.0",
        "pkg:golang/golang.org/x/tools@v0.1.7",
        "pkg:golang/gopkg.in/yaml.v2@v2.4.0"
      ]
    },
    {
      "ref": "pkg:golang/go.uber.org/atomic@v1.7.0"
    },
    {
      "ref": "pkg:golang/go.uber.org/multierr@v1.7.0",
      "dependsOn": [
        "pkg:golang/go.uber.org/atomic@v1.7.0"
      ]
    },
    {
      "ref": "pkg:golang/go.uber.org/zap@v1.19.1",
      "dependsOn": [
        "pkg:golang/github.com/pkg/errors@v0.9.1",
        "pkg:golang/go.uber.org/atomic@v1.7.0",
        "pkg:golang/go.uber.org/multierr@v1.7.0",
        "pkg:golang/gopkg.in/yaml.v2@v2.4.0"
      ]
    },
    {
      "ref": "pkg:golang/golang.org/x/crypto@v0.0.0-20210817164053-32db794688a5",
      "dependsOn": [
        "pkg:golang/golang.org/x/net@v0.0.0-20210805182204-aaa1db679c0d",
        "pkg:golang/golang.org/x/sys@v0.0.0-20210823070655-63515b42dcdf",
        "pkg:golang/golang.org/x/text@v0.3.6"
      ]
    },
    {
      "ref": "pkg:golang/golang.org/x/mod@v0.4.2",
      "dependsOn": [
        "pkg:golang/golang.org/x/crypto@v0.0.0-20210817164053-32db794688a5",
        "pkg:golang/golang.org/x/tools@v0.1.7",
        "pkg:golang/golang.org/x/xerrors@v0.0.0-20200804184101-5ec99f83aff1"
      ]
    },
    {
      "ref": "pkg:golang/golang.org/x/net@v0.0.0-20210805182204-aaa1db679c0d",
      "dependsOn": [
        "pkg:golang/golang.org/x/sys@v0.0.0-20210823070655-63515b42dcdf",
        "pkg:golang/golang.org/x/text@v0.3.6"
      ]
    },
    {
      "ref": "pkg:golang/golang.org/x/sys@v0.0.0-20210823070655-63515b42dcdf"
    },
    {
      "ref": "pkg:golang/golang.org/x/text@v0.3.6",
      "dependsOn": [
        "pkg:golang/golang.org/x/tools@v0.1.7"
      ]
    },
    {
      "ref": "pkg:golang/golang.org/x/time@v0.0.0-20211116232009-f0f3c7e86c11"
    },
    {
      "ref": "pkg:golang/golang.org/x/tools@v0.1.7",
      "dependsOn": [
        "pkg:golang/golang.org/x/mod@v0.4.2",
        "pkg:golang/golang.org/x/net@v0.0.0-20210805182204-aaa1db679c0d",
        "pkg:golang/golang.org/x/sys@v0.0.0-20210823070655-63515b42dcdf",
        "pkg:golang/golang.org/x/text@v0.3.6",
        "pkg:golang/golang.org/x/xerrors@v0.0.0-20200804184101-5ec99f83aff1"
      ]
    },
    {
      "ref": "pkg:golang/golang.org/x/xerrors@v0.0.0-20200804184101-5ec99f83aff1"
    },
    {
      "ref": "pkg:golang/google.golang.org/protobuf@v1.27.1",
      "dependsOn": [
        "pkg:golang/github.com/golang/protobuf@v1.5.2"
      ]
    },
    {
      "ref": "pkg:golang/gopkg.in/alexcesaro/quotedprintable.v3@v3.0.0-20150716171945-2caba252f4dc"
    },
    {
      "ref": "pkg:golang/gopkg.in/gomail.v2@v2.0.0-20160411212932-81ebce5c23df"
    },
    {
      "ref": "pkg:golang/gopkg.in/ini.v1@v1.63.2"
    },
    {
      "ref": "pkg:golang/gopkg.in/natefinch/lumberjack.v2@v2.0.0"
    },
    {
      "ref": "pkg:golang/gopkg.in/yaml.v2@v2.4.0"
    },
    {
      "ref": "pkg:golang/gorm.io/driver/mysql@v1.2.0",
      "dependsOn": [
        "pkg:golang/github.com/go-sql-driver/mysql@v1.6.0",
        "pkg:golang/gorm.io/gorm@v1.22.3"
      ]
    },
    {
      "ref": "pkg:golang/gorm.io/gorm@v1.22.3",
      "dependsOn": [
        "pkg:golang/github.com/jinzhu/inflection@v1.0.0",
        "pkg:golang/github.com/jinzhu/now@v1.1.2"
      ]
    },
    {
      "ref": "pkg:golang/github.com/xinliangnote/go-gin-api@v0.0.0-20211128132527-4c37a7e6b571",
      "dependsOn": [
        "pkg:golang/github.com/99designs/gqlgen@v0.14.0",
        "pkg:golang/github.com/StackExchange/wmi@v1.2.1",
        "pkg:golang/github.com/dave/dst@v0.26.2",
        "pkg:golang/github.com/fsnotify/fsnotify@v1.5.1",
        "pkg:golang/github.com/gin-contrib/pprof@v1.3.0",
        "pkg:golang/github.com/gin-gonic/gin@v1.7.4",
        "pkg:golang/github.com/go-playground/locales@v0.14.0",
        "pkg:golang/github.com/go-playground/universal-translator@v0.18.0",
        "pkg:golang/github.com/go-playground/validator/v10@v10.9.0",
        "pkg:golang/github.com/go-redis/redis/v7@v7.4.1",
        "pkg:golang/github.com/gorilla/websocket@v1.4.2",
        "pkg:golang/github.com/jakecoffman/cron@v0.0.0-20190106200828-7e2009c226a5",
        "pkg:golang/github.com/jinzhu/gorm@v1.9.16",
        "pkg:golang/github.com/pkg/errors@v0.9.1",
        "pkg:golang/github.com/prometheus/client_golang@v1.11.0",
        "pkg:golang/github.com/rs/cors@v1.8.0",
        "pkg:golang/github.com/shirou/gopsutil@v3.21.10",
        "pkg:golang/github.com/speps/go-hashids@v1.0.0",
        "pkg:golang/github.com/spf13/cast@v1.4.1",
        "pkg:golang/github.com/spf13/viper@v1.9.0",
        "pkg:golang/github.com/swaggo/gin-swagger@v1.3.3",
        "pkg:golang/github.com/swaggo/swag@v1.7.4",
        "pkg:golang/github.com/tklauser/go-sysconf@v0.3.9",
        "pkg:golang/github.com/vektah/gqlparser/v2@v2.2.0",
        "pkg:golang/go.uber.org/multierr@v1.7.0",
        "pkg:golang/go.uber.org/zap@v1.19.1",
        "pkg:golang/golang.org/x/time@v0.0.0-20211116232009-f0f3c7e86c11",
        "pkg:golang/golang.org/x/tools@v0.1.7",
        "pkg:golang/gopkg.in/alexcesaro/quotedprintable.v3@v3.0.0-20150716171945-2caba252f4dc",
        "pkg:golang/gopkg.in/gomail.v2@v2.0.0-20160411212932-81ebce5c23df",
        "pkg:golang/gopkg.in/natefinch/lumberjack.v2@v2.0.0",
        "pkg:golang/gorm.io/driver/mysql@v1.2.0",
        "pkg:golang/gorm.io/gorm@v1.22.3"
      ]
    }
  ]
}
