{
  "bomFormat": "CycloneDX",
  "specVersion": "1.3",
  "version": 1,
  "components": [
    {
      "type": "library",
      "publisher": "Keras team",
      "name": "keras",
      "version": "2.9.0",
      "description": "Deep learning for humans.",
      "hashes": [
        {
          "alg": "MD5",
          "content": "8e6d6b4cf403e191d26b9196dd2608e1"
        },
        {
          "alg": "SHA-256",
          "content": "55911256f89cfc9343c9fbe4b61ec45a2d33d89729cbe1ab9dcacf8b07b8b6ab"
        }
      ],
      "licenses": [
        {
          "license": {
            "name": "Apache 2.0"
          }
        }
      ],
      "purl": "pkg:pypi/keras@2.9.0",
      "modified": false
    },
    {
      "type": "library",
      "publisher": "Andrew Collette",
      "name": "h5py",
      "version": "3.6.0",
      "description": "Read and write HDF5 files from Python",
      "hashes": [
        {
          "alg": "MD5",
          "content": "5e5714151e127c50b6fc6aaec86fded6"
        },
        {
          "alg": "SHA-256",
          "content": "9fd8a14236fdd092a20c0bdf25c3aba3777718d266fabb0fdded4fcf252d1630"
        }
      ],
      "licenses": [
        {
          "license": {
            "name": "BSD"
          }
        }
      ],
      "purl": "pkg:pypi/h5py@3.6.0",
      "modified": false
    },
    {
      "type": "library",
      "publisher": "Travis E. Oliphant et al.",
      "name": "numpy",
      "version": "1.22.3",
      "description": "NumPy is the fundamental package for array computing with Python.",
      "hashes": [
        {
          "alg": "MD5",
          "content": "99d2dfb943327b108b2c3b923bd42000"
        },
        {
          "alg": "SHA-256",
          "content": "c34ea7e9d13a70bf2ab64a2532fe149a9aced424cd05a2c4ba662fd989e3e45f"
        }
      ],
      "licenses": [
        {
          "license": {
            "name": "BSD"
          }
        }
      ],
      "purl": "pkg:pypi/numpy@1.22.3",
      "modified": false
    }
  ],
  "metadata": {
    "tools": [
      {
        "vendor": "Fortress Information Security",
        "name": "Github Extractor",
        "version": "1.15.1"
      }
    ],
    "authors": [
      {
        "name": "Fortress Information Security",
        "email": "sales@fortressinfosec.com",
        "phone": "1-407-573-6800"
      }
    ],
    "timestamp": "2022-06-01T21:00:00Z",
    "component": {
      "type": "application",
      "name": "rnnoise",
      "version": "",
      "group": "xiph",
      "externalReferences": [
        {
          "url": "https://github.com/xiph/rnnoise.git",
          "type": "distribution"
        },
        {
          "type": "website",
          "url": "null",
          "comment": "As set via `homepage` in Github API"
        }
      ]
    }
  }
}
