{
  "bomFormat": "CycloneDX",
  "specVersion": "1.3",
  "version": 1,
  "metadata": {
    "tools": [
      {
        "vendor": "AppThreat",
        "name": "cdxgen",
        "version": "3.0.10"
      },
      {
        "vendor": "Fortress Information Security",
        "name": "Github Extractor",
        "version": "1.15.1"
      }
    ],
    "authors": [
      {
        "name": "Fortress Information Security",
        "email": "sales@fortressinfosec.com",
        "phone": "1-407-573-6800"
      }
    ],
    "timestamp": "2022-06-01T21:00:00Z",
    "component": {
      "type": "application",
      "name": "gixy",
      "version": "v0.1.20",
      "group": "yandex",
      "externalReferences": [
        {
          "url": "https://github.com/yandex/gixy.git",
          "type": "distribution"
        },
        {
          "type": "website",
          "url": "null",
          "comment": "As set via `homepage` in Github API"
        }
      ]
    }
  },
  "components": [
    {
      "type": "library",
      "publisher": "Python Packaging Authority",
      "name": "setuptools",
      "version": "62.1.0",
      "description": "Easily download, build, install, upgrade, and uninstall Python packages",
      "hashes": [
        {
          "alg": "MD5",
          "content": "101d2e2bf9b7682ab90d9a7bd487bdbe"
        },
        {
          "alg": "SHA-256",
          "content": "26ead7d1f93efc0f8c804d9fafafbe4a44b179580a7105754b245155f9af05a8"
        }
      ],
      "purl": "pkg:pypi/setuptools@62.1.0",
      "modified": false
    },
    {
      "type": "library",
      "publisher": "Vinay Sajip",
      "name": "logging",
      "version": "0.4.9.6",
      "description": "A logging module for Python",
      "hashes": [
        {
          "alg": "MD5",
          "content": "dc0a7ebc8b8970263911e11e7b7e1ca8"
        },
        {
          "alg": "SHA-256",
          "content": "26f6b50773f085042d301085bd1bf5d9f3735704db9f37c1ce6d8b85c38f2417"
        }
      ],
      "licenses": [
        {
          "license": {
            "name": "Copyright (C) 2001-2005 by Vinay Sajip. All Rights Reserved. See LICENSE for license."
          }
        }
      ],
      "purl": "pkg:pypi/logging@0.4.9.6",
      "modified": false
    },
    {
      "type": "library",
      "publisher": "Daniel Greenfeld",
      "name": "cached_property",
      "version": "1.5.2",
      "description": "A decorator for caching properties in classes.",
      "hashes": [
        {
          "alg": "MD5",
          "content": "8f5dbd53d7e6cf98818454c6be4e76fa"
        },
        {
          "alg": "SHA-256",
          "content": "df4f613cf7ad9a588cc381aaf4a512d26265ecebd5eb9e1ba12f1319eb85a6a0"
        }
      ],
      "licenses": [
        {
          "license": {
            "name": "BSD"
          }
        }
      ],
      "purl": "pkg:pypi/cached-property@1.5.2",
      "modified": false
    },
    {
      "type": "library",
      "publisher": "Benjamin Peterson",
      "name": "six",
      "version": "1.16.0",
      "description": "Python 2 and 3 compatibility utilities",
      "hashes": [
        {
          "alg": "MD5",
          "content": "529d7fd7e14612ccde86417b4402d6f3"
        },
        {
          "alg": "SHA-256",
          "content": "8abb2f1d86890a2dfb989f9a77cfcfd3e47c2a354b01111771326f8aa26e0254"
        }
      ],
      "licenses": [
        {
          "license": {
            "name": "MIT"
          }
        }
      ],
      "purl": "pkg:pypi/six@1.16.0",
      "modified": false
    },
    {
      "type": "library",
      "name": "pyparsing",
      "version": "3.0.8",
      "description": "pyparsing module - Classes and methods to define and execute parsing grammars",
      "hashes": [
        {
          "alg": "MD5",
          "content": "c41678fe9c25ac180a16319caff8b5a3"
        },
        {
          "alg": "SHA-256",
          "content": "ef7b523f6356f763771559412c0d7134753f037822dad1b16945b7b846f7ad06"
        }
      ],
      "purl": "pkg:pypi/pyparsing@3.0.8",
      "modified": false
    },
    {
      "type": "library",
      "publisher": "Armin Ronacher",
      "name": "jinja2",
      "version": "3.1.2",
      "description": "A very fast and expressive template engine.",
      "hashes": [
        {
          "alg": "MD5",
          "content": "00ccdb509d3592cc2163b286177d75c8"
        },
        {
          "alg": "SHA-256",
          "content": "6088930bfe239f0e6710546ab9c19c9ef35e29792895fed6e6e31a023a182a61"
        }
      ],
      "licenses": [
        {
          "license": {
            "name": "BSD-3-Clause"
          }
        }
      ],
      "purl": "pkg:pypi/jinja2@3.1.2",
      "modified": false
    },
    {
      "type": "library",
      "name": "configargparse",
      "version": "1.5.3",
      "description": "A drop-in replacement for argparse that allows options to also be set via config files and/or environment variables.",
      "hashes": [
        {
          "alg": "MD5",
          "content": "5af874808943a76d489797ff97f82fcf"
        },
        {
          "alg": "SHA-256",
          "content": "18f6535a2db9f6e02bd5626cc7455eac3e96b9ab3d969d366f9aafd5c5c00fe7"
        }
      ],
      "licenses": [
        {
          "license": {
            "name": "MIT"
          }
        }
      ],
      "purl": "pkg:pypi/configargparse@1.5.3",
      "modified": false
    },
    {
      "type": "library",
      "publisher": "Jason Pellerin",
      "name": "nose",
      "version": "1.3.7",
      "description": "nose extends unittest to make testing easier",
      "hashes": [
        {
          "alg": "MD5",
          "content": "3135984cc9cfcbe5d9c46e166d6743b0"
        },
        {
          "alg": "SHA-256",
          "content": "9ff7c6cc443f8c51994b34a667bbcf45afd6d945be7477b52e97516fd17c53ac"
        }
      ],
      "licenses": [
        {
          "license": {
            "name": "GNU LGPL"
          }
        }
      ],
      "purl": "pkg:pypi/nose@1.3.7",
      "modified": false
    },
    {
      "type": "library",
      "bom-ref": "pkg:pypi/pyparsing@1.5.5",
      "group": "",
      "name": "pyparsing",
      "version": "1.5.5",
      "description": "pyparsing module - Classes and methods to define and execute parsing grammars",
      "hashes": [
        {
          "alg": "SHA-256",
          "content": "d1754df0801871d05a96f1cef50a4f32e5d40d49ea24aa1c6ca9529cbd562005"
        }
      ],
      "purl": "pkg:pypi/pyparsing@1.5.5"
    },
    {
      "type": "library",
      "bom-ref": "pkg:pypi/cached-property@1.2.0",
      "group": "",
      "name": "cached-property",
      "version": "1.2.0",
      "description": "A decorator for caching properties in classes.",
      "hashes": [
        {
          "alg": "SHA-256",
          "content": "c3a5e7f41fe99991ab1f8df294f3d8180a56b46fedec94ebd54def89d0ec09c4"
        }
      ],
      "licenses": [
        {
          "license": {
            "id": "0BSD",
            "url": "https://opensource.org/licenses/0BSD"
          }
        }
      ],
      "purl": "pkg:pypi/cached-property@1.2.0",
      "externalReferences": [
        {
          "url": "https://github.com/pydanny/cached-property",
          "type": "vcs"
        }
      ]
    },
    {
      "type": "library",
      "bom-ref": "pkg:pypi/argparse@1.4.0",
      "group": "",
      "name": "argparse",
      "version": "1.4.0",
      "description": "Python command-line parsing library",
      "hashes": [
        {
          "alg": "SHA-256",
          "content": "c31647edb69fd3d465a847ea3157d37bed1f95f19760b11a47aa91c04b666314"
        }
      ],
      "licenses": [
        {
          "license": {
            "name": "Python Software Foundation License"
          }
        }
      ],
      "purl": "pkg:pypi/argparse@1.4.0",
      "externalReferences": [
        {
          "url": "https://github.com/ThomasWaldmann/argparse/",
          "type": "vcs"
        }
      ]
    },
    {
      "type": "library",
      "bom-ref": "pkg:pypi/six@1.1.0",
      "group": "",
      "name": "six",
      "version": "1.1.0",
      "description": "Python 2 and 3 compatibility utilities",
      "hashes": [
        {
          "alg": "SHA-256",
          "content": "8c421a58100704148fd9ad2e38b05d5646f6d3139ac209dfda4c980d124c75ba"
        }
      ],
      "licenses": [
        {
          "license": {
            "id": "MIT",
            "url": "https://opensource.org/licenses/MIT"
          }
        }
      ],
      "purl": "pkg:pypi/six@1.1.0",
      "externalReferences": [
        {
          "url": "https://github.com/benjaminp/six",
          "type": "vcs"
        }
      ]
    },
    {
      "type": "library",
      "bom-ref": "pkg:pypi/jinja2@2.8",
      "group": "",
      "name": "Jinja2",
      "version": "2.8",
      "description": "A very fast and expressive template engine.",
      "hashes": [
        {
          "alg": "SHA-256",
          "content": "1cc03ef32b64be19e0a5b54578dd790906a34943fe9102cfdae0d4495bd536b4"
        }
      ],
      "licenses": [
        {
          "license": {
            "id": "BSD-3-Clause",
            "url": "https://opensource.org/licenses/BSD-3-Clause"
          }
        }
      ],
      "purl": "pkg:pypi/jinja2@2.8",
      "externalReferences": [
        {
          "url": "https://palletsprojects.com/p/jinja/",
          "type": "website"
        }
      ]
    },
    {
      "type": "library",
      "bom-ref": "pkg:pypi/configargparse@0.11.0",
      "group": "",
      "name": "ConfigArgParse",
      "version": "0.11.0",
      "description": "A drop-in replacement for argparse that allows options to also be set via config files and/or environment variables.",
      "hashes": [
        {
          "alg": "SHA-256",
          "content": "6c8ae823f6844b055f2a3aa9b51f568ed3bd7e5be9fba63abcaf4bdd38a0ac89"
        }
      ],
      "licenses": [
        {
          "license": {
            "id": "MIT",
            "url": "https://opensource.org/licenses/MIT"
          }
        }
      ],
      "purl": "pkg:pypi/configargparse@0.11.0",
      "externalReferences": [
        {
          "url": "https://github.com/bw2/ConfigArgParse",
          "type": "vcs"
        }
      ]
    }
  ]
}
