{
  "bomFormat": "CycloneDX",
  "specVersion": "1.3",
  "version": 1,
  "metadata": {
    "tools": [
      {
        "vendor": "CycloneDX",
        "name": "Node.js module",
        "version": "3.0.3"
      },
      {
        "vendor": "Fortress Information Security",
        "name": "Github Extractor",
        "version": "1.15.1"
      }
    ],
    "authors": [
      {
        "name": "Fortress Information Security",
        "email": "sales@fortressinfosec.com",
        "phone": "1-407-573-6800"
      }
    ],
    "timestamp": "2022-06-01T21:00:00Z",
    "component": {
      "type": "application",
      "name": "yosys",
      "version": "yosys-0.18",
      "group": "YosysHQ",
      "externalReferences": [
        {
          "url": "https://github.com/YosysHQ/yosys.git",
          "type": "distribution"
        },
        {
          "type": "website",
          "url": "https://yosyshq.net/yosys/",
          "comment": "As set via `homepage` in Github API"
        }
      ]
    }
  },
  "components": [
    {
      "type": "library",
      "publisher": "Thomas Waldmann",
      "name": "argparse",
      "version": "1.4.0",
      "description": "Python command-line parsing library",
      "hashes": [
        {
          "alg": "MD5",
          "content": "c37216a954c8669054e2b2c54853dd49"
        },
        {
          "alg": "SHA-256",
          "content": "c31647edb69fd3d465a847ea3157d37bed1f95f19760b11a47aa91c04b666314"
        }
      ],
      "licenses": [
        {
          "license": {
            "name": "Python Software Foundation License"
          }
        }
      ],
      "purl": "pkg:pypi/argparse@1.4.0",
      "modified": false
    },
    {
      "type": "library",
      "name": "io",
      "version": "0.0.1",
      "purl": "pkg:pypi/io@0.0.1",
      "modified": false
    },
    {
      "type": "library",
      "publisher": "Ben Finney",
      "name": "enum",
      "version": "0.4.7",
      "description": "Robust enumerated type support in Python.",
      "hashes": [
        {
          "alg": "MD5",
          "content": "e7d170e3f84435b77058de625c96ef58"
        },
        {
          "alg": "SHA-256",
          "content": "8c7cf3587eda51008bcc1eed99ea2c331ccd265c231dbaa95ec5258d3dc03100"
        }
      ],
      "licenses": [
        {
          "license": {
            "name": "GPL-3.0+"
          }
        }
      ],
      "purl": "pkg:pypi/enum@0.4.7",
      "modified": false
    },
    {
      "type": "library",
      "publisher": "John D. Hunter, Michael Droettboom",
      "name": "matplotlib",
      "version": "3.5.2",
      "description": "Python plotting package",
      "hashes": [
        {
          "alg": "MD5",
          "content": "36ccc2efc47ed886836b2c7c3d3b9b3a"
        },
        {
          "alg": "SHA-256",
          "content": "24173c23d1bcbaed5bf47b8785d27933a1ac26a5d772200a0f3e0e38f471b001"
        }
      ],
      "licenses": [
        {
          "license": {
            "name": "PSF"
          }
        }
      ],
      "purl": "pkg:pypi/matplotlib@3.5.2",
      "modified": false
    },
    {
      "type": "library",
      "publisher": "Travis E. Oliphant et al.",
      "name": "numpy",
      "version": "1.22.3",
      "description": "NumPy is the fundamental package for array computing with Python.",
      "hashes": [
        {
          "alg": "MD5",
          "content": "99d2dfb943327b108b2c3b923bd42000"
        },
        {
          "alg": "SHA-256",
          "content": "c34ea7e9d13a70bf2ab64a2532fe149a9aced424cd05a2c4ba662fd989e3e45f"
        }
      ],
      "licenses": [
        {
          "license": {
            "name": "BSD"
          }
        }
      ],
      "purl": "pkg:pypi/numpy@1.22.3",
      "modified": false
    },
    {
      "type": "library",
      "publisher": "Stephan Klein",
      "name": "signal",
      "version": "0.1",
      "description": "Send SMS messages via ADB and your Android phone. Comes with a CLI.",
      "licenses": [
        {
          "license": {
            "name": "MIT"
          }
        }
      ],
      "purl": "pkg:pypi/signal@0.1",
      "modified": false
    }
  ]
}
