{
  "bomFormat": "CycloneDX",
  "specVersion": "1.3",
  "version": 2,
  "components": [
    {
      "type": "library",
      "publisher": "Secret Labs AB (PythonWare)",
      "name": "PIL",
      "version": "1.1.6",
      "description": "Python Imaging Library",
      "licenses": [
        {
          "license": {
            "name": "Python (MIT style)"
          }
        }
      ],
      "purl": "pkg:pypi/pil@1.1.6",
      "modified": false
    },
    {
      "type": "library",
      "publisher": "Travis E. Oliphant et al.",
      "name": "numpy",
      "version": "1.22.3",
      "description": "NumPy is the fundamental package for array computing with Python.",
      "hashes": [
        {
          "alg": "MD5",
          "content": "99d2dfb943327b108b2c3b923bd42000"
        },
        {
          "alg": "SHA-256",
          "content": "c34ea7e9d13a70bf2ab64a2532fe149a9aced424cd05a2c4ba662fd989e3e45f"
        }
      ],
      "licenses": [
        {
          "license": {
            "name": "BSD"
          }
        }
      ],
      "purl": "pkg:pypi/numpy@1.22.3",
      "modified": false
    },
    {
      "type": "library",
      "publisher": "Dima Dorfman",
      "name": "functools",
      "version": "0.5",
      "description": "Fast tools for functional programming",
      "hashes": [
        {
          "alg": "MD5",
          "content": "91111c28ee685a2f89f1a41e6f0ce8ea"
        },
        {
          "alg": "SHA-256",
          "content": "596ed8999dee419c0749a41bfdd82e4697e80ea27ee01c716003ef55be9a54c5"
        }
      ],
      "licenses": [
        {
          "license": {
            "name": "BSD"
          }
        }
      ],
      "purl": "pkg:pypi/functools@0.5",
      "modified": false
    }
  ],
  "metadata": {
    "tools": [
      {
        "vendor": "Fortress Information Security",
        "name": "Github Extractor",
        "version": "1.15.1"
      }
    ],
    "authors": [
      {
        "name": "Fortress Information Security",
        "email": "sales@fortressinfosec.com",
        "phone": "1-407-573-6800"
      }
    ],
    "timestamp": "2022-07-26T23:36:49Z",
    "component": {
      "type": "application",
      "name": "renderer",
      "version": "v1.5",
      "group": "zauonlok",
      "externalReferences": [
        {
          "url": "https://github.com/zauonlok/renderer.git",
          "type": "distribution"
        },
        {
          "type": "website",
          "url": "https://zauonlok.github.io/renderer/",
          "comment": "As set via `homepage` in Github API"
        }
      ]
    }
  }
}
