{
  "bomFormat": "CycloneDX",
  "specVersion": "1.3",
  "version": 1,
  "metadata": {
    "tools": [
      {
        "vendor": "cyclonedx",
        "name": "cyclonedx-php-composer",
        "version": "3.10.0"
      },
      {
        "vendor": "AppThreat",
        "name": "cdxgen",
        "version": "3.0.10"
      },
      {
        "vendor": "Fortress Information Security",
        "name": "Github Extractor",
        "version": "1.15.1"
      }
    ],
    "authors": [
      {
        "name": "Fortress Information Security",
        "email": "sales@fortressinfosec.com",
        "phone": "1-407-573-6800"
      }
    ],
    "timestamp": "2022-06-01T21:00:00Z",
    "component": {
      "type": "application",
      "name": "zend-eventmanager",
      "version": "release-3.2.1",
      "group": "zendframework",
      "externalReferences": [
        {
          "url": "https://github.com/zendframework/zend-eventmanager.git",
          "type": "distribution"
        },
        {
          "type": "website",
          "url": "null",
          "comment": "As set via `homepage` in Github API"
        }
      ]
    }
  },
  "components": [
    {
      "type": "library",
      "bom-ref": "pkg:composer/athletic/athletic@0.1.8",
      "group": "athletic",
      "name": "athletic",
      "version": "0.1.8",
      "description": "PHP Benchmarking Framework",
      "licenses": [
        {
          "license": {
            "id": "MIT"
          }
        }
      ],
      "purl": "pkg:composer/athletic/athletic@0.1.8",
      "externalReferences": [
        {
          "url": "https://github.com/polyfractal/athletic.git",
          "type": "distribution",
          "comment": "As detected by composer's `getSourceUrls()` (type=git & reference=51fe4b6e5298dd8af187825a4e57745898e37f0e)"
        },
        {
          "url": "https://api.github.com/repos/polyfractal/athletic/zipball/51fe4b6e5298dd8af187825a4e57745898e37f0e",
          "type": "distribution",
          "comment": "As detected by composer's `getDistUrls()` (type=zip & reference=51fe4b6e5298dd8af187825a4e57745898e37f0e & sha1=UNDEFINED)"
        }
      ]
    },
    {
      "type": "library",
      "bom-ref": "pkg:composer/container-interop/container-interop@1.2.0",
      "group": "container-interop",
      "name": "container-interop",
      "version": "1.2.0",
      "description": "Promoting the interoperability of container objects (DIC, SL, etc.)",
      "licenses": [
        {
          "license": {
            "id": "MIT"
          }
        }
      ],
      "purl": "pkg:composer/container-interop/container-interop@1.2.0",
      "externalReferences": [
        {
          "url": "https://github.com/container-interop/container-interop.git",
          "type": "distribution",
          "comment": "As detected by composer's `getSourceUrls()` (type=git & reference=79cbf1341c22ec75643d841642dd5d6acd83bdb8)"
        },
        {
          "url": "https://api.github.com/repos/container-interop/container-interop/zipball/79cbf1341c22ec75643d841642dd5d6acd83bdb8",
          "type": "distribution",
          "comment": "As detected by composer's `getDistUrls()` (type=zip & reference=79cbf1341c22ec75643d841642dd5d6acd83bdb8 & sha1=UNDEFINED)"
        },
        {
          "url": "https://github.com/container-interop/container-interop",
          "type": "website",
          "comment": "As set via `homepage` in composer package definition."
        }
      ]
    },
    {
      "type": "library",
      "bom-ref": "pkg:composer/cyclonedx/cyclonedx-library@1.5.0",
      "group": "cyclonedx",
      "name": "cyclonedx-library",
      "version": "1.5.0",
      "description": "Work with CycloneDX Software Bill-of-Materials (SBOM)",
      "licenses": [
        {
          "license": {
            "id": "Apache-2.0"
          }
        }
      ],
      "purl": "pkg:composer/cyclonedx/cyclonedx-library@1.5.0",
      "externalReferences": [
        {
          "url": "https://github.com/CycloneDX/cyclonedx-php-library.git",
          "type": "distribution",
          "comment": "As detected by composer's `getSourceUrls()` (type=git & reference=f41632e1d47001700ef93fa899e6dc49779aa784)"
        },
        {
          "url": "https://api.github.com/repos/CycloneDX/cyclonedx-php-library/zipball/f41632e1d47001700ef93fa899e6dc49779aa784",
          "type": "distribution",
          "comment": "As detected by composer's `getDistUrls()` (type=zip & reference=f41632e1d47001700ef93fa899e6dc49779aa784 & sha1=UNDEFINED)"
        },
        {
          "url": "https://github.com/CycloneDX/cyclonedx-php-library/",
          "type": "website",
          "comment": "As set via `homepage` in composer package definition."
        },
        {
          "url": "https://github.com/CycloneDX/cyclonedx-php-library/issues",
          "type": "issue-tracker",
          "comment": "As set via `support.issues` in composer package definition."
        },
        {
          "url": "https://github.com/CycloneDX/cyclonedx-php-library/tree/v1.5.0",
          "type": "distribution",
          "comment": "As set via `support.source` in composer package definition."
        }
      ]
    },
    {
      "type": "application",
      "bom-ref": "pkg:composer/cyclonedx/cyclonedx-php-composer@3.10.0",
      "group": "cyclonedx",
      "name": "cyclonedx-php-composer",
      "version": "3.10.0",
      "description": "Creates CycloneDX Software Bill-of-Materials (SBOM) from PHP Composer projects",
      "licenses": [
        {
          "license": {
            "id": "Apache-2.0"
          }
        }
      ],
      "purl": "pkg:composer/cyclonedx/cyclonedx-php-composer@3.10.0",
      "externalReferences": [
        {
          "url": "https://github.com/CycloneDX/cyclonedx-php-composer.git",
          "type": "distribution",
          "comment": "As detected by composer's `getSourceUrls()` (type=git & reference=341792df609deab6131ffa65f2f3b273f2e6128a)"
        },
        {
          "url": "https://api.github.com/repos/CycloneDX/cyclonedx-php-composer/zipball/341792df609deab6131ffa65f2f3b273f2e6128a",
          "type": "distribution",
          "comment": "As detected by composer's `getDistUrls()` (type=zip & reference=341792df609deab6131ffa65f2f3b273f2e6128a & sha1=UNDEFINED)"
        },
        {
          "url": "https://github.com/CycloneDX/cyclonedx-php-composer/",
          "type": "website",
          "comment": "As set via `homepage` in composer package definition."
        },
        {
          "url": "https://github.com/CycloneDX/cyclonedx-php-composer/issues",
          "type": "issue-tracker",
          "comment": "As set via `support.issues` in composer package definition."
        },
        {
          "url": "https://github.com/CycloneDX/cyclonedx-php-composer/tree/v3.10.0",
          "type": "distribution",
          "comment": "As set via `support.source` in composer package definition."
        }
      ]
    },
    {
      "type": "library",
      "bom-ref": "pkg:composer/doctrine/instantiator@1.1.0",
      "group": "doctrine",
      "name": "instantiator",
      "version": "1.1.0",
      "description": "A small, lightweight utility to instantiate objects in PHP without invoking their constructors",
      "licenses": [
        {
          "license": {
            "id": "MIT"
          }
        }
      ],
      "purl": "pkg:composer/doctrine/instantiator@1.1.0",
      "externalReferences": [
        {
          "url": "https://github.com/doctrine/instantiator.git",
          "type": "distribution",
          "comment": "As detected by composer's `getSourceUrls()` (type=git & reference=185b8868aa9bf7159f5f953ed5afb2d7fcdc3bda)"
        },
        {
          "url": "https://api.github.com/repos/doctrine/instantiator/zipball/185b8868aa9bf7159f5f953ed5afb2d7fcdc3bda",
          "type": "distribution",
          "comment": "As detected by composer's `getDistUrls()` (type=zip & reference=185b8868aa9bf7159f5f953ed5afb2d7fcdc3bda & sha1=UNDEFINED)"
        },
        {
          "url": "https://github.com/doctrine/instantiator",
          "type": "website",
          "comment": "As set via `homepage` in composer package definition."
        }
      ]
    },
    {
      "type": "library",
      "bom-ref": "pkg:composer/kevinlebrun/colors.php@0.2.0",
      "group": "kevinlebrun",
      "name": "colors.php",
      "version": "0.2.0",
      "description": "Colors for PHP CLI scripts",
      "licenses": [
        {
          "license": {
            "id": "MIT"
          }
        }
      ],
      "purl": "pkg:composer/kevinlebrun/colors.php@0.2.0",
      "externalReferences": [
        {
          "url": "https://github.com/kevinlebrun/colors.php.git",
          "type": "distribution",
          "comment": "As detected by composer's `getSourceUrls()` (type=git & reference=b13d23b9365ece519abc0eaa77cd3061c5810d30)"
        },
        {
          "url": "https://api.github.com/repos/kevinlebrun/colors.php/zipball/b13d23b9365ece519abc0eaa77cd3061c5810d30",
          "type": "distribution",
          "comment": "As detected by composer's `getDistUrls()` (type=zip & reference=b13d23b9365ece519abc0eaa77cd3061c5810d30 & sha1=UNDEFINED)"
        },
        {
          "url": "https://github.com/kevinlebrun/colors.php",
          "type": "website",
          "comment": "As set via `homepage` in composer package definition."
        }
      ]
    },
    {
      "type": "library",
      "bom-ref": "pkg:composer/myclabs/deep-copy@1.7.0",
      "group": "myclabs",
      "name": "deep-copy",
      "version": "1.7.0",
      "description": "Create deep copies (clones) of your objects",
      "licenses": [
        {
          "license": {
            "id": "MIT"
          }
        }
      ],
      "purl": "pkg:composer/myclabs/deep-copy@1.7.0",
      "externalReferences": [
        {
          "url": "https://github.com/myclabs/DeepCopy.git",
          "type": "distribution",
          "comment": "As detected by composer's `getSourceUrls()` (type=git & reference=3b8a3a99ba1f6a3952ac2747d989303cbd6b7a3e)"
        },
        {
          "url": "https://api.github.com/repos/myclabs/DeepCopy/zipball/3b8a3a99ba1f6a3952ac2747d989303cbd6b7a3e",
          "type": "distribution",
          "comment": "As detected by composer's `getDistUrls()` (type=zip & reference=3b8a3a99ba1f6a3952ac2747d989303cbd6b7a3e & sha1=UNDEFINED)"
        }
      ]
    },
    {
      "type": "library",
      "bom-ref": "pkg:composer/nategood/commando@0.2.1",
      "group": "nategood",
      "name": "commando",
      "version": "0.2.1",
      "description": "PHP CLI Commando Style",
      "licenses": [
        {
          "license": {
            "id": "MIT"
          }
        }
      ],
      "purl": "pkg:composer/nategood/commando@0.2.1",
      "externalReferences": [
        {
          "url": "https://github.com/nategood/commando.git",
          "type": "distribution",
          "comment": "As detected by composer's `getSourceUrls()` (type=git & reference=b8e475d08a6ff1c0f2b89391e777c4e71fc1a6e1)"
        },
        {
          "url": "https://api.github.com/repos/nategood/commando/zipball/b8e475d08a6ff1c0f2b89391e777c4e71fc1a6e1",
          "type": "distribution",
          "comment": "As detected by composer's `getDistUrls()` (type=zip & reference=b8e475d08a6ff1c0f2b89391e777c4e71fc1a6e1 & sha1=UNDEFINED)"
        },
        {
          "url": "http://github.com/nategood/commando",
          "type": "website",
          "comment": "As set via `homepage` in composer package definition."
        }
      ]
    },
    {
      "type": "library",
      "bom-ref": "pkg:composer/package-url/packageurl-php@1.0.4",
      "group": "package-url",
      "name": "packageurl-php",
      "version": "1.0.4",
      "description": "A parser and builder based on the package url spec.",
      "licenses": [
        {
          "license": {
            "id": "MIT"
          }
        }
      ],
      "purl": "pkg:composer/package-url/packageurl-php@1.0.4",
      "externalReferences": [
        {
          "url": "https://github.com/package-url/packageurl-php.git",
          "type": "distribution",
          "comment": "As detected by composer's `getSourceUrls()` (type=git & reference=c45953babed516d27a0cf6c1a2d9f7e883ce214f)"
        },
        {
          "url": "https://api.github.com/repos/package-url/packageurl-php/zipball/c45953babed516d27a0cf6c1a2d9f7e883ce214f",
          "type": "distribution",
          "comment": "As detected by composer's `getDistUrls()` (type=zip & reference=c45953babed516d27a0cf6c1a2d9f7e883ce214f & sha1=UNDEFINED)"
        },
        {
          "url": "https://github.com/package-url/packageurl-php",
          "type": "website",
          "comment": "As set via `homepage` in composer package definition."
        },
        {
          "url": "https://github.com/package-url/packageurl-php/issues",
          "type": "issue-tracker",
          "comment": "As set via `support.issues` in composer package definition."
        },
        {
          "url": "https://github.com/package-url/packageurl-php/tree/1.0.4",
          "type": "distribution",
          "comment": "As set via `support.source` in composer package definition."
        }
      ]
    },
    {
      "type": "library",
      "bom-ref": "pkg:composer/phar-io/manifest@1.0.1",
      "group": "phar-io",
      "name": "manifest",
      "version": "1.0.1",
      "description": "Component for reading phar.io manifest information from a PHP Archive (PHAR)",
      "licenses": [
        {
          "license": {
            "id": "BSD-3-Clause"
          }
        }
      ],
      "purl": "pkg:composer/phar-io/manifest@1.0.1",
      "externalReferences": [
        {
          "url": "https://github.com/phar-io/manifest.git",
          "type": "distribution",
          "comment": "As detected by composer's `getSourceUrls()` (type=git & reference=2df402786ab5368a0169091f61a7c1e0eb6852d0)"
        },
        {
          "url": "https://api.github.com/repos/phar-io/manifest/zipball/2df402786ab5368a0169091f61a7c1e0eb6852d0",
          "type": "distribution",
          "comment": "As detected by composer's `getDistUrls()` (type=zip & reference=2df402786ab5368a0169091f61a7c1e0eb6852d0 & sha1=UNDEFINED)"
        }
      ]
    },
    {
      "type": "library",
      "bom-ref": "pkg:composer/phar-io/version@1.0.1",
      "group": "phar-io",
      "name": "version",
      "version": "1.0.1",
      "description": "Library for handling version information and constraints",
      "licenses": [
        {
          "license": {
            "id": "BSD-3-Clause"
          }
        }
      ],
      "purl": "pkg:composer/phar-io/version@1.0.1",
      "externalReferences": [
        {
          "url": "https://github.com/phar-io/version.git",
          "type": "distribution",
          "comment": "As detected by composer's `getSourceUrls()` (type=git & reference=a70c0ced4be299a63d32fa96d9281d03e94041df)"
        },
        {
          "url": "https://api.github.com/repos/phar-io/version/zipball/a70c0ced4be299a63d32fa96d9281d03e94041df",
          "type": "distribution",
          "comment": "As detected by composer's `getDistUrls()` (type=zip & reference=a70c0ced4be299a63d32fa96d9281d03e94041df & sha1=UNDEFINED)"
        }
      ]
    },
    {
      "type": "library",
      "bom-ref": "pkg:composer/phpdocumentor/reflection-common@1.0.1",
      "group": "phpdocumentor",
      "name": "reflection-common",
      "version": "1.0.1",
      "description": "Common reflection classes used by phpdocumentor to reflect the code structure",
      "licenses": [
        {
          "license": {
            "id": "MIT"
          }
        }
      ],
      "purl": "pkg:composer/phpdocumentor/reflection-common@1.0.1",
      "externalReferences": [
        {
          "url": "https://github.com/phpDocumentor/ReflectionCommon.git",
          "type": "distribution",
          "comment": "As detected by composer's `getSourceUrls()` (type=git & reference=21bdeb5f65d7ebf9f43b1b25d404f87deab5bfb6)"
        },
        {
          "url": "https://api.github.com/repos/phpDocumentor/ReflectionCommon/zipball/21bdeb5f65d7ebf9f43b1b25d404f87deab5bfb6",
          "type": "distribution",
          "comment": "As detected by composer's `getDistUrls()` (type=zip & reference=21bdeb5f65d7ebf9f43b1b25d404f87deab5bfb6 & sha1=UNDEFINED)"
        },
        {
          "url": "http://www.phpdoc.org",
          "type": "website",
          "comment": "As set via `homepage` in composer package definition."
        }
      ]
    },
    {
      "type": "library",
      "bom-ref": "pkg:composer/phpdocumentor/reflection-docblock@4.3.0",
      "group": "phpdocumentor",
      "name": "reflection-docblock",
      "version": "4.3.0",
      "description": "With this component, a library can provide support for annotations via DocBlocks or otherwise retrieve information that is embedded in a DocBlock.",
      "licenses": [
        {
          "license": {
            "id": "MIT"
          }
        }
      ],
      "purl": "pkg:composer/phpdocumentor/reflection-docblock@4.3.0",
      "externalReferences": [
        {
          "url": "https://github.com/phpDocumentor/ReflectionDocBlock.git",
          "type": "distribution",
          "comment": "As detected by composer's `getSourceUrls()` (type=git & reference=94fd0001232e47129dd3504189fa1c7225010d08)"
        },
        {
          "url": "https://api.github.com/repos/phpDocumentor/ReflectionDocBlock/zipball/94fd0001232e47129dd3504189fa1c7225010d08",
          "type": "distribution",
          "comment": "As detected by composer's `getDistUrls()` (type=zip & reference=94fd0001232e47129dd3504189fa1c7225010d08 & sha1=UNDEFINED)"
        }
      ]
    },
    {
      "type": "library",
      "bom-ref": "pkg:composer/phpdocumentor/type-resolver@0.4.0",
      "group": "phpdocumentor",
      "name": "type-resolver",
      "version": "0.4.0",
      "licenses": [
        {
          "license": {
            "id": "MIT"
          }
        }
      ],
      "purl": "pkg:composer/phpdocumentor/type-resolver@0.4.0",
      "externalReferences": [
        {
          "url": "https://github.com/phpDocumentor/TypeResolver.git",
          "type": "distribution",
          "comment": "As detected by composer's `getSourceUrls()` (type=git & reference=9c977708995954784726e25d0cd1dddf4e65b0f7)"
        },
        {
          "url": "https://api.github.com/repos/phpDocumentor/TypeResolver/zipball/9c977708995954784726e25d0cd1dddf4e65b0f7",
          "type": "distribution",
          "comment": "As detected by composer's `getDistUrls()` (type=zip & reference=9c977708995954784726e25d0cd1dddf4e65b0f7 & sha1=UNDEFINED)"
        }
      ]
    },
    {
      "type": "library",
      "bom-ref": "pkg:composer/phplang/scope-exit@1.0.0",
      "group": "phplang",
      "name": "scope-exit",
      "version": "1.0.0",
      "description": "Emulation of SCOPE_EXIT construct from C++",
      "licenses": [
        {
          "license": {
            "name": "BSD"
          }
        }
      ],
      "purl": "pkg:composer/phplang/scope-exit@1.0.0",
      "externalReferences": [
        {
          "url": "https://github.com/phplang/scope-exit.git",
          "type": "distribution",
          "comment": "As detected by composer's `getSourceUrls()` (type=git & reference=239b73abe89f9414aa85a7ca075ec9445629192b)"
        },
        {
          "url": "https://api.github.com/repos/phplang/scope-exit/zipball/239b73abe89f9414aa85a7ca075ec9445629192b",
          "type": "distribution",
          "comment": "As detected by composer's `getDistUrls()` (type=zip & reference=239b73abe89f9414aa85a7ca075ec9445629192b & sha1=UNDEFINED)"
        },
        {
          "url": "https://github.com/phplang/scope-exit",
          "type": "website",
          "comment": "As set via `homepage` in composer package definition."
        },
        {
          "url": "https://github.com/phplang/scope-exit/issues",
          "type": "issue-tracker",
          "comment": "As set via `support.issues` in composer package definition."
        },
        {
          "url": "https://github.com/phplang/scope-exit/tree/master",
          "type": "distribution",
          "comment": "As set via `support.source` in composer package definition."
        }
      ]
    },
    {
      "type": "library",
      "bom-ref": "pkg:composer/phpspec/prophecy@1.7.6",
      "group": "phpspec",
      "name": "prophecy",
      "version": "1.7.6",
      "description": "Highly opinionated mocking framework for PHP 5.3+",
      "licenses": [
        {
          "license": {
            "id": "MIT"
          }
        }
      ],
      "purl": "pkg:composer/phpspec/prophecy@1.7.6",
      "externalReferences": [
        {
          "url": "https://github.com/phpspec/prophecy.git",
          "type": "distribution",
          "comment": "As detected by composer's `getSourceUrls()` (type=git & reference=33a7e3c4fda54e912ff6338c48823bd5c0f0b712)"
        },
        {
          "url": "https://api.github.com/repos/phpspec/prophecy/zipball/33a7e3c4fda54e912ff6338c48823bd5c0f0b712",
          "type": "distribution",
          "comment": "As detected by composer's `getDistUrls()` (type=zip & reference=33a7e3c4fda54e912ff6338c48823bd5c0f0b712 & sha1=UNDEFINED)"
        },
        {
          "url": "https://github.com/phpspec/prophecy",
          "type": "website",
          "comment": "As set via `homepage` in composer package definition."
        }
      ]
    },
    {
      "type": "library",
      "bom-ref": "pkg:composer/phpunit/php-code-coverage@6.0.3",
      "group": "phpunit",
      "name": "php-code-coverage",
      "version": "6.0.3",
      "description": "Library that provides collection, processing, and rendering functionality for PHP code coverage information.",
      "licenses": [
        {
          "license": {
            "id": "BSD-3-Clause"
          }
        }
      ],
      "purl": "pkg:composer/phpunit/php-code-coverage@6.0.3",
      "externalReferences": [
        {
          "url": "https://github.com/sebastianbergmann/php-code-coverage.git",
          "type": "distribution",
          "comment": "As detected by composer's `getSourceUrls()` (type=git & reference=774a82c0c5da4c1c7701790c262035d235ab7856)"
        },
        {
          "url": "https://api.github.com/repos/sebastianbergmann/php-code-coverage/zipball/774a82c0c5da4c1c7701790c262035d235ab7856",
          "type": "distribution",
          "comment": "As detected by composer's `getDistUrls()` (type=zip & reference=774a82c0c5da4c1c7701790c262035d235ab7856 & sha1=UNDEFINED)"
        },
        {
          "url": "https://github.com/sebastianbergmann/php-code-coverage",
          "type": "website",
          "comment": "As set via `homepage` in composer package definition."
        }
      ]
    },
    {
      "type": "library",
      "bom-ref": "pkg:composer/phpunit/php-file-iterator@1.4.5",
      "group": "phpunit",
      "name": "php-file-iterator",
      "version": "1.4.5",
      "description": "FilterIterator implementation that filters files based on a list of suffixes.",
      "licenses": [
        {
          "license": {
            "id": "BSD-3-Clause"
          }
        }
      ],
      "purl": "pkg:composer/phpunit/php-file-iterator@1.4.5",
      "externalReferences": [
        {
          "url": "https://github.com/sebastianbergmann/php-file-iterator.git",
          "type": "distribution",
          "comment": "As detected by composer's `getSourceUrls()` (type=git & reference=730b01bc3e867237eaac355e06a36b85dd93a8b4)"
        },
        {
          "url": "https://api.github.com/repos/sebastianbergmann/php-file-iterator/zipball/730b01bc3e867237eaac355e06a36b85dd93a8b4",
          "type": "distribution",
          "comment": "As detected by composer's `getDistUrls()` (type=zip & reference=730b01bc3e867237eaac355e06a36b85dd93a8b4 & sha1=UNDEFINED)"
        },
        {
          "url": "https://github.com/sebastianbergmann/php-file-iterator/",
          "type": "website",
          "comment": "As set via `homepage` in composer package definition."
        }
      ]
    },
    {
      "type": "library",
      "bom-ref": "pkg:composer/phpunit/php-text-template@1.2.1",
      "group": "phpunit",
      "name": "php-text-template",
      "version": "1.2.1",
      "description": "Simple template engine.",
      "licenses": [
        {
          "license": {
            "id": "BSD-3-Clause"
          }
        }
      ],
      "purl": "pkg:composer/phpunit/php-text-template@1.2.1",
      "externalReferences": [
        {
          "url": "https://github.com/sebastianbergmann/php-text-template.git",
          "type": "distribution",
          "comment": "As detected by composer's `getSourceUrls()` (type=git & reference=31f8b717e51d9a2afca6c9f046f5d69fc27c8686)"
        },
        {
          "url": "https://api.github.com/repos/sebastianbergmann/php-text-template/zipball/31f8b717e51d9a2afca6c9f046f5d69fc27c8686",
          "type": "distribution",
          "comment": "As detected by composer's `getDistUrls()` (type=zip & reference=31f8b717e51d9a2afca6c9f046f5d69fc27c8686 & sha1=UNDEFINED)"
        },
        {
          "url": "https://github.com/sebastianbergmann/php-text-template/",
          "type": "website",
          "comment": "As set via `homepage` in composer package definition."
        }
      ]
    },
    {
      "type": "library",
      "bom-ref": "pkg:composer/phpunit/php-timer@2.0.0",
      "group": "phpunit",
      "name": "php-timer",
      "version": "2.0.0",
      "description": "Utility class for timing",
      "licenses": [
        {
          "license": {
            "id": "BSD-3-Clause"
          }
        }
      ],
      "purl": "pkg:composer/phpunit/php-timer@2.0.0",
      "externalReferences": [
        {
          "url": "https://github.com/sebastianbergmann/php-timer.git",
          "type": "distribution",
          "comment": "As detected by composer's `getSourceUrls()` (type=git & reference=8b8454ea6958c3dee38453d3bd571e023108c91f)"
        },
        {
          "url": "https://api.github.com/repos/sebastianbergmann/php-timer/zipball/8b8454ea6958c3dee38453d3bd571e023108c91f",
          "type": "distribution",
          "comment": "As detected by composer's `getDistUrls()` (type=zip & reference=8b8454ea6958c3dee38453d3bd571e023108c91f & sha1=UNDEFINED)"
        },
        {
          "url": "https://github.com/sebastianbergmann/php-timer/",
          "type": "website",
          "comment": "As set via `homepage` in composer package definition."
        }
      ]
    },
    {
      "type": "library",
      "bom-ref": "pkg:composer/phpunit/php-token-stream@3.0.0",
      "group": "phpunit",
      "name": "php-token-stream",
      "version": "3.0.0",
      "description": "Wrapper around PHP's tokenizer extension.",
      "licenses": [
        {
          "license": {
            "id": "BSD-3-Clause"
          }
        }
      ],
      "purl": "pkg:composer/phpunit/php-token-stream@3.0.0",
      "externalReferences": [
        {
          "url": "https://github.com/sebastianbergmann/php-token-stream.git",
          "type": "distribution",
          "comment": "As detected by composer's `getSourceUrls()` (type=git & reference=21ad88bbba7c3d93530d93994e0a33cd45f02ace)"
        },
        {
          "url": "https://api.github.com/repos/sebastianbergmann/php-token-stream/zipball/21ad88bbba7c3d93530d93994e0a33cd45f02ace",
          "type": "distribution",
          "comment": "As detected by composer's `getDistUrls()` (type=zip & reference=21ad88bbba7c3d93530d93994e0a33cd45f02ace & sha1=UNDEFINED)"
        },
        {
          "url": "https://github.com/sebastianbergmann/php-token-stream/",
          "type": "website",
          "comment": "As set via `homepage` in composer package definition."
        }
      ]
    },
    {
      "type": "library",
      "bom-ref": "pkg:composer/phpunit/phpunit@7.1.4",
      "group": "phpunit",
      "name": "phpunit",
      "version": "7.1.4",
      "description": "The PHP Unit Testing framework.",
      "licenses": [
        {
          "license": {
            "id": "BSD-3-Clause"
          }
        }
      ],
      "purl": "pkg:composer/phpunit/phpunit@7.1.4",
      "externalReferences": [
        {
          "url": "https://github.com/sebastianbergmann/phpunit.git",
          "type": "distribution",
          "comment": "As detected by composer's `getSourceUrls()` (type=git & reference=6d51299e307dc510149e0b7cd1931dd11770e1cb)"
        },
        {
          "url": "https://api.github.com/repos/sebastianbergmann/phpunit/zipball/6d51299e307dc510149e0b7cd1931dd11770e1cb",
          "type": "distribution",
          "comment": "As detected by composer's `getDistUrls()` (type=zip & reference=6d51299e307dc510149e0b7cd1931dd11770e1cb & sha1=UNDEFINED)"
        },
        {
          "url": "https://phpunit.de/",
          "type": "website",
          "comment": "As set via `homepage` in composer package definition."
        }
      ]
    },
    {
      "type": "library",
      "bom-ref": "pkg:composer/phpunit/phpunit-mock-objects@6.1.1",
      "group": "phpunit",
      "name": "phpunit-mock-objects",
      "version": "6.1.1",
      "description": "Mock Object library for PHPUnit",
      "licenses": [
        {
          "license": {
            "id": "BSD-3-Clause"
          }
        }
      ],
      "purl": "pkg:composer/phpunit/phpunit-mock-objects@6.1.1",
      "externalReferences": [
        {
          "url": "https://github.com/sebastianbergmann/phpunit-mock-objects.git",
          "type": "distribution",
          "comment": "As detected by composer's `getSourceUrls()` (type=git & reference=70c740bde8fd9ea9ea295be1cd875dd7b267e157)"
        },
        {
          "url": "https://api.github.com/repos/sebastianbergmann/phpunit-mock-objects/zipball/70c740bde8fd9ea9ea295be1cd875dd7b267e157",
          "type": "distribution",
          "comment": "As detected by composer's `getDistUrls()` (type=zip & reference=70c740bde8fd9ea9ea295be1cd875dd7b267e157 & sha1=UNDEFINED)"
        },
        {
          "url": "https://github.com/sebastianbergmann/phpunit-mock-objects/",
          "type": "website",
          "comment": "As set via `homepage` in composer package definition."
        }
      ]
    },
    {
      "type": "library",
      "bom-ref": "pkg:composer/pimple/pimple@2.1.1",
      "group": "pimple",
      "name": "pimple",
      "version": "2.1.1",
      "description": "Pimple is a simple Dependency Injection Container for PHP 5.3",
      "licenses": [
        {
          "license": {
            "id": "MIT"
          }
        }
      ],
      "purl": "pkg:composer/pimple/pimple@2.1.1",
      "externalReferences": [
        {
          "url": "https://github.com/silexphp/Pimple.git",
          "type": "distribution",
          "comment": "As detected by composer's `getSourceUrls()` (type=git & reference=ea22fb2880faf7b7b0e17c9809c6fe25b071fd76)"
        },
        {
          "url": "https://api.github.com/repos/silexphp/Pimple/zipball/ea22fb2880faf7b7b0e17c9809c6fe25b071fd76",
          "type": "distribution",
          "comment": "As detected by composer's `getDistUrls()` (type=zip & reference=ea22fb2880faf7b7b0e17c9809c6fe25b071fd76 & sha1=UNDEFINED)"
        },
        {
          "url": "http://pimple.sensiolabs.org",
          "type": "website",
          "comment": "As set via `homepage` in composer package definition."
        }
      ]
    },
    {
      "type": "library",
      "bom-ref": "pkg:composer/psr/container@1.0.0",
      "group": "psr",
      "name": "container",
      "version": "1.0.0",
      "description": "Common Container Interface (PHP FIG PSR-11)",
      "licenses": [
        {
          "license": {
            "id": "MIT"
          }
        }
      ],
      "purl": "pkg:composer/psr/container@1.0.0",
      "externalReferences": [
        {
          "url": "https://github.com/php-fig/container.git",
          "type": "distribution",
          "comment": "As detected by composer's `getSourceUrls()` (type=git & reference=b7ce3b176482dbbc1245ebf52b181af44c2cf55f)"
        },
        {
          "url": "https://api.github.com/repos/php-fig/container/zipball/b7ce3b176482dbbc1245ebf52b181af44c2cf55f",
          "type": "distribution",
          "comment": "As detected by composer's `getDistUrls()` (type=zip & reference=b7ce3b176482dbbc1245ebf52b181af44c2cf55f & sha1=UNDEFINED)"
        },
        {
          "url": "https://github.com/php-fig/container",
          "type": "website",
          "comment": "As set via `homepage` in composer package definition."
        }
      ]
    },
    {
      "type": "library",
      "bom-ref": "pkg:composer/sebastian/code-unit-reverse-lookup@1.0.1",
      "group": "sebastian",
      "name": "code-unit-reverse-lookup",
      "version": "1.0.1",
      "description": "Looks up which function or method a line of code belongs to",
      "licenses": [
        {
          "license": {
            "id": "BSD-3-Clause"
          }
        }
      ],
      "purl": "pkg:composer/sebastian/code-unit-reverse-lookup@1.0.1",
      "externalReferences": [
        {
          "url": "https://github.com/sebastianbergmann/code-unit-reverse-lookup.git",
          "type": "distribution",
          "comment": "As detected by composer's `getSourceUrls()` (type=git & reference=4419fcdb5eabb9caa61a27c7a1db532a6b55dd18)"
        },
        {
          "url": "https://api.github.com/repos/sebastianbergmann/code-unit-reverse-lookup/zipball/4419fcdb5eabb9caa61a27c7a1db532a6b55dd18",
          "type": "distribution",
          "comment": "As detected by composer's `getDistUrls()` (type=zip & reference=4419fcdb5eabb9caa61a27c7a1db532a6b55dd18 & sha1=UNDEFINED)"
        },
        {
          "url": "https://github.com/sebastianbergmann/code-unit-reverse-lookup/",
          "type": "website",
          "comment": "As set via `homepage` in composer package definition."
        }
      ]
    },
    {
      "type": "library",
      "bom-ref": "pkg:composer/sebastian/comparator@3.0.0",
      "group": "sebastian",
      "name": "comparator",
      "version": "3.0.0",
      "description": "Provides the functionality to compare PHP values for equality",
      "licenses": [
        {
          "license": {
            "id": "BSD-3-Clause"
          }
        }
      ],
      "purl": "pkg:composer/sebastian/comparator@3.0.0",
      "externalReferences": [
        {
          "url": "https://github.com/sebastianbergmann/comparator.git",
          "type": "distribution",
          "comment": "As detected by composer's `getSourceUrls()` (type=git & reference=ed5fd2281113729f1ebcc64d101ad66028aeb3d5)"
        },
        {
          "url": "https://api.github.com/repos/sebastianbergmann/comparator/zipball/ed5fd2281113729f1ebcc64d101ad66028aeb3d5",
          "type": "distribution",
          "comment": "As detected by composer's `getDistUrls()` (type=zip & reference=ed5fd2281113729f1ebcc64d101ad66028aeb3d5 & sha1=UNDEFINED)"
        },
        {
          "url": "https://github.com/sebastianbergmann/comparator",
          "type": "website",
          "comment": "As set via `homepage` in composer package definition."
        }
      ]
    },
    {
      "type": "library",
      "bom-ref": "pkg:composer/sebastian/diff@3.0.0",
      "group": "sebastian",
      "name": "diff",
      "version": "3.0.0",
      "description": "Diff implementation",
      "licenses": [
        {
          "license": {
            "id": "BSD-3-Clause"
          }
        }
      ],
      "purl": "pkg:composer/sebastian/diff@3.0.0",
      "externalReferences": [
        {
          "url": "https://github.com/sebastianbergmann/diff.git",
          "type": "distribution",
          "comment": "As detected by composer's `getSourceUrls()` (type=git & reference=e09160918c66281713f1c324c1f4c4c3037ba1e8)"
        },
        {
          "url": "https://api.github.com/repos/sebastianbergmann/diff/zipball/e09160918c66281713f1c324c1f4c4c3037ba1e8",
          "type": "distribution",
          "comment": "As detected by composer's `getDistUrls()` (type=zip & reference=e09160918c66281713f1c324c1f4c4c3037ba1e8 & sha1=UNDEFINED)"
        },
        {
          "url": "https://github.com/sebastianbergmann/diff",
          "type": "website",
          "comment": "As set via `homepage` in composer package definition."
        }
      ]
    },
    {
      "type": "library",
      "bom-ref": "pkg:composer/sebastian/environment@3.1.0",
      "group": "sebastian",
      "name": "environment",
      "version": "3.1.0",
      "description": "Provides functionality to handle HHVM/PHP environments",
      "licenses": [
        {
          "license": {
            "id": "BSD-3-Clause"
          }
        }
      ],
      "purl": "pkg:composer/sebastian/environment@3.1.0",
      "externalReferences": [
        {
          "url": "https://github.com/sebastianbergmann/environment.git",
          "type": "distribution",
          "comment": "As detected by composer's `getSourceUrls()` (type=git & reference=cd0871b3975fb7fc44d11314fd1ee20925fce4f5)"
        },
        {
          "url": "https://api.github.com/repos/sebastianbergmann/environment/zipball/cd0871b3975fb7fc44d11314fd1ee20925fce4f5",
          "type": "distribution",
          "comment": "As detected by composer's `getDistUrls()` (type=zip & reference=cd0871b3975fb7fc44d11314fd1ee20925fce4f5 & sha1=UNDEFINED)"
        },
        {
          "url": "http://www.github.com/sebastianbergmann/environment",
          "type": "website",
          "comment": "As set via `homepage` in composer package definition."
        }
      ]
    },
    {
      "type": "library",
      "bom-ref": "pkg:composer/sebastian/exporter@3.1.0",
      "group": "sebastian",
      "name": "exporter",
      "version": "3.1.0",
      "description": "Provides the functionality to export PHP variables for visualization",
      "licenses": [
        {
          "license": {
            "id": "BSD-3-Clause"
          }
        }
      ],
      "purl": "pkg:composer/sebastian/exporter@3.1.0",
      "externalReferences": [
        {
          "url": "https://github.com/sebastianbergmann/exporter.git",
          "type": "distribution",
          "comment": "As detected by composer's `getSourceUrls()` (type=git & reference=234199f4528de6d12aaa58b612e98f7d36adb937)"
        },
        {
          "url": "https://api.github.com/repos/sebastianbergmann/exporter/zipball/234199f4528de6d12aaa58b612e98f7d36adb937",
          "type": "distribution",
          "comment": "As detected by composer's `getDistUrls()` (type=zip & reference=234199f4528de6d12aaa58b612e98f7d36adb937 & sha1=UNDEFINED)"
        },
        {
          "url": "http://www.github.com/sebastianbergmann/exporter",
          "type": "website",
          "comment": "As set via `homepage` in composer package definition."
        }
      ]
    },
    {
      "type": "library",
      "bom-ref": "pkg:composer/sebastian/global-state@2.0.0",
      "group": "sebastian",
      "name": "global-state",
      "version": "2.0.0",
      "description": "Snapshotting of global state",
      "licenses": [
        {
          "license": {
            "id": "BSD-3-Clause"
          }
        }
      ],
      "purl": "pkg:composer/sebastian/global-state@2.0.0",
      "externalReferences": [
        {
          "url": "https://github.com/sebastianbergmann/global-state.git",
          "type": "distribution",
          "comment": "As detected by composer's `getSourceUrls()` (type=git & reference=e8ba02eed7bbbb9e59e43dedd3dddeff4a56b0c4)"
        },
        {
          "url": "https://api.github.com/repos/sebastianbergmann/global-state/zipball/e8ba02eed7bbbb9e59e43dedd3dddeff4a56b0c4",
          "type": "distribution",
          "comment": "As detected by composer's `getDistUrls()` (type=zip & reference=e8ba02eed7bbbb9e59e43dedd3dddeff4a56b0c4 & sha1=UNDEFINED)"
        },
        {
          "url": "http://www.github.com/sebastianbergmann/global-state",
          "type": "website",
          "comment": "As set via `homepage` in composer package definition."
        }
      ]
    },
    {
      "type": "library",
      "bom-ref": "pkg:composer/sebastian/object-enumerator@3.0.3",
      "group": "sebastian",
      "name": "object-enumerator",
      "version": "3.0.3",
      "description": "Traverses array structures and object graphs to enumerate all referenced objects",
      "licenses": [
        {
          "license": {
            "id": "BSD-3-Clause"
          }
        }
      ],
      "purl": "pkg:composer/sebastian/object-enumerator@3.0.3",
      "externalReferences": [
        {
          "url": "https://github.com/sebastianbergmann/object-enumerator.git",
          "type": "distribution",
          "comment": "As detected by composer's `getSourceUrls()` (type=git & reference=7cfd9e65d11ffb5af41198476395774d4c8a84c5)"
        },
        {
          "url": "https://api.github.com/repos/sebastianbergmann/object-enumerator/zipball/7cfd9e65d11ffb5af41198476395774d4c8a84c5",
          "type": "distribution",
          "comment": "As detected by composer's `getDistUrls()` (type=zip & reference=7cfd9e65d11ffb5af41198476395774d4c8a84c5 & sha1=UNDEFINED)"
        },
        {
          "url": "https://github.com/sebastianbergmann/object-enumerator/",
          "type": "website",
          "comment": "As set via `homepage` in composer package definition."
        }
      ]
    },
    {
      "type": "library",
      "bom-ref": "pkg:composer/sebastian/object-reflector@1.1.1",
      "group": "sebastian",
      "name": "object-reflector",
      "version": "1.1.1",
      "description": "Allows reflection of object attributes, including inherited and non-public ones",
      "licenses": [
        {
          "license": {
            "id": "BSD-3-Clause"
          }
        }
      ],
      "purl": "pkg:composer/sebastian/object-reflector@1.1.1",
      "externalReferences": [
        {
          "url": "https://github.com/sebastianbergmann/object-reflector.git",
          "type": "distribution",
          "comment": "As detected by composer's `getSourceUrls()` (type=git & reference=773f97c67f28de00d397be301821b06708fca0be)"
        },
        {
          "url": "https://api.github.com/repos/sebastianbergmann/object-reflector/zipball/773f97c67f28de00d397be301821b06708fca0be",
          "type": "distribution",
          "comment": "As detected by composer's `getDistUrls()` (type=zip & reference=773f97c67f28de00d397be301821b06708fca0be & sha1=UNDEFINED)"
        },
        {
          "url": "https://github.com/sebastianbergmann/object-reflector/",
          "type": "website",
          "comment": "As set via `homepage` in composer package definition."
        }
      ]
    },
    {
      "type": "library",
      "bom-ref": "pkg:composer/sebastian/recursion-context@3.0.0",
      "group": "sebastian",
      "name": "recursion-context",
      "version": "3.0.0",
      "description": "Provides functionality to recursively process PHP variables",
      "licenses": [
        {
          "license": {
            "id": "BSD-3-Clause"
          }
        }
      ],
      "purl": "pkg:composer/sebastian/recursion-context@3.0.0",
      "externalReferences": [
        {
          "url": "https://github.com/sebastianbergmann/recursion-context.git",
          "type": "distribution",
          "comment": "As detected by composer's `getSourceUrls()` (type=git & reference=5b0cd723502bac3b006cbf3dbf7a1e3fcefe4fa8)"
        },
        {
          "url": "https://api.github.com/repos/sebastianbergmann/recursion-context/zipball/5b0cd723502bac3b006cbf3dbf7a1e3fcefe4fa8",
          "type": "distribution",
          "comment": "As detected by composer's `getDistUrls()` (type=zip & reference=5b0cd723502bac3b006cbf3dbf7a1e3fcefe4fa8 & sha1=UNDEFINED)"
        },
        {
          "url": "http://www.github.com/sebastianbergmann/recursion-context",
          "type": "website",
          "comment": "As set via `homepage` in composer package definition."
        }
      ]
    },
    {
      "type": "library",
      "bom-ref": "pkg:composer/sebastian/resource-operations@1.0.0",
      "group": "sebastian",
      "name": "resource-operations",
      "version": "1.0.0",
      "description": "Provides a list of PHP built-in functions that operate on resources",
      "licenses": [
        {
          "license": {
            "id": "BSD-3-Clause"
          }
        }
      ],
      "purl": "pkg:composer/sebastian/resource-operations@1.0.0",
      "externalReferences": [
        {
          "url": "https://github.com/sebastianbergmann/resource-operations.git",
          "type": "distribution",
          "comment": "As detected by composer's `getSourceUrls()` (type=git & reference=ce990bb21759f94aeafd30209e8cfcdfa8bc3f52)"
        },
        {
          "url": "https://api.github.com/repos/sebastianbergmann/resource-operations/zipball/ce990bb21759f94aeafd30209e8cfcdfa8bc3f52",
          "type": "distribution",
          "comment": "As detected by composer's `getDistUrls()` (type=zip & reference=ce990bb21759f94aeafd30209e8cfcdfa8bc3f52 & sha1=UNDEFINED)"
        },
        {
          "url": "https://www.github.com/sebastianbergmann/resource-operations",
          "type": "website",
          "comment": "As set via `homepage` in composer package definition."
        }
      ]
    },
    {
      "type": "library",
      "bom-ref": "pkg:composer/sebastian/version@2.0.1",
      "group": "sebastian",
      "name": "version",
      "version": "2.0.1",
      "description": "Library that helps with managing the version number of Git-hosted PHP projects",
      "licenses": [
        {
          "license": {
            "id": "BSD-3-Clause"
          }
        }
      ],
      "purl": "pkg:composer/sebastian/version@2.0.1",
      "externalReferences": [
        {
          "url": "https://github.com/sebastianbergmann/version.git",
          "type": "distribution",
          "comment": "As detected by composer's `getSourceUrls()` (type=git & reference=99732be0ddb3361e16ad77b68ba41efc8e979019)"
        },
        {
          "url": "https://api.github.com/repos/sebastianbergmann/version/zipball/99732be0ddb3361e16ad77b68ba41efc8e979019",
          "type": "distribution",
          "comment": "As detected by composer's `getDistUrls()` (type=zip & reference=99732be0ddb3361e16ad77b68ba41efc8e979019 & sha1=UNDEFINED)"
        },
        {
          "url": "https://github.com/sebastianbergmann/version",
          "type": "website",
          "comment": "As set via `homepage` in composer package definition."
        }
      ]
    },
    {
      "type": "library",
      "bom-ref": "pkg:composer/squizlabs/php_codesniffer@2.9.1",
      "group": "squizlabs",
      "name": "php_codesniffer",
      "version": "2.9.1",
      "description": "PHP_CodeSniffer tokenizes PHP, JavaScript and CSS files and detects violations of a defined set of coding standards.",
      "licenses": [
        {
          "license": {
            "id": "BSD-3-Clause"
          }
        }
      ],
      "purl": "pkg:composer/squizlabs/php_codesniffer@2.9.1",
      "externalReferences": [
        {
          "url": "https://github.com/squizlabs/PHP_CodeSniffer.git",
          "type": "distribution",
          "comment": "As detected by composer's `getSourceUrls()` (type=git & reference=dcbed1074f8244661eecddfc2a675430d8d33f62)"
        },
        {
          "url": "https://api.github.com/repos/squizlabs/PHP_CodeSniffer/zipball/dcbed1074f8244661eecddfc2a675430d8d33f62",
          "type": "distribution",
          "comment": "As detected by composer's `getDistUrls()` (type=zip & reference=dcbed1074f8244661eecddfc2a675430d8d33f62 & sha1=UNDEFINED)"
        },
        {
          "url": "http://www.squizlabs.com/php-codesniffer",
          "type": "website",
          "comment": "As set via `homepage` in composer package definition."
        }
      ]
    },
    {
      "type": "library",
      "bom-ref": "pkg:composer/swaggest/json-diff@3.8.3",
      "group": "swaggest",
      "name": "json-diff",
      "version": "3.8.3",
      "description": "JSON diff/rearrange/patch/pointer library for PHP",
      "licenses": [
        {
          "license": {
            "id": "MIT"
          }
        }
      ],
      "purl": "pkg:composer/swaggest/json-diff@3.8.3",
      "externalReferences": [
        {
          "url": "https://github.com/swaggest/json-diff.git",
          "type": "distribution",
          "comment": "As detected by composer's `getSourceUrls()` (type=git & reference=bb3e3b4e9d842bb2e48f31ea568d0459968d1d42)"
        },
        {
          "url": "https://api.github.com/repos/swaggest/json-diff/zipball/bb3e3b4e9d842bb2e48f31ea568d0459968d1d42",
          "type": "distribution",
          "comment": "As detected by composer's `getDistUrls()` (type=zip & reference=bb3e3b4e9d842bb2e48f31ea568d0459968d1d42 & sha1=UNDEFINED)"
        },
        {
          "url": "https://github.com/swaggest/json-diff/issues",
          "type": "issue-tracker",
          "comment": "As set via `support.issues` in composer package definition."
        },
        {
          "url": "https://github.com/swaggest/json-diff/tree/v3.8.3",
          "type": "distribution",
          "comment": "As set via `support.source` in composer package definition."
        }
      ]
    },
    {
      "type": "library",
      "bom-ref": "pkg:composer/swaggest/json-schema@0.12.39",
      "group": "swaggest",
      "name": "json-schema",
      "version": "0.12.39",
      "description": "High definition PHP structures with JSON-schema based validation",
      "licenses": [
        {
          "license": {
            "id": "MIT"
          }
        }
      ],
      "purl": "pkg:composer/swaggest/json-schema@0.12.39",
      "externalReferences": [
        {
          "url": "https://github.com/swaggest/php-json-schema.git",
          "type": "distribution",
          "comment": "As detected by composer's `getSourceUrls()` (type=git & reference=193ba39cce1ffa2d55ddd5445315e945a63298a2)"
        },
        {
          "url": "https://api.github.com/repos/swaggest/php-json-schema/zipball/193ba39cce1ffa2d55ddd5445315e945a63298a2",
          "type": "distribution",
          "comment": "As detected by composer's `getDistUrls()` (type=zip & reference=193ba39cce1ffa2d55ddd5445315e945a63298a2 & sha1=UNDEFINED)"
        },
        {
          "url": "mailto:vearutop@gmail.com",
          "type": "other",
          "comment": "As set via `support.email` in composer package definition."
        },
        {
          "url": "https://github.com/swaggest/php-json-schema/issues",
          "type": "issue-tracker",
          "comment": "As set via `support.issues` in composer package definition."
        },
        {
          "url": "https://github.com/swaggest/php-json-schema/tree/v0.12.39",
          "type": "distribution",
          "comment": "As set via `support.source` in composer package definition."
        }
      ]
    },
    {
      "type": "library",
      "bom-ref": "pkg:composer/symfony/polyfill-mbstring@1.25.0",
      "group": "symfony",
      "name": "polyfill-mbstring",
      "version": "1.25.0",
      "description": "Symfony polyfill for the Mbstring extension",
      "licenses": [
        {
          "license": {
            "id": "MIT"
          }
        }
      ],
      "purl": "pkg:composer/symfony/polyfill-mbstring@1.25.0",
      "externalReferences": [
        {
          "url": "https://github.com/symfony/polyfill-mbstring.git",
          "type": "distribution",
          "comment": "As detected by composer's `getSourceUrls()` (type=git & reference=0abb51d2f102e00a4eefcf46ba7fec406d245825)"
        },
        {
          "url": "https://api.github.com/repos/symfony/polyfill-mbstring/zipball/0abb51d2f102e00a4eefcf46ba7fec406d245825",
          "type": "distribution",
          "comment": "As detected by composer's `getDistUrls()` (type=zip & reference=0abb51d2f102e00a4eefcf46ba7fec406d245825 & sha1=UNDEFINED)"
        },
        {
          "url": "https://symfony.com",
          "type": "website",
          "comment": "As set via `homepage` in composer package definition."
        },
        {
          "url": "https://github.com/symfony/polyfill-mbstring/tree/v1.25.0",
          "type": "distribution",
          "comment": "As set via `support.source` in composer package definition."
        },
        {
          "url": "https://symfony.com/sponsor",
          "type": "other",
          "comment": "As set via `funding` in composer package definition. (type=custom)"
        },
        {
          "url": "https://github.com/fabpot",
          "type": "other",
          "comment": "As set via `funding` in composer package definition. (type=github)"
        },
        {
          "url": "https://tidelift.com/funding/github/packagist/symfony/symfony",
          "type": "other",
          "comment": "As set via `funding` in composer package definition. (type=tidelift)"
        }
      ]
    },
    {
      "type": "library",
      "bom-ref": "pkg:composer/theseer/tokenizer@1.1.0",
      "group": "theseer",
      "name": "tokenizer",
      "version": "1.1.0",
      "description": "A small library for converting tokenized PHP source code into XML and potentially other formats",
      "licenses": [
        {
          "license": {
            "id": "BSD-3-Clause"
          }
        }
      ],
      "purl": "pkg:composer/theseer/tokenizer@1.1.0",
      "externalReferences": [
        {
          "url": "https://github.com/theseer/tokenizer.git",
          "type": "distribution",
          "comment": "As detected by composer's `getSourceUrls()` (type=git & reference=cb2f008f3f05af2893a87208fe6a6c4985483f8b)"
        },
        {
          "url": "https://api.github.com/repos/theseer/tokenizer/zipball/cb2f008f3f05af2893a87208fe6a6c4985483f8b",
          "type": "distribution",
          "comment": "As detected by composer's `getDistUrls()` (type=zip & reference=cb2f008f3f05af2893a87208fe6a6c4985483f8b & sha1=UNDEFINED)"
        }
      ]
    },
    {
      "type": "library",
      "bom-ref": "pkg:composer/webmozart/assert@1.3.0",
      "group": "webmozart",
      "name": "assert",
      "version": "1.3.0",
      "description": "Assertions to validate method input/output with nice error messages.",
      "licenses": [
        {
          "license": {
            "id": "MIT"
          }
        }
      ],
      "purl": "pkg:composer/webmozart/assert@1.3.0",
      "externalReferences": [
        {
          "url": "https://github.com/webmozart/assert.git",
          "type": "distribution",
          "comment": "As detected by composer's `getSourceUrls()` (type=git & reference=0df1908962e7a3071564e857d86874dad1ef204a)"
        },
        {
          "url": "https://api.github.com/repos/webmozart/assert/zipball/0df1908962e7a3071564e857d86874dad1ef204a",
          "type": "distribution",
          "comment": "As detected by composer's `getDistUrls()` (type=zip & reference=0df1908962e7a3071564e857d86874dad1ef204a & sha1=UNDEFINED)"
        }
      ]
    },
    {
      "type": "library",
      "bom-ref": "pkg:composer/zendframework/zend-coding-standard@1.0.0",
      "group": "zendframework",
      "name": "zend-coding-standard",
      "version": "1.0.0",
      "description": "Zend Framework coding standard",
      "licenses": [
        {
          "license": {
            "id": "BSD-3-Clause"
          }
        }
      ],
      "purl": "pkg:composer/zendframework/zend-coding-standard@1.0.0",
      "externalReferences": [
        {
          "url": "https://github.com/zendframework/zend-coding-standard.git",
          "type": "distribution",
          "comment": "As detected by composer's `getSourceUrls()` (type=git & reference=893316d2904e93f1c74c1384b6d7d57778299cb6)"
        },
        {
          "url": "https://api.github.com/repos/zendframework/zend-coding-standard/zipball/893316d2904e93f1c74c1384b6d7d57778299cb6",
          "type": "distribution",
          "comment": "As detected by composer's `getDistUrls()` (type=zip & reference=893316d2904e93f1c74c1384b6d7d57778299cb6 & sha1=UNDEFINED)"
        }
      ]
    },
    {
      "type": "library",
      "bom-ref": "pkg:composer/zendframework/zend-stdlib@3.1.1",
      "group": "zendframework",
      "name": "zend-stdlib",
      "version": "3.1.1",
      "licenses": [
        {
          "license": {
            "id": "BSD-3-Clause"
          }
        }
      ],
      "purl": "pkg:composer/zendframework/zend-stdlib@3.1.1",
      "externalReferences": [
        {
          "url": "https://github.com/zendframework/zend-stdlib.git",
          "type": "distribution",
          "comment": "As detected by composer's `getSourceUrls()` (type=git & reference=10ef03144902d1955f935fff5346ed52f7d99bcc)"
        },
        {
          "url": "https://api.github.com/repos/zendframework/zend-stdlib/zipball/10ef03144902d1955f935fff5346ed52f7d99bcc",
          "type": "distribution",
          "comment": "As detected by composer's `getDistUrls()` (type=zip & reference=10ef03144902d1955f935fff5346ed52f7d99bcc & sha1=UNDEFINED)"
        },
        {
          "url": "https://github.com/zendframework/zend-stdlib",
          "type": "website",
          "comment": "As set via `homepage` in composer package definition."
        }
      ]
    },
    {
      "type": "library",
      "bom-ref": "pkg:composer/zeptech/annotations@1.1.0",
      "group": "zeptech",
      "name": "annotations",
      "version": "1.1.0",
      "description": "DOC Block annotation parsing for PHP",
      "licenses": [
        {
          "license": {
            "name": "BSD"
          }
        }
      ],
      "purl": "pkg:composer/zeptech/annotations@1.1.0",
      "externalReferences": [
        {
          "url": "https://github.com/pgraham/php-annotations.git",
          "type": "distribution",
          "comment": "As detected by composer's `getSourceUrls()` (type=git & reference=9cd042daa9ace184d04b49f0605edf73f19a9c71)"
        },
        {
          "url": "https://api.github.com/repos/pgraham/php-annotations/zipball/9cd042daa9ace184d04b49f0605edf73f19a9c71",
          "type": "distribution",
          "comment": "As detected by composer's `getDistUrls()` (type=zip & reference=9cd042daa9ace184d04b49f0605edf73f19a9c71 & sha1=UNDEFINED)"
        },
        {
          "url": "https://github.com/pgraham/php-annotations",
          "type": "website",
          "comment": "As set via `homepage` in composer package definition."
        }
      ]
    },
    {
      "type": "library",
      "bom-ref": "pkg:composer/symfony/polyfill-mbstring@1.19.0",
      "group": "symfony",
      "name": "polyfill-mbstring",
      "version": "1.19.0",
      "description": "Symfony polyfill for the Mbstring extension",
      "licenses": [
        {
          "license": {
            "id": "MIT",
            "url": "https://opensource.org/licenses/MIT"
          }
        }
      ],
      "purl": "pkg:composer/symfony/polyfill-mbstring@1.19.0",
      "externalReferences": [
        {
          "url": "https://github.com/symfony/polyfill-mbstring.git",
          "type": "vcs"
        }
      ]
    }
  ],
  "dependencies": [
    {
      "ref": "pkg:composer/athletic/athletic@0.1.8",
      "dependsOn": [
        "pkg:composer/nategood/commando@0.2.1",
        "pkg:composer/pimple/pimple@2.1.1",
        "pkg:composer/zeptech/annotations@1.1.0"
      ]
    },
    {
      "ref": "pkg:composer/container-interop/container-interop@1.2.0",
      "dependsOn": [
        "pkg:composer/psr/container@1.0.0"
      ]
    },
    {
      "ref": "pkg:composer/cyclonedx/cyclonedx-library@1.5.0",
      "dependsOn": [
        "pkg:composer/package-url/packageurl-php@1.0.4",
        "pkg:composer/swaggest/json-schema@0.12.39"
      ]
    },
    {
      "ref": "pkg:composer/cyclonedx/cyclonedx-php-composer@3.10.0",
      "dependsOn": [
        "pkg:composer/cyclonedx/cyclonedx-library@1.5.0",
        "pkg:composer/package-url/packageurl-php@1.0.4"
      ]
    },
    {
      "ref": "pkg:composer/doctrine/instantiator@1.1.0"
    },
    {
      "ref": "pkg:composer/kevinlebrun/colors.php@0.2.0"
    },
    {
      "ref": "pkg:composer/myclabs/deep-copy@1.7.0"
    },
    {
      "ref": "pkg:composer/nategood/commando@0.2.1",
      "dependsOn": [
        "pkg:composer/kevinlebrun/colors.php@0.2.0"
      ]
    },
    {
      "ref": "pkg:composer/package-url/packageurl-php@1.0.4"
    },
    {
      "ref": "pkg:composer/phar-io/manifest@1.0.1",
      "dependsOn": [
        "pkg:composer/phar-io/version@1.0.1"
      ]
    },
    {
      "ref": "pkg:composer/phar-io/version@1.0.1"
    },
    {
      "ref": "pkg:composer/phpdocumentor/reflection-common@1.0.1"
    },
    {
      "ref": "pkg:composer/phpdocumentor/reflection-docblock@4.3.0",
      "dependsOn": [
        "pkg:composer/phpdocumentor/reflection-common@1.0.1",
        "pkg:composer/phpdocumentor/type-resolver@0.4.0",
        "pkg:composer/webmozart/assert@1.3.0"
      ]
    },
    {
      "ref": "pkg:composer/phpdocumentor/type-resolver@0.4.0",
      "dependsOn": [
        "pkg:composer/phpdocumentor/reflection-common@1.0.1"
      ]
    },
    {
      "ref": "pkg:composer/phplang/scope-exit@1.0.0"
    },
    {
      "ref": "pkg:composer/phpspec/prophecy@1.7.6",
      "dependsOn": [
        "pkg:composer/doctrine/instantiator@1.1.0",
        "pkg:composer/phpdocumentor/reflection-docblock@4.3.0",
        "pkg:composer/sebastian/comparator@3.0.0",
        "pkg:composer/sebastian/recursion-context@3.0.0"
      ]
    },
    {
      "ref": "pkg:composer/phpunit/php-code-coverage@6.0.3",
      "dependsOn": [
        "pkg:composer/phpunit/php-file-iterator@1.4.5",
        "pkg:composer/phpunit/php-text-template@1.2.1",
        "pkg:composer/phpunit/php-token-stream@3.0.0",
        "pkg:composer/sebastian/code-unit-reverse-lookup@1.0.1",
        "pkg:composer/sebastian/environment@3.1.0",
        "pkg:composer/sebastian/version@2.0.1",
        "pkg:composer/theseer/tokenizer@1.1.0"
      ]
    },
    {
      "ref": "pkg:composer/phpunit/php-file-iterator@1.4.5"
    },
    {
      "ref": "pkg:composer/phpunit/php-text-template@1.2.1"
    },
    {
      "ref": "pkg:composer/phpunit/php-timer@2.0.0"
    },
    {
      "ref": "pkg:composer/phpunit/php-token-stream@3.0.0"
    },
    {
      "ref": "pkg:composer/phpunit/phpunit@7.1.4",
      "dependsOn": [
        "pkg:composer/myclabs/deep-copy@1.7.0",
        "pkg:composer/phar-io/manifest@1.0.1",
        "pkg:composer/phar-io/version@1.0.1",
        "pkg:composer/phpspec/prophecy@1.7.6",
        "pkg:composer/phpunit/php-code-coverage@6.0.3",
        "pkg:composer/phpunit/php-file-iterator@1.4.5",
        "pkg:composer/phpunit/php-text-template@1.2.1",
        "pkg:composer/phpunit/php-timer@2.0.0",
        "pkg:composer/phpunit/phpunit-mock-objects@6.1.1",
        "pkg:composer/sebastian/comparator@3.0.0",
        "pkg:composer/sebastian/diff@3.0.0",
        "pkg:composer/sebastian/environment@3.1.0",
        "pkg:composer/sebastian/exporter@3.1.0",
        "pkg:composer/sebastian/global-state@2.0.0",
        "pkg:composer/sebastian/object-enumerator@3.0.3",
        "pkg:composer/sebastian/resource-operations@1.0.0",
        "pkg:composer/sebastian/version@2.0.1"
      ]
    },
    {
      "ref": "pkg:composer/phpunit/phpunit-mock-objects@6.1.1",
      "dependsOn": [
        "pkg:composer/doctrine/instantiator@1.1.0",
        "pkg:composer/phpunit/php-text-template@1.2.1",
        "pkg:composer/sebastian/exporter@3.1.0"
      ]
    },
    {
      "ref": "pkg:composer/pimple/pimple@2.1.1"
    },
    {
      "ref": "pkg:composer/psr/container@1.0.0"
    },
    {
      "ref": "pkg:composer/sebastian/code-unit-reverse-lookup@1.0.1"
    },
    {
      "ref": "pkg:composer/sebastian/comparator@3.0.0",
      "dependsOn": [
        "pkg:composer/sebastian/diff@3.0.0",
        "pkg:composer/sebastian/exporter@3.1.0"
      ]
    },
    {
      "ref": "pkg:composer/sebastian/diff@3.0.0"
    },
    {
      "ref": "pkg:composer/sebastian/environment@3.1.0"
    },
    {
      "ref": "pkg:composer/sebastian/exporter@3.1.0",
      "dependsOn": [
        "pkg:composer/sebastian/recursion-context@3.0.0"
      ]
    },
    {
      "ref": "pkg:composer/sebastian/global-state@2.0.0"
    },
    {
      "ref": "pkg:composer/sebastian/object-enumerator@3.0.3",
      "dependsOn": [
        "pkg:composer/sebastian/object-reflector@1.1.1",
        "pkg:composer/sebastian/recursion-context@3.0.0"
      ]
    },
    {
      "ref": "pkg:composer/sebastian/object-reflector@1.1.1"
    },
    {
      "ref": "pkg:composer/sebastian/recursion-context@3.0.0"
    },
    {
      "ref": "pkg:composer/sebastian/resource-operations@1.0.0"
    },
    {
      "ref": "pkg:composer/sebastian/version@2.0.1"
    },
    {
      "ref": "pkg:composer/squizlabs/php_codesniffer@2.9.1"
    },
    {
      "ref": "pkg:composer/swaggest/json-diff@3.8.3"
    },
    {
      "ref": "pkg:composer/swaggest/json-schema@0.12.39",
      "dependsOn": [
        "pkg:composer/phplang/scope-exit@1.0.0",
        "pkg:composer/swaggest/json-diff@3.8.3",
        "pkg:composer/symfony/polyfill-mbstring@1.25.0"
      ]
    },
    {
      "ref": "pkg:composer/symfony/polyfill-mbstring@1.25.0"
    },
    {
      "ref": "pkg:composer/theseer/tokenizer@1.1.0"
    },
    {
      "ref": "pkg:composer/webmozart/assert@1.3.0"
    },
    {
      "ref": "pkg:composer/zendframework/zend-coding-standard@1.0.0",
      "dependsOn": [
        "pkg:composer/squizlabs/php_codesniffer@2.9.1"
      ]
    },
    {
      "ref": "pkg:composer/zendframework/zend-stdlib@3.1.1"
    },
    {
      "ref": "pkg:composer/zeptech/annotations@1.1.0"
    },
    {
      "ref": "pkg:composer/zendframework/zend-eventmanager@3.2.x-dev",
      "dependsOn": [
        "pkg:composer/phpunit/phpunit@7.1.4",
        "pkg:composer/athletic/athletic@0.1.8",
        "pkg:composer/zendframework/zend-stdlib@3.1.1",
        "pkg:composer/container-interop/container-interop@1.2.0",
        "pkg:composer/zendframework/zend-coding-standard@1.0.0",
        "pkg:composer/cyclonedx/cyclonedx-php-composer@3.10.0"
      ]
    }
  ]
}
