{
  "bomFormat": "CycloneDX",
  "specVersion": "1.3",
  "serialNumber": "urn:uuid:a0f76b02-be63-4a09-8257-c0f01a9519dc",
  "version": 1,
  "metadata": {
    "timestamp": "2022-06-02T08:47:48Z",
    "tools": [
      {
        "vendor": "AppThreat",
        "name": "cdxgen",
        "version": "3.0.10"
      },
      {
        "vendor": "Fortress Information Security",
        "name": "Github Extractor",
        "version": "1.15.1"
      }
    ],
    "authors": [
      {
        "name": "Team AppThreat",
        "email": "cloud@appthreat.com"
      },
      {
        "name": "Fortress Information Security",
        "email": "sales@fortressinfosec.com",
        "phone": "1-407-573-6800"
      }
    ],
    "component": {
      "type": "application",
      "name": "csscss",
      "version": "report",
      "group": "zmoazeni",
      "externalReferences": [
        {
          "url": "https://github.com/zmoazeni/csscss.git",
          "type": "distribution"
        },
        {
          "type": "website",
          "url": "http://zmoazeni.github.io/csscss/",
          "comment": "As set via `homepage` in Github API"
        }
      ]
    }
  },
  "components": [
    {
      "type": "library",
      "bom-ref": "pkg:rubygems/csscss@1.3.3",
      "group": "",
      "name": "csscss",
      "version": "1.3.3",
      "description": "",
      "purl": "pkg:rubygems/csscss@1.3.3"
    },
    {
      "type": "library",
      "bom-ref": "pkg:rubygems/remote:@https://rubygems.org/",
      "group": "",
      "name": "remote:",
      "version": "https://rubygems.org/",
      "description": "",
      "purl": "pkg:rubygems/remote:@https://rubygems.org/"
    },
    {
      "type": "library",
      "bom-ref": "pkg:rubygems/byebug@10.0.2",
      "group": "",
      "name": "byebug",
      "version": "10.0.2",
      "description": "",
      "purl": "pkg:rubygems/byebug@10.0.2"
    },
    {
      "type": "library",
      "bom-ref": "pkg:rubygems/chunky_png@1.3.11",
      "group": "",
      "name": "chunky_png",
      "version": "1.3.11",
      "description": "",
      "purl": "pkg:rubygems/chunky_png@1.3.11"
    },
    {
      "type": "library",
      "bom-ref": "pkg:rubygems/colorize@0.8.1",
      "group": "",
      "name": "colorize",
      "version": "0.8.1",
      "description": "",
      "purl": "pkg:rubygems/colorize@0.8.1"
    },
    {
      "type": "library",
      "bom-ref": "pkg:rubygems/commonjs@0.2.7",
      "group": "",
      "name": "commonjs",
      "version": "0.2.7",
      "description": "",
      "purl": "pkg:rubygems/commonjs@0.2.7"
    },
    {
      "type": "library",
      "bom-ref": "pkg:rubygems/compass@0.12.2",
      "group": "",
      "name": "compass",
      "version": "0.12.2",
      "description": "",
      "purl": "pkg:rubygems/compass@0.12.2"
    },
    {
      "type": "library",
      "bom-ref": "pkg:rubygems/ffi@1.9.25",
      "group": "",
      "name": "ffi",
      "version": "1.9.25",
      "description": "",
      "purl": "pkg:rubygems/ffi@1.9.25"
    },
    {
      "type": "library",
      "bom-ref": "pkg:rubygems/fssm@0.2.10",
      "group": "",
      "name": "fssm",
      "version": "0.2.10",
      "description": "",
      "purl": "pkg:rubygems/fssm@0.2.10"
    },
    {
      "type": "library",
      "bom-ref": "pkg:rubygems/less@2.6.0",
      "group": "",
      "name": "less",
      "version": "2.6.0",
      "description": "",
      "purl": "pkg:rubygems/less@2.6.0"
    },
    {
      "type": "library",
      "bom-ref": "pkg:rubygems/libv8@3.16.14.19",
      "group": "",
      "name": "libv8",
      "version": "3.16.14.19",
      "description": "",
      "purl": "pkg:rubygems/libv8@3.16.14.19"
    },
    {
      "type": "library",
      "bom-ref": "pkg:rubygems/m@1.5.1",
      "group": "",
      "name": "m",
      "version": "1.5.1",
      "description": "",
      "purl": "pkg:rubygems/m@1.5.1"
    },
    {
      "type": "library",
      "bom-ref": "pkg:rubygems/method_source@0.9.2",
      "group": "",
      "name": "method_source",
      "version": "0.9.2",
      "description": "",
      "purl": "pkg:rubygems/method_source@0.9.2"
    },
    {
      "type": "library",
      "bom-ref": "pkg:rubygems/minitest@5.11.3",
      "group": "",
      "name": "minitest",
      "version": "5.11.3",
      "description": "",
      "purl": "pkg:rubygems/minitest@5.11.3"
    },
    {
      "type": "library",
      "bom-ref": "pkg:rubygems/minitest-rg@5.2.0",
      "group": "",
      "name": "minitest-rg",
      "version": "5.2.0",
      "description": "",
      "purl": "pkg:rubygems/minitest-rg@5.2.0"
    },
    {
      "type": "library",
      "bom-ref": "pkg:rubygems/parslet@1.8.2",
      "group": "",
      "name": "parslet",
      "version": "1.8.2",
      "description": "",
      "purl": "pkg:rubygems/parslet@1.8.2"
    },
    {
      "type": "library",
      "bom-ref": "pkg:rubygems/rake@12.3.1",
      "group": "",
      "name": "rake",
      "version": "12.3.1",
      "description": "",
      "purl": "pkg:rubygems/rake@12.3.1"
    },
    {
      "type": "library",
      "bom-ref": "pkg:rubygems/rb-fsevent@0.10.3",
      "group": "",
      "name": "rb-fsevent",
      "version": "0.10.3",
      "description": "",
      "purl": "pkg:rubygems/rb-fsevent@0.10.3"
    },
    {
      "type": "library",
      "bom-ref": "pkg:rubygems/rb-inotify@0.9.10",
      "group": "",
      "name": "rb-inotify",
      "version": "0.9.10",
      "description": "",
      "purl": "pkg:rubygems/rb-inotify@0.9.10"
    },
    {
      "type": "library",
      "bom-ref": "pkg:rubygems/ref@2.0.0",
      "group": "",
      "name": "ref",
      "version": "2.0.0",
      "description": "",
      "purl": "pkg:rubygems/ref@2.0.0"
    },
    {
      "type": "library",
      "bom-ref": "pkg:rubygems/ruby-prof@0.17.0",
      "group": "",
      "name": "ruby-prof",
      "version": "0.17.0",
      "description": "",
      "purl": "pkg:rubygems/ruby-prof@0.17.0"
    },
    {
      "type": "library",
      "bom-ref": "pkg:rubygems/sass@3.7.2",
      "group": "",
      "name": "sass",
      "version": "3.7.2",
      "description": "",
      "purl": "pkg:rubygems/sass@3.7.2"
    },
    {
      "type": "library",
      "bom-ref": "pkg:rubygems/sass-listen@4.0.0",
      "group": "",
      "name": "sass-listen",
      "version": "4.0.0",
      "description": "",
      "purl": "pkg:rubygems/sass-listen@4.0.0"
    },
    {
      "type": "library",
      "bom-ref": "pkg:rubygems/therubyracer@0.12.3",
      "group": "",
      "name": "therubyracer",
      "version": "0.12.3",
      "description": "",
      "purl": "pkg:rubygems/therubyracer@0.12.3"
    }
  ],
  "externalReferences": [
    {
      "url": "/project/src",
      "type": "other",
      "comment": "Base path"
    },
    {
      "url": "/project/src/Gemfile.lock",
      "type": "other",
      "comment": "Package file"
    }
  ]
}
