{
  "bomFormat": "CycloneDX",
  "specVersion": "1.3",
  "version": 2,
  "metadata": {
    "tools": [
      {
        "vendor": "CycloneDX",
        "name": "Node.js module",
        "version": "3.0.3"
      },
      {
        "vendor": "Fortress Information Security",
        "name": "Github Extractor",
        "version": "1.15.1"
      }
    ],
    "authors": [
      {
        "name": "Fortress Information Security",
        "email": "sales@fortressinfosec.com",
        "phone": "1-407-573-6800"
      }
    ],
    "timestamp": "2022-07-26T23:33:09Z",
    "component": {
      "type": "application",
      "name": "PlexConnect",
      "version": "V0.7.4",
      "group": "iBaa",
      "externalReferences": [
        {
          "url": "https://github.com/iBaa/PlexConnect.git",
          "type": "distribution"
        },
        {
          "type": "website",
          "url": "null",
          "comment": "As set via `homepage` in Github API"
        }
      ]
    }
  },
  "components": [
    {
      "type": "library",
      "name": "io",
      "version": "0.0.1",
      "purl": "pkg:pypi/io@0.0.1",
      "modified": false
    },
    {
      "type": "library",
      "publisher": "Christian Heimes",
      "name": "multiprocessing",
      "version": "2.6.2.1",
      "description": "Backport of the multiprocessing package to Python 2.4 and 2.5",
      "hashes": [
        {
          "alg": "MD5",
          "content": "5cc484396c040102116ccc2355379c72"
        },
        {
          "alg": "SHA-256",
          "content": "ef3b81ad85d7de252e5491b1daac028e17f9741cbe3625032e6eaa4ad4c79900"
        }
      ],
      "licenses": [
        {
          "license": {
            "name": "BSD Licence"
          }
        }
      ],
      "purl": "pkg:pypi/multiprocessing@2.6.2.1",
      "modified": false
    },
    {
      "type": "library",
      "publisher": "Stephan Klein",
      "name": "signal",
      "version": "0.1",
      "description": "Send SMS messages via ADB and your Android phone. Comes with a CLI.",
      "licenses": [
        {
          "license": {
            "name": "MIT"
          }
        }
      ],
      "purl": "pkg:pypi/signal@0.1",
      "modified": false
    },
    {
      "type": "library",
      "publisher": "Thomas Waldmann",
      "name": "argparse",
      "version": "1.4.0",
      "description": "Python command-line parsing library",
      "hashes": [
        {
          "alg": "MD5",
          "content": "c37216a954c8669054e2b2c54853dd49"
        },
        {
          "alg": "SHA-256",
          "content": "c31647edb69fd3d465a847ea3157d37bed1f95f19760b11a47aa91c04b666314"
        }
      ],
      "licenses": [
        {
          "license": {
            "name": "Python Software Foundation License"
          }
        }
      ],
      "purl": "pkg:pypi/argparse@1.4.0",
      "modified": false
    }
  ]
}
