{
  "bomFormat": "CycloneDX",
  "specVersion": "1.3",
  "version": 1,
  "metadata": {
    "tools": [
      {
        "vendor": "CycloneDX",
        "name": "Node.js module",
        "version": "3.0.3"
      },
      {
        "vendor": "AppThreat",
        "name": "cdxgen",
        "version": "3.0.10"
      },
      {
        "vendor": "Fortress Information Security",
        "name": "Github Extractor",
        "version": "1.15.1"
      }
    ],
    "authors": [
      {
        "name": "Fortress Information Security",
        "email": "sales@fortressinfosec.com",
        "phone": "1-407-573-6800"
      }
    ],
    "timestamp": "2022-06-01T21:00:00Z",
    "component": {
      "type": "application",
      "name": "24pullrequests",
      "version": "",
      "group": "24pullrequests",
      "externalReferences": [
        {
          "url": "https://github.com/24pullrequests/24pullrequests.git",
          "type": "distribution"
        },
        {
          "type": "website",
          "url": "https://24pullrequests.com",
          "comment": "As set via `homepage` in Github API"
        }
      ]
    }
  },
  "components": [
    {
      "type": "library",
      "bom-ref": "pkg:rubygems/actioncable@7.0.3",
      "group": "",
      "name": "actioncable",
      "version": "7.0.3",
      "description": "",
      "purl": "pkg:rubygems/actioncable@7.0.3"
    },
    {
      "type": "library",
      "bom-ref": "pkg:rubygems/actionmailbox@7.0.3",
      "group": "",
      "name": "actionmailbox",
      "version": "7.0.3",
      "description": "",
      "purl": "pkg:rubygems/actionmailbox@7.0.3"
    },
    {
      "type": "library",
      "bom-ref": "pkg:rubygems/actionmailer@7.0.3",
      "group": "",
      "name": "actionmailer",
      "version": "7.0.3",
      "description": "",
      "purl": "pkg:rubygems/actionmailer@7.0.3"
    },
    {
      "type": "library",
      "bom-ref": "pkg:rubygems/actionpack@7.0.3",
      "group": "",
      "name": "actionpack",
      "version": "7.0.3",
      "description": "",
      "purl": "pkg:rubygems/actionpack@7.0.3"
    },
    {
      "type": "library",
      "bom-ref": "pkg:rubygems/actiontext@7.0.3",
      "group": "",
      "name": "actiontext",
      "version": "7.0.3",
      "description": "",
      "purl": "pkg:rubygems/actiontext@7.0.3"
    },
    {
      "type": "library",
      "bom-ref": "pkg:rubygems/actionview@7.0.3",
      "group": "",
      "name": "actionview",
      "version": "7.0.3",
      "description": "",
      "purl": "pkg:rubygems/actionview@7.0.3"
    },
    {
      "type": "library",
      "bom-ref": "pkg:rubygems/activejob@7.0.3",
      "group": "",
      "name": "activejob",
      "version": "7.0.3",
      "description": "",
      "purl": "pkg:rubygems/activejob@7.0.3"
    },
    {
      "type": "library",
      "bom-ref": "pkg:rubygems/activemodel@7.0.3",
      "group": "",
      "name": "activemodel",
      "version": "7.0.3",
      "description": "",
      "purl": "pkg:rubygems/activemodel@7.0.3"
    },
    {
      "type": "library",
      "bom-ref": "pkg:rubygems/activemodel-serializers-xml@1.0.2",
      "group": "",
      "name": "activemodel-serializers-xml",
      "version": "1.0.2",
      "description": "",
      "purl": "pkg:rubygems/activemodel-serializers-xml@1.0.2"
    },
    {
      "type": "library",
      "bom-ref": "pkg:rubygems/activerecord@7.0.3",
      "group": "",
      "name": "activerecord",
      "version": "7.0.3",
      "description": "",
      "purl": "pkg:rubygems/activerecord@7.0.3"
    },
    {
      "type": "library",
      "bom-ref": "pkg:rubygems/activestorage@7.0.3",
      "group": "",
      "name": "activestorage",
      "version": "7.0.3",
      "description": "",
      "purl": "pkg:rubygems/activestorage@7.0.3"
    },
    {
      "type": "library",
      "bom-ref": "pkg:rubygems/activesupport@7.0.3",
      "group": "",
      "name": "activesupport",
      "version": "7.0.3",
      "description": "",
      "purl": "pkg:rubygems/activesupport@7.0.3"
    },
    {
      "type": "library",
      "bom-ref": "pkg:rubygems/addressable@2.8.0",
      "group": "",
      "name": "addressable",
      "version": "2.8.0",
      "description": "",
      "purl": "pkg:rubygems/addressable@2.8.0"
    },
    {
      "type": "library",
      "bom-ref": "pkg:rubygems/ast@2.4.2",
      "group": "",
      "name": "ast",
      "version": "2.4.2",
      "description": "",
      "purl": "pkg:rubygems/ast@2.4.2"
    },
    {
      "type": "library",
      "bom-ref": "pkg:rubygems/autoprefixer-rails@10.4.7.0",
      "group": "",
      "name": "autoprefixer-rails",
      "version": "10.4.7.0",
      "description": "",
      "purl": "pkg:rubygems/autoprefixer-rails@10.4.7.0"
    },
    {
      "type": "library",
      "bom-ref": "pkg:rubygems/better_html@1.0.16",
      "group": "",
      "name": "better_html",
      "version": "1.0.16",
      "description": "",
      "purl": "pkg:rubygems/better_html@1.0.16"
    },
    {
      "type": "library",
      "bom-ref": "pkg:rubygems/bindex@0.8.1",
      "group": "",
      "name": "bindex",
      "version": "0.8.1",
      "description": "",
      "purl": "pkg:rubygems/bindex@0.8.1"
    },
    {
      "type": "library",
      "bom-ref": "pkg:rubygems/bootsnap@1.12.0",
      "group": "",
      "name": "bootsnap",
      "version": "1.12.0",
      "description": "",
      "purl": "pkg:rubygems/bootsnap@1.12.0"
    },
    {
      "type": "library",
      "bom-ref": "pkg:rubygems/bootstrap-sass@3.4.1",
      "group": "",
      "name": "bootstrap-sass",
      "version": "3.4.1",
      "description": "",
      "purl": "pkg:rubygems/bootstrap-sass@3.4.1"
    },
    {
      "type": "library",
      "bom-ref": "pkg:rubygems/brakeman@5.2.3",
      "group": "",
      "name": "brakeman",
      "version": "5.2.3",
      "description": "",
      "purl": "pkg:rubygems/brakeman@5.2.3"
    },
    {
      "type": "library",
      "bom-ref": "pkg:rubygems/buftok@0.2.0",
      "group": "",
      "name": "buftok",
      "version": "0.2.0",
      "description": "",
      "purl": "pkg:rubygems/buftok@0.2.0"
    },
    {
      "type": "library",
      "bom-ref": "pkg:rubygems/bugsnag@6.24.2",
      "group": "",
      "name": "bugsnag",
      "version": "6.24.2",
      "description": "",
      "purl": "pkg:rubygems/bugsnag@6.24.2"
    },
    {
      "type": "library",
      "bom-ref": "pkg:rubygems/builder@3.2.4",
      "group": "",
      "name": "builder",
      "version": "3.2.4",
      "description": "",
      "purl": "pkg:rubygems/builder@3.2.4"
    },
    {
      "type": "library",
      "bom-ref": "pkg:rubygems/capybara@3.37.1",
      "group": "",
      "name": "capybara",
      "version": "3.37.1",
      "description": "",
      "purl": "pkg:rubygems/capybara@3.37.1"
    },
    {
      "type": "library",
      "bom-ref": "pkg:rubygems/christmas_tree_formatter@0.1.0",
      "group": "",
      "name": "christmas_tree_formatter",
      "version": "0.1.0",
      "description": "",
      "purl": "pkg:rubygems/christmas_tree_formatter@0.1.0"
    },
    {
      "type": "library",
      "bom-ref": "pkg:rubygems/cliver@0.3.2",
      "group": "",
      "name": "cliver",
      "version": "0.3.2",
      "description": "",
      "purl": "pkg:rubygems/cliver@0.3.2"
    },
    {
      "type": "library",
      "bom-ref": "pkg:rubygems/coffee-rails@5.0.0",
      "group": "",
      "name": "coffee-rails",
      "version": "5.0.0",
      "description": "",
      "purl": "pkg:rubygems/coffee-rails@5.0.0"
    },
    {
      "type": "library",
      "bom-ref": "pkg:rubygems/coffee-script@2.4.1",
      "group": "",
      "name": "coffee-script",
      "version": "2.4.1",
      "description": "",
      "purl": "pkg:rubygems/coffee-script@2.4.1"
    },
    {
      "type": "library",
      "bom-ref": "pkg:rubygems/coffee-script-source@1.12.2",
      "group": "",
      "name": "coffee-script-source",
      "version": "1.12.2",
      "description": "",
      "purl": "pkg:rubygems/coffee-script-source@1.12.2"
    },
    {
      "type": "library",
      "bom-ref": "pkg:rubygems/commonmarker@0.23.5",
      "group": "",
      "name": "commonmarker",
      "version": "0.23.5",
      "description": "",
      "purl": "pkg:rubygems/commonmarker@0.23.5"
    },
    {
      "type": "library",
      "bom-ref": "pkg:rubygems/concurrent-ruby@1.1.10",
      "group": "",
      "name": "concurrent-ruby",
      "version": "1.1.10",
      "description": "",
      "purl": "pkg:rubygems/concurrent-ruby@1.1.10"
    },
    {
      "type": "library",
      "bom-ref": "pkg:rubygems/crack@0.4.5",
      "group": "",
      "name": "crack",
      "version": "0.4.5",
      "description": "",
      "purl": "pkg:rubygems/crack@0.4.5"
    },
    {
      "type": "library",
      "bom-ref": "pkg:rubygems/crass@1.0.6",
      "group": "",
      "name": "crass",
      "version": "1.0.6",
      "description": "",
      "purl": "pkg:rubygems/crass@1.0.6"
    },
    {
      "type": "library",
      "bom-ref": "pkg:rubygems/dalli@3.2.1",
      "group": "",
      "name": "dalli",
      "version": "3.2.1",
      "description": "",
      "purl": "pkg:rubygems/dalli@3.2.1"
    },
    {
      "type": "library",
      "bom-ref": "pkg:rubygems/database_cleaner@2.0.1",
      "group": "",
      "name": "database_cleaner",
      "version": "2.0.1",
      "description": "",
      "purl": "pkg:rubygems/database_cleaner@2.0.1"
    },
    {
      "type": "library",
      "bom-ref": "pkg:rubygems/database_cleaner-active_record@2.0.1",
      "group": "",
      "name": "database_cleaner-active_record",
      "version": "2.0.1",
      "description": "",
      "purl": "pkg:rubygems/database_cleaner-active_record@2.0.1"
    },
    {
      "type": "library",
      "bom-ref": "pkg:rubygems/database_cleaner-core@2.0.1",
      "group": "",
      "name": "database_cleaner-core",
      "version": "2.0.1",
      "description": "",
      "purl": "pkg:rubygems/database_cleaner-core@2.0.1"
    },
    {
      "type": "library",
      "bom-ref": "pkg:rubygems/diff-lcs@1.5.0",
      "group": "",
      "name": "diff-lcs",
      "version": "1.5.0",
      "description": "",
      "purl": "pkg:rubygems/diff-lcs@1.5.0"
    },
    {
      "type": "library",
      "bom-ref": "pkg:rubygems/digest@3.1.0",
      "group": "",
      "name": "digest",
      "version": "3.1.0",
      "description": "",
      "purl": "pkg:rubygems/digest@3.1.0"
    },
    {
      "type": "library",
      "bom-ref": "pkg:rubygems/docile@1.4.0",
      "group": "",
      "name": "docile",
      "version": "1.4.0",
      "description": "",
      "purl": "pkg:rubygems/docile@1.4.0"
    },
    {
      "type": "library",
      "bom-ref": "pkg:rubygems/domain_name@0.5.20190701",
      "group": "",
      "name": "domain_name",
      "version": "0.5.20190701",
      "description": "",
      "purl": "pkg:rubygems/domain_name@0.5.20190701"
    },
    {
      "type": "library",
      "bom-ref": "pkg:rubygems/draper@4.0.2",
      "group": "",
      "name": "draper",
      "version": "4.0.2",
      "description": "",
      "purl": "pkg:rubygems/draper@4.0.2"
    },
    {
      "type": "library",
      "bom-ref": "pkg:rubygems/equalizer@0.0.11",
      "group": "",
      "name": "equalizer",
      "version": "0.0.11",
      "description": "",
      "purl": "pkg:rubygems/equalizer@0.0.11"
    },
    {
      "type": "library",
      "bom-ref": "pkg:rubygems/erubi@1.10.0",
      "group": "",
      "name": "erubi",
      "version": "1.10.0",
      "description": "",
      "purl": "pkg:rubygems/erubi@1.10.0"
    },
    {
      "type": "library",
      "bom-ref": "pkg:rubygems/ethon@0.15.0",
      "group": "",
      "name": "ethon",
      "version": "0.15.0",
      "description": "",
      "purl": "pkg:rubygems/ethon@0.15.0"
    },
    {
      "type": "library",
      "bom-ref": "pkg:rubygems/execjs@2.8.1",
      "group": "",
      "name": "execjs",
      "version": "2.8.1",
      "description": "",
      "purl": "pkg:rubygems/execjs@2.8.1"
    },
    {
      "type": "library",
      "bom-ref": "pkg:rubygems/factory_bot@4.11.1",
      "group": "",
      "name": "factory_bot",
      "version": "4.11.1",
      "description": "",
      "purl": "pkg:rubygems/factory_bot@4.11.1"
    },
    {
      "type": "library",
      "bom-ref": "pkg:rubygems/factory_bot_rails@4.11.1",
      "group": "",
      "name": "factory_bot_rails",
      "version": "4.11.1",
      "description": "",
      "purl": "pkg:rubygems/factory_bot_rails@4.11.1"
    },
    {
      "type": "library",
      "bom-ref": "pkg:rubygems/faker@2.20.0",
      "group": "",
      "name": "faker",
      "version": "2.20.0",
      "description": "",
      "purl": "pkg:rubygems/faker@2.20.0"
    },
    {
      "type": "library",
      "bom-ref": "pkg:rubygems/faraday@2.3.0",
      "group": "",
      "name": "faraday",
      "version": "2.3.0",
      "description": "",
      "purl": "pkg:rubygems/faraday@2.3.0"
    },
    {
      "type": "library",
      "bom-ref": "pkg:rubygems/faraday-net_http@2.0.3",
      "group": "",
      "name": "faraday-net_http",
      "version": "2.0.3",
      "description": "",
      "purl": "pkg:rubygems/faraday-net_http@2.0.3"
    },
    {
      "type": "library",
      "bom-ref": "pkg:rubygems/ffi@1.15.5",
      "group": "",
      "name": "ffi",
      "version": "1.15.5",
      "description": "",
      "purl": "pkg:rubygems/ffi@1.15.5"
    },
    {
      "type": "library",
      "bom-ref": "pkg:rubygems/ffi-compiler@1.0.1",
      "group": "",
      "name": "ffi-compiler",
      "version": "1.0.1",
      "description": "",
      "purl": "pkg:rubygems/ffi-compiler@1.0.1"
    },
    {
      "type": "library",
      "bom-ref": "pkg:rubygems/foreman@0.87.2",
      "group": "",
      "name": "foreman",
      "version": "0.87.2",
      "description": "",
      "purl": "pkg:rubygems/foreman@0.87.2"
    },
    {
      "type": "library",
      "bom-ref": "pkg:rubygems/globalid@1.0.0",
      "group": "",
      "name": "globalid",
      "version": "1.0.0",
      "description": "",
      "purl": "pkg:rubygems/globalid@1.0.0"
    },
    {
      "type": "library",
      "bom-ref": "pkg:rubygems/hashdiff@1.0.1",
      "group": "",
      "name": "hashdiff",
      "version": "1.0.1",
      "description": "",
      "purl": "pkg:rubygems/hashdiff@1.0.1"
    },
    {
      "type": "library",
      "bom-ref": "pkg:rubygems/hashie@5.0.0",
      "group": "",
      "name": "hashie",
      "version": "5.0.0",
      "description": "",
      "purl": "pkg:rubygems/hashie@5.0.0"
    },
    {
      "type": "library",
      "bom-ref": "pkg:rubygems/highline@2.0.3",
      "group": "",
      "name": "highline",
      "version": "2.0.3",
      "description": "",
      "purl": "pkg:rubygems/highline@2.0.3"
    },
    {
      "type": "library",
      "bom-ref": "pkg:rubygems/html_tokenizer@0.0.7",
      "group": "",
      "name": "html_tokenizer",
      "version": "0.0.7",
      "description": "",
      "purl": "pkg:rubygems/html_tokenizer@0.0.7"
    },
    {
      "type": "library",
      "bom-ref": "pkg:rubygems/http@4.4.1",
      "group": "",
      "name": "http",
      "version": "4.4.1",
      "description": "",
      "purl": "pkg:rubygems/http@4.4.1"
    },
    {
      "type": "library",
      "bom-ref": "pkg:rubygems/http-cookie@1.0.5",
      "group": "",
      "name": "http-cookie",
      "version": "1.0.5",
      "description": "",
      "purl": "pkg:rubygems/http-cookie@1.0.5"
    },
    {
      "type": "library",
      "bom-ref": "pkg:rubygems/http-form_data@2.3.0",
      "group": "",
      "name": "http-form_data",
      "version": "2.3.0",
      "description": "",
      "purl": "pkg:rubygems/http-form_data@2.3.0"
    },
    {
      "type": "library",
      "bom-ref": "pkg:rubygems/http-parser@1.2.3",
      "group": "",
      "name": "http-parser",
      "version": "1.2.3",
      "description": "",
      "purl": "pkg:rubygems/http-parser@1.2.3"
    },
    {
      "type": "library",
      "bom-ref": "pkg:rubygems/http_parser.rb@0.6.0",
      "group": "",
      "name": "http_parser.rb",
      "version": "0.6.0",
      "description": "",
      "purl": "pkg:rubygems/http_parser.rb@0.6.0"
    },
    {
      "type": "library",
      "bom-ref": "pkg:rubygems/i18n@1.10.0",
      "group": "",
      "name": "i18n",
      "version": "1.10.0",
      "description": "",
      "purl": "pkg:rubygems/i18n@1.10.0"
    },
    {
      "type": "library",
      "bom-ref": "pkg:rubygems/i18n-tasks@1.0.10",
      "group": "",
      "name": "i18n-tasks",
      "version": "1.0.10",
      "description": "",
      "purl": "pkg:rubygems/i18n-tasks@1.0.10"
    },
    {
      "type": "library",
      "bom-ref": "pkg:rubygems/jquery-datetimepicker-rails@2.4.1.0",
      "group": "",
      "name": "jquery-datetimepicker-rails",
      "version": "2.4.1.0",
      "description": "",
      "purl": "pkg:rubygems/jquery-datetimepicker-rails@2.4.1.0"
    },
    {
      "type": "library",
      "bom-ref": "pkg:rubygems/jquery-rails@4.5.0",
      "group": "",
      "name": "jquery-rails",
      "version": "4.5.0",
      "description": "",
      "purl": "pkg:rubygems/jquery-rails@4.5.0"
    },
    {
      "type": "library",
      "bom-ref": "pkg:rubygems/jwt@2.3.0",
      "group": "",
      "name": "jwt",
      "version": "2.3.0",
      "description": "",
      "purl": "pkg:rubygems/jwt@2.3.0"
    },
    {
      "type": "library",
      "bom-ref": "pkg:rubygems/kaminari@1.2.2",
      "group": "",
      "name": "kaminari",
      "version": "1.2.2",
      "description": "",
      "purl": "pkg:rubygems/kaminari@1.2.2"
    },
    {
      "type": "library",
      "bom-ref": "pkg:rubygems/kaminari-actionview@1.2.2",
      "group": "",
      "name": "kaminari-actionview",
      "version": "1.2.2",
      "description": "",
      "purl": "pkg:rubygems/kaminari-actionview@1.2.2"
    },
    {
      "type": "library",
      "bom-ref": "pkg:rubygems/kaminari-activerecord@1.2.2",
      "group": "",
      "name": "kaminari-activerecord",
      "version": "1.2.2",
      "description": "",
      "purl": "pkg:rubygems/kaminari-activerecord@1.2.2"
    },
    {
      "type": "library",
      "bom-ref": "pkg:rubygems/kaminari-core@1.2.2",
      "group": "",
      "name": "kaminari-core",
      "version": "1.2.2",
      "description": "",
      "purl": "pkg:rubygems/kaminari-core@1.2.2"
    },
    {
      "type": "library",
      "bom-ref": "pkg:rubygems/loofah@2.18.0",
      "group": "",
      "name": "loofah",
      "version": "2.18.0",
      "description": "",
      "purl": "pkg:rubygems/loofah@2.18.0"
    },
    {
      "type": "library",
      "bom-ref": "pkg:rubygems/mail@2.7.1",
      "group": "",
      "name": "mail",
      "version": "2.7.1",
      "description": "",
      "purl": "pkg:rubygems/mail@2.7.1"
    },
    {
      "type": "library",
      "bom-ref": "pkg:rubygems/marcel@1.0.2",
      "group": "",
      "name": "marcel",
      "version": "1.0.2",
      "description": "",
      "purl": "pkg:rubygems/marcel@1.0.2"
    },
    {
      "type": "library",
      "bom-ref": "pkg:rubygems/matrix@0.4.2",
      "group": "",
      "name": "matrix",
      "version": "0.4.2",
      "description": "",
      "purl": "pkg:rubygems/matrix@0.4.2"
    },
    {
      "type": "library",
      "bom-ref": "pkg:rubygems/memoizable@0.4.2",
      "group": "",
      "name": "memoizable",
      "version": "0.4.2",
      "description": "",
      "purl": "pkg:rubygems/memoizable@0.4.2"
    },
    {
      "type": "library",
      "bom-ref": "pkg:rubygems/method_source@1.0.0",
      "group": "",
      "name": "method_source",
      "version": "1.0.0",
      "description": "",
      "purl": "pkg:rubygems/method_source@1.0.0"
    },
    {
      "type": "library",
      "bom-ref": "pkg:rubygems/mini_mime@1.1.2",
      "group": "",
      "name": "mini_mime",
      "version": "1.1.2",
      "description": "",
      "purl": "pkg:rubygems/mini_mime@1.1.2"
    },
    {
      "type": "library",
      "bom-ref": "pkg:rubygems/mini_portile2@2.8.0",
      "group": "",
      "name": "mini_portile2",
      "version": "2.8.0",
      "description": "",
      "purl": "pkg:rubygems/mini_portile2@2.8.0"
    },
    {
      "type": "library",
      "bom-ref": "pkg:rubygems/minitest@5.15.0",
      "group": "",
      "name": "minitest",
      "version": "5.15.0",
      "description": "",
      "purl": "pkg:rubygems/minitest@5.15.0"
    },
    {
      "type": "library",
      "bom-ref": "pkg:rubygems/msgpack@1.5.2",
      "group": "",
      "name": "msgpack",
      "version": "1.5.2",
      "description": "",
      "purl": "pkg:rubygems/msgpack@1.5.2"
    },
    {
      "type": "library",
      "bom-ref": "pkg:rubygems/multi_json@1.15.0",
      "group": "",
      "name": "multi_json",
      "version": "1.15.0",
      "description": "",
      "purl": "pkg:rubygems/multi_json@1.15.0"
    },
    {
      "type": "library",
      "bom-ref": "pkg:rubygems/multi_xml@0.6.0",
      "group": "",
      "name": "multi_xml",
      "version": "0.6.0",
      "description": "",
      "purl": "pkg:rubygems/multi_xml@0.6.0"
    },
    {
      "type": "library",
      "bom-ref": "pkg:rubygems/multipart-post@2.1.1",
      "group": "",
      "name": "multipart-post",
      "version": "2.1.1",
      "description": "",
      "purl": "pkg:rubygems/multipart-post@2.1.1"
    },
    {
      "type": "library",
      "bom-ref": "pkg:rubygems/naught@1.1.0",
      "group": "",
      "name": "naught",
      "version": "1.1.0",
      "description": "",
      "purl": "pkg:rubygems/naught@1.1.0"
    },
    {
      "type": "library",
      "bom-ref": "pkg:rubygems/net-imap@0.2.3",
      "group": "",
      "name": "net-imap",
      "version": "0.2.3",
      "description": "",
      "purl": "pkg:rubygems/net-imap@0.2.3"
    },
    {
      "type": "library",
      "bom-ref": "pkg:rubygems/net-pop@0.1.1",
      "group": "",
      "name": "net-pop",
      "version": "0.1.1",
      "description": "",
      "purl": "pkg:rubygems/net-pop@0.1.1"
    },
    {
      "type": "library",
      "bom-ref": "pkg:rubygems/net-protocol@0.1.3",
      "group": "",
      "name": "net-protocol",
      "version": "0.1.3",
      "description": "",
      "purl": "pkg:rubygems/net-protocol@0.1.3"
    },
    {
      "type": "library",
      "bom-ref": "pkg:rubygems/net-smtp@0.3.1",
      "group": "",
      "name": "net-smtp",
      "version": "0.3.1",
      "description": "",
      "purl": "pkg:rubygems/net-smtp@0.3.1"
    },
    {
      "type": "library",
      "bom-ref": "pkg:rubygems/nio4r@2.5.8",
      "group": "",
      "name": "nio4r",
      "version": "2.5.8",
      "description": "",
      "purl": "pkg:rubygems/nio4r@2.5.8"
    },
    {
      "type": "library",
      "bom-ref": "pkg:rubygems/nokogiri@1.13.6",
      "group": "",
      "name": "nokogiri",
      "version": "1.13.6",
      "description": "",
      "purl": "pkg:rubygems/nokogiri@1.13.6"
    },
    {
      "type": "library",
      "bom-ref": "pkg:rubygems/oauth@0.5.10",
      "group": "",
      "name": "oauth",
      "version": "0.5.10",
      "description": "",
      "purl": "pkg:rubygems/oauth@0.5.10"
    },
    {
      "type": "library",
      "bom-ref": "pkg:rubygems/oauth2@1.4.9",
      "group": "",
      "name": "oauth2",
      "version": "1.4.9",
      "description": "",
      "purl": "pkg:rubygems/oauth2@1.4.9"
    },
    {
      "type": "library",
      "bom-ref": "pkg:rubygems/octicons@9.6.0",
      "group": "",
      "name": "octicons",
      "version": "9.6.0",
      "description": "",
      "purl": "pkg:rubygems/octicons@9.6.0"
    },
    {
      "type": "library",
      "bom-ref": "pkg:rubygems/octicons_helper@9.6.0",
      "group": "",
      "name": "octicons_helper",
      "version": "9.6.0",
      "description": "",
      "purl": "pkg:rubygems/octicons_helper@9.6.0"
    },
    {
      "type": "library",
      "bom-ref": "pkg:rubygems/octokit@4.23.0",
      "group": "",
      "name": "octokit",
      "version": "4.23.0",
      "description": "",
      "purl": "pkg:rubygems/octokit@4.23.0"
    },
    {
      "type": "library",
      "bom-ref": "pkg:rubygems/omniauth@1.9.1",
      "group": "",
      "name": "omniauth",
      "version": "1.9.1",
      "description": "",
      "purl": "pkg:rubygems/omniauth@1.9.1"
    },
    {
      "type": "library",
      "bom-ref": "pkg:rubygems/omniauth-github@1.4.0",
      "group": "",
      "name": "omniauth-github",
      "version": "1.4.0",
      "description": "",
      "purl": "pkg:rubygems/omniauth-github@1.4.0"
    },
    {
      "type": "library",
      "bom-ref": "pkg:rubygems/omniauth-oauth@1.2.0",
      "group": "",
      "name": "omniauth-oauth",
      "version": "1.2.0",
      "description": "",
      "purl": "pkg:rubygems/omniauth-oauth@1.2.0"
    },
    {
      "type": "library",
      "bom-ref": "pkg:rubygems/omniauth-oauth2@1.7.2",
      "group": "",
      "name": "omniauth-oauth2",
      "version": "1.7.2",
      "description": "",
      "purl": "pkg:rubygems/omniauth-oauth2@1.7.2"
    },
    {
      "type": "library",
      "bom-ref": "pkg:rubygems/omniauth-twitter@1.4.0",
      "group": "",
      "name": "omniauth-twitter",
      "version": "1.4.0",
      "description": "",
      "purl": "pkg:rubygems/omniauth-twitter@1.4.0"
    },
    {
      "type": "library",
      "bom-ref": "pkg:rubygems/parallel@1.22.1",
      "group": "",
      "name": "parallel",
      "version": "1.22.1",
      "description": "",
      "purl": "pkg:rubygems/parallel@1.22.1"
    },
    {
      "type": "library",
      "bom-ref": "pkg:rubygems/parser@3.1.2.0",
      "group": "",
      "name": "parser",
      "version": "3.1.2.0",
      "description": "",
      "purl": "pkg:rubygems/parser@3.1.2.0"
    },
    {
      "type": "library",
      "bom-ref": "pkg:rubygems/pg@1.3.5",
      "group": "",
      "name": "pg",
      "version": "1.3.5",
      "description": "",
      "purl": "pkg:rubygems/pg@1.3.5"
    },
    {
      "type": "library",
      "bom-ref": "pkg:rubygems/poltergeist@1.18.1",
      "group": "",
      "name": "poltergeist",
      "version": "1.18.1",
      "description": "",
      "purl": "pkg:rubygems/poltergeist@1.18.1"
    },
    {
      "type": "library",
      "bom-ref": "pkg:rubygems/public_suffix@4.0.7",
      "group": "",
      "name": "public_suffix",
      "version": "4.0.7",
      "description": "",
      "purl": "pkg:rubygems/public_suffix@4.0.7"
    },
    {
      "type": "library",
      "bom-ref": "pkg:rubygems/puma@5.6.4",
      "group": "",
      "name": "puma",
      "version": "5.6.4",
      "description": "",
      "purl": "pkg:rubygems/puma@5.6.4"
    },
    {
      "type": "library",
      "bom-ref": "pkg:rubygems/rabl@0.15.0",
      "group": "",
      "name": "rabl",
      "version": "0.15.0",
      "description": "",
      "purl": "pkg:rubygems/rabl@0.15.0"
    },
    {
      "type": "library",
      "bom-ref": "pkg:rubygems/racc@1.6.0",
      "group": "",
      "name": "racc",
      "version": "1.6.0",
      "description": "",
      "purl": "pkg:rubygems/racc@1.6.0"
    },
    {
      "type": "library",
      "bom-ref": "pkg:rubygems/rack@2.2.3.1",
      "group": "",
      "name": "rack",
      "version": "2.2.3.1",
      "description": "",
      "purl": "pkg:rubygems/rack@2.2.3.1"
    },
    {
      "type": "library",
      "bom-ref": "pkg:rubygems/rack-attack@6.6.1",
      "group": "",
      "name": "rack-attack",
      "version": "6.6.1",
      "description": "",
      "purl": "pkg:rubygems/rack-attack@6.6.1"
    },
    {
      "type": "library",
      "bom-ref": "pkg:rubygems/rack-canonical-host@1.1.0",
      "group": "",
      "name": "rack-canonical-host",
      "version": "1.1.0",
      "description": "",
      "purl": "pkg:rubygems/rack-canonical-host@1.1.0"
    },
    {
      "type": "library",
      "bom-ref": "pkg:rubygems/rack-google-analytics@1.2.0",
      "group": "",
      "name": "rack-google-analytics",
      "version": "1.2.0",
      "description": "",
      "purl": "pkg:rubygems/rack-google-analytics@1.2.0"
    },
    {
      "type": "library",
      "bom-ref": "pkg:rubygems/rack-test@1.1.0",
      "group": "",
      "name": "rack-test",
      "version": "1.1.0",
      "description": "",
      "purl": "pkg:rubygems/rack-test@1.1.0"
    },
    {
      "type": "library",
      "bom-ref": "pkg:rubygems/rails@7.0.3",
      "group": "",
      "name": "rails",
      "version": "7.0.3",
      "description": "",
      "purl": "pkg:rubygems/rails@7.0.3"
    },
    {
      "type": "library",
      "bom-ref": "pkg:rubygems/rails-controller-testing@1.0.5",
      "group": "",
      "name": "rails-controller-testing",
      "version": "1.0.5",
      "description": "",
      "purl": "pkg:rubygems/rails-controller-testing@1.0.5"
    },
    {
      "type": "library",
      "bom-ref": "pkg:rubygems/rails-dom-testing@2.0.3",
      "group": "",
      "name": "rails-dom-testing",
      "version": "2.0.3",
      "description": "",
      "purl": "pkg:rubygems/rails-dom-testing@2.0.3"
    },
    {
      "type": "library",
      "bom-ref": "pkg:rubygems/rails-html-sanitizer@1.4.2",
      "group": "",
      "name": "rails-html-sanitizer",
      "version": "1.4.2",
      "description": "",
      "purl": "pkg:rubygems/rails-html-sanitizer@1.4.2"
    },
    {
      "type": "library",
      "bom-ref": "pkg:rubygems/rails-i18n@7.0.3",
      "group": "",
      "name": "rails-i18n",
      "version": "7.0.3",
      "description": "",
      "purl": "pkg:rubygems/rails-i18n@7.0.3"
    },
    {
      "type": "library",
      "bom-ref": "pkg:rubygems/railties@7.0.3",
      "group": "",
      "name": "railties",
      "version": "7.0.3",
      "description": "",
      "purl": "pkg:rubygems/railties@7.0.3"
    },
    {
      "type": "library",
      "bom-ref": "pkg:rubygems/rainbow@3.1.1",
      "group": "",
      "name": "rainbow",
      "version": "3.1.1",
      "description": "",
      "purl": "pkg:rubygems/rainbow@3.1.1"
    },
    {
      "type": "library",
      "bom-ref": "pkg:rubygems/rake@13.0.6",
      "group": "",
      "name": "rake",
      "version": "13.0.6",
      "description": "",
      "purl": "pkg:rubygems/rake@13.0.6"
    },
    {
      "type": "library",
      "bom-ref": "pkg:rubygems/regexp_parser@2.5.0",
      "group": "",
      "name": "regexp_parser",
      "version": "2.5.0",
      "description": "",
      "purl": "pkg:rubygems/regexp_parser@2.5.0"
    },
    {
      "type": "library",
      "bom-ref": "pkg:rubygems/request_store@1.5.1",
      "group": "",
      "name": "request_store",
      "version": "1.5.1",
      "description": "",
      "purl": "pkg:rubygems/request_store@1.5.1"
    },
    {
      "type": "library",
      "bom-ref": "pkg:rubygems/responders@3.0.1",
      "group": "",
      "name": "responders",
      "version": "3.0.1",
      "description": "",
      "purl": "pkg:rubygems/responders@3.0.1"
    },
    {
      "type": "library",
      "bom-ref": "pkg:rubygems/rexml@3.2.5",
      "group": "",
      "name": "rexml",
      "version": "3.2.5",
      "description": "",
      "purl": "pkg:rubygems/rexml@3.2.5"
    },
    {
      "type": "library",
      "bom-ref": "pkg:rubygems/rspec-activemodel-mocks@1.1.0",
      "group": "",
      "name": "rspec-activemodel-mocks",
      "version": "1.1.0",
      "description": "",
      "purl": "pkg:rubygems/rspec-activemodel-mocks@1.1.0"
    },
    {
      "type": "library",
      "bom-ref": "pkg:rubygems/rspec-collection_matchers@1.2.0",
      "group": "",
      "name": "rspec-collection_matchers",
      "version": "1.2.0",
      "description": "",
      "purl": "pkg:rubygems/rspec-collection_matchers@1.2.0"
    },
    {
      "type": "library",
      "bom-ref": "pkg:rubygems/rspec-core@3.11.0",
      "group": "",
      "name": "rspec-core",
      "version": "3.11.0",
      "description": "",
      "purl": "pkg:rubygems/rspec-core@3.11.0"
    },
    {
      "type": "library",
      "bom-ref": "pkg:rubygems/rspec-expectations@3.11.0",
      "group": "",
      "name": "rspec-expectations",
      "version": "3.11.0",
      "description": "",
      "purl": "pkg:rubygems/rspec-expectations@3.11.0"
    },
    {
      "type": "library",
      "bom-ref": "pkg:rubygems/rspec-its@1.3.0",
      "group": "",
      "name": "rspec-its",
      "version": "1.3.0",
      "description": "",
      "purl": "pkg:rubygems/rspec-its@1.3.0"
    },
    {
      "type": "library",
      "bom-ref": "pkg:rubygems/rspec-mocks@3.11.1",
      "group": "",
      "name": "rspec-mocks",
      "version": "3.11.1",
      "description": "",
      "purl": "pkg:rubygems/rspec-mocks@3.11.1"
    },
    {
      "type": "library",
      "bom-ref": "pkg:rubygems/rspec-rails@5.1.2",
      "group": "",
      "name": "rspec-rails",
      "version": "5.1.2",
      "description": "",
      "purl": "pkg:rubygems/rspec-rails@5.1.2"
    },
    {
      "type": "library",
      "bom-ref": "pkg:rubygems/rspec-support@3.11.0",
      "group": "",
      "name": "rspec-support",
      "version": "3.11.0",
      "description": "",
      "purl": "pkg:rubygems/rspec-support@3.11.0"
    },
    {
      "type": "library",
      "bom-ref": "pkg:rubygems/rubocop@1.30.0",
      "group": "",
      "name": "rubocop",
      "version": "1.30.0",
      "description": "",
      "purl": "pkg:rubygems/rubocop@1.30.0"
    },
    {
      "type": "library",
      "bom-ref": "pkg:rubygems/rubocop-ast@1.18.0",
      "group": "",
      "name": "rubocop-ast",
      "version": "1.18.0",
      "description": "",
      "purl": "pkg:rubygems/rubocop-ast@1.18.0"
    },
    {
      "type": "library",
      "bom-ref": "pkg:rubygems/ruby-progressbar@1.11.0",
      "group": "",
      "name": "ruby-progressbar",
      "version": "1.11.0",
      "description": "",
      "purl": "pkg:rubygems/ruby-progressbar@1.11.0"
    },
    {
      "type": "library",
      "bom-ref": "pkg:rubygems/ruby2_keywords@0.0.5",
      "group": "",
      "name": "ruby2_keywords",
      "version": "0.0.5",
      "description": "",
      "purl": "pkg:rubygems/ruby2_keywords@0.0.5"
    },
    {
      "type": "library",
      "bom-ref": "pkg:rubygems/sassc@2.4.0",
      "group": "",
      "name": "sassc",
      "version": "2.4.0",
      "description": "",
      "purl": "pkg:rubygems/sassc@2.4.0"
    },
    {
      "type": "library",
      "bom-ref": "pkg:rubygems/sassc-rails@2.1.2",
      "group": "",
      "name": "sassc-rails",
      "version": "2.1.2",
      "description": "",
      "purl": "pkg:rubygems/sassc-rails@2.1.2"
    },
    {
      "type": "library",
      "bom-ref": "pkg:rubygems/sawyer@0.9.1",
      "group": "",
      "name": "sawyer",
      "version": "0.9.1",
      "description": "",
      "purl": "pkg:rubygems/sawyer@0.9.1"
    },
    {
      "type": "library",
      "bom-ref": "pkg:rubygems/shoulda-matchers@3.1.3",
      "group": "",
      "name": "shoulda-matchers",
      "version": "3.1.3",
      "description": "",
      "purl": "pkg:rubygems/shoulda-matchers@3.1.3"
    },
    {
      "type": "library",
      "bom-ref": "pkg:rubygems/simple_form@5.1.0",
      "group": "",
      "name": "simple_form",
      "version": "5.1.0",
      "description": "",
      "purl": "pkg:rubygems/simple_form@5.1.0"
    },
    {
      "type": "library",
      "bom-ref": "pkg:rubygems/simple_oauth@0.3.1",
      "group": "",
      "name": "simple_oauth",
      "version": "0.3.1",
      "description": "",
      "purl": "pkg:rubygems/simple_oauth@0.3.1"
    },
    {
      "type": "library",
      "bom-ref": "pkg:rubygems/simplecov@0.21.2",
      "group": "",
      "name": "simplecov",
      "version": "0.21.2",
      "description": "",
      "purl": "pkg:rubygems/simplecov@0.21.2"
    },
    {
      "type": "library",
      "bom-ref": "pkg:rubygems/simplecov-html@0.12.3",
      "group": "",
      "name": "simplecov-html",
      "version": "0.12.3",
      "description": "",
      "purl": "pkg:rubygems/simplecov-html@0.12.3"
    },
    {
      "type": "library",
      "bom-ref": "pkg:rubygems/simplecov_json_formatter@0.1.4",
      "group": "",
      "name": "simplecov_json_formatter",
      "version": "0.1.4",
      "description": "",
      "purl": "pkg:rubygems/simplecov_json_formatter@0.1.4"
    },
    {
      "type": "library",
      "bom-ref": "pkg:rubygems/smart_properties@1.17.0",
      "group": "",
      "name": "smart_properties",
      "version": "1.17.0",
      "description": "",
      "purl": "pkg:rubygems/smart_properties@1.17.0"
    },
    {
      "type": "library",
      "bom-ref": "pkg:rubygems/spring@4.0.0",
      "group": "",
      "name": "spring",
      "version": "4.0.0",
      "description": "",
      "purl": "pkg:rubygems/spring@4.0.0"
    },
    {
      "type": "library",
      "bom-ref": "pkg:rubygems/spring-commands-rspec@1.0.4",
      "group": "",
      "name": "spring-commands-rspec",
      "version": "1.0.4",
      "description": "",
      "purl": "pkg:rubygems/spring-commands-rspec@1.0.4"
    },
    {
      "type": "library",
      "bom-ref": "pkg:rubygems/sprockets@4.0.3",
      "group": "",
      "name": "sprockets",
      "version": "4.0.3",
      "description": "",
      "purl": "pkg:rubygems/sprockets@4.0.3"
    },
    {
      "type": "library",
      "bom-ref": "pkg:rubygems/sprockets-rails@3.4.2",
      "group": "",
      "name": "sprockets-rails",
      "version": "3.4.2",
      "description": "",
      "purl": "pkg:rubygems/sprockets-rails@3.4.2"
    },
    {
      "type": "library",
      "bom-ref": "pkg:rubygems/strscan@3.0.3",
      "group": "",
      "name": "strscan",
      "version": "3.0.3",
      "description": "",
      "purl": "pkg:rubygems/strscan@3.0.3"
    },
    {
      "type": "library",
      "bom-ref": "pkg:rubygems/terminal-table@3.0.2",
      "group": "",
      "name": "terminal-table",
      "version": "3.0.2",
      "description": "",
      "purl": "pkg:rubygems/terminal-table@3.0.2"
    },
    {
      "type": "library",
      "bom-ref": "pkg:rubygems/thor@1.2.1",
      "group": "",
      "name": "thor",
      "version": "1.2.1",
      "description": "",
      "purl": "pkg:rubygems/thor@1.2.1"
    },
    {
      "type": "library",
      "bom-ref": "pkg:rubygems/thread_safe@0.3.6",
      "group": "",
      "name": "thread_safe",
      "version": "0.3.6",
      "description": "",
      "purl": "pkg:rubygems/thread_safe@0.3.6"
    },
    {
      "type": "library",
      "bom-ref": "pkg:rubygems/tilt@2.0.10",
      "group": "",
      "name": "tilt",
      "version": "2.0.10",
      "description": "",
      "purl": "pkg:rubygems/tilt@2.0.10"
    },
    {
      "type": "library",
      "bom-ref": "pkg:rubygems/timecop@0.9.5",
      "group": "",
      "name": "timecop",
      "version": "0.9.5",
      "description": "",
      "purl": "pkg:rubygems/timecop@0.9.5"
    },
    {
      "type": "library",
      "bom-ref": "pkg:rubygems/timeout@0.3.0",
      "group": "",
      "name": "timeout",
      "version": "0.3.0",
      "description": "",
      "purl": "pkg:rubygems/timeout@0.3.0"
    },
    {
      "type": "library",
      "bom-ref": "pkg:rubygems/twitter@7.0.0",
      "group": "",
      "name": "twitter",
      "version": "7.0.0",
      "description": "",
      "purl": "pkg:rubygems/twitter@7.0.0"
    },
    {
      "type": "library",
      "bom-ref": "pkg:rubygems/typhoeus@1.4.0",
      "group": "",
      "name": "typhoeus",
      "version": "1.4.0",
      "description": "",
      "purl": "pkg:rubygems/typhoeus@1.4.0"
    },
    {
      "type": "library",
      "bom-ref": "pkg:rubygems/tzinfo@2.0.4",
      "group": "",
      "name": "tzinfo",
      "version": "2.0.4",
      "description": "",
      "purl": "pkg:rubygems/tzinfo@2.0.4"
    },
    {
      "type": "library",
      "bom-ref": "pkg:rubygems/uglifier@4.2.0",
      "group": "",
      "name": "uglifier",
      "version": "4.2.0",
      "description": "",
      "purl": "pkg:rubygems/uglifier@4.2.0"
    },
    {
      "type": "library",
      "bom-ref": "pkg:rubygems/unf@0.1.4",
      "group": "",
      "name": "unf",
      "version": "0.1.4",
      "description": "",
      "purl": "pkg:rubygems/unf@0.1.4"
    },
    {
      "type": "library",
      "bom-ref": "pkg:rubygems/unf_ext@0.0.8.2",
      "group": "",
      "name": "unf_ext",
      "version": "0.0.8.2",
      "description": "",
      "purl": "pkg:rubygems/unf_ext@0.0.8.2"
    },
    {
      "type": "library",
      "bom-ref": "pkg:rubygems/unicode-display_width@2.1.0",
      "group": "",
      "name": "unicode-display_width",
      "version": "2.1.0",
      "description": "",
      "purl": "pkg:rubygems/unicode-display_width@2.1.0"
    },
    {
      "type": "library",
      "bom-ref": "pkg:rubygems/web-console@4.2.0",
      "group": "",
      "name": "web-console",
      "version": "4.2.0",
      "description": "",
      "purl": "pkg:rubygems/web-console@4.2.0"
    },
    {
      "type": "library",
      "bom-ref": "pkg:rubygems/webmock@3.14.0",
      "group": "",
      "name": "webmock",
      "version": "3.14.0",
      "description": "",
      "purl": "pkg:rubygems/webmock@3.14.0"
    },
    {
      "type": "library",
      "bom-ref": "pkg:rubygems/websocket-driver@0.7.5",
      "group": "",
      "name": "websocket-driver",
      "version": "0.7.5",
      "description": "",
      "purl": "pkg:rubygems/websocket-driver@0.7.5"
    },
    {
      "type": "library",
      "bom-ref": "pkg:rubygems/websocket-extensions@0.1.5",
      "group": "",
      "name": "websocket-extensions",
      "version": "0.1.5",
      "description": "",
      "purl": "pkg:rubygems/websocket-extensions@0.1.5"
    },
    {
      "type": "library",
      "bom-ref": "pkg:rubygems/xpath@3.2.0",
      "group": "",
      "name": "xpath",
      "version": "3.2.0",
      "description": "",
      "purl": "pkg:rubygems/xpath@3.2.0"
    },
    {
      "type": "library",
      "bom-ref": "pkg:rubygems/zeitwerk@2.5.4",
      "group": "",
      "name": "zeitwerk",
      "version": "2.5.4",
      "description": "",
      "purl": "pkg:rubygems/zeitwerk@2.5.4"
    }
  ]
}
