{
  "bomFormat": "CycloneDX",
  "specVersion": "1.3",
  "version": 1,
  "metadata": {
    "tools": [
      {
        "vendor": "CycloneDX",
        "name": "Node.js module",
        "version": "3.0.3"
      },
      {
        "vendor": "Fortress Information Security",
        "name": "Github Extractor",
        "version": "1.15.1"
      }
    ],
    "authors": [
      {
        "name": "Fortress Information Security",
        "email": "sales@fortressinfosec.com",
        "phone": "1-407-573-6800"
      }
    ],
    "timestamp": "2022-06-01T21:00:00Z",
    "component": {
      "type": "application",
      "name": "examples",
      "version": "",
      "group": "actix",
      "externalReferences": [
        {
          "url": "https://github.com/actix/examples.git",
          "type": "distribution"
        },
        {
          "type": "website",
          "url": "null",
          "comment": "As set via `homepage` in Github API"
        }
      ]
    }
  },
  "components": [
    {
      "type": "library",
      "publisher": "Thomas Waldmann",
      "name": "argparse",
      "version": "1.4.0",
      "description": "Python command-line parsing library",
      "hashes": [
        {
          "alg": "MD5",
          "content": "c37216a954c8669054e2b2c54853dd49"
        },
        {
          "alg": "SHA-256",
          "content": "c31647edb69fd3d465a847ea3157d37bed1f95f19760b11a47aa91c04b666314"
        }
      ],
      "licenses": [
        {
          "license": {
            "name": "Python Software Foundation License"
          }
        }
      ],
      "purl": "pkg:pypi/argparse@1.4.0",
      "modified": false
    },
    {
      "type": "library",
      "publisher": "Guido van Rossum (and others)",
      "name": "asyncio",
      "version": "3.4.3",
      "description": "reference implementation of PEP 3156",
      "hashes": [
        {
          "alg": "MD5",
          "content": "82ea7f22832529b1d68109f077c3e977"
        },
        {
          "alg": "SHA-256",
          "content": "c4d18b22701821de07bd6aea8b53d21449ec0ec5680645e5317062ea21817d2d"
        }
      ],
      "licenses": [
        {
          "license": {
            "name": "PSF"
          }
        }
      ],
      "purl": "pkg:pypi/asyncio@3.4.3",
      "modified": false
    },
    {
      "type": "library",
      "publisher": "Stephan Klein",
      "name": "signal",
      "version": "0.1",
      "description": "Send SMS messages via ADB and your Android phone. Comes with a CLI.",
      "licenses": [
        {
          "license": {
            "name": "MIT"
          }
        }
      ],
      "purl": "pkg:pypi/signal@0.1",
      "modified": false
    },
    {
      "type": "library",
      "name": "aiohttp",
      "version": "3.8.1",
      "description": "Async http client/server framework (asyncio)",
      "hashes": [
        {
          "alg": "MD5",
          "content": "924f3c0a0f17b3b26ea5371661291e7f"
        },
        {
          "alg": "SHA-256",
          "content": "1c182cb873bc91b411e184dab7a2b664d4fea2743df0e4d57402f7f3fa644bac"
        }
      ],
      "licenses": [
        {
          "license": {
            "name": "Apache 2"
          }
        }
      ],
      "purl": "pkg:pypi/aiohttp@3.8.1",
      "modified": false
    },
    {
      "type": "library",
      "publisher": "Kenneth Reitz",
      "name": "requests",
      "version": "2.27.1",
      "description": "Python HTTP for Humans.",
      "hashes": [
        {
          "alg": "MD5",
          "content": "435db0f122c83decd27524f690e89650"
        },
        {
          "alg": "SHA-256",
          "content": "f22fa1e554c9ddfd16e6e41ac79759e17be9e492b3587efa038054674760e72d"
        }
      ],
      "licenses": [
        {
          "license": {
            "name": "Apache 2.0"
          }
        }
      ],
      "purl": "pkg:pypi/requests@2.27.1",
      "modified": false
    },
    {
      "type": "library",
      "publisher": "Mario Vilas",
      "name": "google",
      "version": "3.0.0",
      "description": "Python bindings to the Google search engine.",
      "hashes": [
        {
          "alg": "MD5",
          "content": "30c719790d3e7e57e9482d108eda355c"
        },
        {
          "alg": "SHA-256",
          "content": "889cf695f84e4ae2c55fbc0cfdaf4c1e729417fa52ab1db0485202ba173e4935"
        }
      ],
      "purl": "pkg:pypi/google@3.0.0",
      "modified": false
    }
  ]
}
