{
  "bomFormat": "CycloneDX",
  "specVersion": "1.3",
  "version": 1,
  "metadata": {
    "tools": [
      {
        "vendor": "CycloneDX",
        "name": "Node.js module",
        "version": "3.0.3"
      },
      {
        "vendor": "Fortress Information Security",
        "name": "GitHub Extractor",
        "version": "1.15.1"
      }
    ],
    "authors": [
      {
        "name": "Fortress Information Security",
        "email": "sales@fortressinfosec.com",
        "phone": "1-407-573-6800"
      }
    ],
    "timestamp": "2022-07-05T11:11:48Z",
    "component": {
      "type": "application",
      "name": "incubator-livy",
      "version": "",
      "group": "apache",
      "externalReferences": [
        {
          "url": "https://github.com/apache/incubator-livy.git",
          "type": "distribution"
        }
      ]
    }
  },
  "components": [
    {
      "type": "library",
      "publisher": "Python Packaging Authority",
      "name": "setuptools",
      "version": "63.1.0",
      "description": "Easily download, build, install, upgrade, and uninstall Python packages",
      "hashes": [
        {
          "alg": "MD5",
          "content": "73a10d5f72699823dba4ba023093e86c"
        },
        {
          "alg": "SHA-256",
          "content": "db3b8e2f922b2a910a29804776c643ea609badb6a32c4bcc226fd4fd902cce65"
        }
      ],
      "purl": "pkg:pypi/setuptools@63.1.0",
      "modified": false
    },
    {
      "type": "library",
      "publisher": "Holger Krekel, Bruno Oliveira, Ronny Pfannschmidt, Floris Bruynooghe, Brianna Laugher, Florian Bruhin and others",
      "name": "pytest",
      "version": "7.1.2",
      "description": "pytest: simple powerful testing with Python",
      "hashes": [
        {
          "alg": "MD5",
          "content": "6f5a9e12007a2529cb00d3b5a8af33a1"
        },
        {
          "alg": "SHA-256",
          "content": "13d0e3ccfc2b6e26be000cb6568c832ba67ba32e719443bfe725814d3c42433c"
        }
      ],
      "licenses": [
        {
          "license": {
            "name": "MIT"
          }
        }
      ],
      "purl": "pkg:pypi/pytest@7.1.2",
      "modified": false
    },
    {
      "type": "library",
      "publisher": "David Cramer",
      "name": "responses",
      "version": "0.21.0",
      "description": "A utility library for mocking out the `requests` Python library.",
      "hashes": [
        {
          "alg": "MD5",
          "content": "e99b1d3f4f52c63fcc708e66f58b576b"
        },
        {
          "alg": "SHA-256",
          "content": "2dcc863ba63963c0c3d9ee3fa9507cbe36b7d7b0fccb4f0bdfd9e96c539b1487"
        }
      ],
      "licenses": [
        {
          "license": {
            "name": "Apache 2.0"
          }
        }
      ],
      "purl": "pkg:pypi/responses@0.21.0",
      "modified": false
    },
    {
      "type": "library",
      "publisher": "Łukasz Langa",
      "name": "configparser",
      "version": "5.2.0",
      "description": "Updated configparser from Python 3.8 for Python 2.6+.",
      "hashes": [
        {
          "alg": "MD5",
          "content": "69bab6f43cd4375830a54a53a50129fa"
        },
        {
          "alg": "SHA-256",
          "content": "e8b39238fb6f0153a069aa253d349467c3c4737934f253ef6abac5fe0eca1e5d"
        }
      ],
      "purl": "pkg:pypi/configparser@5.2.0",
      "modified": false
    },
    {
      "type": "library",
      "publisher": "Andrew Crozier",
      "name": "livy",
      "version": "0.8.0",
      "description": "A Python client for Apache Livy",
      "hashes": [
        {
          "alg": "MD5",
          "content": "020e0f6ccd2b0b631a1d525498e4a190"
        },
        {
          "alg": "SHA-256",
          "content": "250f7334bab11929f7de94f4e83ec5f85d15fa8352cedbafa201438a5c133c18"
        }
      ],
      "licenses": [
        {
          "license": {
            "name": "MIT"
          }
        }
      ],
      "purl": "pkg:pypi/livy@0.8.0",
      "modified": false
    },
    {
      "type": "library",
      "publisher": "Cloudpipe",
      "name": "cloudpickle",
      "version": "2.1.0",
      "description": "Extended pickling support for Python objects",
      "hashes": [
        {
          "alg": "MD5",
          "content": "7a7667e5defbc5ba50ec09430561754c"
        },
        {
          "alg": "SHA-256",
          "content": "b5c434f75c34624eedad3a14f2be5ac3b5384774d5b0e3caf905c21479e6c4b1"
        }
      ],
      "licenses": [
        {
          "license": {
            "name": "BSD 3-Clause License"
          }
        }
      ],
      "purl": "pkg:pypi/cloudpickle@2.1.0",
      "modified": false
    },
    {
      "type": "library",
      "publisher": "Kenneth Reitz",
      "name": "requests",
      "version": "2.28.1",
      "description": "Python HTTP for Humans.",
      "hashes": [
        {
          "alg": "MD5",
          "content": "d18f682863389367f878339e288817f2"
        },
        {
          "alg": "SHA-256",
          "content": "8fefa2a1a1365bf5520aac41836fbee479da67864514bdb821f31ce07ce65349"
        }
      ],
      "licenses": [
        {
          "license": {
            "name": "Apache 2.0"
          }
        }
      ],
      "purl": "pkg:pypi/requests@2.28.1",
      "modified": false
    },
    {
      "type": "library",
      "publisher": "Ed Schofield",
      "name": "future",
      "version": "0.18.2",
      "description": "Clean single-source support for Python 3 and 2",
      "hashes": [
        {
          "alg": "MD5",
          "content": "e4579c836b9c025872efe230f6270349"
        },
        {
          "alg": "SHA-256",
          "content": "b1bead90b70cf6ec3f0710ae53a525360fa360d306a86583adc6bf83a4db537d"
        }
      ],
      "licenses": [
        {
          "license": {
            "name": "MIT"
          }
        }
      ],
      "purl": "pkg:pypi/future@0.18.2",
      "modified": false
    },
    {
      "type": "library",
      "name": "io",
      "version": "0.0.1",
      "purl": "pkg:pypi/io@0.0.1",
      "modified": false
    },
    {
      "type": "library",
      "publisher": "Ian Cordasco, Cory Benfield, Michael Komitee",
      "name": "requests_kerberos",
      "version": "0.14.0",
      "description": "A Kerberos authentication handler for python-requests",
      "hashes": [
        {
          "alg": "MD5",
          "content": "c82c65f15bbc6d6e6d7afda9f1ee2607"
        },
        {
          "alg": "SHA-256",
          "content": "da74ea478ccd8584de88092bdcd17a7c29d494374a340d1d8677189903c9ac6a"
        }
      ],
      "licenses": [
        {
          "license": {
            "name": "ISC License"
          }
        }
      ],
      "purl": "pkg:pypi/requests-kerberos@0.14.0",
      "modified": false
    },
    {
      "type": "library",
      "publisher": "Spark Developers",
      "name": "pyspark",
      "version": "3.3.0",
      "description": "Apache Spark Python API",
      "hashes": [
        {
          "alg": "MD5",
          "content": "50b52b75dc2e95a9ebd75a9a5400c083"
        },
        {
          "alg": "SHA-256",
          "content": "7ebe8e9505647b4d124d5a82fca60dfd3891021cf8ad6c5ec88777eeece92cf7"
        }
      ],
      "licenses": [
        {
          "license": {
            "name": "http://www.apache.org/licenses/LICENSE-2.0"
          }
        }
      ],
      "purl": "pkg:pypi/pyspark@3.3.0",
      "modified": false
    },
    {
      "type": "library",
      "publisher": "Box",
      "name": "flaky",
      "version": "3.7.0",
      "description": "Plugin for nose or pytest that automatically reruns flaky tests.",
      "hashes": [
        {
          "alg": "MD5",
          "content": "53b33d5bd30513acf7731bb2ac47e686"
        },
        {
          "alg": "SHA-256",
          "content": "d6eda73cab5ae7364504b7c44670f70abed9e75f77dd116352f662817592ec9c"
        }
      ],
      "licenses": [
        {
          "license": {
            "name": "Apache Software License, Version 2.0, http://www.apache.org/licenses/LICENSE-2.0"
          }
        }
      ],
      "purl": "pkg:pypi/flaky@3.7.0",
      "modified": false
    },
    {
      "type": "library",
      "publisher": "Yijun Yu",
      "name": "ast",
      "version": "0.0.2",
      "description": "Conversion between protobuf3 and srcML.",
      "hashes": [
        {
          "alg": "MD5",
          "content": "866a45bda3dc0b19f8da494f6a548a8d"
        },
        {
          "alg": "SHA-256",
          "content": "04cf2827c4048d18635ca8f85357a4285d140424ac26028be0dc585f824e07cd"
        }
      ],
      "licenses": [
        {
          "license": {
            "name": "MIT"
          }
        }
      ],
      "purl": "pkg:pypi/ast@0.0.2",
      "modified": false
    },
    {
      "type": "library",
      "publisher": "Zope Foundation and Contributors",
      "name": "datetime",
      "version": "4.5",
      "description": "This package provides a DateTime data type, as known from Zope. Unless you need to communicate with Zope APIs, you're probably better off using Python's built-in datetime module.",
      "hashes": [
        {
          "alg": "MD5",
          "content": "e9071e4c59fcb746806d700800061c23"
        },
        {
          "alg": "SHA-256",
          "content": "ec9894c438cdd54dc31578b1b43c79b11f8111dbeb066e372548a0a78a3bec46"
        }
      ],
      "licenses": [
        {
          "license": {
            "name": "ZPL 2.1"
          }
        }
      ],
      "purl": "pkg:pypi/datetime@4.5",
      "modified": false
    },
    {
      "type": "library",
      "publisher": "Vinay Sajip",
      "name": "logging",
      "version": "0.4.9.6",
      "description": "A logging module for Python",
      "hashes": [
        {
          "alg": "MD5",
          "content": "dc0a7ebc8b8970263911e11e7b7e1ca8"
        },
        {
          "alg": "SHA-256",
          "content": "26f6b50773f085042d301085bd1bf5d9f3735704db9f37c1ce6d8b85c38f2417"
        }
      ],
      "licenses": [
        {
          "license": {
            "name": "Copyright (C) 2001-2005 by Vinay Sajip. All Rights Reserved. See LICENSE for license."
          }
        }
      ],
      "purl": "pkg:pypi/logging@0.4.9.6",
      "modified": false
    }
  ]
}
