{
  "bomFormat": "CycloneDX",
  "specVersion": "1.3",
  "serialNumber": "urn:uuid:6a941eac-9715-4ac7-be1a-68ccc4a585db",
  "version": 1,
  "metadata": {
    "timestamp": "2022-06-06T21:00:26Z",
    "tools": [
      {
        "vendor": "AppThreat",
        "name": "cdxgen",
        "version": "3.0.10"
      },
      {
        "vendor": "Fortress Information Security",
        "name": "Github Extractor",
        "version": "1.15.1"
      }
    ],
    "authors": [
      {
        "name": "Team AppThreat",
        "email": "cloud@appthreat.com"
      },
      {
        "name": "Fortress Information Security",
        "email": "sales@fortressinfosec.com",
        "phone": "1-407-573-6800"
      }
    ],
    "component": {
      "type": "application",
      "name": "astro",
      "version": "",
      "group": "astrolang",
      "externalReferences": [
        {
          "url": "https://github.com/astrolang/astro.git",
          "type": "distribution"
        },
        {
          "type": "website",
          "url": "https://astrolang.org",
          "comment": "As set via `homepage` in Github API"
        }
      ]
    }
  },
  "components": [
    {
      "type": "library",
      "bom-ref": "pkg:crates/aho-corasick@0.6.10",
      "group": "",
      "name": "aho-corasick",
      "version": "0.6.10",
      "description": "",
      "purl": "pkg:crates/aho-corasick@0.6.10"
    },
    {
      "type": "library",
      "bom-ref": "pkg:crates/astro@0.1.0",
      "group": "",
      "name": "astro",
      "version": "0.1.0",
      "description": "",
      "purl": "pkg:crates/astro@0.1.0"
    },
    {
      "type": "library",
      "bom-ref": "pkg:crates/astro-codegen@0.1.0",
      "group": "",
      "name": "astro-codegen",
      "version": "0.1.0",
      "description": "",
      "purl": "pkg:crates/astro-codegen@0.1.0"
    },
    {
      "type": "library",
      "bom-ref": "pkg:crates/astro-lexer@0.1.0",
      "group": "",
      "name": "astro-lexer",
      "version": "0.1.0",
      "description": "",
      "purl": "pkg:crates/astro-lexer@0.1.0"
    },
    {
      "type": "library",
      "bom-ref": "pkg:crates/astro-parser@0.1.0",
      "group": "",
      "name": "astro-parser",
      "version": "0.1.0",
      "description": "",
      "purl": "pkg:crates/astro-parser@0.1.0"
    },
    {
      "type": "library",
      "bom-ref": "pkg:crates/cc@1.0.29",
      "group": "",
      "name": "cc",
      "version": "1.0.29",
      "description": "",
      "purl": "pkg:crates/cc@1.0.29"
    },
    {
      "type": "library",
      "bom-ref": "pkg:crates/lazy_static@1.2.0",
      "group": "",
      "name": "lazy_static",
      "version": "1.2.0",
      "description": "",
      "purl": "pkg:crates/lazy_static@1.2.0"
    },
    {
      "type": "library",
      "bom-ref": "pkg:crates/libc@0.2.48",
      "group": "",
      "name": "libc",
      "version": "0.2.48",
      "description": "",
      "purl": "pkg:crates/libc@0.2.48"
    },
    {
      "type": "library",
      "bom-ref": "pkg:crates/llvm-sys@60.3.0",
      "group": "",
      "name": "llvm-sys",
      "version": "60.3.0",
      "description": "",
      "purl": "pkg:crates/llvm-sys@60.3.0"
    },
    {
      "type": "library",
      "bom-ref": "pkg:crates/memchr@2.2.0",
      "group": "",
      "name": "memchr",
      "version": "2.2.0",
      "description": "",
      "purl": "pkg:crates/memchr@2.2.0"
    },
    {
      "type": "library",
      "bom-ref": "pkg:crates/regex@0.2.11",
      "group": "",
      "name": "regex",
      "version": "0.2.11",
      "description": "",
      "purl": "pkg:crates/regex@0.2.11"
    },
    {
      "type": "library",
      "bom-ref": "pkg:crates/regex-syntax@0.5.6",
      "group": "",
      "name": "regex-syntax",
      "version": "0.5.6",
      "description": "",
      "purl": "pkg:crates/regex-syntax@0.5.6"
    },
    {
      "type": "library",
      "bom-ref": "pkg:crates/semver@0.9.0",
      "group": "",
      "name": "semver",
      "version": "0.9.0",
      "description": "",
      "purl": "pkg:crates/semver@0.9.0"
    },
    {
      "type": "library",
      "bom-ref": "pkg:crates/semver-parser@0.7.0",
      "group": "",
      "name": "semver-parser",
      "version": "0.7.0",
      "description": "",
      "purl": "pkg:crates/semver-parser@0.7.0"
    },
    {
      "type": "library",
      "bom-ref": "pkg:crates/thread_local@0.3.6",
      "group": "",
      "name": "thread_local",
      "version": "0.3.6",
      "description": "",
      "purl": "pkg:crates/thread_local@0.3.6"
    },
    {
      "type": "library",
      "bom-ref": "pkg:crates/ucd-util@0.1.3",
      "group": "",
      "name": "ucd-util",
      "version": "0.1.3",
      "description": "",
      "purl": "pkg:crates/ucd-util@0.1.3"
    },
    {
      "type": "library",
      "bom-ref": "pkg:crates/utf8-ranges@1.0.2",
      "group": "",
      "name": "utf8-ranges",
      "version": "1.0.2",
      "description": "",
      "purl": "pkg:crates/utf8-ranges@1.0.2"
    },
    {
      "type": "library",
      "bom-ref": "pkg:crates/wasmlite-llvm@0.0.1",
      "group": "",
      "name": "wasmlite-llvm",
      "version": "0.0.1",
      "description": "",
      "purl": "pkg:crates/wasmlite-llvm@0.0.1"
    },
    {
      "type": "library",
      "bom-ref": "pkg:crates/wasmlite-parser@0.0.1",
      "group": "",
      "name": "wasmlite-parser",
      "version": "0.0.1",
      "description": "",
      "purl": "pkg:crates/wasmlite-parser@0.0.1"
    }
  ],
  "externalReferences": [
    {
      "url": "/project/src",
      "type": "other",
      "comment": "Base path"
    },
    {
      "url": "/project/src/Cargo.lock, /project/src/lib/parser/Cargo.lock",
      "type": "other",
      "comment": "Package file"
    }
  ]
}
