{
  "bomFormat": "CycloneDX",
  "specVersion": "1.3",
  "serialNumber": "urn:uuid:96ba575a-e1a3-4052-af3f-2ca89c973edb",
  "version": 1,
  "metadata": {
    "timestamp": "2022-06-06T20:19:24Z",
    "tools": [
      {
        "vendor": "AppThreat",
        "name": "cdxgen",
        "version": "3.0.10"
      },
      {
        "vendor": "Fortress Information Security",
        "name": "Github Extractor",
        "version": "1.15.1"
      }
    ],
    "authors": [
      {
        "name": "Team AppThreat",
        "email": "cloud@appthreat.com"
      },
      {
        "name": "Fortress Information Security",
        "email": "sales@fortressinfosec.com",
        "phone": "1-407-573-6800"
      }
    ],
    "component": {
      "type": "application",
      "name": "indexmap",
      "version": "",
      "group": "bluss",
      "externalReferences": [
        {
          "url": "https://github.com/bluss/indexmap.git",
          "type": "distribution"
        },
        {
          "type": "website",
          "url": "https://docs.rs/indexmap/",
          "comment": "As set via `homepage` in Github API"
        }
      ]
    }
  },
  "components": [
    {
      "type": "library",
      "bom-ref": "pkg:crates/indexmap@2.0.0-pre",
      "group": "",
      "name": "indexmap",
      "version": "2.0.0-pre",
      "description": "",
      "purl": "pkg:crates/indexmap@2.0.0-pre"
    },
    {
      "type": "library",
      "bom-ref": "pkg:crates/serde@1.0",
      "group": "",
      "name": "serde",
      "version": "1.0",
      "description": "",
      "purl": "pkg:crates/serde@1.0"
    },
    {
      "type": "library",
      "bom-ref": "pkg:crates/rayon@1.4.1",
      "group": "",
      "name": "rayon",
      "version": "1.4.1",
      "description": "",
      "purl": "pkg:crates/rayon@1.4.1"
    },
    {
      "type": "library",
      "bom-ref": "pkg:crates/rustc-rayon@0.4",
      "group": "",
      "name": "rustc-rayon",
      "version": "0.4",
      "description": "",
      "purl": "pkg:crates/rustc-rayon@0.4"
    },
    {
      "type": "library",
      "bom-ref": "pkg:crates/default-features@false",
      "group": "",
      "name": "default-features",
      "version": "false",
      "description": "",
      "purl": "pkg:crates/default-features@false"
    },
    {
      "type": "library",
      "bom-ref": "pkg:crates/features@[raw]",
      "group": "",
      "name": "features",
      "version": "[raw]",
      "description": "",
      "purl": "pkg:crates/features@[raw]"
    },
    {
      "type": "library",
      "bom-ref": "pkg:crates/itertools@0.10",
      "group": "",
      "name": "itertools",
      "version": "0.10",
      "description": "",
      "purl": "pkg:crates/itertools@0.10"
    },
    {
      "type": "library",
      "bom-ref": "pkg:crates/quickcheck@1.0",
      "group": "",
      "name": "quickcheck",
      "version": "1.0",
      "description": "",
      "purl": "pkg:crates/quickcheck@1.0"
    },
    {
      "type": "library",
      "bom-ref": "pkg:crates/fnv@1.0",
      "group": "",
      "name": "fnv",
      "version": "1.0",
      "description": "",
      "purl": "pkg:crates/fnv@1.0"
    },
    {
      "type": "library",
      "bom-ref": "pkg:crates/lazy_static@1.3",
      "group": "",
      "name": "lazy_static",
      "version": "1.3",
      "description": "",
      "purl": "pkg:crates/lazy_static@1.3"
    },
    {
      "type": "library",
      "bom-ref": "pkg:crates/fxhash@0.2.1",
      "group": "",
      "name": "fxhash",
      "version": "0.2.1",
      "description": "",
      "purl": "pkg:crates/fxhash@0.2.1"
    },
    {
      "type": "library",
      "bom-ref": "pkg:crates/serde_derive@1.0",
      "group": "",
      "name": "serde_derive",
      "version": "1.0",
      "description": "",
      "purl": "pkg:crates/serde_derive@1.0"
    },
    {
      "type": "library",
      "bom-ref": "pkg:crates/default@[std]",
      "group": "",
      "name": "default",
      "version": "[std]",
      "description": "",
      "purl": "pkg:crates/default@[std]"
    },
    {
      "type": "library",
      "bom-ref": "pkg:crates/std@[]",
      "group": "",
      "name": "std",
      "version": "[]",
      "description": "",
      "purl": "pkg:crates/std@[]"
    },
    {
      "type": "library",
      "bom-ref": "pkg:crates/test_debug@[]",
      "group": "",
      "name": "test_debug",
      "version": "[]",
      "description": "",
      "purl": "pkg:crates/test_debug@[]"
    },
    {
      "type": "library",
      "bom-ref": "pkg:crates/debug@true",
      "group": "",
      "name": "debug",
      "version": "true",
      "description": "",
      "purl": "pkg:crates/debug@true"
    },
    {
      "type": "library",
      "bom-ref": "pkg:crates/tag-name@{{version}}",
      "group": "",
      "name": "tag-name",
      "version": "{{version}}",
      "description": "",
      "purl": "pkg:crates/tag-name@{{version}}"
    },
    {
      "type": "library",
      "bom-ref": "pkg:crates/features@[serde, rayon]",
      "group": "",
      "name": "features",
      "version": "[serde, rayon]",
      "description": "",
      "purl": "pkg:crates/features@[serde, rayon]"
    },
    {
      "type": "library",
      "bom-ref": "pkg:crates/members@[test-nostd, test-serde]",
      "group": "",
      "name": "members",
      "version": "[test-nostd, test-serde]",
      "description": "",
      "purl": "pkg:crates/members@[test-nostd, test-serde]"
    },
    {
      "type": "library",
      "bom-ref": "pkg:crates/test-nostd@0.1.0",
      "group": "",
      "name": "test-nostd",
      "version": "0.1.0",
      "description": "",
      "purl": "pkg:crates/test-nostd@0.1.0"
    },
    {
      "type": "library",
      "bom-ref": "pkg:crates/test-serde@0.1.0",
      "group": "",
      "name": "test-serde",
      "version": "0.1.0",
      "description": "",
      "purl": "pkg:crates/test-serde@0.1.0"
    },
    {
      "type": "library",
      "bom-ref": "pkg:crates/serde@1.0.99",
      "group": "",
      "name": "serde",
      "version": "1.0.99",
      "description": "",
      "purl": "pkg:crates/serde@1.0.99"
    },
    {
      "type": "library",
      "bom-ref": "pkg:crates/serde_test@1.0.99",
      "group": "",
      "name": "serde_test",
      "version": "1.0.99",
      "description": "",
      "purl": "pkg:crates/serde_test@1.0.99"
    }
  ],
  "externalReferences": [
    {
      "url": "/project/src",
      "type": "other",
      "comment": "Base path"
    },
    {
      "url": "/project/src/Cargo.toml, /project/src/test-nostd/Cargo.toml, /project/src/test-serde/Cargo.toml",
      "type": "other",
      "comment": "Package file"
    }
  ]
}
