{
  "bomFormat": "CycloneDX",
  "specVersion": "1.3",
  "version": 1,
  "components": [
    {
      "type": "library",
      "publisher": "Mike Bayer",
      "name": "sqlalchemy",
      "version": "1.4.36",
      "description": "Database Abstraction Library",
      "hashes": [
        {
          "alg": "MD5",
          "content": "c526a8c1bb436c30fb9e698205b438c0"
        },
        {
          "alg": "SHA-256",
          "content": "cb441ca461bf97d00877b607f132772644b623518b39ced54da433215adce691"
        }
      ],
      "licenses": [
        {
          "license": {
            "name": "MIT"
          }
        }
      ],
      "purl": "pkg:pypi/sqlalchemy@1.4.36",
      "modified": false
    }
  ],
  "metadata": {
    "tools": [
      {
        "vendor": "Fortress Information Security",
        "name": "Github Extractor",
        "version": "1.15.1"
      }
    ],
    "authors": [
      {
        "name": "Fortress Information Security",
        "email": "sales@fortressinfosec.com",
        "phone": "1-407-573-6800"
      }
    ],
    "timestamp": "2022-06-01T21:00:00Z",
    "component": {
      "type": "application",
      "name": "professional-programming",
      "version": "",
      "group": "charlax",
      "externalReferences": [
        {
          "url": "https://github.com/charlax/professional-programming.git",
          "type": "distribution"
        },
        {
          "type": "website",
          "url": "null",
          "comment": "As set via `homepage` in Github API"
        }
      ]
    }
  }
}
