{
  "bomFormat": "CycloneDX",
  "specVersion": "1.3",
  "serialNumber": "urn:uuid:2fe2650a-7cf5-4f25-87cd-cba52be820c2",
  "version": 1,
  "metadata": {
    "timestamp": "2022-06-06T23:42:27Z",
    "tools": [
      {
        "vendor": "AppThreat",
        "name": "cdxgen",
        "version": "3.0.10"
      },
      {
        "vendor": "Fortress Information Security",
        "name": "Github Extractor",
        "version": "1.15.1"
      }
    ],
    "authors": [
      {
        "name": "Team AppThreat",
        "email": "cloud@appthreat.com"
      },
      {
        "name": "Fortress Information Security",
        "email": "sales@fortressinfosec.com",
        "phone": "1-407-573-6800"
      }
    ],
    "component": {
      "type": "application",
      "name": "ClojureRS",
      "version": "",
      "group": "clojure-rs",
      "externalReferences": [
        {
          "url": "https://github.com/clojure-rs/ClojureRS.git",
          "type": "distribution"
        },
        {
          "type": "website",
          "url": "null",
          "comment": "As set via `homepage` in Github API"
        }
      ]
    }
  },
  "components": [
    {
      "type": "library",
      "bom-ref": "pkg:crates/rust_clojure@0.1.0",
      "group": "",
      "name": "rust_clojure",
      "version": "0.1.0",
      "description": "",
      "purl": "pkg:crates/rust_clojure@0.1.0"
    },
    {
      "type": "library",
      "bom-ref": "pkg:crates/dyn-clone@1.0",
      "group": "",
      "name": "dyn-clone",
      "version": "1.0",
      "description": "",
      "purl": "pkg:crates/dyn-clone@1.0"
    },
    {
      "type": "library",
      "bom-ref": "pkg:crates/nom@5.1",
      "group": "",
      "name": "nom",
      "version": "5.1",
      "description": "",
      "purl": "pkg:crates/nom@5.1"
    },
    {
      "type": "library",
      "bom-ref": "pkg:crates/rand@0.7",
      "group": "",
      "name": "rand",
      "version": "0.7",
      "description": "",
      "purl": "pkg:crates/rand@0.7"
    },
    {
      "type": "library",
      "bom-ref": "pkg:crates/url@2.1.1",
      "group": "",
      "name": "url",
      "version": "2.1.1",
      "description": "",
      "purl": "pkg:crates/url@2.1.1"
    },
    {
      "type": "library",
      "bom-ref": "pkg:crates/regex@1.3.7",
      "group": "",
      "name": "regex",
      "version": "1.3.7",
      "description": "",
      "purl": "pkg:crates/regex@1.3.7"
    },
    {
      "type": "library",
      "bom-ref": "pkg:crates/if_chain@1.0",
      "group": "",
      "name": "if_chain",
      "version": "1.0",
      "description": "",
      "purl": "pkg:crates/if_chain@1.0"
    },
    {
      "type": "library",
      "bom-ref": "pkg:crates/reqwest@0.10.4",
      "group": "",
      "name": "reqwest",
      "version": "0.10.4",
      "description": "",
      "purl": "pkg:crates/reqwest@0.10.4"
    }
  ],
  "externalReferences": [
    {
      "url": "/project/src",
      "type": "other",
      "comment": "Base path"
    },
    {
      "url": "/project/src/Cargo.toml",
      "type": "other",
      "comment": "Package file"
    }
  ]
}
