{
  "bomFormat": "CycloneDX",
  "specVersion": "1.3",
  "version": 1,
  "metadata": {
    "tools": [
      {
        "vendor": "CycloneDX",
        "name": "Node.js module",
        "version": "3.0.3"
      },
      {
        "vendor": "Fortress Information Security",
        "name": "Github Extractor",
        "version": "1.15.1"
      }
    ],
    "authors": [
      {
        "name": "Fortress Information Security",
        "email": "sales@fortressinfosec.com",
        "phone": "1-407-573-6800"
      }
    ],
    "timestamp": "2022-06-01T21:00:00Z",
    "component": {
      "type": "application",
      "name": "cocos2d-js",
      "version": "",
      "group": "cocos2d",
      "externalReferences": [
        {
          "url": "https://github.com/cocos2d/cocos2d-js.git",
          "type": "distribution"
        },
        {
          "type": "website",
          "url": "http://www.cocos2d-x.org",
          "comment": "As set via `homepage` in Github API"
        }
      ]
    }
  },
  "components": [
    {
      "type": "library",
      "publisher": "Thomas Heller",
      "name": "ctypes",
      "version": "1.0.2",
      "description": "create and manipulate C data types in Python, call functions in shared libraries",
      "licenses": [
        {
          "license": {
            "name": "MIT License"
          }
        }
      ],
      "purl": "pkg:pypi/ctypes@1.0.2",
      "modified": false
    }
  ]
}
