{
  "bomFormat": "CycloneDX",
  "specVersion": "1.3",
  "version": 1,
  "metadata": {
    "tools": [
      {
        "vendor": "CycloneDX",
        "name": "Node.js module",
        "version": "3.0.3"
      },
      {
        "vendor": "CycloneDX",
        "name": "Node.js module",
        "version": "3.0.3"
      },
      {
        "vendor": "AppThreat",
        "name": "cdxgen",
        "version": "3.0.10"
      },
      {
        "vendor": "Fortress Information Security",
        "name": "Github Extractor",
        "version": "1.15.1"
      }
    ],
    "authors": [
      {
        "name": "Fortress Information Security",
        "email": "sales@fortressinfosec.com",
        "phone": "1-407-573-6800"
      }
    ],
    "timestamp": "2022-06-01T21:00:00Z",
    "component": {
      "type": "application",
      "name": "crosswalk",
      "version": "",
      "group": "crosswalk-project",
      "externalReferences": [
        {
          "url": "https://github.com/crosswalk-project/crosswalk.git",
          "type": "distribution"
        },
        {
          "type": "website",
          "url": "https://crosswalk-project.org/blog/crosswalk-final-release.html",
          "comment": "As set via `homepage` in Github API"
        }
      ]
    }
  },
  "components": [
    {
      "type": "library",
      "name": "cpplint",
      "version": "1.6.0",
      "description": "Automated checker to ensure C++ files follow Google's style guide",
      "hashes": [
        {
          "alg": "MD5",
          "content": "7e7928c79313d88a47132ac44036d883"
        },
        {
          "alg": "SHA-256",
          "content": "d12db1251bb7450e36285ca9d6736ec1b961286c8a4444208eeadb9dc84c4bf9"
        }
      ],
      "licenses": [
        {
          "license": {
            "name": "BSD-3-Clause"
          }
        }
      ],
      "purl": "pkg:pypi/cpplint@1.6.0",
      "modified": false
    },
    {
      "type": "library",
      "publisher": "Thomas Waldmann",
      "name": "argparse",
      "version": "1.4.0",
      "description": "Python command-line parsing library",
      "hashes": [
        {
          "alg": "MD5",
          "content": "c37216a954c8669054e2b2c54853dd49"
        },
        {
          "alg": "SHA-256",
          "content": "c31647edb69fd3d465a847ea3157d37bed1f95f19760b11a47aa91c04b666314"
        }
      ],
      "licenses": [
        {
          "license": {
            "name": "Python Software Foundation License"
          }
        }
      ],
      "purl": "pkg:pypi/argparse@1.4.0",
      "modified": false
    },
    {
      "type": "library",
      "publisher": "Vinay Sajip",
      "name": "logging",
      "version": "0.4.9.6",
      "description": "A logging module for Python",
      "hashes": [
        {
          "alg": "MD5",
          "content": "dc0a7ebc8b8970263911e11e7b7e1ca8"
        },
        {
          "alg": "SHA-256",
          "content": "26f6b50773f085042d301085bd1bf5d9f3735704db9f37c1ce6d8b85c38f2417"
        }
      ],
      "licenses": [
        {
          "license": {
            "name": "Copyright (C) 2001-2005 by Vinay Sajip. All Rights Reserved. See LICENSE for license."
          }
        }
      ],
      "purl": "pkg:pypi/logging@0.4.9.6",
      "modified": false
    },
    {
      "type": "library",
      "publisher": "Christopher Simpkins",
      "name": "Crypto",
      "version": "1.4.1",
      "description": "Simple symmetric GPG file encryption and decryption",
      "hashes": [
        {
          "alg": "MD5",
          "content": "39e5154b6b1fc3811ed359628f0f2def"
        },
        {
          "alg": "SHA-256",
          "content": "985120aa86f71545388199f96a2a0e00f7ccfe5ecd14c56355eb399e1a63d164"
        }
      ],
      "licenses": [
        {
          "license": {
            "name": "MIT license"
          }
        }
      ],
      "purl": "pkg:pypi/crypto@1.4.1",
      "modified": false
    },
    {
      "type": "library",
      "publisher": "Danijar Hafner",
      "name": "util",
      "version": "0.0.1",
      "description": "Functions that should be in the Python standard library.",
      "licenses": [
        {
          "license": {
            "name": "MIT"
          }
        }
      ],
      "purl": "pkg:pypi/util@0.0.1",
      "modified": false
    },
    {
      "type": "library",
      "publisher": "Huang Jiangbin",
      "name": "pylib",
      "version": "1.0.11",
      "description": "Python private library",
      "hashes": [
        {
          "alg": "MD5",
          "content": "1021f760c284cf4d5e078667e622db56"
        },
        {
          "alg": "SHA-256",
          "content": "c37c9c7387d64a5c4295df87112a9156d86f761a5ec939f700068941a97f91b8"
        }
      ],
      "licenses": [
        {
          "license": {
            "name": "MIT"
          }
        }
      ],
      "purl": "pkg:pypi/pylib@1.0.11",
      "modified": false
    },
    {
      "type": "library",
      "bom-ref": "pkg:nuget/System",
      "group": "",
      "name": "System",
      "version": "0.0.0",
      "description": "",
      "purl": "pkg:nuget/System"
    },
    {
      "type": "library",
      "bom-ref": "pkg:nuget/System.Core",
      "group": "",
      "name": "System.Core",
      "version": "0.0.0",
      "description": "",
      "purl": "pkg:nuget/System.Core"
    },
    {
      "type": "library",
      "bom-ref": "pkg:nuget/System.Data.DataSetExtensions",
      "group": "",
      "name": "System.Data.DataSetExtensions",
      "version": "0.0.0",
      "description": "",
      "purl": "pkg:nuget/System.Data.DataSetExtensions"
    },
    {
      "type": "library",
      "bom-ref": "pkg:nuget/Microsoft.CSharp",
      "group": "",
      "name": "Microsoft.CSharp",
      "version": "0.0.0",
      "description": "",
      "purl": "pkg:nuget/Microsoft.CSharp"
    },
    {
      "type": "library",
      "bom-ref": "pkg:nuget/System.Data",
      "group": "",
      "name": "System.Data",
      "version": "0.0.0",
      "description": "",
      "purl": "pkg:nuget/System.Data"
    },
    {
      "type": "library",
      "bom-ref": "pkg:nuget/System.Xml",
      "group": "",
      "name": "System.Xml",
      "version": "0.0.0",
      "description": "",
      "purl": "pkg:nuget/System.Xml"
    },
    {
      "type": "library",
      "bom-ref": "pkg:nuget/System.Web",
      "group": "",
      "name": "System.Web",
      "version": "0.0.0",
      "description": "",
      "purl": "pkg:nuget/System.Web"
    },
    {
      "type": "library",
      "bom-ref": "pkg:nuget/System.Web.Extensions",
      "group": "",
      "name": "System.Web.Extensions",
      "version": "0.0.0",
      "description": "",
      "purl": "pkg:nuget/System.Web.Extensions"
    },
    {
      "type": "library",
      "bom-ref": "pkg:nuget/System.Threading.Tasks",
      "group": "",
      "name": "System.Threading.Tasks",
      "version": "0.0.0",
      "description": "",
      "purl": "pkg:nuget/System.Threading.Tasks"
    },
    {
      "type": "library",
      "bom-ref": "pkg:nuget/System.Runtime",
      "group": "",
      "name": "System.Runtime",
      "version": "0.0.0",
      "description": "",
      "purl": "pkg:nuget/System.Runtime"
    },
    {
      "type": "library",
      "bom-ref": "pkg:nuget/System.Runtime.WindowsRuntime",
      "group": "",
      "name": "System.Runtime.WindowsRuntime",
      "version": "0.0.0",
      "description": "",
      "purl": "pkg:nuget/System.Runtime.WindowsRuntime"
    },
    {
      "type": "library",
      "bom-ref": "pkg:nuget/Windows.Foundation",
      "group": "",
      "name": "Windows.Foundation",
      "version": "0.0.0",
      "description": "",
      "purl": "pkg:nuget/Windows.Foundation"
    },
    {
      "type": "library",
      "bom-ref": "pkg:nuget/Windows.winmd",
      "group": "",
      "name": "Windows.winmd",
      "version": "0.0.0",
      "description": "",
      "purl": "pkg:nuget/Windows.winmd"
    }
  ]
}
