{
  "bomFormat": "CycloneDX",
  "specVersion": "1.3",
  "version": 1,
  "components": [
    {
      "type": "library",
      "publisher": "Christian Heimes",
      "name": "multiprocessing",
      "version": "2.6.2.1",
      "description": "Backport of the multiprocessing package to Python 2.4 and 2.5",
      "hashes": [
        {
          "alg": "MD5",
          "content": "5cc484396c040102116ccc2355379c72"
        },
        {
          "alg": "SHA-256",
          "content": "ef3b81ad85d7de252e5491b1daac028e17f9741cbe3625032e6eaa4ad4c79900"
        }
      ],
      "licenses": [
        {
          "license": {
            "name": "BSD Licence"
          }
        }
      ],
      "purl": "pkg:pypi/multiprocessing@2.6.2.1",
      "modified": false
    },
    {
      "type": "library",
      "publisher": "Spark Developers",
      "name": "pyspark",
      "version": "3.3.0",
      "description": "Apache Spark Python API",
      "hashes": [
        {
          "alg": "MD5",
          "content": "50b52b75dc2e95a9ebd75a9a5400c083"
        },
        {
          "alg": "SHA-256",
          "content": "7ebe8e9505647b4d124d5a82fca60dfd3891021cf8ad6c5ec88777eeece92cf7"
        }
      ],
      "licenses": [
        {
          "license": {
            "name": "http://www.apache.org/licenses/LICENSE-2.0"
          }
        }
      ],
      "purl": "pkg:pypi/pyspark@3.3.0",
      "modified": false
    },
    {
      "type": "library",
      "publisher": "Dave Cole",
      "name": "csv",
      "version": "1.0",
      "description": "Fast CSV Parser for Python",
      "licenses": [
        {
          "license": {
            "name": "BSD"
          }
        }
      ],
      "purl": "pkg:pypi/csv@1.0",
      "modified": false
    },
    {
      "type": "library",
      "publisher": "Databricks",
      "name": "mlflow",
      "version": "1.27.0",
      "description": "MLflow: A Platform for ML Development and Productionization",
      "hashes": [
        {
          "alg": "MD5",
          "content": "c5ea793e9ae934d5a29a70e3ae57aa54"
        },
        {
          "alg": "SHA-256",
          "content": "d759f3eefad2ff509a0fbc10507224204c6f6bb8d7f437bbf0bb9961cf74ff95"
        }
      ],
      "licenses": [
        {
          "license": {
            "name": "Apache License 2.0"
          }
        }
      ],
      "purl": "pkg:pypi/mlflow@1.27.0",
      "modified": false
    },
    {
      "type": "library",
      "publisher": "The Pandas Development Team",
      "name": "pandas",
      "version": "1.4.3",
      "description": "Powerful data structures for data analysis, time series, and statistics",
      "hashes": [
        {
          "alg": "MD5",
          "content": "6f4d512800533a0a893542bcc5fa62fa"
        },
        {
          "alg": "SHA-256",
          "content": "721a3dd2f06ef942f83a819c0f3f6a648b2830b191a72bbe9451bcd49c3bd42e"
        }
      ],
      "licenses": [
        {
          "license": {
            "name": "BSD-3-Clause"
          }
        }
      ],
      "purl": "pkg:pypi/pandas@1.4.3",
      "modified": false
    },
    {
      "type": "library",
      "publisher": "Armin Ronacher",
      "name": "click",
      "version": "8.1.3",
      "description": "Composable command line interface toolkit",
      "hashes": [
        {
          "alg": "MD5",
          "content": "7a8260e7bdac219be27f0bdda48e79ce"
        },
        {
          "alg": "SHA-256",
          "content": "bb4d8133cb15a609f44e8213d9b391b0809795062913b383c62be0ee95b1db48"
        }
      ],
      "licenses": [
        {
          "license": {
            "name": "BSD-3-Clause"
          }
        }
      ],
      "purl": "pkg:pypi/click@8.1.3",
      "modified": false
    }
  ],
  "metadata": {
    "authors": [
      {
        "name": "Fortress Information Security",
        "email": "sales@fortressinfosec.com",
        "phone": "1-407-573-6800"
      }
    ],
    "tools": [
      {
        "vendor": "Fortress Information Security",
        "name": "GitHub Extractor",
        "version": "1.15.1"
      }
    ],
    "timestamp": "2022-07-05T23:06:42Z",
    "component": {
      "type": "application",
      "name": "LearningSparkV2",
      "version": "",
      "group": "databricks",
      "externalReferences": [
        {
          "url": "https://github.com/databricks/LearningSparkV2.git",
          "type": "distribution"
        }
      ]
    }
  }
}
