{
  "bomFormat": "CycloneDX",
  "specVersion": "1.3",
  "version": 1,
  "components": [
    {
      "type": "library",
      "publisher": "Spark Developers",
      "name": "pyspark",
      "version": "3.3.0",
      "description": "Apache Spark Python API",
      "hashes": [
        {
          "alg": "MD5",
          "content": "50b52b75dc2e95a9ebd75a9a5400c083"
        },
        {
          "alg": "SHA-256",
          "content": "7ebe8e9505647b4d124d5a82fca60dfd3891021cf8ad6c5ec88777eeece92cf7"
        }
      ],
      "licenses": [
        {
          "license": {
            "name": "http://www.apache.org/licenses/LICENSE-2.0"
          }
        }
      ],
      "purl": "pkg:pypi/pyspark@3.3.0",
      "modified": false
    },
    {
      "type": "library",
      "publisher": "The Pandas Development Team",
      "name": "pandas",
      "version": "1.4.3",
      "description": "Powerful data structures for data analysis, time series, and statistics",
      "hashes": [
        {
          "alg": "MD5",
          "content": "6f4d512800533a0a893542bcc5fa62fa"
        },
        {
          "alg": "SHA-256",
          "content": "721a3dd2f06ef942f83a819c0f3f6a648b2830b191a72bbe9451bcd49c3bd42e"
        }
      ],
      "licenses": [
        {
          "license": {
            "name": "BSD-3-Clause"
          }
        }
      ],
      "purl": "pkg:pypi/pandas@1.4.3",
      "modified": false
    },
    {
      "type": "library",
      "publisher": "Joseph Bradley",
      "name": "sparkdl",
      "version": "0.2.2",
      "description": "Integration tools for running deep learning on Spark",
      "hashes": [
        {
          "alg": "MD5",
          "content": "99ccce29780a1918d2939e7c88c92b11"
        },
        {
          "alg": "SHA-256",
          "content": "78b8ea6749dbb416b83906577c87d6bf4a27600ff7177dd8d2689a5ff33b07dd"
        }
      ],
      "licenses": [
        {
          "license": {
            "name": "Apache 2.0"
          }
        }
      ],
      "purl": "pkg:pypi/sparkdl@0.2.2",
      "modified": false
    },
    {
      "type": "library",
      "publisher": "Keras team",
      "name": "keras",
      "version": "2.9.0",
      "description": "Deep learning for humans.",
      "hashes": [
        {
          "alg": "MD5",
          "content": "8e6d6b4cf403e191d26b9196dd2608e1"
        },
        {
          "alg": "SHA-256",
          "content": "55911256f89cfc9343c9fbe4b61ec45a2d33d89729cbe1ab9dcacf8b07b8b6ab"
        }
      ],
      "licenses": [
        {
          "license": {
            "name": "Apache 2.0"
          }
        }
      ],
      "purl": "pkg:pypi/keras@2.9.0",
      "modified": false
    },
    {
      "type": "library",
      "publisher": "Python Packaging Authority",
      "name": "setuptools",
      "version": "63.1.0",
      "description": "Easily download, build, install, upgrade, and uninstall Python packages",
      "hashes": [
        {
          "alg": "MD5",
          "content": "73a10d5f72699823dba4ba023093e86c"
        },
        {
          "alg": "SHA-256",
          "content": "db3b8e2f922b2a910a29804776c643ea609badb6a32c4bcc226fd4fd902cce65"
        }
      ],
      "purl": "pkg:pypi/setuptools@63.1.0",
      "modified": false
    }
  ],
  "metadata": {
    "authors": [
      {
        "name": "Fortress Information Security",
        "email": "sales@fortressinfosec.com",
        "phone": "1-407-573-6800"
      }
    ],
    "tools": [
      {
        "vendor": "Fortress Information Security",
        "name": "GitHub Extractor",
        "version": "1.15.1"
      }
    ],
    "timestamp": "2022-07-05T09:39:36Z",
    "component": {
      "type": "application",
      "name": "Spark-The-Definitive-Guide",
      "version": "",
      "group": "databricks",
      "externalReferences": [
        {
          "url": "https://github.com/databricks/Spark-The-Definitive-Guide.git",
          "type": "distribution"
        }
      ]
    }
  }
}
