{
  "bomFormat": "CycloneDX",
  "specVersion": "1.3",
  "version": 1,
  "metadata": {
    "tools": [
      {
        "vendor": "AppThreat",
        "name": "cdxgen",
        "version": "3.0.10"
      },
      {
        "vendor": "Fortress Information Security",
        "name": "Github Extractor",
        "version": "1.15.1"
      }
    ],
    "authors": [
      {
        "name": "Fortress Information Security",
        "email": "sales@fortressinfosec.com",
        "phone": "1-407-573-6800"
      }
    ],
    "timestamp": "2022-06-01T21:00:00Z",
    "component": {
      "type": "application",
      "name": "image-segmentation-keras",
      "version": "",
      "group": "divamgupta",
      "externalReferences": [
        {
          "url": "https://github.com/divamgupta/image-segmentation-keras.git",
          "type": "distribution"
        },
        {
          "type": "website",
          "url": "https://divamgupta.com/image-segmentation/2019/06/06/deep-learning-semantic-segmentation-keras.html",
          "comment": "As set via `homepage` in Github API"
        }
      ]
    }
  },
  "components": [
    {
      "type": "library",
      "publisher": "Python Packaging Authority",
      "name": "setuptools",
      "version": "62.1.0",
      "description": "Easily download, build, install, upgrade, and uninstall Python packages",
      "hashes": [
        {
          "alg": "MD5",
          "content": "101d2e2bf9b7682ab90d9a7bd487bdbe"
        },
        {
          "alg": "SHA-256",
          "content": "26ead7d1f93efc0f8c804d9fafafbe4a44b179580a7105754b245155f9af05a8"
        }
      ],
      "purl": "pkg:pypi/setuptools@62.1.0",
      "modified": false
    },
    {
      "type": "library",
      "publisher": "Keras team",
      "name": "keras",
      "version": "2.8.0",
      "description": "Deep learning for humans.",
      "hashes": [
        {
          "alg": "MD5",
          "content": "16eccd60ecedf5579ea010a9e2d6d6a9"
        },
        {
          "alg": "SHA-256",
          "content": "744d39dc6577dcd80ff4a4d41549e92b77d6a17e0edd58a431d30656e29bc94e"
        }
      ],
      "licenses": [
        {
          "license": {
            "name": "Apache 2.0"
          }
        }
      ],
      "purl": "pkg:pypi/keras@2.8.0",
      "modified": false
    },
    {
      "type": "library",
      "publisher": "Benjamin Peterson",
      "name": "six",
      "version": "1.16.0",
      "description": "Python 2 and 3 compatibility utilities",
      "hashes": [
        {
          "alg": "MD5",
          "content": "529d7fd7e14612ccde86417b4402d6f3"
        },
        {
          "alg": "SHA-256",
          "content": "8abb2f1d86890a2dfb989f9a77cfcfd3e47c2a354b01111771326f8aa26e0254"
        }
      ],
      "licenses": [
        {
          "license": {
            "name": "MIT"
          }
        }
      ],
      "purl": "pkg:pypi/six@1.16.0",
      "modified": false
    },
    {
      "type": "library",
      "publisher": "Travis E. Oliphant et al.",
      "name": "numpy",
      "version": "1.22.3",
      "description": "NumPy is the fundamental package for array computing with Python.",
      "hashes": [
        {
          "alg": "MD5",
          "content": "99d2dfb943327b108b2c3b923bd42000"
        },
        {
          "alg": "SHA-256",
          "content": "c34ea7e9d13a70bf2ab64a2532fe149a9aced424cd05a2c4ba662fd989e3e45f"
        }
      ],
      "licenses": [
        {
          "license": {
            "name": "BSD"
          }
        }
      ],
      "purl": "pkg:pypi/numpy@1.22.3",
      "modified": false
    },
    {
      "type": "library",
      "publisher": "Thomas Waldmann",
      "name": "argparse",
      "version": "1.4.0",
      "description": "Python command-line parsing library",
      "hashes": [
        {
          "alg": "MD5",
          "content": "c37216a954c8669054e2b2c54853dd49"
        },
        {
          "alg": "SHA-256",
          "content": "c31647edb69fd3d465a847ea3157d37bed1f95f19760b11a47aa91c04b666314"
        }
      ],
      "licenses": [
        {
          "license": {
            "name": "Python Software Foundation License"
          }
        }
      ],
      "purl": "pkg:pypi/argparse@1.4.0",
      "modified": false
    },
    {
      "type": "library",
      "publisher": "Michael Foord",
      "name": "unittest",
      "version": "0.0",
      "hashes": [
        {
          "alg": "MD5",
          "content": "2a416384f814604ed854d40f352f1191"
        },
        {
          "alg": "SHA-256",
          "content": "1b492484bea7f68abda5fcc61412e77b6a105e5842355d630f8b75f01add3555"
        }
      ],
      "purl": "pkg:pypi/unittest@0.0",
      "modified": false
    },
    {
      "type": "library",
      "bom-ref": "pkg:pypi/h5py@3.6.0",
      "group": "",
      "name": "h5py",
      "version": "3.6.0",
      "description": "Read and write HDF5 files from Python",
      "hashes": [
        {
          "alg": "SHA-256",
          "content": "a5320837c60870911645e9a935099bdb2be6a786fcf0dac5c860f3b679e2de55"
        }
      ],
      "licenses": [
        {
          "license": {
            "id": "0BSD",
            "url": "https://opensource.org/licenses/0BSD"
          }
        }
      ],
      "purl": "pkg:pypi/h5py@3.6.0",
      "externalReferences": [
        {
          "url": "http://www.h5py.org",
          "type": "website"
        }
      ]
    },
    {
      "type": "library",
      "bom-ref": "pkg:pypi/tqdm@4.64.0",
      "group": "",
      "name": "tqdm",
      "version": "4.64.0",
      "description": "Fast, Extensible Progress Meter",
      "hashes": [
        {
          "alg": "SHA-256",
          "content": "74a2cdefe14d11442cedf3ba4e21a3b84ff9a2dbdc6cfae2c34addb2a14a5ea6"
        }
      ],
      "licenses": [
        {
          "license": {
            "name": "MPLv2.0, MIT Licences"
          }
        }
      ],
      "purl": "pkg:pypi/tqdm@4.64.0",
      "externalReferences": [
        {
          "url": "https://tqdm.github.io",
          "type": "vcs"
        }
      ]
    },
    {
      "type": "library",
      "bom-ref": "pkg:pypi/keras@2.3.0",
      "group": "",
      "name": "keras",
      "version": "2.3.0",
      "description": "Deep learning for humans.",
      "hashes": [
        {
          "alg": "SHA-256",
          "content": "ff7db814756d9106c273afc4bd798f48924fa66f9328157a4b722d535baef363"
        }
      ],
      "licenses": [
        {
          "license": {
            "id": "Apache-2.0",
            "url": "https://opensource.org/licenses/Apache-2.0"
          }
        }
      ],
      "purl": "pkg:pypi/keras@2.3.0",
      "externalReferences": [
        {
          "url": "https://keras.io/",
          "type": "website"
        }
      ]
    },
    {
      "type": "library",
      "bom-ref": "pkg:pypi/tensorflow@2.2",
      "group": "",
      "name": "tensorflow",
      "version": "2.2",
      "description": "TensorFlow is an open source machine learning framework for everyone.",
      "licenses": [
        {
          "license": {
            "id": "Apache-2.0",
            "url": "https://opensource.org/licenses/Apache-2.0"
          }
        }
      ],
      "purl": "pkg:pypi/tensorflow@2.2",
      "externalReferences": [
        {
          "url": "https://www.tensorflow.org/",
          "type": "website"
        }
      ]
    },
    {
      "type": "library",
      "bom-ref": "pkg:pypi/opencv-python@4.5.5.64",
      "group": "",
      "name": "opencv-python",
      "version": "4.5.5.64",
      "description": "Wrapper package for OpenCV python bindings.",
      "hashes": [
        {
          "alg": "SHA-256",
          "content": "a512a0c59b6fec0fac3844b2f47d6ecb1a9d18d235e6c5491ce8dbbe0663eae8"
        }
      ],
      "licenses": [
        {
          "license": {
            "id": "MIT",
            "url": "https://opensource.org/licenses/MIT"
          }
        }
      ],
      "purl": "pkg:pypi/opencv-python@4.5.5.64",
      "externalReferences": [
        {
          "url": "https://github.com/skvark/opencv-python",
          "type": "vcs"
        }
      ]
    },
    {
      "type": "library",
      "bom-ref": "pkg:pypi/imageio@2.5.0",
      "group": "",
      "name": "imageio",
      "version": "2.5.0",
      "description": "Library for reading and writing a wide range of image, video, scientific, and volumetric data formats.",
      "hashes": [
        {
          "alg": "SHA-256",
          "content": "1a2bbbb7cd38161340fa3b14d806dfbf914abf3ee6fd4592af2afb87d049f209"
        }
      ],
      "licenses": [
        {
          "license": {
            "id": "BSD-2-Clause",
            "url": "https://opensource.org/licenses/BSD-2-Clause"
          }
        }
      ],
      "purl": "pkg:pypi/imageio@2.5.0",
      "externalReferences": [
        {
          "url": "https://github.com/imageio/imageio",
          "type": "vcs"
        }
      ]
    },
    {
      "type": "library",
      "bom-ref": "pkg:pypi/imgaug@0.4.0",
      "group": "",
      "name": "imgaug",
      "version": "0.4.0",
      "description": "Image augmentation library for deep neural networks",
      "hashes": [
        {
          "alg": "SHA-256",
          "content": "ce61e65b4eb7405fc62c1b0a79d2fa92fd47f763aaecb65152d29243592111f9"
        }
      ],
      "licenses": [
        {
          "license": {
            "id": "MIT",
            "url": "https://opensource.org/licenses/MIT"
          }
        }
      ],
      "purl": "pkg:pypi/imgaug@0.4.0",
      "externalReferences": [
        {
          "url": "https://github.com/aleju/imgaug",
          "type": "vcs"
        }
      ]
    }
  ]
}
