{
  "bomFormat": "CycloneDX",
  "specVersion": "1.3",
  "version": 1,
  "components": [
    {
      "type": "library",
      "name": "hashlib",
      "version": "20081119",
      "description": "Secure hash and message digest algorithm library",
      "hashes": [
        {
          "alg": "MD5",
          "content": "46e59db6d5cac34b3344ef0c30d0897f"
        },
        {
          "alg": "SHA-256",
          "content": "419de2fd10ae71ed9c6adcb55903f116abd1d8acc8c814dfd5f839b4d5013e38"
        }
      ],
      "purl": "pkg:pypi/hashlib@20081119",
      "modified": false
    },
    {
      "type": "library",
      "publisher": "Dave Cole",
      "name": "csv",
      "version": "1.0",
      "description": "Fast CSV Parser for Python",
      "licenses": [
        {
          "license": {
            "name": "BSD"
          }
        }
      ],
      "purl": "pkg:pypi/csv@1.0",
      "modified": false
    }
  ],
  "metadata": {
    "tools": [
      {
        "vendor": "Fortress Information Security",
        "name": "Github Extractor",
        "version": "1.15.1"
      }
    ],
    "authors": [
      {
        "name": "Fortress Information Security",
        "email": "sales@fortressinfosec.com",
        "phone": "1-407-573-6800"
      }
    ],
    "timestamp": "2022-06-01T21:00:00Z",
    "component": {
      "type": "application",
      "name": "macOS-Security-and-Privacy-Guide",
      "version": "",
      "group": "drduh",
      "externalReferences": [
        {
          "url": "https://github.com/drduh/macOS-Security-and-Privacy-Guide.git",
          "type": "distribution"
        },
        {
          "type": "website",
          "url": "null",
          "comment": "As set via `homepage` in Github API"
        }
      ]
    }
  }
}
