{
  "bomFormat": "CycloneDX",
  "specVersion": "1.3",
  "version": 1,
  "metadata": {
    "tools": [
      {
        "vendor": "CycloneDX",
        "name": "cyclonedx-gomod",
        "version": "v0.0.0-unset",
        "hashes": [
          {
            "alg": "MD5",
            "content": "a35776fc9417e8071d3f1dcfa2f1dd19"
          },
          {
            "alg": "SHA-1",
            "content": "a19a8eed713eff5a2092e5283c201a146f19421d"
          },
          {
            "alg": "SHA-256",
            "content": "17b3b980b9a5d0f48ad52043dee5b31aff3ae6599a36bc94224dc7b6a46759ef"
          },
          {
            "alg": "SHA-512",
            "content": "9d4f06aab20cede94a1aedf11a300ae9de98871235c68c72e421cd6d45495910861b39e743ee0eceb11bbdcd2c9acc3312c19064cfe90177243fb43127fcfa46"
          }
        ]
      },
      {
        "vendor": "AppThreat",
        "name": "cdxgen",
        "version": "3.0.10"
      },
      {
        "vendor": "Fortress Information Security",
        "name": "Github Extractor",
        "version": "1.15.1"
      }
    ],
    "authors": [
      {
        "name": "Fortress Information Security",
        "email": "sales@fortressinfosec.com",
        "phone": "1-407-573-6800"
      }
    ],
    "timestamp": "2022-06-01T21:00:00Z",
    "component": {
      "type": "application",
      "name": "godropbox",
      "version": "",
      "group": "dropbox",
      "externalReferences": [
        {
          "url": "https://github.com/dropbox/godropbox.git",
          "type": "distribution"
        },
        {
          "type": "website",
          "url": "null",
          "comment": "As set via `homepage` in Github API"
        }
      ]
    }
  },
  "components": [
    {
      "type": "library",
      "bom-ref": "pkg:golang/github.com/gogo/protobuf@v1.3.1",
      "name": "github.com/gogo/protobuf",
      "version": "v1.3.1",
      "scope": "required",
      "hashes": [
        {
          "alg": "SHA-256",
          "content": "0ea0c4715e5a79a4e674505e3cda58b29dc595c547ff621255533d41ff0f4a5b"
        }
      ],
      "purl": "pkg:golang/github.com/gogo/protobuf@v1.3.1",
      "externalReferences": [
        {
          "url": "https://github.com/gogo/protobuf",
          "type": "vcs"
        }
      ]
    },
    {
      "type": "library",
      "bom-ref": "pkg:golang/github.com/kr/pretty@v0.2.0",
      "name": "github.com/kr/pretty",
      "version": "v0.2.0",
      "scope": "required",
      "hashes": [
        {
          "alg": "SHA-256",
          "content": "b3984039b9bec853b9b8762de5d623c62dab5ebb27991a49c78398bc8594690b"
        }
      ],
      "purl": "pkg:golang/github.com/kr/pretty@v0.2.0",
      "externalReferences": [
        {
          "url": "https://github.com/kr/pretty",
          "type": "vcs"
        }
      ]
    },
    {
      "type": "library",
      "bom-ref": "pkg:golang/github.com/kr/text@v0.1.0",
      "name": "github.com/kr/text",
      "version": "v0.1.0",
      "scope": "required",
      "hashes": [
        {
          "alg": "SHA-256",
          "content": "e39b0247946d9451cc4785301fdb1d4394c2f2fd2a0d00879d7b7e91a2924d51"
        }
      ],
      "purl": "pkg:golang/github.com/kr/text@v0.1.0",
      "externalReferences": [
        {
          "url": "https://github.com/kr/text",
          "type": "vcs"
        }
      ]
    },
    {
      "type": "library",
      "bom-ref": "pkg:golang/golang.org/x/net@v0.0.0-20200202094626-16171245cfb2",
      "name": "golang.org/x/net",
      "version": "v0.0.0-20200202094626-16171245cfb2",
      "scope": "required",
      "hashes": [
        {
          "alg": "SHA-256",
          "content": "0821f820e4d37dec168c63a54a9fb319c8eeb512a5044650eb04e7f28cc8fe72"
        }
      ],
      "purl": "pkg:golang/golang.org/x/net@v0.0.0-20200202094626-16171245cfb2"
    },
    {
      "type": "library",
      "bom-ref": "pkg:golang/golang.org/x/text@v0.3.0",
      "name": "golang.org/x/text",
      "version": "v0.3.0",
      "scope": "required",
      "hashes": [
        {
          "alg": "SHA-256",
          "content": "83ad6dced139a9e190f3db66e8d4e38ccf553c89b4f3ca1dd65e9a4a8ad64568"
        }
      ],
      "purl": "pkg:golang/golang.org/x/text@v0.3.0"
    },
    {
      "type": "library",
      "bom-ref": "pkg:golang/gopkg.in/check.v1@v1.0.0-20190902080502-41f04d3bba15",
      "name": "gopkg.in/check.v1",
      "version": "v1.0.0-20190902080502-41f04d3bba15",
      "scope": "required",
      "hashes": [
        {
          "alg": "SHA-256",
          "content": "611f1c112c12e137438c47bae71b20d2881133f35cdc360e8440255bec686d9a"
        }
      ],
      "purl": "pkg:golang/gopkg.in/check.v1@v1.0.0-20190902080502-41f04d3bba15",
      "externalReferences": [
        {
          "url": "https://github.com/go-check/check",
          "type": "vcs"
        }
      ]
    },
    {
      "type": "library",
      "bom-ref": "pkg:golang/github.com/dropbox/godropbox",
      "group": "github.com/dropbox",
      "name": "godropbox",
      "version": "",
      "description": "",
      "scope": "required",
      "purl": "pkg:golang/github.com/dropbox/godropbox"
    }
  ],
  "dependencies": [
    {
      "ref": "pkg:golang/github.com/gogo/protobuf@v1.3.1"
    },
    {
      "ref": "pkg:golang/github.com/kr/pretty@v0.2.0",
      "dependsOn": [
        "pkg:golang/github.com/kr/text@v0.1.0"
      ]
    },
    {
      "ref": "pkg:golang/github.com/kr/text@v0.1.0"
    },
    {
      "ref": "pkg:golang/golang.org/x/net@v0.0.0-20200202094626-16171245cfb2",
      "dependsOn": [
        "pkg:golang/golang.org/x/text@v0.3.0"
      ]
    },
    {
      "ref": "pkg:golang/golang.org/x/text@v0.3.0"
    },
    {
      "ref": "pkg:golang/gopkg.in/check.v1@v1.0.0-20190902080502-41f04d3bba15"
    },
    {
      "ref": "pkg:golang/github.com/dropbox/godropbox@v0.0.0-20220419120449-09f4250c0df5",
      "dependsOn": [
        "pkg:golang/github.com/gogo/protobuf@v1.3.1",
        "pkg:golang/github.com/kr/pretty@v0.2.0",
        "pkg:golang/golang.org/x/net@v0.0.0-20200202094626-16171245cfb2",
        "pkg:golang/gopkg.in/check.v1@v1.0.0-20190902080502-41f04d3bba15"
      ]
    }
  ]
}
