{
  "bomFormat": "CycloneDX",
  "specVersion": "1.3",
  "version": 1,
  "components": [
    {
      "type": "library",
      "publisher": "Thomas Waldmann",
      "name": "argparse",
      "version": "1.4.0",
      "description": "Python command-line parsing library",
      "hashes": [
        {
          "alg": "MD5",
          "content": "c37216a954c8669054e2b2c54853dd49"
        },
        {
          "alg": "SHA-256",
          "content": "c31647edb69fd3d465a847ea3157d37bed1f95f19760b11a47aa91c04b666314"
        }
      ],
      "licenses": [
        {
          "license": {
            "name": "Python Software Foundation License"
          }
        }
      ],
      "purl": "pkg:pypi/argparse@1.4.0",
      "modified": false
    },
    {
      "type": "library",
      "publisher": "Franck Cuny",
      "name": "http",
      "version": "0.02",
      "description": "HTTP library for Python",
      "hashes": [
        {
          "alg": "MD5",
          "content": "9e4684a411a9cf371cbd0bc8658a803a"
        },
        {
          "alg": "SHA-256",
          "content": "071bc409f687535b6e31a94bced6a7773905abad8d2f236b406202b7283f682c"
        }
      ],
      "licenses": [
        {
          "license": {
            "name": "MIT"
          }
        }
      ],
      "purl": "pkg:pypi/http@0.02",
      "modified": false
    },
    {
      "type": "library",
      "publisher": "Federico Di Gregorio",
      "name": "psycopg2",
      "version": "2.9.3",
      "description": "psycopg2 - Python-PostgreSQL Database Adapter",
      "hashes": [
        {
          "alg": "MD5",
          "content": "b8980aa546210e354bf811fde1745d84"
        },
        {
          "alg": "SHA-256",
          "content": "06f32425949bd5fe8f625c49f17ebb9784e1e4fe928b7cce72edc36fb68e4c0c"
        }
      ],
      "licenses": [
        {
          "license": {
            "name": "LGPL with exceptions"
          }
        }
      ],
      "purl": "pkg:pypi/psycopg2@2.9.3",
      "modified": false
    },
    {
      "type": "library",
      "name": "hashlib",
      "version": "20081119",
      "description": "Secure hash and message digest algorithm library",
      "hashes": [
        {
          "alg": "MD5",
          "content": "46e59db6d5cac34b3344ef0c30d0897f"
        },
        {
          "alg": "SHA-256",
          "content": "419de2fd10ae71ed9c6adcb55903f116abd1d8acc8c814dfd5f839b4d5013e38"
        }
      ],
      "purl": "pkg:pypi/hashlib@20081119",
      "modified": false
    },
    {
      "type": "library",
      "publisher": "Benjamin Peterson",
      "name": "six",
      "version": "1.16.0",
      "description": "Python 2 and 3 compatibility utilities",
      "hashes": [
        {
          "alg": "MD5",
          "content": "529d7fd7e14612ccde86417b4402d6f3"
        },
        {
          "alg": "SHA-256",
          "content": "8abb2f1d86890a2dfb989f9a77cfcfd3e47c2a354b01111771326f8aa26e0254"
        }
      ],
      "licenses": [
        {
          "license": {
            "name": "MIT"
          }
        }
      ],
      "purl": "pkg:pypi/six@1.16.0",
      "modified": false
    }
  ],
  "metadata": {
    "authors": [
      {
        "name": "Fortress Information Security",
        "email": "sales@fortressinfosec.com",
        "phone": "1-407-573-6800"
      }
    ],
    "tools": [
      {
        "vendor": "Fortress Information Security",
        "name": "GitHub Extractor",
        "version": "1.15.1"
      }
    ],
    "timestamp": "2022-06-28T21:41:16Z",
    "component": {
      "type": "application",
      "name": "firmadyne",
      "version": "",
      "group": "firmadyne",
      "externalReferences": [
        {
          "url": "https://github.com/firmadyne/firmadyne.git",
          "type": "distribution"
        }
      ]
    }
  }
}
