{
  "bomFormat": "CycloneDX",
  "specVersion": "1.3",
  "version": 1,
  "metadata": {
    "tools": [
      {
        "vendor": "AppThreat",
        "name": "cdxgen",
        "version": "3.0.10"
      },
      {
        "vendor": "Fortress Information Security",
        "name": "Github Extractor",
        "version": "1.15.1"
      }
    ],
    "authors": [
      {
        "name": "Fortress Information Security",
        "email": "sales@fortressinfosec.com",
        "phone": "1-407-573-6800"
      }
    ],
    "timestamp": "2022-06-01T21:00:00Z",
    "component": {
      "type": "application",
      "name": "Deep-Learning-Papers-Reading-Roadmap",
      "version": "",
      "group": "floodsung",
      "externalReferences": [
        {
          "url": "https://github.com/floodsung/Deep-Learning-Papers-Reading-Roadmap.git",
          "type": "distribution"
        },
        {
          "type": "website",
          "url": "null",
          "comment": "As set via `homepage` in Github API"
        }
      ]
    }
  },
  "components": [
    {
      "type": "library",
      "publisher": "Benjamin Peterson",
      "name": "six",
      "version": "1.16.0",
      "description": "Python 2 and 3 compatibility utilities",
      "hashes": [
        {
          "alg": "MD5",
          "content": "529d7fd7e14612ccde86417b4402d6f3"
        },
        {
          "alg": "SHA-256",
          "content": "8abb2f1d86890a2dfb989f9a77cfcfd3e47c2a354b01111771326f8aa26e0254"
        }
      ],
      "licenses": [
        {
          "license": {
            "name": "MIT"
          }
        }
      ],
      "purl": "pkg:pypi/six@1.16.0",
      "modified": false
    },
    {
      "type": "library",
      "publisher": "Thomas Waldmann",
      "name": "argparse",
      "version": "1.4.0",
      "description": "Python command-line parsing library",
      "hashes": [
        {
          "alg": "MD5",
          "content": "c37216a954c8669054e2b2c54853dd49"
        },
        {
          "alg": "SHA-256",
          "content": "c31647edb69fd3d465a847ea3157d37bed1f95f19760b11a47aa91c04b666314"
        }
      ],
      "licenses": [
        {
          "license": {
            "name": "Python Software Foundation License"
          }
        }
      ],
      "purl": "pkg:pypi/argparse@1.4.0",
      "modified": false
    },
    {
      "type": "library",
      "publisher": "Hsiaoming Yang",
      "name": "mistune",
      "version": "2.0.2",
      "description": "A sane Markdown parser with useful plugins and renderers",
      "hashes": [
        {
          "alg": "MD5",
          "content": "7f8df618060118361e1ea60b534168f2"
        },
        {
          "alg": "SHA-256",
          "content": "6bab6c6abd711c4604206c7d8cad5cd48b28f072b4bb75797d74146ba393a049"
        }
      ],
      "licenses": [
        {
          "license": {
            "name": "BSD 3-Clause License"
          }
        }
      ],
      "purl": "pkg:pypi/mistune@2.0.2",
      "modified": false
    },
    {
      "type": "library",
      "publisher": "Leonard Richardson",
      "name": "bs4",
      "version": "0.0.1",
      "description": "Dummy package for Beautiful Soup",
      "hashes": [
        {
          "alg": "MD5",
          "content": "fe7e51587ac3b174608f3c4f8bd893ac"
        },
        {
          "alg": "SHA-256",
          "content": "36ecea1fd7cc5c0c6e4a1ff075df26d50da647b75376626cc186e2212886dd3a"
        }
      ],
      "purl": "pkg:pypi/bs4@0.0.1",
      "modified": false
    },
    {
      "type": "library",
      "publisher": "Kenneth Reitz",
      "name": "requests",
      "version": "2.27.1",
      "description": "Python HTTP for Humans.",
      "hashes": [
        {
          "alg": "MD5",
          "content": "435db0f122c83decd27524f690e89650"
        },
        {
          "alg": "SHA-256",
          "content": "f22fa1e554c9ddfd16e6e41ac79759e17be9e492b3587efa038054674760e72d"
        }
      ],
      "licenses": [
        {
          "license": {
            "name": "Apache 2.0"
          }
        }
      ],
      "purl": "pkg:pypi/requests@2.27.1",
      "modified": false
    },
    {
      "type": "library",
      "bom-ref": "pkg:pypi/mistune@0.7.2",
      "group": "",
      "name": "mistune",
      "version": "0.7.2",
      "description": "A sane Markdown parser with useful plugins and renderers",
      "hashes": [
        {
          "alg": "SHA-256",
          "content": "84ca34642f46a06a5abcc3981f1d89281abc6aa589f145f93f3f8a0b2388fc98"
        }
      ],
      "licenses": [
        {
          "license": {
            "id": "BSD-3-Clause",
            "url": "https://opensource.org/licenses/BSD-3-Clause"
          }
        }
      ],
      "purl": "pkg:pypi/mistune@0.7.2",
      "externalReferences": [
        {
          "url": "https://github.com/lepture/mistune",
          "type": "vcs"
        }
      ]
    },
    {
      "type": "library",
      "bom-ref": "pkg:pypi/beautifulsoup4@4.4.1",
      "group": "",
      "name": "beautifulsoup4",
      "version": "4.4.1",
      "description": "Screen-scraping library",
      "hashes": [
        {
          "alg": "SHA-256",
          "content": "82a253245aed9875f141dd98a7462572bca93d064cf3117bd33de4b61ee18e68"
        }
      ],
      "licenses": [
        {
          "license": {
            "id": "MIT",
            "url": "https://opensource.org/licenses/MIT"
          }
        }
      ],
      "purl": "pkg:pypi/beautifulsoup4@4.4.1",
      "externalReferences": [
        {
          "url": "https://www.crummy.com/software/BeautifulSoup/bs4/",
          "type": "website"
        }
      ]
    },
    {
      "type": "library",
      "bom-ref": "pkg:pypi/six@1.10.0",
      "group": "",
      "name": "six",
      "version": "1.10.0",
      "description": "Python 2 and 3 compatibility utilities",
      "hashes": [
        {
          "alg": "SHA-256",
          "content": "0ff78c403d9bccf5a425a6d31a12aa6b47f1c21ca4dc2573a7e2f32a97335eb1"
        }
      ],
      "licenses": [
        {
          "license": {
            "id": "MIT",
            "url": "https://opensource.org/licenses/MIT"
          }
        }
      ],
      "purl": "pkg:pypi/six@1.10.0",
      "externalReferences": [
        {
          "url": "https://github.com/benjaminp/six",
          "type": "vcs"
        }
      ]
    }
  ]
}
