{
  "bomFormat": "CycloneDX",
  "specVersion": "1.3",
  "serialNumber": "urn:uuid:064556bf-40e6-4c61-98df-291f0a646c8c",
  "version": 1,
  "metadata": {
    "timestamp": "2022-06-06T19:04:29Z",
    "tools": [
      {
        "vendor": "AppThreat",
        "name": "cdxgen",
        "version": "3.0.10"
      },
      {
        "vendor": "Fortress Information Security",
        "name": "Github Extractor",
        "version": "1.15.1"
      }
    ],
    "authors": [
      {
        "name": "Team AppThreat",
        "email": "cloud@appthreat.com"
      },
      {
        "name": "Fortress Information Security",
        "email": "sales@fortressinfosec.com",
        "phone": "1-407-573-6800"
      }
    ],
    "component": {
      "type": "application",
      "name": "nom",
      "version": "",
      "group": "Geal",
      "externalReferences": [
        {
          "url": "https://github.com/Geal/nom.git",
          "type": "distribution"
        },
        {
          "type": "website",
          "url": "null",
          "comment": "As set via `homepage` in Github API"
        }
      ]
    }
  },
  "components": [
    {
      "type": "library",
      "bom-ref": "pkg:crates/benchmarks@0.1.0",
      "group": "",
      "name": "benchmarks",
      "version": "0.1.0",
      "description": "",
      "purl": "pkg:crates/benchmarks@0.1.0"
    },
    {
      "type": "library",
      "bom-ref": "pkg:crates/criterion@0.3.5",
      "group": "",
      "name": "criterion",
      "version": "0.3.5",
      "description": "",
      "purl": "pkg:crates/criterion@0.3.5"
    },
    {
      "type": "library",
      "bom-ref": "pkg:crates/jemallocator@0.3.2",
      "group": "",
      "name": "jemallocator",
      "version": "0.3.2",
      "description": "",
      "purl": "pkg:crates/jemallocator@0.3.2"
    },
    {
      "type": "library",
      "bom-ref": "pkg:crates/bench@false",
      "group": "",
      "name": "bench",
      "version": "false",
      "description": "",
      "purl": "pkg:crates/bench@false"
    },
    {
      "type": "library",
      "bom-ref": "pkg:crates/name@arithmetic",
      "group": "",
      "name": "name",
      "version": "arithmetic",
      "description": "",
      "purl": "pkg:crates/name@arithmetic"
    },
    {
      "type": "library",
      "bom-ref": "pkg:crates/harness@false",
      "group": "",
      "name": "harness",
      "version": "false",
      "description": "",
      "purl": "pkg:crates/harness@false"
    },
    {
      "type": "library",
      "bom-ref": "pkg:crates/name@number",
      "group": "",
      "name": "name",
      "version": "number",
      "description": "",
      "purl": "pkg:crates/name@number"
    },
    {
      "type": "library",
      "bom-ref": "pkg:crates/name@http",
      "group": "",
      "name": "name",
      "version": "http",
      "description": "",
      "purl": "pkg:crates/name@http"
    },
    {
      "type": "library",
      "bom-ref": "pkg:crates/name@ini",
      "group": "",
      "name": "name",
      "version": "ini",
      "description": "",
      "purl": "pkg:crates/name@ini"
    },
    {
      "type": "library",
      "bom-ref": "pkg:crates/name@ini_str",
      "group": "",
      "name": "name",
      "version": "ini_str",
      "description": "",
      "purl": "pkg:crates/name@ini_str"
    },
    {
      "type": "library",
      "bom-ref": "pkg:crates/name@json",
      "group": "",
      "name": "name",
      "version": "json",
      "description": "",
      "purl": "pkg:crates/name@json"
    },
    {
      "type": "library",
      "bom-ref": "pkg:crates/string@2.3",
      "group": "",
      "name": "string",
      "version": "2.3",
      "description": "",
      "purl": "pkg:crates/string@2.3"
    },
    {
      "type": "library",
      "bom-ref": "pkg:crates/nom-fuzz@0.0.0",
      "group": "",
      "name": "nom-fuzz",
      "version": "0.0.0",
      "description": "",
      "purl": "pkg:crates/nom-fuzz@0.0.0"
    },
    {
      "type": "library",
      "bom-ref": "pkg:crates/libfuzzer-sys@0.4.0",
      "group": "",
      "name": "libfuzzer-sys",
      "version": "0.4.0",
      "description": "",
      "purl": "pkg:crates/libfuzzer-sys@0.4.0"
    },
    {
      "type": "library",
      "bom-ref": "pkg:crates/members@[.]",
      "group": "",
      "name": "members",
      "version": "[.]",
      "description": "",
      "purl": "pkg:crates/members@[.]"
    },
    {
      "type": "library",
      "bom-ref": "pkg:crates/name@fuzz_arithmetic",
      "group": "",
      "name": "name",
      "version": "fuzz_arithmetic",
      "description": "",
      "purl": "pkg:crates/name@fuzz_arithmetic"
    }
  ],
  "externalReferences": [
    {
      "url": "/project/src",
      "type": "other",
      "comment": "Base path"
    },
    {
      "url": "/project/src/benchmarks/Cargo.toml, /project/src/Cargo.toml, /project/src/fuzz/Cargo.toml",
      "type": "other",
      "comment": "Package file"
    }
  ]
}
