{
  "bomFormat": "CycloneDX",
  "specVersion": "1.3",
  "serialNumber": "urn:uuid:57937c1f-331b-4391-bf45-2eee6e9c4538",
  "version": 2,
  "metadata": {
    "timestamp": "2022-07-26T23:36:35Z",
    "tools": [
      {
        "vendor": "AppThreat",
        "name": "cdxgen",
        "version": "3.0.10"
      },
      {
        "vendor": "Fortress Information Security",
        "name": "Github Extractor",
        "version": "1.15.1"
      }
    ],
    "authors": [
      {
        "name": "Team AppThreat",
        "email": "cloud@appthreat.com"
      },
      {
        "name": "Fortress Information Security",
        "email": "sales@fortressinfosec.com",
        "phone": "1-407-573-6800"
      }
    ],
    "component": {
      "type": "application",
      "name": "mundane",
      "version": "",
      "group": "google",
      "externalReferences": [
        {
          "url": "https://github.com/google/mundane.git",
          "type": "distribution"
        },
        {
          "type": "website",
          "url": "null",
          "comment": "As set via `homepage` in Github API"
        }
      ]
    }
  },
  "components": [
    {
      "type": "library",
      "bom-ref": "pkg:crates/mundane@0.4.3",
      "group": "",
      "name": "mundane",
      "version": "0.4.3",
      "description": "",
      "purl": "pkg:crates/mundane@0.4.3"
    }
  ],
  "externalReferences": [
    {
      "url": "/project/src",
      "type": "other",
      "comment": "Base path"
    },
    {
      "url": "/project/src/Cargo.toml",
      "type": "other",
      "comment": "Package file"
    }
  ]
}
