{
  "bomFormat": "CycloneDX",
  "specVersion": "1.3",
  "version": 1,
  "metadata": {
    "tools": [
      {
        "vendor": "CycloneDX",
        "name": "Node.js module",
        "version": "3.0.3"
      },
      {
        "vendor": "CycloneDX",
        "name": "Node.js module",
        "version": "3.0.3"
      },
      {
        "vendor": "AppThreat",
        "name": "cdxgen",
        "version": "3.0.10"
      },
      {
        "vendor": "Fortress Information Security",
        "name": "Github Extractor",
        "version": "1.15.1"
      }
    ],
    "authors": [
      {
        "name": "Fortress Information Security",
        "email": "sales@fortressinfosec.com",
        "phone": "1-407-573-6800"
      }
    ],
    "timestamp": "2022-06-01T21:00:00Z",
    "component": {
      "type": "application",
      "name": "apps-script-samples",
      "version": "",
      "group": "googleworkspace",
      "externalReferences": [
        {
          "url": "https://github.com/googleworkspace/apps-script-samples.git",
          "type": "distribution"
        },
        {
          "type": "website",
          "url": "https://developers.google.com/apps-script",
          "comment": "As set via `homepage` in Github API"
        }
      ]
    }
  },
  "components": [
    {
      "type": "library",
      "bom-ref": "pkg:npm/%40eslint/eslintrc@1.2.3",
      "group": "@eslint",
      "name": "eslintrc",
      "version": "1.2.3",
      "description": "The legacy ESLintRC config file format for ESLint",
      "hashes": [
        {
          "alg": "SHA-512",
          "content": "b86a38e21230a0b18dc9db91a63744a68bdc6cc75df8dbfb6a6b662719ca988f318fac9de4b9dc992c036b93605ffe35948149b648c3e987557e01333df27950"
        }
      ],
      "licenses": [
        {
          "license": {
            "id": "MIT"
          }
        }
      ],
      "purl": "pkg:npm/%40eslint/eslintrc@1.2.3",
      "externalReferences": [
        {
          "url": "https://github.com/eslint/eslintrc#readme",
          "type": "website"
        },
        {
          "url": "https://github.com/eslint/eslintrc/issues",
          "type": "issue-tracker"
        },
        {
          "url": "git+https://github.com/eslint/eslintrc.git",
          "type": "vcs"
        }
      ]
    },
    {
      "type": "library",
      "bom-ref": "pkg:npm/ajv@6.12.6",
      "name": "ajv",
      "version": "6.12.6",
      "description": "Another JSON Schema Validator",
      "hashes": [
        {
          "alg": "SHA-512",
          "content": "8f77d52e0bd3a39dbb6a7c98c893864d825b1bebe79d062f1349b99a691cd532be9f1029a6408b3082f4699e1d6e55423681928619be933138654ca4068320e2"
        }
      ],
      "licenses": [
        {
          "license": {
            "id": "MIT"
          }
        }
      ],
      "purl": "pkg:npm/ajv@6.12.6",
      "externalReferences": [
        {
          "url": "https://github.com/ajv-validator/ajv",
          "type": "website"
        },
        {
          "url": "https://github.com/ajv-validator/ajv/issues",
          "type": "issue-tracker"
        },
        {
          "url": "git+https://github.com/ajv-validator/ajv.git",
          "type": "vcs"
        }
      ]
    },
    {
      "type": "library",
      "bom-ref": "pkg:npm/fast-deep-equal@3.1.3",
      "name": "fast-deep-equal",
      "version": "3.1.3",
      "description": "Fast deep equal",
      "hashes": [
        {
          "alg": "SHA-512",
          "content": "7f7a90f68432f63d808417bf1fd542f75c0b98a042094fe00ce9ca340606e61b303bb04b2a3d3d1dce4760dcfd70623efb19690c22200da8ad56cd3701347ce1"
        }
      ],
      "licenses": [
        {
          "license": {
            "id": "MIT"
          }
        }
      ],
      "purl": "pkg:npm/fast-deep-equal@3.1.3",
      "externalReferences": [
        {
          "url": "https://github.com/epoberezkin/fast-deep-equal#readme",
          "type": "website"
        },
        {
          "url": "https://github.com/epoberezkin/fast-deep-equal/issues",
          "type": "issue-tracker"
        },
        {
          "url": "git+https://github.com/epoberezkin/fast-deep-equal.git",
          "type": "vcs"
        }
      ]
    },
    {
      "type": "library",
      "bom-ref": "pkg:npm/fast-json-stable-stringify@2.1.0",
      "name": "fast-json-stable-stringify",
      "version": "2.1.0",
      "description": "deterministic `JSON.stringify()` - a faster version of substack's json-stable-strigify without jsonify",
      "hashes": [
        {
          "alg": "SHA-512",
          "content": "96177fc05f8b93df076684c2b6556b687b5f8795d88a32236a55dc93bb1a52db9a9d20f22ccc671e149710326a1f10fb9ac47c0f4b829aa964c23095f31bf01f"
        }
      ],
      "licenses": [
        {
          "license": {
            "id": "MIT"
          }
        }
      ],
      "purl": "pkg:npm/fast-json-stable-stringify@2.1.0",
      "externalReferences": [
        {
          "url": "https://github.com/epoberezkin/fast-json-stable-stringify",
          "type": "website"
        },
        {
          "url": "https://github.com/epoberezkin/fast-json-stable-stringify/issues",
          "type": "issue-tracker"
        },
        {
          "url": "git://github.com/epoberezkin/fast-json-stable-stringify.git",
          "type": "vcs"
        }
      ]
    },
    {
      "type": "library",
      "bom-ref": "pkg:npm/json-schema-traverse@0.4.1",
      "name": "json-schema-traverse",
      "version": "0.4.1",
      "description": "Traverse JSON Schema passing each schema object to callback",
      "hashes": [
        {
          "alg": "SHA-512",
          "content": "c5b6c21f9742614e53f0b704861ba1ec727cf075ee5b7aac237634cce64529f6441dca5688753f271ce4eb6f41aec69bfe63221d0b62f7030ffbce3944f7b756"
        }
      ],
      "licenses": [
        {
          "license": {
            "id": "MIT"
          }
        }
      ],
      "purl": "pkg:npm/json-schema-traverse@0.4.1",
      "externalReferences": [
        {
          "url": "https://github.com/epoberezkin/json-schema-traverse#readme",
          "type": "website"
        },
        {
          "url": "https://github.com/epoberezkin/json-schema-traverse/issues",
          "type": "issue-tracker"
        },
        {
          "url": "git+https://github.com/epoberezkin/json-schema-traverse.git",
          "type": "vcs"
        }
      ]
    },
    {
      "type": "library",
      "bom-ref": "pkg:npm/uri-js@4.4.1",
      "name": "uri-js",
      "version": "4.4.1",
      "description": "An RFC 3986/3987 compliant, scheme extendable URI/IRI parsing/validating/resolving library for JavaScript.",
      "hashes": [
        {
          "alg": "SHA-512",
          "content": "eeb294cb2df7435c9cf7ca50d430262edc17d74f45ed321f5a55b561da3c5a5d628b549e1e279e8741c77cf78bd9f3172bacf4b3c79c2acf5fac2b8b26f9dd06"
        }
      ],
      "licenses": [
        {
          "license": {
            "id": "BSD-2-Clause"
          }
        }
      ],
      "purl": "pkg:npm/uri-js@4.4.1",
      "externalReferences": [
        {
          "url": "https://github.com/garycourt/uri-js",
          "type": "website"
        },
        {
          "url": "https://github.com/garycourt/uri-js/issues",
          "type": "issue-tracker"
        },
        {
          "url": "git+ssh://git@github.com/garycourt/uri-js.git",
          "type": "vcs"
        }
      ]
    },
    {
      "type": "library",
      "bom-ref": "pkg:npm/punycode@2.1.1",
      "name": "punycode",
      "version": "2.1.1",
      "description": "A robust Punycode converter that fully complies to RFC 3492 and RFC 5891, and works on nearly all JavaScript platforms.",
      "hashes": [
        {
          "alg": "SHA-512",
          "content": "5d1b118dd7fe8f99a5fb2ffa18a1cf65bac5ffca766206b424fb5da93218d977b9a2124f0fdb1a0c924b3efa7df8d481a6b56f7af7576726e78f672ff0e11dd0"
        }
      ],
      "licenses": [
        {
          "license": {
            "id": "MIT"
          }
        }
      ],
      "purl": "pkg:npm/punycode@2.1.1",
      "externalReferences": [
        {
          "url": "https://mths.be/punycode",
          "type": "website"
        },
        {
          "url": "https://github.com/bestiejs/punycode.js/issues",
          "type": "issue-tracker"
        },
        {
          "url": "git+https://github.com/bestiejs/punycode.js.git",
          "type": "vcs"
        }
      ]
    },
    {
      "type": "library",
      "bom-ref": "pkg:npm/debug@4.3.3",
      "name": "debug",
      "version": "4.3.3",
      "description": "Lightweight debugging utility for Node.js and the browser",
      "hashes": [
        {
          "alg": "SHA-512",
          "content": "ff3c70e7ebe1d537effb8427edae67b1b70928f692bc20e1a239fa14497dbeea702b6542483b44884b6aafc0c5b7360539dcfadcb064c5e73b0d8b9cda3a27e9"
        }
      ],
      "licenses": [
        {
          "license": {
            "id": "MIT"
          }
        }
      ],
      "purl": "pkg:npm/debug@4.3.3",
      "externalReferences": [
        {
          "url": "https://github.com/debug-js/debug#readme",
          "type": "website"
        },
        {
          "url": "https://github.com/debug-js/debug/issues",
          "type": "issue-tracker"
        },
        {
          "url": "git://github.com/debug-js/debug.git",
          "type": "vcs"
        }
      ]
    },
    {
      "type": "library",
      "bom-ref": "pkg:npm/ms@2.1.2",
      "name": "ms",
      "version": "2.1.2",
      "description": "Tiny millisecond conversion utility",
      "hashes": [
        {
          "alg": "SHA-512",
          "content": "b0690fc7e56332d980e8c5f6ee80381411442c50996784b85ea7863970afebcb53fa36f7be4fd1c9a2963f43d32b25ad98b48cd1bf9a7544c4bdbb353c4687db"
        }
      ],
      "licenses": [
        {
          "license": {
            "id": "MIT"
          }
        }
      ],
      "purl": "pkg:npm/ms@2.1.2",
      "externalReferences": [
        {
          "url": "https://github.com/zeit/ms#readme",
          "type": "website"
        },
        {
          "url": "https://github.com/zeit/ms/issues",
          "type": "issue-tracker"
        },
        {
          "url": "git+https://github.com/zeit/ms.git",
          "type": "vcs"
        }
      ]
    },
    {
      "type": "library",
      "bom-ref": "pkg:npm/espree@9.3.2",
      "name": "espree",
      "version": "9.3.2",
      "description": "An Esprima-compatible JavaScript parser built on Acorn",
      "hashes": [
        {
          "alg": "SHA-512",
          "content": "0f6d75b42ed9c28b9322e639c7d5e74b413db16342841ec860a5ff5e9e5e423de715786a9a250307dab6ef2efaa0597c8d3837a57710c7f6e9c4c7ecdc22196c"
        }
      ],
      "licenses": [
        {
          "license": {
            "id": "BSD-2-Clause"
          }
        }
      ],
      "purl": "pkg:npm/espree@9.3.2",
      "externalReferences": [
        {
          "url": "https://github.com/eslint/espree",
          "type": "website"
        },
        {
          "url": "http://github.com/eslint/espree.git",
          "type": "issue-tracker"
        },
        {
          "url": "git+https://github.com/eslint/espree.git",
          "type": "vcs"
        }
      ]
    },
    {
      "type": "library",
      "bom-ref": "pkg:npm/acorn@8.7.1",
      "name": "acorn",
      "version": "8.7.1",
      "description": "ECMAScript parser",
      "hashes": [
        {
          "alg": "SHA-512",
          "content": "5f1e78b8b250675f652b28055ce5acb1c2946ec0595b408fca43e155076121e230adb3e6273a9e0120c89dcf272819e9fc94fa8a04ecf36a8f5f3d3af47f08fc"
        }
      ],
      "licenses": [
        {
          "license": {
            "id": "MIT"
          }
        }
      ],
      "purl": "pkg:npm/acorn@8.7.1",
      "externalReferences": [
        {
          "url": "https://github.com/acornjs/acorn",
          "type": "website"
        },
        {
          "url": "https://github.com/acornjs/acorn/issues",
          "type": "issue-tracker"
        },
        {
          "url": "git+https://github.com/acornjs/acorn.git",
          "type": "vcs"
        }
      ]
    },
    {
      "type": "library",
      "bom-ref": "pkg:npm/acorn-jsx@5.3.2",
      "name": "acorn-jsx",
      "version": "5.3.2",
      "description": "Modern, fast React.js JSX parser",
      "hashes": [
        {
          "alg": "SHA-512",
          "content": "aeaf6cf893617f4202863b435f196527b838d68664e52957b69d0b1f0c80e5c7a3c27eef2a62a9e293eb8ba60478fbf63d4eb9b00b1e81b5ed2229e60c50d781"
        }
      ],
      "licenses": [
        {
          "license": {
            "id": "MIT"
          }
        }
      ],
      "purl": "pkg:npm/acorn-jsx@5.3.2",
      "externalReferences": [
        {
          "url": "https://github.com/acornjs/acorn-jsx",
          "type": "website"
        },
        {
          "url": "https://github.com/acornjs/acorn-jsx/issues",
          "type": "issue-tracker"
        },
        {
          "url": "git+https://github.com/acornjs/acorn-jsx.git",
          "type": "vcs"
        }
      ]
    },
    {
      "type": "library",
      "bom-ref": "pkg:npm/eslint-visitor-keys@3.3.0",
      "name": "eslint-visitor-keys",
      "version": "3.3.0",
      "description": "Constants and utilities about visitor keys to traverse AST.",
      "hashes": [
        {
          "alg": "SHA-512",
          "content": "990facbaa2895727aec0660701d8cc16a8c2c9f97cf8b767c6eca9de576230114a92fcadad751959a88f0846aff2a0c72adcb8e1b0fea95d483f84fec3ec5744"
        }
      ],
      "licenses": [
        {
          "license": {
            "id": "Apache-2.0"
          }
        }
      ],
      "purl": "pkg:npm/eslint-visitor-keys@3.3.0",
      "externalReferences": [
        {
          "url": "https://github.com/eslint/eslint-visitor-keys#readme",
          "type": "website"
        },
        {
          "url": "https://github.com/eslint/eslint-visitor-keys/issues",
          "type": "issue-tracker"
        },
        {
          "url": "git+https://github.com/eslint/eslint-visitor-keys.git",
          "type": "vcs"
        }
      ]
    },
    {
      "type": "library",
      "bom-ref": "pkg:npm/globals@13.12.0",
      "name": "globals",
      "version": "13.12.0",
      "description": "Global identifiers from different JavaScript environments",
      "hashes": [
        {
          "alg": "SHA-512",
          "content": "b92f17ea548a37626e995a17adb533fae1b80581be7a26b0aa6dea15c4fb6a699f6d41de081a093251dc79cfd2de4ad293bdff004fdfd2ccd816680003791866"
        }
      ],
      "licenses": [
        {
          "license": {
            "id": "MIT"
          }
        }
      ],
      "purl": "pkg:npm/globals@13.12.0",
      "externalReferences": [
        {
          "url": "https://github.com/sindresorhus/globals#readme",
          "type": "website"
        },
        {
          "url": "https://github.com/sindresorhus/globals/issues",
          "type": "issue-tracker"
        },
        {
          "url": "git+https://github.com/sindresorhus/globals.git",
          "type": "vcs"
        }
      ]
    },
    {
      "type": "library",
      "bom-ref": "pkg:npm/type-fest@0.20.2",
      "name": "type-fest",
      "version": "0.20.2",
      "description": "A collection of essential TypeScript types",
      "hashes": [
        {
          "alg": "SHA-512",
          "content": "35ef9e138af4fe25a7a40c43f39db3dc0f8dd01b7944dfff36327045dd95147126af2c317f9bec66587847a962c65e81fb0cfff1dfa669348090dd452242372d"
        }
      ],
      "licenses": [
        {
          "license": {
            "name": "(MIT OR CC0-1.0)"
          }
        }
      ],
      "purl": "pkg:npm/type-fest@0.20.2",
      "externalReferences": [
        {
          "url": "https://github.com/sindresorhus/type-fest#readme",
          "type": "website"
        },
        {
          "url": "https://github.com/sindresorhus/type-fest/issues",
          "type": "issue-tracker"
        },
        {
          "url": "git+https://github.com/sindresorhus/type-fest.git",
          "type": "vcs"
        }
      ]
    },
    {
      "type": "library",
      "bom-ref": "pkg:npm/ignore@5.2.0",
      "name": "ignore",
      "version": "5.2.0",
      "description": "Ignore is a manager and filter for .gitignore rules, the one used by eslint, gitbook and many others.",
      "hashes": [
        {
          "alg": "SHA-512",
          "content": "0a6c606068843c22e17cb9e93e9d4ca119a27f01083a08dc1d7c4e063bfb998f7a73e79649cb0e3fd735d766722dd5878b41711e323ee2e561298a7f81c75199"
        }
      ],
      "licenses": [
        {
          "license": {
            "id": "MIT"
          }
        }
      ],
      "purl": "pkg:npm/ignore@5.2.0",
      "externalReferences": [
        {
          "url": "https://github.com/kaelzhang/node-ignore#readme",
          "type": "website"
        },
        {
          "url": "https://github.com/kaelzhang/node-ignore/issues",
          "type": "issue-tracker"
        },
        {
          "url": "git+ssh://git@github.com/kaelzhang/node-ignore.git",
          "type": "vcs"
        }
      ]
    },
    {
      "type": "library",
      "bom-ref": "pkg:npm/import-fresh@3.3.0",
      "name": "import-fresh",
      "version": "3.3.0",
      "description": "Import a module while bypassing the cache",
      "hashes": [
        {
          "alg": "SHA-512",
          "content": "bde6188506be0f54012b39ef8541f16fc7dac65af0527c6c78301b029e39ec4d302cd8a8d9b3922a78d80e1323f98880abad71acc1a1424f625d593917381033"
        }
      ],
      "licenses": [
        {
          "license": {
            "id": "MIT"
          }
        }
      ],
      "purl": "pkg:npm/import-fresh@3.3.0",
      "externalReferences": [
        {
          "url": "https://github.com/sindresorhus/import-fresh#readme",
          "type": "website"
        },
        {
          "url": "https://github.com/sindresorhus/import-fresh/issues",
          "type": "issue-tracker"
        },
        {
          "url": "git+https://github.com/sindresorhus/import-fresh.git",
          "type": "vcs"
        }
      ]
    },
    {
      "type": "library",
      "bom-ref": "pkg:npm/parent-module@1.0.1",
      "name": "parent-module",
      "version": "1.0.1",
      "description": "Get the path of the parent module",
      "hashes": [
        {
          "alg": "SHA-512",
          "content": "190d84591a5057cfe8f80c3c62ab5f6593df3515996246e2744f64e6ba65fe10b7bed1c705f1a6d887e2eaa595f9ca031a4ad42990311372e8b7991cb11961fa"
        }
      ],
      "licenses": [
        {
          "license": {
            "id": "MIT"
          }
        }
      ],
      "purl": "pkg:npm/parent-module@1.0.1",
      "externalReferences": [
        {
          "url": "https://github.com/sindresorhus/parent-module#readme",
          "type": "website"
        },
        {
          "url": "https://github.com/sindresorhus/parent-module/issues",
          "type": "issue-tracker"
        },
        {
          "url": "git+https://github.com/sindresorhus/parent-module.git",
          "type": "vcs"
        }
      ]
    },
    {
      "type": "library",
      "bom-ref": "pkg:npm/callsites@3.1.0",
      "name": "callsites",
      "version": "3.1.0",
      "description": "Get callsites from the V8 stack trace API",
      "hashes": [
        {
          "alg": "SHA-512",
          "content": "3fc06302c5ef652f95203508d7584709012fef8613ebb6148b924914d588a8bdb7e6c0668d7e3eab1f4cbaf96ce62bf234435cb71e3ac502d0dda4ee13bb2c69"
        }
      ],
      "licenses": [
        {
          "license": {
            "id": "MIT"
          }
        }
      ],
      "purl": "pkg:npm/callsites@3.1.0",
      "externalReferences": [
        {
          "url": "https://github.com/sindresorhus/callsites#readme",
          "type": "website"
        },
        {
          "url": "https://github.com/sindresorhus/callsites/issues",
          "type": "issue-tracker"
        },
        {
          "url": "git+https://github.com/sindresorhus/callsites.git",
          "type": "vcs"
        }
      ]
    },
    {
      "type": "library",
      "bom-ref": "pkg:npm/resolve-from@4.0.0",
      "name": "resolve-from",
      "version": "4.0.0",
      "description": "Resolve the path of a module like `require.resolve()` but from a given path",
      "hashes": [
        {
          "alg": "SHA-512",
          "content": "a5bfcc6265ecb40932b11171f2988d235b4614d408140def904dc6ab812e035745ea01e9ffebe066ab021896a9bf2f0ddd0fb8a3b170beab8f25c9d9ed1632e2"
        }
      ],
      "licenses": [
        {
          "license": {
            "id": "MIT"
          }
        }
      ],
      "purl": "pkg:npm/resolve-from@4.0.0",
      "externalReferences": [
        {
          "url": "https://github.com/sindresorhus/resolve-from#readme",
          "type": "website"
        },
        {
          "url": "https://github.com/sindresorhus/resolve-from/issues",
          "type": "issue-tracker"
        },
        {
          "url": "git+https://github.com/sindresorhus/resolve-from.git",
          "type": "vcs"
        }
      ]
    },
    {
      "type": "library",
      "bom-ref": "pkg:npm/js-yaml@4.1.0",
      "name": "js-yaml",
      "version": "4.1.0",
      "description": "YAML 1.2 parser and serializer",
      "hashes": [
        {
          "alg": "SHA-512",
          "content": "c29c59b3d368c596891122462194f20c4698a65d0529203e141f5a262c9e98a84cc24c5083ade1e13d4a2605061e94ea3c33517269982ee82b46326506d5af44"
        }
      ],
      "licenses": [
        {
          "license": {
            "id": "MIT"
          }
        }
      ],
      "purl": "pkg:npm/js-yaml@4.1.0",
      "externalReferences": [
        {
          "url": "https://github.com/nodeca/js-yaml#readme",
          "type": "website"
        },
        {
          "url": "https://github.com/nodeca/js-yaml/issues",
          "type": "issue-tracker"
        },
        {
          "url": "git+https://github.com/nodeca/js-yaml.git",
          "type": "vcs"
        }
      ]
    },
    {
      "type": "library",
      "bom-ref": "pkg:npm/argparse@2.0.1",
      "name": "argparse",
      "version": "2.0.1",
      "description": "CLI arguments parser. Native port of python's argparse.",
      "hashes": [
        {
          "alg": "SHA-512",
          "content": "f3ef56a9e6db173a57f4e47e59ae8edbd6ac22881e44ccdc1ad00835da4c1c7c80835d1fd3969215505b704a867ff3d7c35123019faadbf6c4060dc3beeacadd"
        }
      ],
      "licenses": [
        {
          "license": {
            "id": "Python-2.0"
          }
        }
      ],
      "purl": "pkg:npm/argparse@2.0.1",
      "externalReferences": [
        {
          "url": "https://github.com/nodeca/argparse#readme",
          "type": "website"
        },
        {
          "url": "https://github.com/nodeca/argparse/issues",
          "type": "issue-tracker"
        },
        {
          "url": "git+https://github.com/nodeca/argparse.git",
          "type": "vcs"
        }
      ]
    },
    {
      "type": "library",
      "bom-ref": "pkg:npm/minimatch@3.1.2",
      "name": "minimatch",
      "version": "3.1.2",
      "description": "a glob matcher in javascript",
      "hashes": [
        {
          "alg": "SHA-512",
          "content": "27ba7ade1462023c35343130c355bb8b7efe07222b3963b95d0400cd9dd539c2f43cdc9bc297e657f374e73140cf043d512c84717eaddd43be2b96aa0503881f"
        }
      ],
      "licenses": [
        {
          "license": {
            "id": "ISC"
          }
        }
      ],
      "purl": "pkg:npm/minimatch@3.1.2",
      "externalReferences": [
        {
          "url": "https://github.com/isaacs/minimatch#readme",
          "type": "website"
        },
        {
          "url": "https://github.com/isaacs/minimatch/issues",
          "type": "issue-tracker"
        },
        {
          "url": "git://github.com/isaacs/minimatch.git",
          "type": "vcs"
        }
      ]
    },
    {
      "type": "library",
      "bom-ref": "pkg:npm/brace-expansion@1.1.11",
      "name": "brace-expansion",
      "version": "1.1.11",
      "description": "Brace expansion as known from sh/bash",
      "hashes": [
        {
          "alg": "SHA-512",
          "content": "882b8f1c3160ac75fb1f6bc423fe71a73d3bcd21c1d344e9ba0aa1998b5598c3bae75f260ae44ca0e60595d101974835f3bb9fa3375a1e058a71815beb5a8688"
        }
      ],
      "licenses": [
        {
          "license": {
            "id": "MIT"
          }
        }
      ],
      "purl": "pkg:npm/brace-expansion@1.1.11",
      "externalReferences": [
        {
          "url": "https://github.com/juliangruber/brace-expansion",
          "type": "website"
        },
        {
          "url": "https://github.com/juliangruber/brace-expansion/issues",
          "type": "issue-tracker"
        },
        {
          "url": "git://github.com/juliangruber/brace-expansion.git",
          "type": "vcs"
        }
      ]
    },
    {
      "type": "library",
      "bom-ref": "pkg:npm/balanced-match@1.0.2",
      "name": "balanced-match",
      "version": "1.0.2",
      "description": "Match balanced character pairs, like \"{\" and \"}\"",
      "hashes": [
        {
          "alg": "SHA-512",
          "content": "de849e50ed13315ebb84dd4099b5ec2b8c9aa94eed8e21e56f144364ea47d0a5bdf82797e1b440697d009f1b74b71d8cae94695b041a3f02252121098585393f"
        }
      ],
      "licenses": [
        {
          "license": {
            "id": "MIT"
          }
        }
      ],
      "purl": "pkg:npm/balanced-match@1.0.2",
      "externalReferences": [
        {
          "url": "https://github.com/juliangruber/balanced-match",
          "type": "website"
        },
        {
          "url": "https://github.com/juliangruber/balanced-match/issues",
          "type": "issue-tracker"
        },
        {
          "url": "git://github.com/juliangruber/balanced-match.git",
          "type": "vcs"
        }
      ]
    },
    {
      "type": "library",
      "bom-ref": "pkg:npm/concat-map@0.0.1",
      "name": "concat-map",
      "version": "0.0.1",
      "description": "concatenative mapdashery",
      "hashes": [
        {
          "alg": "SHA-1",
          "content": "d8a96bd77fd68df7793a73036a3ba0d5405d477b"
        }
      ],
      "licenses": [
        {
          "license": {
            "id": "MIT"
          }
        }
      ],
      "purl": "pkg:npm/concat-map@0.0.1",
      "externalReferences": [
        {
          "url": "https://github.com/substack/node-concat-map#readme",
          "type": "website"
        },
        {
          "url": "https://github.com/substack/node-concat-map/issues",
          "type": "issue-tracker"
        },
        {
          "url": "git://github.com/substack/node-concat-map.git",
          "type": "vcs"
        }
      ]
    },
    {
      "type": "library",
      "bom-ref": "pkg:npm/strip-json-comments@3.1.1",
      "name": "strip-json-comments",
      "version": "3.1.1",
      "description": "Strip comments from JSON. Lets you use comments in your JSON files!",
      "hashes": [
        {
          "alg": "SHA-512",
          "content": "e9f3dcf91e22870a8fe8dfda22fd9fd60307f25395b56407a2a0b8c8aea8483555a1cba602c7c2aa39179ea89832198cc12fe61072e9ed57a196ddea97a9448a"
        }
      ],
      "licenses": [
        {
          "license": {
            "id": "MIT"
          }
        }
      ],
      "purl": "pkg:npm/strip-json-comments@3.1.1",
      "externalReferences": [
        {
          "url": "https://github.com/sindresorhus/strip-json-comments#readme",
          "type": "website"
        },
        {
          "url": "https://github.com/sindresorhus/strip-json-comments/issues",
          "type": "issue-tracker"
        },
        {
          "url": "git+https://github.com/sindresorhus/strip-json-comments.git",
          "type": "vcs"
        }
      ]
    },
    {
      "type": "library",
      "bom-ref": "pkg:npm/%40humanwhocodes/config-array@0.9.2",
      "group": "@humanwhocodes",
      "name": "config-array",
      "version": "0.9.2",
      "description": "Glob-based configuration matching.",
      "hashes": [
        {
          "alg": "SHA-512",
          "content": "5173ae14219cc1c8967243a999f283abf1b28654dff6937f0731bfff1f29f334ce144706b80ebc00d5e17854b4006bf2dea819a8b05490cb3b86acea08a395c0"
        }
      ],
      "licenses": [
        {
          "license": {
            "id": "Apache-2.0"
          }
        }
      ],
      "purl": "pkg:npm/%40humanwhocodes/config-array@0.9.2",
      "externalReferences": [
        {
          "url": "https://github.com/humanwhocodes/config-array#readme",
          "type": "website"
        },
        {
          "url": "https://github.com/humanwhocodes/config-array/issues",
          "type": "issue-tracker"
        },
        {
          "url": "git+https://github.com/humanwhocodes/config-array.git",
          "type": "vcs"
        }
      ]
    },
    {
      "type": "library",
      "bom-ref": "pkg:npm/%40humanwhocodes/object-schema@1.2.1",
      "group": "@humanwhocodes",
      "name": "object-schema",
      "version": "1.2.1",
      "description": "An object schema merger/validator",
      "hashes": [
        {
          "alg": "SHA-512",
          "content": "66740c9cb5787bb843954bf0f07f94f0048bd36492d869fafbd01cdf01862c87bbfa37b601e00ec4f63e8b320f2437c50dbede0e37afd14b3c30ed6215137c84"
        }
      ],
      "licenses": [
        {
          "license": {
            "id": "BSD-3-Clause"
          }
        }
      ],
      "purl": "pkg:npm/%40humanwhocodes/object-schema@1.2.1",
      "externalReferences": [
        {
          "url": "https://github.com/humanwhocodes/object-schema#readme",
          "type": "website"
        },
        {
          "url": "https://github.com/humanwhocodes/object-schema/issues",
          "type": "issue-tracker"
        },
        {
          "url": "git+https://github.com/humanwhocodes/object-schema.git",
          "type": "vcs"
        }
      ]
    },
    {
      "type": "library",
      "bom-ref": "pkg:npm/ansi-regex@5.0.1",
      "name": "ansi-regex",
      "version": "5.0.1",
      "description": "Regular expression for matching ANSI escape codes",
      "hashes": [
        {
          "alg": "SHA-512",
          "content": "aae2505e54d25062f62c7f52517a3c570b18e2ca1a9e1828e8b3529bce04d4b05c13cb373b4c29762473c91f73fd9649325316bf7eea38e6fda5d26531410a15"
        }
      ],
      "licenses": [
        {
          "license": {
            "id": "MIT"
          }
        }
      ],
      "purl": "pkg:npm/ansi-regex@5.0.1",
      "externalReferences": [
        {
          "url": "https://github.com/chalk/ansi-regex#readme",
          "type": "website"
        },
        {
          "url": "https://github.com/chalk/ansi-regex/issues",
          "type": "issue-tracker"
        },
        {
          "url": "git+https://github.com/chalk/ansi-regex.git",
          "type": "vcs"
        }
      ]
    },
    {
      "type": "library",
      "bom-ref": "pkg:npm/ansi-styles@4.3.0",
      "name": "ansi-styles",
      "version": "4.3.0",
      "description": "ANSI escape codes for styling strings in the terminal",
      "hashes": [
        {
          "alg": "SHA-512",
          "content": "cdb07dac22404f5adb8e25436f686a2851cd60bc60b64f0d511c59dc86700f717a36dc5b5d94029e74a2d4b931f880e885d3e5169db6db05402c885e64941212"
        }
      ],
      "licenses": [
        {
          "license": {
            "id": "MIT"
          }
        }
      ],
      "purl": "pkg:npm/ansi-styles@4.3.0",
      "externalReferences": [
        {
          "url": "https://github.com/chalk/ansi-styles#readme",
          "type": "website"
        },
        {
          "url": "https://github.com/chalk/ansi-styles/issues",
          "type": "issue-tracker"
        },
        {
          "url": "git+https://github.com/chalk/ansi-styles.git",
          "type": "vcs"
        }
      ]
    },
    {
      "type": "library",
      "bom-ref": "pkg:npm/color-convert@2.0.1",
      "name": "color-convert",
      "version": "2.0.1",
      "description": "Plain color conversion functions",
      "hashes": [
        {
          "alg": "SHA-512",
          "content": "4511023ec8fb8aeff16f9a0a61cb051d2a6914d9ec8ffe763954d129be333f9a275f0545df3566993a0d70e7c60be0910e97cafd4e7ce1f320dfc64709a12529"
        }
      ],
      "licenses": [
        {
          "license": {
            "id": "MIT"
          }
        }
      ],
      "purl": "pkg:npm/color-convert@2.0.1",
      "externalReferences": [
        {
          "url": "https://github.com/Qix-/color-convert#readme",
          "type": "website"
        },
        {
          "url": "https://github.com/Qix-/color-convert/issues",
          "type": "issue-tracker"
        },
        {
          "url": "git+https://github.com/Qix-/color-convert.git",
          "type": "vcs"
        }
      ]
    },
    {
      "type": "library",
      "bom-ref": "pkg:npm/color-name@1.1.4",
      "name": "color-name",
      "version": "1.1.4",
      "description": "A list of color names and its values",
      "hashes": [
        {
          "alg": "SHA-512",
          "content": "74ecbedc0b96ddadb035b64722e319a537208c6b8b53fb812ffb9b71917d3976c3a3c7dfe0ef32569e417f479f4bcb84a18a39ab8171edd63d3a04065e002c40"
        }
      ],
      "licenses": [
        {
          "license": {
            "id": "MIT"
          }
        }
      ],
      "purl": "pkg:npm/color-name@1.1.4",
      "externalReferences": [
        {
          "url": "https://github.com/colorjs/color-name",
          "type": "website"
        },
        {
          "url": "https://github.com/colorjs/color-name/issues",
          "type": "issue-tracker"
        },
        {
          "url": "git+ssh://git@github.com/colorjs/color-name.git",
          "type": "vcs"
        }
      ]
    },
    {
      "type": "library",
      "bom-ref": "pkg:npm/chalk@4.1.2",
      "name": "chalk",
      "version": "4.1.2",
      "description": "Terminal string styling done right",
      "hashes": [
        {
          "alg": "SHA-512",
          "content": "a0a9db845c91217a54b9ecfc881326c846b89db8f820e432ba173fc32f6463bfd654f73020ef5503aebc3eef1190eefed06efa48b44e7b2c3d0a9434eb58b898"
        }
      ],
      "licenses": [
        {
          "license": {
            "id": "MIT"
          }
        }
      ],
      "purl": "pkg:npm/chalk@4.1.2",
      "externalReferences": [
        {
          "url": "https://github.com/chalk/chalk#readme",
          "type": "website"
        },
        {
          "url": "https://github.com/chalk/chalk/issues",
          "type": "issue-tracker"
        },
        {
          "url": "git+https://github.com/chalk/chalk.git",
          "type": "vcs"
        }
      ]
    },
    {
      "type": "library",
      "bom-ref": "pkg:npm/supports-color@7.2.0",
      "name": "supports-color",
      "version": "7.2.0",
      "description": "Detect whether a terminal supports color",
      "hashes": [
        {
          "alg": "SHA-512",
          "content": "aa9080bd197db2db8e1ef78ab27ec79dc251befe74d6a21a70acd094effe2f0c5cf7ed2adb02f2bf80dfbedf34fc33e7da9a8e06c25d0e2a205c647df8ebf047"
        }
      ],
      "licenses": [
        {
          "license": {
            "id": "MIT"
          }
        }
      ],
      "purl": "pkg:npm/supports-color@7.2.0",
      "externalReferences": [
        {
          "url": "https://github.com/chalk/supports-color#readme",
          "type": "website"
        },
        {
          "url": "https://github.com/chalk/supports-color/issues",
          "type": "issue-tracker"
        },
        {
          "url": "git+https://github.com/chalk/supports-color.git",
          "type": "vcs"
        }
      ]
    },
    {
      "type": "library",
      "bom-ref": "pkg:npm/has-flag@4.0.0",
      "name": "has-flag",
      "version": "4.0.0",
      "description": "Check if argv has a specific flag",
      "hashes": [
        {
          "alg": "SHA-512",
          "content": "1329094ff4352a34d672da698080207d23b4b4a56e6548e180caf5ee4a93ba6325e807efdc421295e53ba99533a170c54c01d30c2e0d3a81bf67153712f94c3d"
        }
      ],
      "licenses": [
        {
          "license": {
            "id": "MIT"
          }
        }
      ],
      "purl": "pkg:npm/has-flag@4.0.0",
      "externalReferences": [
        {
          "url": "https://github.com/sindresorhus/has-flag#readme",
          "type": "website"
        },
        {
          "url": "https://github.com/sindresorhus/has-flag/issues",
          "type": "issue-tracker"
        },
        {
          "url": "git+https://github.com/sindresorhus/has-flag.git",
          "type": "vcs"
        }
      ]
    },
    {
      "type": "library",
      "bom-ref": "pkg:npm/cross-spawn@7.0.3",
      "name": "cross-spawn",
      "version": "7.0.3",
      "description": "Cross platform child_process#spawn and child_process#spawnSync",
      "hashes": [
        {
          "alg": "SHA-512",
          "content": "8910cf24a50f544343edd1cf3bcae46ce9cfa720f281c0c5b568e9796342832f163f6ad77315cbf13b2445e425e8eac1d86efe509ada82cd6ad7916e75cec6eb"
        }
      ],
      "licenses": [
        {
          "license": {
            "id": "MIT"
          }
        }
      ],
      "purl": "pkg:npm/cross-spawn@7.0.3",
      "externalReferences": [
        {
          "url": "https://github.com/moxystudio/node-cross-spawn",
          "type": "website"
        },
        {
          "url": "https://github.com/moxystudio/node-cross-spawn/issues",
          "type": "issue-tracker"
        },
        {
          "url": "git+ssh://git@github.com/moxystudio/node-cross-spawn.git",
          "type": "vcs"
        }
      ]
    },
    {
      "type": "library",
      "bom-ref": "pkg:npm/path-key@3.1.1",
      "name": "path-key",
      "version": "3.1.1",
      "description": "Get the PATH environment variable key cross-platform",
      "hashes": [
        {
          "alg": "SHA-512",
          "content": "a2399e374a9dfb2d23b3312da18e3caf43deab97703049089423aee90e5fe3595f92cc17b8ab58ae18284e92e7c887079b6e1486ac7ee53aa6d889d2c0b844e9"
        }
      ],
      "licenses": [
        {
          "license": {
            "id": "MIT"
          }
        }
      ],
      "purl": "pkg:npm/path-key@3.1.1",
      "externalReferences": [
        {
          "url": "https://github.com/sindresorhus/path-key#readme",
          "type": "website"
        },
        {
          "url": "https://github.com/sindresorhus/path-key/issues",
          "type": "issue-tracker"
        },
        {
          "url": "git+https://github.com/sindresorhus/path-key.git",
          "type": "vcs"
        }
      ]
    },
    {
      "type": "library",
      "bom-ref": "pkg:npm/shebang-command@2.0.0",
      "name": "shebang-command",
      "version": "2.0.0",
      "description": "Get the command from a shebang",
      "hashes": [
        {
          "alg": "SHA-512",
          "content": "907c6bdb366962d766acdd6a0e3aeb5ff675ad1d641bc0f1fa09292b51b87979af5ecc26704d614d6056614ce5ada630d7fc99a7a62e0d8efb62dbdb3747660c"
        }
      ],
      "licenses": [
        {
          "license": {
            "id": "MIT"
          }
        }
      ],
      "purl": "pkg:npm/shebang-command@2.0.0",
      "externalReferences": [
        {
          "url": "https://github.com/kevva/shebang-command#readme",
          "type": "website"
        },
        {
          "url": "https://github.com/kevva/shebang-command/issues",
          "type": "issue-tracker"
        },
        {
          "url": "git+https://github.com/kevva/shebang-command.git",
          "type": "vcs"
        }
      ]
    },
    {
      "type": "library",
      "bom-ref": "pkg:npm/shebang-regex@3.0.0",
      "name": "shebang-regex",
      "version": "3.0.0",
      "description": "Regular expression for matching a shebang line",
      "hashes": [
        {
          "alg": "SHA-512",
          "content": "efef9d161b5cc77df9dee05aabc0c347836ec417ad0730bb6503a19934089c711de9b4ab5dd884cb30af1b4ed9e3851874b4a1594c97b7933fca1cfc7a471bd4"
        }
      ],
      "licenses": [
        {
          "license": {
            "id": "MIT"
          }
        }
      ],
      "purl": "pkg:npm/shebang-regex@3.0.0",
      "externalReferences": [
        {
          "url": "https://github.com/sindresorhus/shebang-regex#readme",
          "type": "website"
        },
        {
          "url": "https://github.com/sindresorhus/shebang-regex/issues",
          "type": "issue-tracker"
        },
        {
          "url": "git+https://github.com/sindresorhus/shebang-regex.git",
          "type": "vcs"
        }
      ]
    },
    {
      "type": "library",
      "bom-ref": "pkg:npm/which@2.0.2",
      "name": "which",
      "version": "2.0.2",
      "description": "Like which(1) unix command. Find the first instance of an executable in the PATH.",
      "hashes": [
        {
          "alg": "SHA-512",
          "content": "04b2374e5d535b73ef97bd25df2ab763ae22f9ac29c17aac181616924a8cb676d782b303fb28fbae15b492e103c7325a6171a3116e6881aa4a34c10a34c8e26c"
        }
      ],
      "licenses": [
        {
          "license": {
            "id": "ISC"
          }
        }
      ],
      "purl": "pkg:npm/which@2.0.2",
      "externalReferences": [
        {
          "url": "https://github.com/isaacs/node-which#readme",
          "type": "website"
        },
        {
          "url": "https://github.com/isaacs/node-which/issues",
          "type": "issue-tracker"
        },
        {
          "url": "git://github.com/isaacs/node-which.git",
          "type": "vcs"
        }
      ]
    },
    {
      "type": "library",
      "bom-ref": "pkg:npm/isexe@2.0.0",
      "name": "isexe",
      "version": "2.0.0",
      "description": "Minimal module to check if a file is executable.",
      "hashes": [
        {
          "alg": "SHA-1",
          "content": "e8fbf374dc556ff8947a10dcb0572d633f2cfa10"
        }
      ],
      "licenses": [
        {
          "license": {
            "id": "ISC"
          }
        }
      ],
      "purl": "pkg:npm/isexe@2.0.0",
      "externalReferences": [
        {
          "url": "https://github.com/isaacs/isexe#readme",
          "type": "website"
        },
        {
          "url": "https://github.com/isaacs/isexe/issues",
          "type": "issue-tracker"
        },
        {
          "url": "git+https://github.com/isaacs/isexe.git",
          "type": "vcs"
        }
      ]
    },
    {
      "type": "library",
      "bom-ref": "pkg:npm/deep-is@0.1.4",
      "name": "deep-is",
      "version": "0.1.4",
      "description": "node's assert.deepEqual algorithm except for NaN being equal to NaN",
      "hashes": [
        {
          "alg": "SHA-512",
          "content": "a083f392c993838fccae289a6063bea245c34fbced9ffc37129b6fffe81221d31d2ac268d2ee027d834524fcbee1228cb82a86c36c319c0f9444c837b7c6bf6d"
        }
      ],
      "licenses": [
        {
          "license": {
            "id": "MIT"
          }
        }
      ],
      "purl": "pkg:npm/deep-is@0.1.4",
      "externalReferences": [
        {
          "url": "https://github.com/thlorenz/deep-is#readme",
          "type": "website"
        },
        {
          "url": "https://github.com/thlorenz/deep-is/issues",
          "type": "issue-tracker"
        },
        {
          "url": "git+ssh://git@github.com/thlorenz/deep-is.git",
          "type": "vcs"
        }
      ]
    },
    {
      "type": "library",
      "bom-ref": "pkg:npm/doctrine@3.0.0",
      "name": "doctrine",
      "version": "3.0.0",
      "description": "JSDoc parser",
      "hashes": [
        {
          "alg": "SHA-512",
          "content": "c92f90e62de105fec6064778286f1aede04d3563462d3684c306165228c860cef3ae56033340455c78e33d6956675460ed469d7597880e68bd8c5dc79aa890db"
        }
      ],
      "licenses": [
        {
          "license": {
            "id": "Apache-2.0"
          }
        }
      ],
      "purl": "pkg:npm/doctrine@3.0.0",
      "externalReferences": [
        {
          "url": "https://github.com/eslint/doctrine",
          "type": "website"
        },
        {
          "url": "https://github.com/eslint/doctrine/issues",
          "type": "issue-tracker"
        },
        {
          "url": "git+https://github.com/eslint/doctrine.git",
          "type": "vcs"
        }
      ]
    },
    {
      "type": "library",
      "bom-ref": "pkg:npm/esutils@2.0.3",
      "name": "esutils",
      "version": "2.0.3",
      "description": "utility box for ECMAScript language tools",
      "hashes": [
        {
          "alg": "SHA-512",
          "content": "915b1ca97938382a7af126747648042958baffc8a3df4d0a0564c9ab7d8ffdd61e5934b02b8d56c93c5a94dd5e46603967d514fcb5fd0fb1564a657d480631ea"
        }
      ],
      "licenses": [
        {
          "license": {
            "id": "BSD-2-Clause"
          }
        }
      ],
      "purl": "pkg:npm/esutils@2.0.3",
      "externalReferences": [
        {
          "url": "https://github.com/estools/esutils",
          "type": "website"
        },
        {
          "url": "https://github.com/estools/esutils/issues",
          "type": "issue-tracker"
        },
        {
          "url": "git+ssh://git@github.com/estools/esutils.git",
          "type": "vcs"
        }
      ]
    },
    {
      "type": "library",
      "bom-ref": "pkg:npm/escape-string-regexp@4.0.0",
      "name": "escape-string-regexp",
      "version": "4.0.0",
      "description": "Escape RegExp special characters",
      "hashes": [
        {
          "alg": "SHA-512",
          "content": "4eda5c349dd7033c771aaf2c591cc96956a346cd2e57103660091d6f58e6d9890fcf81ba7a05050320379f9bed10865e7cf93959ae145db2ae4b97ca90959d80"
        }
      ],
      "licenses": [
        {
          "license": {
            "id": "MIT"
          }
        }
      ],
      "purl": "pkg:npm/escape-string-regexp@4.0.0",
      "externalReferences": [
        {
          "url": "https://github.com/sindresorhus/escape-string-regexp#readme",
          "type": "website"
        },
        {
          "url": "https://github.com/sindresorhus/escape-string-regexp/issues",
          "type": "issue-tracker"
        },
        {
          "url": "git+https://github.com/sindresorhus/escape-string-regexp.git",
          "type": "vcs"
        }
      ]
    },
    {
      "type": "library",
      "bom-ref": "pkg:npm/eslint-config-google@0.14.0",
      "name": "eslint-config-google",
      "version": "0.14.0",
      "description": "ESLint shareable config for the Google style",
      "hashes": [
        {
          "alg": "SHA-512",
          "content": "5ac6d7e166e3b8cbd375e54bebe277acad511a1093aa3b058d7ed4312320662cb1c5a34b92824435bac6131cc44457a84e91b0dc5dc5ca94e25803fd657ce413"
        }
      ],
      "licenses": [
        {
          "license": {
            "id": "Apache-2.0"
          }
        }
      ],
      "purl": "pkg:npm/eslint-config-google@0.14.0",
      "externalReferences": [
        {
          "url": "https://github.com/google/eslint-config-google#readme",
          "type": "website"
        },
        {
          "url": "https://github.com/google/eslint-config-google/issues",
          "type": "issue-tracker"
        },
        {
          "url": "git+https://github.com/google/eslint-config-google.git",
          "type": "vcs"
        }
      ]
    },
    {
      "type": "library",
      "bom-ref": "pkg:npm/eslint-plugin-googleappsscript@1.0.4",
      "name": "eslint-plugin-googleappsscript",
      "version": "1.0.4",
      "description": "Environment for Google Apps Script development",
      "hashes": [
        {
          "alg": "SHA-512",
          "content": "67ac3510cc34cf454e52f2343c5aae8a03529184e007ea556f63b629879d0c79e5970ae08e334138bc6ca8f9adc268ceb45a82bbb4ee2f4849430c559e9e4ecd"
        }
      ],
      "licenses": [
        {
          "license": {
            "id": "MIT"
          }
        }
      ],
      "purl": "pkg:npm/eslint-plugin-googleappsscript@1.0.4",
      "externalReferences": [
        {
          "url": "https://github.com/selectnull/eslint-plugin-googleappsscript#readme",
          "type": "website"
        },
        {
          "url": "https://github.com/selectnull/eslint-plugin-googleappsscript/issues",
          "type": "issue-tracker"
        },
        {
          "url": "git+https://github.com/selectnull/eslint-plugin-googleappsscript.git",
          "type": "vcs"
        }
      ]
    },
    {
      "type": "library",
      "bom-ref": "pkg:npm/requireindex@1.1.0",
      "name": "requireindex",
      "version": "1.1.0",
      "description": "Write minimal node index.js files that require and export siblings by file basename",
      "hashes": [
        {
          "alg": "SHA-1",
          "content": "e5404b81557ef75db6e49c5a72004893fe03e162"
        }
      ],
      "licenses": [
        {
          "license": {
            "id": "MIT"
          }
        }
      ],
      "purl": "pkg:npm/requireindex@1.1.0",
      "externalReferences": [
        {
          "url": "https://github.com/stephenhandley/requireindex#readme",
          "type": "website"
        },
        {
          "url": "http://github.com/stephenhandley/requireindex/issues",
          "type": "issue-tracker"
        },
        {
          "url": "git://github.com/stephenhandley/requireindex.git",
          "type": "vcs"
        }
      ]
    },
    {
      "type": "library",
      "bom-ref": "pkg:npm/eslint-scope@7.1.1",
      "name": "eslint-scope",
      "version": "7.1.1",
      "description": "ECMAScript scope analyzer for ESLint",
      "hashes": [
        {
          "alg": "SHA-512",
          "content": "40a40cfd45e92221dc2ea27900ec885bb5d99b38e4cd05d8139e27d7efb06f4bbd57f69b5b797db909f15fc6795ddd7cc72288313500c90d24d5ef29cfa2d4af"
        }
      ],
      "licenses": [
        {
          "license": {
            "id": "BSD-2-Clause"
          }
        }
      ],
      "purl": "pkg:npm/eslint-scope@7.1.1",
      "externalReferences": [
        {
          "url": "http://github.com/eslint/eslint-scope",
          "type": "website"
        },
        {
          "url": "https://github.com/eslint/eslint-scope/issues",
          "type": "issue-tracker"
        },
        {
          "url": "git+https://github.com/eslint/eslint-scope.git",
          "type": "vcs"
        }
      ]
    },
    {
      "type": "library",
      "bom-ref": "pkg:npm/esrecurse@4.3.0",
      "name": "esrecurse",
      "version": "4.3.0",
      "description": "ECMAScript AST recursive visitor",
      "hashes": [
        {
          "alg": "SHA-512",
          "content": "2a67ca2f76fa1be457bcff0dd6faf74ead642ffa021609f63585c4b6a3fcfcbde929aa540381bc70555aa05dd2537db7083e17ca947f7df8a81e692d8bafd36a"
        }
      ],
      "licenses": [
        {
          "license": {
            "id": "BSD-2-Clause"
          }
        }
      ],
      "purl": "pkg:npm/esrecurse@4.3.0",
      "externalReferences": [
        {
          "url": "https://github.com/estools/esrecurse",
          "type": "website"
        },
        {
          "url": "https://github.com/estools/esrecurse/issues",
          "type": "issue-tracker"
        },
        {
          "url": "git+https://github.com/estools/esrecurse.git",
          "type": "vcs"
        }
      ]
    },
    {
      "type": "library",
      "bom-ref": "pkg:npm/estraverse@5.3.0",
      "name": "estraverse",
      "version": "5.3.0",
      "description": "ECMAScript JS AST traversal functions",
      "hashes": [
        {
          "alg": "SHA-512",
          "content": "30c74046e54443388d4de243f0380caa6870475d41450fdc04ffa92ed61d4939dfdcc20ef1f15e8883446d7dfa65d3657d4ffb03d7f7814c38f41de842cbf004"
        }
      ],
      "licenses": [
        {
          "license": {
            "id": "BSD-2-Clause"
          }
        }
      ],
      "purl": "pkg:npm/estraverse@5.3.0",
      "externalReferences": [
        {
          "url": "https://github.com/estools/estraverse",
          "type": "website"
        },
        {
          "url": "https://github.com/estools/estraverse/issues",
          "type": "issue-tracker"
        },
        {
          "url": "git+ssh://git@github.com/estools/estraverse.git",
          "type": "vcs"
        }
      ]
    },
    {
      "type": "library",
      "bom-ref": "pkg:npm/esquery@1.4.0",
      "name": "esquery",
      "version": "1.4.0",
      "description": "A query library for ECMAScript AST using a CSS selector like query language.",
      "hashes": [
        {
          "alg": "SHA-512",
          "content": "7020e2b295ade6f1c7b70318d98ac043889b16400bf116c7e581819d905cf7432896fbdf92441c26ba3f699880414950dea82b612e83eaff067391b9090b1cf7"
        }
      ],
      "licenses": [
        {
          "license": {
            "id": "BSD-3-Clause"
          }
        }
      ],
      "purl": "pkg:npm/esquery@1.4.0",
      "externalReferences": [
        {
          "url": "https://github.com/estools/esquery/",
          "type": "website"
        },
        {
          "url": "https://github.com/estools/esquery/issues",
          "type": "issue-tracker"
        },
        {
          "url": "git+https://github.com/estools/esquery.git",
          "type": "vcs"
        }
      ]
    },
    {
      "type": "library",
      "bom-ref": "pkg:npm/fast-levenshtein@2.0.6",
      "name": "fast-levenshtein",
      "version": "2.0.6",
      "description": "Efficient implementation of Levenshtein algorithm with locale-specific collator support.",
      "hashes": [
        {
          "alg": "SHA-1",
          "content": "3d8a5c66883a16a30ca8643e851f19baa7797917"
        }
      ],
      "licenses": [
        {
          "license": {
            "id": "MIT"
          }
        }
      ],
      "purl": "pkg:npm/fast-levenshtein@2.0.6",
      "externalReferences": [
        {
          "url": "https://github.com/hiddentao/fast-levenshtein#readme",
          "type": "website"
        },
        {
          "url": "https://github.com/hiddentao/fast-levenshtein/issues",
          "type": "issue-tracker"
        },
        {
          "url": "git+https://github.com/hiddentao/fast-levenshtein.git",
          "type": "vcs"
        }
      ]
    },
    {
      "type": "library",
      "bom-ref": "pkg:npm/file-entry-cache@6.0.1",
      "name": "file-entry-cache",
      "version": "6.0.1",
      "description": "Super simple cache for file metadata, useful for process that work o a given series of files and that only need to repeat the job on the changed ones since the previous run of the process",
      "hashes": [
        {
          "alg": "SHA-512",
          "content": "ec6a6cfd75b299b2e4d902d82b8373a4c3ab623321748c57b88bf2d9006c2c4ea58eea1d2af7645acfdca72249dc25485691f43a2d47be0d68bdb3332dd14106"
        }
      ],
      "licenses": [
        {
          "license": {
            "id": "MIT"
          }
        }
      ],
      "purl": "pkg:npm/file-entry-cache@6.0.1",
      "externalReferences": [
        {
          "url": "https://github.com/royriojas/file-entry-cache#readme",
          "type": "website"
        },
        {
          "url": "https://github.com/royriojas/file-entry-cache/issues",
          "type": "issue-tracker"
        },
        {
          "url": "git+https://github.com/royriojas/file-entry-cache.git",
          "type": "vcs"
        }
      ]
    },
    {
      "type": "library",
      "bom-ref": "pkg:npm/flat-cache@3.0.4",
      "name": "flat-cache",
      "version": "3.0.4",
      "description": "A stupidly simple key/value storage using files to persist some data",
      "hashes": [
        {
          "alg": "SHA-512",
          "content": "766f6ce4fc3b25cd06bcc61bb2137acdc84203d460425cf31195f7bf2951f48a857d2f177226e551738a7d6e928ae2747b5dde0d8668655e7076b7afecfdcdc2"
        }
      ],
      "licenses": [
        {
          "license": {
            "id": "MIT"
          }
        }
      ],
      "purl": "pkg:npm/flat-cache@3.0.4",
      "externalReferences": [
        {
          "url": "https://github.com/royriojas/flat-cache#readme",
          "type": "website"
        },
        {
          "url": "https://github.com/royriojas/flat-cache/issues",
          "type": "issue-tracker"
        },
        {
          "url": "git+https://github.com/royriojas/flat-cache.git",
          "type": "vcs"
        }
      ]
    },
    {
      "type": "library",
      "bom-ref": "pkg:npm/flatted@3.2.4",
      "name": "flatted",
      "version": "3.2.4",
      "description": "A super light and fast circular JSON parser.",
      "hashes": [
        {
          "alg": "SHA-512",
          "content": "f3fb0e6b0a3cb49e103815fc6254013312fcf912d97f13103a27fda342942933538cc6049563c4d2bfe6e55345c5345dd0d4b0f2a4b2f1d6a3af05f84582351f"
        }
      ],
      "licenses": [
        {
          "license": {
            "id": "ISC"
          }
        }
      ],
      "purl": "pkg:npm/flatted@3.2.4",
      "externalReferences": [
        {
          "url": "https://github.com/WebReflection/flatted#readme",
          "type": "website"
        },
        {
          "url": "https://github.com/WebReflection/flatted/issues",
          "type": "issue-tracker"
        },
        {
          "url": "git+https://github.com/WebReflection/flatted.git",
          "type": "vcs"
        }
      ]
    },
    {
      "type": "library",
      "bom-ref": "pkg:npm/rimraf@3.0.2",
      "name": "rimraf",
      "version": "3.0.2",
      "description": "A deep deletion module for node (like `rm -rf`)",
      "hashes": [
        {
          "alg": "SHA-512",
          "content": "25990931990018514f3f662a5d95cf6cc94c060b31cc4f082ece253085ffda8d0bf54070f4efd8de8eb0170fe2f582daa5c5095b0a9b8b791dc483dd0bad9320"
        }
      ],
      "licenses": [
        {
          "license": {
            "id": "ISC"
          }
        }
      ],
      "purl": "pkg:npm/rimraf@3.0.2",
      "externalReferences": [
        {
          "url": "https://github.com/isaacs/rimraf#readme",
          "type": "website"
        },
        {
          "url": "https://github.com/isaacs/rimraf/issues",
          "type": "issue-tracker"
        },
        {
          "url": "git://github.com/isaacs/rimraf.git",
          "type": "vcs"
        }
      ]
    },
    {
      "type": "library",
      "bom-ref": "pkg:npm/glob@7.2.0",
      "name": "glob",
      "version": "7.2.0",
      "description": "a little globber",
      "hashes": [
        {
          "alg": "SHA-512",
          "content": "9662dfea0b72acfabcb538d29ab3bde3005e41b151dc76cb1dbbb20faf70bb2424226a76856a8c181e3b397eb914190f7df3bae3520ff6359ad73e22bea1b6e9"
        }
      ],
      "licenses": [
        {
          "license": {
            "id": "ISC"
          }
        }
      ],
      "purl": "pkg:npm/glob@7.2.0",
      "externalReferences": [
        {
          "url": "https://github.com/isaacs/node-glob#readme",
          "type": "website"
        },
        {
          "url": "https://github.com/isaacs/node-glob/issues",
          "type": "issue-tracker"
        },
        {
          "url": "git://github.com/isaacs/node-glob.git",
          "type": "vcs"
        }
      ]
    },
    {
      "type": "library",
      "bom-ref": "pkg:npm/fs.realpath@1.0.0",
      "name": "fs.realpath",
      "version": "1.0.0",
      "description": "Use node's fs.realpath, but fall back to the JS implementation if the native one fails",
      "hashes": [
        {
          "alg": "SHA-1",
          "content": "1504ad2523158caa40db4a2787cb01411994ea4f"
        }
      ],
      "licenses": [
        {
          "license": {
            "id": "ISC"
          }
        }
      ],
      "purl": "pkg:npm/fs.realpath@1.0.0",
      "externalReferences": [
        {
          "url": "https://github.com/isaacs/fs.realpath#readme",
          "type": "website"
        },
        {
          "url": "https://github.com/isaacs/fs.realpath/issues",
          "type": "issue-tracker"
        },
        {
          "url": "git+https://github.com/isaacs/fs.realpath.git",
          "type": "vcs"
        }
      ]
    },
    {
      "type": "library",
      "bom-ref": "pkg:npm/inflight@1.0.6",
      "name": "inflight",
      "version": "1.0.6",
      "description": "Add callbacks to requests in flight to avoid async duplication",
      "hashes": [
        {
          "alg": "SHA-1",
          "content": "49bd6331d7d02d0c09bc910a1075ba8165b56df9"
        }
      ],
      "licenses": [
        {
          "license": {
            "id": "ISC"
          }
        }
      ],
      "purl": "pkg:npm/inflight@1.0.6",
      "externalReferences": [
        {
          "url": "https://github.com/isaacs/inflight",
          "type": "website"
        },
        {
          "url": "https://github.com/isaacs/inflight/issues",
          "type": "issue-tracker"
        },
        {
          "url": "git+https://github.com/npm/inflight.git",
          "type": "vcs"
        }
      ]
    },
    {
      "type": "library",
      "bom-ref": "pkg:npm/once@1.4.0",
      "name": "once",
      "version": "1.4.0",
      "description": "Run a function exactly one time",
      "hashes": [
        {
          "alg": "SHA-1",
          "content": "583b1aa775961d4b113ac17d9c50baef9dd76bd1"
        }
      ],
      "licenses": [
        {
          "license": {
            "id": "ISC"
          }
        }
      ],
      "purl": "pkg:npm/once@1.4.0",
      "externalReferences": [
        {
          "url": "https://github.com/isaacs/once#readme",
          "type": "website"
        },
        {
          "url": "https://github.com/isaacs/once/issues",
          "type": "issue-tracker"
        },
        {
          "url": "git://github.com/isaacs/once.git",
          "type": "vcs"
        }
      ]
    },
    {
      "type": "library",
      "bom-ref": "pkg:npm/wrappy@1.0.2",
      "name": "wrappy",
      "version": "1.0.2",
      "description": "Callback wrapping utility",
      "hashes": [
        {
          "alg": "SHA-1",
          "content": "b5243d8f3ec1aa35f1364605bc0d1036e30ab69f"
        }
      ],
      "licenses": [
        {
          "license": {
            "id": "ISC"
          }
        }
      ],
      "purl": "pkg:npm/wrappy@1.0.2",
      "externalReferences": [
        {
          "url": "https://github.com/npm/wrappy",
          "type": "website"
        },
        {
          "url": "https://github.com/npm/wrappy/issues",
          "type": "issue-tracker"
        },
        {
          "url": "git+https://github.com/npm/wrappy.git",
          "type": "vcs"
        }
      ]
    },
    {
      "type": "library",
      "bom-ref": "pkg:npm/inherits@2.0.4",
      "name": "inherits",
      "version": "2.0.4",
      "description": "Browser-friendly inheritance fully compatible with standard node.js inherits()",
      "hashes": [
        {
          "alg": "SHA-512",
          "content": "93fbc6697e3f6256b75b3c8c0af4d039761e207bea38ab67a8176ecd31e9ce9419cc0b2428c859d8af849c189233dcc64a820578ca572b16b8758799210a9ec1"
        }
      ],
      "licenses": [
        {
          "license": {
            "id": "ISC"
          }
        }
      ],
      "purl": "pkg:npm/inherits@2.0.4",
      "externalReferences": [
        {
          "url": "https://github.com/isaacs/inherits#readme",
          "type": "website"
        },
        {
          "url": "https://github.com/isaacs/inherits/issues",
          "type": "issue-tracker"
        },
        {
          "url": "git://github.com/isaacs/inherits.git",
          "type": "vcs"
        }
      ]
    },
    {
      "type": "library",
      "bom-ref": "pkg:npm/path-is-absolute@1.0.1",
      "name": "path-is-absolute",
      "version": "1.0.1",
      "description": "Node.js 0.12 path.isAbsolute() ponyfill",
      "hashes": [
        {
          "alg": "SHA-1",
          "content": "174b9268735534ffbc7ace6bf53a5a9e1b5c5f5f"
        }
      ],
      "licenses": [
        {
          "license": {
            "id": "MIT"
          }
        }
      ],
      "purl": "pkg:npm/path-is-absolute@1.0.1",
      "externalReferences": [
        {
          "url": "https://github.com/sindresorhus/path-is-absolute#readme",
          "type": "website"
        },
        {
          "url": "https://github.com/sindresorhus/path-is-absolute/issues",
          "type": "issue-tracker"
        },
        {
          "url": "git+https://github.com/sindresorhus/path-is-absolute.git",
          "type": "vcs"
        }
      ]
    },
    {
      "type": "library",
      "bom-ref": "pkg:npm/functional-red-black-tree@1.0.1",
      "name": "functional-red-black-tree",
      "version": "1.0.1",
      "description": "A fully persistent balanced binary search tree",
      "hashes": [
        {
          "alg": "SHA-1",
          "content": "1b0ab3bd553b2a0d6399d29c0e3ea0b252078327"
        }
      ],
      "licenses": [
        {
          "license": {
            "id": "MIT"
          }
        }
      ],
      "purl": "pkg:npm/functional-red-black-tree@1.0.1",
      "externalReferences": [
        {
          "url": "https://github.com/mikolalysenko/functional-red-black-tree#readme",
          "type": "website"
        },
        {
          "url": "https://github.com/mikolalysenko/functional-red-black-tree/issues",
          "type": "issue-tracker"
        },
        {
          "url": "git://github.com/mikolalysenko/functional-red-black-tree.git",
          "type": "vcs"
        }
      ]
    },
    {
      "type": "library",
      "bom-ref": "pkg:npm/glob-parent@6.0.2",
      "name": "glob-parent",
      "version": "6.0.2",
      "description": "Extract the non-magic parent path from a glob string.",
      "hashes": [
        {
          "alg": "SHA-512",
          "content": "5f1c08f043a1550816a7a8832feddbd2bf3a7f877a017eb3494e791df078c9d084b972d773915c61e3aefa79c67ed4b84c48eeff5d6bb782893d33206df9afe0"
        }
      ],
      "licenses": [
        {
          "license": {
            "id": "ISC"
          }
        }
      ],
      "purl": "pkg:npm/glob-parent@6.0.2",
      "externalReferences": [
        {
          "url": "https://github.com/gulpjs/glob-parent#readme",
          "type": "website"
        },
        {
          "url": "https://github.com/gulpjs/glob-parent/issues",
          "type": "issue-tracker"
        },
        {
          "url": "git+https://github.com/gulpjs/glob-parent.git",
          "type": "vcs"
        }
      ]
    },
    {
      "type": "library",
      "bom-ref": "pkg:npm/is-glob@4.0.3",
      "name": "is-glob",
      "version": "4.0.3",
      "description": "Returns `true` if the given string looks like a glob pattern or an extglob pattern. This makes it easy to create code that only uses external modules like node-glob when necessary, resulting in much faster code execution and initialization time, and a better user experience.",
      "hashes": [
        {
          "alg": "SHA-512",
          "content": "c5e9526b21c7dfa66013b6568658bba56df884d6cd97c3a3bf92959a4243e2105d0f7b61f137e4f6f61ab0b33e99758e6611648197f184b4a7af046be1e9524a"
        }
      ],
      "licenses": [
        {
          "license": {
            "id": "MIT"
          }
        }
      ],
      "purl": "pkg:npm/is-glob@4.0.3",
      "externalReferences": [
        {
          "url": "https://github.com/micromatch/is-glob",
          "type": "website"
        },
        {
          "url": "https://github.com/micromatch/is-glob/issues",
          "type": "issue-tracker"
        },
        {
          "url": "git+https://github.com/micromatch/is-glob.git",
          "type": "vcs"
        }
      ]
    },
    {
      "type": "library",
      "bom-ref": "pkg:npm/is-extglob@2.1.1",
      "name": "is-extglob",
      "version": "2.1.1",
      "description": "Returns true if a string has an extglob.",
      "hashes": [
        {
          "alg": "SHA-1",
          "content": "a88c02535791f02ed37c76a1b9ea9773c833f8c2"
        }
      ],
      "licenses": [
        {
          "license": {
            "id": "MIT"
          }
        }
      ],
      "purl": "pkg:npm/is-extglob@2.1.1",
      "externalReferences": [
        {
          "url": "https://github.com/jonschlinkert/is-extglob",
          "type": "website"
        },
        {
          "url": "https://github.com/jonschlinkert/is-extglob/issues",
          "type": "issue-tracker"
        },
        {
          "url": "git+https://github.com/jonschlinkert/is-extglob.git",
          "type": "vcs"
        }
      ]
    },
    {
      "type": "library",
      "bom-ref": "pkg:npm/imurmurhash@0.1.4",
      "name": "imurmurhash",
      "version": "0.1.4",
      "description": "An incremental implementation of MurmurHash3",
      "hashes": [
        {
          "alg": "SHA-1",
          "content": "9218b9b2b928a238b13dc4fb6b6d576f231453ea"
        }
      ],
      "licenses": [
        {
          "license": {
            "id": "MIT"
          }
        }
      ],
      "purl": "pkg:npm/imurmurhash@0.1.4",
      "externalReferences": [
        {
          "url": "https://github.com/jensyt/imurmurhash-js",
          "type": "website"
        },
        {
          "url": "https://github.com/jensyt/imurmurhash-js/issues",
          "type": "issue-tracker"
        },
        {
          "url": "git+https://github.com/jensyt/imurmurhash-js.git",
          "type": "vcs"
        }
      ]
    },
    {
      "type": "library",
      "bom-ref": "pkg:npm/json-stable-stringify-without-jsonify@1.0.1",
      "name": "json-stable-stringify-without-jsonify",
      "version": "1.0.1",
      "description": "deterministic JSON.stringify() with custom sorting to get deterministic hashes from stringified results, with no public domain dependencies",
      "hashes": [
        {
          "alg": "SHA-1",
          "content": "9db7b59496ad3f3cfef30a75142d2d930ad72651"
        }
      ],
      "licenses": [
        {
          "license": {
            "id": "MIT"
          }
        }
      ],
      "purl": "pkg:npm/json-stable-stringify-without-jsonify@1.0.1",
      "externalReferences": [
        {
          "url": "https://github.com/samn/json-stable-stringify",
          "type": "website"
        },
        {
          "url": "https://github.com/samn/json-stable-stringify/issues",
          "type": "issue-tracker"
        },
        {
          "url": "git://github.com/samn/json-stable-stringify.git",
          "type": "vcs"
        }
      ]
    },
    {
      "type": "library",
      "bom-ref": "pkg:npm/levn@0.4.1",
      "name": "levn",
      "version": "0.4.1",
      "description": "Light ECMAScript (JavaScript) Value Notation - human written, concise, typed, flexible",
      "hashes": [
        {
          "alg": "SHA-512",
          "content": "f9b4f6b87e04e4b184ee1fe7ddebdc4bfb109495c2a48a7aca6f0e589e5e57afbaec3b2a97f2da693eea24102ddabcdfa1aff94011818710e2c7574cb7691029"
        }
      ],
      "licenses": [
        {
          "license": {
            "id": "MIT"
          }
        }
      ],
      "purl": "pkg:npm/levn@0.4.1",
      "externalReferences": [
        {
          "url": "https://github.com/gkz/levn",
          "type": "website"
        },
        {
          "url": "https://github.com/gkz/levn/issues",
          "type": "issue-tracker"
        },
        {
          "url": "git://github.com/gkz/levn.git",
          "type": "vcs"
        }
      ]
    },
    {
      "type": "library",
      "bom-ref": "pkg:npm/prelude-ls@1.2.1",
      "name": "prelude-ls",
      "version": "1.2.1",
      "description": "prelude.ls is a functionally oriented utility library. It is powerful and flexible. Almost all of its functions are curried. It is written in, and is the recommended base library for, LiveScript.",
      "hashes": [
        {
          "alg": "SHA-512",
          "content": "be47033eb459a354192db9f944b18fa60fd698843ae6aa165a170629ffdbe5ea659246ab5f49bdcfca6909ab789a53aa52c5a9c8db9880edd5472ad81d2cd7e6"
        }
      ],
      "licenses": [
        {
          "license": {
            "id": "MIT"
          }
        }
      ],
      "purl": "pkg:npm/prelude-ls@1.2.1",
      "externalReferences": [
        {
          "url": "http://preludels.com",
          "type": "website"
        },
        {
          "url": "https://github.com/gkz/prelude-ls/issues",
          "type": "issue-tracker"
        },
        {
          "url": "git://github.com/gkz/prelude-ls.git",
          "type": "vcs"
        }
      ]
    },
    {
      "type": "library",
      "bom-ref": "pkg:npm/type-check@0.4.0",
      "name": "type-check",
      "version": "0.4.0",
      "description": "type-check allows you to check the types of JavaScript values at runtime with a Haskell like type syntax.",
      "hashes": [
        {
          "alg": "SHA-512",
          "content": "5e5794a1cf6ec065ea8d6c176944d9026ccc705679f39f10036befc7552be7121c8b15c83fef0b9c50e0469954df4bacead7aa765b2415fbbe69ee0aefd3a87b"
        }
      ],
      "licenses": [
        {
          "license": {
            "id": "MIT"
          }
        }
      ],
      "purl": "pkg:npm/type-check@0.4.0",
      "externalReferences": [
        {
          "url": "https://github.com/gkz/type-check",
          "type": "website"
        },
        {
          "url": "https://github.com/gkz/type-check/issues",
          "type": "issue-tracker"
        },
        {
          "url": "git://github.com/gkz/type-check.git",
          "type": "vcs"
        }
      ]
    },
    {
      "type": "library",
      "bom-ref": "pkg:npm/lodash.merge@4.6.2",
      "name": "lodash.merge",
      "version": "4.6.2",
      "description": "The Lodash method `_.merge` exported as a module.",
      "hashes": [
        {
          "alg": "SHA-512",
          "content": "d0aa63a97455beb6320ac5f5b3047f5d32b4bdae9542440ce8c368ecfa96efb0728c086801103c11facfd4de3e2a52a3f184b46540ad453fd852e872603ba321"
        }
      ],
      "licenses": [
        {
          "license": {
            "id": "MIT"
          }
        }
      ],
      "purl": "pkg:npm/lodash.merge@4.6.2",
      "externalReferences": [
        {
          "url": "https://lodash.com/",
          "type": "website"
        },
        {
          "url": "https://github.com/lodash/lodash/issues",
          "type": "issue-tracker"
        },
        {
          "url": "git+https://github.com/lodash/lodash.git",
          "type": "vcs"
        }
      ]
    },
    {
      "type": "library",
      "bom-ref": "pkg:npm/natural-compare@1.4.0",
      "name": "natural-compare",
      "version": "1.4.0",
      "description": "Compare strings containing a mix of letters and numbers in the way a human being would in sort order.",
      "hashes": [
        {
          "alg": "SHA-1",
          "content": "4abebfeed7541f2c27acfb29bdbbd15c8d5ba4f7"
        }
      ],
      "licenses": [
        {
          "license": {
            "id": "MIT"
          }
        }
      ],
      "purl": "pkg:npm/natural-compare@1.4.0",
      "externalReferences": [
        {
          "url": "https://github.com/litejs/natural-compare-lite#readme",
          "type": "website"
        },
        {
          "url": "https://github.com/litejs/natural-compare-lite/issues",
          "type": "issue-tracker"
        },
        {
          "url": "git://github.com/litejs/natural-compare-lite.git",
          "type": "vcs"
        }
      ]
    },
    {
      "type": "library",
      "bom-ref": "pkg:npm/optionator@0.9.1",
      "name": "optionator",
      "version": "0.9.1",
      "description": "option parsing and help generation",
      "hashes": [
        {
          "alg": "SHA-512",
          "content": "ef84656391429e1ab88d1c5550f283691c2b54d5ccaac1ac896e80270e172bc866b66d74c02d32a5904bc39208a7ce4d64cafdd7ea9dd51bef10dc20ee38d117"
        }
      ],
      "licenses": [
        {
          "license": {
            "id": "MIT"
          }
        }
      ],
      "purl": "pkg:npm/optionator@0.9.1",
      "externalReferences": [
        {
          "url": "https://github.com/gkz/optionator",
          "type": "website"
        },
        {
          "url": "https://github.com/gkz/optionator/issues",
          "type": "issue-tracker"
        },
        {
          "url": "git://github.com/gkz/optionator.git",
          "type": "vcs"
        }
      ]
    },
    {
      "type": "library",
      "bom-ref": "pkg:npm/word-wrap@1.2.3",
      "name": "word-wrap",
      "version": "1.2.3",
      "description": "Wrap words to a specified length.",
      "hashes": [
        {
          "alg": "SHA-512",
          "content": "1f3fe6acdc22b4d461fc7500b4cfd54ffe551feca00fa0d5ee660a640b473ab6ecf14ee5bcf4bac5fec424a305d2e5b52890a5d07ef4d60dd91aeb3e9ae139bd"
        }
      ],
      "licenses": [
        {
          "license": {
            "id": "MIT"
          }
        }
      ],
      "purl": "pkg:npm/word-wrap@1.2.3",
      "externalReferences": [
        {
          "url": "https://github.com/jonschlinkert/word-wrap",
          "type": "website"
        },
        {
          "url": "https://github.com/jonschlinkert/word-wrap/issues",
          "type": "issue-tracker"
        },
        {
          "url": "git+https://github.com/jonschlinkert/word-wrap.git",
          "type": "vcs"
        }
      ]
    },
    {
      "type": "library",
      "bom-ref": "pkg:npm/regexpp@3.2.0",
      "name": "regexpp",
      "version": "3.2.0",
      "description": "Regular expression parser for ECMAScript.",
      "hashes": [
        {
          "alg": "SHA-512",
          "content": "a6ad9b5a8f66543e379dbb6cdb01afd7b5cb88d2f26be1a4959f246832d5d99d3c8030ac1a99ca9fd04531ea6f5ae1c26f256f63b279a39f8156fa106e69492e"
        }
      ],
      "licenses": [
        {
          "license": {
            "id": "MIT"
          }
        }
      ],
      "purl": "pkg:npm/regexpp@3.2.0",
      "externalReferences": [
        {
          "url": "https://github.com/mysticatea/regexpp#readme",
          "type": "website"
        },
        {
          "url": "https://github.com/mysticatea/regexpp/issues",
          "type": "issue-tracker"
        },
        {
          "url": "git+https://github.com/mysticatea/regexpp.git",
          "type": "vcs"
        }
      ]
    },
    {
      "type": "library",
      "bom-ref": "pkg:npm/strip-ansi@6.0.1",
      "name": "strip-ansi",
      "version": "6.0.1",
      "description": "Strip ANSI escape codes from a string",
      "hashes": [
        {
          "alg": "SHA-512",
          "content": "637f153d21dcaa416b0a916743dbee4979aabaebf9a1738aa46793e9a1abaf7a3719cf409556ba2417d448e0a76f1186645fbfd28a08ecaacfb944b3b54754e4"
        }
      ],
      "licenses": [
        {
          "license": {
            "id": "MIT"
          }
        }
      ],
      "purl": "pkg:npm/strip-ansi@6.0.1",
      "externalReferences": [
        {
          "url": "https://github.com/chalk/strip-ansi#readme",
          "type": "website"
        },
        {
          "url": "https://github.com/chalk/strip-ansi/issues",
          "type": "issue-tracker"
        },
        {
          "url": "git+https://github.com/chalk/strip-ansi.git",
          "type": "vcs"
        }
      ]
    },
    {
      "type": "library",
      "bom-ref": "pkg:npm/text-table@0.2.0",
      "name": "text-table",
      "version": "0.2.0",
      "description": "borderless text tables with alignment",
      "hashes": [
        {
          "alg": "SHA-1",
          "content": "7f5ee823ae805207c00af2df4a84ec3fcfa570b4"
        }
      ],
      "licenses": [
        {
          "license": {
            "id": "MIT"
          }
        }
      ],
      "purl": "pkg:npm/text-table@0.2.0",
      "externalReferences": [
        {
          "url": "https://github.com/substack/text-table",
          "type": "website"
        },
        {
          "url": "https://github.com/substack/text-table/issues",
          "type": "issue-tracker"
        },
        {
          "url": "git://github.com/substack/text-table.git",
          "type": "vcs"
        }
      ]
    },
    {
      "type": "library",
      "bom-ref": "pkg:npm/v8-compile-cache@2.3.0",
      "name": "v8-compile-cache",
      "version": "2.3.0",
      "description": "Require hook for automatic V8 compile cache persistence",
      "hashes": [
        {
          "alg": "SHA-512",
          "content": "97c9421262dc2d8661e276ee9cd66f40225ce69bfbf910b06bcabf2dd531f2eee5b16bcf0ca9a9a1d24024dc24021242fff745638f0ab881268ed778455883ac"
        }
      ],
      "licenses": [
        {
          "license": {
            "id": "MIT"
          }
        }
      ],
      "purl": "pkg:npm/v8-compile-cache@2.3.0",
      "externalReferences": [
        {
          "url": "https://github.com/zertosh/v8-compile-cache#readme",
          "type": "website"
        },
        {
          "url": "https://github.com/zertosh/v8-compile-cache/issues",
          "type": "issue-tracker"
        },
        {
          "url": "git+https://github.com/zertosh/v8-compile-cache.git",
          "type": "vcs"
        }
      ]
    },
    {
      "type": "library",
      "bom-ref": "pkg:npm/eslint@8.15.0",
      "name": "eslint",
      "version": "8.15.0",
      "description": "An AST-based pattern checker for JavaScript.",
      "hashes": [
        {
          "alg": "SHA-512",
          "content": "186e54499d63842bbc1c99331a078af3ff911a71da358646ac60f352d8a02b706c184496febb366b3db75ea134595c03c72d5546fbe34921aee6707406efba48"
        }
      ],
      "licenses": [
        {
          "license": {
            "id": "MIT"
          }
        }
      ],
      "purl": "pkg:npm/eslint@8.15.0",
      "externalReferences": [
        {
          "url": "https://eslint.org",
          "type": "website"
        },
        {
          "url": "https://github.com/eslint/eslint/issues/",
          "type": "issue-tracker"
        },
        {
          "url": "git+https://github.com/eslint/eslint.git",
          "type": "vcs"
        }
      ]
    },
    {
      "type": "library",
      "bom-ref": "pkg:npm/eslint-utils@3.0.0",
      "name": "eslint-utils",
      "version": "3.0.0",
      "description": "Utilities for ESLint plugins.",
      "hashes": [
        {
          "alg": "SHA-512",
          "content": "bae402e3720672dc3af29240d5181b412f3f34feeb721e82c1de23dd906d828e3ff05963e1e184ed96126513778aae69554bfa18f756e59d511657a8f38b8b0c"
        }
      ],
      "licenses": [
        {
          "license": {
            "id": "MIT"
          }
        }
      ],
      "purl": "pkg:npm/eslint-utils@3.0.0",
      "externalReferences": [
        {
          "url": "https://github.com/mysticatea/eslint-utils#readme",
          "type": "website"
        },
        {
          "url": "https://github.com/mysticatea/eslint-utils/issues",
          "type": "issue-tracker"
        },
        {
          "url": "git+https://github.com/mysticatea/eslint-utils.git",
          "type": "vcs"
        }
      ]
    },
    {
      "type": "library",
      "bom-ref": "pkg:npm/eslint-visitor-keys@2.1.0",
      "name": "eslint-visitor-keys",
      "version": "2.1.0",
      "description": "Constants and utilities about visitor keys to traverse AST.",
      "hashes": [
        {
          "alg": "SHA-512",
          "content": "d2b4a6441cd7803cc8b03ea619d2607afce07b3239df809eaf92ffbf2317d241f34ff8e2078de346177d61494c1982d0cb6ce9acd9a84fca9ab021ad63e41a2b"
        }
      ],
      "licenses": [
        {
          "license": {
            "id": "Apache-2.0"
          }
        }
      ],
      "purl": "pkg:npm/eslint-visitor-keys@2.1.0",
      "externalReferences": [
        {
          "url": "https://github.com/eslint/eslint-visitor-keys#readme",
          "type": "website"
        },
        {
          "url": "https://github.com/eslint/eslint-visitor-keys/issues",
          "type": "issue-tracker"
        },
        {
          "url": "git+https://github.com/eslint/eslint-visitor-keys.git",
          "type": "vcs"
        }
      ]
    },
    {
      "type": "library",
      "bom-ref": "pkg:npm/eslint/eslintrc@1.2.3",
      "group": "eslint",
      "name": "eslintrc",
      "version": "1.2.3",
      "description": "",
      "hashes": [
        {
          "alg": "SHA-512",
          "content": "b86a38e21230a0b18dc9db91a63744a68bdc6cc75df8dbfb6a6b662719ca988f318fac9de4b9dc992c036b93605ffe35948149b648c3e987557e01333df27950"
        }
      ],
      "purl": "pkg:npm/eslint/eslintrc@1.2.3"
    },
    {
      "type": "library",
      "bom-ref": "pkg:npm/humanwhocodes/config-array@0.9.2",
      "group": "humanwhocodes",
      "name": "config-array",
      "version": "0.9.2",
      "description": "",
      "hashes": [
        {
          "alg": "SHA-512",
          "content": "5173ae14219cc1c8967243a999f283abf1b28654dff6937f0731bfff1f29f334ce144706b80ebc00d5e17854b4006bf2dea819a8b05490cb3b86acea08a395c0"
        }
      ],
      "purl": "pkg:npm/humanwhocodes/config-array@0.9.2"
    },
    {
      "type": "library",
      "bom-ref": "pkg:npm/humanwhocodes/object-schema@1.2.1",
      "group": "humanwhocodes",
      "name": "object-schema",
      "version": "1.2.1",
      "description": "",
      "hashes": [
        {
          "alg": "SHA-512",
          "content": "66740c9cb5787bb843954bf0f07f94f0048bd36492d869fafbd01cdf01862c87bbfa37b601e00ec4f63e8b320f2437c50dbede0e37afd14b3c30ed6215137c84"
        }
      ],
      "purl": "pkg:npm/humanwhocodes/object-schema@1.2.1"
    }
  ]
}
