{
  "bomFormat": "CycloneDX",
  "specVersion": "1.3",
  "version": 1,
  "metadata": {
    "tools": [
      {
        "vendor": "CycloneDX",
        "name": "cyclonedx-gomod",
        "version": "v0.0.0-unset",
        "hashes": [
          {
            "alg": "MD5",
            "content": "a35776fc9417e8071d3f1dcfa2f1dd19"
          },
          {
            "alg": "SHA-1",
            "content": "a19a8eed713eff5a2092e5283c201a146f19421d"
          },
          {
            "alg": "SHA-256",
            "content": "17b3b980b9a5d0f48ad52043dee5b31aff3ae6599a36bc94224dc7b6a46759ef"
          },
          {
            "alg": "SHA-512",
            "content": "9d4f06aab20cede94a1aedf11a300ae9de98871235c68c72e421cd6d45495910861b39e743ee0eceb11bbdcd2c9acc3312c19064cfe90177243fb43127fcfa46"
          }
        ]
      },
      {
        "vendor": "CycloneDX",
        "name": "Node.js module",
        "version": "3.0.3"
      },
      {
        "vendor": "AppThreat",
        "name": "cdxgen",
        "version": "3.0.10"
      },
      {
        "vendor": "Fortress Information Security",
        "name": "GitHub Extractor",
        "version": "1.15.1"
      }
    ],
    "authors": [
      {
        "name": "Fortress Information Security",
        "email": "sales@fortressinfosec.com",
        "phone": "1-407-573-6800"
      }
    ],
    "timestamp": "2022-06-28T16:36:19Z",
    "component": {
      "type": "application",
      "name": "heroku-buildpack-nodejs",
      "version": "",
      "group": "heroku",
      "externalReferences": [
        {
          "url": "https://github.com/heroku/heroku-buildpack-nodejs.git",
          "type": "distribution"
        }
      ]
    }
  },
  "components": [
    {
      "type": "library",
      "bom-ref": "pkg:golang/github.com/jmorrell/semver@v0.0.0-20190521202929-0d1a4bb09cfa",
      "name": "github.com/jmorrell/semver",
      "version": "v0.0.0-20190521202929-0d1a4bb09cfa",
      "scope": "required",
      "hashes": [
        {
          "alg": "SHA-256",
          "content": "af588fb85a6705838646e704ccfc98e1375e0baf87054addefd43d420e8e7418"
        }
      ],
      "purl": "pkg:golang/github.com/jmorrell/semver@v0.0.0-20190521202929-0d1a4bb09cfa",
      "externalReferences": [
        {
          "url": "https://github.com/jmorrell/semver",
          "type": "vcs"
        }
      ]
    },
    {
      "type": "library",
      "bom-ref": "pkg:golang/github.com/heroku/heroku-buildpack-nodejs",
      "group": "github.com/heroku",
      "name": "heroku-buildpack-nodejs",
      "version": "",
      "description": "",
      "scope": "optional",
      "purl": "pkg:golang/github.com/heroku/heroku-buildpack-nodejs"
    }
  ],
  "dependencies": [
    {
      "ref": "pkg:golang/github.com/jmorrell/semver@v0.0.0-20190521202929-0d1a4bb09cfa"
    },
    {
      "ref": "pkg:golang/github.com/heroku/heroku-buildpack-nodejs@v198",
      "dependsOn": [
        "pkg:golang/github.com/jmorrell/semver@v0.0.0-20190521202929-0d1a4bb09cfa"
      ]
    }
  ]
}
