{
  "bomFormat": "CycloneDX",
  "specVersion": "1.3",
  "version": 1,
  "components": [
    {
      "type": "library",
      "publisher": "The Pandas Development Team",
      "name": "pandas",
      "version": "1.4.2",
      "description": "Powerful data structures for data analysis, time series, and statistics",
      "hashes": [
        {
          "alg": "MD5",
          "content": "d03e1ba43fac967c83ca8223248cc32f"
        },
        {
          "alg": "SHA-256",
          "content": "09d8be7dd9e1c4c98224c4dfe8abd60d145d934e9fc1f5f411266308ae683e6a"
        }
      ],
      "licenses": [
        {
          "license": {
            "name": "BSD-3-Clause"
          }
        }
      ],
      "purl": "pkg:pypi/pandas@1.4.2",
      "modified": false
    },
    {
      "type": "library",
      "publisher": "Travis E. Oliphant et al.",
      "name": "numpy",
      "version": "1.22.4",
      "description": "NumPy is the fundamental package for array computing with Python.",
      "hashes": [
        {
          "alg": "MD5",
          "content": "ab803b24ea557452e828adba1b986af3"
        },
        {
          "alg": "SHA-256",
          "content": "0791fbd1e43bf74b3502133207e378901272f3c156c4df4954cad833b1380207"
        }
      ],
      "licenses": [
        {
          "license": {
            "name": "BSD"
          }
        }
      ],
      "purl": "pkg:pypi/numpy@1.22.4",
      "modified": false
    },
    {
      "type": "library",
      "name": "selenium",
      "version": "4.2.0",
      "hashes": [
        {
          "alg": "MD5",
          "content": "dff24d426a2358f6ea33fa90a3da09f2"
        },
        {
          "alg": "SHA-256",
          "content": "ba5b2633f43cf6fe9d308fa4a6996e00a101ab9cb1aad6fd91ae1f3dbe57f56f"
        }
      ],
      "licenses": [
        {
          "license": {
            "name": "Apache 2.0"
          }
        }
      ],
      "purl": "pkg:pypi/selenium@4.2.0",
      "modified": false
    },
    {
      "type": "library",
      "publisher": "Leonard Richardson",
      "name": "bs4",
      "version": "0.0.1",
      "description": "Dummy package for Beautiful Soup",
      "hashes": [
        {
          "alg": "MD5",
          "content": "fe7e51587ac3b174608f3c4f8bd893ac"
        },
        {
          "alg": "SHA-256",
          "content": "36ecea1fd7cc5c0c6e4a1ff075df26d50da647b75376626cc186e2212886dd3a"
        }
      ],
      "purl": "pkg:pypi/bs4@0.0.1",
      "modified": false
    }
  ],
  "metadata": {
    "tools": [
      {
        "vendor": "Fortress Information Security",
        "name": "Github Extractor",
        "version": "1.15.1"
      }
    ],
    "authors": [
      {
        "name": "Fortress Information Security",
        "email": "sales@fortressinfosec.com",
        "phone": "1-407-573-6800"
      }
    ],
    "timestamp": "2022-06-01T21:00:00Z",
    "component": {
      "type": "application",
      "name": "coffee-quality-database",
      "version": "",
      "group": "jldbc",
      "externalReferences": [
        {
          "url": "https://github.com/jldbc/coffee-quality-database.git",
          "type": "distribution"
        },
        {
          "type": "website",
          "url": "null",
          "comment": "As set via `homepage` in Github API"
        }
      ]
    }
  }
}
