{
  "bomFormat": "CycloneDX",
  "specVersion": "1.3",
  "version": 2,
  "metadata": {
    "tools": [
      {
        "vendor": "CycloneDX",
        "name": "Node.js module",
        "version": "3.0.3"
      },
      {
        "vendor": "cyclonedx",
        "name": "cyclonedx-php-composer",
        "version": "3.10.0"
      },
      {
        "vendor": "AppThreat",
        "name": "cdxgen",
        "version": "3.0.10"
      },
      {
        "vendor": "Fortress Information Security",
        "name": "Github Extractor",
        "version": "1.15.1"
      }
    ],
    "authors": [
      {
        "name": "Fortress Information Security",
        "email": "sales@fortressinfosec.com",
        "phone": "1-407-573-6800"
      }
    ],
    "timestamp": "2022-07-26T23:37:04Z",
    "component": {
      "type": "application",
      "name": "The-Art-Of-Programming-By-July",
      "version": "",
      "group": "julycoding",
      "externalReferences": [
        {
          "url": "https://github.com/julycoding/The-Art-Of-Programming-By-July.git",
          "type": "distribution"
        },
        {
          "type": "website",
          "url": "null",
          "comment": "As set via `homepage` in Github API"
        }
      ]
    }
  },
  "components": [
    {
      "type": "library",
      "bom-ref": "pkg:composer/cyclonedx/cyclonedx-library@1.5.0",
      "group": "cyclonedx",
      "name": "cyclonedx-library",
      "version": "1.5.0",
      "description": "Work with CycloneDX Software Bill-of-Materials (SBOM)",
      "licenses": [
        {
          "license": {
            "id": "Apache-2.0"
          }
        }
      ],
      "purl": "pkg:composer/cyclonedx/cyclonedx-library@1.5.0",
      "externalReferences": [
        {
          "url": "https://github.com/CycloneDX/cyclonedx-php-library.git",
          "type": "distribution",
          "comment": "As detected by composer's `getSourceUrls()` (type=git & reference=f41632e1d47001700ef93fa899e6dc49779aa784)"
        },
        {
          "url": "https://api.github.com/repos/CycloneDX/cyclonedx-php-library/zipball/f41632e1d47001700ef93fa899e6dc49779aa784",
          "type": "distribution",
          "comment": "As detected by composer's `getDistUrls()` (type=zip & reference=f41632e1d47001700ef93fa899e6dc49779aa784 & sha1=UNDEFINED)"
        },
        {
          "url": "https://github.com/CycloneDX/cyclonedx-php-library/",
          "type": "website",
          "comment": "As set via `homepage` in composer package definition."
        },
        {
          "url": "https://github.com/CycloneDX/cyclonedx-php-library/issues",
          "type": "issue-tracker",
          "comment": "As set via `support.issues` in composer package definition."
        },
        {
          "url": "https://github.com/CycloneDX/cyclonedx-php-library/tree/v1.5.0",
          "type": "distribution",
          "comment": "As set via `support.source` in composer package definition."
        }
      ]
    },
    {
      "type": "application",
      "bom-ref": "pkg:composer/cyclonedx/cyclonedx-php-composer@3.10.0",
      "group": "cyclonedx",
      "name": "cyclonedx-php-composer",
      "version": "3.10.0",
      "description": "Creates CycloneDX Software Bill-of-Materials (SBOM) from PHP Composer projects",
      "licenses": [
        {
          "license": {
            "id": "Apache-2.0"
          }
        }
      ],
      "purl": "pkg:composer/cyclonedx/cyclonedx-php-composer@3.10.0",
      "externalReferences": [
        {
          "url": "https://github.com/CycloneDX/cyclonedx-php-composer.git",
          "type": "distribution",
          "comment": "As detected by composer's `getSourceUrls()` (type=git & reference=341792df609deab6131ffa65f2f3b273f2e6128a)"
        },
        {
          "url": "https://api.github.com/repos/CycloneDX/cyclonedx-php-composer/zipball/341792df609deab6131ffa65f2f3b273f2e6128a",
          "type": "distribution",
          "comment": "As detected by composer's `getDistUrls()` (type=zip & reference=341792df609deab6131ffa65f2f3b273f2e6128a & sha1=UNDEFINED)"
        },
        {
          "url": "https://github.com/CycloneDX/cyclonedx-php-composer/",
          "type": "website",
          "comment": "As set via `homepage` in composer package definition."
        },
        {
          "url": "https://github.com/CycloneDX/cyclonedx-php-composer/issues",
          "type": "issue-tracker",
          "comment": "As set via `support.issues` in composer package definition."
        },
        {
          "url": "https://github.com/CycloneDX/cyclonedx-php-composer/tree/v3.10.0",
          "type": "distribution",
          "comment": "As set via `support.source` in composer package definition."
        }
      ]
    },
    {
      "type": "library",
      "bom-ref": "pkg:composer/package-url/packageurl-php@1.0.4",
      "group": "package-url",
      "name": "packageurl-php",
      "version": "1.0.4",
      "description": "A parser and builder based on the package url spec.",
      "licenses": [
        {
          "license": {
            "id": "MIT"
          }
        }
      ],
      "purl": "pkg:composer/package-url/packageurl-php@1.0.4",
      "externalReferences": [
        {
          "url": "https://github.com/package-url/packageurl-php.git",
          "type": "distribution",
          "comment": "As detected by composer's `getSourceUrls()` (type=git & reference=c45953babed516d27a0cf6c1a2d9f7e883ce214f)"
        },
        {
          "url": "https://api.github.com/repos/package-url/packageurl-php/zipball/c45953babed516d27a0cf6c1a2d9f7e883ce214f",
          "type": "distribution",
          "comment": "As detected by composer's `getDistUrls()` (type=zip & reference=c45953babed516d27a0cf6c1a2d9f7e883ce214f & sha1=UNDEFINED)"
        },
        {
          "url": "https://github.com/package-url/packageurl-php",
          "type": "website",
          "comment": "As set via `homepage` in composer package definition."
        },
        {
          "url": "https://github.com/package-url/packageurl-php/issues",
          "type": "issue-tracker",
          "comment": "As set via `support.issues` in composer package definition."
        },
        {
          "url": "https://github.com/package-url/packageurl-php/tree/1.0.4",
          "type": "distribution",
          "comment": "As set via `support.source` in composer package definition."
        }
      ]
    },
    {
      "type": "library",
      "bom-ref": "pkg:composer/phplang/scope-exit@1.0.0",
      "group": "phplang",
      "name": "scope-exit",
      "version": "1.0.0",
      "description": "Emulation of SCOPE_EXIT construct from C++",
      "licenses": [
        {
          "license": {
            "name": "BSD"
          }
        }
      ],
      "purl": "pkg:composer/phplang/scope-exit@1.0.0",
      "externalReferences": [
        {
          "url": "https://github.com/phplang/scope-exit.git",
          "type": "distribution",
          "comment": "As detected by composer's `getSourceUrls()` (type=git & reference=239b73abe89f9414aa85a7ca075ec9445629192b)"
        },
        {
          "url": "https://api.github.com/repos/phplang/scope-exit/zipball/239b73abe89f9414aa85a7ca075ec9445629192b",
          "type": "distribution",
          "comment": "As detected by composer's `getDistUrls()` (type=zip & reference=239b73abe89f9414aa85a7ca075ec9445629192b & sha1=UNDEFINED)"
        },
        {
          "url": "https://github.com/phplang/scope-exit",
          "type": "website",
          "comment": "As set via `homepage` in composer package definition."
        },
        {
          "url": "https://github.com/phplang/scope-exit/issues",
          "type": "issue-tracker",
          "comment": "As set via `support.issues` in composer package definition."
        },
        {
          "url": "https://github.com/phplang/scope-exit/tree/master",
          "type": "distribution",
          "comment": "As set via `support.source` in composer package definition."
        }
      ]
    },
    {
      "type": "library",
      "bom-ref": "pkg:composer/swaggest/json-diff@3.8.3",
      "group": "swaggest",
      "name": "json-diff",
      "version": "3.8.3",
      "description": "JSON diff/rearrange/patch/pointer library for PHP",
      "licenses": [
        {
          "license": {
            "id": "MIT"
          }
        }
      ],
      "purl": "pkg:composer/swaggest/json-diff@3.8.3",
      "externalReferences": [
        {
          "url": "https://github.com/swaggest/json-diff.git",
          "type": "distribution",
          "comment": "As detected by composer's `getSourceUrls()` (type=git & reference=bb3e3b4e9d842bb2e48f31ea568d0459968d1d42)"
        },
        {
          "url": "https://api.github.com/repos/swaggest/json-diff/zipball/bb3e3b4e9d842bb2e48f31ea568d0459968d1d42",
          "type": "distribution",
          "comment": "As detected by composer's `getDistUrls()` (type=zip & reference=bb3e3b4e9d842bb2e48f31ea568d0459968d1d42 & sha1=UNDEFINED)"
        },
        {
          "url": "https://github.com/swaggest/json-diff/issues",
          "type": "issue-tracker",
          "comment": "As set via `support.issues` in composer package definition."
        },
        {
          "url": "https://github.com/swaggest/json-diff/tree/v3.8.3",
          "type": "distribution",
          "comment": "As set via `support.source` in composer package definition."
        }
      ]
    },
    {
      "type": "library",
      "bom-ref": "pkg:composer/swaggest/json-schema@0.12.39",
      "group": "swaggest",
      "name": "json-schema",
      "version": "0.12.39",
      "description": "High definition PHP structures with JSON-schema based validation",
      "licenses": [
        {
          "license": {
            "id": "MIT"
          }
        }
      ],
      "purl": "pkg:composer/swaggest/json-schema@0.12.39",
      "externalReferences": [
        {
          "url": "https://github.com/swaggest/php-json-schema.git",
          "type": "distribution",
          "comment": "As detected by composer's `getSourceUrls()` (type=git & reference=193ba39cce1ffa2d55ddd5445315e945a63298a2)"
        },
        {
          "url": "https://api.github.com/repos/swaggest/php-json-schema/zipball/193ba39cce1ffa2d55ddd5445315e945a63298a2",
          "type": "distribution",
          "comment": "As detected by composer's `getDistUrls()` (type=zip & reference=193ba39cce1ffa2d55ddd5445315e945a63298a2 & sha1=UNDEFINED)"
        },
        {
          "url": "mailto:vearutop@gmail.com",
          "type": "other",
          "comment": "As set via `support.email` in composer package definition."
        },
        {
          "url": "https://github.com/swaggest/php-json-schema/issues",
          "type": "issue-tracker",
          "comment": "As set via `support.issues` in composer package definition."
        },
        {
          "url": "https://github.com/swaggest/php-json-schema/tree/v0.12.39",
          "type": "distribution",
          "comment": "As set via `support.source` in composer package definition."
        }
      ]
    },
    {
      "type": "library",
      "bom-ref": "pkg:composer/symfony/polyfill-mbstring@1.25.0",
      "group": "symfony",
      "name": "polyfill-mbstring",
      "version": "1.25.0",
      "description": "Symfony polyfill for the Mbstring extension",
      "licenses": [
        {
          "license": {
            "id": "MIT"
          }
        }
      ],
      "purl": "pkg:composer/symfony/polyfill-mbstring@1.25.0",
      "externalReferences": [
        {
          "url": "https://github.com/symfony/polyfill-mbstring.git",
          "type": "distribution",
          "comment": "As detected by composer's `getSourceUrls()` (type=git & reference=0abb51d2f102e00a4eefcf46ba7fec406d245825)"
        },
        {
          "url": "https://api.github.com/repos/symfony/polyfill-mbstring/zipball/0abb51d2f102e00a4eefcf46ba7fec406d245825",
          "type": "distribution",
          "comment": "As detected by composer's `getDistUrls()` (type=zip & reference=0abb51d2f102e00a4eefcf46ba7fec406d245825 & sha1=UNDEFINED)"
        },
        {
          "url": "https://symfony.com",
          "type": "website",
          "comment": "As set via `homepage` in composer package definition."
        },
        {
          "url": "https://github.com/symfony/polyfill-mbstring/tree/v1.25.0",
          "type": "distribution",
          "comment": "As set via `support.source` in composer package definition."
        },
        {
          "url": "https://symfony.com/sponsor",
          "type": "other",
          "comment": "As set via `funding` in composer package definition. (type=custom)"
        },
        {
          "url": "https://github.com/fabpot",
          "type": "other",
          "comment": "As set via `funding` in composer package definition. (type=github)"
        },
        {
          "url": "https://tidelift.com/funding/github/packagist/symfony/symfony",
          "type": "other",
          "comment": "As set via `funding` in composer package definition. (type=tidelift)"
        }
      ]
    },
    {
      "type": "library",
      "bom-ref": "pkg:composer/symfony/polyfill-mbstring@1.19.0",
      "group": "symfony",
      "name": "polyfill-mbstring",
      "version": "1.19.0",
      "description": "Symfony polyfill for the Mbstring extension",
      "licenses": [
        {
          "license": {
            "id": "MIT",
            "url": "https://opensource.org/licenses/MIT"
          }
        }
      ],
      "purl": "pkg:composer/symfony/polyfill-mbstring@1.19.0",
      "externalReferences": [
        {
          "url": "https://github.com/symfony/polyfill-mbstring.git",
          "type": "vcs"
        }
      ]
    }
  ],
  "dependencies": [
    {
      "ref": "pkg:composer/cyclonedx/cyclonedx-library@1.5.0",
      "dependsOn": [
        "pkg:composer/package-url/packageurl-php@1.0.4",
        "pkg:composer/swaggest/json-schema@0.12.39"
      ]
    },
    {
      "ref": "pkg:composer/cyclonedx/cyclonedx-php-composer@3.10.0",
      "dependsOn": [
        "pkg:composer/cyclonedx/cyclonedx-library@1.5.0",
        "pkg:composer/package-url/packageurl-php@1.0.4"
      ]
    },
    {
      "ref": "pkg:composer/package-url/packageurl-php@1.0.4"
    },
    {
      "ref": "pkg:composer/phplang/scope-exit@1.0.0"
    },
    {
      "ref": "pkg:composer/swaggest/json-diff@3.8.3"
    },
    {
      "ref": "pkg:composer/swaggest/json-schema@0.12.39",
      "dependsOn": [
        "pkg:composer/phplang/scope-exit@1.0.0",
        "pkg:composer/swaggest/json-diff@3.8.3",
        "pkg:composer/symfony/polyfill-mbstring@1.25.0"
      ]
    },
    {
      "ref": "pkg:composer/symfony/polyfill-mbstring@1.25.0"
    },
    {
      "ref": "pkg:composer/__root__@dev-master",
      "dependsOn": [
        "pkg:composer/cyclonedx/cyclonedx-php-composer@3.10.0"
      ]
    }
  ]
}
