{
  "bomFormat": "CycloneDX",
  "specVersion": "1.3",
  "version": 1,
  "metadata": {
    "tools": [
      {
        "vendor": "AppThreat",
        "name": "cdxgen",
        "version": "3.0.10"
      },
      {
        "vendor": "Fortress Information Security",
        "name": "Github Extractor",
        "version": "1.15.1"
      }
    ],
    "authors": [
      {
        "name": "Fortress Information Security",
        "email": "sales@fortressinfosec.com",
        "phone": "1-407-573-6800"
      }
    ],
    "timestamp": "2022-06-01T21:00:00Z",
    "component": {
      "type": "application",
      "name": "ffmpeg-python",
      "version": "",
      "group": "kkroening",
      "externalReferences": [
        {
          "url": "https://github.com/kkroening/ffmpeg-python.git",
          "type": "distribution"
        },
        {
          "type": "website",
          "url": "null",
          "comment": "As set via `homepage` in Github API"
        }
      ]
    }
  },
  "components": [
    {
      "type": "library",
      "publisher": "Python Packaging Authority",
      "name": "setuptools",
      "version": "62.1.0",
      "description": "Easily download, build, install, upgrade, and uninstall Python packages",
      "hashes": [
        {
          "alg": "MD5",
          "content": "101d2e2bf9b7682ab90d9a7bd487bdbe"
        },
        {
          "alg": "SHA-256",
          "content": "26ead7d1f93efc0f8c804d9fafafbe4a44b179580a7105754b245155f9af05a8"
        }
      ],
      "purl": "pkg:pypi/setuptools@62.1.0",
      "modified": false
    },
    {
      "type": "library",
      "publisher": "Ed Schofield",
      "name": "past",
      "version": "0.11.1",
      "description": "[Experimental] Run Python 2 code from Python 3",
      "licenses": [
        {
          "license": {
            "name": "MIT"
          }
        }
      ],
      "purl": "pkg:pypi/past@0.11.1",
      "modified": false
    },
    {
      "type": "library",
      "name": "hashlib",
      "version": "20081119",
      "description": "Secure hash and message digest algorithm library",
      "hashes": [
        {
          "alg": "MD5",
          "content": "46e59db6d5cac34b3344ef0c30d0897f"
        },
        {
          "alg": "SHA-256",
          "content": "419de2fd10ae71ed9c6adcb55903f116abd1d8acc8c814dfd5f839b4d5013e38"
        }
      ],
      "purl": "pkg:pypi/hashlib@20081119",
      "modified": false
    },
    {
      "type": "library",
      "publisher": "Dima Dorfman",
      "name": "functools",
      "version": "0.5",
      "description": "Fast tools for functional programming",
      "hashes": [
        {
          "alg": "MD5",
          "content": "91111c28ee685a2f89f1a41e6f0ce8ea"
        },
        {
          "alg": "SHA-256",
          "content": "596ed8999dee419c0749a41bfdd82e4697e80ea27ee01c716003ef55be9a54c5"
        }
      ],
      "licenses": [
        {
          "license": {
            "name": "BSD"
          }
        }
      ],
      "purl": "pkg:pypi/functools@0.5",
      "modified": false
    },
    {
      "type": "library",
      "publisher": "Holger Krekel, Bruno Oliveira, Ronny Pfannschmidt, Floris Bruynooghe, Brianna Laugher, Florian Bruhin and others",
      "name": "pytest",
      "version": "7.1.2",
      "description": "pytest: simple powerful testing with Python",
      "hashes": [
        {
          "alg": "MD5",
          "content": "6f5a9e12007a2529cb00d3b5a8af33a1"
        },
        {
          "alg": "SHA-256",
          "content": "13d0e3ccfc2b6e26be000cb6568c832ba67ba32e719443bfe725814d3c42433c"
        }
      ],
      "licenses": [
        {
          "license": {
            "name": "MIT"
          }
        }
      ],
      "purl": "pkg:pypi/pytest@7.1.2",
      "modified": false
    },
    {
      "type": "library",
      "publisher": "IPython Development Team",
      "name": "ipywidgets",
      "version": "7.7.0",
      "description": "IPython HTML widgets for Jupyter",
      "hashes": [
        {
          "alg": "MD5",
          "content": "c9e30dc5687d1f6b104b95c75390610a"
        },
        {
          "alg": "SHA-256",
          "content": "e58ff58bc94d481e91ecb6e13a5cb96a87b6b8ade135e055603d0ca24593df38"
        }
      ],
      "licenses": [
        {
          "license": {
            "name": "BSD"
          }
        }
      ],
      "purl": "pkg:pypi/ipywidgets@7.7.0",
      "modified": false
    },
    {
      "type": "library",
      "publisher": "John D. Hunter, Michael Droettboom",
      "name": "matplotlib",
      "version": "3.5.2",
      "description": "Python plotting package",
      "hashes": [
        {
          "alg": "MD5",
          "content": "36ccc2efc47ed886836b2c7c3d3b9b3a"
        },
        {
          "alg": "SHA-256",
          "content": "24173c23d1bcbaed5bf47b8785d27933a1ac26a5d772200a0f3e0e38f471b001"
        }
      ],
      "licenses": [
        {
          "license": {
            "name": "PSF"
          }
        }
      ],
      "purl": "pkg:pypi/matplotlib@3.5.2",
      "modified": false
    },
    {
      "type": "library",
      "publisher": "Travis E. Oliphant et al.",
      "name": "numpy",
      "version": "1.22.3",
      "description": "NumPy is the fundamental package for array computing with Python.",
      "hashes": [
        {
          "alg": "MD5",
          "content": "99d2dfb943327b108b2c3b923bd42000"
        },
        {
          "alg": "SHA-256",
          "content": "c34ea7e9d13a70bf2ab64a2532fe149a9aced424cd05a2c4ba662fd989e3e45f"
        }
      ],
      "licenses": [
        {
          "license": {
            "name": "BSD"
          }
        }
      ],
      "purl": "pkg:pypi/numpy@1.22.3",
      "modified": false
    },
    {
      "type": "library",
      "name": "io",
      "version": "0.0.1",
      "purl": "pkg:pypi/io@0.0.1",
      "modified": false
    },
    {
      "type": "library",
      "publisher": "Secret Labs AB (PythonWare)",
      "name": "PIL",
      "version": "1.1.6",
      "description": "Python Imaging Library",
      "licenses": [
        {
          "license": {
            "name": "Python (MIT style)"
          }
        }
      ],
      "purl": "pkg:pypi/pil@1.1.6",
      "modified": false
    },
    {
      "type": "library",
      "publisher": "Thomas Waldmann",
      "name": "argparse",
      "version": "1.4.0",
      "description": "Python command-line parsing library",
      "hashes": [
        {
          "alg": "MD5",
          "content": "c37216a954c8669054e2b2c54853dd49"
        },
        {
          "alg": "SHA-256",
          "content": "c31647edb69fd3d465a847ea3157d37bed1f95f19760b11a47aa91c04b666314"
        }
      ],
      "licenses": [
        {
          "license": {
            "name": "Python Software Foundation License"
          }
        }
      ],
      "purl": "pkg:pypi/argparse@1.4.0",
      "modified": false
    },
    {
      "type": "library",
      "publisher": "Vinay Sajip",
      "name": "logging",
      "version": "0.4.9.6",
      "description": "A logging module for Python",
      "hashes": [
        {
          "alg": "MD5",
          "content": "dc0a7ebc8b8970263911e11e7b7e1ca8"
        },
        {
          "alg": "SHA-256",
          "content": "26f6b50773f085042d301085bd1bf5d9f3735704db9f37c1ce6d8b85c38f2417"
        }
      ],
      "licenses": [
        {
          "license": {
            "name": "Copyright (C) 2001-2005 by Vinay Sajip. All Rights Reserved. See LICENSE for license."
          }
        }
      ],
      "purl": "pkg:pypi/logging@0.4.9.6",
      "modified": false
    },
    {
      "type": "library",
      "publisher": "Google Inc.",
      "name": "tensorflow",
      "version": "2.8.0",
      "description": "TensorFlow is an open source machine learning framework for everyone.",
      "hashes": [
        {
          "alg": "MD5",
          "content": "198e5d8efbc7b35d8e2b503eaeb7d2c7"
        },
        {
          "alg": "SHA-256",
          "content": "b360c13b3e58b9a5c0780cbdb6b549eea73f620275fa203f8508fe418ae02735"
        }
      ],
      "licenses": [
        {
          "license": {
            "name": "Apache 2.0"
          }
        }
      ],
      "purl": "pkg:pypi/tensorflow@2.8.0",
      "modified": false
    },
    {
      "type": "library",
      "name": "tqdm",
      "version": "4.64.0",
      "description": "Fast, Extensible Progress Meter",
      "hashes": [
        {
          "alg": "MD5",
          "content": "67cd3830694b2a7e577d0db9e52a7830"
        },
        {
          "alg": "SHA-256",
          "content": "74a2cdefe14d11442cedf3ba4e21a3b84ff9a2dbdc6cfae2c34addb2a14a5ea6"
        }
      ],
      "licenses": [
        {
          "license": {
            "name": "MPLv2.0, MIT Licences"
          }
        }
      ],
      "purl": "pkg:pypi/tqdm@4.64.0",
      "modified": false
    },
    {
      "type": "library",
      "publisher": "Denis Bilenko",
      "name": "gevent",
      "version": "21.12.0",
      "description": "Coroutine-based network library",
      "hashes": [
        {
          "alg": "MD5",
          "content": "6f5a336733aed2a0eab175b0d4d7c8e7"
        },
        {
          "alg": "SHA-256",
          "content": "9f9652d1e4062d4b5b5a0a49ff679fa890430b5f76969d35dccb2df114c55e0f"
        }
      ],
      "licenses": [
        {
          "license": {
            "name": "MIT"
          }
        }
      ],
      "purl": "pkg:pypi/gevent@21.12.0",
      "modified": false
    },
    {
      "type": "library",
      "publisher": "Mario Vilas",
      "name": "google",
      "version": "3.0.0",
      "description": "Python bindings to the Google search engine.",
      "hashes": [
        {
          "alg": "MD5",
          "content": "30c719790d3e7e57e9482d108eda355c"
        },
        {
          "alg": "SHA-256",
          "content": "889cf695f84e4ae2c55fbc0cfdaf4c1e729417fa52ab1db0485202ba173e4935"
        }
      ],
      "purl": "pkg:pypi/google@3.0.0",
      "modified": false
    },
    {
      "type": "library",
      "bom-ref": "pkg:pypi/ffmpeg-python@0.2.0",
      "group": "",
      "name": "ffmpeg-python",
      "version": "0.2.0",
      "description": "Python bindings for FFmpeg - with complex filtering support",
      "hashes": [
        {
          "alg": "SHA-256",
          "content": "ac441a0404e053f8b6a1113a77c0f452f1cfc62f6344a769475ffdc0f56c23c5"
        }
      ],
      "purl": "pkg:pypi/ffmpeg-python@0.2.0",
      "externalReferences": [
        {
          "url": "https://github.com/kkroening/ffmpeg-python",
          "type": "vcs"
        }
      ]
    },
    {
      "type": "library",
      "bom-ref": "pkg:pypi/google-cloud-speech@2.13.1",
      "group": "",
      "name": "google-cloud-speech",
      "version": "2.13.1",
      "description": "Google Cloud Speech API client library",
      "hashes": [
        {
          "alg": "SHA-256",
          "content": "77af160d53933bf35d637e18f193c8ab57505120b3aabc089a7d6c80801056e0"
        }
      ],
      "licenses": [
        {
          "license": {
            "id": "Apache-2.0",
            "url": "https://opensource.org/licenses/Apache-2.0"
          }
        }
      ],
      "purl": "pkg:pypi/google-cloud-speech@2.13.1",
      "externalReferences": [
        {
          "url": "https://github.com/googleapis/python-speech",
          "type": "vcs"
        }
      ]
    },
    {
      "type": "library",
      "bom-ref": "pkg:pypi/graphviz@0.20",
      "group": "",
      "name": "graphviz",
      "version": "0.20",
      "description": "Simple Python interface for Graphviz",
      "hashes": [
        {
          "alg": "SHA-256",
          "content": "62c5f48bcc534a45b4588c548ff75e419c1f1f3a33d31a91796ae80a7f581e4a"
        }
      ],
      "licenses": [
        {
          "license": {
            "id": "MIT",
            "url": "https://opensource.org/licenses/MIT"
          }
        }
      ],
      "purl": "pkg:pypi/graphviz@0.20",
      "externalReferences": [
        {
          "url": "https://github.com/xflr6/graphviz",
          "type": "vcs"
        }
      ]
    },
    {
      "type": "library",
      "bom-ref": "pkg:pypi/jupyter@1.0.0",
      "group": "",
      "name": "jupyter",
      "version": "1.0.0",
      "description": "Jupyter metapackage. Install all the Jupyter components in one go.",
      "hashes": [
        {
          "alg": "SHA-256",
          "content": "5b290f93b98ffbc21c0c7e749f054b3267782166d72fa5e3ed1ed4eaf34a2b78"
        }
      ],
      "licenses": [
        {
          "license": {
            "id": "0BSD",
            "url": "https://opensource.org/licenses/0BSD"
          }
        }
      ],
      "purl": "pkg:pypi/jupyter@1.0.0",
      "externalReferences": [
        {
          "url": "http://jupyter.org",
          "type": "website"
        }
      ]
    },
    {
      "type": "library",
      "bom-ref": "pkg:pypi/pillow@9.1.0",
      "group": "",
      "name": "Pillow",
      "version": "9.1.0",
      "description": "Python Imaging Library (Fork)",
      "hashes": [
        {
          "alg": "SHA-256",
          "content": "af79d3fde1fc2e33561166d62e3b63f0cc3e47b5a3a2e5fea40d4917754734ea"
        }
      ],
      "licenses": [
        {
          "license": {
            "id": "HPND",
            "url": "https://opensource.org/licenses/HPND"
          }
        }
      ],
      "purl": "pkg:pypi/pillow@9.1.0",
      "externalReferences": [
        {
          "url": "https://python-pillow.org",
          "type": "website"
        }
      ]
    },
    {
      "type": "library",
      "bom-ref": "pkg:pypi/alabaster@0.7.12",
      "group": "",
      "name": "alabaster",
      "version": "0.7.12",
      "description": "A configurable sidebar-enabled Sphinx theme",
      "hashes": [
        {
          "alg": "SHA-256",
          "content": "446438bdcca0e05bd45ea2de1668c1d9b032e1a9154c2c259092d77031ddd359"
        }
      ],
      "purl": "pkg:pypi/alabaster@0.7.12",
      "externalReferences": [
        {
          "url": "https://alabaster.readthedocs.io",
          "type": "website"
        }
      ]
    },
    {
      "type": "library",
      "bom-ref": "pkg:pypi/atomicwrites@1.3.0",
      "group": "",
      "name": "atomicwrites",
      "version": "1.3.0",
      "description": "Atomic file writes.",
      "hashes": [
        {
          "alg": "SHA-256",
          "content": "03472c30eb2c5d1ba9227e4c2ca66ab8287fbfbbda3888aa93dc2e28fc6811b4"
        }
      ],
      "licenses": [
        {
          "license": {
            "id": "MIT",
            "url": "https://opensource.org/licenses/MIT"
          }
        }
      ],
      "purl": "pkg:pypi/atomicwrites@1.3.0",
      "externalReferences": [
        {
          "url": "https://github.com/untitaker/python-atomicwrites",
          "type": "vcs"
        }
      ]
    },
    {
      "type": "library",
      "bom-ref": "pkg:pypi/attrs@19.1.0",
      "group": "",
      "name": "attrs",
      "version": "19.1.0",
      "description": "Classes Without Boilerplate",
      "hashes": [
        {
          "alg": "SHA-256",
          "content": "69c0dbf2ed392de1cb5ec704444b08a5ef81680a61cb899dc08127123af36a79"
        }
      ],
      "licenses": [
        {
          "license": {
            "id": "MIT",
            "url": "https://opensource.org/licenses/MIT"
          }
        }
      ],
      "purl": "pkg:pypi/attrs@19.1.0",
      "externalReferences": [
        {
          "url": "https://www.attrs.org/",
          "type": "website"
        }
      ]
    },
    {
      "type": "library",
      "bom-ref": "pkg:pypi/babel@2.7.0",
      "group": "",
      "name": "Babel",
      "version": "2.7.0",
      "description": "Internationalization utilities",
      "hashes": [
        {
          "alg": "SHA-256",
          "content": "af92e6106cb7c55286b25b38ad7695f8b4efb36a90ba483d7f7a6628c46158ab"
        }
      ],
      "licenses": [
        {
          "license": {
            "id": "0BSD",
            "url": "https://opensource.org/licenses/0BSD"
          }
        }
      ],
      "purl": "pkg:pypi/babel@2.7.0",
      "externalReferences": [
        {
          "url": "https://babel.pocoo.org/",
          "type": "website"
        }
      ]
    },
    {
      "type": "library",
      "bom-ref": "pkg:pypi/certifi@2019.3.9",
      "group": "",
      "name": "certifi",
      "version": "2019.3.9",
      "description": "Python package for providing Mozilla's CA Bundle.",
      "hashes": [
        {
          "alg": "SHA-256",
          "content": "59b7658e26ca9c7339e00f8f4636cdfe59d34fa37b9b04f6f9e9926b3cece1a5"
        }
      ],
      "licenses": [
        {
          "license": {
            "id": "MPL-2.0",
            "url": "https://opensource.org/licenses/MPL-2.0"
          }
        }
      ],
      "purl": "pkg:pypi/certifi@2019.3.9",
      "externalReferences": [
        {
          "url": "https://certifiio.readthedocs.io/en/latest/",
          "type": "website"
        }
      ]
    },
    {
      "type": "library",
      "bom-ref": "pkg:pypi/chardet@3.0.4",
      "group": "",
      "name": "chardet",
      "version": "3.0.4",
      "description": "Universal encoding detector for Python 2 and 3",
      "hashes": [
        {
          "alg": "SHA-256",
          "content": "fc323ffcaeaed0e0a02bf4d117757b98aed530d9ed4531e3e15460124c106691"
        }
      ],
      "licenses": [
        {
          "license": {
            "name": "LGPL"
          }
        }
      ],
      "purl": "pkg:pypi/chardet@3.0.4",
      "externalReferences": [
        {
          "url": "https://github.com/chardet/chardet",
          "type": "vcs"
        }
      ]
    },
    {
      "type": "library",
      "bom-ref": "pkg:pypi/docutils@0.14",
      "group": "",
      "name": "docutils",
      "version": "0.14",
      "description": "Docutils -- Python Documentation Utilities",
      "hashes": [
        {
          "alg": "SHA-256",
          "content": "7a4bd47eaf6596e1295ecb11361139febe29b084a87bf005bf899f9a42edc3c6"
        }
      ],
      "licenses": [
        {
          "license": {
            "name": "public domain, Python, 2-Clause BSD, GPL 3 (see COPYING.txt)"
          }
        }
      ],
      "purl": "pkg:pypi/docutils@0.14",
      "externalReferences": [
        {
          "url": "http://docutils.sourceforge.net/",
          "type": "website"
        }
      ]
    },
    {
      "type": "library",
      "bom-ref": "pkg:pypi/filelock@3.0.12",
      "group": "",
      "name": "filelock",
      "version": "3.0.12",
      "description": "A platform independent file lock.",
      "hashes": [
        {
          "alg": "SHA-256",
          "content": "929b7d63ec5b7d6b71b0fa5ac14e030b3f70b75747cef1b10da9b879fef15836"
        }
      ],
      "licenses": [
        {
          "license": {
            "id": "Unlicense",
            "url": "https://opensource.org/licenses/Unlicense"
          }
        }
      ],
      "purl": "pkg:pypi/filelock@3.0.12",
      "externalReferences": [
        {
          "url": "https://github.com/tox-dev/py-filelock",
          "type": "vcs"
        }
      ]
    },
    {
      "type": "library",
      "bom-ref": "pkg:pypi/future@0.17.1",
      "group": "",
      "name": "future",
      "version": "0.17.1",
      "description": "Clean single-source support for Python 3 and 2",
      "hashes": [
        {
          "alg": "SHA-256",
          "content": "67045236dcfd6816dc439556d009594abf643e5eb48992e36beac09c2ca659b8"
        }
      ],
      "licenses": [
        {
          "license": {
            "id": "MIT",
            "url": "https://opensource.org/licenses/MIT"
          }
        }
      ],
      "purl": "pkg:pypi/future@0.17.1",
      "externalReferences": [
        {
          "url": "https://python-future.org",
          "type": "website"
        }
      ]
    },
    {
      "type": "library",
      "bom-ref": "pkg:pypi/idna@2.8",
      "group": "",
      "name": "idna",
      "version": "2.8",
      "description": "Internationalized Domain Names in Applications (IDNA)",
      "hashes": [
        {
          "alg": "SHA-256",
          "content": "ea8b7f6188e6fa117537c3df7da9fc686d485087abf6ac197f9c46432f7e4a3c"
        }
      ],
      "licenses": [
        {
          "license": {
            "id": "BSD-3-Clause",
            "url": "https://opensource.org/licenses/BSD-3-Clause"
          }
        }
      ],
      "purl": "pkg:pypi/idna@2.8",
      "externalReferences": [
        {
          "url": "https://github.com/kjd/idna",
          "type": "vcs"
        }
      ]
    },
    {
      "type": "library",
      "bom-ref": "pkg:pypi/imagesize@1.1.0",
      "group": "",
      "name": "imagesize",
      "version": "1.1.0",
      "description": "Getting image size from png/jpeg/jpeg2000/gif file",
      "hashes": [
        {
          "alg": "SHA-256",
          "content": "3f349de3eb99145973fefb7dbe38554414e5c30abd0c8e4b970a7c9d09f3a1d8"
        }
      ],
      "licenses": [
        {
          "license": {
            "id": "MIT",
            "url": "https://opensource.org/licenses/MIT"
          }
        }
      ],
      "purl": "pkg:pypi/imagesize@1.1.0",
      "externalReferences": [
        {
          "url": "https://github.com/shibukawa/imagesize_py",
          "type": "vcs"
        }
      ]
    },
    {
      "type": "library",
      "bom-ref": "pkg:pypi/importlib-metadata@0.17",
      "group": "",
      "name": "importlib-metadata",
      "version": "0.17",
      "description": "Read metadata from Python packages",
      "hashes": [
        {
          "alg": "SHA-256",
          "content": "df1403cd3aebeb2b1dcd3515ca062eecb5bd3ea7611f18cba81130c68707e879"
        }
      ],
      "purl": "pkg:pypi/importlib-metadata@0.17",
      "externalReferences": [
        {
          "url": "https://github.com/python/importlib_metadata",
          "type": "vcs"
        }
      ]
    },
    {
      "type": "library",
      "bom-ref": "pkg:pypi/jinja2@2.10.1",
      "group": "",
      "name": "Jinja2",
      "version": "2.10.1",
      "description": "A very fast and expressive template engine.",
      "hashes": [
        {
          "alg": "SHA-256",
          "content": "14dd6caf1527abb21f08f86c784eac40853ba93edb79552aa1e4b8aef1b61c7b"
        }
      ],
      "licenses": [
        {
          "license": {
            "id": "BSD-3-Clause",
            "url": "https://opensource.org/licenses/BSD-3-Clause"
          }
        }
      ],
      "purl": "pkg:pypi/jinja2@2.10.1",
      "externalReferences": [
        {
          "url": "https://palletsprojects.com/p/jinja/",
          "type": "website"
        }
      ]
    },
    {
      "type": "library",
      "bom-ref": "pkg:pypi/markupsafe@1.1.1",
      "group": "",
      "name": "MarkupSafe",
      "version": "1.1.1",
      "description": "Safely add untrusted strings to HTML/XML markup.",
      "hashes": [
        {
          "alg": "SHA-256",
          "content": "09027a7803a62ca78792ad89403b1b7a73a01c8cb65909cd876f7fcebd79b161"
        }
      ],
      "licenses": [
        {
          "license": {
            "id": "BSD-3-Clause",
            "url": "https://opensource.org/licenses/BSD-3-Clause"
          }
        }
      ],
      "purl": "pkg:pypi/markupsafe@1.1.1",
      "externalReferences": [
        {
          "url": "https://palletsprojects.com/p/markupsafe/",
          "type": "website"
        }
      ]
    },
    {
      "type": "library",
      "bom-ref": "pkg:pypi/more-itertools@7.0.0",
      "group": "",
      "name": "more-itertools",
      "version": "7.0.0",
      "description": "More routines for operating on iterables, beyond itertools",
      "hashes": [
        {
          "alg": "SHA-256",
          "content": "2112d2ca570bb7c3e53ea1a35cd5df42bb0fd10c45f0fb97178679c3c03d64c7"
        }
      ],
      "licenses": [
        {
          "license": {
            "id": "MIT",
            "url": "https://opensource.org/licenses/MIT"
          }
        }
      ],
      "purl": "pkg:pypi/more-itertools@7.0.0",
      "externalReferences": [
        {
          "url": "https://github.com/more-itertools/more-itertools",
          "type": "vcs"
        }
      ]
    },
    {
      "type": "library",
      "bom-ref": "pkg:pypi/numpy@1.16.4",
      "group": "",
      "name": "numpy",
      "version": "1.16.4",
      "description": "NumPy is the fundamental package for array computing with Python.",
      "hashes": [
        {
          "alg": "SHA-256",
          "content": "b5554368e4ede1856121b0dfa35ce71768102e4aa55e526cb8de7f374ff78722"
        }
      ],
      "licenses": [
        {
          "license": {
            "id": "0BSD",
            "url": "https://opensource.org/licenses/0BSD"
          }
        }
      ],
      "purl": "pkg:pypi/numpy@1.16.4",
      "externalReferences": [
        {
          "url": "https://www.numpy.org",
          "type": "website"
        }
      ]
    },
    {
      "type": "library",
      "bom-ref": "pkg:pypi/packaging@19.0",
      "group": "",
      "name": "packaging",
      "version": "19.0",
      "description": "Core utilities for Python packages",
      "hashes": [
        {
          "alg": "SHA-256",
          "content": "9e1cbf8c12b1f1ce0bb5344b8d7ecf66a6f8a6e91bcb0c84593ed6d3ab5c4ab3"
        }
      ],
      "licenses": [
        {
          "license": {
            "name": "BSD-2-Clause or Apache-2.0"
          }
        }
      ],
      "purl": "pkg:pypi/packaging@19.0",
      "externalReferences": [
        {
          "url": "https://github.com/pypa/packaging",
          "type": "vcs"
        }
      ]
    },
    {
      "type": "library",
      "bom-ref": "pkg:pypi/pluggy@0.12.0",
      "group": "",
      "name": "pluggy",
      "version": "0.12.0",
      "description": "plugin and hook calling mechanisms for python",
      "hashes": [
        {
          "alg": "SHA-256",
          "content": "b9817417e95936bf75d85d3f8767f7df6cdde751fc40aed3bb3074cbcb77757c"
        }
      ],
      "licenses": [
        {
          "license": {
            "id": "MIT",
            "url": "https://opensource.org/licenses/MIT"
          }
        }
      ],
      "purl": "pkg:pypi/pluggy@0.12.0",
      "externalReferences": [
        {
          "url": "https://github.com/pytest-dev/pluggy",
          "type": "vcs"
        }
      ]
    },
    {
      "type": "library",
      "bom-ref": "pkg:pypi/py@1.8.0",
      "group": "",
      "name": "py",
      "version": "1.8.0",
      "description": "library with cross-python path, ini-parsing, io, code, log facilities",
      "hashes": [
        {
          "alg": "SHA-256",
          "content": "64f65755aee5b381cea27766a3a147c3f15b9b6b9ac88676de66ba2ae36793fa"
        }
      ],
      "licenses": [
        {
          "license": {
            "id": "MIT",
            "url": "https://opensource.org/licenses/MIT"
          }
        }
      ],
      "purl": "pkg:pypi/py@1.8.0",
      "externalReferences": [
        {
          "url": "https://py.readthedocs.io/",
          "type": "website"
        }
      ]
    },
    {
      "type": "library",
      "bom-ref": "pkg:pypi/pygments@2.4.2",
      "group": "",
      "name": "Pygments",
      "version": "2.4.2",
      "description": "Pygments is a syntax highlighting package written in Python.",
      "hashes": [
        {
          "alg": "SHA-256",
          "content": "71e430bc85c88a430f000ac1d9b331d2407f681d6f6aec95e8bcfbc3df5b0127"
        }
      ],
      "licenses": [
        {
          "license": {
            "name": "BSD License"
          }
        }
      ],
      "purl": "pkg:pypi/pygments@2.4.2",
      "externalReferences": [
        {
          "url": "https://pygments.org/",
          "type": "website"
        }
      ]
    },
    {
      "type": "library",
      "bom-ref": "pkg:pypi/pyparsing@2.4.0",
      "group": "",
      "name": "pyparsing",
      "version": "2.4.0",
      "description": "pyparsing module - Classes and methods to define and execute parsing grammars",
      "hashes": [
        {
          "alg": "SHA-256",
          "content": "9b6323ef4ab914af344ba97510e966d64ba91055d6b9afa6b30799340e89cc03"
        }
      ],
      "purl": "pkg:pypi/pyparsing@2.4.0"
    },
    {
      "type": "library",
      "bom-ref": "pkg:pypi/pytest@4.6.1",
      "group": "",
      "name": "pytest",
      "version": "4.6.1",
      "description": "pytest: simple powerful testing with Python",
      "hashes": [
        {
          "alg": "SHA-256",
          "content": "8304c2f6466cf48f24631263d60320a1996668acfd659d8fa5e5e8f28129e1cd"
        }
      ],
      "licenses": [
        {
          "license": {
            "id": "MIT",
            "url": "https://opensource.org/licenses/MIT"
          }
        }
      ],
      "purl": "pkg:pypi/pytest@4.6.1",
      "externalReferences": [
        {
          "url": "https://docs.pytest.org/en/latest/",
          "type": "website"
        }
      ]
    },
    {
      "type": "library",
      "bom-ref": "pkg:pypi/pytest-mock@1.10.4",
      "group": "",
      "name": "pytest-mock",
      "version": "1.10.4",
      "description": "Thin-wrapper around the mock package for easier use with pytest",
      "hashes": [
        {
          "alg": "SHA-256",
          "content": "43ce4e9dd5074993e7c021bb1c22cbb5363e612a2b5a76bc6d956775b10758b7"
        }
      ],
      "licenses": [
        {
          "license": {
            "id": "MIT",
            "url": "https://opensource.org/licenses/MIT"
          }
        }
      ],
      "purl": "pkg:pypi/pytest-mock@1.10.4",
      "externalReferences": [
        {
          "url": "https://github.com/pytest-dev/pytest-mock/",
          "type": "vcs"
        }
      ]
    },
    {
      "type": "library",
      "bom-ref": "pkg:pypi/pytz@2019.1",
      "group": "",
      "name": "pytz",
      "version": "2019.1",
      "description": "World timezone definitions, modern and historical",
      "hashes": [
        {
          "alg": "SHA-256",
          "content": "303879e36b721603cc54604edcac9d20401bdbe31e1e4fdee5b9f98d5d31dfda"
        }
      ],
      "licenses": [
        {
          "license": {
            "id": "MIT",
            "url": "https://opensource.org/licenses/MIT"
          }
        }
      ],
      "purl": "pkg:pypi/pytz@2019.1",
      "externalReferences": [
        {
          "url": "http://pythonhosted.org/pytz",
          "type": "website"
        }
      ]
    },
    {
      "type": "library",
      "bom-ref": "pkg:pypi/requests@2.22.0",
      "group": "",
      "name": "requests",
      "version": "2.22.0",
      "description": "Python HTTP for Humans.",
      "hashes": [
        {
          "alg": "SHA-256",
          "content": "9cf5292fcd0f598c671cfc1e0d7d1a7f13bb8085e9a590f48c010551dc6c4b31"
        }
      ],
      "licenses": [
        {
          "license": {
            "id": "Apache-2.0",
            "url": "https://opensource.org/licenses/Apache-2.0"
          }
        }
      ],
      "purl": "pkg:pypi/requests@2.22.0",
      "externalReferences": [
        {
          "url": "https://requests.readthedocs.io",
          "type": "website"
        }
      ]
    },
    {
      "type": "library",
      "bom-ref": "pkg:pypi/six@1.12.0",
      "group": "",
      "name": "six",
      "version": "1.12.0",
      "description": "Python 2 and 3 compatibility utilities",
      "hashes": [
        {
          "alg": "SHA-256",
          "content": "3350809f0555b11f552448330d0b52d5f24c91a322ea4a15ef22629740f3761c"
        }
      ],
      "licenses": [
        {
          "license": {
            "id": "MIT",
            "url": "https://opensource.org/licenses/MIT"
          }
        }
      ],
      "purl": "pkg:pypi/six@1.12.0",
      "externalReferences": [
        {
          "url": "https://github.com/benjaminp/six",
          "type": "vcs"
        }
      ]
    },
    {
      "type": "library",
      "bom-ref": "pkg:pypi/snowballstemmer@1.2.1",
      "group": "",
      "name": "snowballstemmer",
      "version": "1.2.1",
      "description": "This package provides 29 stemmers for 28 languages generated from Snowball algorithms.",
      "hashes": [
        {
          "alg": "SHA-256",
          "content": "9f3bcd3c401c3e862ec0ebe6d2c069ebc012ce142cce209c098ccb5b09136e89"
        }
      ],
      "licenses": [
        {
          "license": {
            "id": "BSD-3-Clause",
            "url": "https://opensource.org/licenses/BSD-3-Clause"
          }
        }
      ],
      "purl": "pkg:pypi/snowballstemmer@1.2.1",
      "externalReferences": [
        {
          "url": "https://github.com/snowballstem/snowball",
          "type": "vcs"
        }
      ]
    },
    {
      "type": "library",
      "bom-ref": "pkg:pypi/sphinx@2.1.0",
      "group": "",
      "name": "Sphinx",
      "version": "2.1.0",
      "description": "Python documentation generator",
      "hashes": [
        {
          "alg": "SHA-256",
          "content": "2c5becc0fd6706dc0aeb4703f9f1f8a1d1eecacf02e9ac5943cbae48b11e5e42"
        }
      ],
      "licenses": [
        {
          "license": {
            "id": "0BSD",
            "url": "https://opensource.org/licenses/0BSD"
          }
        }
      ],
      "purl": "pkg:pypi/sphinx@2.1.0",
      "externalReferences": [
        {
          "url": "https://www.sphinx-doc.org/",
          "type": "website"
        }
      ]
    },
    {
      "type": "library",
      "bom-ref": "pkg:pypi/sphinxcontrib-applehelp@1.0.1",
      "group": "",
      "name": "sphinxcontrib-applehelp",
      "version": "1.0.1",
      "description": "sphinxcontrib-applehelp is a sphinx extension which outputs Apple help books",
      "hashes": [
        {
          "alg": "SHA-256",
          "content": "fb8dee85af95e5c30c91f10e7eb3c8967308518e0f7488a2828ef7bc191d0d5d"
        }
      ],
      "licenses": [
        {
          "license": {
            "id": "0BSD",
            "url": "https://opensource.org/licenses/0BSD"
          }
        }
      ],
      "purl": "pkg:pypi/sphinxcontrib-applehelp@1.0.1",
      "externalReferences": [
        {
          "url": "http://sphinx-doc.org/",
          "type": "website"
        }
      ]
    },
    {
      "type": "library",
      "bom-ref": "pkg:pypi/sphinxcontrib-devhelp@1.0.1",
      "group": "",
      "name": "sphinxcontrib-devhelp",
      "version": "1.0.1",
      "description": "sphinxcontrib-devhelp is a sphinx extension which outputs Devhelp document.",
      "hashes": [
        {
          "alg": "SHA-256",
          "content": "9512ecb00a2b0821a146736b39f7aeb90759834b07e81e8cc23a9c70bacb9981"
        }
      ],
      "licenses": [
        {
          "license": {
            "id": "0BSD",
            "url": "https://opensource.org/licenses/0BSD"
          }
        }
      ],
      "purl": "pkg:pypi/sphinxcontrib-devhelp@1.0.1",
      "externalReferences": [
        {
          "url": "http://sphinx-doc.org/",
          "type": "website"
        }
      ]
    },
    {
      "type": "library",
      "bom-ref": "pkg:pypi/sphinxcontrib-htmlhelp@1.0.2",
      "group": "",
      "name": "sphinxcontrib-htmlhelp",
      "version": "1.0.2",
      "description": "sphinxcontrib-htmlhelp is a sphinx extension which renders HTML help files",
      "hashes": [
        {
          "alg": "SHA-256",
          "content": "d4fd39a65a625c9df86d7fa8a2d9f3cd8299a3a4b15db63b50aac9e161d8eff7"
        }
      ],
      "licenses": [
        {
          "license": {
            "id": "0BSD",
            "url": "https://opensource.org/licenses/0BSD"
          }
        }
      ],
      "purl": "pkg:pypi/sphinxcontrib-htmlhelp@1.0.2",
      "externalReferences": [
        {
          "url": "http://sphinx-doc.org/",
          "type": "website"
        }
      ]
    },
    {
      "type": "library",
      "bom-ref": "pkg:pypi/sphinxcontrib-jsmath@1.0.1",
      "group": "",
      "name": "sphinxcontrib-jsmath",
      "version": "1.0.1",
      "description": "A sphinx extension which renders display math in HTML via JavaScript",
      "hashes": [
        {
          "alg": "SHA-256",
          "content": "2ec2eaebfb78f3f2078e73666b1415417a116cc848b72e5172e596c871103178"
        }
      ],
      "licenses": [
        {
          "license": {
            "id": "0BSD",
            "url": "https://opensource.org/licenses/0BSD"
          }
        }
      ],
      "purl": "pkg:pypi/sphinxcontrib-jsmath@1.0.1",
      "externalReferences": [
        {
          "url": "http://sphinx-doc.org/",
          "type": "website"
        }
      ]
    },
    {
      "type": "library",
      "bom-ref": "pkg:pypi/sphinxcontrib-qthelp@1.0.2",
      "group": "",
      "name": "sphinxcontrib-qthelp",
      "version": "1.0.2",
      "description": "sphinxcontrib-qthelp is a sphinx extension which outputs QtHelp document.",
      "hashes": [
        {
          "alg": "SHA-256",
          "content": "513049b93031beb1f57d4daea74068a4feb77aa5630f856fcff2e50de14e9a20"
        }
      ],
      "licenses": [
        {
          "license": {
            "id": "0BSD",
            "url": "https://opensource.org/licenses/0BSD"
          }
        }
      ],
      "purl": "pkg:pypi/sphinxcontrib-qthelp@1.0.2",
      "externalReferences": [
        {
          "url": "http://sphinx-doc.org/",
          "type": "website"
        }
      ]
    },
    {
      "type": "library",
      "bom-ref": "pkg:pypi/sphinxcontrib-serializinghtml@1.1.3",
      "group": "",
      "name": "sphinxcontrib-serializinghtml",
      "version": "1.1.3",
      "description": "sphinxcontrib-serializinghtml is a sphinx extension which outputs \"serialized\" HTML files (json and pickle).",
      "hashes": [
        {
          "alg": "SHA-256",
          "content": "db6615af393650bf1151a6cd39120c29abaf93cc60db8c48eb2dddbfdc3a9768"
        }
      ],
      "licenses": [
        {
          "license": {
            "id": "0BSD",
            "url": "https://opensource.org/licenses/0BSD"
          }
        }
      ],
      "purl": "pkg:pypi/sphinxcontrib-serializinghtml@1.1.3",
      "externalReferences": [
        {
          "url": "http://sphinx-doc.org/",
          "type": "website"
        }
      ]
    },
    {
      "type": "library",
      "bom-ref": "pkg:pypi/toml@0.10.0",
      "group": "",
      "name": "toml",
      "version": "0.10.0",
      "description": "Python Library for Tom's Obvious, Minimal Language",
      "hashes": [
        {
          "alg": "SHA-256",
          "content": "f1db651f9657708513243e61e6cc67d101a39bad662eaa9b5546f789338e07a3"
        }
      ],
      "licenses": [
        {
          "license": {
            "id": "MIT",
            "url": "https://opensource.org/licenses/MIT"
          }
        }
      ],
      "purl": "pkg:pypi/toml@0.10.0",
      "externalReferences": [
        {
          "url": "https://github.com/uiri/toml",
          "type": "vcs"
        }
      ]
    },
    {
      "type": "library",
      "bom-ref": "pkg:pypi/tox@3.12.1",
      "group": "",
      "name": "tox",
      "version": "3.12.1",
      "description": "tox is a generic virtualenv management and test command line tool",
      "hashes": [
        {
          "alg": "SHA-256",
          "content": "f5c8e446b51edd2ea97df31d4ded8c8b72e7d6c619519da6bb6084b9dd5770f9"
        }
      ],
      "licenses": [
        {
          "license": {
            "id": "MIT",
            "url": "https://opensource.org/licenses/MIT"
          }
        }
      ],
      "purl": "pkg:pypi/tox@3.12.1",
      "externalReferences": [
        {
          "url": "https://tox.readthedocs.io",
          "type": "website"
        }
      ]
    },
    {
      "type": "library",
      "bom-ref": "pkg:pypi/urllib3@1.25.3",
      "group": "",
      "name": "urllib3",
      "version": "1.25.3",
      "description": "HTTP library with thread-safe connection pooling, file post, and more.",
      "hashes": [
        {
          "alg": "SHA-256",
          "content": "b246607a25ac80bedac05c6f282e3cdaf3afb65420fd024ac94435cabe6e18d1"
        }
      ],
      "licenses": [
        {
          "license": {
            "id": "MIT",
            "url": "https://opensource.org/licenses/MIT"
          }
        }
      ],
      "purl": "pkg:pypi/urllib3@1.25.3",
      "externalReferences": [
        {
          "url": "https://urllib3.readthedocs.io/",
          "type": "website"
        }
      ]
    },
    {
      "type": "library",
      "bom-ref": "pkg:pypi/virtualenv@16.6.0",
      "group": "",
      "name": "virtualenv",
      "version": "16.6.0",
      "description": "Virtual Python Environment builder",
      "hashes": [
        {
          "alg": "SHA-256",
          "content": "fe51cdbf04e5d8152af06c075404745a7419de27495a83f0d72518ad50be3ce8"
        }
      ],
      "licenses": [
        {
          "license": {
            "id": "MIT",
            "url": "https://opensource.org/licenses/MIT"
          }
        }
      ],
      "purl": "pkg:pypi/virtualenv@16.6.0",
      "externalReferences": [
        {
          "url": "https://virtualenv.pypa.io/",
          "type": "website"
        }
      ]
    },
    {
      "type": "library",
      "bom-ref": "pkg:pypi/wcwidth@0.1.7",
      "group": "",
      "name": "wcwidth",
      "version": "0.1.7",
      "description": "Measures the displayed width of unicode strings in a terminal",
      "hashes": [
        {
          "alg": "SHA-256",
          "content": "f4ebe71925af7b40a864553f761ed559b43544f8f71746c2d756c7fe788ade7c"
        }
      ],
      "licenses": [
        {
          "license": {
            "id": "MIT",
            "url": "https://opensource.org/licenses/MIT"
          }
        }
      ],
      "purl": "pkg:pypi/wcwidth@0.1.7",
      "externalReferences": [
        {
          "url": "https://github.com/jquast/wcwidth",
          "type": "vcs"
        }
      ]
    },
    {
      "type": "library",
      "bom-ref": "pkg:pypi/zipp@0.5.1",
      "group": "",
      "name": "zipp",
      "version": "0.5.1",
      "description": "Backport of pathlib-compatible object wrapper for zip files",
      "hashes": [
        {
          "alg": "SHA-256",
          "content": "8c1019c6aad13642199fbe458275ad6a84907634cc9f0989877ccc4a2840139d"
        }
      ],
      "purl": "pkg:pypi/zipp@0.5.1",
      "externalReferences": [
        {
          "url": "https://github.com/jaraco/zipp",
          "type": "vcs"
        }
      ]
    }
  ]
}
