{
  "bomFormat": "CycloneDX",
  "specVersion": "1.3",
  "version": 1,
  "metadata": {
    "tools": [
      {
        "vendor": "CycloneDX",
        "name": "Node.js module",
        "version": "3.0.3"
      },
      {
        "vendor": "AppThreat",
        "name": "cdxgen",
        "version": "3.0.10"
      },
      {
        "vendor": "Fortress Information Security",
        "name": "Github Extractor",
        "version": "1.15.1"
      }
    ],
    "authors": [
      {
        "name": "Fortress Information Security",
        "email": "sales@fortressinfosec.com",
        "phone": "1-407-573-6800"
      }
    ],
    "timestamp": "2022-06-01T21:00:00Z",
    "component": {
      "type": "application",
      "name": "chrome-devtools-zerodarkmatrix-theme",
      "version": "",
      "group": "mauricecruz",
      "externalReferences": [
        {
          "url": "https://github.com/mauricecruz/chrome-devtools-zerodarkmatrix-theme.git",
          "type": "distribution"
        },
        {
          "type": "website",
          "url": "null",
          "comment": "As set via `homepage` in Github API"
        }
      ]
    }
  },
  "components": [
    {
      "type": "library",
      "bom-ref": "pkg:npm/amdefine@1.0.1",
      "name": "amdefine",
      "version": "1.0.1",
      "description": "Provide AMD's define() API for declaring modules in the AMD format",
      "hashes": [
        {
          "alg": "SHA-1",
          "content": "4a5282ac164729e93619bcfd3ad151f817ce91f5"
        }
      ],
      "licenses": [
        {
          "license": {
            "name": "BSD-3-Clause OR MIT"
          }
        }
      ],
      "purl": "pkg:npm/amdefine@1.0.1",
      "externalReferences": [
        {
          "url": "http://github.com/jrburke/amdefine",
          "type": "website"
        },
        {
          "url": "https://github.com/jrburke/amdefine/issues",
          "type": "issue-tracker"
        },
        {
          "url": "git+https://github.com/jrburke/amdefine.git",
          "type": "vcs"
        }
      ]
    },
    {
      "type": "library",
      "bom-ref": "pkg:npm/abbrev@1.1.1",
      "name": "abbrev",
      "version": "1.1.1",
      "description": "Like ruby's abbrev module, but in js",
      "hashes": [
        {
          "alg": "SHA-1",
          "content": "f8f2c887ad10bf67f634f005b6987fed3179aac8"
        }
      ],
      "licenses": [
        {
          "license": {
            "id": "ISC"
          }
        }
      ],
      "purl": "pkg:npm/abbrev@1.1.1",
      "externalReferences": [
        {
          "url": "https://github.com/isaacs/abbrev-js#readme",
          "type": "website"
        },
        {
          "url": "https://github.com/isaacs/abbrev-js/issues",
          "type": "issue-tracker"
        },
        {
          "url": "git+ssh://git@github.com/isaacs/abbrev-js.git",
          "type": "vcs"
        }
      ]
    },
    {
      "type": "library",
      "bom-ref": "pkg:npm/asn1@0.2.6",
      "name": "asn1",
      "version": "0.2.6",
      "description": "Contains parsers and serializers for ASN.1 (currently BER only)",
      "hashes": [
        {
          "alg": "SHA-1",
          "content": "0d3a7bb6e64e02a90c0303b31f292868ea09a08d"
        }
      ],
      "licenses": [
        {
          "license": {
            "id": "MIT"
          }
        }
      ],
      "purl": "pkg:npm/asn1@0.2.6",
      "externalReferences": [
        {
          "url": "https://github.com/joyent/node-asn1#readme",
          "type": "website"
        },
        {
          "url": "https://github.com/joyent/node-asn1/issues",
          "type": "issue-tracker"
        },
        {
          "url": "git+https://github.com/joyent/node-asn1.git",
          "type": "vcs"
        }
      ]
    },
    {
      "type": "library",
      "bom-ref": "pkg:npm/safer-buffer@2.1.2",
      "name": "safer-buffer",
      "version": "2.1.2",
      "description": "Modern Buffer API polyfill without footguns",
      "hashes": [
        {
          "alg": "SHA-1",
          "content": "44fa161b0187b9549dd84bb91802f9bd8385cd6a"
        }
      ],
      "licenses": [
        {
          "license": {
            "id": "MIT"
          }
        }
      ],
      "purl": "pkg:npm/safer-buffer@2.1.2",
      "externalReferences": [
        {
          "url": "https://github.com/ChALkeR/safer-buffer#readme",
          "type": "website"
        },
        {
          "url": "https://github.com/ChALkeR/safer-buffer/issues",
          "type": "issue-tracker"
        },
        {
          "url": "git+https://github.com/ChALkeR/safer-buffer.git",
          "type": "vcs"
        }
      ]
    },
    {
      "type": "library",
      "bom-ref": "pkg:npm/asynckit@0.4.0",
      "name": "asynckit",
      "version": "0.4.0",
      "description": "Minimal async jobs utility library, with streams support",
      "hashes": [
        {
          "alg": "SHA-1",
          "content": "c79ed97f7f34cb8f2ba1bc9790bcc366474b4b79"
        }
      ],
      "licenses": [
        {
          "license": {
            "id": "MIT"
          }
        }
      ],
      "purl": "pkg:npm/asynckit@0.4.0",
      "externalReferences": [
        {
          "url": "https://github.com/alexindigo/asynckit#readme",
          "type": "website"
        },
        {
          "url": "https://github.com/alexindigo/asynckit/issues",
          "type": "issue-tracker"
        },
        {
          "url": "git+https://github.com/alexindigo/asynckit.git",
          "type": "vcs"
        }
      ]
    },
    {
      "type": "library",
      "bom-ref": "pkg:npm/aws-sign2@0.7.0",
      "name": "aws-sign2",
      "version": "0.7.0",
      "description": "AWS signing. Originally pulled from LearnBoost/knox, maintained as vendor in request, now a standalone module.",
      "hashes": [
        {
          "alg": "SHA-1",
          "content": "b46e890934a9591f2d2f6f86d7e6a9f1b3fe76a8"
        }
      ],
      "licenses": [
        {
          "license": {
            "id": "Apache-2.0"
          }
        }
      ],
      "purl": "pkg:npm/aws-sign2@0.7.0",
      "externalReferences": [
        {
          "url": "https://github.com/mikeal/aws-sign#readme",
          "type": "website"
        },
        {
          "url": "https://github.com/mikeal/aws-sign/issues",
          "type": "issue-tracker"
        },
        {
          "url": "git+https://github.com/mikeal/aws-sign.git",
          "type": "vcs"
        }
      ]
    },
    {
      "type": "library",
      "bom-ref": "pkg:npm/ajv@6.12.6",
      "name": "ajv",
      "version": "6.12.6",
      "description": "Another JSON Schema Validator",
      "hashes": [
        {
          "alg": "SHA-1",
          "content": "baf5a62e802b07d977034586f8c3baf5adf26df4"
        }
      ],
      "licenses": [
        {
          "license": {
            "id": "MIT"
          }
        }
      ],
      "purl": "pkg:npm/ajv@6.12.6",
      "externalReferences": [
        {
          "url": "https://github.com/ajv-validator/ajv",
          "type": "website"
        },
        {
          "url": "https://github.com/ajv-validator/ajv/issues",
          "type": "issue-tracker"
        },
        {
          "url": "git+https://github.com/ajv-validator/ajv.git",
          "type": "vcs"
        }
      ]
    },
    {
      "type": "library",
      "bom-ref": "pkg:npm/fast-deep-equal@3.1.3",
      "name": "fast-deep-equal",
      "version": "3.1.3",
      "description": "Fast deep equal",
      "hashes": [
        {
          "alg": "SHA-1",
          "content": "3a7d56b559d6cbc3eb512325244e619a65c6c525"
        }
      ],
      "licenses": [
        {
          "license": {
            "id": "MIT"
          }
        }
      ],
      "purl": "pkg:npm/fast-deep-equal@3.1.3",
      "externalReferences": [
        {
          "url": "https://github.com/epoberezkin/fast-deep-equal#readme",
          "type": "website"
        },
        {
          "url": "https://github.com/epoberezkin/fast-deep-equal/issues",
          "type": "issue-tracker"
        },
        {
          "url": "git+https://github.com/epoberezkin/fast-deep-equal.git",
          "type": "vcs"
        }
      ]
    },
    {
      "type": "library",
      "bom-ref": "pkg:npm/fast-json-stable-stringify@2.1.0",
      "name": "fast-json-stable-stringify",
      "version": "2.1.0",
      "description": "deterministic `JSON.stringify()` - a faster version of substack's json-stable-strigify without jsonify",
      "hashes": [
        {
          "alg": "SHA-1",
          "content": "874bf69c6f404c2b5d99c481341399fd55892633"
        }
      ],
      "licenses": [
        {
          "license": {
            "id": "MIT"
          }
        }
      ],
      "purl": "pkg:npm/fast-json-stable-stringify@2.1.0",
      "externalReferences": [
        {
          "url": "https://github.com/epoberezkin/fast-json-stable-stringify",
          "type": "website"
        },
        {
          "url": "https://github.com/epoberezkin/fast-json-stable-stringify/issues",
          "type": "issue-tracker"
        },
        {
          "url": "git://github.com/epoberezkin/fast-json-stable-stringify.git",
          "type": "vcs"
        }
      ]
    },
    {
      "type": "library",
      "bom-ref": "pkg:npm/json-schema-traverse@0.4.1",
      "name": "json-schema-traverse",
      "version": "0.4.1",
      "description": "Traverse JSON Schema passing each schema object to callback",
      "hashes": [
        {
          "alg": "SHA-1",
          "content": "69f6a87d9513ab8bb8fe63bdb0979c448e684660"
        }
      ],
      "licenses": [
        {
          "license": {
            "id": "MIT"
          }
        }
      ],
      "purl": "pkg:npm/json-schema-traverse@0.4.1",
      "externalReferences": [
        {
          "url": "https://github.com/epoberezkin/json-schema-traverse#readme",
          "type": "website"
        },
        {
          "url": "https://github.com/epoberezkin/json-schema-traverse/issues",
          "type": "issue-tracker"
        },
        {
          "url": "git+https://github.com/epoberezkin/json-schema-traverse.git",
          "type": "vcs"
        }
      ]
    },
    {
      "type": "library",
      "bom-ref": "pkg:npm/uri-js@4.4.1",
      "name": "uri-js",
      "version": "4.4.1",
      "description": "An RFC 3986/3987 compliant, scheme extendable URI/IRI parsing/validating/resolving library for JavaScript.",
      "hashes": [
        {
          "alg": "SHA-1",
          "content": "9b1a52595225859e55f669d928f88c6c57f2a77e"
        }
      ],
      "licenses": [
        {
          "license": {
            "id": "BSD-2-Clause"
          }
        }
      ],
      "purl": "pkg:npm/uri-js@4.4.1",
      "externalReferences": [
        {
          "url": "https://github.com/garycourt/uri-js",
          "type": "website"
        },
        {
          "url": "https://github.com/garycourt/uri-js/issues",
          "type": "issue-tracker"
        },
        {
          "url": "git+ssh://git@github.com/garycourt/uri-js.git",
          "type": "vcs"
        }
      ]
    },
    {
      "type": "library",
      "bom-ref": "pkg:npm/punycode@2.1.1",
      "name": "punycode",
      "version": "2.1.1",
      "description": "A robust Punycode converter that fully complies to RFC 3492 and RFC 5891, and works on nearly all JavaScript platforms.",
      "hashes": [
        {
          "alg": "SHA-1",
          "content": "b58b010ac40c22c5657616c8d2c2c02c7bf479ec"
        }
      ],
      "licenses": [
        {
          "license": {
            "id": "MIT"
          }
        }
      ],
      "purl": "pkg:npm/punycode@2.1.1",
      "externalReferences": [
        {
          "url": "https://mths.be/punycode",
          "type": "website"
        },
        {
          "url": "https://github.com/bestiejs/punycode.js/issues",
          "type": "issue-tracker"
        },
        {
          "url": "git+https://github.com/bestiejs/punycode.js.git",
          "type": "vcs"
        }
      ]
    },
    {
      "type": "library",
      "bom-ref": "pkg:npm/assert-plus@1.0.0",
      "name": "assert-plus",
      "version": "1.0.0",
      "description": "Extra assertions on top of node's assert module",
      "hashes": [
        {
          "alg": "SHA-1",
          "content": "f12e0f3c5d77b0b1cdd9146942e4e96c1e4dd525"
        }
      ],
      "licenses": [
        {
          "license": {
            "id": "MIT"
          }
        }
      ],
      "purl": "pkg:npm/assert-plus@1.0.0",
      "externalReferences": [
        {
          "url": "https://github.com/mcavage/node-assert-plus#readme",
          "type": "website"
        },
        {
          "url": "https://github.com/mcavage/node-assert-plus/issues",
          "type": "issue-tracker"
        },
        {
          "url": "git+https://github.com/mcavage/node-assert-plus.git",
          "type": "vcs"
        }
      ]
    },
    {
      "type": "library",
      "bom-ref": "pkg:npm/async@0.1.22",
      "name": "async",
      "version": "0.1.22",
      "description": "Higher-order functions and common patterns for asynchronous code",
      "hashes": [
        {
          "alg": "SHA-1",
          "content": "0fc1aaa088a0e3ef0ebe2d8831bab0dcf8845061"
        }
      ],
      "purl": "pkg:npm/async@0.1.22",
      "externalReferences": [
        {
          "url": "https://github.com/caolan/async#readme",
          "type": "website"
        },
        {
          "url": "http://github.com/caolan/async/issues",
          "type": "issue-tracker"
        },
        {
          "url": "git+ssh://git@github.com/caolan/async.git",
          "type": "vcs"
        }
      ]
    },
    {
      "type": "library",
      "bom-ref": "pkg:npm/aws4@1.11.0",
      "name": "aws4",
      "version": "1.11.0",
      "description": "Signs and prepares requests using AWS Signature Version 4",
      "hashes": [
        {
          "alg": "SHA-1",
          "content": "d61f46d83b2519250e2784daf5b09479a8b41c59"
        }
      ],
      "licenses": [
        {
          "license": {
            "id": "MIT"
          }
        }
      ],
      "purl": "pkg:npm/aws4@1.11.0",
      "externalReferences": [
        {
          "url": "https://github.com/mhart/aws4#readme",
          "type": "website"
        },
        {
          "url": "https://github.com/mhart/aws4/issues",
          "type": "issue-tracker"
        },
        {
          "url": "git+https://github.com/mhart/aws4.git",
          "type": "vcs"
        }
      ]
    },
    {
      "type": "library",
      "bom-ref": "pkg:npm/bcrypt-pbkdf@1.0.2",
      "name": "bcrypt-pbkdf",
      "version": "1.0.2",
      "description": "Port of the OpenBSD bcrypt_pbkdf function to pure JS",
      "hashes": [
        {
          "alg": "SHA-1",
          "content": "a4301d389b6a43f9b67ff3ca11a3f6637e360e9e"
        }
      ],
      "licenses": [
        {
          "license": {
            "id": "BSD-3-Clause"
          }
        }
      ],
      "purl": "pkg:npm/bcrypt-pbkdf@1.0.2",
      "externalReferences": [
        {
          "url": "https://github.com/joyent/node-bcrypt-pbkdf#readme",
          "type": "website"
        },
        {
          "url": "https://github.com/joyent/node-bcrypt-pbkdf/issues",
          "type": "issue-tracker"
        },
        {
          "url": "git://github.com/joyent/node-bcrypt-pbkdf.git",
          "type": "vcs"
        }
      ]
    },
    {
      "type": "library",
      "bom-ref": "pkg:npm/tweetnacl@0.14.5",
      "name": "tweetnacl",
      "version": "0.14.5",
      "description": "Port of TweetNaCl cryptographic library to JavaScript",
      "hashes": [
        {
          "alg": "SHA-1",
          "content": "5ae68177f192d4456269d108afa93ff8743f4f64"
        }
      ],
      "licenses": [
        {
          "license": {
            "id": "Unlicense"
          }
        }
      ],
      "purl": "pkg:npm/tweetnacl@0.14.5",
      "externalReferences": [
        {
          "url": "https://tweetnacl.js.org",
          "type": "website"
        },
        {
          "url": "https://github.com/dchest/tweetnacl-js/issues",
          "type": "issue-tracker"
        },
        {
          "url": "git+https://github.com/dchest/tweetnacl-js.git",
          "type": "vcs"
        }
      ]
    },
    {
      "type": "library",
      "bom-ref": "pkg:npm/caseless@0.12.0",
      "name": "caseless",
      "version": "0.12.0",
      "description": "Caseless object set/get/has, very useful when working with HTTP headers.",
      "hashes": [
        {
          "alg": "SHA-1",
          "content": "1b681c21ff84033c826543090689420d187151dc"
        }
      ],
      "licenses": [
        {
          "license": {
            "id": "Apache-2.0"
          }
        }
      ],
      "purl": "pkg:npm/caseless@0.12.0",
      "externalReferences": [
        {
          "url": "https://github.com/mikeal/caseless#readme",
          "type": "website"
        },
        {
          "url": "https://github.com/mikeal/caseless/issues",
          "type": "issue-tracker"
        },
        {
          "url": "git+https://github.com/mikeal/caseless.git",
          "type": "vcs"
        }
      ]
    },
    {
      "type": "library",
      "bom-ref": "pkg:npm/combined-stream@1.0.8",
      "name": "combined-stream",
      "version": "1.0.8",
      "description": "A stream that emits multiple other streams one after another.",
      "hashes": [
        {
          "alg": "SHA-1",
          "content": "c3d45a8b34fd730631a110a8a2520682b31d5a7f"
        }
      ],
      "licenses": [
        {
          "license": {
            "id": "MIT"
          }
        }
      ],
      "purl": "pkg:npm/combined-stream@1.0.8",
      "externalReferences": [
        {
          "url": "https://github.com/felixge/node-combined-stream",
          "type": "website"
        },
        {
          "url": "https://github.com/felixge/node-combined-stream/issues",
          "type": "issue-tracker"
        },
        {
          "url": "git://github.com/felixge/node-combined-stream.git",
          "type": "vcs"
        }
      ]
    },
    {
      "type": "library",
      "bom-ref": "pkg:npm/delayed-stream@1.0.0",
      "name": "delayed-stream",
      "version": "1.0.0",
      "description": "Buffers events from a stream until you are ready to handle them.",
      "hashes": [
        {
          "alg": "SHA-1",
          "content": "df3ae199acadfb7d440aaae0b29e2272b24ec619"
        }
      ],
      "licenses": [
        {
          "license": {
            "id": "MIT"
          }
        }
      ],
      "purl": "pkg:npm/delayed-stream@1.0.0",
      "externalReferences": [
        {
          "url": "https://github.com/felixge/node-delayed-stream",
          "type": "website"
        },
        {
          "url": "https://github.com/felixge/node-delayed-stream/issues",
          "type": "issue-tracker"
        },
        {
          "url": "git://github.com/felixge/node-delayed-stream.git",
          "type": "vcs"
        }
      ]
    },
    {
      "type": "library",
      "bom-ref": "pkg:npm/colors@0.6.2",
      "name": "colors",
      "version": "0.6.2",
      "description": "get colors in your node.js console like what",
      "hashes": [
        {
          "alg": "SHA-1",
          "content": "2423fe6678ac0c5dae8852e5d0e5be08c997abcc"
        }
      ],
      "purl": "pkg:npm/colors@0.6.2",
      "externalReferences": [
        {
          "url": "https://github.com/Marak/colors.js",
          "type": "website"
        },
        {
          "url": "https://github.com/Marak/colors.js/issues",
          "type": "issue-tracker"
        },
        {
          "url": "git+ssh://git@github.com/Marak/colors.js.git",
          "type": "vcs"
        }
      ]
    },
    {
      "type": "library",
      "bom-ref": "pkg:npm/commander@2.0.0",
      "name": "commander",
      "version": "2.0.0",
      "description": "the complete solution for node.js command-line programs",
      "hashes": [
        {
          "alg": "SHA-1",
          "content": "d1b86f901f8b64bd941bdeadaf924530393be928"
        }
      ],
      "purl": "pkg:npm/commander@2.0.0",
      "externalReferences": [
        {
          "url": "https://github.com/visionmedia/commander.js#readme",
          "type": "website"
        },
        {
          "url": "https://github.com/visionmedia/commander.js/issues",
          "type": "issue-tracker"
        },
        {
          "url": "git+https://github.com/visionmedia/commander.js.git",
          "type": "vcs"
        }
      ]
    },
    {
      "type": "library",
      "bom-ref": "pkg:npm/core-util-is@1.0.2",
      "name": "core-util-is",
      "version": "1.0.2",
      "description": "The `util.is*` functions introduced in Node v0.12.",
      "hashes": [
        {
          "alg": "SHA-1",
          "content": "b5fd54220aa2bc5ab57aab7140c940754503c1a7"
        }
      ],
      "licenses": [
        {
          "license": {
            "id": "MIT"
          }
        }
      ],
      "purl": "pkg:npm/core-util-is@1.0.2",
      "externalReferences": [
        {
          "url": "https://github.com/isaacs/core-util-is#readme",
          "type": "website"
        },
        {
          "url": "https://github.com/isaacs/core-util-is/issues",
          "type": "issue-tracker"
        },
        {
          "url": "git://github.com/isaacs/core-util-is.git",
          "type": "vcs"
        }
      ]
    },
    {
      "type": "library",
      "bom-ref": "pkg:npm/dashdash@1.14.1",
      "name": "dashdash",
      "version": "1.14.1",
      "description": "A light, featureful and explicit option parsing library.",
      "hashes": [
        {
          "alg": "SHA-1",
          "content": "853cfa0f7cbe2fed5de20326b8dd581035f6e2f0"
        }
      ],
      "licenses": [
        {
          "license": {
            "id": "MIT"
          }
        }
      ],
      "purl": "pkg:npm/dashdash@1.14.1",
      "externalReferences": [
        {
          "url": "https://github.com/trentm/node-dashdash#readme",
          "type": "website"
        },
        {
          "url": "https://github.com/trentm/node-dashdash/issues",
          "type": "issue-tracker"
        },
        {
          "url": "git://github.com/trentm/node-dashdash.git",
          "type": "vcs"
        }
      ]
    },
    {
      "type": "library",
      "bom-ref": "pkg:npm/debug@0.7.4",
      "name": "debug",
      "version": "0.7.4",
      "description": "small debugging utility",
      "hashes": [
        {
          "alg": "SHA-1",
          "content": "06e1ea8082c2cb14e39806e22e2f6f757f92af39"
        }
      ],
      "purl": "pkg:npm/debug@0.7.4",
      "externalReferences": [
        {
          "url": "https://github.com/visionmedia/debug#readme",
          "type": "website"
        },
        {
          "url": "https://github.com/visionmedia/debug/issues",
          "type": "issue-tracker"
        },
        {
          "url": "git://github.com/visionmedia/debug.git",
          "type": "vcs"
        }
      ]
    },
    {
      "type": "library",
      "bom-ref": "pkg:npm/ecc-jsbn@0.1.2",
      "name": "ecc-jsbn",
      "version": "0.1.2",
      "description": "ECC JS code based on JSBN",
      "hashes": [
        {
          "alg": "SHA-1",
          "content": "3a83a904e54353287874c564b7549386849a98c9"
        }
      ],
      "licenses": [
        {
          "license": {
            "id": "MIT"
          }
        }
      ],
      "purl": "pkg:npm/ecc-jsbn@0.1.2",
      "externalReferences": [
        {
          "url": "https://github.com/quartzjer/ecc-jsbn",
          "type": "website"
        },
        {
          "url": "https://github.com/quartzjer/ecc-jsbn/issues",
          "type": "issue-tracker"
        },
        {
          "url": "git+https://github.com/quartzjer/ecc-jsbn.git",
          "type": "vcs"
        }
      ]
    },
    {
      "type": "library",
      "bom-ref": "pkg:npm/jsbn@0.1.1",
      "name": "jsbn",
      "version": "0.1.1",
      "description": "The jsbn library is a fast, portable implementation of large-number math in pure JavaScript, enabling public-key crypto and other applications on desktop and mobile browsers.",
      "hashes": [
        {
          "alg": "SHA-1",
          "content": "a5e654c2e5a2deb5f201d96cefbca80c0ef2f513"
        }
      ],
      "licenses": [
        {
          "license": {
            "id": "MIT"
          }
        }
      ],
      "purl": "pkg:npm/jsbn@0.1.1",
      "externalReferences": [
        {
          "url": "https://github.com/andyperlitch/jsbn#readme",
          "type": "website"
        },
        {
          "url": "https://github.com/andyperlitch/jsbn/issues",
          "type": "issue-tracker"
        },
        {
          "url": "git+https://github.com/andyperlitch/jsbn.git",
          "type": "vcs"
        }
      ]
    },
    {
      "type": "library",
      "bom-ref": "pkg:npm/dateformat@1.0.2-1.2.3",
      "name": "dateformat",
      "version": "1.0.2-1.2.3",
      "description": "A node.js package for Steven Levithan's excellent dateFormat() function.",
      "hashes": [
        {
          "alg": "SHA-1",
          "content": "b0220c02de98617433b72851cf47de3df2cdbee9"
        }
      ],
      "purl": "pkg:npm/dateformat@1.0.2-1.2.3",
      "externalReferences": [
        {
          "url": "https://github.com/felixge/node-dateformat",
          "type": "website"
        }
      ]
    },
    {
      "type": "library",
      "bom-ref": "pkg:npm/eventemitter2@0.4.14",
      "name": "eventemitter2",
      "version": "0.4.14",
      "description": "A Node.js event emitter implementation with namespaces, wildcards, TTL and browser support.",
      "hashes": [
        {
          "alg": "SHA-1",
          "content": "8f61b75cde012b2e9eb284d4545583b5643b61ab"
        }
      ],
      "licenses": [
        {
          "license": {
            "id": "MIT"
          }
        }
      ],
      "purl": "pkg:npm/eventemitter2@0.4.14",
      "externalReferences": [
        {
          "url": "https://github.com/hij1nx/EventEmitter2#readme",
          "type": "website"
        },
        {
          "url": "https://github.com/hij1nx/EventEmitter2/issues",
          "type": "issue-tracker"
        },
        {
          "url": "git://github.com/hij1nx/EventEmitter2.git",
          "type": "vcs"
        }
      ]
    },
    {
      "type": "library",
      "bom-ref": "pkg:npm/exit@0.1.2",
      "name": "exit",
      "version": "0.1.2",
      "description": "A replacement for process.exit that ensures stdio are fully drained before exiting.",
      "hashes": [
        {
          "alg": "SHA-1",
          "content": "0632638f8d877cc82107d30a0fff1a17cba1cd0c"
        }
      ],
      "purl": "pkg:npm/exit@0.1.2",
      "externalReferences": [
        {
          "url": "https://github.com/cowboy/node-exit",
          "type": "website"
        },
        {
          "url": "https://github.com/cowboy/node-exit/issues",
          "type": "issue-tracker"
        },
        {
          "url": "git://github.com/cowboy/node-exit.git",
          "type": "vcs"
        }
      ]
    },
    {
      "type": "library",
      "bom-ref": "pkg:npm/extsprintf@1.3.0",
      "name": "extsprintf",
      "version": "1.3.0",
      "description": "extended POSIX-style sprintf",
      "hashes": [
        {
          "alg": "SHA-1",
          "content": "96918440e3041a7a414f8c52e3c574eb3c3e1e05"
        }
      ],
      "licenses": [
        {
          "license": {
            "id": "MIT"
          }
        }
      ],
      "purl": "pkg:npm/extsprintf@1.3.0",
      "externalReferences": [
        {
          "url": "https://github.com/davepacheco/node-extsprintf#readme",
          "type": "website"
        },
        {
          "url": "https://github.com/davepacheco/node-extsprintf/issues",
          "type": "issue-tracker"
        },
        {
          "url": "git://github.com/davepacheco/node-extsprintf.git",
          "type": "vcs"
        }
      ]
    },
    {
      "type": "library",
      "bom-ref": "pkg:npm/extend@3.0.2",
      "name": "extend",
      "version": "3.0.2",
      "description": "Port of jQuery.extend for node.js and the browser",
      "hashes": [
        {
          "alg": "SHA-1",
          "content": "f8b1136b4071fbd8eb140aff858b1019ec2915fa"
        }
      ],
      "licenses": [
        {
          "license": {
            "id": "MIT"
          }
        }
      ],
      "purl": "pkg:npm/extend@3.0.2",
      "externalReferences": [
        {
          "url": "https://github.com/justmoon/node-extend#readme",
          "type": "website"
        },
        {
          "url": "https://github.com/justmoon/node-extend/issues",
          "type": "issue-tracker"
        },
        {
          "url": "git+https://github.com/justmoon/node-extend.git",
          "type": "vcs"
        }
      ]
    },
    {
      "type": "library",
      "bom-ref": "pkg:npm/faye-websocket@0.4.4",
      "name": "faye-websocket",
      "version": "0.4.4",
      "description": "Standards-compliant WebSocket server and client",
      "hashes": [
        {
          "alg": "SHA-1",
          "content": "c14c5b3bf14d7417ffbfd990c0a7495cd9f337bc"
        }
      ],
      "purl": "pkg:npm/faye-websocket@0.4.4",
      "externalReferences": [
        {
          "url": "http://github.com/faye/faye-websocket-node",
          "type": "website"
        },
        {
          "url": "http://github.com/faye/faye-websocket-node/issues",
          "type": "issue-tracker"
        },
        {
          "url": "git://github.com/faye/faye-websocket-node.git",
          "type": "vcs"
        }
      ]
    },
    {
      "type": "library",
      "bom-ref": "pkg:npm/form-data@2.3.3",
      "name": "form-data",
      "version": "2.3.3",
      "description": "A library to create readable \"multipart/form-data\" streams. Can be used to submit forms and file uploads to other web applications.",
      "hashes": [
        {
          "alg": "SHA-1",
          "content": "dcce52c05f644f298c6a7ab936bd724ceffbf3a6"
        }
      ],
      "licenses": [
        {
          "license": {
            "id": "MIT"
          }
        }
      ],
      "purl": "pkg:npm/form-data@2.3.3",
      "externalReferences": [
        {
          "url": "https://github.com/form-data/form-data#readme",
          "type": "website"
        },
        {
          "url": "https://github.com/form-data/form-data/issues",
          "type": "issue-tracker"
        },
        {
          "url": "git://github.com/form-data/form-data.git",
          "type": "vcs"
        }
      ]
    },
    {
      "type": "library",
      "bom-ref": "pkg:npm/mime-types@2.1.35",
      "name": "mime-types",
      "version": "2.1.35",
      "description": "The ultimate javascript content-type utility.",
      "hashes": [
        {
          "alg": "SHA-1",
          "content": "381a871b62a734450660ae3deee44813f70d959a"
        }
      ],
      "licenses": [
        {
          "license": {
            "id": "MIT"
          }
        }
      ],
      "purl": "pkg:npm/mime-types@2.1.35",
      "externalReferences": [
        {
          "url": "https://github.com/jshttp/mime-types#readme",
          "type": "website"
        },
        {
          "url": "https://github.com/jshttp/mime-types/issues",
          "type": "issue-tracker"
        },
        {
          "url": "git+https://github.com/jshttp/mime-types.git",
          "type": "vcs"
        }
      ]
    },
    {
      "type": "library",
      "bom-ref": "pkg:npm/mime-db@1.52.0",
      "name": "mime-db",
      "version": "1.52.0",
      "description": "Media Type Database",
      "hashes": [
        {
          "alg": "SHA-1",
          "content": "bbabcdc02859f4987301c856e3387ce5ec43bf70"
        }
      ],
      "licenses": [
        {
          "license": {
            "id": "MIT"
          }
        }
      ],
      "purl": "pkg:npm/mime-db@1.52.0",
      "externalReferences": [
        {
          "url": "https://github.com/jshttp/mime-db#readme",
          "type": "website"
        },
        {
          "url": "https://github.com/jshttp/mime-db/issues",
          "type": "issue-tracker"
        },
        {
          "url": "git+https://github.com/jshttp/mime-db.git",
          "type": "vcs"
        }
      ]
    },
    {
      "type": "library",
      "bom-ref": "pkg:npm/gaze@0.4.3",
      "name": "gaze",
      "version": "0.4.3",
      "description": "A globbing fs.watch wrapper built from the best parts of other fine watch libs.",
      "hashes": [
        {
          "alg": "SHA-1",
          "content": "e538f4ff5e4fe648f473a97e1ebb253d2de127b5"
        }
      ],
      "purl": "pkg:npm/gaze@0.4.3",
      "externalReferences": [
        {
          "url": "https://github.com/shama/gaze",
          "type": "website"
        },
        {
          "url": "https://github.com/shama/gaze/issues",
          "type": "issue-tracker"
        },
        {
          "url": "git://github.com/shama/gaze.git",
          "type": "vcs"
        }
      ]
    },
    {
      "type": "library",
      "bom-ref": "pkg:npm/globule@0.1.0",
      "name": "globule",
      "version": "0.1.0",
      "description": "An easy-to-use wildcard globbing library.",
      "hashes": [
        {
          "alg": "SHA-1",
          "content": "d9c8edde1da79d125a151b79533b978676346ae5"
        }
      ],
      "purl": "pkg:npm/globule@0.1.0",
      "externalReferences": [
        {
          "url": "https://github.com/cowboy/node-globule",
          "type": "website"
        },
        {
          "url": "https://github.com/cowboy/node-globule/issues",
          "type": "issue-tracker"
        },
        {
          "url": "git://github.com/cowboy/node-globule.git",
          "type": "vcs"
        }
      ]
    },
    {
      "type": "library",
      "bom-ref": "pkg:npm/glob@3.1.21",
      "name": "glob",
      "version": "3.1.21",
      "description": "a little globber",
      "hashes": [
        {
          "alg": "SHA-1",
          "content": "d29e0a055dea5138f4d07ed40e8982e83c2066cd"
        }
      ],
      "licenses": [
        {
          "license": {
            "name": "BSD"
          }
        }
      ],
      "purl": "pkg:npm/glob@3.1.21",
      "externalReferences": [
        {
          "url": "https://github.com/isaacs/node-glob#readme",
          "type": "website"
        },
        {
          "url": "https://github.com/isaacs/node-glob/issues",
          "type": "issue-tracker"
        },
        {
          "url": "git://github.com/isaacs/node-glob.git",
          "type": "vcs"
        }
      ]
    },
    {
      "type": "library",
      "bom-ref": "pkg:npm/graceful-fs@1.2.3",
      "name": "graceful-fs",
      "version": "1.2.3",
      "description": "A drop-in replacement for fs, making various improvements.",
      "hashes": [
        {
          "alg": "SHA-1",
          "content": "15a4806a57547cb2d2dbf27f42e89a8c3451b364"
        }
      ],
      "licenses": [
        {
          "license": {
            "name": "BSD"
          }
        }
      ],
      "purl": "pkg:npm/graceful-fs@1.2.3",
      "externalReferences": [
        {
          "url": "https://github.com/isaacs/node-graceful-fs#readme",
          "type": "website"
        },
        {
          "url": "https://github.com/isaacs/node-graceful-fs/issues",
          "type": "issue-tracker"
        },
        {
          "url": "git://github.com/isaacs/node-graceful-fs.git",
          "type": "vcs"
        }
      ]
    },
    {
      "type": "library",
      "bom-ref": "pkg:npm/inherits@1.0.2",
      "name": "inherits",
      "version": "1.0.2",
      "description": "A tiny simple way to do classic inheritance in js",
      "hashes": [
        {
          "alg": "SHA-1",
          "content": "ca4309dadee6b54cc0b8d247e8d7c7a0975bdc9b"
        }
      ],
      "purl": "pkg:npm/inherits@1.0.2",
      "externalReferences": [
        {
          "url": "https://github.com/isaacs/inherits#readme",
          "type": "website"
        },
        {
          "url": "https://github.com/isaacs/inherits/issues",
          "type": "issue-tracker"
        },
        {
          "url": "git+https://github.com/isaacs/inherits.git",
          "type": "vcs"
        }
      ]
    },
    {
      "type": "library",
      "bom-ref": "pkg:npm/minimatch@0.2.14",
      "name": "minimatch",
      "version": "0.2.14",
      "description": "a glob matcher in javascript",
      "hashes": [
        {
          "alg": "SHA-1",
          "content": "c74e780574f63c6f9a090e90efbe6ef53a6a756a"
        }
      ],
      "licenses": [
        {
          "license": {
            "id": "MIT"
          }
        }
      ],
      "purl": "pkg:npm/minimatch@0.2.14",
      "externalReferences": [
        {
          "url": "https://github.com/isaacs/minimatch#readme",
          "type": "website"
        },
        {
          "url": "https://github.com/isaacs/minimatch/issues",
          "type": "issue-tracker"
        },
        {
          "url": "git://github.com/isaacs/minimatch.git",
          "type": "vcs"
        }
      ]
    },
    {
      "type": "library",
      "bom-ref": "pkg:npm/lru-cache@2.7.3",
      "name": "lru-cache",
      "version": "2.7.3",
      "description": "A cache object that deletes the least-recently-used items.",
      "hashes": [
        {
          "alg": "SHA-1",
          "content": "6d4524e8b955f95d4f5b58851ce21dd72fb4e952"
        }
      ],
      "licenses": [
        {
          "license": {
            "id": "ISC"
          }
        }
      ],
      "purl": "pkg:npm/lru-cache@2.7.3",
      "externalReferences": [
        {
          "url": "https://github.com/isaacs/node-lru-cache#readme",
          "type": "website"
        },
        {
          "url": "https://github.com/isaacs/node-lru-cache/issues",
          "type": "issue-tracker"
        },
        {
          "url": "git://github.com/isaacs/node-lru-cache.git",
          "type": "vcs"
        }
      ]
    },
    {
      "type": "library",
      "bom-ref": "pkg:npm/sigmund@1.0.1",
      "name": "sigmund",
      "version": "1.0.1",
      "description": "Quick and dirty signatures for Objects.",
      "hashes": [
        {
          "alg": "SHA-1",
          "content": "3ff21f198cad2175f9f3b781853fd94d0d19b590"
        }
      ],
      "licenses": [
        {
          "license": {
            "id": "ISC"
          }
        }
      ],
      "purl": "pkg:npm/sigmund@1.0.1",
      "externalReferences": [
        {
          "url": "https://github.com/isaacs/sigmund#readme",
          "type": "website"
        },
        {
          "url": "https://github.com/isaacs/sigmund/issues",
          "type": "issue-tracker"
        },
        {
          "url": "git://github.com/isaacs/sigmund.git",
          "type": "vcs"
        }
      ]
    },
    {
      "type": "library",
      "bom-ref": "pkg:npm/lodash@1.0.2",
      "name": "lodash",
      "version": "1.0.2",
      "description": "A utility library delivering consistency, customization, performance, and extras.",
      "hashes": [
        {
          "alg": "SHA-1",
          "content": "8f57560c83b59fc270bd3d561b690043430e2551"
        }
      ],
      "licenses": [
        {
          "license": {
            "id": "MIT"
          }
        }
      ],
      "purl": "pkg:npm/lodash@1.0.2",
      "externalReferences": [
        {
          "url": "https://lodash.com/",
          "type": "website"
        },
        {
          "url": "https://github.com/lodash/lodash/issues",
          "type": "issue-tracker"
        },
        {
          "url": "git+https://github.com/lodash/lodash.git",
          "type": "vcs"
        }
      ]
    },
    {
      "type": "library",
      "bom-ref": "pkg:npm/getpass@0.1.7",
      "name": "getpass",
      "version": "0.1.7",
      "description": "getpass for node.js",
      "hashes": [
        {
          "alg": "SHA-1",
          "content": "5eff8e3e684d569ae4cb2b1282604e8ba62149fa"
        }
      ],
      "licenses": [
        {
          "license": {
            "id": "MIT"
          }
        }
      ],
      "purl": "pkg:npm/getpass@0.1.7",
      "externalReferences": [
        {
          "url": "https://github.com/arekinath/node-getpass#readme",
          "type": "website"
        },
        {
          "url": "https://github.com/arekinath/node-getpass/issues",
          "type": "issue-tracker"
        },
        {
          "url": "git+https://github.com/arekinath/node-getpass.git",
          "type": "vcs"
        }
      ]
    },
    {
      "type": "library",
      "bom-ref": "pkg:npm/getobject@0.1.0",
      "name": "getobject",
      "version": "0.1.0",
      "description": "get.and.set.deep.objects.easily = true",
      "hashes": [
        {
          "alg": "SHA-1",
          "content": "047a449789fa160d018f5486ed91320b6ec7885c"
        }
      ],
      "purl": "pkg:npm/getobject@0.1.0",
      "externalReferences": [
        {
          "url": "https://github.com/cowboy/node-getobject",
          "type": "website"
        },
        {
          "url": "https://github.com/cowboy/node-getobject/issues",
          "type": "issue-tracker"
        },
        {
          "url": "git://github.com/cowboy/node-getobject.git",
          "type": "vcs"
        }
      ]
    },
    {
      "type": "library",
      "bom-ref": "pkg:npm/forever-agent@0.6.1",
      "name": "forever-agent",
      "version": "0.6.1",
      "description": "HTTP Agent that keeps socket connections alive between keep-alive requests. Formerly part of mikeal/request, now a standalone module.",
      "hashes": [
        {
          "alg": "SHA-1",
          "content": "fbc71f0c41adeb37f96c577ad1ed42d8fdacca91"
        }
      ],
      "licenses": [
        {
          "license": {
            "id": "Apache-2.0"
          }
        }
      ],
      "purl": "pkg:npm/forever-agent@0.6.1",
      "externalReferences": [
        {
          "url": "https://github.com/mikeal/forever-agent#readme",
          "type": "website"
        },
        {
          "url": "https://github.com/mikeal/forever-agent/issues",
          "type": "issue-tracker"
        },
        {
          "url": "git+https://github.com/mikeal/forever-agent.git",
          "type": "vcs"
        }
      ]
    },
    {
      "type": "library",
      "bom-ref": "pkg:npm/grunt@0.4.5",
      "name": "grunt",
      "version": "0.4.5",
      "description": "The JavaScript Task Runner",
      "hashes": [
        {
          "alg": "SHA-1",
          "content": "56937cd5194324adff6d207631832a9d6ba4e7f0"
        }
      ],
      "purl": "pkg:npm/grunt@0.4.5",
      "externalReferences": [
        {
          "url": "http://gruntjs.com/",
          "type": "website"
        },
        {
          "url": "http://github.com/gruntjs/grunt/issues",
          "type": "issue-tracker"
        },
        {
          "url": "git://github.com/gruntjs/grunt.git",
          "type": "vcs"
        }
      ]
    },
    {
      "type": "library",
      "bom-ref": "pkg:npm/coffee-script@1.3.3",
      "name": "coffee-script",
      "version": "1.3.3",
      "description": "Unfancy JavaScript",
      "hashes": [
        {
          "alg": "SHA-1",
          "content": "150d6b4cb522894369efed6a2101c20bc7f4a4f4"
        }
      ],
      "purl": "pkg:npm/coffee-script@1.3.3",
      "externalReferences": [
        {
          "url": "http://coffeescript.org",
          "type": "website"
        },
        {
          "url": "https://github.com/jashkenas/coffee-script/issues",
          "type": "issue-tracker"
        },
        {
          "url": "git://github.com/jashkenas/coffee-script.git",
          "type": "vcs"
        }
      ]
    },
    {
      "type": "library",
      "bom-ref": "pkg:npm/findup-sync@0.1.3",
      "name": "findup-sync",
      "version": "0.1.3",
      "description": "Find the first file matching a given pattern in the current directory or the nearest ancestor directory.",
      "hashes": [
        {
          "alg": "SHA-1",
          "content": "7f3e7a97b82392c653bf06589bd85190e93c3683"
        }
      ],
      "purl": "pkg:npm/findup-sync@0.1.3",
      "externalReferences": [
        {
          "url": "https://github.com/cowboy/node-findup-sync",
          "type": "website"
        },
        {
          "url": "https://github.com/cowboy/node-findup-sync/issues",
          "type": "issue-tracker"
        },
        {
          "url": "git://github.com/cowboy/node-findup-sync.git",
          "type": "vcs"
        }
      ]
    },
    {
      "type": "library",
      "bom-ref": "pkg:npm/glob@3.2.11",
      "name": "glob",
      "version": "3.2.11",
      "description": "a little globber",
      "hashes": [
        {
          "alg": "SHA-1",
          "content": "4a973f635b9190f715d10987d5c00fd2815ebe3d"
        }
      ],
      "licenses": [
        {
          "license": {
            "name": "BSD"
          }
        }
      ],
      "purl": "pkg:npm/glob@3.2.11",
      "externalReferences": [
        {
          "url": "https://github.com/isaacs/node-glob#readme",
          "type": "website"
        },
        {
          "url": "https://github.com/isaacs/node-glob/issues",
          "type": "issue-tracker"
        },
        {
          "url": "git://github.com/isaacs/node-glob.git",
          "type": "vcs"
        }
      ]
    },
    {
      "type": "library",
      "bom-ref": "pkg:npm/inherits@2.0.4",
      "name": "inherits",
      "version": "2.0.4",
      "description": "Browser-friendly inheritance fully compatible with standard node.js inherits()",
      "hashes": [
        {
          "alg": "SHA-1",
          "content": "0fa2c64f932917c3433a0ded55363aae37416b7c"
        }
      ],
      "licenses": [
        {
          "license": {
            "id": "ISC"
          }
        }
      ],
      "purl": "pkg:npm/inherits@2.0.4",
      "externalReferences": [
        {
          "url": "https://github.com/isaacs/inherits#readme",
          "type": "website"
        },
        {
          "url": "https://github.com/isaacs/inherits/issues",
          "type": "issue-tracker"
        },
        {
          "url": "git://github.com/isaacs/inherits.git",
          "type": "vcs"
        }
      ]
    },
    {
      "type": "library",
      "bom-ref": "pkg:npm/minimatch@0.3.0",
      "name": "minimatch",
      "version": "0.3.0",
      "description": "a glob matcher in javascript",
      "hashes": [
        {
          "alg": "SHA-1",
          "content": "275d8edaac4f1bb3326472089e7949c8394699dd"
        }
      ],
      "licenses": [
        {
          "license": {
            "id": "MIT"
          }
        }
      ],
      "purl": "pkg:npm/minimatch@0.3.0",
      "externalReferences": [
        {
          "url": "https://github.com/isaacs/minimatch#readme",
          "type": "website"
        },
        {
          "url": "https://github.com/isaacs/minimatch/issues",
          "type": "issue-tracker"
        },
        {
          "url": "git://github.com/isaacs/minimatch.git",
          "type": "vcs"
        }
      ]
    },
    {
      "type": "library",
      "bom-ref": "pkg:npm/lodash@2.4.2",
      "name": "lodash",
      "version": "2.4.2",
      "description": "A utility library delivering consistency, customization, performance, & extras.",
      "hashes": [
        {
          "alg": "SHA-1",
          "content": "fadd834b9683073da179b3eae6d9c0d15053f73e"
        }
      ],
      "licenses": [
        {
          "license": {
            "id": "MIT"
          }
        }
      ],
      "purl": "pkg:npm/lodash@2.4.2",
      "externalReferences": [
        {
          "url": "http://lodash.com/",
          "type": "website"
        },
        {
          "url": "https://github.com/lodash/lodash/issues",
          "type": "issue-tracker"
        },
        {
          "url": "git+https://github.com/lodash/lodash.git",
          "type": "vcs"
        }
      ]
    },
    {
      "type": "library",
      "bom-ref": "pkg:npm/grunt-legacy-log@0.1.3",
      "name": "grunt-legacy-log",
      "version": "0.1.3",
      "description": "The Grunt 0.4.x logger.",
      "hashes": [
        {
          "alg": "SHA-1",
          "content": "ec29426e803021af59029f87d2f9cd7335a05531"
        }
      ],
      "licenses": [
        {
          "license": {
            "id": "MIT"
          }
        }
      ],
      "purl": "pkg:npm/grunt-legacy-log@0.1.3",
      "externalReferences": [
        {
          "url": "http://gruntjs.com/",
          "type": "website"
        },
        {
          "url": "http://github.com/gruntjs/grunt-legacy-log/issues",
          "type": "issue-tracker"
        },
        {
          "url": "git://github.com/gruntjs/grunt-legacy-log.git",
          "type": "vcs"
        }
      ]
    },
    {
      "type": "library",
      "bom-ref": "pkg:npm/grunt-legacy-log-utils@0.1.1",
      "name": "grunt-legacy-log-utils",
      "version": "0.1.1",
      "description": "Static methods for the Grunt 0.4.x logger.",
      "hashes": [
        {
          "alg": "SHA-1",
          "content": "c0706b9dd9064e116f36f23fe4e6b048672c0f7e"
        }
      ],
      "purl": "pkg:npm/grunt-legacy-log-utils@0.1.1",
      "externalReferences": [
        {
          "url": "http://gruntjs.com/",
          "type": "website"
        },
        {
          "url": "http://github.com/gruntjs/grunt-legacy-log-utils/issues",
          "type": "issue-tracker"
        },
        {
          "url": "git://github.com/gruntjs/grunt-legacy-log-utils.git",
          "type": "vcs"
        }
      ]
    },
    {
      "type": "library",
      "bom-ref": "pkg:npm/underscore.string@2.3.3",
      "name": "underscore.string",
      "version": "2.3.3",
      "description": "String manipulation extensions for Underscore.js javascript library.",
      "hashes": [
        {
          "alg": "SHA-1",
          "content": "71c08bf6b428b1133f37e78fa3a21c82f7329b0d"
        }
      ],
      "purl": "pkg:npm/underscore.string@2.3.3",
      "externalReferences": [
        {
          "url": "http://epeli.github.com/underscore.string/",
          "type": "website"
        },
        {
          "url": "https://github.com/epeli/underscore.string/issues",
          "type": "issue-tracker"
        },
        {
          "url": "git+https://github.com/epeli/underscore.string.git",
          "type": "vcs"
        }
      ]
    },
    {
      "type": "library",
      "bom-ref": "pkg:npm/hooker@0.2.3",
      "name": "hooker",
      "version": "0.2.3",
      "description": "Monkey-patch (hook) functions for debugging and stuff.",
      "hashes": [
        {
          "alg": "SHA-1",
          "content": "b834f723cc4a242aa65963459df6d984c5d3d959"
        }
      ],
      "purl": "pkg:npm/hooker@0.2.3",
      "externalReferences": [
        {
          "url": "http://github.com/cowboy/javascript-hooker",
          "type": "website"
        },
        {
          "url": "https://github.com/cowboy/javascript-hooker/issues",
          "type": "issue-tracker"
        },
        {
          "url": "git://github.com/cowboy/javascript-hooker.git",
          "type": "vcs"
        }
      ]
    },
    {
      "type": "library",
      "bom-ref": "pkg:npm/grunt-legacy-util@0.2.0",
      "name": "grunt-legacy-util",
      "version": "0.2.0",
      "description": "Some old grunt utils provided for backwards compatibility.",
      "hashes": [
        {
          "alg": "SHA-1",
          "content": "93324884dbf7e37a9ff7c026dff451d94a9e554b"
        }
      ],
      "purl": "pkg:npm/grunt-legacy-util@0.2.0",
      "externalReferences": [
        {
          "url": "http://gruntjs.com/",
          "type": "website"
        },
        {
          "url": "http://github.com/gruntjs/grunt-legacy-util/issues",
          "type": "issue-tracker"
        },
        {
          "url": "git://github.com/gruntjs/grunt-legacy-util.git",
          "type": "vcs"
        }
      ]
    },
    {
      "type": "library",
      "bom-ref": "pkg:npm/lodash@0.9.2",
      "name": "lodash",
      "version": "0.9.2",
      "description": "A utility library delivering consistency, customization, performance, and extras.",
      "hashes": [
        {
          "alg": "SHA-1",
          "content": "8f3499c5245d346d682e5b0d3b40767e09f1a92c"
        }
      ],
      "licenses": [
        {
          "license": {
            "id": "MIT"
          }
        }
      ],
      "purl": "pkg:npm/lodash@0.9.2",
      "externalReferences": [
        {
          "url": "http://lodash.com",
          "type": "website"
        },
        {
          "url": "https://github.com/lodash/lodash/issues",
          "type": "issue-tracker"
        },
        {
          "url": "git+https://github.com/lodash/lodash.git",
          "type": "vcs"
        }
      ]
    },
    {
      "type": "library",
      "bom-ref": "pkg:npm/underscore.string@2.2.1",
      "name": "underscore.string",
      "version": "2.2.1",
      "description": "String manipulation extensions for Underscore.js javascript library.",
      "hashes": [
        {
          "alg": "SHA-1",
          "content": "d7c0fa2af5d5a1a67f4253daee98132e733f0f19"
        }
      ],
      "purl": "pkg:npm/underscore.string@2.2.1",
      "externalReferences": [
        {
          "url": "http://epeli.github.com/underscore.string/",
          "type": "website"
        },
        {
          "url": "https://github.com/epeli/underscore.string/issues",
          "type": "issue-tracker"
        },
        {
          "url": "git+https://github.com/epeli/underscore.string.git",
          "type": "vcs"
        }
      ]
    },
    {
      "type": "library",
      "bom-ref": "pkg:npm/which@1.0.9",
      "name": "which",
      "version": "1.0.9",
      "description": "Like which(1) unix command. Find the first instance of an executable in the PATH.",
      "hashes": [
        {
          "alg": "SHA-1",
          "content": "460c1da0f810103d0321a9b633af9e575e64486f"
        }
      ],
      "licenses": [
        {
          "license": {
            "id": "ISC"
          }
        }
      ],
      "purl": "pkg:npm/which@1.0.9",
      "externalReferences": [
        {
          "url": "https://github.com/isaacs/node-which#readme",
          "type": "website"
        },
        {
          "url": "https://github.com/isaacs/node-which/issues",
          "type": "issue-tracker"
        },
        {
          "url": "git://github.com/isaacs/node-which.git",
          "type": "vcs"
        }
      ]
    },
    {
      "type": "library",
      "bom-ref": "pkg:npm/iconv-lite@0.2.11",
      "name": "iconv-lite",
      "version": "0.2.11",
      "description": "Convert character encodings in pure javascript.",
      "hashes": [
        {
          "alg": "SHA-1",
          "content": "1ce60a3a57864a292d1321ff4609ca4bb965adc8"
        }
      ],
      "licenses": [
        {
          "license": {
            "id": "MIT"
          }
        }
      ],
      "purl": "pkg:npm/iconv-lite@0.2.11",
      "externalReferences": [
        {
          "url": "https://github.com/ashtuchkin/iconv-lite",
          "type": "website"
        },
        {
          "url": "https://github.com/ashtuchkin/iconv-lite/issues",
          "type": "issue-tracker"
        },
        {
          "url": "git://github.com/ashtuchkin/iconv-lite.git",
          "type": "vcs"
        }
      ]
    },
    {
      "type": "library",
      "bom-ref": "pkg:npm/js-yaml@2.0.5",
      "name": "js-yaml",
      "version": "2.0.5",
      "description": "YAML 1.2 parser and serializer",
      "hashes": [
        {
          "alg": "SHA-1",
          "content": "a25ae6509999e97df278c6719da11bd0687743a8"
        }
      ],
      "licenses": [
        {
          "license": {
            "id": "MIT"
          }
        }
      ],
      "purl": "pkg:npm/js-yaml@2.0.5",
      "externalReferences": [
        {
          "url": "https://github.com/nodeca/js-yaml",
          "type": "website"
        },
        {
          "url": "https://github.com/nodeca/js-yaml/issues",
          "type": "issue-tracker"
        },
        {
          "url": "git://github.com/nodeca/js-yaml.git",
          "type": "vcs"
        }
      ]
    },
    {
      "type": "library",
      "bom-ref": "pkg:npm/argparse@0.1.16",
      "name": "argparse",
      "version": "0.1.16",
      "description": "Very powerful CLI arguments parser. Native port of argparse - python's options parsing library",
      "hashes": [
        {
          "alg": "SHA-1",
          "content": "cfd01e0fbba3d6caed049fbd758d40f65196f57c"
        }
      ],
      "licenses": [
        {
          "license": {
            "id": "MIT"
          }
        }
      ],
      "purl": "pkg:npm/argparse@0.1.16",
      "externalReferences": [
        {
          "url": "https://github.com/nodeca/argparse",
          "type": "website"
        },
        {
          "url": "https://github.com/nodeca/argparse/issues",
          "type": "issue-tracker"
        },
        {
          "url": "git://github.com/nodeca/argparse.git",
          "type": "vcs"
        }
      ]
    },
    {
      "type": "library",
      "bom-ref": "pkg:npm/underscore@1.7.0",
      "name": "underscore",
      "version": "1.7.0",
      "description": "JavaScript's functional programming helper library.",
      "hashes": [
        {
          "alg": "SHA-1",
          "content": "6bbaf0877500d36be34ecaa584e0db9fef035209"
        }
      ],
      "purl": "pkg:npm/underscore@1.7.0",
      "externalReferences": [
        {
          "url": "http://underscorejs.org",
          "type": "website"
        },
        {
          "url": "https://github.com/jashkenas/underscore/issues",
          "type": "issue-tracker"
        },
        {
          "url": "git://github.com/jashkenas/underscore.git",
          "type": "vcs"
        }
      ]
    },
    {
      "type": "library",
      "bom-ref": "pkg:npm/underscore.string@2.4.0",
      "name": "underscore.string",
      "version": "2.4.0",
      "description": "String manipulation extensions for Underscore.js javascript library.",
      "hashes": [
        {
          "alg": "SHA-1",
          "content": "8cdd8fbac4e2d2ea1e7e2e8097c42f442280f85b"
        }
      ],
      "purl": "pkg:npm/underscore.string@2.4.0",
      "externalReferences": [
        {
          "url": "http://epeli.github.com/underscore.string/",
          "type": "website"
        },
        {
          "url": "https://github.com/epeli/underscore.string/issues",
          "type": "issue-tracker"
        },
        {
          "url": "git+https://github.com/epeli/underscore.string.git",
          "type": "vcs"
        }
      ]
    },
    {
      "type": "library",
      "bom-ref": "pkg:npm/esprima@1.0.4",
      "name": "esprima",
      "version": "1.0.4",
      "description": "ECMAScript parsing infrastructure for multipurpose analysis",
      "hashes": [
        {
          "alg": "SHA-1",
          "content": "9f557e08fc3b4d26ece9dd34f8fbf476b62585ad"
        }
      ],
      "purl": "pkg:npm/esprima@1.0.4",
      "externalReferences": [
        {
          "url": "http://esprima.org",
          "type": "website"
        },
        {
          "url": "https://github.com/ariya/esprima/issues",
          "type": "issue-tracker"
        },
        {
          "url": "git+ssh://git@github.com/ariya/esprima.git",
          "type": "vcs"
        }
      ]
    },
    {
      "type": "library",
      "bom-ref": "pkg:npm/nopt@1.0.10",
      "name": "nopt",
      "version": "1.0.10",
      "description": "Option parsing for Node, supporting types, shorthands, etc. Used by npm.",
      "hashes": [
        {
          "alg": "SHA-1",
          "content": "6ddd21bd2a31417b92727dd585f8a6f37608ebee"
        }
      ],
      "licenses": [
        {
          "license": {
            "id": "MIT"
          }
        }
      ],
      "purl": "pkg:npm/nopt@1.0.10",
      "externalReferences": [
        {
          "url": "https://github.com/isaacs/nopt#readme",
          "type": "website"
        },
        {
          "url": "https://github.com/isaacs/nopt/issues",
          "type": "issue-tracker"
        },
        {
          "url": "git+ssh://git@github.com/isaacs/nopt.git",
          "type": "vcs"
        }
      ]
    },
    {
      "type": "library",
      "bom-ref": "pkg:npm/rimraf@2.2.8",
      "name": "rimraf",
      "version": "2.2.8",
      "description": "A deep deletion module for node (like `rm -rf`)",
      "hashes": [
        {
          "alg": "SHA-1",
          "content": "e439be2aaee327321952730f99a8929e4fc50582"
        }
      ],
      "licenses": [
        {
          "license": {
            "id": "MIT"
          }
        }
      ],
      "purl": "pkg:npm/rimraf@2.2.8",
      "externalReferences": [
        {
          "url": "https://github.com/isaacs/rimraf#readme",
          "type": "website"
        },
        {
          "url": "https://github.com/isaacs/rimraf/issues",
          "type": "issue-tracker"
        },
        {
          "url": "git://github.com/isaacs/rimraf.git",
          "type": "vcs"
        }
      ]
    },
    {
      "type": "library",
      "bom-ref": "pkg:npm/grunt-contrib-less@0.8.3",
      "name": "grunt-contrib-less",
      "version": "0.8.3",
      "description": "Compile LESS files to CSS.",
      "hashes": [
        {
          "alg": "SHA-1",
          "content": "8a0e9183577339ad08729f57a9a4adeff6c41410"
        }
      ],
      "purl": "pkg:npm/grunt-contrib-less@0.8.3",
      "externalReferences": [
        {
          "url": "https://github.com/gruntjs/grunt-contrib-less",
          "type": "website"
        },
        {
          "url": "https://github.com/gruntjs/grunt-contrib-less/issues",
          "type": "issue-tracker"
        },
        {
          "url": "git://github.com/gruntjs/grunt-contrib-less.git",
          "type": "vcs"
        }
      ]
    },
    {
      "type": "library",
      "bom-ref": "pkg:npm/grunt-lib-contrib@0.6.1",
      "name": "grunt-lib-contrib",
      "version": "0.6.1",
      "description": "Common functionality shared across grunt-contrib tasks.",
      "hashes": [
        {
          "alg": "SHA-1",
          "content": "3f56adb7da06e814795ee2415b0ebe5fb8903ebb"
        }
      ],
      "purl": "pkg:npm/grunt-lib-contrib@0.6.1",
      "externalReferences": [
        {
          "url": "http://github.com/gruntjs/grunt-lib-contrib",
          "type": "website"
        },
        {
          "url": "https://github.com/gruntjs/grunt-lib-contrib/issues",
          "type": "issue-tracker"
        },
        {
          "url": "git://github.com/gruntjs/grunt-lib-contrib.git",
          "type": "vcs"
        }
      ]
    },
    {
      "type": "library",
      "bom-ref": "pkg:npm/zlib-browserify@0.0.1",
      "name": "zlib-browserify",
      "version": "0.0.1",
      "description": "Wrapper for zlib.js to allow for browserifyication",
      "hashes": [
        {
          "alg": "SHA-1",
          "content": "4fa6a45d00dbc15f318a4afa1d9afc0258e176cc"
        }
      ],
      "licenses": [
        {
          "license": {
            "id": "MIT"
          }
        }
      ],
      "purl": "pkg:npm/zlib-browserify@0.0.1",
      "externalReferences": [
        {
          "url": "https://github.com/brianloveswords/zlib-browserify#readme",
          "type": "website"
        },
        {
          "url": "https://github.com/brianloveswords/zlib-browserify/issues",
          "type": "issue-tracker"
        },
        {
          "url": "git://github.com/brianloveswords/zlib-browserify.git",
          "type": "vcs"
        }
      ]
    },
    {
      "type": "library",
      "bom-ref": "pkg:npm/less@1.5.1",
      "name": "less",
      "version": "1.5.1",
      "description": "Leaner CSS",
      "hashes": [
        {
          "alg": "SHA-1",
          "content": "633313130efd12a3b78c56aa799dab3eeffffff4"
        }
      ],
      "purl": "pkg:npm/less@1.5.1",
      "externalReferences": [
        {
          "url": "http://lesscss.org",
          "type": "website"
        },
        {
          "url": "https://github.com/less/less.js/issues",
          "type": "issue-tracker"
        },
        {
          "url": "git+https://github.com/less/less.js.git",
          "type": "vcs"
        }
      ]
    },
    {
      "type": "library",
      "bom-ref": "pkg:npm/grunt-contrib-watch@0.5.3",
      "name": "grunt-contrib-watch",
      "version": "0.5.3",
      "description": "Run predefined tasks whenever watched file patterns are added, changed or deleted.",
      "hashes": [
        {
          "alg": "SHA-1",
          "content": "7d9eb5465d506fa14faaca47e6e8790a82c1c9ee"
        }
      ],
      "purl": "pkg:npm/grunt-contrib-watch@0.5.3",
      "externalReferences": [
        {
          "url": "https://github.com/gruntjs/grunt-contrib-watch",
          "type": "website"
        },
        {
          "url": "https://github.com/gruntjs/grunt-contrib-watch/issues",
          "type": "issue-tracker"
        },
        {
          "url": "git://github.com/gruntjs/grunt-contrib-watch.git",
          "type": "vcs"
        }
      ]
    },
    {
      "type": "library",
      "bom-ref": "pkg:npm/tiny-lr@0.0.4",
      "name": "tiny-lr",
      "version": "0.0.4",
      "description": "Tiny LiveReload server, background-friendly",
      "hashes": [
        {
          "alg": "SHA-1",
          "content": "80618547f63f697d05cb40c4c2c4b083521aefb6"
        }
      ],
      "purl": "pkg:npm/tiny-lr@0.0.4",
      "externalReferences": [
        {
          "url": "https://github.com/mklabs/tiny-lr",
          "type": "website"
        },
        {
          "url": "https://github.com/mklabs/tiny-lr/issues",
          "type": "issue-tracker"
        },
        {
          "url": "git://github.com/mklabs/tiny-lr.git",
          "type": "vcs"
        }
      ]
    },
    {
      "type": "library",
      "bom-ref": "pkg:npm/noptify@0.0.3",
      "name": "noptify",
      "version": "0.0.3",
      "description": "nopt wrapper with commander-like API",
      "hashes": [
        {
          "alg": "SHA-1",
          "content": "58f654a73d9753df0c51d9686dc92104a67f4bbb"
        }
      ],
      "purl": "pkg:npm/noptify@0.0.3",
      "externalReferences": [
        {
          "url": "https://github.com/mklabs/noptify#readme",
          "type": "website"
        },
        {
          "url": "https://github.com/mklabs/noptify/issues",
          "type": "issue-tracker"
        },
        {
          "url": "git://github.com/mklabs/noptify.git",
          "type": "vcs"
        }
      ]
    },
    {
      "type": "library",
      "bom-ref": "pkg:npm/nopt@2.0.0",
      "name": "nopt",
      "version": "2.0.0",
      "description": "Option parsing for Node, supporting types, shorthands, etc. Used by npm.",
      "hashes": [
        {
          "alg": "SHA-1",
          "content": "ca7416f20a5e3f9c3b86180f96295fa3d0b52e0d"
        }
      ],
      "licenses": [
        {
          "license": {
            "id": "MIT"
          }
        }
      ],
      "purl": "pkg:npm/nopt@2.0.0",
      "externalReferences": [
        {
          "url": "https://github.com/isaacs/nopt#readme",
          "type": "website"
        },
        {
          "url": "https://github.com/isaacs/nopt/issues",
          "type": "issue-tracker"
        },
        {
          "url": "git+ssh://git@github.com/isaacs/nopt.git",
          "type": "vcs"
        }
      ]
    },
    {
      "type": "library",
      "bom-ref": "pkg:npm/qs@0.5.6",
      "name": "qs",
      "version": "0.5.6",
      "description": "querystring parser",
      "hashes": [
        {
          "alg": "SHA-1",
          "content": "31b1ad058567651c526921506b9a8793911a0384"
        }
      ],
      "purl": "pkg:npm/qs@0.5.6",
      "externalReferences": [
        {
          "url": "https://github.com/visionmedia/node-querystring#readme",
          "type": "website"
        },
        {
          "url": "https://github.com/visionmedia/node-querystring/issues",
          "type": "issue-tracker"
        },
        {
          "url": "git://github.com/visionmedia/node-querystring.git",
          "type": "vcs"
        }
      ]
    },
    {
      "type": "library",
      "bom-ref": "pkg:npm/har-validator@5.1.5",
      "name": "har-validator",
      "version": "5.1.5",
      "description": "Extremely fast HTTP Archive (HAR) validator using JSON Schema",
      "hashes": [
        {
          "alg": "SHA-1",
          "content": "1f0803b9f8cb20c0fa13822df1ecddb36bde1efd"
        }
      ],
      "licenses": [
        {
          "license": {
            "id": "MIT"
          }
        }
      ],
      "purl": "pkg:npm/har-validator@5.1.5",
      "externalReferences": [
        {
          "url": "https://github.com/ahmadnassri/node-har-validator",
          "type": "website"
        },
        {
          "url": "https://github.com/ahmadnassri/node-har-validator/issues",
          "type": "issue-tracker"
        },
        {
          "url": "git+https://github.com/ahmadnassri/node-har-validator.git",
          "type": "vcs"
        }
      ]
    },
    {
      "type": "library",
      "bom-ref": "pkg:npm/har-schema@2.0.0",
      "name": "har-schema",
      "version": "2.0.0",
      "description": "JSON Schema for HTTP Archive (HAR)",
      "hashes": [
        {
          "alg": "SHA-1",
          "content": "a94c2224ebcac04782a0d9035521f24735b7ec92"
        }
      ],
      "licenses": [
        {
          "license": {
            "id": "ISC"
          }
        }
      ],
      "purl": "pkg:npm/har-schema@2.0.0",
      "externalReferences": [
        {
          "url": "https://github.com/ahmadnassri/har-schema",
          "type": "website"
        },
        {
          "url": "https://github.com/ahmadnassri/har-schema/issues",
          "type": "issue-tracker"
        },
        {
          "url": "git+https://github.com/ahmadnassri/har-schema.git",
          "type": "vcs"
        }
      ]
    },
    {
      "type": "library",
      "bom-ref": "pkg:npm/http-signature@1.2.0",
      "name": "http-signature",
      "version": "1.2.0",
      "description": "Reference implementation of Joyent's HTTP Signature scheme.",
      "hashes": [
        {
          "alg": "SHA-1",
          "content": "9aecd925114772f3d95b65a60abb8f7c18fbace1"
        }
      ],
      "licenses": [
        {
          "license": {
            "id": "MIT"
          }
        }
      ],
      "purl": "pkg:npm/http-signature@1.2.0",
      "externalReferences": [
        {
          "url": "https://github.com/joyent/node-http-signature/",
          "type": "website"
        },
        {
          "url": "https://github.com/joyent/node-http-signature/issues",
          "type": "issue-tracker"
        },
        {
          "url": "git://github.com/joyent/node-http-signature.git",
          "type": "vcs"
        }
      ]
    },
    {
      "type": "library",
      "bom-ref": "pkg:npm/jsprim@1.4.2",
      "name": "jsprim",
      "version": "1.4.2",
      "description": "utilities for primitive JavaScript types",
      "hashes": [
        {
          "alg": "SHA-1",
          "content": "712c65533a15c878ba59e9ed5f0e26d5b77c5feb"
        }
      ],
      "licenses": [
        {
          "license": {
            "id": "MIT"
          }
        }
      ],
      "purl": "pkg:npm/jsprim@1.4.2",
      "externalReferences": [
        {
          "url": "https://github.com/joyent/node-jsprim#readme",
          "type": "website"
        },
        {
          "url": "https://github.com/joyent/node-jsprim/issues",
          "type": "issue-tracker"
        },
        {
          "url": "git://github.com/joyent/node-jsprim.git",
          "type": "vcs"
        }
      ]
    },
    {
      "type": "library",
      "bom-ref": "pkg:npm/json-schema@0.4.0",
      "name": "json-schema",
      "version": "0.4.0",
      "description": "JSON Schema validation and specifications",
      "hashes": [
        {
          "alg": "SHA-1",
          "content": "f7de4cf6efab838ebaeb3236474cbba5a1930ab5"
        }
      ],
      "licenses": [
        {
          "license": {
            "name": "(AFL-2.1 OR BSD-3-Clause)"
          }
        }
      ],
      "purl": "pkg:npm/json-schema@0.4.0",
      "externalReferences": [
        {
          "url": "https://github.com/kriszyp/json-schema#readme",
          "type": "website"
        },
        {
          "url": "https://github.com/kriszyp/json-schema/issues",
          "type": "issue-tracker"
        },
        {
          "url": "git+ssh://git@github.com/kriszyp/json-schema.git",
          "type": "vcs"
        }
      ]
    },
    {
      "type": "library",
      "bom-ref": "pkg:npm/verror@1.10.0",
      "name": "verror",
      "version": "1.10.0",
      "description": "richer JavaScript errors",
      "hashes": [
        {
          "alg": "SHA-1",
          "content": "3a105ca17053af55d6e270c1f8288682e18da400"
        }
      ],
      "licenses": [
        {
          "license": {
            "id": "MIT"
          }
        }
      ],
      "purl": "pkg:npm/verror@1.10.0",
      "externalReferences": [
        {
          "url": "https://github.com/davepacheco/node-verror#readme",
          "type": "website"
        },
        {
          "url": "https://github.com/davepacheco/node-verror/issues",
          "type": "issue-tracker"
        },
        {
          "url": "git://github.com/davepacheco/node-verror.git",
          "type": "vcs"
        }
      ]
    },
    {
      "type": "library",
      "bom-ref": "pkg:npm/sshpk@1.17.0",
      "name": "sshpk",
      "version": "1.17.0",
      "description": "A library for finding and using SSH public keys",
      "hashes": [
        {
          "alg": "SHA-1",
          "content": "578082d92d4fe612b13007496e543fa0fbcbe4c5"
        }
      ],
      "licenses": [
        {
          "license": {
            "id": "MIT"
          }
        }
      ],
      "purl": "pkg:npm/sshpk@1.17.0",
      "externalReferences": [
        {
          "url": "https://github.com/arekinath/node-sshpk#readme",
          "type": "website"
        },
        {
          "url": "https://github.com/arekinath/node-sshpk/issues",
          "type": "issue-tracker"
        },
        {
          "url": "git+https://github.com/joyent/node-sshpk.git",
          "type": "vcs"
        }
      ]
    },
    {
      "type": "library",
      "bom-ref": "pkg:npm/is-typedarray@1.0.0",
      "name": "is-typedarray",
      "version": "1.0.0",
      "description": "Detect whether or not an object is a Typed Array",
      "hashes": [
        {
          "alg": "SHA-1",
          "content": "e479c80858df0c1b11ddda6940f96011fcda4a9a"
        }
      ],
      "licenses": [
        {
          "license": {
            "id": "MIT"
          }
        }
      ],
      "purl": "pkg:npm/is-typedarray@1.0.0",
      "externalReferences": [
        {
          "url": "https://github.com/hughsk/is-typedarray",
          "type": "website"
        },
        {
          "url": "https://github.com/hughsk/is-typedarray/issues",
          "type": "issue-tracker"
        },
        {
          "url": "git://github.com/hughsk/is-typedarray.git",
          "type": "vcs"
        }
      ]
    },
    {
      "type": "library",
      "bom-ref": "pkg:npm/isstream@0.1.2",
      "name": "isstream",
      "version": "0.1.2",
      "description": "Determine if an object is a Stream",
      "hashes": [
        {
          "alg": "SHA-1",
          "content": "47e63f7af55afa6f92e1500e690eb8b8529c099a"
        }
      ],
      "licenses": [
        {
          "license": {
            "id": "MIT"
          }
        }
      ],
      "purl": "pkg:npm/isstream@0.1.2",
      "externalReferences": [
        {
          "url": "https://github.com/rvagg/isstream",
          "type": "website"
        },
        {
          "url": "https://github.com/rvagg/isstream/issues",
          "type": "issue-tracker"
        },
        {
          "url": "git+https://github.com/rvagg/isstream.git",
          "type": "vcs"
        }
      ]
    },
    {
      "type": "library",
      "bom-ref": "pkg:npm/json-stringify-safe@5.0.1",
      "name": "json-stringify-safe",
      "version": "5.0.1",
      "description": "Like JSON.stringify, but doesn't blow up on circular refs.",
      "hashes": [
        {
          "alg": "SHA-1",
          "content": "1296a2d58fd45f19a0f6ce01d65701e2c735b6eb"
        }
      ],
      "licenses": [
        {
          "license": {
            "id": "ISC"
          }
        }
      ],
      "purl": "pkg:npm/json-stringify-safe@5.0.1",
      "externalReferences": [
        {
          "url": "https://github.com/isaacs/json-stringify-safe",
          "type": "website"
        },
        {
          "url": "https://github.com/isaacs/json-stringify-safe/issues",
          "type": "issue-tracker"
        },
        {
          "url": "git://github.com/isaacs/json-stringify-safe.git",
          "type": "vcs"
        }
      ]
    },
    {
      "type": "library",
      "bom-ref": "pkg:npm/mime@1.2.11",
      "name": "mime",
      "version": "1.2.11",
      "description": "A comprehensive library for mime-type mapping",
      "hashes": [
        {
          "alg": "SHA-1",
          "content": "58203eed86e3a5ef17aed2b7d9ebd47f0a60dd10"
        }
      ],
      "purl": "pkg:npm/mime@1.2.11",
      "externalReferences": [
        {
          "url": "https://github.com/broofa/node-mime#readme",
          "type": "website"
        },
        {
          "url": "https://github.com/broofa/node-mime/issues",
          "type": "issue-tracker"
        },
        {
          "url": "git+https://github.com/broofa/node-mime.git",
          "type": "vcs"
        }
      ]
    },
    {
      "type": "library",
      "bom-ref": "pkg:npm/mkdirp@0.3.5",
      "name": "mkdirp",
      "version": "0.3.5",
      "description": "Recursively mkdir, like `mkdir -p`",
      "hashes": [
        {
          "alg": "SHA-1",
          "content": "de3e5f8961c88c787ee1368df849ac4413eca8d7"
        }
      ],
      "licenses": [
        {
          "license": {
            "id": "MIT"
          }
        }
      ],
      "purl": "pkg:npm/mkdirp@0.3.5",
      "externalReferences": [
        {
          "url": "https://github.com/substack/node-mkdirp#readme",
          "type": "website"
        },
        {
          "url": "https://github.com/substack/node-mkdirp/issues",
          "type": "issue-tracker"
        },
        {
          "url": "git+ssh://git@github.com/substack/node-mkdirp.git",
          "type": "vcs"
        }
      ]
    },
    {
      "type": "library",
      "bom-ref": "pkg:npm/oauth-sign@0.9.0",
      "name": "oauth-sign",
      "version": "0.9.0",
      "description": "OAuth 1 signing. Formerly a vendor lib in mikeal/request, now a standalone module.",
      "hashes": [
        {
          "alg": "SHA-1",
          "content": "47a7b016baa68b5fa0ecf3dee08a85c679ac6455"
        }
      ],
      "licenses": [
        {
          "license": {
            "id": "Apache-2.0"
          }
        }
      ],
      "purl": "pkg:npm/oauth-sign@0.9.0",
      "externalReferences": [
        {
          "url": "https://github.com/mikeal/oauth-sign#readme",
          "type": "website"
        },
        {
          "url": "https://github.com/mikeal/oauth-sign/issues",
          "type": "issue-tracker"
        },
        {
          "url": "git+https://github.com/mikeal/oauth-sign.git",
          "type": "vcs"
        }
      ]
    },
    {
      "type": "library",
      "bom-ref": "pkg:npm/performance-now@2.1.0",
      "name": "performance-now",
      "version": "2.1.0",
      "description": "Implements performance.now (based on process.hrtime).",
      "hashes": [
        {
          "alg": "SHA-1",
          "content": "6309f4e0e5fa913ec1c69307ae364b4b377c9e7b"
        }
      ],
      "licenses": [
        {
          "license": {
            "id": "MIT"
          }
        }
      ],
      "purl": "pkg:npm/performance-now@2.1.0",
      "externalReferences": [
        {
          "url": "https://github.com/braveg1rl/performance-now",
          "type": "website"
        },
        {
          "url": "https://github.com/braveg1rl/performance-now/issues",
          "type": "issue-tracker"
        },
        {
          "url": "git://github.com/braveg1rl/performance-now.git",
          "type": "vcs"
        }
      ]
    },
    {
      "type": "library",
      "bom-ref": "pkg:npm/psl@1.8.0",
      "name": "psl",
      "version": "1.8.0",
      "description": "Domain name parser based on the Public Suffix List",
      "hashes": [
        {
          "alg": "SHA-1",
          "content": "9326f8bcfb013adcc005fdff056acce020e51c24"
        }
      ],
      "licenses": [
        {
          "license": {
            "id": "MIT"
          }
        }
      ],
      "purl": "pkg:npm/psl@1.8.0",
      "externalReferences": [
        {
          "url": "https://github.com/lupomontero/psl#readme",
          "type": "website"
        },
        {
          "url": "https://github.com/lupomontero/psl/issues",
          "type": "issue-tracker"
        },
        {
          "url": "git+ssh://git@github.com/lupomontero/psl.git",
          "type": "vcs"
        }
      ]
    },
    {
      "type": "library",
      "bom-ref": "pkg:npm/qs@6.5.3",
      "name": "qs",
      "version": "6.5.3",
      "description": "A querystring parser that supports nesting and arrays, with a depth limit",
      "hashes": [
        {
          "alg": "SHA-1",
          "content": "3aeeffc91967ef6e35c0e488ef46fb296ab76aad"
        }
      ],
      "licenses": [
        {
          "license": {
            "id": "BSD-3-Clause"
          }
        }
      ],
      "purl": "pkg:npm/qs@6.5.3",
      "externalReferences": [
        {
          "url": "https://github.com/ljharb/qs",
          "type": "website"
        },
        {
          "url": "https://github.com/ljharb/qs/issues",
          "type": "issue-tracker"
        },
        {
          "url": "git+https://github.com/ljharb/qs.git",
          "type": "vcs"
        }
      ]
    },
    {
      "type": "library",
      "bom-ref": "pkg:npm/request@2.88.2",
      "name": "request",
      "version": "2.88.2",
      "description": "Simplified HTTP request client.",
      "hashes": [
        {
          "alg": "SHA-1",
          "content": "d73c918731cb5a87da047e207234146f664d12b3"
        }
      ],
      "licenses": [
        {
          "license": {
            "id": "Apache-2.0"
          }
        }
      ],
      "purl": "pkg:npm/request@2.88.2",
      "externalReferences": [
        {
          "url": "https://github.com/request/request#readme",
          "type": "website"
        },
        {
          "url": "http://github.com/request/request/issues",
          "type": "issue-tracker"
        },
        {
          "url": "git+https://github.com/request/request.git",
          "type": "vcs"
        }
      ]
    },
    {
      "type": "library",
      "bom-ref": "pkg:npm/safe-buffer@5.2.1",
      "name": "safe-buffer",
      "version": "5.2.1",
      "description": "Safer Node.js Buffer API",
      "hashes": [
        {
          "alg": "SHA-1",
          "content": "1eaf9fa9bdb1fdd4ec75f58f9cdb4e6b7827eec6"
        }
      ],
      "licenses": [
        {
          "license": {
            "id": "MIT"
          }
        }
      ],
      "purl": "pkg:npm/safe-buffer@5.2.1",
      "externalReferences": [
        {
          "url": "https://github.com/feross/safe-buffer",
          "type": "website"
        },
        {
          "url": "https://github.com/feross/safe-buffer/issues",
          "type": "issue-tracker"
        },
        {
          "url": "git://github.com/feross/safe-buffer.git",
          "type": "vcs"
        }
      ]
    },
    {
      "type": "library",
      "bom-ref": "pkg:npm/tough-cookie@2.5.0",
      "name": "tough-cookie",
      "version": "2.5.0",
      "description": "RFC6265 Cookies and Cookie Jar for node.js",
      "hashes": [
        {
          "alg": "SHA-1",
          "content": "cd9fb2a0aa1d5a12b473bd9fb96fa3dcff65ade2"
        }
      ],
      "licenses": [
        {
          "license": {
            "id": "BSD-3-Clause"
          }
        }
      ],
      "purl": "pkg:npm/tough-cookie@2.5.0",
      "externalReferences": [
        {
          "url": "https://github.com/salesforce/tough-cookie",
          "type": "website"
        },
        {
          "url": "https://github.com/salesforce/tough-cookie/issues",
          "type": "issue-tracker"
        },
        {
          "url": "git://github.com/salesforce/tough-cookie.git",
          "type": "vcs"
        }
      ]
    },
    {
      "type": "library",
      "bom-ref": "pkg:npm/tunnel-agent@0.6.0",
      "name": "tunnel-agent",
      "version": "0.6.0",
      "description": "HTTP proxy tunneling agent. Formerly part of mikeal/request, now a standalone module.",
      "hashes": [
        {
          "alg": "SHA-1",
          "content": "27a5dea06b36b04a0a9966774b290868f0fc40fd"
        }
      ],
      "licenses": [
        {
          "license": {
            "id": "Apache-2.0"
          }
        }
      ],
      "purl": "pkg:npm/tunnel-agent@0.6.0",
      "externalReferences": [
        {
          "url": "https://github.com/mikeal/tunnel-agent#readme",
          "type": "website"
        },
        {
          "url": "https://github.com/mikeal/tunnel-agent/issues",
          "type": "issue-tracker"
        },
        {
          "url": "git+https://github.com/mikeal/tunnel-agent.git",
          "type": "vcs"
        }
      ]
    },
    {
      "type": "library",
      "bom-ref": "pkg:npm/uuid@3.4.0",
      "name": "uuid",
      "version": "3.4.0",
      "description": "RFC4122 (v1, v4, and v5) UUIDs",
      "hashes": [
        {
          "alg": "SHA-1",
          "content": "b23e4358afa8a202fe7a100af1f5f883f02007ee"
        }
      ],
      "licenses": [
        {
          "license": {
            "id": "MIT"
          }
        }
      ],
      "purl": "pkg:npm/uuid@3.4.0",
      "externalReferences": [
        {
          "url": "https://github.com/uuidjs/uuid#readme",
          "type": "website"
        },
        {
          "url": "https://github.com/uuidjs/uuid/issues",
          "type": "issue-tracker"
        },
        {
          "url": "git+https://github.com/uuidjs/uuid.git",
          "type": "vcs"
        }
      ]
    },
    {
      "type": "library",
      "bom-ref": "pkg:npm/resolve@0.3.1",
      "name": "resolve",
      "version": "0.3.1",
      "description": "resolve like require.resolve() on behalf of files asynchronously and synchronously",
      "hashes": [
        {
          "alg": "SHA-1",
          "content": "34c63447c664c70598d1c9b126fc43b2a24310a4"
        }
      ],
      "licenses": [
        {
          "license": {
            "id": "MIT"
          }
        }
      ],
      "purl": "pkg:npm/resolve@0.3.1",
      "externalReferences": [
        {
          "url": "https://github.com/substack/node-resolve#readme",
          "type": "website"
        },
        {
          "url": "https://github.com/substack/node-resolve/issues",
          "type": "issue-tracker"
        },
        {
          "url": "git://github.com/substack/node-resolve.git",
          "type": "vcs"
        }
      ]
    },
    {
      "type": "library",
      "bom-ref": "pkg:npm/source-map@0.1.43",
      "name": "source-map",
      "version": "0.1.43",
      "description": "Generates and consumes source maps",
      "hashes": [
        {
          "alg": "SHA-1",
          "content": "c24bc146ca517c1471f5dacbe2571b2b7f9e3346"
        }
      ],
      "purl": "pkg:npm/source-map@0.1.43",
      "externalReferences": [
        {
          "url": "https://github.com/mozilla/source-map",
          "type": "website"
        },
        {
          "url": "https://github.com/mozilla/source-map/issues",
          "type": "issue-tracker"
        },
        {
          "url": "git+ssh://git@github.com/mozilla/source-map.git",
          "type": "vcs"
        }
      ]
    },
    {
      "type": "library",
      "bom-ref": "pkg:npm/clean-css@2.0.8",
      "name": "clean-css",
      "version": "2.0.8",
      "description": "A well-tested CSS minifier",
      "hashes": [
        {
          "alg": "SHA-1",
          "content": "e937cdfdcc5781a00817aec4079e85b3ec157a20"
        }
      ],
      "licenses": [
        {
          "license": {
            "id": "MIT"
          }
        }
      ],
      "purl": "pkg:npm/clean-css@2.0.8",
      "externalReferences": [
        {
          "url": "https://github.com/GoalSmashers/clean-css",
          "type": "website"
        },
        {
          "url": "https://github.com/GoalSmashers/clean-css/issues",
          "type": "issue-tracker"
        },
        {
          "url": "git+https://github.com/GoalSmashers/clean-css.git",
          "type": "vcs"
        }
      ]
    },
    {
      "type": "library",
      "bom-ref": "pkg:npm/grunt-cli@0.1.13",
      "name": "grunt-cli",
      "version": "0.1.13",
      "description": "The grunt command line interface.",
      "hashes": [
        {
          "alg": "SHA-1",
          "content": "e9ebc4047631f5012d922770c39378133cad10f4"
        }
      ],
      "purl": "pkg:npm/grunt-cli@0.1.13",
      "externalReferences": [
        {
          "url": "http://gruntjs.com/",
          "type": "website"
        },
        {
          "url": "http://github.com/gruntjs/grunt-cli/issues",
          "type": "issue-tracker"
        },
        {
          "url": "git://github.com/gruntjs/grunt-cli.git",
          "type": "vcs"
        }
      ]
    }
  ]
}
