{
  "bomFormat": "CycloneDX",
  "specVersion": "1.3",
  "version": 2,
  "components": [
    {
      "type": "library",
      "name": "io",
      "version": "0.0.1",
      "purl": "pkg:pypi/io@0.0.1",
      "modified": false
    },
    {
      "type": "library",
      "publisher": "Spark Developers",
      "name": "pyspark",
      "version": "3.3.0",
      "description": "Apache Spark Python API",
      "hashes": [
        {
          "alg": "MD5",
          "content": "50b52b75dc2e95a9ebd75a9a5400c083"
        },
        {
          "alg": "SHA-256",
          "content": "7ebe8e9505647b4d124d5a82fca60dfd3891021cf8ad6c5ec88777eeece92cf7"
        }
      ],
      "licenses": [
        {
          "license": {
            "name": "http://www.apache.org/licenses/LICENSE-2.0"
          }
        }
      ],
      "purl": "pkg:pypi/pyspark@3.3.0",
      "modified": false
    },
    {
      "type": "library",
      "publisher": "The gRPC Authors",
      "name": "grpc",
      "version": "1.0.0",
      "description": "Please install the official package with: pip install grpcio",
      "hashes": [
        {
          "alg": "MD5",
          "content": "ce4e2193e5791df9df7e63215f4e87f3"
        },
        {
          "alg": "SHA-256",
          "content": "e1aa035512b1cc8d5ce84685f30eae463dad9123d858f5676b1159a2b80eea86"
        }
      ],
      "licenses": [
        {
          "license": {
            "name": "Apache License 2.0"
          }
        }
      ],
      "purl": "pkg:pypi/grpc@1.0.0",
      "modified": false
    },
    {
      "type": "library",
      "publisher": "Antoine Pitrou",
      "name": "pathlib",
      "version": "1.0.1",
      "description": "Object-oriented filesystem paths",
      "hashes": [
        {
          "alg": "MD5",
          "content": "f26b13acf298a15cdb46a3dffc8eb0de"
        },
        {
          "alg": "SHA-256",
          "content": "f35f95ab8b0f59e6d354090350b44a80a80635d22efdedfa84c7ad1cf0a74147"
        }
      ],
      "licenses": [
        {
          "license": {
            "name": "MIT License"
          }
        }
      ],
      "purl": "pkg:pypi/pathlib@1.0.1",
      "modified": false
    }
  ],
  "metadata": {
    "authors": [
      {
        "name": "Fortress Information Security",
        "email": "sales@fortressinfosec.com",
        "phone": "1-407-573-6800"
      }
    ],
    "tools": [
      {
        "vendor": "Fortress Information Security",
        "name": "GitHub Extractor",
        "version": "1.15.1"
      }
    ],
    "timestamp": "2022-07-26T23:36:35Z",
    "component": {
      "type": "application",
      "name": "opaque-sql",
      "version": "",
      "group": "mc2-project",
      "externalReferences": [
        {
          "url": "https://github.com/mc2-project/opaque-sql.git",
          "type": "distribution"
        }
      ]
    }
  }
}
