{
  "bomFormat": "CycloneDX",
  "specVersion": "1.3",
  "version": 1,
  "metadata": {
    "tools": [
      {
        "vendor": "AppThreat",
        "name": "cdxgen",
        "version": "3.0.10"
      },
      {
        "vendor": "Fortress Information Security",
        "name": "Github Extractor",
        "version": "1.15.1"
      }
    ],
    "authors": [
      {
        "name": "Fortress Information Security",
        "email": "sales@fortressinfosec.com",
        "phone": "1-407-573-6800"
      }
    ],
    "timestamp": "2022-06-01T21:00:00Z",
    "component": {
      "type": "application",
      "name": "SPTAG",
      "version": "",
      "group": "microsoft",
      "externalReferences": [
        {
          "url": "https://github.com/microsoft/SPTAG.git",
          "type": "distribution"
        },
        {
          "type": "website",
          "url": "null",
          "comment": "As set via `homepage` in Github API"
        }
      ]
    }
  },
  "components": [
    {
      "type": "library",
      "publisher": "Greg Ward",
      "name": "distutils",
      "version": "1.0",
      "description": "Python Distribution Utilities",
      "purl": "pkg:pypi/distutils@1.0",
      "modified": false
    },
    {
      "type": "library",
      "publisher": "Python Packaging Authority",
      "name": "setuptools",
      "version": "62.3.2",
      "description": "Easily download, build, install, upgrade, and uninstall Python packages",
      "hashes": [
        {
          "alg": "MD5",
          "content": "8cec5ba9f875efdd8534000c3a0c9b24"
        },
        {
          "alg": "SHA-256",
          "content": "68e45d17c9281ba25dc0104eadd2647172b3472d9e01f911efa57965e8d51a36"
        }
      ],
      "purl": "pkg:pypi/setuptools@62.3.2",
      "modified": false
    },
    {
      "type": "library",
      "publisher": "Travis E. Oliphant et al.",
      "name": "numpy",
      "version": "1.22.4",
      "description": "NumPy is the fundamental package for array computing with Python.",
      "hashes": [
        {
          "alg": "MD5",
          "content": "ab803b24ea557452e828adba1b986af3"
        },
        {
          "alg": "SHA-256",
          "content": "0791fbd1e43bf74b3502133207e378901272f3c156c4df4954cad833b1380207"
        }
      ],
      "licenses": [
        {
          "license": {
            "name": "BSD"
          }
        }
      ],
      "purl": "pkg:pypi/numpy@1.22.4",
      "modified": false
    },
    {
      "type": "library",
      "publisher": "Microsoft SPTAG Team",
      "name": "SPTAG",
      "version": "1.0.1",
      "description": "SPTAG: A library for fast approximate nearest neighbor search",
      "hashes": [
        {
          "alg": "MD5",
          "content": "cf21143d799f937b8136c0c2120bab90"
        },
        {
          "alg": "SHA-256",
          "content": "5bc842aec82b522fb62462db3a5fc545bad194163fc02a38370acfb8b2bdb838"
        }
      ],
      "licenses": [
        {
          "license": {
            "name": "MIT"
          }
        }
      ],
      "purl": "pkg:pypi/sptag@1.0.1",
      "modified": false
    },
    {
      "type": "library",
      "publisher": "Secret Labs AB (PythonWare)",
      "name": "PIL",
      "version": "1.1.6",
      "description": "Python Imaging Library",
      "licenses": [
        {
          "license": {
            "name": "Python (MIT style)"
          }
        }
      ],
      "purl": "pkg:pypi/pil@1.1.6",
      "modified": false
    },
    {
      "type": "library",
      "publisher": "Keras team",
      "name": "keras",
      "version": "2.9.0",
      "description": "Deep learning for humans.",
      "hashes": [
        {
          "alg": "MD5",
          "content": "8e6d6b4cf403e191d26b9196dd2608e1"
        },
        {
          "alg": "SHA-256",
          "content": "55911256f89cfc9343c9fbe4b61ec45a2d33d89729cbe1ab9dcacf8b07b8b6ab"
        }
      ],
      "licenses": [
        {
          "license": {
            "name": "Apache 2.0"
          }
        }
      ],
      "purl": "pkg:pypi/keras@2.9.0",
      "modified": false
    },
    {
      "type": "library",
      "publisher": "Matthijs Douze, Jeff Johnson, Herve Jegou",
      "name": "faiss",
      "version": "1.5.3",
      "description": "A library for efficient similarity search and clustering of dense vectors",
      "hashes": [
        {
          "alg": "MD5",
          "content": "cc717ce33243a7a093688bd3241cb206"
        },
        {
          "alg": "SHA-256",
          "content": "48e7a238046f6fc647800a0cd3bc0f3f5e1e232369d48473da694ab262fcb67c"
        }
      ],
      "licenses": [
        {
          "license": {
            "name": "BSD"
          }
        }
      ],
      "purl": "pkg:pypi/faiss@1.5.3",
      "modified": false
    },
    {
      "type": "library",
      "bom-ref": "pkg:pypi/numpy@1.21.0",
      "group": "",
      "name": "numpy",
      "version": "1.21.0",
      "description": "NumPy is the fundamental package for array computing with Python.",
      "hashes": [
        {
          "alg": "SHA-256",
          "content": "d5caa946a9f55511e76446e170bdad1d12d6b54e17a2afe7b189112ed4412bb8"
        }
      ],
      "licenses": [
        {
          "license": {
            "id": "0BSD",
            "url": "https://opensource.org/licenses/0BSD"
          }
        }
      ],
      "purl": "pkg:pypi/numpy@1.21.0",
      "externalReferences": [
        {
          "url": "https://www.numpy.org",
          "type": "website"
        }
      ]
    },
    {
      "type": "library",
      "bom-ref": "pkg:pypi/matplotlib@2.2.2",
      "group": "",
      "name": "matplotlib",
      "version": "2.2.2",
      "description": "Python plotting package",
      "hashes": [
        {
          "alg": "SHA-256",
          "content": "3fd90b407d1ab0dae686a4200030ce305526ff20b85a443dc490d194114b2dfa"
        }
      ],
      "licenses": [
        {
          "license": {
            "name": "PSF"
          }
        }
      ],
      "purl": "pkg:pypi/matplotlib@2.2.2",
      "externalReferences": [
        {
          "url": "https://matplotlib.org",
          "type": "website"
        }
      ]
    },
    {
      "type": "library",
      "bom-ref": "pkg:pypi/keras@2.2.4",
      "group": "",
      "name": "Keras",
      "version": "2.2.4",
      "description": "Deep learning for humans.",
      "hashes": [
        {
          "alg": "SHA-256",
          "content": "794d0c92c6c4122f1f0fcf3a7bc2f49054c6a54ddbef8d8ffafca62795d760b6"
        }
      ],
      "licenses": [
        {
          "license": {
            "id": "Apache-2.0",
            "url": "https://opensource.org/licenses/Apache-2.0"
          }
        }
      ],
      "purl": "pkg:pypi/keras@2.2.4",
      "externalReferences": [
        {
          "url": "https://keras.io/",
          "type": "website"
        }
      ]
    },
    {
      "type": "library",
      "bom-ref": "pkg:pypi/pillow@9.0.1",
      "group": "",
      "name": "Pillow",
      "version": "9.0.1",
      "description": "Python Imaging Library (Fork)",
      "hashes": [
        {
          "alg": "SHA-256",
          "content": "a5d24e1d674dd9d72c66ad3ea9131322819ff86250b30dc5821cbafcfa0b96b4"
        }
      ],
      "licenses": [
        {
          "license": {
            "id": "HPND",
            "url": "https://opensource.org/licenses/HPND"
          }
        }
      ],
      "purl": "pkg:pypi/pillow@9.0.1",
      "externalReferences": [
        {
          "url": "https://python-pillow.org",
          "type": "website"
        }
      ]
    },
    {
      "type": "library",
      "bom-ref": "pkg:pypi/scikit-learn@0.21.3",
      "group": "",
      "name": "scikit_learn",
      "version": "0.21.3",
      "description": "A set of python modules for machine learning and data mining",
      "hashes": [
        {
          "alg": "SHA-256",
          "content": "5083a5e50d9d54548e4ada829598ae63a05651dd2bb319f821ffd9e8388384a6"
        }
      ],
      "licenses": [
        {
          "license": {
            "name": "new BSD"
          }
        }
      ],
      "purl": "pkg:pypi/scikit-learn@0.21.3",
      "externalReferences": [
        {
          "url": "http://scikit-learn.org",
          "type": "website"
        }
      ]
    }
  ]
}
