{
  "bomFormat": "CycloneDX",
  "specVersion": "1.3",
  "version": 1,
  "metadata": {
    "tools": [
      {
        "vendor": "CycloneDX",
        "name": "cyclonedx-gomod",
        "version": "v0.0.0-unset",
        "hashes": [
          {
            "alg": "MD5",
            "content": "a35776fc9417e8071d3f1dcfa2f1dd19"
          },
          {
            "alg": "SHA-1",
            "content": "a19a8eed713eff5a2092e5283c201a146f19421d"
          },
          {
            "alg": "SHA-256",
            "content": "17b3b980b9a5d0f48ad52043dee5b31aff3ae6599a36bc94224dc7b6a46759ef"
          },
          {
            "alg": "SHA-512",
            "content": "9d4f06aab20cede94a1aedf11a300ae9de98871235c68c72e421cd6d45495910861b39e743ee0eceb11bbdcd2c9acc3312c19064cfe90177243fb43127fcfa46"
          }
        ]
      },
      {
        "vendor": "AppThreat",
        "name": "cdxgen",
        "version": "3.0.10"
      },
      {
        "vendor": "Fortress Information Security",
        "name": "Github Extractor",
        "version": "1.15.1"
      }
    ],
    "authors": [
      {
        "name": "Fortress Information Security",
        "email": "sales@fortressinfosec.com",
        "phone": "1-407-573-6800"
      }
    ],
    "timestamp": "2022-06-01T21:00:00Z",
    "component": {
      "type": "application",
      "name": "gox",
      "version": "",
      "group": "mitchellh",
      "externalReferences": [
        {
          "url": "https://github.com/mitchellh/gox.git",
          "type": "distribution"
        },
        {
          "type": "website",
          "url": "null",
          "comment": "As set via `homepage` in Github API"
        }
      ]
    }
  },
  "components": [
    {
      "type": "library",
      "bom-ref": "pkg:golang/github.com/hashicorp/go-version@v1.0.0",
      "name": "github.com/hashicorp/go-version",
      "version": "v1.0.0",
      "scope": "required",
      "hashes": [
        {
          "alg": "SHA-256",
          "content": "db531558f283a61c5aee29de4104eb094e5bae1eceb95540cc63829e708fb44f"
        }
      ],
      "purl": "pkg:golang/github.com/hashicorp/go-version@v1.0.0",
      "externalReferences": [
        {
          "url": "https://github.com/hashicorp/go-version",
          "type": "vcs"
        }
      ]
    },
    {
      "type": "library",
      "bom-ref": "pkg:golang/github.com/mitchellh/iochan@v1.0.0",
      "name": "github.com/mitchellh/iochan",
      "version": "v1.0.0",
      "scope": "required",
      "hashes": [
        {
          "alg": "SHA-256",
          "content": "0be5f72ac4932c5541affb4ad5e60dfefb38ac972fb222d4df7f148583c959e6"
        }
      ],
      "purl": "pkg:golang/github.com/mitchellh/iochan@v1.0.0",
      "externalReferences": [
        {
          "url": "https://github.com/mitchellh/iochan",
          "type": "vcs"
        }
      ]
    }
  ],
  "dependencies": [
    {
      "ref": "pkg:golang/github.com/hashicorp/go-version@v1.0.0"
    },
    {
      "ref": "pkg:golang/github.com/mitchellh/iochan@v1.0.0"
    },
    {
      "ref": "pkg:golang/github.com/mitchellh/gox@v0.0.0-20210311102516-8c3b2b9e647d",
      "dependsOn": [
        "pkg:golang/github.com/hashicorp/go-version@v1.0.0",
        "pkg:golang/github.com/mitchellh/iochan@v1.0.0"
      ]
    }
  ]
}
