{
  "bomFormat": "CycloneDX",
  "specVersion": "1.3",
  "version": 2,
  "metadata": {
    "tools": [
      {
        "vendor": "CycloneDX",
        "name": "cyclonedx-gomod",
        "version": "v0.0.0-unset",
        "hashes": [
          {
            "alg": "MD5",
            "content": "a35776fc9417e8071d3f1dcfa2f1dd19"
          },
          {
            "alg": "SHA-1",
            "content": "a19a8eed713eff5a2092e5283c201a146f19421d"
          },
          {
            "alg": "SHA-256",
            "content": "17b3b980b9a5d0f48ad52043dee5b31aff3ae6599a36bc94224dc7b6a46759ef"
          },
          {
            "alg": "SHA-512",
            "content": "9d4f06aab20cede94a1aedf11a300ae9de98871235c68c72e421cd6d45495910861b39e743ee0eceb11bbdcd2c9acc3312c19064cfe90177243fb43127fcfa46"
          }
        ]
      },
      {
        "vendor": "AppThreat",
        "name": "cdxgen",
        "version": "3.0.10"
      },
      {
        "vendor": "Fortress Information Security",
        "name": "Github Extractor",
        "version": "1.15.1"
      }
    ],
    "authors": [
      {
        "name": "Fortress Information Security",
        "email": "sales@fortressinfosec.com",
        "phone": "1-407-573-6800"
      }
    ],
    "timestamp": "2022-07-26T23:36:35Z",
    "component": {
      "type": "application",
      "name": "hyperkit",
      "version": "",
      "group": "moby",
      "externalReferences": [
        {
          "url": "https://github.com/moby/hyperkit.git",
          "type": "distribution"
        },
        {
          "type": "website",
          "url": "null",
          "comment": "As set via `homepage` in Github API"
        }
      ]
    }
  },
  "components": [
    {
      "type": "library",
      "bom-ref": "pkg:golang/github.com/mitchellh/go-ps@v1.0.0",
      "name": "github.com/mitchellh/go-ps",
      "version": "v1.0.0",
      "scope": "required",
      "hashes": [
        {
          "alg": "SHA-256",
          "content": "8ba6a6a55104178c10145f9b9187f062063e17fb9824392d9af2cf7fba888237"
        }
      ],
      "purl": "pkg:golang/github.com/mitchellh/go-ps@v1.0.0",
      "externalReferences": [
        {
          "url": "https://github.com/mitchellh/go-ps",
          "type": "vcs"
        }
      ]
    },
    {
      "type": "library",
      "bom-ref": "pkg:golang/golang.org/x/sys@v0.0.0-20201015000850-e3ed0017c211",
      "name": "golang.org/x/sys",
      "version": "v0.0.0-20201015000850-e3ed0017c211",
      "scope": "required",
      "hashes": [
        {
          "alg": "SHA-256",
          "content": "f5440edf57d9fb468a40e16575385fec128f3094e205f5b270687fbb75283bcf"
        }
      ],
      "purl": "pkg:golang/golang.org/x/sys@v0.0.0-20201015000850-e3ed0017c211"
    },
    {
      "type": "library",
      "bom-ref": "pkg:golang/github.com/stretchr/testify@v1.6.1",
      "group": "github.com/stretchr",
      "name": "testify",
      "version": "v1.6.1",
      "description": "",
      "hashes": [
        {
          "alg": "SHA-256",
          "content": "e85abca11711e77aebcbdd34ccca898d1462c6bc17dca5fdeb6fe1fd6c23b5e8"
        }
      ],
      "purl": "pkg:golang/github.com/stretchr/testify@v1.6.1"
    }
  ],
  "dependencies": [
    {
      "ref": "pkg:golang/github.com/mitchellh/go-ps@v1.0.0"
    },
    {
      "ref": "pkg:golang/golang.org/x/sys@v0.0.0-20201015000850-e3ed0017c211"
    },
    {
      "ref": "pkg:golang/github.com/moby/hyperkit@v0.0.0-20220220121959-3cb0d5475244",
      "dependsOn": [
        "pkg:golang/github.com/mitchellh/go-ps@v1.0.0",
        "pkg:golang/golang.org/x/sys@v0.0.0-20201015000850-e3ed0017c211"
      ]
    }
  ]
}
