{
  "bomFormat": "CycloneDX",
  "specVersion": "1.3",
  "serialNumber": "urn:uuid:4d13a192-5c7c-4d46-b76f-9123dc7b7192",
  "version": 1,
  "metadata": {
    "timestamp": "2022-06-06T23:17:10Z",
    "tools": [
      {
        "vendor": "AppThreat",
        "name": "cdxgen",
        "version": "3.0.10"
      },
      {
        "vendor": "Fortress Information Security",
        "name": "Github Extractor",
        "version": "1.15.1"
      }
    ],
    "authors": [
      {
        "name": "Team AppThreat",
        "email": "cloud@appthreat.com"
      },
      {
        "name": "Fortress Information Security",
        "email": "sales@fortressinfosec.com",
        "phone": "1-407-573-6800"
      }
    ],
    "component": {
      "type": "application",
      "name": "fontdue",
      "version": "",
      "group": "mooman219",
      "externalReferences": [
        {
          "url": "https://github.com/mooman219/fontdue.git",
          "type": "distribution"
        },
        {
          "type": "website",
          "url": "null",
          "comment": "As set via `homepage` in Github API"
        }
      ]
    }
  },
  "components": [
    {
      "type": "library",
      "bom-ref": "pkg:crates/fontdue@0.7.2",
      "group": "",
      "name": "fontdue",
      "version": "0.7.2",
      "description": "",
      "purl": "pkg:crates/fontdue@0.7.2"
    },
    {
      "type": "library",
      "bom-ref": "pkg:crates/ttf-parser@0.15",
      "group": "",
      "name": "ttf-parser",
      "version": "0.15",
      "description": "",
      "purl": "pkg:crates/ttf-parser@0.15"
    },
    {
      "type": "library",
      "bom-ref": "pkg:crates/hashbrown@0.11",
      "group": "",
      "name": "hashbrown",
      "version": "0.11",
      "description": "",
      "purl": "pkg:crates/hashbrown@0.11"
    },
    {
      "type": "library",
      "bom-ref": "pkg:crates/rayon@1.5.1",
      "group": "",
      "name": "rayon",
      "version": "1.5.1",
      "description": "",
      "purl": "pkg:crates/rayon@1.5.1"
    },
    {
      "type": "library",
      "bom-ref": "pkg:crates/fontdue_dev@0.1.0",
      "group": "",
      "name": "fontdue_dev",
      "version": "0.1.0",
      "description": "",
      "purl": "pkg:crates/fontdue_dev@0.1.0"
    },
    {
      "type": "library",
      "bom-ref": "pkg:crates/freetype-rs@0.26.0",
      "group": "",
      "name": "freetype-rs",
      "version": "0.26.0",
      "description": "",
      "purl": "pkg:crates/freetype-rs@0.26.0"
    },
    {
      "type": "library",
      "bom-ref": "pkg:crates/criterion@0.3",
      "group": "",
      "name": "criterion",
      "version": "0.3",
      "description": "",
      "purl": "pkg:crates/criterion@0.3"
    },
    {
      "type": "library",
      "bom-ref": "pkg:crates/rusttype@0.9.2",
      "group": "",
      "name": "rusttype",
      "version": "0.9.2",
      "description": "",
      "purl": "pkg:crates/rusttype@0.9.2"
    },
    {
      "type": "library",
      "bom-ref": "pkg:crates/ab_glyph@0.2",
      "group": "",
      "name": "ab_glyph",
      "version": "0.2",
      "description": "",
      "purl": "pkg:crates/ab_glyph@0.2"
    },
    {
      "type": "library",
      "bom-ref": "pkg:crates/glyph_brush_layout@0.2.0",
      "group": "",
      "name": "glyph_brush_layout",
      "version": "0.2.0",
      "description": "",
      "purl": "pkg:crates/glyph_brush_layout@0.2.0"
    },
    {
      "type": "library",
      "bom-ref": "pkg:crates/png@0.16",
      "group": "",
      "name": "png",
      "version": "0.16",
      "description": "",
      "purl": "pkg:crates/png@0.16"
    },
    {
      "type": "library",
      "bom-ref": "pkg:crates/walkdir@2.3",
      "group": "",
      "name": "walkdir",
      "version": "2.3",
      "description": "",
      "purl": "pkg:crates/walkdir@2.3"
    },
    {
      "type": "library",
      "bom-ref": "pkg:crates/name@rasterize",
      "group": "",
      "name": "name",
      "version": "rasterize",
      "description": "",
      "purl": "pkg:crates/name@rasterize"
    },
    {
      "type": "library",
      "bom-ref": "pkg:crates/harness@false",
      "group": "",
      "name": "harness",
      "version": "false",
      "description": "",
      "purl": "pkg:crates/harness@false"
    },
    {
      "type": "library",
      "bom-ref": "pkg:crates/name@layout",
      "group": "",
      "name": "name",
      "version": "layout",
      "description": "",
      "purl": "pkg:crates/name@layout"
    },
    {
      "type": "library",
      "bom-ref": "pkg:crates/name@load",
      "group": "",
      "name": "name",
      "version": "load",
      "description": "",
      "purl": "pkg:crates/name@load"
    }
  ],
  "externalReferences": [
    {
      "url": "/project/src",
      "type": "other",
      "comment": "Base path"
    },
    {
      "url": "/project/src/Cargo.toml, /project/src/dev/Cargo.toml",
      "type": "other",
      "comment": "Package file"
    }
  ]
}
