{
  "bomFormat": "CycloneDX",
  "specVersion": "1.3",
  "version": 1,
  "components": [
    {
      "type": "library",
      "publisher": "Greg Ward",
      "name": "distutils",
      "version": "1.0",
      "description": "Python Distribution Utilities",
      "purl": "pkg:pypi/distutils@1.0",
      "modified": false
    }
  ],
  "metadata": {
    "tools": [
      {
        "vendor": "Fortress Information Security",
        "name": "Github Extractor",
        "version": "1.15.1"
      }
    ],
    "authors": [
      {
        "name": "Fortress Information Security",
        "email": "sales@fortressinfosec.com",
        "phone": "1-407-573-6800"
      }
    ],
    "timestamp": "2022-06-01T21:00:00Z",
    "component": {
      "type": "application",
      "name": "fwknop",
      "version": "",
      "group": "mrash",
      "externalReferences": [
        {
          "url": "https://github.com/mrash/fwknop.git",
          "type": "distribution"
        },
        {
          "type": "website",
          "url": "http://www.cipherdyne.org/fwknop/",
          "comment": "As set via `homepage` in Github API"
        }
      ]
    }
  }
}
