{
  "bomFormat": "CycloneDX",
  "specVersion": "1.3",
  "version": 2,
  "metadata": {
    "tools": [
      {
        "vendor": "AppThreat",
        "name": "cdxgen",
        "version": "3.0.10"
      },
      {
        "vendor": "Fortress Information Security",
        "name": "Github Extractor",
        "version": "1.15.1"
      }
    ],
    "authors": [
      {
        "name": "Fortress Information Security",
        "email": "sales@fortressinfosec.com",
        "phone": "1-407-573-6800"
      }
    ],
    "timestamp": "2022-07-26T23:35:30Z",
    "component": {
      "type": "application",
      "name": "outrun",
      "version": "",
      "group": "Overv",
      "externalReferences": [
        {
          "url": "https://github.com/Overv/outrun.git",
          "type": "distribution"
        },
        {
          "type": "website",
          "url": "null",
          "comment": "As set via `homepage` in Github API"
        }
      ]
    }
  },
  "components": [
    {
      "type": "library",
      "publisher": "Python Packaging Authority",
      "name": "setuptools",
      "version": "62.1.0",
      "description": "Easily download, build, install, upgrade, and uninstall Python packages",
      "hashes": [
        {
          "alg": "MD5",
          "content": "101d2e2bf9b7682ab90d9a7bd487bdbe"
        },
        {
          "alg": "SHA-256",
          "content": "26ead7d1f93efc0f8c804d9fafafbe4a44b179580a7105754b245155f9af05a8"
        }
      ],
      "purl": "pkg:pypi/setuptools@62.1.0",
      "modified": false
    },
    {
      "type": "library",
      "publisher": "Vinay Sajip",
      "name": "logging",
      "version": "0.4.9.6",
      "description": "A logging module for Python",
      "hashes": [
        {
          "alg": "MD5",
          "content": "dc0a7ebc8b8970263911e11e7b7e1ca8"
        },
        {
          "alg": "SHA-256",
          "content": "26f6b50773f085042d301085bd1bf5d9f3735704db9f37c1ce6d8b85c38f2417"
        }
      ],
      "licenses": [
        {
          "license": {
            "name": "Copyright (C) 2001-2005 by Vinay Sajip. All Rights Reserved. See LICENSE for license."
          }
        }
      ],
      "purl": "pkg:pypi/logging@0.4.9.6",
      "modified": false
    },
    {
      "type": "library",
      "publisher": "Guido van Rossum, Jukka Lehtosalo, Łukasz Langa, Ivan Levkivskyi",
      "name": "typing",
      "version": "3.10.0.0",
      "description": "Type Hints for Python",
      "hashes": [
        {
          "alg": "MD5",
          "content": "cf38139027dc160e3ecd8e5ccf151da9"
        },
        {
          "alg": "SHA-256",
          "content": "12fbdfbe7d6cca1a42e485229afcb0b0c8259258cfb919b8a5e2a5c953742f89"
        }
      ],
      "licenses": [
        {
          "license": {
            "name": "PSF"
          }
        }
      ],
      "purl": "pkg:pypi/typing@3.10.0.0",
      "modified": false
    },
    {
      "type": "library",
      "publisher": "Łukasz Langa",
      "name": "configparser",
      "version": "5.2.0",
      "description": "Updated configparser from Python 3.8 for Python 2.6+.",
      "hashes": [
        {
          "alg": "MD5",
          "content": "69bab6f43cd4375830a54a53a50129fa"
        },
        {
          "alg": "SHA-256",
          "content": "e8b39238fb6f0153a069aa253d349467c3c4737934f253ef6abac5fe0eca1e5d"
        }
      ],
      "purl": "pkg:pypi/configparser@5.2.0",
      "modified": false
    },
    {
      "type": "library",
      "publisher": "Eric V. Smith",
      "name": "dataclasses",
      "version": "0.8",
      "description": "A backport of the dataclasses module for Python 3.6",
      "hashes": [
        {
          "alg": "MD5",
          "content": "0d6e5bb7adcc8fb0de3ef1ace1b32999"
        },
        {
          "alg": "SHA-256",
          "content": "0201d89fa866f68c8ebd9d08ee6ff50c0b255f8ec63a71c16fda7af82bb887bf"
        }
      ],
      "licenses": [
        {
          "license": {
            "name": "Apache"
          }
        }
      ],
      "purl": "pkg:pypi/dataclasses@0.8",
      "modified": false
    },
    {
      "type": "library",
      "publisher": "Thomas Waldmann",
      "name": "argparse",
      "version": "1.4.0",
      "description": "Python command-line parsing library",
      "hashes": [
        {
          "alg": "MD5",
          "content": "c37216a954c8669054e2b2c54853dd49"
        },
        {
          "alg": "SHA-256",
          "content": "c31647edb69fd3d465a847ea3157d37bed1f95f19760b11a47aa91c04b666314"
        }
      ],
      "licenses": [
        {
          "license": {
            "name": "Python Software Foundation License"
          }
        }
      ],
      "purl": "pkg:pypi/argparse@1.4.0",
      "modified": false
    },
    {
      "type": "library",
      "publisher": "Kostiantyn Rybnikov",
      "name": "semver",
      "version": "2.13.0",
      "description": "Python helper for Semantic Versioning (http://semver.org/)",
      "hashes": [
        {
          "alg": "MD5",
          "content": "12c6b89830b0ae41796b5150c20849d4"
        },
        {
          "alg": "SHA-256",
          "content": "ced8b23dceb22134307c1b8abfa523da14198793d9787ac838e70e29e77458d4"
        }
      ],
      "licenses": [
        {
          "license": {
            "name": "BSD"
          }
        }
      ],
      "purl": "pkg:pypi/semver@2.13.0",
      "modified": false
    },
    {
      "type": "library",
      "publisher": "Stephan Klein",
      "name": "signal",
      "version": "0.1",
      "description": "Send SMS messages via ADB and your Android phone. Comes with a CLI.",
      "licenses": [
        {
          "license": {
            "name": "MIT"
          }
        }
      ],
      "purl": "pkg:pypi/signal@0.1",
      "modified": false
    },
    {
      "type": "library",
      "publisher": "Thomas Heller",
      "name": "ctypes",
      "version": "1.0.2",
      "description": "create and manipulate C data types in Python, call functions in shared libraries",
      "licenses": [
        {
          "license": {
            "name": "MIT License"
          }
        }
      ],
      "purl": "pkg:pypi/ctypes@1.0.2",
      "modified": false
    },
    {
      "type": "library",
      "publisher": "Ben Finney",
      "name": "enum",
      "version": "0.4.7",
      "description": "Robust enumerated type support in Python.",
      "hashes": [
        {
          "alg": "MD5",
          "content": "e7d170e3f84435b77058de625c96ef58"
        },
        {
          "alg": "SHA-256",
          "content": "8c7cf3587eda51008bcc1eed99ea2c331ccd265c231dbaa95ec5258d3dc03100"
        }
      ],
      "licenses": [
        {
          "license": {
            "name": "GPL-3.0+"
          }
        }
      ],
      "purl": "pkg:pypi/enum@0.4.7",
      "modified": false
    },
    {
      "type": "library",
      "name": "hashlib",
      "version": "20081119",
      "description": "Secure hash and message digest algorithm library",
      "hashes": [
        {
          "alg": "MD5",
          "content": "46e59db6d5cac34b3344ef0c30d0897f"
        },
        {
          "alg": "SHA-256",
          "content": "419de2fd10ae71ed9c6adcb55903f116abd1d8acc8c814dfd5f839b4d5013e38"
        }
      ],
      "purl": "pkg:pypi/hashlib@20081119",
      "modified": false
    },
    {
      "type": "library",
      "publisher": "Ka-Ping Yee",
      "name": "uuid",
      "version": "1.30",
      "description": "UUID object and generation functions (Python 2.3 or higher)",
      "hashes": [
        {
          "alg": "MD5",
          "content": "639b310f1fe6800e4bf8aa1dd9333117"
        },
        {
          "alg": "SHA-256",
          "content": "1f87cc004ac5120466f36c5beae48b4c48cc411968eed0eaecd3da82aa96193f"
        }
      ],
      "purl": "pkg:pypi/uuid@1.30",
      "modified": false
    },
    {
      "type": "library",
      "publisher": "Joshua Harlow",
      "name": "fasteners",
      "version": "0.17.3",
      "description": "A python package that provides useful locks",
      "hashes": [
        {
          "alg": "MD5",
          "content": "f20de667e11721e6ec8d8b4ed5bea636"
        },
        {
          "alg": "SHA-256",
          "content": "cae0772df265923e71435cc5057840138f4e8b6302f888a567d06ed8e1cbca03"
        }
      ],
      "licenses": [
        {
          "license": {
            "name": "ASL 2.0"
          }
        }
      ],
      "purl": "pkg:pypi/fasteners@0.17.3",
      "modified": false
    },
    {
      "type": "library",
      "publisher": "Jonathan Underwood",
      "name": "lz4",
      "version": "4.0.0",
      "description": "LZ4 Bindings for Python",
      "hashes": [
        {
          "alg": "MD5",
          "content": "35d833062fe00ced8b633570186cae52"
        },
        {
          "alg": "SHA-256",
          "content": "04067086a443eef46eb2dfc26e1e5a76165149ceb4a88f0b540b46ead95e39c8"
        }
      ],
      "purl": "pkg:pypi/lz4@4.0.0",
      "modified": false
    },
    {
      "type": "library",
      "publisher": "Ilkka Tuohela",
      "name": "secrets",
      "version": "1.0.2",
      "description": "Scripts to manage LDAP users and change LDAP passwords",
      "hashes": [
        {
          "alg": "MD5",
          "content": "68bcc959655c314d2c52158317638472"
        },
        {
          "alg": "SHA-256",
          "content": "15a7e07b91bd3fd42b0893415fc1be14236e030d7edb33492cf966cf3936e815"
        }
      ],
      "licenses": [
        {
          "license": {
            "name": "PSF"
          }
        }
      ],
      "purl": "pkg:pypi/secrets@1.0.2",
      "modified": false
    },
    {
      "type": "library",
      "publisher": "Inada Naoki",
      "name": "msgpack",
      "version": "1.0.3",
      "description": "MessagePack (de)serializer.",
      "hashes": [
        {
          "alg": "MD5",
          "content": "37ae1be4210126aee96ee7bd77e3709d"
        },
        {
          "alg": "SHA-256",
          "content": "f01b26c2290cbd74316990ba84a14ac3d599af9cebefc543d241a66e785cf17d"
        }
      ],
      "licenses": [
        {
          "license": {
            "name": "Apache 2.0"
          }
        }
      ],
      "purl": "pkg:pypi/msgpack@1.0.3",
      "modified": false
    },
    {
      "type": "library",
      "publisher": "Min RK",
      "name": "zmq",
      "version": "0.0.0",
      "description": "You are probably looking for pyzmq.",
      "hashes": [
        {
          "alg": "MD5",
          "content": "988e0eb30ad7b36880731f09f1b3df93"
        },
        {
          "alg": "SHA-256",
          "content": "21cfc6be254c9bc25e4dabb8a3b2006a4227966b7b39a637426084c8dc6901f7"
        }
      ],
      "licenses": [
        {
          "license": {
            "name": "BSD"
          }
        }
      ],
      "purl": "pkg:pypi/zmq@0.0.0",
      "modified": false
    },
    {
      "type": "library",
      "publisher": "Christian Heimes",
      "name": "multiprocessing",
      "version": "2.6.2.1",
      "description": "Backport of the multiprocessing package to Python 2.4 and 2.5",
      "hashes": [
        {
          "alg": "MD5",
          "content": "5cc484396c040102116ccc2355379c72"
        },
        {
          "alg": "SHA-256",
          "content": "ef3b81ad85d7de252e5491b1daac028e17f9741cbe3625032e6eaa4ad4c79900"
        }
      ],
      "licenses": [
        {
          "license": {
            "name": "BSD Licence"
          }
        }
      ],
      "purl": "pkg:pypi/multiprocessing@2.6.2.1",
      "modified": false
    },
    {
      "type": "library",
      "name": "io",
      "version": "0.0.1",
      "purl": "pkg:pypi/io@0.0.1",
      "modified": false
    },
    {
      "type": "library",
      "publisher": "Michael Foord",
      "name": "unittest",
      "version": "0.0",
      "hashes": [
        {
          "alg": "MD5",
          "content": "2a416384f814604ed854d40f352f1191"
        },
        {
          "alg": "SHA-256",
          "content": "1b492484bea7f68abda5fcc61412e77b6a105e5842355d630f8b75f01add3555"
        }
      ],
      "purl": "pkg:pypi/unittest@0.0",
      "modified": false
    },
    {
      "type": "library",
      "publisher": "Marc Schlaich",
      "name": "pytest_cov",
      "version": "3.0.0",
      "description": "Pytest plugin for measuring coverage.",
      "hashes": [
        {
          "alg": "MD5",
          "content": "72873aff86d7142e2423baec3676456e"
        },
        {
          "alg": "SHA-256",
          "content": "578d5d15ac4a25e5f961c938b85a05b09fdaae9deef3bb6de9a6e766622ca7a6"
        }
      ],
      "licenses": [
        {
          "license": {
            "name": "MIT"
          }
        }
      ],
      "purl": "pkg:pypi/pytest-cov@3.0.0",
      "modified": false
    },
    {
      "type": "library",
      "publisher": "Holger Krekel, Bruno Oliveira, Ronny Pfannschmidt, Floris Bruynooghe, Brianna Laugher, Florian Bruhin and others",
      "name": "pytest",
      "version": "7.1.2",
      "description": "pytest: simple powerful testing with Python",
      "hashes": [
        {
          "alg": "MD5",
          "content": "6f5a9e12007a2529cb00d3b5a8af33a1"
        },
        {
          "alg": "SHA-256",
          "content": "13d0e3ccfc2b6e26be000cb6568c832ba67ba32e719443bfe725814d3c42433c"
        }
      ],
      "licenses": [
        {
          "license": {
            "name": "MIT"
          }
        }
      ],
      "purl": "pkg:pypi/pytest@7.1.2",
      "modified": false
    },
    {
      "type": "library",
      "publisher": "Antoine Pitrou",
      "name": "pathlib",
      "version": "1.0.1",
      "description": "Object-oriented filesystem paths",
      "hashes": [
        {
          "alg": "MD5",
          "content": "f26b13acf298a15cdb46a3dffc8eb0de"
        },
        {
          "alg": "SHA-256",
          "content": "f35f95ab8b0f59e6d354090350b44a80a80635d22efdedfa84c7ad1cf0a74147"
        }
      ],
      "licenses": [
        {
          "license": {
            "name": "MIT License"
          }
        }
      ],
      "purl": "pkg:pypi/pathlib@1.0.1",
      "modified": false
    },
    {
      "type": "library",
      "bom-ref": "pkg:pypi/msgpack@1.0.0",
      "group": "",
      "name": "msgpack",
      "version": "1.0.0",
      "description": "MessagePack (de)serializer.",
      "hashes": [
        {
          "alg": "SHA-256",
          "content": "cec8bf10981ed70998d98431cd814db0ecf3384e6b113366e7f36af71a0fca08"
        }
      ],
      "licenses": [
        {
          "license": {
            "id": "Apache-2.0",
            "url": "https://opensource.org/licenses/Apache-2.0"
          }
        }
      ],
      "purl": "pkg:pypi/msgpack@1.0.0",
      "externalReferences": [
        {
          "url": "https://msgpack.org/",
          "type": "website"
        }
      ]
    },
    {
      "type": "library",
      "bom-ref": "pkg:pypi/pyzmq@19.0.0",
      "group": "",
      "name": "pyzmq",
      "version": "19.0.0",
      "description": "Python bindings for 0MQ",
      "hashes": [
        {
          "alg": "SHA-256",
          "content": "3f12ce1e9cc9c31497bd82b207e8e86ccda9eebd8c9f95053aae46d15ccd2196"
        }
      ],
      "licenses": [
        {
          "license": {
            "name": "LGPL+BSD"
          }
        }
      ],
      "purl": "pkg:pypi/pyzmq@19.0.0",
      "externalReferences": [
        {
          "url": "https://pyzmq.readthedocs.org",
          "type": "website"
        }
      ]
    },
    {
      "type": "library",
      "bom-ref": "pkg:pypi/lz4@3.0.2",
      "group": "",
      "name": "lz4",
      "version": "3.0.2",
      "description": "LZ4 Bindings for Python",
      "hashes": [
        {
          "alg": "SHA-256",
          "content": "b19d54be182e820e2db4e5cb686c940f27627335411762240fb052e50dd49436"
        }
      ],
      "purl": "pkg:pypi/lz4@3.0.2",
      "externalReferences": [
        {
          "url": "https://github.com/python-lz4/python-lz4",
          "type": "vcs"
        }
      ]
    },
    {
      "type": "library",
      "bom-ref": "pkg:pypi/fasteners@0.15",
      "group": "",
      "name": "fasteners",
      "version": "0.15",
      "description": "A python package that provides useful locks",
      "hashes": [
        {
          "alg": "SHA-256",
          "content": "007e4d2b2d4a10093f67e932e5166722d2eab83b77724156e92ad013c6226574"
        }
      ],
      "licenses": [
        {
          "license": {
            "name": "ASL 2.0"
          }
        }
      ],
      "purl": "pkg:pypi/fasteners@0.15",
      "externalReferences": [
        {
          "url": "https://github.com/harlowja/fasteners",
          "type": "vcs"
        }
      ]
    },
    {
      "type": "library",
      "bom-ref": "pkg:pypi/semver@2.9.1",
      "group": "",
      "name": "semver",
      "version": "2.9.1",
      "description": "Python helper for Semantic Versioning (http://semver.org/)",
      "hashes": [
        {
          "alg": "SHA-256",
          "content": "095c3cba6d5433f21451101463b22cf831fe6996fcc8a603407fd8bea54f116b"
        }
      ],
      "licenses": [
        {
          "license": {
            "id": "0BSD",
            "url": "https://opensource.org/licenses/0BSD"
          }
        }
      ],
      "purl": "pkg:pypi/semver@2.9.1",
      "externalReferences": [
        {
          "url": "https://github.com/python-semver/python-semver",
          "type": "vcs"
        }
      ]
    }
  ]
}
