{
  "bomFormat": "CycloneDX",
  "specVersion": "1.3",
  "serialNumber": "urn:uuid:6a0e0392-ced5-4f6d-87cc-5b654b64fcaa",
  "version": 1,
  "metadata": {
    "timestamp": "2022-06-06T18:30:12Z",
    "tools": [
      {
        "vendor": "AppThreat",
        "name": "cdxgen",
        "version": "3.0.10"
      },
      {
        "vendor": "Fortress Information Security",
        "name": "Github Extractor",
        "version": "1.15.1"
      }
    ],
    "authors": [
      {
        "name": "Team AppThreat",
        "email": "cloud@appthreat.com"
      },
      {
        "name": "Fortress Information Security",
        "email": "sales@fortressinfosec.com",
        "phone": "1-407-573-6800"
      }
    ],
    "component": {
      "type": "application",
      "name": "conrod",
      "version": "",
      "group": "PistonDevelopers",
      "externalReferences": [
        {
          "url": "https://github.com/PistonDevelopers/conrod.git",
          "type": "distribution"
        },
        {
          "type": "website",
          "url": "null",
          "comment": "As set via `homepage` in Github API"
        }
      ]
    }
  },
  "components": [
    {
      "type": "library",
      "bom-ref": "pkg:crates/conrod_example_shared@0.76.1",
      "group": "",
      "name": "conrod_example_shared",
      "version": "0.76.1",
      "description": "",
      "purl": "pkg:crates/conrod_example_shared@0.76.1"
    },
    {
      "type": "library",
      "bom-ref": "pkg:crates/rand@0.7",
      "group": "",
      "name": "rand",
      "version": "0.7",
      "description": "",
      "purl": "pkg:crates/rand@0.7"
    },
    {
      "type": "library",
      "bom-ref": "pkg:crates/conrod_gfx@0.76.1",
      "group": "",
      "name": "conrod_gfx",
      "version": "0.76.1",
      "description": "",
      "purl": "pkg:crates/conrod_gfx@0.76.1"
    },
    {
      "type": "library",
      "bom-ref": "pkg:crates/gfx@0.18 }",
      "group": "",
      "name": "gfx",
      "version": "0.18 }",
      "description": "",
      "purl": "pkg:crates/gfx@0.18 }"
    },
    {
      "type": "library",
      "bom-ref": "pkg:crates/gfx_core@0.9 }",
      "group": "",
      "name": "gfx_core",
      "version": "0.9 }",
      "description": "",
      "purl": "pkg:crates/gfx_core@0.9 }"
    },
    {
      "type": "library",
      "bom-ref": "pkg:crates/find_folder@0.3.0",
      "group": "",
      "name": "find_folder",
      "version": "0.3.0",
      "description": "",
      "purl": "pkg:crates/find_folder@0.3.0"
    },
    {
      "type": "library",
      "bom-ref": "pkg:crates/image@0.22",
      "group": "",
      "name": "image",
      "version": "0.22",
      "description": "",
      "purl": "pkg:crates/image@0.22"
    },
    {
      "type": "library",
      "bom-ref": "pkg:crates/petgraph@0.4",
      "group": "",
      "name": "petgraph",
      "version": "0.4",
      "description": "",
      "purl": "pkg:crates/petgraph@0.4"
    },
    {
      "type": "library",
      "bom-ref": "pkg:crates/gfx_device_gl@0.16",
      "group": "",
      "name": "gfx_device_gl",
      "version": "0.16",
      "description": "",
      "purl": "pkg:crates/gfx_device_gl@0.16"
    },
    {
      "type": "library",
      "bom-ref": "pkg:crates/old_school_gfx_glutin_ext@0.25",
      "group": "",
      "name": "old_school_gfx_glutin_ext",
      "version": "0.25",
      "description": "",
      "purl": "pkg:crates/old_school_gfx_glutin_ext@0.25"
    },
    {
      "type": "library",
      "bom-ref": "pkg:crates/glutin@0.25",
      "group": "",
      "name": "glutin",
      "version": "0.25",
      "description": "",
      "purl": "pkg:crates/glutin@0.25"
    },
    {
      "type": "library",
      "bom-ref": "pkg:crates/winit@0.23",
      "group": "",
      "name": "winit",
      "version": "0.23",
      "description": "",
      "purl": "pkg:crates/winit@0.23"
    },
    {
      "type": "library",
      "bom-ref": "pkg:crates/conrod_glium@0.76.1",
      "group": "",
      "name": "conrod_glium",
      "version": "0.76.1",
      "description": "",
      "purl": "pkg:crates/conrod_glium@0.76.1"
    },
    {
      "type": "library",
      "bom-ref": "pkg:crates/glium@0.28",
      "group": "",
      "name": "glium",
      "version": "0.28",
      "description": "",
      "purl": "pkg:crates/glium@0.28"
    },
    {
      "type": "library",
      "bom-ref": "pkg:crates/conrod_piston@0.76.1",
      "group": "",
      "name": "conrod_piston",
      "version": "0.76.1",
      "description": "",
      "purl": "pkg:crates/conrod_piston@0.76.1"
    },
    {
      "type": "library",
      "bom-ref": "pkg:crates/piston2d-graphics@0.40 }",
      "group": "",
      "name": "piston2d-graphics",
      "version": "0.40 }",
      "description": "",
      "purl": "pkg:crates/piston2d-graphics@0.40 }"
    },
    {
      "type": "library",
      "bom-ref": "pkg:crates/pistoncore-input@1.0.0",
      "group": "",
      "name": "pistoncore-input",
      "version": "1.0.0",
      "description": "",
      "purl": "pkg:crates/pistoncore-input@1.0.0"
    },
    {
      "type": "library",
      "bom-ref": "pkg:crates/image@0.23",
      "group": "",
      "name": "image",
      "version": "0.23",
      "description": "",
      "purl": "pkg:crates/image@0.23"
    },
    {
      "type": "library",
      "bom-ref": "pkg:crates/piston_window@0.120",
      "group": "",
      "name": "piston_window",
      "version": "0.120",
      "description": "",
      "purl": "pkg:crates/piston_window@0.120"
    },
    {
      "type": "library",
      "bom-ref": "pkg:crates/conrod_rendy@0.76.1",
      "group": "",
      "name": "conrod_rendy",
      "version": "0.76.1",
      "description": "",
      "purl": "pkg:crates/conrod_rendy@0.76.1"
    },
    {
      "type": "library",
      "bom-ref": "pkg:crates/lazy_static@1.4.0",
      "group": "",
      "name": "lazy_static",
      "version": "1.4.0",
      "description": "",
      "purl": "pkg:crates/lazy_static@1.4.0"
    },
    {
      "type": "library",
      "bom-ref": "pkg:crates/rendy@0.5.1",
      "group": "",
      "name": "rendy",
      "version": "0.5.1",
      "description": "",
      "purl": "pkg:crates/rendy@0.5.1"
    },
    {
      "type": "library",
      "bom-ref": "pkg:crates/empty@[rendy/empty]",
      "group": "",
      "name": "empty",
      "version": "[rendy/empty]",
      "description": "",
      "purl": "pkg:crates/empty@[rendy/empty]"
    },
    {
      "type": "library",
      "bom-ref": "pkg:crates/dx12@[rendy/dx12]",
      "group": "",
      "name": "dx12",
      "version": "[rendy/dx12]",
      "description": "",
      "purl": "pkg:crates/dx12@[rendy/dx12]"
    },
    {
      "type": "library",
      "bom-ref": "pkg:crates/gl@[rendy/gl]",
      "group": "",
      "name": "gl",
      "version": "[rendy/gl]",
      "description": "",
      "purl": "pkg:crates/gl@[rendy/gl]"
    },
    {
      "type": "library",
      "bom-ref": "pkg:crates/metal@[rendy/metal]",
      "group": "",
      "name": "metal",
      "version": "[rendy/metal]",
      "description": "",
      "purl": "pkg:crates/metal@[rendy/metal]"
    },
    {
      "type": "library",
      "bom-ref": "pkg:crates/vulkan@[rendy/vulkan]",
      "group": "",
      "name": "vulkan",
      "version": "[rendy/vulkan]",
      "description": "",
      "purl": "pkg:crates/vulkan@[rendy/vulkan]"
    },
    {
      "type": "library",
      "bom-ref": "pkg:crates/init-winit@[rendy/init-winit]",
      "group": "",
      "name": "init-winit",
      "version": "[rendy/init-winit]",
      "description": "",
      "purl": "pkg:crates/init-winit@[rendy/init-winit]"
    },
    {
      "type": "library",
      "bom-ref": "pkg:crates/no-slow-safety-checks@[rendy/no-slow-safety-checks]",
      "group": "",
      "name": "no-slow-safety-checks",
      "version": "[rendy/no-slow-safety-checks]",
      "description": "",
      "purl": "pkg:crates/no-slow-safety-checks@[rendy/no-slow-safety-checks]"
    },
    {
      "type": "library",
      "bom-ref": "pkg:crates/profiler@[rendy/profiler]",
      "group": "",
      "name": "profiler",
      "version": "[rendy/profiler]",
      "description": "",
      "purl": "pkg:crates/profiler@[rendy/profiler]"
    },
    {
      "type": "library",
      "bom-ref": "pkg:crates/name@all_winit_rendy",
      "group": "",
      "name": "name",
      "version": "all_winit_rendy",
      "description": "",
      "purl": "pkg:crates/name@all_winit_rendy"
    },
    {
      "type": "library",
      "bom-ref": "pkg:crates/required-features@[init-winit]",
      "group": "",
      "name": "required-features",
      "version": "[init-winit]",
      "description": "",
      "purl": "pkg:crates/required-features@[init-winit]"
    },
    {
      "type": "library",
      "bom-ref": "pkg:crates/conrod_vulkano@0.76.1",
      "group": "",
      "name": "conrod_vulkano",
      "version": "0.76.1",
      "description": "",
      "purl": "pkg:crates/conrod_vulkano@0.76.1"
    },
    {
      "type": "library",
      "bom-ref": "pkg:crates/vulkano@0.26",
      "group": "",
      "name": "vulkano",
      "version": "0.26",
      "description": "",
      "purl": "pkg:crates/vulkano@0.26"
    },
    {
      "type": "library",
      "bom-ref": "pkg:crates/find_folder@0.3",
      "group": "",
      "name": "find_folder",
      "version": "0.3",
      "description": "",
      "purl": "pkg:crates/find_folder@0.3"
    },
    {
      "type": "library",
      "bom-ref": "pkg:crates/vulkano-win@0.26",
      "group": "",
      "name": "vulkano-win",
      "version": "0.26",
      "description": "",
      "purl": "pkg:crates/vulkano-win@0.26"
    },
    {
      "type": "library",
      "bom-ref": "pkg:crates/winit@0.25",
      "group": "",
      "name": "winit",
      "version": "0.25",
      "description": "",
      "purl": "pkg:crates/winit@0.25"
    },
    {
      "type": "library",
      "bom-ref": "pkg:crates/conrod_wgpu@0.76.1",
      "group": "",
      "name": "conrod_wgpu",
      "version": "0.76.1",
      "description": "",
      "purl": "pkg:crates/conrod_wgpu@0.76.1"
    },
    {
      "type": "library",
      "bom-ref": "pkg:crates/wgpu@0.11",
      "group": "",
      "name": "wgpu",
      "version": "0.11",
      "description": "",
      "purl": "pkg:crates/wgpu@0.11"
    },
    {
      "type": "library",
      "bom-ref": "pkg:crates/futures@0.3",
      "group": "",
      "name": "futures",
      "version": "0.3",
      "description": "",
      "purl": "pkg:crates/futures@0.3"
    },
    {
      "type": "library",
      "bom-ref": "pkg:crates/conrod_winit@0.76.1",
      "group": "",
      "name": "conrod_winit",
      "version": "0.76.1",
      "description": "",
      "purl": "pkg:crates/conrod_winit@0.76.1"
    },
    {
      "type": "library",
      "bom-ref": "pkg:crates/conrod_core@0.76.1",
      "group": "",
      "name": "conrod_core",
      "version": "0.76.1",
      "description": "",
      "purl": "pkg:crates/conrod_core@0.76.1"
    },
    {
      "type": "library",
      "bom-ref": "pkg:crates/daggy@0.5",
      "group": "",
      "name": "daggy",
      "version": "0.5",
      "description": "",
      "purl": "pkg:crates/daggy@0.5"
    },
    {
      "type": "library",
      "bom-ref": "pkg:crates/fnv@1.0",
      "group": "",
      "name": "fnv",
      "version": "1.0",
      "description": "",
      "purl": "pkg:crates/fnv@1.0"
    },
    {
      "type": "library",
      "bom-ref": "pkg:crates/num@0.3",
      "group": "",
      "name": "num",
      "version": "0.3",
      "description": "",
      "purl": "pkg:crates/num@0.3"
    },
    {
      "type": "library",
      "bom-ref": "pkg:crates/rusttype@0.8.3",
      "group": "",
      "name": "rusttype",
      "version": "0.8.3",
      "description": "",
      "purl": "pkg:crates/rusttype@0.8.3"
    },
    {
      "type": "library",
      "bom-ref": "pkg:crates/instant@0.1",
      "group": "",
      "name": "instant",
      "version": "0.1",
      "description": "",
      "purl": "pkg:crates/instant@0.1"
    },
    {
      "type": "library",
      "bom-ref": "pkg:crates/copypasta@0.6",
      "group": "",
      "name": "copypasta",
      "version": "0.6",
      "description": "",
      "purl": "pkg:crates/copypasta@0.6"
    },
    {
      "type": "library",
      "bom-ref": "pkg:crates/conrod_derive@0.76.1",
      "group": "",
      "name": "conrod_derive",
      "version": "0.76.1",
      "description": "",
      "purl": "pkg:crates/conrod_derive@0.76.1"
    },
    {
      "type": "library",
      "bom-ref": "pkg:crates/proc-macro2@1",
      "group": "",
      "name": "proc-macro2",
      "version": "1",
      "description": "",
      "purl": "pkg:crates/proc-macro2@1"
    },
    {
      "type": "library",
      "bom-ref": "pkg:crates/quote@1",
      "group": "",
      "name": "quote",
      "version": "1",
      "description": "",
      "purl": "pkg:crates/quote@1"
    },
    {
      "type": "library",
      "bom-ref": "pkg:crates/syn@1",
      "group": "",
      "name": "syn",
      "version": "1",
      "description": "",
      "purl": "pkg:crates/syn@1"
    }
  ],
  "externalReferences": [
    {
      "url": "/project/src",
      "type": "other",
      "comment": "Base path"
    },
    {
      "url": "/project/src/backends/conrod_example_shared/Cargo.toml, /project/src/backends/conrod_gfx/Cargo.toml, /project/src/backends/conrod_glium/Cargo.toml, /project/src/backends/conrod_piston/Cargo.toml, /project/src/backends/conrod_rendy/Cargo.toml, /project/src/backends/conrod_vulkano/Cargo.toml, /project/src/backends/conrod_wgpu/Cargo.toml, /project/src/backends/conrod_winit/Cargo.toml, /project/src/Cargo.toml, /project/src/conrod_core/Cargo.toml, /project/src/conrod_derive/Cargo.toml",
      "type": "other",
      "comment": "Package file"
    }
  ]
}
