{
  "bomFormat": "CycloneDX",
  "specVersion": "1.3",
  "version": 2,
  "metadata": {
    "tools": [
      {
        "vendor": "cyclonedx",
        "name": "cyclonedx-php-composer",
        "version": "3.10.0"
      },
      {
        "vendor": "AppThreat",
        "name": "cdxgen",
        "version": "3.0.10"
      },
      {
        "vendor": "Fortress Information Security",
        "name": "Github Extractor",
        "version": "1.15.1"
      }
    ],
    "authors": [
      {
        "name": "Fortress Information Security",
        "email": "sales@fortressinfosec.com",
        "phone": "1-407-573-6800"
      }
    ],
    "timestamp": "2022-07-26T23:34:18Z",
    "component": {
      "type": "application",
      "name": "code-unit-reverse-lookup",
      "version": "",
      "group": "sebastianbergmann",
      "externalReferences": [
        {
          "url": "https://github.com/sebastianbergmann/code-unit-reverse-lookup.git",
          "type": "distribution"
        },
        {
          "type": "website",
          "url": "null",
          "comment": "As set via `homepage` in Github API"
        }
      ]
    }
  },
  "components": [
    {
      "type": "library",
      "bom-ref": "pkg:composer/cyclonedx/cyclonedx-library@1.5.0",
      "group": "cyclonedx",
      "name": "cyclonedx-library",
      "version": "1.5.0",
      "description": "Work with CycloneDX Software Bill-of-Materials (SBOM)",
      "licenses": [
        {
          "license": {
            "id": "Apache-2.0"
          }
        }
      ],
      "purl": "pkg:composer/cyclonedx/cyclonedx-library@1.5.0",
      "externalReferences": [
        {
          "url": "https://github.com/CycloneDX/cyclonedx-php-library.git",
          "type": "distribution",
          "comment": "As detected by composer's `getSourceUrls()` (type=git & reference=f41632e1d47001700ef93fa899e6dc49779aa784)"
        },
        {
          "url": "https://api.github.com/repos/CycloneDX/cyclonedx-php-library/zipball/f41632e1d47001700ef93fa899e6dc49779aa784",
          "type": "distribution",
          "comment": "As detected by composer's `getDistUrls()` (type=zip & reference=f41632e1d47001700ef93fa899e6dc49779aa784 & sha1=UNDEFINED)"
        },
        {
          "url": "https://github.com/CycloneDX/cyclonedx-php-library/",
          "type": "website",
          "comment": "As set via `homepage` in composer package definition."
        },
        {
          "url": "https://github.com/CycloneDX/cyclonedx-php-library/issues",
          "type": "issue-tracker",
          "comment": "As set via `support.issues` in composer package definition."
        },
        {
          "url": "https://github.com/CycloneDX/cyclonedx-php-library/tree/v1.5.0",
          "type": "distribution",
          "comment": "As set via `support.source` in composer package definition."
        }
      ]
    },
    {
      "type": "application",
      "bom-ref": "pkg:composer/cyclonedx/cyclonedx-php-composer@3.10.0",
      "group": "cyclonedx",
      "name": "cyclonedx-php-composer",
      "version": "3.10.0",
      "description": "Creates CycloneDX Software Bill-of-Materials (SBOM) from PHP Composer projects",
      "licenses": [
        {
          "license": {
            "id": "Apache-2.0"
          }
        }
      ],
      "purl": "pkg:composer/cyclonedx/cyclonedx-php-composer@3.10.0",
      "externalReferences": [
        {
          "url": "https://github.com/CycloneDX/cyclonedx-php-composer.git",
          "type": "distribution",
          "comment": "As detected by composer's `getSourceUrls()` (type=git & reference=341792df609deab6131ffa65f2f3b273f2e6128a)"
        },
        {
          "url": "https://api.github.com/repos/CycloneDX/cyclonedx-php-composer/zipball/341792df609deab6131ffa65f2f3b273f2e6128a",
          "type": "distribution",
          "comment": "As detected by composer's `getDistUrls()` (type=zip & reference=341792df609deab6131ffa65f2f3b273f2e6128a & sha1=UNDEFINED)"
        },
        {
          "url": "https://github.com/CycloneDX/cyclonedx-php-composer/",
          "type": "website",
          "comment": "As set via `homepage` in composer package definition."
        },
        {
          "url": "https://github.com/CycloneDX/cyclonedx-php-composer/issues",
          "type": "issue-tracker",
          "comment": "As set via `support.issues` in composer package definition."
        },
        {
          "url": "https://github.com/CycloneDX/cyclonedx-php-composer/tree/v3.10.0",
          "type": "distribution",
          "comment": "As set via `support.source` in composer package definition."
        }
      ]
    },
    {
      "type": "library",
      "bom-ref": "pkg:composer/doctrine/instantiator@1.4.1",
      "group": "doctrine",
      "name": "instantiator",
      "version": "1.4.1",
      "description": "A small, lightweight utility to instantiate objects in PHP without invoking their constructors",
      "licenses": [
        {
          "license": {
            "id": "MIT"
          }
        }
      ],
      "purl": "pkg:composer/doctrine/instantiator@1.4.1",
      "externalReferences": [
        {
          "url": "https://github.com/doctrine/instantiator.git",
          "type": "distribution",
          "comment": "As detected by composer's `getSourceUrls()` (type=git & reference=10dcfce151b967d20fde1b34ae6640712c3891bc)"
        },
        {
          "url": "https://api.github.com/repos/doctrine/instantiator/zipball/10dcfce151b967d20fde1b34ae6640712c3891bc",
          "type": "distribution",
          "comment": "As detected by composer's `getDistUrls()` (type=zip & reference=10dcfce151b967d20fde1b34ae6640712c3891bc & sha1=UNDEFINED)"
        },
        {
          "url": "https://www.doctrine-project.org/projects/instantiator.html",
          "type": "website",
          "comment": "As set via `homepage` in composer package definition."
        },
        {
          "url": "https://github.com/doctrine/instantiator/issues",
          "type": "issue-tracker",
          "comment": "As set via `support.issues` in composer package definition."
        },
        {
          "url": "https://github.com/doctrine/instantiator/tree/1.4.1",
          "type": "distribution",
          "comment": "As set via `support.source` in composer package definition."
        },
        {
          "url": "https://www.doctrine-project.org/sponsorship.html",
          "type": "other",
          "comment": "As set via `funding` in composer package definition. (type=custom)"
        },
        {
          "url": "https://www.patreon.com/phpdoctrine",
          "type": "other",
          "comment": "As set via `funding` in composer package definition. (type=patreon)"
        },
        {
          "url": "https://tidelift.com/funding/github/packagist/doctrine%2Finstantiator",
          "type": "other",
          "comment": "As set via `funding` in composer package definition. (type=tidelift)"
        }
      ]
    },
    {
      "type": "library",
      "bom-ref": "pkg:composer/myclabs/deep-copy@1.11.0",
      "group": "myclabs",
      "name": "deep-copy",
      "version": "1.11.0",
      "description": "Create deep copies (clones) of your objects",
      "licenses": [
        {
          "license": {
            "id": "MIT"
          }
        }
      ],
      "purl": "pkg:composer/myclabs/deep-copy@1.11.0",
      "externalReferences": [
        {
          "url": "https://github.com/myclabs/DeepCopy.git",
          "type": "distribution",
          "comment": "As detected by composer's `getSourceUrls()` (type=git & reference=14daed4296fae74d9e3201d2c4925d1acb7aa614)"
        },
        {
          "url": "https://api.github.com/repos/myclabs/DeepCopy/zipball/14daed4296fae74d9e3201d2c4925d1acb7aa614",
          "type": "distribution",
          "comment": "As detected by composer's `getDistUrls()` (type=zip & reference=14daed4296fae74d9e3201d2c4925d1acb7aa614 & sha1=UNDEFINED)"
        },
        {
          "url": "https://github.com/myclabs/DeepCopy/issues",
          "type": "issue-tracker",
          "comment": "As set via `support.issues` in composer package definition."
        },
        {
          "url": "https://github.com/myclabs/DeepCopy/tree/1.11.0",
          "type": "distribution",
          "comment": "As set via `support.source` in composer package definition."
        },
        {
          "url": "https://tidelift.com/funding/github/packagist/myclabs/deep-copy",
          "type": "other",
          "comment": "As set via `funding` in composer package definition. (type=tidelift)"
        }
      ]
    },
    {
      "type": "library",
      "bom-ref": "pkg:composer/nikic/php-parser@4.13.2",
      "group": "nikic",
      "name": "php-parser",
      "version": "4.13.2",
      "description": "A PHP parser written in PHP",
      "licenses": [
        {
          "license": {
            "id": "BSD-3-Clause"
          }
        }
      ],
      "purl": "pkg:composer/nikic/php-parser@4.13.2",
      "externalReferences": [
        {
          "url": "https://github.com/nikic/PHP-Parser.git",
          "type": "distribution",
          "comment": "As detected by composer's `getSourceUrls()` (type=git & reference=210577fe3cf7badcc5814d99455df46564f3c077)"
        },
        {
          "url": "https://api.github.com/repos/nikic/PHP-Parser/zipball/210577fe3cf7badcc5814d99455df46564f3c077",
          "type": "distribution",
          "comment": "As detected by composer's `getDistUrls()` (type=zip & reference=210577fe3cf7badcc5814d99455df46564f3c077 & sha1=UNDEFINED)"
        },
        {
          "url": "https://github.com/nikic/PHP-Parser/issues",
          "type": "issue-tracker",
          "comment": "As set via `support.issues` in composer package definition."
        },
        {
          "url": "https://github.com/nikic/PHP-Parser/tree/v4.13.2",
          "type": "distribution",
          "comment": "As set via `support.source` in composer package definition."
        }
      ]
    },
    {
      "type": "library",
      "bom-ref": "pkg:composer/package-url/packageurl-php@1.0.4",
      "group": "package-url",
      "name": "packageurl-php",
      "version": "1.0.4",
      "description": "A parser and builder based on the package url spec.",
      "licenses": [
        {
          "license": {
            "id": "MIT"
          }
        }
      ],
      "purl": "pkg:composer/package-url/packageurl-php@1.0.4",
      "externalReferences": [
        {
          "url": "https://github.com/package-url/packageurl-php.git",
          "type": "distribution",
          "comment": "As detected by composer's `getSourceUrls()` (type=git & reference=c45953babed516d27a0cf6c1a2d9f7e883ce214f)"
        },
        {
          "url": "https://api.github.com/repos/package-url/packageurl-php/zipball/c45953babed516d27a0cf6c1a2d9f7e883ce214f",
          "type": "distribution",
          "comment": "As detected by composer's `getDistUrls()` (type=zip & reference=c45953babed516d27a0cf6c1a2d9f7e883ce214f & sha1=UNDEFINED)"
        },
        {
          "url": "https://github.com/package-url/packageurl-php",
          "type": "website",
          "comment": "As set via `homepage` in composer package definition."
        },
        {
          "url": "https://github.com/package-url/packageurl-php/issues",
          "type": "issue-tracker",
          "comment": "As set via `support.issues` in composer package definition."
        },
        {
          "url": "https://github.com/package-url/packageurl-php/tree/1.0.4",
          "type": "distribution",
          "comment": "As set via `support.source` in composer package definition."
        }
      ]
    },
    {
      "type": "library",
      "bom-ref": "pkg:composer/phar-io/manifest@2.0.3",
      "group": "phar-io",
      "name": "manifest",
      "version": "2.0.3",
      "description": "Component for reading phar.io manifest information from a PHP Archive (PHAR)",
      "licenses": [
        {
          "license": {
            "id": "BSD-3-Clause"
          }
        }
      ],
      "purl": "pkg:composer/phar-io/manifest@2.0.3",
      "externalReferences": [
        {
          "url": "https://github.com/phar-io/manifest.git",
          "type": "distribution",
          "comment": "As detected by composer's `getSourceUrls()` (type=git & reference=97803eca37d319dfa7826cc2437fc020857acb53)"
        },
        {
          "url": "https://api.github.com/repos/phar-io/manifest/zipball/97803eca37d319dfa7826cc2437fc020857acb53",
          "type": "distribution",
          "comment": "As detected by composer's `getDistUrls()` (type=zip & reference=97803eca37d319dfa7826cc2437fc020857acb53 & sha1=UNDEFINED)"
        },
        {
          "url": "https://github.com/phar-io/manifest/issues",
          "type": "issue-tracker",
          "comment": "As set via `support.issues` in composer package definition."
        },
        {
          "url": "https://github.com/phar-io/manifest/tree/2.0.3",
          "type": "distribution",
          "comment": "As set via `support.source` in composer package definition."
        }
      ]
    },
    {
      "type": "library",
      "bom-ref": "pkg:composer/phar-io/version@3.2.1",
      "group": "phar-io",
      "name": "version",
      "version": "3.2.1",
      "description": "Library for handling version information and constraints",
      "licenses": [
        {
          "license": {
            "id": "BSD-3-Clause"
          }
        }
      ],
      "purl": "pkg:composer/phar-io/version@3.2.1",
      "externalReferences": [
        {
          "url": "https://github.com/phar-io/version.git",
          "type": "distribution",
          "comment": "As detected by composer's `getSourceUrls()` (type=git & reference=4f7fd7836c6f332bb2933569e566a0d6c4cbed74)"
        },
        {
          "url": "https://api.github.com/repos/phar-io/version/zipball/4f7fd7836c6f332bb2933569e566a0d6c4cbed74",
          "type": "distribution",
          "comment": "As detected by composer's `getDistUrls()` (type=zip & reference=4f7fd7836c6f332bb2933569e566a0d6c4cbed74 & sha1=UNDEFINED)"
        },
        {
          "url": "https://github.com/phar-io/version/issues",
          "type": "issue-tracker",
          "comment": "As set via `support.issues` in composer package definition."
        },
        {
          "url": "https://github.com/phar-io/version/tree/3.2.1",
          "type": "distribution",
          "comment": "As set via `support.source` in composer package definition."
        }
      ]
    },
    {
      "type": "library",
      "bom-ref": "pkg:composer/phplang/scope-exit@1.0.0",
      "group": "phplang",
      "name": "scope-exit",
      "version": "1.0.0",
      "description": "Emulation of SCOPE_EXIT construct from C++",
      "licenses": [
        {
          "license": {
            "name": "BSD"
          }
        }
      ],
      "purl": "pkg:composer/phplang/scope-exit@1.0.0",
      "externalReferences": [
        {
          "url": "https://github.com/phplang/scope-exit.git",
          "type": "distribution",
          "comment": "As detected by composer's `getSourceUrls()` (type=git & reference=239b73abe89f9414aa85a7ca075ec9445629192b)"
        },
        {
          "url": "https://api.github.com/repos/phplang/scope-exit/zipball/239b73abe89f9414aa85a7ca075ec9445629192b",
          "type": "distribution",
          "comment": "As detected by composer's `getDistUrls()` (type=zip & reference=239b73abe89f9414aa85a7ca075ec9445629192b & sha1=UNDEFINED)"
        },
        {
          "url": "https://github.com/phplang/scope-exit",
          "type": "website",
          "comment": "As set via `homepage` in composer package definition."
        },
        {
          "url": "https://github.com/phplang/scope-exit/issues",
          "type": "issue-tracker",
          "comment": "As set via `support.issues` in composer package definition."
        },
        {
          "url": "https://github.com/phplang/scope-exit/tree/master",
          "type": "distribution",
          "comment": "As set via `support.source` in composer package definition."
        }
      ]
    },
    {
      "type": "library",
      "bom-ref": "pkg:composer/phpunit/php-code-coverage@dev-main",
      "group": "phpunit",
      "name": "php-code-coverage",
      "version": "dev-main",
      "description": "Library that provides collection, processing, and rendering functionality for PHP code coverage information.",
      "licenses": [
        {
          "license": {
            "id": "BSD-3-Clause"
          }
        }
      ],
      "purl": "pkg:composer/phpunit/php-code-coverage@dev-main",
      "externalReferences": [
        {
          "url": "https://github.com/sebastianbergmann/php-code-coverage.git",
          "type": "distribution",
          "comment": "As detected by composer's `getSourceUrls()` (type=git & reference=20e8beac7f2b777f2d9acad6838bde8b06e98372)"
        },
        {
          "url": "https://api.github.com/repos/sebastianbergmann/php-code-coverage/zipball/20e8beac7f2b777f2d9acad6838bde8b06e98372",
          "type": "distribution",
          "comment": "As detected by composer's `getDistUrls()` (type=zip & reference=20e8beac7f2b777f2d9acad6838bde8b06e98372 & sha1=UNDEFINED)"
        },
        {
          "url": "https://github.com/sebastianbergmann/php-code-coverage",
          "type": "website",
          "comment": "As set via `homepage` in composer package definition."
        },
        {
          "url": "https://github.com/sebastianbergmann/php-code-coverage/issues",
          "type": "issue-tracker",
          "comment": "As set via `support.issues` in composer package definition."
        },
        {
          "url": "https://github.com/sebastianbergmann/php-code-coverage/tree/main",
          "type": "distribution",
          "comment": "As set via `support.source` in composer package definition."
        },
        {
          "url": "https://github.com/sebastianbergmann",
          "type": "other",
          "comment": "As set via `funding` in composer package definition. (type=github)"
        }
      ]
    },
    {
      "type": "library",
      "bom-ref": "pkg:composer/phpunit/php-file-iterator@dev-main",
      "group": "phpunit",
      "name": "php-file-iterator",
      "version": "dev-main",
      "description": "FilterIterator implementation that filters files based on a list of suffixes.",
      "licenses": [
        {
          "license": {
            "id": "BSD-3-Clause"
          }
        }
      ],
      "purl": "pkg:composer/phpunit/php-file-iterator@dev-main",
      "externalReferences": [
        {
          "url": "https://github.com/sebastianbergmann/php-file-iterator.git",
          "type": "distribution",
          "comment": "As detected by composer's `getSourceUrls()` (type=git & reference=129e1cf24a6a6320710f655a5b3d36c382531f30)"
        },
        {
          "url": "https://api.github.com/repos/sebastianbergmann/php-file-iterator/zipball/129e1cf24a6a6320710f655a5b3d36c382531f30",
          "type": "distribution",
          "comment": "As detected by composer's `getDistUrls()` (type=zip & reference=129e1cf24a6a6320710f655a5b3d36c382531f30 & sha1=UNDEFINED)"
        },
        {
          "url": "https://github.com/sebastianbergmann/php-file-iterator/",
          "type": "website",
          "comment": "As set via `homepage` in composer package definition."
        },
        {
          "url": "https://github.com/sebastianbergmann/php-file-iterator/issues",
          "type": "issue-tracker",
          "comment": "As set via `support.issues` in composer package definition."
        },
        {
          "url": "https://github.com/sebastianbergmann/php-file-iterator/tree/main",
          "type": "distribution",
          "comment": "As set via `support.source` in composer package definition."
        },
        {
          "url": "https://github.com/sebastianbergmann",
          "type": "other",
          "comment": "As set via `funding` in composer package definition. (type=github)"
        }
      ]
    },
    {
      "type": "library",
      "bom-ref": "pkg:composer/phpunit/php-invoker@dev-main",
      "group": "phpunit",
      "name": "php-invoker",
      "version": "dev-main",
      "description": "Invoke callables with a timeout",
      "licenses": [
        {
          "license": {
            "id": "BSD-3-Clause"
          }
        }
      ],
      "purl": "pkg:composer/phpunit/php-invoker@dev-main",
      "externalReferences": [
        {
          "url": "https://github.com/sebastianbergmann/php-invoker.git",
          "type": "distribution",
          "comment": "As detected by composer's `getSourceUrls()` (type=git & reference=9572b91e0ae63a712f10d03123ba4300b7084142)"
        },
        {
          "url": "https://api.github.com/repos/sebastianbergmann/php-invoker/zipball/9572b91e0ae63a712f10d03123ba4300b7084142",
          "type": "distribution",
          "comment": "As detected by composer's `getDistUrls()` (type=zip & reference=9572b91e0ae63a712f10d03123ba4300b7084142 & sha1=UNDEFINED)"
        },
        {
          "url": "https://github.com/sebastianbergmann/php-invoker/",
          "type": "website",
          "comment": "As set via `homepage` in composer package definition."
        },
        {
          "url": "https://github.com/sebastianbergmann/php-invoker/issues",
          "type": "issue-tracker",
          "comment": "As set via `support.issues` in composer package definition."
        },
        {
          "url": "https://github.com/sebastianbergmann/php-invoker/tree/main",
          "type": "distribution",
          "comment": "As set via `support.source` in composer package definition."
        },
        {
          "url": "https://github.com/sebastianbergmann",
          "type": "other",
          "comment": "As set via `funding` in composer package definition. (type=github)"
        }
      ]
    },
    {
      "type": "library",
      "bom-ref": "pkg:composer/phpunit/php-text-template@dev-main",
      "group": "phpunit",
      "name": "php-text-template",
      "version": "dev-main",
      "description": "Simple template engine.",
      "licenses": [
        {
          "license": {
            "id": "BSD-3-Clause"
          }
        }
      ],
      "purl": "pkg:composer/phpunit/php-text-template@dev-main",
      "externalReferences": [
        {
          "url": "https://github.com/sebastianbergmann/php-text-template.git",
          "type": "distribution",
          "comment": "As detected by composer's `getSourceUrls()` (type=git & reference=e2d519082eaf8c4b0b9599a4e184a0f4c1d144e0)"
        },
        {
          "url": "https://api.github.com/repos/sebastianbergmann/php-text-template/zipball/e2d519082eaf8c4b0b9599a4e184a0f4c1d144e0",
          "type": "distribution",
          "comment": "As detected by composer's `getDistUrls()` (type=zip & reference=e2d519082eaf8c4b0b9599a4e184a0f4c1d144e0 & sha1=UNDEFINED)"
        },
        {
          "url": "https://github.com/sebastianbergmann/php-text-template/",
          "type": "website",
          "comment": "As set via `homepage` in composer package definition."
        },
        {
          "url": "https://github.com/sebastianbergmann/php-text-template/issues",
          "type": "issue-tracker",
          "comment": "As set via `support.issues` in composer package definition."
        },
        {
          "url": "https://github.com/sebastianbergmann/php-text-template/tree/main",
          "type": "distribution",
          "comment": "As set via `support.source` in composer package definition."
        },
        {
          "url": "https://github.com/sebastianbergmann",
          "type": "other",
          "comment": "As set via `funding` in composer package definition. (type=github)"
        }
      ]
    },
    {
      "type": "library",
      "bom-ref": "pkg:composer/phpunit/php-timer@dev-main",
      "group": "phpunit",
      "name": "php-timer",
      "version": "dev-main",
      "description": "Utility class for timing",
      "licenses": [
        {
          "license": {
            "id": "BSD-3-Clause"
          }
        }
      ],
      "purl": "pkg:composer/phpunit/php-timer@dev-main",
      "externalReferences": [
        {
          "url": "https://github.com/sebastianbergmann/php-timer.git",
          "type": "distribution",
          "comment": "As detected by composer's `getSourceUrls()` (type=git & reference=855cec019f4bfd9717a8c67ae9de29226b3dcdda)"
        },
        {
          "url": "https://api.github.com/repos/sebastianbergmann/php-timer/zipball/855cec019f4bfd9717a8c67ae9de29226b3dcdda",
          "type": "distribution",
          "comment": "As detected by composer's `getDistUrls()` (type=zip & reference=855cec019f4bfd9717a8c67ae9de29226b3dcdda & sha1=UNDEFINED)"
        },
        {
          "url": "https://github.com/sebastianbergmann/php-timer/",
          "type": "website",
          "comment": "As set via `homepage` in composer package definition."
        },
        {
          "url": "https://github.com/sebastianbergmann/php-timer/issues",
          "type": "issue-tracker",
          "comment": "As set via `support.issues` in composer package definition."
        },
        {
          "url": "https://github.com/sebastianbergmann/php-timer/tree/main",
          "type": "distribution",
          "comment": "As set via `support.source` in composer package definition."
        },
        {
          "url": "https://github.com/sebastianbergmann",
          "type": "other",
          "comment": "As set via `funding` in composer package definition. (type=github)"
        }
      ]
    },
    {
      "type": "library",
      "bom-ref": "pkg:composer/phpunit/phpunit@dev-main",
      "group": "phpunit",
      "name": "phpunit",
      "version": "dev-main",
      "description": "The PHP Unit Testing framework.",
      "licenses": [
        {
          "license": {
            "id": "BSD-3-Clause"
          }
        }
      ],
      "purl": "pkg:composer/phpunit/phpunit@dev-main",
      "externalReferences": [
        {
          "url": "https://github.com/sebastianbergmann/phpunit.git",
          "type": "distribution",
          "comment": "As detected by composer's `getSourceUrls()` (type=git & reference=e748323ac61c67d5f6e6f1b7fefb7477fcc882c3)"
        },
        {
          "url": "https://api.github.com/repos/sebastianbergmann/phpunit/zipball/e748323ac61c67d5f6e6f1b7fefb7477fcc882c3",
          "type": "distribution",
          "comment": "As detected by composer's `getDistUrls()` (type=zip & reference=e748323ac61c67d5f6e6f1b7fefb7477fcc882c3 & sha1=UNDEFINED)"
        },
        {
          "url": "https://phpunit.de/",
          "type": "website",
          "comment": "As set via `homepage` in composer package definition."
        },
        {
          "url": "https://github.com/sebastianbergmann/phpunit/issues",
          "type": "issue-tracker",
          "comment": "As set via `support.issues` in composer package definition."
        },
        {
          "url": "https://github.com/sebastianbergmann/phpunit/tree/main",
          "type": "distribution",
          "comment": "As set via `support.source` in composer package definition."
        },
        {
          "url": "https://phpunit.de/sponsors.html",
          "type": "other",
          "comment": "As set via `funding` in composer package definition. (type=custom)"
        },
        {
          "url": "https://github.com/sebastianbergmann",
          "type": "other",
          "comment": "As set via `funding` in composer package definition. (type=github)"
        }
      ]
    },
    {
      "type": "library",
      "bom-ref": "pkg:composer/sebastian/cli-parser@dev-main",
      "group": "sebastian",
      "name": "cli-parser",
      "version": "dev-main",
      "description": "Library for parsing CLI options",
      "licenses": [
        {
          "license": {
            "id": "BSD-3-Clause"
          }
        }
      ],
      "purl": "pkg:composer/sebastian/cli-parser@dev-main",
      "externalReferences": [
        {
          "url": "https://github.com/sebastianbergmann/cli-parser.git",
          "type": "distribution",
          "comment": "As detected by composer's `getSourceUrls()` (type=git & reference=47d65dbf91b1fc2ac8a3722a8add25889bfa48e7)"
        },
        {
          "url": "https://api.github.com/repos/sebastianbergmann/cli-parser/zipball/47d65dbf91b1fc2ac8a3722a8add25889bfa48e7",
          "type": "distribution",
          "comment": "As detected by composer's `getDistUrls()` (type=zip & reference=47d65dbf91b1fc2ac8a3722a8add25889bfa48e7 & sha1=UNDEFINED)"
        },
        {
          "url": "https://github.com/sebastianbergmann/cli-parser",
          "type": "website",
          "comment": "As set via `homepage` in composer package definition."
        },
        {
          "url": "https://github.com/sebastianbergmann/cli-parser/issues",
          "type": "issue-tracker",
          "comment": "As set via `support.issues` in composer package definition."
        },
        {
          "url": "https://github.com/sebastianbergmann/cli-parser/tree/main",
          "type": "distribution",
          "comment": "As set via `support.source` in composer package definition."
        },
        {
          "url": "https://github.com/sebastianbergmann",
          "type": "other",
          "comment": "As set via `funding` in composer package definition. (type=github)"
        }
      ]
    },
    {
      "type": "library",
      "bom-ref": "pkg:composer/sebastian/code-unit@dev-main",
      "group": "sebastian",
      "name": "code-unit",
      "version": "dev-main",
      "description": "Collection of value objects that represent the PHP code units",
      "licenses": [
        {
          "license": {
            "id": "BSD-3-Clause"
          }
        }
      ],
      "purl": "pkg:composer/sebastian/code-unit@dev-main",
      "externalReferences": [
        {
          "url": "https://github.com/sebastianbergmann/code-unit.git",
          "type": "distribution",
          "comment": "As detected by composer's `getSourceUrls()` (type=git & reference=48619920f172c8cd17df006a0628c53e490f3141)"
        },
        {
          "url": "https://api.github.com/repos/sebastianbergmann/code-unit/zipball/48619920f172c8cd17df006a0628c53e490f3141",
          "type": "distribution",
          "comment": "As detected by composer's `getDistUrls()` (type=zip & reference=48619920f172c8cd17df006a0628c53e490f3141 & sha1=UNDEFINED)"
        },
        {
          "url": "https://github.com/sebastianbergmann/code-unit",
          "type": "website",
          "comment": "As set via `homepage` in composer package definition."
        },
        {
          "url": "https://github.com/sebastianbergmann/code-unit/issues",
          "type": "issue-tracker",
          "comment": "As set via `support.issues` in composer package definition."
        },
        {
          "url": "https://github.com/sebastianbergmann/code-unit/tree/main",
          "type": "distribution",
          "comment": "As set via `support.source` in composer package definition."
        },
        {
          "url": "https://github.com/sebastianbergmann",
          "type": "other",
          "comment": "As set via `funding` in composer package definition. (type=github)"
        }
      ]
    },
    {
      "type": "library",
      "bom-ref": "pkg:composer/sebastian/comparator@dev-main",
      "group": "sebastian",
      "name": "comparator",
      "version": "dev-main",
      "description": "Provides the functionality to compare PHP values for equality",
      "licenses": [
        {
          "license": {
            "id": "BSD-3-Clause"
          }
        }
      ],
      "purl": "pkg:composer/sebastian/comparator@dev-main",
      "externalReferences": [
        {
          "url": "https://github.com/sebastianbergmann/comparator.git",
          "type": "distribution",
          "comment": "As detected by composer's `getSourceUrls()` (type=git & reference=0658abd0a6ea0e2399b24816e66ee186566c278f)"
        },
        {
          "url": "https://api.github.com/repos/sebastianbergmann/comparator/zipball/0658abd0a6ea0e2399b24816e66ee186566c278f",
          "type": "distribution",
          "comment": "As detected by composer's `getDistUrls()` (type=zip & reference=0658abd0a6ea0e2399b24816e66ee186566c278f & sha1=UNDEFINED)"
        },
        {
          "url": "https://github.com/sebastianbergmann/comparator",
          "type": "website",
          "comment": "As set via `homepage` in composer package definition."
        },
        {
          "url": "https://github.com/sebastianbergmann/comparator/issues",
          "type": "issue-tracker",
          "comment": "As set via `support.issues` in composer package definition."
        },
        {
          "url": "https://github.com/sebastianbergmann/comparator/tree/main",
          "type": "distribution",
          "comment": "As set via `support.source` in composer package definition."
        },
        {
          "url": "https://github.com/sebastianbergmann",
          "type": "other",
          "comment": "As set via `funding` in composer package definition. (type=github)"
        }
      ]
    },
    {
      "type": "library",
      "bom-ref": "pkg:composer/sebastian/complexity@dev-main",
      "group": "sebastian",
      "name": "complexity",
      "version": "dev-main",
      "description": "Library for calculating the complexity of PHP code units",
      "licenses": [
        {
          "license": {
            "id": "BSD-3-Clause"
          }
        }
      ],
      "purl": "pkg:composer/sebastian/complexity@dev-main",
      "externalReferences": [
        {
          "url": "https://github.com/sebastianbergmann/complexity.git",
          "type": "distribution",
          "comment": "As detected by composer's `getSourceUrls()` (type=git & reference=1c2e1bba37c2ca7755d2ca0538aec9b33786127f)"
        },
        {
          "url": "https://api.github.com/repos/sebastianbergmann/complexity/zipball/1c2e1bba37c2ca7755d2ca0538aec9b33786127f",
          "type": "distribution",
          "comment": "As detected by composer's `getDistUrls()` (type=zip & reference=1c2e1bba37c2ca7755d2ca0538aec9b33786127f & sha1=UNDEFINED)"
        },
        {
          "url": "https://github.com/sebastianbergmann/complexity",
          "type": "website",
          "comment": "As set via `homepage` in composer package definition."
        },
        {
          "url": "https://github.com/sebastianbergmann/complexity/issues",
          "type": "issue-tracker",
          "comment": "As set via `support.issues` in composer package definition."
        },
        {
          "url": "https://github.com/sebastianbergmann/complexity/tree/main",
          "type": "distribution",
          "comment": "As set via `support.source` in composer package definition."
        },
        {
          "url": "https://github.com/sebastianbergmann",
          "type": "other",
          "comment": "As set via `funding` in composer package definition. (type=github)"
        }
      ]
    },
    {
      "type": "library",
      "bom-ref": "pkg:composer/sebastian/diff@dev-main",
      "group": "sebastian",
      "name": "diff",
      "version": "dev-main",
      "description": "Diff implementation",
      "licenses": [
        {
          "license": {
            "id": "BSD-3-Clause"
          }
        }
      ],
      "purl": "pkg:composer/sebastian/diff@dev-main",
      "externalReferences": [
        {
          "url": "https://github.com/sebastianbergmann/diff.git",
          "type": "distribution",
          "comment": "As detected by composer's `getSourceUrls()` (type=git & reference=f6ae0676d9f215a5fa96cdc98d81a3a4cde3d031)"
        },
        {
          "url": "https://api.github.com/repos/sebastianbergmann/diff/zipball/f6ae0676d9f215a5fa96cdc98d81a3a4cde3d031",
          "type": "distribution",
          "comment": "As detected by composer's `getDistUrls()` (type=zip & reference=f6ae0676d9f215a5fa96cdc98d81a3a4cde3d031 & sha1=UNDEFINED)"
        },
        {
          "url": "https://github.com/sebastianbergmann/diff",
          "type": "website",
          "comment": "As set via `homepage` in composer package definition."
        },
        {
          "url": "https://github.com/sebastianbergmann/diff/issues",
          "type": "issue-tracker",
          "comment": "As set via `support.issues` in composer package definition."
        },
        {
          "url": "https://github.com/sebastianbergmann/diff/tree/main",
          "type": "distribution",
          "comment": "As set via `support.source` in composer package definition."
        },
        {
          "url": "https://github.com/sebastianbergmann",
          "type": "other",
          "comment": "As set via `funding` in composer package definition. (type=github)"
        }
      ]
    },
    {
      "type": "library",
      "bom-ref": "pkg:composer/sebastian/environment@dev-main",
      "group": "sebastian",
      "name": "environment",
      "version": "dev-main",
      "description": "Provides functionality to handle HHVM/PHP environments",
      "licenses": [
        {
          "license": {
            "id": "BSD-3-Clause"
          }
        }
      ],
      "purl": "pkg:composer/sebastian/environment@dev-main",
      "externalReferences": [
        {
          "url": "https://github.com/sebastianbergmann/environment.git",
          "type": "distribution",
          "comment": "As detected by composer's `getSourceUrls()` (type=git & reference=60d13dff24731a89c22be872af02853c9c4d2f21)"
        },
        {
          "url": "https://api.github.com/repos/sebastianbergmann/environment/zipball/60d13dff24731a89c22be872af02853c9c4d2f21",
          "type": "distribution",
          "comment": "As detected by composer's `getDistUrls()` (type=zip & reference=60d13dff24731a89c22be872af02853c9c4d2f21 & sha1=UNDEFINED)"
        },
        {
          "url": "http://www.github.com/sebastianbergmann/environment",
          "type": "website",
          "comment": "As set via `homepage` in composer package definition."
        },
        {
          "url": "https://github.com/sebastianbergmann/environment/issues",
          "type": "issue-tracker",
          "comment": "As set via `support.issues` in composer package definition."
        },
        {
          "url": "https://github.com/sebastianbergmann/environment/tree/main",
          "type": "distribution",
          "comment": "As set via `support.source` in composer package definition."
        },
        {
          "url": "https://github.com/sebastianbergmann",
          "type": "other",
          "comment": "As set via `funding` in composer package definition. (type=github)"
        }
      ]
    },
    {
      "type": "library",
      "bom-ref": "pkg:composer/sebastian/exporter@dev-main",
      "group": "sebastian",
      "name": "exporter",
      "version": "dev-main",
      "description": "Provides the functionality to export PHP variables for visualization",
      "licenses": [
        {
          "license": {
            "id": "BSD-3-Clause"
          }
        }
      ],
      "purl": "pkg:composer/sebastian/exporter@dev-main",
      "externalReferences": [
        {
          "url": "https://github.com/sebastianbergmann/exporter.git",
          "type": "distribution",
          "comment": "As detected by composer's `getSourceUrls()` (type=git & reference=57b14245bdb9a03633539744affdd1e46af4e9f4)"
        },
        {
          "url": "https://api.github.com/repos/sebastianbergmann/exporter/zipball/57b14245bdb9a03633539744affdd1e46af4e9f4",
          "type": "distribution",
          "comment": "As detected by composer's `getDistUrls()` (type=zip & reference=57b14245bdb9a03633539744affdd1e46af4e9f4 & sha1=UNDEFINED)"
        },
        {
          "url": "https://www.github.com/sebastianbergmann/exporter",
          "type": "website",
          "comment": "As set via `homepage` in composer package definition."
        },
        {
          "url": "https://github.com/sebastianbergmann/exporter/issues",
          "type": "issue-tracker",
          "comment": "As set via `support.issues` in composer package definition."
        },
        {
          "url": "https://github.com/sebastianbergmann/exporter/tree/main",
          "type": "distribution",
          "comment": "As set via `support.source` in composer package definition."
        },
        {
          "url": "https://github.com/sebastianbergmann",
          "type": "other",
          "comment": "As set via `funding` in composer package definition. (type=github)"
        }
      ]
    },
    {
      "type": "library",
      "bom-ref": "pkg:composer/sebastian/global-state@dev-main",
      "group": "sebastian",
      "name": "global-state",
      "version": "dev-main",
      "description": "Snapshotting of global state",
      "licenses": [
        {
          "license": {
            "id": "BSD-3-Clause"
          }
        }
      ],
      "purl": "pkg:composer/sebastian/global-state@dev-main",
      "externalReferences": [
        {
          "url": "https://github.com/sebastianbergmann/global-state.git",
          "type": "distribution",
          "comment": "As detected by composer's `getSourceUrls()` (type=git & reference=f4a0dd4279ca0e5fe985648d67e293c790ebdd44)"
        },
        {
          "url": "https://api.github.com/repos/sebastianbergmann/global-state/zipball/f4a0dd4279ca0e5fe985648d67e293c790ebdd44",
          "type": "distribution",
          "comment": "As detected by composer's `getDistUrls()` (type=zip & reference=f4a0dd4279ca0e5fe985648d67e293c790ebdd44 & sha1=UNDEFINED)"
        },
        {
          "url": "http://www.github.com/sebastianbergmann/global-state",
          "type": "website",
          "comment": "As set via `homepage` in composer package definition."
        },
        {
          "url": "https://github.com/sebastianbergmann/global-state/issues",
          "type": "issue-tracker",
          "comment": "As set via `support.issues` in composer package definition."
        },
        {
          "url": "https://github.com/sebastianbergmann/global-state/tree/main",
          "type": "distribution",
          "comment": "As set via `support.source` in composer package definition."
        },
        {
          "url": "https://github.com/sebastianbergmann",
          "type": "other",
          "comment": "As set via `funding` in composer package definition. (type=github)"
        }
      ]
    },
    {
      "type": "library",
      "bom-ref": "pkg:composer/sebastian/lines-of-code@dev-main",
      "group": "sebastian",
      "name": "lines-of-code",
      "version": "dev-main",
      "description": "Library for counting the lines of code in PHP source code",
      "licenses": [
        {
          "license": {
            "id": "BSD-3-Clause"
          }
        }
      ],
      "purl": "pkg:composer/sebastian/lines-of-code@dev-main",
      "externalReferences": [
        {
          "url": "https://github.com/sebastianbergmann/lines-of-code.git",
          "type": "distribution",
          "comment": "As detected by composer's `getSourceUrls()` (type=git & reference=0d3d8ec7ad700a1b4989ce39236715fa1b07628d)"
        },
        {
          "url": "https://api.github.com/repos/sebastianbergmann/lines-of-code/zipball/0d3d8ec7ad700a1b4989ce39236715fa1b07628d",
          "type": "distribution",
          "comment": "As detected by composer's `getDistUrls()` (type=zip & reference=0d3d8ec7ad700a1b4989ce39236715fa1b07628d & sha1=UNDEFINED)"
        },
        {
          "url": "https://github.com/sebastianbergmann/lines-of-code",
          "type": "website",
          "comment": "As set via `homepage` in composer package definition."
        },
        {
          "url": "https://github.com/sebastianbergmann/lines-of-code/issues",
          "type": "issue-tracker",
          "comment": "As set via `support.issues` in composer package definition."
        },
        {
          "url": "https://github.com/sebastianbergmann/lines-of-code/tree/main",
          "type": "distribution",
          "comment": "As set via `support.source` in composer package definition."
        },
        {
          "url": "https://github.com/sebastianbergmann",
          "type": "other",
          "comment": "As set via `funding` in composer package definition. (type=github)"
        }
      ]
    },
    {
      "type": "library",
      "bom-ref": "pkg:composer/sebastian/object-enumerator@dev-main",
      "group": "sebastian",
      "name": "object-enumerator",
      "version": "dev-main",
      "description": "Traverses array structures and object graphs to enumerate all referenced objects",
      "licenses": [
        {
          "license": {
            "id": "BSD-3-Clause"
          }
        }
      ],
      "purl": "pkg:composer/sebastian/object-enumerator@dev-main",
      "externalReferences": [
        {
          "url": "https://github.com/sebastianbergmann/object-enumerator.git",
          "type": "distribution",
          "comment": "As detected by composer's `getSourceUrls()` (type=git & reference=ebda732c4ac36fb3936f9c216aa7095df1f37459)"
        },
        {
          "url": "https://api.github.com/repos/sebastianbergmann/object-enumerator/zipball/ebda732c4ac36fb3936f9c216aa7095df1f37459",
          "type": "distribution",
          "comment": "As detected by composer's `getDistUrls()` (type=zip & reference=ebda732c4ac36fb3936f9c216aa7095df1f37459 & sha1=UNDEFINED)"
        },
        {
          "url": "https://github.com/sebastianbergmann/object-enumerator/",
          "type": "website",
          "comment": "As set via `homepage` in composer package definition."
        },
        {
          "url": "https://github.com/sebastianbergmann/object-enumerator/issues",
          "type": "issue-tracker",
          "comment": "As set via `support.issues` in composer package definition."
        },
        {
          "url": "https://github.com/sebastianbergmann/object-enumerator/tree/main",
          "type": "distribution",
          "comment": "As set via `support.source` in composer package definition."
        },
        {
          "url": "https://github.com/sebastianbergmann",
          "type": "other",
          "comment": "As set via `funding` in composer package definition. (type=github)"
        }
      ]
    },
    {
      "type": "library",
      "bom-ref": "pkg:composer/sebastian/object-reflector@dev-main",
      "group": "sebastian",
      "name": "object-reflector",
      "version": "dev-main",
      "description": "Allows reflection of object attributes, including inherited and non-public ones",
      "licenses": [
        {
          "license": {
            "id": "BSD-3-Clause"
          }
        }
      ],
      "purl": "pkg:composer/sebastian/object-reflector@dev-main",
      "externalReferences": [
        {
          "url": "https://github.com/sebastianbergmann/object-reflector.git",
          "type": "distribution",
          "comment": "As detected by composer's `getSourceUrls()` (type=git & reference=c2fd49ffad0afdefc634a912cdf1db6ac6f5cedf)"
        },
        {
          "url": "https://api.github.com/repos/sebastianbergmann/object-reflector/zipball/c2fd49ffad0afdefc634a912cdf1db6ac6f5cedf",
          "type": "distribution",
          "comment": "As detected by composer's `getDistUrls()` (type=zip & reference=c2fd49ffad0afdefc634a912cdf1db6ac6f5cedf & sha1=UNDEFINED)"
        },
        {
          "url": "https://github.com/sebastianbergmann/object-reflector/",
          "type": "website",
          "comment": "As set via `homepage` in composer package definition."
        },
        {
          "url": "https://github.com/sebastianbergmann/object-reflector/issues",
          "type": "issue-tracker",
          "comment": "As set via `support.issues` in composer package definition."
        },
        {
          "url": "https://github.com/sebastianbergmann/object-reflector/tree/main",
          "type": "distribution",
          "comment": "As set via `support.source` in composer package definition."
        },
        {
          "url": "https://github.com/sebastianbergmann",
          "type": "other",
          "comment": "As set via `funding` in composer package definition. (type=github)"
        }
      ]
    },
    {
      "type": "library",
      "bom-ref": "pkg:composer/sebastian/recursion-context@dev-main",
      "group": "sebastian",
      "name": "recursion-context",
      "version": "dev-main",
      "description": "Provides functionality to recursively process PHP variables",
      "licenses": [
        {
          "license": {
            "id": "BSD-3-Clause"
          }
        }
      ],
      "purl": "pkg:composer/sebastian/recursion-context@dev-main",
      "externalReferences": [
        {
          "url": "https://github.com/sebastianbergmann/recursion-context.git",
          "type": "distribution",
          "comment": "As detected by composer's `getSourceUrls()` (type=git & reference=431cdd1dbcd3ba8b1fc459d68f893c48462afb14)"
        },
        {
          "url": "https://api.github.com/repos/sebastianbergmann/recursion-context/zipball/431cdd1dbcd3ba8b1fc459d68f893c48462afb14",
          "type": "distribution",
          "comment": "As detected by composer's `getDistUrls()` (type=zip & reference=431cdd1dbcd3ba8b1fc459d68f893c48462afb14 & sha1=UNDEFINED)"
        },
        {
          "url": "http://www.github.com/sebastianbergmann/recursion-context",
          "type": "website",
          "comment": "As set via `homepage` in composer package definition."
        },
        {
          "url": "https://github.com/sebastianbergmann/recursion-context/issues",
          "type": "issue-tracker",
          "comment": "As set via `support.issues` in composer package definition."
        },
        {
          "url": "https://github.com/sebastianbergmann/recursion-context/tree/main",
          "type": "distribution",
          "comment": "As set via `support.source` in composer package definition."
        },
        {
          "url": "https://github.com/sebastianbergmann",
          "type": "other",
          "comment": "As set via `funding` in composer package definition. (type=github)"
        }
      ]
    },
    {
      "type": "library",
      "bom-ref": "pkg:composer/sebastian/type@dev-main",
      "group": "sebastian",
      "name": "type",
      "version": "dev-main",
      "description": "Collection of value objects that represent the types of the PHP type system",
      "licenses": [
        {
          "license": {
            "id": "BSD-3-Clause"
          }
        }
      ],
      "purl": "pkg:composer/sebastian/type@dev-main",
      "externalReferences": [
        {
          "url": "https://github.com/sebastianbergmann/type.git",
          "type": "distribution",
          "comment": "As detected by composer's `getSourceUrls()` (type=git & reference=fc8424fca8ad3f0eea1fadacc2a2a3e58567bcfe)"
        },
        {
          "url": "https://api.github.com/repos/sebastianbergmann/type/zipball/fc8424fca8ad3f0eea1fadacc2a2a3e58567bcfe",
          "type": "distribution",
          "comment": "As detected by composer's `getDistUrls()` (type=zip & reference=fc8424fca8ad3f0eea1fadacc2a2a3e58567bcfe & sha1=UNDEFINED)"
        },
        {
          "url": "https://github.com/sebastianbergmann/type",
          "type": "website",
          "comment": "As set via `homepage` in composer package definition."
        },
        {
          "url": "https://github.com/sebastianbergmann/type/issues",
          "type": "issue-tracker",
          "comment": "As set via `support.issues` in composer package definition."
        },
        {
          "url": "https://github.com/sebastianbergmann/type/tree/main",
          "type": "distribution",
          "comment": "As set via `support.source` in composer package definition."
        },
        {
          "url": "https://github.com/sebastianbergmann",
          "type": "other",
          "comment": "As set via `funding` in composer package definition. (type=github)"
        }
      ]
    },
    {
      "type": "library",
      "bom-ref": "pkg:composer/sebastian/version@dev-main",
      "group": "sebastian",
      "name": "version",
      "version": "dev-main",
      "description": "Library that helps with managing the version number of Git-hosted PHP projects",
      "licenses": [
        {
          "license": {
            "id": "BSD-3-Clause"
          }
        }
      ],
      "purl": "pkg:composer/sebastian/version@dev-main",
      "externalReferences": [
        {
          "url": "https://github.com/sebastianbergmann/version.git",
          "type": "distribution",
          "comment": "As detected by composer's `getSourceUrls()` (type=git & reference=faceb449be60d7c072c0411b7eece6cc6a85bf9b)"
        },
        {
          "url": "https://api.github.com/repos/sebastianbergmann/version/zipball/faceb449be60d7c072c0411b7eece6cc6a85bf9b",
          "type": "distribution",
          "comment": "As detected by composer's `getDistUrls()` (type=zip & reference=faceb449be60d7c072c0411b7eece6cc6a85bf9b & sha1=UNDEFINED)"
        },
        {
          "url": "https://github.com/sebastianbergmann/version",
          "type": "website",
          "comment": "As set via `homepage` in composer package definition."
        },
        {
          "url": "https://github.com/sebastianbergmann/version/issues",
          "type": "issue-tracker",
          "comment": "As set via `support.issues` in composer package definition."
        },
        {
          "url": "https://github.com/sebastianbergmann/version/tree/main",
          "type": "distribution",
          "comment": "As set via `support.source` in composer package definition."
        },
        {
          "url": "https://github.com/sebastianbergmann",
          "type": "other",
          "comment": "As set via `funding` in composer package definition. (type=github)"
        }
      ]
    },
    {
      "type": "library",
      "bom-ref": "pkg:composer/swaggest/json-diff@3.8.3",
      "group": "swaggest",
      "name": "json-diff",
      "version": "3.8.3",
      "description": "JSON diff/rearrange/patch/pointer library for PHP",
      "licenses": [
        {
          "license": {
            "id": "MIT"
          }
        }
      ],
      "purl": "pkg:composer/swaggest/json-diff@3.8.3",
      "externalReferences": [
        {
          "url": "https://github.com/swaggest/json-diff.git",
          "type": "distribution",
          "comment": "As detected by composer's `getSourceUrls()` (type=git & reference=bb3e3b4e9d842bb2e48f31ea568d0459968d1d42)"
        },
        {
          "url": "https://api.github.com/repos/swaggest/json-diff/zipball/bb3e3b4e9d842bb2e48f31ea568d0459968d1d42",
          "type": "distribution",
          "comment": "As detected by composer's `getDistUrls()` (type=zip & reference=bb3e3b4e9d842bb2e48f31ea568d0459968d1d42 & sha1=UNDEFINED)"
        },
        {
          "url": "https://github.com/swaggest/json-diff/issues",
          "type": "issue-tracker",
          "comment": "As set via `support.issues` in composer package definition."
        },
        {
          "url": "https://github.com/swaggest/json-diff/tree/v3.8.3",
          "type": "distribution",
          "comment": "As set via `support.source` in composer package definition."
        }
      ]
    },
    {
      "type": "library",
      "bom-ref": "pkg:composer/swaggest/json-schema@0.12.39",
      "group": "swaggest",
      "name": "json-schema",
      "version": "0.12.39",
      "description": "High definition PHP structures with JSON-schema based validation",
      "licenses": [
        {
          "license": {
            "id": "MIT"
          }
        }
      ],
      "purl": "pkg:composer/swaggest/json-schema@0.12.39",
      "externalReferences": [
        {
          "url": "https://github.com/swaggest/php-json-schema.git",
          "type": "distribution",
          "comment": "As detected by composer's `getSourceUrls()` (type=git & reference=193ba39cce1ffa2d55ddd5445315e945a63298a2)"
        },
        {
          "url": "https://api.github.com/repos/swaggest/php-json-schema/zipball/193ba39cce1ffa2d55ddd5445315e945a63298a2",
          "type": "distribution",
          "comment": "As detected by composer's `getDistUrls()` (type=zip & reference=193ba39cce1ffa2d55ddd5445315e945a63298a2 & sha1=UNDEFINED)"
        },
        {
          "url": "mailto:vearutop@gmail.com",
          "type": "other",
          "comment": "As set via `support.email` in composer package definition."
        },
        {
          "url": "https://github.com/swaggest/php-json-schema/issues",
          "type": "issue-tracker",
          "comment": "As set via `support.issues` in composer package definition."
        },
        {
          "url": "https://github.com/swaggest/php-json-schema/tree/v0.12.39",
          "type": "distribution",
          "comment": "As set via `support.source` in composer package definition."
        }
      ]
    },
    {
      "type": "library",
      "bom-ref": "pkg:composer/symfony/polyfill-mbstring@1.25.0",
      "group": "symfony",
      "name": "polyfill-mbstring",
      "version": "1.25.0",
      "description": "Symfony polyfill for the Mbstring extension",
      "licenses": [
        {
          "license": {
            "id": "MIT"
          }
        }
      ],
      "purl": "pkg:composer/symfony/polyfill-mbstring@1.25.0",
      "externalReferences": [
        {
          "url": "https://github.com/symfony/polyfill-mbstring.git",
          "type": "distribution",
          "comment": "As detected by composer's `getSourceUrls()` (type=git & reference=0abb51d2f102e00a4eefcf46ba7fec406d245825)"
        },
        {
          "url": "https://api.github.com/repos/symfony/polyfill-mbstring/zipball/0abb51d2f102e00a4eefcf46ba7fec406d245825",
          "type": "distribution",
          "comment": "As detected by composer's `getDistUrls()` (type=zip & reference=0abb51d2f102e00a4eefcf46ba7fec406d245825 & sha1=UNDEFINED)"
        },
        {
          "url": "https://symfony.com",
          "type": "website",
          "comment": "As set via `homepage` in composer package definition."
        },
        {
          "url": "https://github.com/symfony/polyfill-mbstring/tree/v1.25.0",
          "type": "distribution",
          "comment": "As set via `support.source` in composer package definition."
        },
        {
          "url": "https://symfony.com/sponsor",
          "type": "other",
          "comment": "As set via `funding` in composer package definition. (type=custom)"
        },
        {
          "url": "https://github.com/fabpot",
          "type": "other",
          "comment": "As set via `funding` in composer package definition. (type=github)"
        },
        {
          "url": "https://tidelift.com/funding/github/packagist/symfony/symfony",
          "type": "other",
          "comment": "As set via `funding` in composer package definition. (type=tidelift)"
        }
      ]
    },
    {
      "type": "library",
      "bom-ref": "pkg:composer/theseer/tokenizer@1.2.1",
      "group": "theseer",
      "name": "tokenizer",
      "version": "1.2.1",
      "description": "A small library for converting tokenized PHP source code into XML and potentially other formats",
      "licenses": [
        {
          "license": {
            "id": "BSD-3-Clause"
          }
        }
      ],
      "purl": "pkg:composer/theseer/tokenizer@1.2.1",
      "externalReferences": [
        {
          "url": "https://github.com/theseer/tokenizer.git",
          "type": "distribution",
          "comment": "As detected by composer's `getSourceUrls()` (type=git & reference=34a41e998c2183e22995f158c581e7b5e755ab9e)"
        },
        {
          "url": "https://api.github.com/repos/theseer/tokenizer/zipball/34a41e998c2183e22995f158c581e7b5e755ab9e",
          "type": "distribution",
          "comment": "As detected by composer's `getDistUrls()` (type=zip & reference=34a41e998c2183e22995f158c581e7b5e755ab9e & sha1=UNDEFINED)"
        },
        {
          "url": "https://github.com/theseer/tokenizer/issues",
          "type": "issue-tracker",
          "comment": "As set via `support.issues` in composer package definition."
        },
        {
          "url": "https://github.com/theseer/tokenizer/tree/1.2.1",
          "type": "distribution",
          "comment": "As set via `support.source` in composer package definition."
        },
        {
          "url": "https://github.com/theseer",
          "type": "other",
          "comment": "As set via `funding` in composer package definition. (type=github)"
        }
      ]
    },
    {
      "type": "library",
      "bom-ref": "pkg:composer/phar-io/version@3.0.1",
      "group": "phar-io",
      "name": "version",
      "version": "3.0.1",
      "description": "Library for handling version information and constraints",
      "licenses": [
        {
          "license": {
            "id": "BSD-3-Clause",
            "url": "https://opensource.org/licenses/BSD-3-Clause"
          }
        }
      ],
      "purl": "pkg:composer/phar-io/version@3.0.1",
      "externalReferences": [
        {
          "url": "https://github.com/phar-io/version.git",
          "type": "vcs"
        }
      ]
    },
    {
      "type": "library",
      "bom-ref": "pkg:composer/symfony/polyfill-mbstring@1.19.0",
      "group": "symfony",
      "name": "polyfill-mbstring",
      "version": "1.19.0",
      "description": "Symfony polyfill for the Mbstring extension",
      "licenses": [
        {
          "license": {
            "id": "MIT",
            "url": "https://opensource.org/licenses/MIT"
          }
        }
      ],
      "purl": "pkg:composer/symfony/polyfill-mbstring@1.19.0",
      "externalReferences": [
        {
          "url": "https://github.com/symfony/polyfill-mbstring.git",
          "type": "vcs"
        }
      ]
    }
  ],
  "dependencies": [
    {
      "ref": "pkg:composer/cyclonedx/cyclonedx-library@1.5.0",
      "dependsOn": [
        "pkg:composer/package-url/packageurl-php@1.0.4",
        "pkg:composer/swaggest/json-schema@0.12.39"
      ]
    },
    {
      "ref": "pkg:composer/cyclonedx/cyclonedx-php-composer@3.10.0",
      "dependsOn": [
        "pkg:composer/cyclonedx/cyclonedx-library@1.5.0",
        "pkg:composer/package-url/packageurl-php@1.0.4"
      ]
    },
    {
      "ref": "pkg:composer/doctrine/instantiator@1.4.1"
    },
    {
      "ref": "pkg:composer/myclabs/deep-copy@1.11.0"
    },
    {
      "ref": "pkg:composer/nikic/php-parser@4.13.2"
    },
    {
      "ref": "pkg:composer/package-url/packageurl-php@1.0.4"
    },
    {
      "ref": "pkg:composer/phar-io/manifest@2.0.3",
      "dependsOn": [
        "pkg:composer/phar-io/version@3.2.1"
      ]
    },
    {
      "ref": "pkg:composer/phar-io/version@3.2.1"
    },
    {
      "ref": "pkg:composer/phplang/scope-exit@1.0.0"
    },
    {
      "ref": "pkg:composer/phpunit/php-code-coverage@dev-main",
      "dependsOn": [
        "pkg:composer/nikic/php-parser@4.13.2",
        "pkg:composer/phpunit/php-file-iterator@dev-main",
        "pkg:composer/phpunit/php-text-template@dev-main",
        "pkg:composer/sebastian/code-unit-reverse-lookup@3.0.x-dev",
        "pkg:composer/sebastian/complexity@dev-main",
        "pkg:composer/sebastian/environment@dev-main",
        "pkg:composer/sebastian/lines-of-code@dev-main",
        "pkg:composer/sebastian/version@dev-main",
        "pkg:composer/theseer/tokenizer@1.2.1"
      ]
    },
    {
      "ref": "pkg:composer/phpunit/php-file-iterator@dev-main"
    },
    {
      "ref": "pkg:composer/phpunit/php-invoker@dev-main"
    },
    {
      "ref": "pkg:composer/phpunit/php-text-template@dev-main"
    },
    {
      "ref": "pkg:composer/phpunit/php-timer@dev-main"
    },
    {
      "ref": "pkg:composer/phpunit/phpunit@dev-main",
      "dependsOn": [
        "pkg:composer/doctrine/instantiator@1.4.1",
        "pkg:composer/myclabs/deep-copy@1.11.0",
        "pkg:composer/phar-io/manifest@2.0.3",
        "pkg:composer/phar-io/version@3.2.1",
        "pkg:composer/phpunit/php-code-coverage@dev-main",
        "pkg:composer/phpunit/php-file-iterator@dev-main",
        "pkg:composer/phpunit/php-invoker@dev-main",
        "pkg:composer/phpunit/php-text-template@dev-main",
        "pkg:composer/phpunit/php-timer@dev-main",
        "pkg:composer/sebastian/cli-parser@dev-main",
        "pkg:composer/sebastian/code-unit@dev-main",
        "pkg:composer/sebastian/comparator@dev-main",
        "pkg:composer/sebastian/diff@dev-main",
        "pkg:composer/sebastian/environment@dev-main",
        "pkg:composer/sebastian/exporter@dev-main",
        "pkg:composer/sebastian/global-state@dev-main",
        "pkg:composer/sebastian/object-enumerator@dev-main",
        "pkg:composer/sebastian/type@dev-main",
        "pkg:composer/sebastian/version@dev-main"
      ]
    },
    {
      "ref": "pkg:composer/sebastian/cli-parser@dev-main"
    },
    {
      "ref": "pkg:composer/sebastian/code-unit@dev-main"
    },
    {
      "ref": "pkg:composer/sebastian/comparator@dev-main",
      "dependsOn": [
        "pkg:composer/sebastian/diff@dev-main",
        "pkg:composer/sebastian/exporter@dev-main"
      ]
    },
    {
      "ref": "pkg:composer/sebastian/complexity@dev-main",
      "dependsOn": [
        "pkg:composer/nikic/php-parser@4.13.2"
      ]
    },
    {
      "ref": "pkg:composer/sebastian/diff@dev-main"
    },
    {
      "ref": "pkg:composer/sebastian/environment@dev-main"
    },
    {
      "ref": "pkg:composer/sebastian/exporter@dev-main",
      "dependsOn": [
        "pkg:composer/sebastian/recursion-context@dev-main"
      ]
    },
    {
      "ref": "pkg:composer/sebastian/global-state@dev-main",
      "dependsOn": [
        "pkg:composer/sebastian/object-reflector@dev-main",
        "pkg:composer/sebastian/recursion-context@dev-main"
      ]
    },
    {
      "ref": "pkg:composer/sebastian/lines-of-code@dev-main",
      "dependsOn": [
        "pkg:composer/nikic/php-parser@4.13.2"
      ]
    },
    {
      "ref": "pkg:composer/sebastian/object-enumerator@dev-main",
      "dependsOn": [
        "pkg:composer/sebastian/object-reflector@dev-main",
        "pkg:composer/sebastian/recursion-context@dev-main"
      ]
    },
    {
      "ref": "pkg:composer/sebastian/object-reflector@dev-main"
    },
    {
      "ref": "pkg:composer/sebastian/recursion-context@dev-main"
    },
    {
      "ref": "pkg:composer/sebastian/type@dev-main"
    },
    {
      "ref": "pkg:composer/sebastian/version@dev-main"
    },
    {
      "ref": "pkg:composer/swaggest/json-diff@3.8.3"
    },
    {
      "ref": "pkg:composer/swaggest/json-schema@0.12.39",
      "dependsOn": [
        "pkg:composer/phplang/scope-exit@1.0.0",
        "pkg:composer/swaggest/json-diff@3.8.3",
        "pkg:composer/symfony/polyfill-mbstring@1.25.0"
      ]
    },
    {
      "ref": "pkg:composer/symfony/polyfill-mbstring@1.25.0"
    },
    {
      "ref": "pkg:composer/theseer/tokenizer@1.2.1"
    },
    {
      "ref": "pkg:composer/sebastian/code-unit-reverse-lookup@3.0.x-dev",
      "dependsOn": [
        "pkg:composer/cyclonedx/cyclonedx-php-composer@3.10.0",
        "pkg:composer/phpunit/phpunit@dev-main"
      ]
    }
  ]
}
