{
  "bomFormat": "CycloneDX",
  "specVersion": "1.3",
  "serialNumber": "urn:uuid:1b6436f7-2bcc-4c8b-a3a9-e05b006636f2",
  "version": 2,
  "metadata": {
    "timestamp": "2022-07-26T23:37:50Z",
    "tools": [
      {
        "vendor": "AppThreat",
        "name": "cdxgen",
        "version": "3.0.10"
      },
      {
        "vendor": "Fortress Information Security",
        "name": "Github Extractor",
        "version": "1.15.1"
      }
    ],
    "authors": [
      {
        "name": "Team AppThreat",
        "email": "cloud@appthreat.com"
      },
      {
        "name": "Fortress Information Security",
        "email": "sales@fortressinfosec.com",
        "phone": "1-407-573-6800"
      }
    ],
    "component": {
      "type": "application",
      "name": "slog",
      "version": "",
      "group": "slog-rs",
      "externalReferences": [
        {
          "url": "https://github.com/slog-rs/slog.git",
          "type": "distribution"
        },
        {
          "type": "website",
          "url": "null",
          "comment": "As set via `homepage` in Github API"
        }
      ]
    }
  },
  "components": [
    {
      "type": "library",
      "bom-ref": "pkg:crates/slog@2.7.0",
      "group": "",
      "name": "slog",
      "version": "2.7.0",
      "description": "",
      "purl": "pkg:crates/slog@2.7.0"
    },
    {
      "type": "library",
      "bom-ref": "pkg:crates/erased-serde@0.3",
      "group": "",
      "name": "erased-serde",
      "version": "0.3",
      "description": "",
      "purl": "pkg:crates/erased-serde@0.3"
    },
    {
      "type": "library",
      "bom-ref": "pkg:crates/serde@1",
      "group": "",
      "name": "serde",
      "version": "1",
      "description": "",
      "purl": "pkg:crates/serde@1"
    },
    {
      "type": "library",
      "bom-ref": "pkg:crates/serde_derive@1",
      "group": "",
      "name": "serde_derive",
      "version": "1",
      "description": "",
      "purl": "pkg:crates/serde_derive@1"
    },
    {
      "type": "library",
      "bom-ref": "pkg:crates/name@singlethread",
      "group": "",
      "name": "name",
      "version": "singlethread",
      "description": "",
      "purl": "pkg:crates/name@singlethread"
    },
    {
      "type": "library",
      "bom-ref": "pkg:crates/required-features@[nothreads]",
      "group": "",
      "name": "required-features",
      "version": "[nothreads]",
      "description": "",
      "purl": "pkg:crates/required-features@[nothreads]"
    },
    {
      "type": "library",
      "bom-ref": "pkg:crates/features@[std, nested-values, dynamic-keys]",
      "group": "",
      "name": "features",
      "version": "[std, nested-values, dynamic-keys]",
      "description": "",
      "purl": "pkg:crates/features@[std, nested-values, dynamic-keys]"
    },
    {
      "type": "library",
      "bom-ref": "pkg:crates/members@[",
      "group": "",
      "name": "members",
      "version": "[",
      "description": "",
      "purl": "pkg:crates/members@["
    },
    {
      "type": "library",
      "bom-ref": "pkg:crates/slog-nursery@0.2.0-alpha1",
      "group": "",
      "name": "slog-nursery",
      "version": "0.2.0-alpha1",
      "description": "",
      "purl": "pkg:crates/slog-nursery@0.2.0-alpha1"
    },
    {
      "type": "library",
      "bom-ref": "pkg:crates/slog@2.0.0-alpha.3",
      "group": "",
      "name": "slog",
      "version": "2.0.0-alpha.3",
      "description": "",
      "purl": "pkg:crates/slog@2.0.0-alpha.3"
    },
    {
      "type": "library",
      "bom-ref": "pkg:crates/test_edition2018@0.0.0",
      "group": "",
      "name": "test_edition2018",
      "version": "0.0.0",
      "description": "",
      "purl": "pkg:crates/test_edition2018@0.0.0"
    }
  ],
  "externalReferences": [
    {
      "url": "/project/src",
      "type": "other",
      "comment": "Base path"
    },
    {
      "url": "/project/src/Cargo.toml, /project/src/crates/nursery/Cargo.toml, /project/src/crates/test_edition2018/Cargo.toml",
      "type": "other",
      "comment": "Package file"
    }
  ]
}
