{
  "bomFormat": "CycloneDX",
  "specVersion": "1.3",
  "version": 1,
  "components": [
    {
      "type": "library",
      "publisher": "Olivia Mackall and many others",
      "name": "mercurial",
      "version": "6.1.2",
      "description": "Fast scalable distributed SCM (revision control, version control) system",
      "hashes": [
        {
          "alg": "MD5",
          "content": "84078139d62569f5b0cc14b135bc9808"
        },
        {
          "alg": "SHA-256",
          "content": "8ff4d227f27edd878ba6c56aa7abeb480f297976a94b9c2d8b618d9983cd31c2"
        }
      ],
      "licenses": [
        {
          "license": {
            "name": "GNU GPLv2 or any later version"
          }
        }
      ],
      "purl": "pkg:pypi/mercurial@6.1.2",
      "modified": false
    }
  ],
  "metadata": {
    "tools": [
      {
        "vendor": "Fortress Information Security",
        "name": "Github Extractor",
        "version": "1.15.1"
      }
    ],
    "authors": [
      {
        "name": "Fortress Information Security",
        "email": "sales@fortressinfosec.com",
        "phone": "1-407-573-6800"
      }
    ],
    "timestamp": "2022-06-01T21:00:00Z",
    "component": {
      "type": "application",
      "name": "dotfiles",
      "version": "",
      "group": "sorin-ionescu",
      "externalReferences": [
        {
          "url": "https://github.com/sorin-ionescu/dotfiles.git",
          "type": "distribution"
        },
        {
          "type": "website",
          "url": "null",
          "comment": "As set via `homepage` in Github API"
        }
      ]
    }
  }
}
