{
  "bomFormat": "CycloneDX",
  "specVersion": "1.3",
  "version": 1,
  "metadata": {
    "tools": [
      {
        "vendor": "CycloneDX",
        "name": "Node.js module",
        "version": "3.0.3"
      },
      {
        "vendor": "Fortress Information Security",
        "name": "GitHub Extractor",
        "version": "1.15.1"
      }
    ],
    "authors": [
      {
        "name": "Fortress Information Security",
        "email": "sales@fortressinfosec.com",
        "phone": "1-407-573-6800"
      }
    ],
    "timestamp": "2022-07-01T20:26:19Z",
    "component": {
      "type": "application",
      "name": "Delite",
      "version": "",
      "group": "stanford-ppl",
      "externalReferences": [
        {
          "url": "https://github.com/stanford-ppl/Delite.git",
          "type": "distribution"
        }
      ]
    }
  },
  "components": [
    {
      "type": "library",
      "publisher": "Thomas Waldmann",
      "name": "argparse",
      "version": "1.4.0",
      "description": "Python command-line parsing library",
      "hashes": [
        {
          "alg": "MD5",
          "content": "c37216a954c8669054e2b2c54853dd49"
        },
        {
          "alg": "SHA-256",
          "content": "c31647edb69fd3d465a847ea3157d37bed1f95f19760b11a47aa91c04b666314"
        }
      ],
      "licenses": [
        {
          "license": {
            "name": "Python Software Foundation License"
          }
        }
      ],
      "purl": "pkg:pypi/argparse@1.4.0",
      "modified": false
    },
    {
      "type": "library",
      "publisher": "Travis E. Oliphant et al.",
      "name": "numpy",
      "version": "1.23.0",
      "description": "NumPy is the fundamental package for array computing with Python.",
      "hashes": [
        {
          "alg": "MD5",
          "content": "4f8142288202a32c682d01921d6c2c78"
        },
        {
          "alg": "SHA-256",
          "content": "94b170b4fa0168cd6be4becf37cb5b127bd12a795123984385b8cd4aca9857e5"
        }
      ],
      "licenses": [
        {
          "license": {
            "name": "BSD"
          }
        }
      ],
      "purl": "pkg:pypi/numpy@1.23.0",
      "modified": false
    },
    {
      "type": "library",
      "publisher": "Zope Foundation and Contributors",
      "name": "datetime",
      "version": "4.4",
      "description": "This package provides a DateTime data type, as known from Zope. Unless you need to communicate with Zope APIs, you're probably better off using Python's built-in datetime module.",
      "hashes": [
        {
          "alg": "MD5",
          "content": "ad1e82d858ed7c8cd2ea437b4cb695ed"
        },
        {
          "alg": "SHA-256",
          "content": "4fcca115ddb466a1104df08d5c2a2f5805d14ca317800e1bfcea8f3d69f66e57"
        }
      ],
      "licenses": [
        {
          "license": {
            "name": "ZPL 2.1"
          }
        }
      ],
      "purl": "pkg:pypi/datetime@4.4",
      "modified": false
    },
    {
      "type": "library",
      "publisher": "Łukasz Langa",
      "name": "ConfigParser",
      "version": "5.2.0",
      "description": "Updated configparser from Python 3.8 for Python 2.6+.",
      "hashes": [
        {
          "alg": "MD5",
          "content": "69bab6f43cd4375830a54a53a50129fa"
        },
        {
          "alg": "SHA-256",
          "content": "e8b39238fb6f0153a069aa253d349467c3c4737934f253ef6abac5fe0eca1e5d"
        }
      ],
      "purl": "pkg:pypi/configparser@5.2.0",
      "modified": false
    }
  ]
}
