{
  "bomFormat": "CycloneDX",
  "specVersion": "1.3",
  "serialNumber": "urn:uuid:b885020a-40a8-42d3-b043-3bd9e6da5206",
  "version": 1,
  "metadata": {
    "timestamp": "2022-06-06T19:17:50Z",
    "tools": [
      {
        "vendor": "AppThreat",
        "name": "cdxgen",
        "version": "3.0.10"
      },
      {
        "vendor": "Fortress Information Security",
        "name": "Github Extractor",
        "version": "1.15.1"
      }
    ],
    "authors": [
      {
        "name": "Team AppThreat",
        "email": "cloud@appthreat.com"
      },
      {
        "name": "Fortress Information Security",
        "email": "sales@fortressinfosec.com",
        "phone": "1-407-573-6800"
      }
    ],
    "component": {
      "type": "application",
      "name": "tempfile",
      "version": "",
      "group": "Stebalien",
      "externalReferences": [
        {
          "url": "https://github.com/Stebalien/tempfile.git",
          "type": "distribution"
        },
        {
          "type": "website",
          "url": "http://stebalien.com/projects/tempfile-rs",
          "comment": "As set via `homepage` in Github API"
        }
      ]
    }
  },
  "components": [
    {
      "type": "library",
      "bom-ref": "pkg:crates/tempfile@3.3.0",
      "group": "",
      "name": "tempfile",
      "version": "3.3.0",
      "description": "",
      "purl": "pkg:crates/tempfile@3.3.0"
    },
    {
      "type": "library",
      "bom-ref": "pkg:crates/cfg-if@1",
      "group": "",
      "name": "cfg-if",
      "version": "1",
      "description": "",
      "purl": "pkg:crates/cfg-if@1"
    },
    {
      "type": "library",
      "bom-ref": "pkg:crates/fastrand@1.6.0",
      "group": "",
      "name": "fastrand",
      "version": "1.6.0",
      "description": "",
      "purl": "pkg:crates/fastrand@1.6.0"
    },
    {
      "type": "library",
      "bom-ref": "pkg:crates/remove_dir_all@0.5",
      "group": "",
      "name": "remove_dir_all",
      "version": "0.5",
      "description": "",
      "purl": "pkg:crates/remove_dir_all@0.5"
    },
    {
      "type": "library",
      "bom-ref": "pkg:crates/[target.cfg(any(unix, target_os@wasi)).dependencies]",
      "group": "",
      "name": "[target.cfg(any(unix, target_os",
      "version": "wasi)).dependencies]",
      "description": "",
      "purl": "pkg:crates/[target.cfg(any(unix, target_os@wasi)).dependencies]"
    },
    {
      "type": "library",
      "bom-ref": "pkg:crates/libc@0.2.27",
      "group": "",
      "name": "libc",
      "version": "0.2.27",
      "description": "",
      "purl": "pkg:crates/libc@0.2.27"
    },
    {
      "type": "library",
      "bom-ref": "pkg:crates/features@[",
      "group": "",
      "name": "features",
      "version": "[",
      "description": "",
      "purl": "pkg:crates/features@["
    },
    {
      "type": "library",
      "bom-ref": "pkg:crates/[target.cfg(target_os@redox).dependencies]",
      "group": "",
      "name": "[target.cfg(target_os",
      "version": "redox).dependencies]",
      "description": "",
      "purl": "pkg:crates/[target.cfg(target_os@redox).dependencies]"
    },
    {
      "type": "library",
      "bom-ref": "pkg:crates/redox_syscall@0.2.9",
      "group": "",
      "name": "redox_syscall",
      "version": "0.2.9",
      "description": "",
      "purl": "pkg:crates/redox_syscall@0.2.9"
    },
    {
      "type": "library",
      "bom-ref": "pkg:crates/doc-comment@0.3",
      "group": "",
      "name": "doc-comment",
      "version": "0.3",
      "description": "",
      "purl": "pkg:crates/doc-comment@0.3"
    },
    {
      "type": "library",
      "bom-ref": "pkg:crates/nightly@[]",
      "group": "",
      "name": "nightly",
      "version": "[]",
      "description": "",
      "purl": "pkg:crates/nightly@[]"
    }
  ],
  "externalReferences": [
    {
      "url": "/project/src",
      "type": "other",
      "comment": "Base path"
    },
    {
      "url": "/project/src/Cargo.toml",
      "type": "other",
      "comment": "Package file"
    }
  ]
}
