{
  "bomFormat": "CycloneDX",
  "specVersion": "1.3",
  "version": 1,
  "components": [
    {
      "type": "library",
      "publisher": "Thomas Waldmann",
      "name": "argparse",
      "version": "1.4.0",
      "description": "Python command-line parsing library",
      "hashes": [
        {
          "alg": "MD5",
          "content": "c37216a954c8669054e2b2c54853dd49"
        },
        {
          "alg": "SHA-256",
          "content": "c31647edb69fd3d465a847ea3157d37bed1f95f19760b11a47aa91c04b666314"
        }
      ],
      "licenses": [
        {
          "license": {
            "name": "Python Software Foundation License"
          }
        }
      ],
      "purl": "pkg:pypi/argparse@1.4.0",
      "modified": false
    },
    {
      "type": "library",
      "publisher": "Travis E. Oliphant et al.",
      "name": "numpy",
      "version": "1.22.4",
      "description": "NumPy is the fundamental package for array computing with Python.",
      "hashes": [
        {
          "alg": "MD5",
          "content": "ab803b24ea557452e828adba1b986af3"
        },
        {
          "alg": "SHA-256",
          "content": "0791fbd1e43bf74b3502133207e378901272f3c156c4df4954cad833b1380207"
        }
      ],
      "licenses": [
        {
          "license": {
            "name": "BSD"
          }
        }
      ],
      "purl": "pkg:pypi/numpy@1.22.4",
      "modified": false
    },
    {
      "type": "library",
      "publisher": "Google Inc.",
      "name": "tensorflow",
      "version": "2.9.1",
      "description": "TensorFlow is an open source machine learning framework for everyone.",
      "hashes": [
        {
          "alg": "MD5",
          "content": "9ef4bb28d8831498a7cc72c95c5a8c63"
        },
        {
          "alg": "SHA-256",
          "content": "1c2c6557f6bd7e0d3f1063e27346e4f1c4353db2b7751ac7451033b335fa4b7c"
        }
      ],
      "licenses": [
        {
          "license": {
            "name": "Apache 2.0"
          }
        }
      ],
      "purl": "pkg:pypi/tensorflow@2.9.1",
      "modified": false
    },
    {
      "type": "library",
      "publisher": "Andreas Kloeckner",
      "name": "pycuda",
      "version": "2021.1",
      "description": "Python wrapper for Nvidia CUDA",
      "hashes": [
        {
          "alg": "MD5",
          "content": "f7f93f821fb03779b1d14e1a98c69f92"
        },
        {
          "alg": "SHA-256",
          "content": "ab87312d0fc349d9c17294a087bb9615cffcf966ad7b115f5b051008a48dd6ed"
        }
      ],
      "licenses": [
        {
          "license": {
            "name": "MIT"
          }
        }
      ],
      "purl": "pkg:pypi/pycuda@2021.1",
      "modified": false
    },
    {
      "type": "library",
      "publisher": "Jonathan Dekhtiar",
      "name": "tensorrt",
      "version": "0.0.1.dev5",
      "description": "A fake package to warn the user they are not installing the correct package.",
      "hashes": [
        {
          "alg": "MD5",
          "content": "1b589415148d66449c7c9394bb6812af"
        },
        {
          "alg": "SHA-256",
          "content": "4b96f00f2f5c3db965bd6b2493e11ada2f23363c095e2a339de4e7b1d0f4bb8e"
        }
      ],
      "licenses": [
        {
          "license": {
            "name": "Apache2"
          }
        }
      ],
      "purl": "pkg:pypi/tensorrt@0.0.1.dev5",
      "modified": false
    },
    {
      "type": "library",
      "publisher": "PyTorch Team",
      "name": "torch",
      "version": "1.11.0",
      "description": "Tensors and Dynamic neural networks in Python with strong GPU acceleration",
      "hashes": [
        {
          "alg": "MD5",
          "content": "d88113ea2a0597fd611880e93a508fe0"
        },
        {
          "alg": "SHA-256",
          "content": "0e48af66ad755f0f9c5f2664028a414f57c49d6adc37e77e06fe0004da4edb61"
        }
      ],
      "licenses": [
        {
          "license": {
            "name": "BSD-3"
          }
        }
      ],
      "purl": "pkg:pypi/torch@1.11.0",
      "modified": false
    },
    {
      "type": "library",
      "publisher": "Andrey Mikhaylenko",
      "name": "models",
      "version": "0.9.7",
      "description": "Python models for schema-less databases.",
      "licenses": [
        {
          "license": {
            "name": "GNU Lesser General Public License (LGPL), Version 3"
          }
        }
      ],
      "purl": "pkg:pypi/models@0.9.7",
      "modified": false
    },
    {
      "type": "library",
      "publisher": "PyTorch Core Team",
      "name": "torchvision",
      "version": "0.12.0",
      "description": "image and video datasets and models for torch deep learning",
      "hashes": [
        {
          "alg": "MD5",
          "content": "e4458886f57f6221343c4bc4121d4526"
        },
        {
          "alg": "SHA-256",
          "content": "edab05f7ba9f648c00435b384ffdbd7bde79a3b8ea893813fb50f6ccf28b1e76"
        }
      ],
      "licenses": [
        {
          "license": {
            "name": "BSD"
          }
        }
      ],
      "purl": "pkg:pypi/torchvision@0.12.0",
      "modified": false
    },
    {
      "type": "library",
      "publisher": "Secret Labs AB (PythonWare)",
      "name": "PIL",
      "version": "1.1.6",
      "description": "Python Imaging Library",
      "licenses": [
        {
          "license": {
            "name": "Python (MIT style)"
          }
        }
      ],
      "purl": "pkg:pypi/pil@1.1.6",
      "modified": false
    },
    {
      "type": "library",
      "publisher": "Shubham Chandel @sksq96",
      "name": "torchsummary",
      "version": "1.5.1",
      "description": "Model summary in PyTorch similar to `model.summary()` in Keras",
      "hashes": [
        {
          "alg": "MD5",
          "content": "65035b86d02ed456f67ecd66d3d3ff4d"
        },
        {
          "alg": "SHA-256",
          "content": "10f41d1743fb918f83293f13183f532ab1bb8f6639a1b89e5f8592ec1919a976"
        }
      ],
      "purl": "pkg:pypi/torchsummary@1.5.1",
      "modified": false
    },
    {
      "type": "library",
      "publisher": "Thomas Heller",
      "name": "ctypes",
      "version": "1.0.2",
      "description": "create and manipulate C data types in Python, call functions in shared libraries",
      "licenses": [
        {
          "license": {
            "name": "MIT License"
          }
        }
      ],
      "purl": "pkg:pypi/ctypes@1.0.2",
      "modified": false
    },
    {
      "type": "library",
      "publisher": "Haak Saxberg",
      "name": "utils",
      "version": "1.0.1",
      "description": "A grab-bag of utility functions and objects",
      "hashes": [
        {
          "alg": "MD5",
          "content": "96dfa21b1739f63ca1bf073ee9d9be18"
        },
        {
          "alg": "SHA-256",
          "content": "ff04549b95deb2fd7a82ddaea077e2f41209079e2482df231c358770b27b72a7"
        }
      ],
      "purl": "pkg:pypi/utils@1.0.1",
      "modified": false
    },
    {
      "type": "library",
      "publisher": "Alexander Jung",
      "name": "imgaug",
      "version": "0.4.0",
      "description": "Image augmentation library for deep neural networks",
      "hashes": [
        {
          "alg": "MD5",
          "content": "4116de838f2a266ff47d069a9f84e288"
        },
        {
          "alg": "SHA-256",
          "content": "ce61e65b4eb7405fc62c1b0a79d2fa92fd47f763aaecb65152d29243592111f9"
        }
      ],
      "licenses": [
        {
          "license": {
            "name": "MIT"
          }
        }
      ],
      "purl": "pkg:pypi/imgaug@0.4.0",
      "modified": false
    },
    {
      "type": "library",
      "publisher": "Vinay Sajip",
      "name": "config",
      "version": "0.5.1",
      "description": "A hierarchical, easy-to-use, powerful configuration module for Python",
      "hashes": [
        {
          "alg": "MD5",
          "content": "d82e233b557dd6d4450f94f67ab8f4fa"
        },
        {
          "alg": "SHA-256",
          "content": "79ffa009ff2663cc8ca29e56bcec031c044609d4bafaa4f884132a413101ce84"
        }
      ],
      "licenses": [
        {
          "license": {
            "name": "Copyright (C) 2004-2020 by Vinay Sajip. All Rights Reserved. See LICENSE for license."
          }
        }
      ],
      "purl": "pkg:pypi/config@0.5.1",
      "modified": false
    },
    {
      "type": "library",
      "publisher": "Alex",
      "name": "core",
      "version": "1.0.1",
      "licenses": [
        {
          "license": {
            "name": "GNU GPL"
          }
        }
      ],
      "purl": "pkg:pypi/core@1.0.1",
      "modified": false
    },
    {
      "type": "library",
      "publisher": "James Gardner",
      "name": "model",
      "version": "0.6.0",
      "description": "Object Relational Mapper (SQL database wrapper)",
      "purl": "pkg:pypi/model@0.6.0",
      "modified": false
    },
    {
      "type": "library",
      "name": "mmaction",
      "version": "0.5.0",
      "description": "OpenMMLab Action Understanding Toolbox and Benchmark",
      "hashes": [
        {
          "alg": "MD5",
          "content": "3a0163ae797c49a2d4a5a5dc20e7fbf5"
        },
        {
          "alg": "SHA-256",
          "content": "55f7be38442edc6ca3bbfd3f94e636319ec755edeb7e8b45638eb030382cac4b"
        }
      ],
      "licenses": [
        {
          "license": {
            "name": "Apache License 2.0"
          }
        }
      ],
      "purl": "pkg:pypi/mmaction@0.5.0",
      "modified": false
    },
    {
      "type": "library",
      "publisher": "MMCV Contributors",
      "name": "mmcv",
      "version": "1.5.1",
      "description": "OpenMMLab Computer Vision Foundation",
      "hashes": [
        {
          "alg": "MD5",
          "content": "4e434d1c4505d391f27a9606b3d96ac9"
        },
        {
          "alg": "SHA-256",
          "content": "00c3cd7d932da3794ee4130f1a5670aec8a457a62396449415e75e578ac3d82b"
        }
      ],
      "purl": "pkg:pypi/mmcv@1.5.1",
      "modified": false
    },
    {
      "type": "library",
      "publisher": "Luke",
      "name": "efficientnet_pytorch",
      "version": "0.7.1",
      "description": "EfficientNet implemented in PyTorch.",
      "hashes": [
        {
          "alg": "MD5",
          "content": "f2b12999687e14cbd757ce24229be85e"
        },
        {
          "alg": "SHA-256",
          "content": "00b9b261effce59d2d47aae2ad238c29a2a65175470f41ada7ecac439b7c1ee1"
        }
      ],
      "licenses": [
        {
          "license": {
            "name": "Apache"
          }
        }
      ],
      "purl": "pkg:pypi/efficientnet-pytorch@0.7.1",
      "modified": false
    },
    {
      "type": "library",
      "publisher": "Xintao Wang",
      "name": "basicsr",
      "version": "1.3.5",
      "description": "Open Source Image and Video Super-Resolution Toolbox",
      "hashes": [
        {
          "alg": "MD5",
          "content": "c088de127bf48028cbdc62d3feb39664"
        },
        {
          "alg": "SHA-256",
          "content": "9fcc56a1f2617dfc29e4c3210de033250393fbca60ccdd41f84c148e3626cb4b"
        }
      ],
      "licenses": [
        {
          "license": {
            "name": "Apache License 2.0"
          }
        }
      ],
      "purl": "pkg:pypi/basicsr@1.3.5",
      "modified": false
    },
    {
      "type": "library",
      "publisher": "Xintao Wang",
      "name": "realesrgan",
      "version": "0.2.5.0",
      "description": "Real-ESRGAN aims at developing Practical Algorithms for General Image Restoration",
      "hashes": [
        {
          "alg": "MD5",
          "content": "5da1084afb9a22e6114ec01269e64761"
        },
        {
          "alg": "SHA-256",
          "content": "9013f834c99fdb898d6784f2149e04551e95350fe5e795ffcc094de9b6ea5a19"
        }
      ],
      "licenses": [
        {
          "license": {
            "name": "BSD-3-Clause License"
          }
        }
      ],
      "purl": "pkg:pypi/realesrgan@0.2.5.0",
      "modified": false
    }
  ],
  "metadata": {
    "tools": [
      {
        "vendor": "Fortress Information Security",
        "name": "Github Extractor",
        "version": "1.15.1"
      }
    ],
    "authors": [
      {
        "name": "Fortress Information Security",
        "email": "sales@fortressinfosec.com",
        "phone": "1-407-573-6800"
      }
    ],
    "timestamp": "2022-06-01T21:00:00Z",
    "component": {
      "type": "application",
      "name": "tensorrtx",
      "version": "",
      "group": "wang-xinyu",
      "externalReferences": [
        {
          "url": "https://github.com/wang-xinyu/tensorrtx.git",
          "type": "distribution"
        },
        {
          "type": "website",
          "url": "null",
          "comment": "As set via `homepage` in Github API"
        }
      ]
    }
  }
}
