{
  "bomFormat": "CycloneDX",
  "specVersion": "1.3",
  "version": 1,
  "metadata": {
    "tools": [
      {
        "vendor": "CycloneDX",
        "name": "Node.js module",
        "version": "3.0.3"
      },
      {
        "vendor": "CycloneDX",
        "name": "cyclonedx-gomod",
        "version": "v0.0.0-unset",
        "hashes": [
          {
            "alg": "MD5",
            "content": "a35776fc9417e8071d3f1dcfa2f1dd19"
          },
          {
            "alg": "SHA-1",
            "content": "a19a8eed713eff5a2092e5283c201a146f19421d"
          },
          {
            "alg": "SHA-256",
            "content": "17b3b980b9a5d0f48ad52043dee5b31aff3ae6599a36bc94224dc7b6a46759ef"
          },
          {
            "alg": "SHA-512",
            "content": "9d4f06aab20cede94a1aedf11a300ae9de98871235c68c72e421cd6d45495910861b39e743ee0eceb11bbdcd2c9acc3312c19064cfe90177243fb43127fcfa46"
          }
        ]
      },
      {
        "vendor": "AppThreat",
        "name": "cdxgen",
        "version": "3.0.10"
      },
      {
        "vendor": "Fortress Information Security",
        "name": "Github Extractor",
        "version": "1.15.1"
      }
    ],
    "authors": [
      {
        "name": "Fortress Information Security",
        "email": "sales@fortressinfosec.com",
        "phone": "1-407-573-6800"
      }
    ],
    "timestamp": "2022-06-01T21:00:00Z",
    "component": {
      "type": "application",
      "name": "AdGuardHome",
      "version": "v0.107.7",
      "group": "AdguardTeam",
      "externalReferences": [
        {
          "url": "https://github.com/AdguardTeam/AdGuardHome.git",
          "type": "distribution"
        },
        {
          "type": "website",
          "url": "https://adguard.com/adguard-home.html",
          "comment": "As set via `homepage` in Github API"
        }
      ]
    }
  },
  "components": [
    {
      "type": "library",
      "bom-ref": "pkg:golang/github.com/AdguardTeam/dnsproxy@v0.42.2",
      "name": "github.com/AdguardTeam/dnsproxy",
      "version": "v0.42.2",
      "scope": "required",
      "hashes": [
        {
          "alg": "SHA-256",
          "content": "68185bbafaa0feb64df1169be482d27cf1490e4893be25975dc71e2606a39cdb"
        }
      ],
      "purl": "pkg:golang/github.com/AdguardTeam/dnsproxy@v0.42.2",
      "externalReferences": [
        {
          "url": "https://github.com/AdguardTeam/dnsproxy",
          "type": "vcs"
        }
      ]
    },
    {
      "type": "library",
      "bom-ref": "pkg:golang/github.com/AdguardTeam/golibs@v0.10.8",
      "name": "github.com/AdguardTeam/golibs",
      "version": "v0.10.8",
      "scope": "required",
      "hashes": [
        {
          "alg": "SHA-256",
          "content": "76253d80ff6a1b5a9e2db024cc8c1f51eae91d2ab347acda060cef44c47f9ba4"
        }
      ],
      "purl": "pkg:golang/github.com/AdguardTeam/golibs@v0.10.8",
      "externalReferences": [
        {
          "url": "https://github.com/AdguardTeam/golibs",
          "type": "vcs"
        }
      ]
    },
    {
      "type": "library",
      "bom-ref": "pkg:golang/github.com/AdguardTeam/urlfilter@v0.16.0",
      "name": "github.com/AdguardTeam/urlfilter",
      "version": "v0.16.0",
      "scope": "required",
      "hashes": [
        {
          "alg": "SHA-256",
          "content": "20edbd9be67242eb8e9cf2d3cc7b978f7e55d4364ea750dcaf2979efa3f6b328"
        }
      ],
      "purl": "pkg:golang/github.com/AdguardTeam/urlfilter@v0.16.0",
      "externalReferences": [
        {
          "url": "https://github.com/AdguardTeam/urlfilter",
          "type": "vcs"
        }
      ]
    },
    {
      "type": "library",
      "bom-ref": "pkg:golang/github.com/NYTimes/gziphandler@v1.1.1",
      "name": "github.com/NYTimes/gziphandler",
      "version": "v1.1.1",
      "scope": "required",
      "hashes": [
        {
          "alg": "SHA-256",
          "content": "6540e3a5069edbd8f4af2ad2d2efc1f0765f241b414078eac36ad0d9ca944372"
        }
      ],
      "purl": "pkg:golang/github.com/NYTimes/gziphandler@v1.1.1",
      "externalReferences": [
        {
          "url": "https://github.com/NYTimes/gziphandler",
          "type": "vcs"
        }
      ]
    },
    {
      "type": "library",
      "bom-ref": "pkg:golang/github.com/aead/chacha20@v0.0.0-20180709150244-8b13a72661da",
      "name": "github.com/aead/chacha20",
      "version": "v0.0.0-20180709150244-8b13a72661da",
      "scope": "required",
      "hashes": [
        {
          "alg": "SHA-256",
          "content": "2a34ccda4b3d775e19602be61d2f6200a56df40cb3452a8d535a9a6cf8a1e416"
        }
      ],
      "purl": "pkg:golang/github.com/aead/chacha20@v0.0.0-20180709150244-8b13a72661da",
      "externalReferences": [
        {
          "url": "https://github.com/aead/chacha20",
          "type": "vcs"
        }
      ]
    },
    {
      "type": "library",
      "bom-ref": "pkg:golang/github.com/aead/poly1305@v0.0.0-20180717145839-3fee0db0b635",
      "name": "github.com/aead/poly1305",
      "version": "v0.0.0-20180717145839-3fee0db0b635",
      "scope": "required",
      "hashes": [
        {
          "alg": "SHA-256",
          "content": "e769b42c6721401055a89472618b9f42e21b56a45ac26b9b5b73851aa2b57a4c"
        }
      ],
      "purl": "pkg:golang/github.com/aead/poly1305@v0.0.0-20180717145839-3fee0db0b635",
      "externalReferences": [
        {
          "url": "https://github.com/aead/poly1305",
          "type": "vcs"
        }
      ]
    },
    {
      "type": "library",
      "bom-ref": "pkg:golang/github.com/ameshkov/dnscrypt/v2@v2.2.3",
      "name": "github.com/ameshkov/dnscrypt/v2",
      "version": "v2.2.3",
      "scope": "required",
      "hashes": [
        {
          "alg": "SHA-256",
          "content": "5fd50fe401edc29e3a262fac1857c5ff522ce8e3c8fd28f12ea84aa71d0fe542"
        }
      ],
      "purl": "pkg:golang/github.com/ameshkov/dnscrypt/v2@v2.2.3",
      "externalReferences": [
        {
          "url": "https://github.com/ameshkov/dnscrypt",
          "type": "vcs"
        }
      ]
    },
    {
      "type": "library",
      "bom-ref": "pkg:golang/github.com/ameshkov/dnsstamps@v1.0.3",
      "name": "github.com/ameshkov/dnsstamps",
      "version": "v1.0.3",
      "scope": "required",
      "hashes": [
        {
          "alg": "SHA-256",
          "content": "4abce293e27d9a2bc7d5a9510024dbcacdb13b1b349511fdaa74c0ed8d4e615a"
        }
      ],
      "purl": "pkg:golang/github.com/ameshkov/dnsstamps@v1.0.3",
      "externalReferences": [
        {
          "url": "https://github.com/ameshkov/dnsstamps",
          "type": "vcs"
        }
      ]
    },
    {
      "type": "library",
      "bom-ref": "pkg:golang/github.com/beefsack/go-rate@v0.0.0-20220214233405-116f4ca011a0",
      "name": "github.com/beefsack/go-rate",
      "version": "v0.0.0-20220214233405-116f4ca011a0",
      "scope": "required",
      "hashes": [
        {
          "alg": "SHA-256",
          "content": "d1bdaf69ea5721f32c1bef88b231e2236a786f100b0f56369d0286311e730d03"
        }
      ],
      "purl": "pkg:golang/github.com/beefsack/go-rate@v0.0.0-20220214233405-116f4ca011a0",
      "externalReferences": [
        {
          "url": "https://github.com/beefsack/go-rate",
          "type": "vcs"
        }
      ]
    },
    {
      "type": "library",
      "bom-ref": "pkg:golang/github.com/cheekybits/genny@v1.0.0",
      "name": "github.com/cheekybits/genny",
      "version": "v1.0.0",
      "scope": "required",
      "hashes": [
        {
          "alg": "SHA-256",
          "content": "b8619ae277a2fa3db4ace49e0de3f939fd765d59bb4c651de1d240f510e2b5f1"
        }
      ],
      "purl": "pkg:golang/github.com/cheekybits/genny@v1.0.0",
      "externalReferences": [
        {
          "url": "https://github.com/cheekybits/genny",
          "type": "vcs"
        }
      ]
    },
    {
      "type": "library",
      "bom-ref": "pkg:golang/github.com/digineo/go-ipset/v2@v2.2.1",
      "name": "github.com/digineo/go-ipset/v2",
      "version": "v2.2.1",
      "scope": "required",
      "hashes": [
        {
          "alg": "SHA-256",
          "content": "93ab2463ed1f32a7948e37963bf9b93ae58f4995009fb02e707327435317efb8"
        }
      ],
      "purl": "pkg:golang/github.com/digineo/go-ipset/v2@v2.2.1",
      "externalReferences": [
        {
          "url": "https://github.com/digineo/go-ipset",
          "type": "vcs"
        }
      ]
    },
    {
      "type": "library",
      "bom-ref": "pkg:golang/github.com/fsnotify/fsnotify@v1.5.4",
      "name": "github.com/fsnotify/fsnotify",
      "version": "v1.5.4",
      "scope": "required",
      "hashes": [
        {
          "alg": "SHA-256",
          "content": "8d16c6708c3a3f631ea9dc2ea341f5a7a2552db2f90c72802a56277733305592"
        }
      ],
      "purl": "pkg:golang/github.com/fsnotify/fsnotify@v1.5.4",
      "externalReferences": [
        {
          "url": "https://github.com/fsnotify/fsnotify",
          "type": "vcs"
        }
      ]
    },
    {
      "type": "library",
      "bom-ref": "pkg:golang/github.com/go-ping/ping@v0.0.0-20211130115550-779d1e919534",
      "name": "github.com/go-ping/ping",
      "version": "v0.0.0-20211130115550-779d1e919534",
      "scope": "required",
      "hashes": [
        {
          "alg": "SHA-256",
          "content": "761cbd390286061e335576e3c1bc711e3471309b4b5e3df37e0a41610691e10e"
        }
      ],
      "purl": "pkg:golang/github.com/go-ping/ping@v0.0.0-20211130115550-779d1e919534",
      "externalReferences": [
        {
          "url": "https://github.com/go-ping/ping",
          "type": "vcs"
        }
      ]
    },
    {
      "type": "library",
      "bom-ref": "pkg:golang/github.com/go-task/slim-sprig@v0.0.0-20210107165309-348f09dbbbc0",
      "name": "github.com/go-task/slim-sprig",
      "version": "v0.0.0-20210107165309-348f09dbbbc0",
      "scope": "required",
      "hashes": [
        {
          "alg": "SHA-256",
          "content": "a75d38927e3a43c59dbc7ba7209f5d0328cf56dac13e14abdca4f6c94b2de372"
        }
      ],
      "purl": "pkg:golang/github.com/go-task/slim-sprig@v0.0.0-20210107165309-348f09dbbbc0",
      "externalReferences": [
        {
          "url": "https://github.com/go-task/slim-sprig",
          "type": "vcs"
        }
      ]
    },
    {
      "type": "library",
      "bom-ref": "pkg:golang/github.com/google/go-cmp@v0.5.7",
      "name": "github.com/google/go-cmp",
      "version": "v0.5.7",
      "scope": "required",
      "hashes": [
        {
          "alg": "SHA-256",
          "content": "f35fe293a8a90d04b66867017c83797470c1dfa070ad2b7278042ab92602578a"
        }
      ],
      "purl": "pkg:golang/github.com/google/go-cmp@v0.5.7",
      "externalReferences": [
        {
          "url": "https://github.com/google/go-cmp",
          "type": "vcs"
        }
      ]
    },
    {
      "type": "library",
      "bom-ref": "pkg:golang/github.com/google/gopacket@v1.1.19",
      "name": "github.com/google/gopacket",
      "version": "v1.1.19",
      "scope": "required",
      "hashes": [
        {
          "alg": "SHA-256",
          "content": "bdeb3c4671593c68859d34b4b8f412b63c2bbbab8eea1fa796bf63e9f2fb905f"
        }
      ],
      "purl": "pkg:golang/github.com/google/gopacket@v1.1.19",
      "externalReferences": [
        {
          "url": "https://github.com/google/gopacket",
          "type": "vcs"
        }
      ]
    },
    {
      "type": "library",
      "bom-ref": "pkg:golang/github.com/google/renameio@v1.0.1",
      "name": "github.com/google/renameio",
      "version": "v1.0.1",
      "scope": "required",
      "hashes": [
        {
          "alg": "SHA-256",
          "content": "2e1fe35d99af6716f404179263954a11f89d71b71b7a72a3645cccfead1f49e5"
        }
      ],
      "purl": "pkg:golang/github.com/google/renameio@v1.0.1",
      "externalReferences": [
        {
          "url": "https://github.com/google/renameio",
          "type": "vcs"
        }
      ]
    },
    {
      "type": "library",
      "bom-ref": "pkg:golang/github.com/google/uuid@v1.3.0",
      "name": "github.com/google/uuid",
      "version": "v1.3.0",
      "scope": "required",
      "hashes": [
        {
          "alg": "SHA-256",
          "content": "b7a2625e09b05cc8c4b3c56eb172099360571ec9fec31f0165d4daa19e5fbbb2"
        }
      ],
      "purl": "pkg:golang/github.com/google/uuid@v1.3.0",
      "externalReferences": [
        {
          "url": "https://github.com/google/uuid",
          "type": "vcs"
        }
      ]
    },
    {
      "type": "library",
      "bom-ref": "pkg:golang/github.com/insomniacslk/dhcp@v0.0.0-20220405050111-12fbdcb11b41",
      "name": "github.com/insomniacslk/dhcp",
      "version": "v0.0.0-20220405050111-12fbdcb11b41",
      "scope": "required",
      "hashes": [
        {
          "alg": "SHA-256",
          "content": "620de7dc023b1a81e75adeddca3b0b3d4f9312e65f3c083439d880dcc25457a2"
        }
      ],
      "purl": "pkg:golang/github.com/insomniacslk/dhcp@v0.0.0-20220405050111-12fbdcb11b41",
      "externalReferences": [
        {
          "url": "https://github.com/insomniacslk/dhcp",
          "type": "vcs"
        }
      ]
    },
    {
      "type": "library",
      "bom-ref": "pkg:golang/github.com/josharian/native@v1.0.0",
      "name": "github.com/josharian/native",
      "version": "v1.0.0",
      "scope": "required",
      "hashes": [
        {
          "alg": "SHA-256",
          "content": "4ecfc4f3309212c1b5edd52abfb8e85c91726ee30b8d07d6134e2db013834f19"
        }
      ],
      "purl": "pkg:golang/github.com/josharian/native@v1.0.0",
      "externalReferences": [
        {
          "url": "https://github.com/josharian/native",
          "type": "vcs"
        }
      ]
    },
    {
      "type": "library",
      "bom-ref": "pkg:golang/github.com/kardianos/service@v1.2.1",
      "name": "github.com/kardianos/service",
      "version": "v1.2.1",
      "scope": "required",
      "hashes": [
        {
          "alg": "SHA-256",
          "content": "0189dd32c7a14becb0212e9107d28e95c5f3b5e594cf180c801ca6243efe0589"
        }
      ],
      "purl": "pkg:golang/github.com/kardianos/service@v1.2.1",
      "externalReferences": [
        {
          "url": "https://github.com/kardianos/service",
          "type": "vcs"
        }
      ]
    },
    {
      "type": "library",
      "bom-ref": "pkg:golang/github.com/lucas-clemente/quic-go@v0.26.0",
      "name": "github.com/lucas-clemente/quic-go",
      "version": "v0.26.0",
      "scope": "required",
      "hashes": [
        {
          "alg": "SHA-256",
          "content": "00b0505ebf5427c0352f2cef71e5f88ddf5016c1ef948d1147a064575ea8d340"
        }
      ],
      "purl": "pkg:golang/github.com/lucas-clemente/quic-go@v0.26.0",
      "externalReferences": [
        {
          "url": "https://github.com/lucas-clemente/quic-go",
          "type": "vcs"
        }
      ]
    },
    {
      "type": "library",
      "bom-ref": "pkg:golang/github.com/marten-seemann/qtls-go1-16@v0.1.5",
      "name": "github.com/marten-seemann/qtls-go1-16",
      "version": "v0.1.5",
      "scope": "required",
      "hashes": [
        {
          "alg": "SHA-256",
          "content": "a3d26b60f3dca3f36e91dfc7a4e1cc1d9a010d742aa0db540a69f2f7cff5baa4"
        }
      ],
      "purl": "pkg:golang/github.com/marten-seemann/qtls-go1-16@v0.1.5",
      "externalReferences": [
        {
          "url": "https://github.com/marten-seemann/qtls-go1-16",
          "type": "vcs"
        }
      ]
    },
    {
      "type": "library",
      "bom-ref": "pkg:golang/github.com/marten-seemann/qtls-go1-17@v0.1.1",
      "name": "github.com/marten-seemann/qtls-go1-17",
      "version": "v0.1.1",
      "scope": "required",
      "hashes": [
        {
          "alg": "SHA-256",
          "content": "0d08c73eaf9a3b351e87dfe58b1006ba79faac8390c960a13d2238fa1816ee37"
        }
      ],
      "purl": "pkg:golang/github.com/marten-seemann/qtls-go1-17@v0.1.1",
      "externalReferences": [
        {
          "url": "https://github.com/marten-seemann/qtls-go1-17",
          "type": "vcs"
        }
      ]
    },
    {
      "type": "library",
      "bom-ref": "pkg:golang/github.com/marten-seemann/qtls-go1-18@v0.1.1",
      "name": "github.com/marten-seemann/qtls-go1-18",
      "version": "v0.1.1",
      "scope": "required",
      "hashes": [
        {
          "alg": "SHA-256",
          "content": "aa9ee9ed75d414bedfa41bd24b5b160feb92a8fbf33502b8dc31fefea1248f46"
        }
      ],
      "purl": "pkg:golang/github.com/marten-seemann/qtls-go1-18@v0.1.1",
      "externalReferences": [
        {
          "url": "https://github.com/marten-seemann/qtls-go1-18",
          "type": "vcs"
        }
      ]
    },
    {
      "type": "library",
      "bom-ref": "pkg:golang/github.com/mdlayher/ethernet@v0.0.0-20220221185849-529eae5b6118",
      "name": "github.com/mdlayher/ethernet",
      "version": "v0.0.0-20220221185849-529eae5b6118",
      "scope": "required",
      "hashes": [
        {
          "alg": "SHA-256",
          "content": "da80e9e8e3a12f143d241a14bb2b15cfd519f6e23aa0b51bbc066ed31f28faf1"
        }
      ],
      "purl": "pkg:golang/github.com/mdlayher/ethernet@v0.0.0-20220221185849-529eae5b6118",
      "externalReferences": [
        {
          "url": "https://github.com/mdlayher/ethernet",
          "type": "vcs"
        }
      ]
    },
    {
      "type": "library",
      "bom-ref": "pkg:golang/github.com/mdlayher/netlink@v1.6.0",
      "name": "github.com/mdlayher/netlink",
      "version": "v1.6.0",
      "scope": "required",
      "hashes": [
        {
          "alg": "SHA-256",
          "content": "ace1d7e7297baa79698959055a8a9c72e7a9a4cb57cdece21635808cb83ab33d"
        }
      ],
      "purl": "pkg:golang/github.com/mdlayher/netlink@v1.6.0",
      "externalReferences": [
        {
          "url": "https://github.com/mdlayher/netlink",
          "type": "vcs"
        }
      ]
    },
    {
      "type": "library",
      "bom-ref": "pkg:golang/github.com/mdlayher/raw@v0.0.0-20211126142749-4eae47f3d54b",
      "name": "github.com/mdlayher/raw",
      "version": "v0.0.0-20211126142749-4eae47f3d54b",
      "scope": "required",
      "hashes": [
        {
          "alg": "SHA-256",
          "content": "3077136ab50c0b8b0503b7a2c91f08109ea3d8f82681747e07d5f620832387b0"
        }
      ],
      "purl": "pkg:golang/github.com/mdlayher/raw@v0.0.0-20211126142749-4eae47f3d54b",
      "externalReferences": [
        {
          "url": "https://github.com/mdlayher/raw",
          "type": "vcs"
        }
      ]
    },
    {
      "type": "library",
      "bom-ref": "pkg:golang/github.com/mdlayher/socket@v0.2.3",
      "name": "github.com/mdlayher/socket",
      "version": "v0.2.3",
      "scope": "required",
      "hashes": [
        {
          "alg": "SHA-256",
          "content": "5d90365f64e374ec0da0d3d53dc9510944685ff86890163c9e44e645914485e3"
        }
      ],
      "purl": "pkg:golang/github.com/mdlayher/socket@v0.2.3",
      "externalReferences": [
        {
          "url": "https://github.com/mdlayher/socket",
          "type": "vcs"
        }
      ]
    },
    {
      "type": "library",
      "bom-ref": "pkg:golang/github.com/ainar-g/dns@v1.1.49-0.20220411125901-8a162bbc18d8",
      "name": "github.com/ainar-g/dns",
      "version": "v1.1.49-0.20220411125901-8a162bbc18d8",
      "scope": "required",
      "hashes": [
        {
          "alg": "SHA-256",
          "content": "1e9db068bc0af7cf6e8b76c3905a5e7652077f259d67bee0ca7bddf863c4a976"
        }
      ],
      "purl": "pkg:golang/github.com/ainar-g/dns@v1.1.49-0.20220411125901-8a162bbc18d8",
      "externalReferences": [
        {
          "url": "https://github.com/ainar-g/dns",
          "type": "vcs"
        }
      ]
    },
    {
      "type": "library",
      "bom-ref": "pkg:golang/github.com/nxadm/tail@v1.4.8",
      "name": "github.com/nxadm/tail",
      "version": "v1.4.8",
      "scope": "required",
      "hashes": [
        {
          "alg": "SHA-256",
          "content": "9cfafae6bb7a63924548a40eeea4e85ebee978f803e86c22c34e6591bc804131"
        }
      ],
      "purl": "pkg:golang/github.com/nxadm/tail@v1.4.8",
      "externalReferences": [
        {
          "url": "https://github.com/nxadm/tail",
          "type": "vcs"
        }
      ]
    },
    {
      "type": "library",
      "bom-ref": "pkg:golang/github.com/onsi/ginkgo@v1.16.5",
      "name": "github.com/onsi/ginkgo",
      "version": "v1.16.5",
      "scope": "required",
      "hashes": [
        {
          "alg": "SHA-256",
          "content": "f318b445351fe7d48e49f12d64cbf04ef5d83331b8815db75d51ce6625cdb671"
        }
      ],
      "purl": "pkg:golang/github.com/onsi/ginkgo@v1.16.5",
      "externalReferences": [
        {
          "url": "https://github.com/onsi/ginkgo",
          "type": "vcs"
        }
      ]
    },
    {
      "type": "library",
      "bom-ref": "pkg:golang/github.com/patrickmn/go-cache@v2.1.0",
      "name": "github.com/patrickmn/go-cache",
      "version": "v2.1.0",
      "scope": "required",
      "hashes": [
        {
          "alg": "SHA-256",
          "content": "21a155ccbd59658d9480f211b77d8fdbc828f72b3c9d1b14b24431bdb7511ed2"
        }
      ],
      "purl": "pkg:golang/github.com/patrickmn/go-cache@v2.1.0",
      "externalReferences": [
        {
          "url": "https://github.com/patrickmn/go-cache",
          "type": "vcs"
        }
      ]
    },
    {
      "type": "library",
      "bom-ref": "pkg:golang/github.com/pkg/errors@v0.9.1",
      "name": "github.com/pkg/errors",
      "version": "v0.9.1",
      "scope": "required",
      "hashes": [
        {
          "alg": "SHA-256",
          "content": "14404bc75cd2db5e28c298f2eeab017a2c5b51192e850030acae54c0b193c2de"
        }
      ],
      "purl": "pkg:golang/github.com/pkg/errors@v0.9.1",
      "externalReferences": [
        {
          "url": "https://github.com/pkg/errors",
          "type": "vcs"
        }
      ]
    },
    {
      "type": "library",
      "bom-ref": "pkg:golang/github.com/satori/go.uuid@v1.2.0",
      "name": "github.com/satori/go.uuid",
      "version": "v1.2.0",
      "scope": "required",
      "hashes": [
        {
          "alg": "SHA-256",
          "content": "d2e617f5db19db20fbab646d2d1b4f49d1835b38de3374db3093fdbad800d30c"
        }
      ],
      "purl": "pkg:golang/github.com/satori/go.uuid@v1.2.0",
      "externalReferences": [
        {
          "url": "https://github.com/satori/go.uuid",
          "type": "vcs"
        }
      ]
    },
    {
      "type": "library",
      "bom-ref": "pkg:golang/github.com/ti-mo/netfilter@v0.4.0",
      "name": "github.com/ti-mo/netfilter",
      "version": "v0.4.0",
      "scope": "required",
      "hashes": [
        {
          "alg": "SHA-256",
          "content": "ad33759c16142c398c7c37811d9a4ab8d297fdb5845d05217b4d9aff5d28af38"
        }
      ],
      "purl": "pkg:golang/github.com/ti-mo/netfilter@v0.4.0",
      "externalReferences": [
        {
          "url": "https://github.com/ti-mo/netfilter",
          "type": "vcs"
        }
      ]
    },
    {
      "type": "library",
      "bom-ref": "pkg:golang/github.com/u-root/uio@v0.0.0-20220204230159-dac05f7d2cb4",
      "name": "github.com/u-root/uio",
      "version": "v0.0.0-20220204230159-dac05f7d2cb4",
      "scope": "required",
      "hashes": [
        {
          "alg": "SHA-256",
          "content": "865eac2ba6858132c84a28e4eb12337aa9cfcd072c2eaaaf2fabc47d33e29cc1"
        }
      ],
      "purl": "pkg:golang/github.com/u-root/uio@v0.0.0-20220204230159-dac05f7d2cb4",
      "externalReferences": [
        {
          "url": "https://github.com/u-root/uio",
          "type": "vcs"
        }
      ]
    },
    {
      "type": "library",
      "bom-ref": "pkg:golang/go.etcd.io/bbolt@v1.3.6",
      "name": "go.etcd.io/bbolt",
      "version": "v1.3.6",
      "scope": "required",
      "hashes": [
        {
          "alg": "SHA-256",
          "content": "fde71a25fd2c93597897a5786b077ae6fd82dc82f2ecc4a3facff1d400c220c5"
        }
      ],
      "purl": "pkg:golang/go.etcd.io/bbolt@v1.3.6"
    },
    {
      "type": "library",
      "bom-ref": "pkg:golang/golang.org/x/crypto@v0.0.0-20220411220226-7b82a4e95df4",
      "name": "golang.org/x/crypto",
      "version": "v0.0.0-20220411220226-7b82a4e95df4",
      "scope": "required",
      "hashes": [
        {
          "alg": "SHA-256",
          "content": "914843ee74c3a08ddf55df46e0e456adb579358d25884b3f260da9bf97fe6c10"
        }
      ],
      "purl": "pkg:golang/golang.org/x/crypto@v0.0.0-20220411220226-7b82a4e95df4"
    },
    {
      "type": "library",
      "bom-ref": "pkg:golang/golang.org/x/mod@v0.6.0-dev.0.20220419223038-86c51ed26bb4",
      "name": "golang.org/x/mod",
      "version": "v0.6.0-dev.0.20220419223038-86c51ed26bb4",
      "scope": "required",
      "hashes": [
        {
          "alg": "SHA-256",
          "content": "eb3a698f1cc2ba567291848bc950d86e77817db6812103d831ebe0d1b130bf6b"
        }
      ],
      "purl": "pkg:golang/golang.org/x/mod@v0.6.0-dev.0.20220419223038-86c51ed26bb4"
    },
    {
      "type": "library",
      "bom-ref": "pkg:golang/golang.org/x/net@v0.0.0-20220425223048-2871e0cb64e4",
      "name": "golang.org/x/net",
      "version": "v0.0.0-20220425223048-2871e0cb64e4",
      "scope": "required",
      "hashes": [
        {
          "alg": "SHA-256",
          "content": "1d5c9a783018bb1e299d8f83fd28b098b391dfa7b067888640822bb67b828c50"
        }
      ],
      "purl": "pkg:golang/golang.org/x/net@v0.0.0-20220425223048-2871e0cb64e4"
    },
    {
      "type": "library",
      "bom-ref": "pkg:golang/golang.org/x/sync@v0.0.0-20210220032951-036812b2e83c",
      "name": "golang.org/x/sync",
      "version": "v0.0.0-20210220032951-036812b2e83c",
      "scope": "required",
      "hashes": [
        {
          "alg": "SHA-256",
          "content": "e4ab25198c05a6484687e435e9bc0c3f770ea27b47f0539ea7bb4657ce98ed24"
        }
      ],
      "purl": "pkg:golang/golang.org/x/sync@v0.0.0-20210220032951-036812b2e83c"
    },
    {
      "type": "library",
      "bom-ref": "pkg:golang/golang.org/x/sys@v0.0.0-20220422013727-9388b58f7150",
      "name": "golang.org/x/sys",
      "version": "v0.0.0-20220422013727-9388b58f7150",
      "scope": "required",
      "hashes": [
        {
          "alg": "SHA-256",
          "content": "c479ace207297b5604ec0df22259495cfd7a08c006baac0eda55f5993cb24517"
        }
      ],
      "purl": "pkg:golang/golang.org/x/sys@v0.0.0-20220422013727-9388b58f7150"
    },
    {
      "type": "library",
      "bom-ref": "pkg:golang/golang.org/x/text@v0.3.7",
      "name": "golang.org/x/text",
      "version": "v0.3.7",
      "scope": "required",
      "hashes": [
        {
          "alg": "SHA-256",
          "content": "a25a70bcfd8a69c5b5656bec47bb90868c9362f280ba97d0ad118114cdf9d869"
        }
      ],
      "purl": "pkg:golang/golang.org/x/text@v0.3.7"
    },
    {
      "type": "library",
      "bom-ref": "pkg:golang/golang.org/x/tools@v0.1.11-0.20220426200323-dcaea06afc12",
      "name": "golang.org/x/tools",
      "version": "v0.1.11-0.20220426200323-dcaea06afc12",
      "scope": "required",
      "hashes": [
        {
          "alg": "SHA-256",
          "content": "a4e0c0245d2e06ac7acc56b53186a24e86d5a3917309b9d35545de3bca3bd5f1"
        }
      ],
      "purl": "pkg:golang/golang.org/x/tools@v0.1.11-0.20220426200323-dcaea06afc12"
    },
    {
      "type": "library",
      "bom-ref": "pkg:golang/gopkg.in/natefinch/lumberjack.v2@v2.0.0",
      "name": "gopkg.in/natefinch/lumberjack.v2",
      "version": "v2.0.0",
      "scope": "required",
      "hashes": [
        {
          "alg": "SHA-256",
          "content": "d4b734ecaafba98e14d983e8b818e908bc698b2c48568c6a5e09172e49c0384f"
        }
      ],
      "purl": "pkg:golang/gopkg.in/natefinch/lumberjack.v2@v2.0.0",
      "externalReferences": [
        {
          "url": "https://github.com/natefinch/lumberjack",
          "type": "vcs"
        }
      ]
    },
    {
      "type": "library",
      "bom-ref": "pkg:golang/gopkg.in/tomb.v1@v1.0.0-20141024135613-dd632973f1e7",
      "name": "gopkg.in/tomb.v1",
      "version": "v1.0.0-20141024135613-dd632973f1e7",
      "scope": "required",
      "hashes": [
        {
          "alg": "SHA-256",
          "content": "b9118975c88e1da108af37b65bc43700a91ea4b4e1da13aba13edafbb7337dd4"
        }
      ],
      "purl": "pkg:golang/gopkg.in/tomb.v1@v1.0.0-20141024135613-dd632973f1e7",
      "externalReferences": [
        {
          "url": "https://github.com/go-tomb/tomb",
          "type": "vcs"
        }
      ]
    },
    {
      "type": "library",
      "bom-ref": "pkg:golang/gopkg.in/yaml.v2@v2.4.0",
      "name": "gopkg.in/yaml.v2",
      "version": "v2.4.0",
      "scope": "required",
      "hashes": [
        {
          "alg": "SHA-256",
          "content": "0fcc60c04098ec262fc7e6369f8b01cfddc99fd251bf1762cb2a3c0937ee29a6"
        }
      ],
      "purl": "pkg:golang/gopkg.in/yaml.v2@v2.4.0",
      "externalReferences": [
        {
          "url": "https://github.com/go-yaml/yaml",
          "type": "vcs"
        }
      ]
    },
    {
      "type": "library",
      "bom-ref": "pkg:golang/howett.net/plist@v1.0.0",
      "name": "howett.net/plist",
      "version": "v1.0.0",
      "scope": "required",
      "hashes": [
        {
          "alg": "SHA-256",
          "content": "ec2adb5986cf3cefcfc8dcb7f1bd8407ffa061b8c27b60d707182d38e65b4903"
        }
      ],
      "purl": "pkg:golang/howett.net/plist@v1.0.0"
    },
    {
      "type": "library",
      "bom-ref": "pkg:golang/github.com/AdguardTeam/AdGuardHome",
      "group": "github.com/AdguardTeam",
      "name": "AdGuardHome",
      "version": "",
      "description": "",
      "scope": "required",
      "purl": "pkg:golang/github.com/AdguardTeam/AdGuardHome"
    },
    {
      "type": "library",
      "bom-ref": "pkg:golang/github.com/miekg/dns@v1.1.48",
      "group": "github.com/miekg",
      "name": "dns",
      "version": "v1.1.48",
      "description": "",
      "scope": "required",
      "purl": "pkg:golang/github.com/miekg/dns@v1.1.48"
    },
    {
      "type": "library",
      "bom-ref": "pkg:golang/github.com/patrickmn/go-cache@v2.1.0+incompatible",
      "group": "github.com/patrickmn",
      "name": "go-cache",
      "version": "v2.1.0+incompatible",
      "description": "",
      "scope": "required",
      "hashes": [
        {
          "alg": "SHA-256",
          "content": "dd07fc916593ece25125b7622024caa998eed598b143f2a9306cf301f7baf964"
        }
      ],
      "purl": "pkg:golang/github.com/patrickmn/go-cache@v2.1.0+incompatible"
    }
  ],
  "dependencies": [
    {
      "ref": "pkg:golang/github.com/AdguardTeam/dnsproxy@v0.42.2",
      "dependsOn": [
        "pkg:golang/github.com/AdguardTeam/golibs@v0.10.8",
        "pkg:golang/github.com/aead/chacha20@v0.0.0-20180709150244-8b13a72661da",
        "pkg:golang/github.com/aead/poly1305@v0.0.0-20180717145839-3fee0db0b635",
        "pkg:golang/github.com/ainar-g/dns@v1.1.49-0.20220411125901-8a162bbc18d8",
        "pkg:golang/github.com/ameshkov/dnscrypt/v2@v2.2.3",
        "pkg:golang/github.com/ameshkov/dnsstamps@v1.0.3",
        "pkg:golang/github.com/beefsack/go-rate@v0.0.0-20220214233405-116f4ca011a0",
        "pkg:golang/github.com/cheekybits/genny@v1.0.0",
        "pkg:golang/github.com/fsnotify/fsnotify@v1.5.4",
        "pkg:golang/github.com/go-task/slim-sprig@v0.0.0-20210107165309-348f09dbbbc0",
        "pkg:golang/github.com/lucas-clemente/quic-go@v0.26.0",
        "pkg:golang/github.com/marten-seemann/qtls-go1-16@v0.1.5",
        "pkg:golang/github.com/marten-seemann/qtls-go1-17@v0.1.1",
        "pkg:golang/github.com/marten-seemann/qtls-go1-18@v0.1.1",
        "pkg:golang/github.com/nxadm/tail@v1.4.8",
        "pkg:golang/github.com/onsi/ginkgo@v1.16.5",
        "pkg:golang/github.com/patrickmn/go-cache@v2.1.0",
        "pkg:golang/golang.org/x/crypto@v0.0.0-20220411220226-7b82a4e95df4",
        "pkg:golang/golang.org/x/mod@v0.6.0-dev.0.20220419223038-86c51ed26bb4",
        "pkg:golang/golang.org/x/net@v0.0.0-20220425223048-2871e0cb64e4",
        "pkg:golang/golang.org/x/sys@v0.0.0-20220422013727-9388b58f7150",
        "pkg:golang/golang.org/x/text@v0.3.7",
        "pkg:golang/golang.org/x/tools@v0.1.11-0.20220426200323-dcaea06afc12",
        "pkg:golang/gopkg.in/tomb.v1@v1.0.0-20141024135613-dd632973f1e7"
      ]
    },
    {
      "ref": "pkg:golang/github.com/AdguardTeam/golibs@v0.10.8",
      "dependsOn": [
        "pkg:golang/golang.org/x/net@v0.0.0-20220425223048-2871e0cb64e4",
        "pkg:golang/golang.org/x/text@v0.3.7"
      ]
    },
    {
      "ref": "pkg:golang/github.com/AdguardTeam/urlfilter@v0.16.0",
      "dependsOn": [
        "pkg:golang/github.com/AdguardTeam/golibs@v0.10.8",
        "pkg:golang/github.com/ainar-g/dns@v1.1.49-0.20220411125901-8a162bbc18d8",
        "pkg:golang/golang.org/x/net@v0.0.0-20220425223048-2871e0cb64e4",
        "pkg:golang/golang.org/x/sys@v0.0.0-20220422013727-9388b58f7150"
      ]
    },
    {
      "ref": "pkg:golang/github.com/NYTimes/gziphandler@v1.1.1"
    },
    {
      "ref": "pkg:golang/github.com/aead/chacha20@v0.0.0-20180709150244-8b13a72661da"
    },
    {
      "ref": "pkg:golang/github.com/aead/poly1305@v0.0.0-20180717145839-3fee0db0b635"
    },
    {
      "ref": "pkg:golang/github.com/ameshkov/dnscrypt/v2@v2.2.3",
      "dependsOn": [
        "pkg:golang/github.com/AdguardTeam/golibs@v0.10.8",
        "pkg:golang/github.com/aead/chacha20@v0.0.0-20180709150244-8b13a72661da",
        "pkg:golang/github.com/aead/poly1305@v0.0.0-20180717145839-3fee0db0b635",
        "pkg:golang/github.com/ainar-g/dns@v1.1.49-0.20220411125901-8a162bbc18d8",
        "pkg:golang/github.com/ameshkov/dnsstamps@v1.0.3",
        "pkg:golang/golang.org/x/crypto@v0.0.0-20220411220226-7b82a4e95df4",
        "pkg:golang/golang.org/x/net@v0.0.0-20220425223048-2871e0cb64e4",
        "pkg:golang/golang.org/x/sys@v0.0.0-20220422013727-9388b58f7150"
      ]
    },
    {
      "ref": "pkg:golang/github.com/ameshkov/dnsstamps@v1.0.3"
    },
    {
      "ref": "pkg:golang/github.com/beefsack/go-rate@v0.0.0-20220214233405-116f4ca011a0"
    },
    {
      "ref": "pkg:golang/github.com/cheekybits/genny@v1.0.0"
    },
    {
      "ref": "pkg:golang/github.com/digineo/go-ipset/v2@v2.2.1",
      "dependsOn": [
        "pkg:golang/github.com/mdlayher/netlink@v1.6.0",
        "pkg:golang/github.com/ti-mo/netfilter@v0.4.0"
      ]
    },
    {
      "ref": "pkg:golang/github.com/fsnotify/fsnotify@v1.5.4",
      "dependsOn": [
        "pkg:golang/golang.org/x/sys@v0.0.0-20220422013727-9388b58f7150"
      ]
    },
    {
      "ref": "pkg:golang/github.com/go-ping/ping@v0.0.0-20211130115550-779d1e919534",
      "dependsOn": [
        "pkg:golang/github.com/google/uuid@v1.3.0",
        "pkg:golang/golang.org/x/net@v0.0.0-20220425223048-2871e0cb64e4",
        "pkg:golang/golang.org/x/sync@v0.0.0-20210220032951-036812b2e83c"
      ]
    },
    {
      "ref": "pkg:golang/github.com/go-task/slim-sprig@v0.0.0-20210107165309-348f09dbbbc0"
    },
    {
      "ref": "pkg:golang/github.com/google/go-cmp@v0.5.7"
    },
    {
      "ref": "pkg:golang/github.com/google/gopacket@v1.1.19",
      "dependsOn": [
        "pkg:golang/golang.org/x/net@v0.0.0-20220425223048-2871e0cb64e4",
        "pkg:golang/golang.org/x/sys@v0.0.0-20220422013727-9388b58f7150"
      ]
    },
    {
      "ref": "pkg:golang/github.com/google/renameio@v1.0.1"
    },
    {
      "ref": "pkg:golang/github.com/google/uuid@v1.3.0"
    },
    {
      "ref": "pkg:golang/github.com/insomniacslk/dhcp@v0.0.0-20220405050111-12fbdcb11b41",
      "dependsOn": [
        "pkg:golang/github.com/mdlayher/ethernet@v0.0.0-20220221185849-529eae5b6118",
        "pkg:golang/github.com/mdlayher/netlink@v1.6.0",
        "pkg:golang/github.com/mdlayher/raw@v0.0.0-20211126142749-4eae47f3d54b",
        "pkg:golang/github.com/u-root/uio@v0.0.0-20220204230159-dac05f7d2cb4",
        "pkg:golang/golang.org/x/net@v0.0.0-20220425223048-2871e0cb64e4",
        "pkg:golang/golang.org/x/sys@v0.0.0-20220422013727-9388b58f7150"
      ]
    },
    {
      "ref": "pkg:golang/github.com/josharian/native@v1.0.0"
    },
    {
      "ref": "pkg:golang/github.com/kardianos/service@v1.2.1",
      "dependsOn": [
        "pkg:golang/golang.org/x/sys@v0.0.0-20220422013727-9388b58f7150"
      ]
    },
    {
      "ref": "pkg:golang/github.com/lucas-clemente/quic-go@v0.26.0",
      "dependsOn": [
        "pkg:golang/github.com/cheekybits/genny@v1.0.0",
        "pkg:golang/github.com/marten-seemann/qtls-go1-16@v0.1.5",
        "pkg:golang/github.com/marten-seemann/qtls-go1-17@v0.1.1",
        "pkg:golang/github.com/marten-seemann/qtls-go1-18@v0.1.1",
        "pkg:golang/github.com/onsi/ginkgo@v1.16.5",
        "pkg:golang/golang.org/x/crypto@v0.0.0-20220411220226-7b82a4e95df4",
        "pkg:golang/golang.org/x/net@v0.0.0-20220425223048-2871e0cb64e4",
        "pkg:golang/golang.org/x/sync@v0.0.0-20210220032951-036812b2e83c",
        "pkg:golang/golang.org/x/sys@v0.0.0-20220422013727-9388b58f7150"
      ]
    },
    {
      "ref": "pkg:golang/github.com/marten-seemann/qtls-go1-16@v0.1.5",
      "dependsOn": [
        "pkg:golang/golang.org/x/crypto@v0.0.0-20220411220226-7b82a4e95df4",
        "pkg:golang/golang.org/x/sys@v0.0.0-20220422013727-9388b58f7150"
      ]
    },
    {
      "ref": "pkg:golang/github.com/marten-seemann/qtls-go1-17@v0.1.1",
      "dependsOn": [
        "pkg:golang/golang.org/x/crypto@v0.0.0-20220411220226-7b82a4e95df4",
        "pkg:golang/golang.org/x/sys@v0.0.0-20220422013727-9388b58f7150"
      ]
    },
    {
      "ref": "pkg:golang/github.com/marten-seemann/qtls-go1-18@v0.1.1",
      "dependsOn": [
        "pkg:golang/golang.org/x/crypto@v0.0.0-20220411220226-7b82a4e95df4",
        "pkg:golang/golang.org/x/sys@v0.0.0-20220422013727-9388b58f7150"
      ]
    },
    {
      "ref": "pkg:golang/github.com/mdlayher/ethernet@v0.0.0-20220221185849-529eae5b6118",
      "dependsOn": [
        "pkg:golang/golang.org/x/net@v0.0.0-20220425223048-2871e0cb64e4"
      ]
    },
    {
      "ref": "pkg:golang/github.com/mdlayher/netlink@v1.6.0",
      "dependsOn": [
        "pkg:golang/github.com/google/go-cmp@v0.5.7",
        "pkg:golang/github.com/josharian/native@v1.0.0",
        "pkg:golang/github.com/mdlayher/socket@v0.2.3",
        "pkg:golang/golang.org/x/net@v0.0.0-20220425223048-2871e0cb64e4",
        "pkg:golang/golang.org/x/sys@v0.0.0-20220422013727-9388b58f7150"
      ]
    },
    {
      "ref": "pkg:golang/github.com/mdlayher/raw@v0.0.0-20211126142749-4eae47f3d54b",
      "dependsOn": [
        "pkg:golang/github.com/google/go-cmp@v0.5.7",
        "pkg:golang/golang.org/x/net@v0.0.0-20220425223048-2871e0cb64e4",
        "pkg:golang/golang.org/x/sys@v0.0.0-20220422013727-9388b58f7150"
      ]
    },
    {
      "ref": "pkg:golang/github.com/mdlayher/socket@v0.2.3",
      "dependsOn": [
        "pkg:golang/github.com/google/go-cmp@v0.5.7",
        "pkg:golang/golang.org/x/net@v0.0.0-20220425223048-2871e0cb64e4",
        "pkg:golang/golang.org/x/sync@v0.0.0-20210220032951-036812b2e83c",
        "pkg:golang/golang.org/x/sys@v0.0.0-20220422013727-9388b58f7150"
      ]
    },
    {
      "ref": "pkg:golang/github.com/ainar-g/dns@v1.1.49-0.20220411125901-8a162bbc18d8",
      "dependsOn": [
        "pkg:golang/golang.org/x/net@v0.0.0-20220425223048-2871e0cb64e4",
        "pkg:golang/golang.org/x/sync@v0.0.0-20210220032951-036812b2e83c",
        "pkg:golang/golang.org/x/sys@v0.0.0-20220422013727-9388b58f7150",
        "pkg:golang/golang.org/x/tools@v0.1.11-0.20220426200323-dcaea06afc12"
      ]
    },
    {
      "ref": "pkg:golang/github.com/nxadm/tail@v1.4.8",
      "dependsOn": [
        "pkg:golang/github.com/fsnotify/fsnotify@v1.5.4",
        "pkg:golang/gopkg.in/tomb.v1@v1.0.0-20141024135613-dd632973f1e7"
      ]
    },
    {
      "ref": "pkg:golang/github.com/onsi/ginkgo@v1.16.5",
      "dependsOn": [
        "pkg:golang/github.com/go-task/slim-sprig@v0.0.0-20210107165309-348f09dbbbc0",
        "pkg:golang/github.com/nxadm/tail@v1.4.8",
        "pkg:golang/golang.org/x/sys@v0.0.0-20220422013727-9388b58f7150",
        "pkg:golang/golang.org/x/tools@v0.1.11-0.20220426200323-dcaea06afc12"
      ]
    },
    {
      "ref": "pkg:golang/github.com/patrickmn/go-cache@v2.1.0"
    },
    {
      "ref": "pkg:golang/github.com/pkg/errors@v0.9.1"
    },
    {
      "ref": "pkg:golang/github.com/satori/go.uuid@v1.2.0"
    },
    {
      "ref": "pkg:golang/github.com/ti-mo/netfilter@v0.4.0",
      "dependsOn": [
        "pkg:golang/github.com/google/go-cmp@v0.5.7",
        "pkg:golang/github.com/mdlayher/netlink@v1.6.0",
        "pkg:golang/github.com/pkg/errors@v0.9.1",
        "pkg:golang/golang.org/x/net@v0.0.0-20220425223048-2871e0cb64e4",
        "pkg:golang/golang.org/x/sys@v0.0.0-20220422013727-9388b58f7150"
      ]
    },
    {
      "ref": "pkg:golang/github.com/u-root/uio@v0.0.0-20220204230159-dac05f7d2cb4",
      "dependsOn": [
        "pkg:golang/golang.org/x/sys@v0.0.0-20220422013727-9388b58f7150"
      ]
    },
    {
      "ref": "pkg:golang/go.etcd.io/bbolt@v1.3.6",
      "dependsOn": [
        "pkg:golang/golang.org/x/sys@v0.0.0-20220422013727-9388b58f7150"
      ]
    },
    {
      "ref": "pkg:golang/golang.org/x/crypto@v0.0.0-20220411220226-7b82a4e95df4",
      "dependsOn": [
        "pkg:golang/golang.org/x/net@v0.0.0-20220425223048-2871e0cb64e4",
        "pkg:golang/golang.org/x/sys@v0.0.0-20220422013727-9388b58f7150",
        "pkg:golang/golang.org/x/text@v0.3.7"
      ]
    },
    {
      "ref": "pkg:golang/golang.org/x/mod@v0.6.0-dev.0.20220419223038-86c51ed26bb4",
      "dependsOn": [
        "pkg:golang/golang.org/x/crypto@v0.0.0-20220411220226-7b82a4e95df4",
        "pkg:golang/golang.org/x/tools@v0.1.11-0.20220426200323-dcaea06afc12"
      ]
    },
    {
      "ref": "pkg:golang/golang.org/x/net@v0.0.0-20220425223048-2871e0cb64e4",
      "dependsOn": [
        "pkg:golang/golang.org/x/sys@v0.0.0-20220422013727-9388b58f7150",
        "pkg:golang/golang.org/x/text@v0.3.7"
      ]
    },
    {
      "ref": "pkg:golang/golang.org/x/sync@v0.0.0-20210220032951-036812b2e83c"
    },
    {
      "ref": "pkg:golang/golang.org/x/sys@v0.0.0-20220422013727-9388b58f7150"
    },
    {
      "ref": "pkg:golang/golang.org/x/text@v0.3.7",
      "dependsOn": [
        "pkg:golang/golang.org/x/tools@v0.1.11-0.20220426200323-dcaea06afc12"
      ]
    },
    {
      "ref": "pkg:golang/golang.org/x/tools@v0.1.11-0.20220426200323-dcaea06afc12",
      "dependsOn": [
        "pkg:golang/golang.org/x/mod@v0.6.0-dev.0.20220419223038-86c51ed26bb4",
        "pkg:golang/golang.org/x/net@v0.0.0-20220425223048-2871e0cb64e4",
        "pkg:golang/golang.org/x/sync@v0.0.0-20210220032951-036812b2e83c",
        "pkg:golang/golang.org/x/sys@v0.0.0-20220422013727-9388b58f7150",
        "pkg:golang/golang.org/x/text@v0.3.7"
      ]
    },
    {
      "ref": "pkg:golang/gopkg.in/natefinch/lumberjack.v2@v2.0.0"
    },
    {
      "ref": "pkg:golang/gopkg.in/tomb.v1@v1.0.0-20141024135613-dd632973f1e7"
    },
    {
      "ref": "pkg:golang/gopkg.in/yaml.v2@v2.4.0"
    },
    {
      "ref": "pkg:golang/howett.net/plist@v1.0.0"
    },
    {
      "ref": "pkg:golang/github.com/AdguardTeam/AdGuardHome@v0.0.0-20220504210141-58515fce4304",
      "dependsOn": [
        "pkg:golang/github.com/AdguardTeam/dnsproxy@v0.42.2",
        "pkg:golang/github.com/AdguardTeam/golibs@v0.10.8",
        "pkg:golang/github.com/AdguardTeam/urlfilter@v0.16.0",
        "pkg:golang/github.com/NYTimes/gziphandler@v1.1.1",
        "pkg:golang/github.com/aead/chacha20@v0.0.0-20180709150244-8b13a72661da",
        "pkg:golang/github.com/aead/poly1305@v0.0.0-20180717145839-3fee0db0b635",
        "pkg:golang/github.com/ainar-g/dns@v1.1.49-0.20220411125901-8a162bbc18d8",
        "pkg:golang/github.com/ameshkov/dnscrypt/v2@v2.2.3",
        "pkg:golang/github.com/ameshkov/dnsstamps@v1.0.3",
        "pkg:golang/github.com/beefsack/go-rate@v0.0.0-20220214233405-116f4ca011a0",
        "pkg:golang/github.com/cheekybits/genny@v1.0.0",
        "pkg:golang/github.com/digineo/go-ipset/v2@v2.2.1",
        "pkg:golang/github.com/fsnotify/fsnotify@v1.5.4",
        "pkg:golang/github.com/go-ping/ping@v0.0.0-20211130115550-779d1e919534",
        "pkg:golang/github.com/go-task/slim-sprig@v0.0.0-20210107165309-348f09dbbbc0",
        "pkg:golang/github.com/google/go-cmp@v0.5.7",
        "pkg:golang/github.com/google/gopacket@v1.1.19",
        "pkg:golang/github.com/google/renameio@v1.0.1",
        "pkg:golang/github.com/google/uuid@v1.3.0",
        "pkg:golang/github.com/insomniacslk/dhcp@v0.0.0-20220405050111-12fbdcb11b41",
        "pkg:golang/github.com/josharian/native@v1.0.0",
        "pkg:golang/github.com/kardianos/service@v1.2.1",
        "pkg:golang/github.com/lucas-clemente/quic-go@v0.26.0",
        "pkg:golang/github.com/marten-seemann/qtls-go1-16@v0.1.5",
        "pkg:golang/github.com/marten-seemann/qtls-go1-17@v0.1.1",
        "pkg:golang/github.com/marten-seemann/qtls-go1-18@v0.1.1",
        "pkg:golang/github.com/mdlayher/ethernet@v0.0.0-20220221185849-529eae5b6118",
        "pkg:golang/github.com/mdlayher/netlink@v1.6.0",
        "pkg:golang/github.com/mdlayher/raw@v0.0.0-20211126142749-4eae47f3d54b",
        "pkg:golang/github.com/mdlayher/socket@v0.2.3",
        "pkg:golang/github.com/nxadm/tail@v1.4.8",
        "pkg:golang/github.com/onsi/ginkgo@v1.16.5",
        "pkg:golang/github.com/patrickmn/go-cache@v2.1.0",
        "pkg:golang/github.com/pkg/errors@v0.9.1",
        "pkg:golang/github.com/satori/go.uuid@v1.2.0",
        "pkg:golang/github.com/ti-mo/netfilter@v0.4.0",
        "pkg:golang/github.com/u-root/uio@v0.0.0-20220204230159-dac05f7d2cb4",
        "pkg:golang/go.etcd.io/bbolt@v1.3.6",
        "pkg:golang/golang.org/x/crypto@v0.0.0-20220411220226-7b82a4e95df4",
        "pkg:golang/golang.org/x/mod@v0.6.0-dev.0.20220419223038-86c51ed26bb4",
        "pkg:golang/golang.org/x/net@v0.0.0-20220425223048-2871e0cb64e4",
        "pkg:golang/golang.org/x/sync@v0.0.0-20210220032951-036812b2e83c",
        "pkg:golang/golang.org/x/sys@v0.0.0-20220422013727-9388b58f7150",
        "pkg:golang/golang.org/x/text@v0.3.7",
        "pkg:golang/golang.org/x/tools@v0.1.11-0.20220426200323-dcaea06afc12",
        "pkg:golang/gopkg.in/natefinch/lumberjack.v2@v2.0.0",
        "pkg:golang/gopkg.in/tomb.v1@v1.0.0-20141024135613-dd632973f1e7",
        "pkg:golang/gopkg.in/yaml.v2@v2.4.0",
        "pkg:golang/howett.net/plist@v1.0.0"
      ]
    }
  ]
}
