{
  "bomFormat": "CycloneDX",
  "specVersion": "1.3",
  "serialNumber": "urn:uuid:d2c8744d-ca0c-4424-9efa-4795b4378837",
  "version": 1,
  "metadata": {
    "timestamp": "2022-06-06T18:30:01Z",
    "tools": [
      {
        "vendor": "AppThreat",
        "name": "cdxgen",
        "version": "3.0.10"
      },
      {
        "vendor": "Fortress Information Security",
        "name": "Github Extractor",
        "version": "1.15.1"
      }
    ],
    "authors": [
      {
        "name": "Team AppThreat",
        "email": "cloud@appthreat.com"
      },
      {
        "name": "Fortress Information Security",
        "email": "sales@fortressinfosec.com",
        "phone": "1-407-573-6800"
      }
    ],
    "component": {
      "type": "application",
      "name": "curl-rust",
      "version": "0.4.43",
      "group": "alexcrichton",
      "externalReferences": [
        {
          "url": "https://github.com/alexcrichton/curl-rust.git",
          "type": "distribution"
        },
        {
          "type": "website",
          "url": "null",
          "comment": "As set via `homepage` in Github API"
        }
      ]
    }
  },
  "components": [
    {
      "type": "library",
      "bom-ref": "pkg:crates/curl@0.4.43",
      "group": "",
      "name": "curl",
      "version": "0.4.43",
      "description": "",
      "purl": "pkg:crates/curl@0.4.43"
    },
    {
      "type": "library",
      "bom-ref": "pkg:crates/libc@0.2.42",
      "group": "",
      "name": "libc",
      "version": "0.2.42",
      "description": "",
      "purl": "pkg:crates/libc@0.2.42"
    },
    {
      "type": "library",
      "bom-ref": "pkg:crates/socket2@0.4.0",
      "group": "",
      "name": "socket2",
      "version": "0.4.0",
      "description": "",
      "purl": "pkg:crates/socket2@0.4.0"
    },
    {
      "type": "library",
      "bom-ref": "pkg:crates/[target.cfg(all(unix, not(target_os@macos))).dependencies]",
      "group": "",
      "name": "[target.cfg(all(unix, not(target_os",
      "version": "macos))).dependencies]",
      "description": "",
      "purl": "pkg:crates/[target.cfg(all(unix, not(target_os@macos))).dependencies]"
    },
    {
      "type": "library",
      "bom-ref": "pkg:crates/openssl-sys@0.9.43",
      "group": "",
      "name": "openssl-sys",
      "version": "0.9.43",
      "description": "",
      "purl": "pkg:crates/openssl-sys@0.9.43"
    },
    {
      "type": "library",
      "bom-ref": "pkg:crates/openssl-probe@0.1.2",
      "group": "",
      "name": "openssl-probe",
      "version": "0.1.2",
      "description": "",
      "purl": "pkg:crates/openssl-probe@0.1.2"
    },
    {
      "type": "library",
      "bom-ref": "pkg:crates/[target.cfg(target_env@msvc).dependencies]",
      "group": "",
      "name": "[target.cfg(target_env",
      "version": "msvc).dependencies]",
      "description": "",
      "purl": "pkg:crates/[target.cfg(target_env@msvc).dependencies]"
    },
    {
      "type": "library",
      "bom-ref": "pkg:crates/schannel@0.1.13",
      "group": "",
      "name": "schannel",
      "version": "0.1.13",
      "description": "",
      "purl": "pkg:crates/schannel@0.1.13"
    },
    {
      "type": "library",
      "bom-ref": "pkg:crates/winapi@0.3",
      "group": "",
      "name": "winapi",
      "version": "0.3",
      "description": "",
      "purl": "pkg:crates/winapi@0.3"
    },
    {
      "type": "library",
      "bom-ref": "pkg:crates/mio@0.6",
      "group": "",
      "name": "mio",
      "version": "0.6",
      "description": "",
      "purl": "pkg:crates/mio@0.6"
    },
    {
      "type": "library",
      "bom-ref": "pkg:crates/mio-extras@2.0.3",
      "group": "",
      "name": "mio-extras",
      "version": "2.0.3",
      "description": "",
      "purl": "pkg:crates/mio-extras@2.0.3"
    },
    {
      "type": "library",
      "bom-ref": "pkg:crates/anyhow@1.0.31",
      "group": "",
      "name": "anyhow",
      "version": "1.0.31",
      "description": "",
      "purl": "pkg:crates/anyhow@1.0.31"
    },
    {
      "type": "library",
      "bom-ref": "pkg:crates/members@[systest]",
      "group": "",
      "name": "members",
      "version": "[systest]",
      "description": "",
      "purl": "pkg:crates/members@[systest]"
    },
    {
      "type": "library",
      "bom-ref": "pkg:crates/default@[ssl]",
      "group": "",
      "name": "default",
      "version": "[ssl]",
      "description": "",
      "purl": "pkg:crates/default@[ssl]"
    },
    {
      "type": "library",
      "bom-ref": "pkg:crates/ssl@[openssl-sys, openssl-probe, curl-sys/ssl] # OpenSSL/system TLS backend",
      "group": "",
      "name": "ssl",
      "version": "[openssl-sys, openssl-probe, curl-sys/ssl] # OpenSSL/system TLS backend",
      "description": "",
      "purl": "pkg:crates/ssl@[openssl-sys, openssl-probe, curl-sys/ssl] # OpenSSL/system TLS backend"
    },
    {
      "type": "library",
      "bom-ref": "pkg:crates/mesalink@[curl-sys/mesalink] # MesaLink TLS backend",
      "group": "",
      "name": "mesalink",
      "version": "[curl-sys/mesalink] # MesaLink TLS backend",
      "description": "",
      "purl": "pkg:crates/mesalink@[curl-sys/mesalink] # MesaLink TLS backend"
    },
    {
      "type": "library",
      "bom-ref": "pkg:crates/http2@[curl-sys/http2]",
      "group": "",
      "name": "http2",
      "version": "[curl-sys/http2]",
      "description": "",
      "purl": "pkg:crates/http2@[curl-sys/http2]"
    },
    {
      "type": "library",
      "bom-ref": "pkg:crates/spnego@[curl-sys/spnego]",
      "group": "",
      "name": "spnego",
      "version": "[curl-sys/spnego]",
      "description": "",
      "purl": "pkg:crates/spnego@[curl-sys/spnego]"
    },
    {
      "type": "library",
      "bom-ref": "pkg:crates/rustls@[curl-sys/rustls]",
      "group": "",
      "name": "rustls",
      "version": "[curl-sys/rustls]",
      "description": "",
      "purl": "pkg:crates/rustls@[curl-sys/rustls]"
    },
    {
      "type": "library",
      "bom-ref": "pkg:crates/static-curl@[curl-sys/static-curl]",
      "group": "",
      "name": "static-curl",
      "version": "[curl-sys/static-curl]",
      "description": "",
      "purl": "pkg:crates/static-curl@[curl-sys/static-curl]"
    },
    {
      "type": "library",
      "bom-ref": "pkg:crates/static-ssl@[curl-sys/static-ssl]",
      "group": "",
      "name": "static-ssl",
      "version": "[curl-sys/static-ssl]",
      "description": "",
      "purl": "pkg:crates/static-ssl@[curl-sys/static-ssl]"
    },
    {
      "type": "library",
      "bom-ref": "pkg:crates/force-system-lib-on-osx@[curl-sys/force-system-lib-on-osx]",
      "group": "",
      "name": "force-system-lib-on-osx",
      "version": "[curl-sys/force-system-lib-on-osx]",
      "description": "",
      "purl": "pkg:crates/force-system-lib-on-osx@[curl-sys/force-system-lib-on-osx]"
    },
    {
      "type": "library",
      "bom-ref": "pkg:crates/protocol-ftp@[curl-sys/protocol-ftp]",
      "group": "",
      "name": "protocol-ftp",
      "version": "[curl-sys/protocol-ftp]",
      "description": "",
      "purl": "pkg:crates/protocol-ftp@[curl-sys/protocol-ftp]"
    },
    {
      "type": "library",
      "bom-ref": "pkg:crates/zlib-ng-compat@[curl-sys/zlib-ng-compat, static-curl]",
      "group": "",
      "name": "zlib-ng-compat",
      "version": "[curl-sys/zlib-ng-compat, static-curl]",
      "description": "",
      "purl": "pkg:crates/zlib-ng-compat@[curl-sys/zlib-ng-compat, static-curl]"
    },
    {
      "type": "library",
      "bom-ref": "pkg:crates/upkeep_7_62_0@[curl-sys/upkeep_7_62_0]",
      "group": "",
      "name": "upkeep_7_62_0",
      "version": "[curl-sys/upkeep_7_62_0]",
      "description": "",
      "purl": "pkg:crates/upkeep_7_62_0@[curl-sys/upkeep_7_62_0]"
    },
    {
      "type": "library",
      "bom-ref": "pkg:crates/poll_7_68_0@[curl-sys/poll_7_68_0]",
      "group": "",
      "name": "poll_7_68_0",
      "version": "[curl-sys/poll_7_68_0]",
      "description": "",
      "purl": "pkg:crates/poll_7_68_0@[curl-sys/poll_7_68_0]"
    },
    {
      "type": "library",
      "bom-ref": "pkg:crates/ntlm@[curl-sys/ntlm]",
      "group": "",
      "name": "ntlm",
      "version": "[curl-sys/ntlm]",
      "description": "",
      "purl": "pkg:crates/ntlm@[curl-sys/ntlm]"
    },
    {
      "type": "library",
      "bom-ref": "pkg:crates/name@atexit",
      "group": "",
      "name": "name",
      "version": "atexit",
      "description": "",
      "purl": "pkg:crates/name@atexit"
    },
    {
      "type": "library",
      "bom-ref": "pkg:crates/harness@false",
      "group": "",
      "name": "harness",
      "version": "false",
      "description": "",
      "purl": "pkg:crates/harness@false"
    },
    {
      "type": "library",
      "bom-ref": "pkg:crates/name@https",
      "group": "",
      "name": "name",
      "version": "https",
      "description": "",
      "purl": "pkg:crates/name@https"
    },
    {
      "type": "library",
      "bom-ref": "pkg:crates/name@ssl_proxy",
      "group": "",
      "name": "name",
      "version": "ssl_proxy",
      "description": "",
      "purl": "pkg:crates/name@ssl_proxy"
    },
    {
      "type": "library",
      "bom-ref": "pkg:crates/required-features@[ssl]",
      "group": "",
      "name": "required-features",
      "version": "[ssl]",
      "description": "",
      "purl": "pkg:crates/required-features@[ssl]"
    },
    {
      "type": "library",
      "bom-ref": "pkg:crates/name@ssl_cert_blob",
      "group": "",
      "name": "name",
      "version": "ssl_cert_blob",
      "description": "",
      "purl": "pkg:crates/name@ssl_cert_blob"
    },
    {
      "type": "library",
      "bom-ref": "pkg:crates/name@aws_sigv4",
      "group": "",
      "name": "name",
      "version": "aws_sigv4",
      "description": "",
      "purl": "pkg:crates/name@aws_sigv4"
    },
    {
      "type": "library",
      "bom-ref": "pkg:crates/required-features@[static-curl, ssl]",
      "group": "",
      "name": "required-features",
      "version": "[static-curl, ssl]",
      "description": "",
      "purl": "pkg:crates/required-features@[static-curl, ssl]"
    },
    {
      "type": "library",
      "bom-ref": "pkg:crates/name@multi-dl",
      "group": "",
      "name": "name",
      "version": "multi-dl",
      "description": "",
      "purl": "pkg:crates/name@multi-dl"
    },
    {
      "type": "library",
      "bom-ref": "pkg:crates/curl_sys@0.4.55+curl-7.83.1",
      "group": "",
      "name": "curl_sys",
      "version": "0.4.55+curl-7.83.1",
      "description": "",
      "purl": "pkg:crates/curl_sys@0.4.55+curl-7.83.1"
    },
    {
      "type": "library",
      "bom-ref": "pkg:crates/libz-sys@1.0.18",
      "group": "",
      "name": "libz-sys",
      "version": "1.0.18",
      "description": "",
      "purl": "pkg:crates/libz-sys@1.0.18"
    },
    {
      "type": "library",
      "bom-ref": "pkg:crates/libc@0.2.2",
      "group": "",
      "name": "libc",
      "version": "0.2.2",
      "description": "",
      "purl": "pkg:crates/libc@0.2.2"
    },
    {
      "type": "library",
      "bom-ref": "pkg:crates/optional@true",
      "group": "",
      "name": "optional",
      "version": "true",
      "description": "",
      "purl": "pkg:crates/optional@true"
    },
    {
      "type": "library",
      "bom-ref": "pkg:crates/features@[no_log_capture]",
      "group": "",
      "name": "features",
      "version": "[no_log_capture]",
      "description": "",
      "purl": "pkg:crates/features@[no_log_capture]"
    },
    {
      "type": "library",
      "bom-ref": "pkg:crates/openssl-sys@0.9",
      "group": "",
      "name": "openssl-sys",
      "version": "0.9",
      "description": "",
      "purl": "pkg:crates/openssl-sys@0.9"
    },
    {
      "type": "library",
      "bom-ref": "pkg:crates/[target.cfg(target_env@msvc).build-dependencies]",
      "group": "",
      "name": "[target.cfg(target_env",
      "version": "msvc).build-dependencies]",
      "description": "",
      "purl": "pkg:crates/[target.cfg(target_env@msvc).build-dependencies]"
    },
    {
      "type": "library",
      "bom-ref": "pkg:crates/vcpkg@0.2",
      "group": "",
      "name": "vcpkg",
      "version": "0.2",
      "description": "",
      "purl": "pkg:crates/vcpkg@0.2"
    },
    {
      "type": "library",
      "bom-ref": "pkg:crates/systest@0.1.0",
      "group": "",
      "name": "systest",
      "version": "0.1.0",
      "description": "",
      "purl": "pkg:crates/systest@0.1.0"
    },
    {
      "type": "library",
      "bom-ref": "pkg:crates/libc@0.2",
      "group": "",
      "name": "libc",
      "version": "0.2",
      "description": "",
      "purl": "pkg:crates/libc@0.2"
    }
  ],
  "externalReferences": [
    {
      "url": "/project/src",
      "type": "other",
      "comment": "Base path"
    },
    {
      "url": "/project/src/Cargo.toml, /project/src/curl-sys/Cargo.toml, /project/src/systest/Cargo.toml",
      "type": "other",
      "comment": "Package file"
    }
  ]
}
