{
  "bomFormat": "CycloneDX",
  "specVersion": "1.3",
  "version": 1,
  "metadata": {
    "tools": [
      {
        "vendor": "CycloneDX",
        "name": "Node.js module",
        "version": "3.0.3"
      },
      {
        "vendor": "CycloneDX",
        "name": "Node.js module",
        "version": "3.0.3"
      },
      {
        "vendor": "Fortress Information Security",
        "name": "GitHub Extractor",
        "version": "1.15.1"
      }
    ],
    "authors": [
      {
        "name": "Fortress Information Security",
        "email": "sales@fortressinfosec.com",
        "phone": "1-407-573-6800"
      }
    ],
    "timestamp": "2022-07-04T14:46:36Z",
    "component": {
      "type": "application",
      "name": "openwhisk",
      "version": "1.0.0",
      "group": "apache",
      "externalReferences": [
        {
          "url": "https://github.com/apache/openwhisk.git",
          "type": "distribution"
        }
      ]
    }
  },
  "components": [
    {
      "type": "library",
      "publisher": "See long_description for details",
      "name": "ssl",
      "version": "1.16",
      "description": "SSL wrapper for socket objects (2.3, 2.4, 2.5 compatible)",
      "hashes": [
        {
          "alg": "MD5",
          "content": "fb12d335d56f3c8c7c1fefc1c06c4bfb"
        },
        {
          "alg": "SHA-256",
          "content": "ac21156fee6aee9eb8d765bbb16f5f49492d81ff4b22f7b8fc001d2251120930"
        }
      ],
      "licenses": [
        {
          "license": {
            "name": "Python (MIT-like)"
          }
        }
      ],
      "purl": "pkg:pypi/ssl@1.16",
      "modified": false
    },
    {
      "type": "library",
      "publisher": "Franck Cuny",
      "name": "http",
      "version": "0.02",
      "description": "HTTP library for Python",
      "hashes": [
        {
          "alg": "MD5",
          "content": "9e4684a411a9cf371cbd0bc8658a803a"
        },
        {
          "alg": "SHA-256",
          "content": "071bc409f687535b6e31a94bced6a7773905abad8d2f236b406202b7283f682c"
        }
      ],
      "licenses": [
        {
          "license": {
            "name": "MIT"
          }
        }
      ],
      "purl": "pkg:pypi/http@0.02",
      "modified": false
    },
    {
      "type": "library",
      "publisher": "Jason Moiron",
      "name": "humanize",
      "version": "4.2.3",
      "description": "Python humanize utilities",
      "hashes": [
        {
          "alg": "MD5",
          "content": "58d66ec3b6b257304f43036ec16f01fc"
        },
        {
          "alg": "SHA-256",
          "content": "bed628920d45cd5018abb095710f0c03a8336d6ac0790e7647c6a328f3880b81"
        }
      ],
      "licenses": [
        {
          "license": {
            "name": "MIT"
          }
        }
      ],
      "purl": "pkg:pypi/humanize@4.2.3",
      "modified": false
    },
    {
      "type": "library",
      "publisher": "Kenneth Reitz",
      "name": "requests",
      "version": "2.28.1",
      "description": "Python HTTP for Humans.",
      "hashes": [
        {
          "alg": "MD5",
          "content": "d18f682863389367f878339e288817f2"
        },
        {
          "alg": "SHA-256",
          "content": "8fefa2a1a1365bf5520aac41836fbee479da67864514bdb821f31ce07ce65349"
        }
      ],
      "licenses": [
        {
          "license": {
            "name": "Apache 2.0"
          }
        }
      ],
      "purl": "pkg:pypi/requests@2.28.1",
      "modified": false
    },
    {
      "type": "library",
      "name": "hashlib",
      "version": "20081119",
      "description": "Secure hash and message digest algorithm library",
      "hashes": [
        {
          "alg": "MD5",
          "content": "46e59db6d5cac34b3344ef0c30d0897f"
        },
        {
          "alg": "SHA-256",
          "content": "419de2fd10ae71ed9c6adcb55903f116abd1d8acc8c814dfd5f839b4d5013e38"
        }
      ],
      "purl": "pkg:pypi/hashlib@20081119",
      "modified": false
    },
    {
      "type": "library",
      "publisher": "Dima Dorfman",
      "name": "functools",
      "version": "0.5",
      "description": "Fast tools for functional programming",
      "hashes": [
        {
          "alg": "MD5",
          "content": "91111c28ee685a2f89f1a41e6f0ce8ea"
        },
        {
          "alg": "SHA-256",
          "content": "596ed8999dee419c0749a41bfdd82e4697e80ea27ee01c716003ef55be9a54c5"
        }
      ],
      "licenses": [
        {
          "license": {
            "name": "BSD"
          }
        }
      ],
      "purl": "pkg:pypi/functools@0.5",
      "modified": false
    },
    {
      "type": "library",
      "publisher": "Thomas Waldmann",
      "name": "argparse",
      "version": "1.4.0",
      "description": "Python command-line parsing library",
      "hashes": [
        {
          "alg": "MD5",
          "content": "c37216a954c8669054e2b2c54853dd49"
        },
        {
          "alg": "SHA-256",
          "content": "c31647edb69fd3d465a847ea3157d37bed1f95f19760b11a47aa91c04b666314"
        }
      ],
      "licenses": [
        {
          "license": {
            "name": "Python Software Foundation License"
          }
        }
      ],
      "purl": "pkg:pypi/argparse@1.4.0",
      "modified": false
    },
    {
      "type": "library",
      "publisher": "Dirkjan Ochtman",
      "name": "couchdb",
      "version": "1.2",
      "description": "Python library for working with CouchDB",
      "hashes": [
        {
          "alg": "MD5",
          "content": "de5d715463a8538212acc8861b6e28a5"
        },
        {
          "alg": "SHA-256",
          "content": "13a28a1159c49f8346732e8724b9a4d65cba54bec017c4a7eeb1499fe88151d1"
        }
      ],
      "licenses": [
        {
          "license": {
            "name": "BSD"
          }
        }
      ],
      "purl": "pkg:pypi/couchdb@1.2",
      "modified": false
    },
    {
      "type": "library",
      "publisher": "Microsoft",
      "name": "pydocumentdb",
      "version": "2.3.5",
      "description": "Azure DocumentDB Python SDK",
      "hashes": [
        {
          "alg": "MD5",
          "content": "5b3e35f8187f53cb76afc751a1ce5895"
        },
        {
          "alg": "SHA-256",
          "content": "a6d0722369e65636c5a0635110a7972f6decd2d6f4d35a9ab0864f2da70bd91f"
        }
      ],
      "licenses": [
        {
          "license": {
            "name": "MIT"
          }
        }
      ],
      "purl": "pkg:pypi/pydocumentdb@2.3.5",
      "modified": false
    },
    {
      "type": "library",
      "publisher": "Ansible, Inc.",
      "name": "ansible",
      "version": "6.0.0",
      "description": "Radically simple IT automation",
      "hashes": [
        {
          "alg": "MD5",
          "content": "bfe8213ea44111c6178984d2c2648ec2"
        },
        {
          "alg": "SHA-256",
          "content": "3a4516072660e34d4647db1627c401dffcbec23c50633d71ac7902e8c934e370"
        }
      ],
      "licenses": [
        {
          "license": {
            "name": "GPLv3+"
          }
        }
      ],
      "purl": "pkg:pypi/ansible@6.0.0",
      "modified": false
    }
  ]
}
