{
  "bomFormat": "CycloneDX",
  "specVersion": "1.3",
  "version": 1,
  "metadata": {
    "tools": [
      {
        "vendor": "AppThreat",
        "name": "cdxgen",
        "version": "3.0.10"
      },
      {
        "vendor": "Fortress Information Security",
        "name": "Github Extractor",
        "version": "1.15.1"
      }
    ],
    "authors": [
      {
        "name": "Fortress Information Security",
        "email": "sales@fortressinfosec.com",
        "phone": "1-407-573-6800"
      }
    ],
    "timestamp": "2022-06-01T21:00:00Z",
    "component": {
      "type": "application",
      "name": "appleseed",
      "version": "2.1.0-beta",
      "group": "appleseedhq",
      "externalReferences": [
        {
          "url": "https://github.com/appleseedhq/appleseed.git",
          "type": "distribution"
        },
        {
          "type": "website",
          "url": "https://appleseedhq.net/",
          "comment": "As set via `homepage` in Github API"
        }
      ]
    }
  },
  "components": [
    {
      "type": "library",
      "publisher": "Ryan Roemer",
      "name": "sphinx_bootstrap_theme",
      "version": "0.8.1",
      "description": "Sphinx Bootstrap Theme.",
      "hashes": [
        {
          "alg": "MD5",
          "content": "1989a0eb13eec9c7c0444002b636cbfa"
        },
        {
          "alg": "SHA-256",
          "content": "6ef36206c211846ea6cbdb45bc85645578e7c62d0a883361181708f8b6ea743b"
        }
      ],
      "purl": "pkg:pypi/sphinx-bootstrap-theme@0.8.1",
      "modified": false
    },
    {
      "type": "library",
      "publisher": "David Goodger",
      "name": "docutils",
      "version": "0.18.1",
      "description": "Docutils -- Python Documentation Utilities",
      "hashes": [
        {
          "alg": "MD5",
          "content": "fb64f4546e57ee206f16138612df8307"
        },
        {
          "alg": "SHA-256",
          "content": "23010f129180089fbcd3bc08cfefccb3b890b0050e1ca00c867036e9d161b98c"
        }
      ],
      "licenses": [
        {
          "license": {
            "name": "public domain, Python, 2-Clause BSD, GPL 3 (see COPYING.txt)"
          }
        }
      ],
      "purl": "pkg:pypi/docutils@0.18.1",
      "modified": false
    },
    {
      "type": "library",
      "publisher": "Georg Brandl",
      "name": "sphinx",
      "version": "4.5.0",
      "description": "Python documentation generator",
      "hashes": [
        {
          "alg": "MD5",
          "content": "783dccaf6949b2015b5eca6e1366bdbd"
        },
        {
          "alg": "SHA-256",
          "content": "ebf612653238bcc8f4359627a9b7ce44ede6fdd75d9d30f68255c7383d3a6226"
        }
      ],
      "licenses": [
        {
          "license": {
            "name": "BSD"
          }
        }
      ],
      "purl": "pkg:pypi/sphinx@4.5.0",
      "modified": false
    },
    {
      "type": "library",
      "publisher": "Thomas Waldmann",
      "name": "argparse",
      "version": "1.4.0",
      "description": "Python command-line parsing library",
      "hashes": [
        {
          "alg": "MD5",
          "content": "c37216a954c8669054e2b2c54853dd49"
        },
        {
          "alg": "SHA-256",
          "content": "c31647edb69fd3d465a847ea3157d37bed1f95f19760b11a47aa91c04b666314"
        }
      ],
      "licenses": [
        {
          "license": {
            "name": "Python Software Foundation License"
          }
        }
      ],
      "purl": "pkg:pypi/argparse@1.4.0",
      "modified": false
    },
    {
      "type": "library",
      "publisher": "Riverbank Computing Limited",
      "name": "PyQt5",
      "version": "5.15.6",
      "description": "Python bindings for the Qt cross platform application toolkit",
      "hashes": [
        {
          "alg": "MD5",
          "content": "31a1419e83bf8aa8751b5c7a5f425ef2"
        },
        {
          "alg": "SHA-256",
          "content": "f411ecda52e488e1d3c5cce7563e1b2ca9cf0b7531e3c25b03d9a7e56e07e7fc"
        }
      ],
      "licenses": [
        {
          "license": {
            "name": "GPL v3"
          }
        }
      ],
      "purl": "pkg:pypi/pyqt5@5.15.6",
      "modified": false
    },
    {
      "type": "library",
      "publisher": "Phil Thompson",
      "name": "PyQt4",
      "version": "4.11.4",
      "description": "Python bindings for the Qt cross platform GUI toolkit",
      "purl": "pkg:pypi/pyqt4@4.11.4",
      "modified": false
    },
    {
      "type": "library",
      "publisher": "Stephan Klein",
      "name": "signal",
      "version": "0.1",
      "description": "Send SMS messages via ADB and your Android phone. Comes with a CLI.",
      "licenses": [
        {
          "license": {
            "name": "MIT"
          }
        }
      ],
      "purl": "pkg:pypi/signal@0.1",
      "modified": false
    },
    {
      "type": "library",
      "publisher": "Vinay Sajip",
      "name": "logging",
      "version": "0.4.9.6",
      "description": "A logging module for Python",
      "hashes": [
        {
          "alg": "MD5",
          "content": "dc0a7ebc8b8970263911e11e7b7e1ca8"
        },
        {
          "alg": "SHA-256",
          "content": "26f6b50773f085042d301085bd1bf5d9f3735704db9f37c1ce6d8b85c38f2417"
        }
      ],
      "licenses": [
        {
          "license": {
            "name": "Copyright (C) 2001-2005 by Vinay Sajip. All Rights Reserved. See LICENSE for license."
          }
        }
      ],
      "purl": "pkg:pypi/logging@0.4.9.6",
      "modified": false
    },
    {
      "type": "library",
      "publisher": "Travis E. Oliphant et al.",
      "name": "numpy",
      "version": "1.22.3",
      "description": "NumPy is the fundamental package for array computing with Python.",
      "hashes": [
        {
          "alg": "MD5",
          "content": "99d2dfb943327b108b2c3b923bd42000"
        },
        {
          "alg": "SHA-256",
          "content": "c34ea7e9d13a70bf2ab64a2532fe149a9aced424cd05a2c4ba662fd989e3e45f"
        }
      ],
      "licenses": [
        {
          "license": {
            "name": "BSD"
          }
        }
      ],
      "purl": "pkg:pypi/numpy@1.22.3",
      "modified": false
    },
    {
      "type": "library",
      "publisher": "Zope Foundation and Contributors",
      "name": "datetime",
      "version": "4.4",
      "description": "This package provides a DateTime data type, as known from Zope. Unless you need to communicate with Zope APIs, you're probably better off using Python's built-in datetime module.",
      "hashes": [
        {
          "alg": "MD5",
          "content": "ad1e82d858ed7c8cd2ea437b4cb695ed"
        },
        {
          "alg": "SHA-256",
          "content": "4fcca115ddb466a1104df08d5c2a2f5805d14ca317800e1bfcea8f3d69f66e57"
        }
      ],
      "licenses": [
        {
          "license": {
            "name": "ZPL 2.1"
          }
        }
      ],
      "purl": "pkg:pypi/datetime@4.4",
      "modified": false
    },
    {
      "type": "library",
      "publisher": "Greg Ward",
      "name": "distutils",
      "version": "1.0",
      "description": "Python Distribution Utilities",
      "purl": "pkg:pypi/distutils@1.0",
      "modified": false
    },
    {
      "type": "library",
      "publisher": "Jonathan Hartley",
      "name": "colorama",
      "version": "0.4.4",
      "description": "Cross-platform colored terminal text.",
      "hashes": [
        {
          "alg": "MD5",
          "content": "1dcd07acf2b1875ed09428e1ddf7e028"
        },
        {
          "alg": "SHA-256",
          "content": "9f47eda37229f68eee03b24b9748937c7dc3868f906e8ba69fbcbdd3bc5dc3e2"
        }
      ],
      "licenses": [
        {
          "license": {
            "name": "BSD"
          }
        }
      ],
      "purl": "pkg:pypi/colorama@0.4.4",
      "modified": false
    },
    {
      "type": "library",
      "publisher": "Michael Foord",
      "name": "unittest",
      "version": "0.0",
      "hashes": [
        {
          "alg": "MD5",
          "content": "2a416384f814604ed854d40f352f1191"
        },
        {
          "alg": "SHA-256",
          "content": "1b492484bea7f68abda5fcc61412e77b6a105e5842355d630f8b75f01add3555"
        }
      ],
      "purl": "pkg:pypi/unittest@0.0",
      "modified": false
    },
    {
      "type": "library",
      "bom-ref": "pkg:pypi/sphinxcontrib-bibtex@2.4.2",
      "group": "",
      "name": "sphinxcontrib-bibtex",
      "version": "2.4.2",
      "description": "Sphinx extension for BibTeX style citations.",
      "hashes": [
        {
          "alg": "SHA-256",
          "content": "608512afde6b732148cdc9123550bd560bf48e071d1fb7bb1bab4f4437ff04f4"
        }
      ],
      "licenses": [
        {
          "license": {
            "id": "0BSD",
            "url": "https://opensource.org/licenses/0BSD"
          }
        }
      ],
      "purl": "pkg:pypi/sphinxcontrib-bibtex@2.4.2",
      "externalReferences": [
        {
          "url": "https://github.com/mcmtroffaes/sphinxcontrib-bibtex",
          "type": "vcs"
        }
      ]
    },
    {
      "type": "library",
      "bom-ref": "pkg:pypi/sphinxcontrib-images@0.9.4",
      "group": "",
      "name": "sphinxcontrib-images",
      "version": "0.9.4",
      "description": "Sphinx extension for thumbnails",
      "hashes": [
        {
          "alg": "SHA-256",
          "content": "8863e8e8533a116f45cb92523938ab25879cc31dc594f5de4c3dbd9ab3d440b0"
        }
      ],
      "licenses": [
        {
          "license": {
            "id": "Apache-2.0",
            "url": "https://opensource.org/licenses/Apache-2.0"
          }
        }
      ],
      "purl": "pkg:pypi/sphinxcontrib-images@0.9.4",
      "externalReferences": [
        {
          "url": "https://github.com/sphinx-contrib/images",
          "type": "vcs"
        }
      ]
    },
    {
      "type": "library",
      "bom-ref": "pkg:pypi/sphinxcontrib-css3image@0.1dev-20140921",
      "group": "",
      "name": "sphinxcontrib-css3image",
      "version": "0.1dev-20140921",
      "description": "Sphinx \"css3image\" extension",
      "hashes": [
        {
          "alg": "SHA-256",
          "content": "a9bbb9033bacf7cab57a27e9bbeface3a36c5e68a7478809486bb0a36712df08"
        }
      ],
      "licenses": [
        {
          "license": {
            "name": "LGPL v3"
          }
        }
      ],
      "purl": "pkg:pypi/sphinxcontrib-css3image@0.1dev-20140921",
      "externalReferences": [
        {
          "url": "http://bitbucket.org/birkenfeld/sphinx-contrib",
          "type": "website"
        }
      ]
    },
    {
      "type": "library",
      "bom-ref": "pkg:pypi/sphinx-autorun@1.1.1",
      "group": "",
      "name": "sphinx-autorun",
      "version": "1.1.1",
      "description": "Sphinx extension autorun",
      "hashes": [
        {
          "alg": "SHA-256",
          "content": "3a2869641e89f693a4cae1a461a8bf1b2492e34e0f1f86f372eb849842c6f258"
        }
      ],
      "licenses": [
        {
          "license": {
            "id": "0BSD",
            "url": "https://opensource.org/licenses/0BSD"
          }
        }
      ],
      "purl": "pkg:pypi/sphinx-autorun@1.1.1",
      "externalReferences": [
        {
          "url": "https://github.com/hobarrera/sphinx-autorun",
          "type": "vcs"
        }
      ]
    }
  ]
}
