{
  "bomFormat": "CycloneDX",
  "specVersion": "1.3",
  "serialNumber": "urn:uuid:630f0770-1612-468c-84ac-ecef49c4d35e",
  "version": 1,
  "metadata": {
    "timestamp": "2022-06-06T20:15:54Z",
    "tools": [
      {
        "vendor": "AppThreat",
        "name": "cdxgen",
        "version": "3.0.10"
      },
      {
        "vendor": "Fortress Information Security",
        "name": "Github Extractor",
        "version": "1.15.1"
      }
    ],
    "authors": [
      {
        "name": "Team AppThreat",
        "email": "cloud@appthreat.com"
      },
      {
        "name": "Fortress Information Security",
        "email": "sales@fortressinfosec.com",
        "phone": "1-407-573-6800"
      }
    ],
    "component": {
      "type": "application",
      "name": "ash",
      "version": "0.37.0",
      "group": "ash-rs",
      "externalReferences": [
        {
          "url": "https://github.com/ash-rs/ash.git",
          "type": "distribution"
        },
        {
          "type": "website",
          "url": "null",
          "comment": "As set via `homepage` in Github API"
        }
      ]
    }
  },
  "components": [
    {
      "type": "library",
      "bom-ref": "pkg:crates/ash-window@0.10.0",
      "group": "",
      "name": "ash-window",
      "version": "0.10.0",
      "description": "",
      "purl": "pkg:crates/ash-window@0.10.0"
    },
    {
      "type": "library",
      "bom-ref": "pkg:crates/raw-window-handle@0.3.4",
      "group": "",
      "name": "raw-window-handle",
      "version": "0.3.4",
      "description": "",
      "purl": "pkg:crates/raw-window-handle@0.3.4"
    },
    {
      "type": "library",
      "bom-ref": "pkg:crates/[target.cfg(any(target_os@macos, target_os",
      "group": "",
      "name": "[target.cfg(any(target_os",
      "version": "macos, target_os",
      "description": "",
      "purl": "pkg:crates/[target.cfg(any(target_os@macos, target_os"
    },
    {
      "type": "library",
      "bom-ref": "pkg:crates/raw-window-metal@0.1",
      "group": "",
      "name": "raw-window-metal",
      "version": "0.1",
      "description": "",
      "purl": "pkg:crates/raw-window-metal@0.1"
    },
    {
      "type": "library",
      "bom-ref": "pkg:crates/winit@0.19.4",
      "group": "",
      "name": "winit",
      "version": "0.19.4",
      "description": "",
      "purl": "pkg:crates/winit@0.19.4"
    },
    {
      "type": "library",
      "bom-ref": "pkg:crates/name@winit",
      "group": "",
      "name": "name",
      "version": "winit",
      "description": "",
      "purl": "pkg:crates/name@winit"
    },
    {
      "type": "library",
      "bom-ref": "pkg:crates/required-features@[ash/linked]",
      "group": "",
      "name": "required-features",
      "version": "[ash/linked]",
      "description": "",
      "purl": "pkg:crates/required-features@[ash/linked]"
    },
    {
      "type": "library",
      "bom-ref": "pkg:crates/ash@0.37.0+1.3.211",
      "group": "",
      "name": "ash",
      "version": "0.37.0+1.3.211",
      "description": "",
      "purl": "pkg:crates/ash@0.37.0+1.3.211"
    },
    {
      "type": "library",
      "bom-ref": "pkg:crates/libloading@0.7",
      "group": "",
      "name": "libloading",
      "version": "0.7",
      "description": "",
      "purl": "pkg:crates/libloading@0.7"
    },
    {
      "type": "library",
      "bom-ref": "pkg:crates/default@[loaded, debug]",
      "group": "",
      "name": "default",
      "version": "[loaded, debug]",
      "description": "",
      "purl": "pkg:crates/default@[loaded, debug]"
    },
    {
      "type": "library",
      "bom-ref": "pkg:crates/linked@[]",
      "group": "",
      "name": "linked",
      "version": "[]",
      "description": "",
      "purl": "pkg:crates/linked@[]"
    },
    {
      "type": "library",
      "bom-ref": "pkg:crates/loaded@[libloading]",
      "group": "",
      "name": "loaded",
      "version": "[libloading]",
      "description": "",
      "purl": "pkg:crates/loaded@[libloading]"
    },
    {
      "type": "library",
      "bom-ref": "pkg:crates/debug@[]",
      "group": "",
      "name": "debug",
      "version": "[]",
      "description": "",
      "purl": "pkg:crates/debug@[]"
    },
    {
      "type": "library",
      "bom-ref": "pkg:crates/all-features@true",
      "group": "",
      "name": "all-features",
      "version": "true",
      "description": "",
      "purl": "pkg:crates/all-features@true"
    },
    {
      "type": "library",
      "bom-ref": "pkg:crates/rustdoc-args@[--cfg, docsrs]",
      "group": "",
      "name": "rustdoc-args",
      "version": "[--cfg, docsrs]",
      "description": "",
      "purl": "pkg:crates/rustdoc-args@[--cfg, docsrs]"
    },
    {
      "type": "library",
      "bom-ref": "pkg:crates/examples@0.1.0",
      "group": "",
      "name": "examples",
      "version": "0.1.0",
      "description": "",
      "purl": "pkg:crates/examples@0.1.0"
    },
    {
      "type": "library",
      "bom-ref": "pkg:crates/winit@0.26",
      "group": "",
      "name": "winit",
      "version": "0.26",
      "description": "",
      "purl": "pkg:crates/winit@0.26"
    },
    {
      "type": "library",
      "bom-ref": "pkg:crates/image@0.23",
      "group": "",
      "name": "image",
      "version": "0.23",
      "description": "",
      "purl": "pkg:crates/image@0.23"
    },
    {
      "type": "library",
      "bom-ref": "pkg:crates/generator@0.1.0",
      "group": "",
      "name": "generator",
      "version": "0.1.0",
      "description": "",
      "purl": "pkg:crates/generator@0.1.0"
    },
    {
      "type": "library",
      "bom-ref": "pkg:crates/bindgen@0.58",
      "group": "",
      "name": "bindgen",
      "version": "0.58",
      "description": "",
      "purl": "pkg:crates/bindgen@0.58"
    },
    {
      "type": "library",
      "bom-ref": "pkg:crates/heck@0.3",
      "group": "",
      "name": "heck",
      "version": "0.3",
      "description": "",
      "purl": "pkg:crates/heck@0.3"
    },
    {
      "type": "library",
      "bom-ref": "pkg:crates/itertools@0.10",
      "group": "",
      "name": "itertools",
      "version": "0.10",
      "description": "",
      "purl": "pkg:crates/itertools@0.10"
    },
    {
      "type": "library",
      "bom-ref": "pkg:crates/nom@7.1",
      "group": "",
      "name": "nom",
      "version": "7.1",
      "description": "",
      "purl": "pkg:crates/nom@7.1"
    },
    {
      "type": "library",
      "bom-ref": "pkg:crates/once_cell@1.7",
      "group": "",
      "name": "once_cell",
      "version": "1.7",
      "description": "",
      "purl": "pkg:crates/once_cell@1.7"
    },
    {
      "type": "library",
      "bom-ref": "pkg:crates/proc-macro2@1.0",
      "group": "",
      "name": "proc-macro2",
      "version": "1.0",
      "description": "",
      "purl": "pkg:crates/proc-macro2@1.0"
    },
    {
      "type": "library",
      "bom-ref": "pkg:crates/quote@1.0",
      "group": "",
      "name": "quote",
      "version": "1.0",
      "description": "",
      "purl": "pkg:crates/quote@1.0"
    },
    {
      "type": "library",
      "bom-ref": "pkg:crates/regex@1.4",
      "group": "",
      "name": "regex",
      "version": "1.4",
      "description": "",
      "purl": "pkg:crates/regex@1.4"
    },
    {
      "type": "library",
      "bom-ref": "pkg:crates/vk-parse@0.6",
      "group": "",
      "name": "vk-parse",
      "version": "0.6",
      "description": "",
      "purl": "pkg:crates/vk-parse@0.6"
    },
    {
      "type": "library",
      "bom-ref": "pkg:crates/vkxml@0.3",
      "group": "",
      "name": "vkxml",
      "version": "0.3",
      "description": "",
      "purl": "pkg:crates/vkxml@0.3"
    },
    {
      "type": "library",
      "bom-ref": "pkg:crates/features@[full, extra-traits]",
      "group": "",
      "name": "features",
      "version": "[full, extra-traits]",
      "description": "",
      "purl": "pkg:crates/features@[full, extra-traits]"
    }
  ],
  "externalReferences": [
    {
      "url": "/project/src",
      "type": "other",
      "comment": "Base path"
    },
    {
      "url": "/project/src/ash-window/Cargo.toml, /project/src/ash/Cargo.toml, /project/src/Cargo.toml, /project/src/examples/Cargo.toml, /project/src/generator/Cargo.toml",
      "type": "other",
      "comment": "Package file"
    }
  ]
}
