{
  "bomFormat": "CycloneDX",
  "specVersion": "1.3",
  "version": 1,
  "metadata": {
    "tools": [
      {
        "vendor": "CycloneDX",
        "name": "cyclonedx-gomod",
        "version": "v0.0.0-unset",
        "hashes": [
          {
            "alg": "MD5",
            "content": "a35776fc9417e8071d3f1dcfa2f1dd19"
          },
          {
            "alg": "SHA-1",
            "content": "a19a8eed713eff5a2092e5283c201a146f19421d"
          },
          {
            "alg": "SHA-256",
            "content": "17b3b980b9a5d0f48ad52043dee5b31aff3ae6599a36bc94224dc7b6a46759ef"
          },
          {
            "alg": "SHA-512",
            "content": "9d4f06aab20cede94a1aedf11a300ae9de98871235c68c72e421cd6d45495910861b39e743ee0eceb11bbdcd2c9acc3312c19064cfe90177243fb43127fcfa46"
          }
        ]
      },
      {
        "vendor": "AppThreat",
        "name": "cdxgen",
        "version": "3.0.10"
      },
      {
        "vendor": "Fortress Information Security",
        "name": "Github Extractor",
        "version": "1.15.1"
      }
    ],
    "authors": [
      {
        "name": "Fortress Information Security",
        "email": "sales@fortressinfosec.com",
        "phone": "1-407-573-6800"
      }
    ],
    "timestamp": "2022-06-01T21:00:00Z",
    "component": {
      "type": "application",
      "name": "aws-lambda-go",
      "version": "v1.32.0",
      "group": "aws",
      "externalReferences": [
        {
          "url": "https://github.com/aws/aws-lambda-go.git",
          "type": "distribution"
        },
        {
          "type": "website",
          "url": "null",
          "comment": "As set via `homepage` in Github API"
        }
      ]
    }
  },
  "components": [
    {
      "type": "library",
      "bom-ref": "pkg:golang/github.com/davecgh/go-spew@v1.1.1",
      "name": "github.com/davecgh/go-spew",
      "version": "v1.1.1",
      "scope": "required",
      "hashes": [
        {
          "alg": "SHA-256",
          "content": "be3f63feed5baa7bc211f24ec1486d94e011aacdfeae41d8635de36164d4f7b7"
        }
      ],
      "purl": "pkg:golang/github.com/davecgh/go-spew@v1.1.1",
      "externalReferences": [
        {
          "url": "https://github.com/davecgh/go-spew",
          "type": "vcs"
        }
      ]
    },
    {
      "type": "library",
      "bom-ref": "pkg:golang/github.com/pmezard/go-difflib@v1.0.0",
      "name": "github.com/pmezard/go-difflib",
      "version": "v1.0.0",
      "scope": "required",
      "hashes": [
        {
          "alg": "SHA-256",
          "content": "e030700c4d0d1b24280476cb4183f04943e808c591e41133224fdfd6565b0103"
        }
      ],
      "purl": "pkg:golang/github.com/pmezard/go-difflib@v1.0.0",
      "externalReferences": [
        {
          "url": "https://github.com/pmezard/go-difflib",
          "type": "vcs"
        }
      ]
    },
    {
      "type": "library",
      "bom-ref": "pkg:golang/github.com/stretchr/testify@v1.6.1",
      "name": "github.com/stretchr/testify",
      "version": "v1.6.1",
      "scope": "required",
      "hashes": [
        {
          "alg": "SHA-256",
          "content": "8433ce1e6a4ea4fe3495250b72ac3b22b45bfeeef0e91a430bddfdf57ca835dd"
        }
      ],
      "purl": "pkg:golang/github.com/stretchr/testify@v1.6.1",
      "externalReferences": [
        {
          "url": "https://github.com/stretchr/testify",
          "type": "vcs"
        }
      ]
    },
    {
      "type": "library",
      "bom-ref": "pkg:golang/gopkg.in/yaml.v3@v3.0.0-20200615113413-eeeca48fe776",
      "name": "gopkg.in/yaml.v3",
      "version": "v3.0.0-20200615113413-eeeca48fe776",
      "scope": "required",
      "hashes": [
        {
          "alg": "SHA-256",
          "content": "b502188cf741a32444c81f5732efa79d3725a53624cf6cc533e9732c914ee204"
        }
      ],
      "purl": "pkg:golang/gopkg.in/yaml.v3@v3.0.0-20200615113413-eeeca48fe776",
      "externalReferences": [
        {
          "url": "https://github.com/go-yaml/yaml",
          "type": "vcs"
        }
      ]
    },
    {
      "type": "library",
      "bom-ref": "pkg:golang/github.com/aws/aws-lambda-go",
      "group": "github.com/aws",
      "name": "aws-lambda-go",
      "version": "",
      "description": "",
      "scope": "optional",
      "purl": "pkg:golang/github.com/aws/aws-lambda-go"
    }
  ],
  "dependencies": [
    {
      "ref": "pkg:golang/github.com/davecgh/go-spew@v1.1.1"
    },
    {
      "ref": "pkg:golang/github.com/pmezard/go-difflib@v1.0.0"
    },
    {
      "ref": "pkg:golang/github.com/stretchr/testify@v1.6.1",
      "dependsOn": [
        "pkg:golang/github.com/davecgh/go-spew@v1.1.1",
        "pkg:golang/github.com/pmezard/go-difflib@v1.0.0",
        "pkg:golang/gopkg.in/yaml.v3@v3.0.0-20200615113413-eeeca48fe776"
      ]
    },
    {
      "ref": "pkg:golang/gopkg.in/yaml.v3@v3.0.0-20200615113413-eeeca48fe776"
    },
    {
      "ref": "pkg:golang/github.com/aws/aws-lambda-go@v1.31.0",
      "dependsOn": [
        "pkg:golang/github.com/davecgh/go-spew@v1.1.1",
        "pkg:golang/github.com/pmezard/go-difflib@v1.0.0",
        "pkg:golang/github.com/stretchr/testify@v1.6.1",
        "pkg:golang/gopkg.in/yaml.v3@v3.0.0-20200615113413-eeeca48fe776"
      ]
    }
  ]
}
