{
  "bomFormat": "CycloneDX",
  "specVersion": "1.3",
  "version": 2,
  "components": [
    {
      "type": "library",
      "publisher": "Greg Ward",
      "name": "distutils",
      "version": "1.0",
      "description": "Python Distribution Utilities",
      "purl": "pkg:pypi/distutils@1.0",
      "modified": false
    },
    {
      "type": "library",
      "publisher": "Robert Bradshaw, Stefan Behnel, Dag Seljebotn, Greg Ewing, et al.",
      "name": "Cython",
      "version": "0.29.30",
      "description": "The Cython compiler for writing C extensions for the Python language.",
      "hashes": [
        {
          "alg": "MD5",
          "content": "08d4ec43d1c70758a1bf05124fc005b9"
        },
        {
          "alg": "SHA-256",
          "content": "acb72e0b42079862cf2f894964b41f261e941e75677e902c5f4304b3eb00af33"
        }
      ],
      "licenses": [
        {
          "license": {
            "name": "Apache"
          }
        }
      ],
      "purl": "pkg:pypi/cython@0.29.30",
      "modified": false
    },
    {
      "type": "library",
      "publisher": "Thomas Heller",
      "name": "ctypes",
      "version": "1.0.2",
      "description": "create and manipulate C data types in Python, call functions in shared libraries",
      "licenses": [
        {
          "license": {
            "name": "MIT License"
          }
        }
      ],
      "purl": "pkg:pypi/ctypes@1.0.2",
      "modified": false
    },
    {
      "type": "library",
      "publisher": "Nguyen Anh Quynh",
      "name": "capstone",
      "version": "4.0.2",
      "description": "Capstone disassembly engine",
      "hashes": [
        {
          "alg": "MD5",
          "content": "0eb4220b54f084fd6d1c3011aefdd75a"
        },
        {
          "alg": "SHA-256",
          "content": "0d65ffe8620920976ceadedc769f22318f6f150a592368d8a735612367ac8a1a"
        }
      ],
      "purl": "pkg:pypi/capstone@4.0.2",
      "modified": false
    },
    {
      "type": "library",
      "publisher": "Michael Foord",
      "name": "unittest",
      "version": "0.0",
      "hashes": [
        {
          "alg": "MD5",
          "content": "2a416384f814604ed854d40f352f1191"
        },
        {
          "alg": "SHA-256",
          "content": "1b492484bea7f68abda5fcc61412e77b6a105e5842355d630f8b75f01add3555"
        }
      ],
      "purl": "pkg:pypi/unittest@0.0",
      "modified": false
    },
    {
      "type": "library",
      "publisher": "Scott Griffiths",
      "name": "bitstring",
      "version": "3.1.9",
      "description": "Simple construction, analysis and modification of binary data.",
      "hashes": [
        {
          "alg": "MD5",
          "content": "635135d5ed3ed00e080b1a95748ee911"
        },
        {
          "alg": "SHA-256",
          "content": "0de167daa6a00c9386255a7cac931b45e6e24e0ad7ea64f1f92a64ac23ad4578"
        }
      ],
      "licenses": [
        {
          "license": {
            "name": "The MIT License: http://www.opensource.org/licenses/mit-license.php"
          }
        }
      ],
      "purl": "pkg:pypi/bitstring@3.1.9",
      "modified": false
    }
  ],
  "metadata": {
    "tools": [
      {
        "vendor": "Fortress Information Security",
        "name": "Github Extractor",
        "version": "1.15.1"
      }
    ],
    "authors": [
      {
        "name": "Fortress Information Security",
        "email": "sales@fortressinfosec.com",
        "phone": "1-407-573-6800"
      }
    ],
    "timestamp": "2022-07-26T23:34:03Z",
    "component": {
      "type": "application",
      "name": "capstone",
      "version": "4.0.2",
      "group": "capstone-engine",
      "externalReferences": [
        {
          "url": "https://github.com/capstone-engine/capstone.git",
          "type": "distribution"
        },
        {
          "type": "website",
          "url": "http://www.capstone-engine.org",
          "comment": "As set via `homepage` in Github API"
        }
      ]
    }
  }
}
