{
  "bomFormat": "CycloneDX",
  "specVersion": "1.3",
  "version": 2,
  "metadata": {
    "tools": [
      {
        "vendor": "AppThreat",
        "name": "cdxgen",
        "version": "3.0.10"
      },
      {
        "vendor": "Fortress Information Security",
        "name": "Github Extractor",
        "version": "1.15.1"
      }
    ],
    "authors": [
      {
        "name": "Fortress Information Security",
        "email": "sales@fortressinfosec.com",
        "phone": "1-407-573-6800"
      }
    ],
    "timestamp": "2022-07-26T23:35:55Z",
    "component": {
      "type": "application",
      "name": "carla",
      "version": "0.9.13",
      "group": "carla-simulator",
      "externalReferences": [
        {
          "url": "https://github.com/carla-simulator/carla.git",
          "type": "distribution"
        },
        {
          "type": "website",
          "url": "http://carla.org",
          "comment": "As set via `homepage` in Github API"
        }
      ]
    }
  },
  "components": [
    {
      "type": "library",
      "publisher": "Thomas Waldmann",
      "name": "argparse",
      "version": "1.4.0",
      "description": "Python command-line parsing library",
      "hashes": [
        {
          "alg": "MD5",
          "content": "c37216a954c8669054e2b2c54853dd49"
        },
        {
          "alg": "SHA-256",
          "content": "c31647edb69fd3d465a847ea3157d37bed1f95f19760b11a47aa91c04b666314"
        }
      ],
      "licenses": [
        {
          "license": {
            "name": "Python Software Foundation License"
          }
        }
      ],
      "purl": "pkg:pypi/argparse@1.4.0",
      "modified": false
    },
    {
      "type": "library",
      "publisher": "Vinay Sajip",
      "name": "logging",
      "version": "0.4.9.6",
      "description": "A logging module for Python",
      "hashes": [
        {
          "alg": "MD5",
          "content": "dc0a7ebc8b8970263911e11e7b7e1ca8"
        },
        {
          "alg": "SHA-256",
          "content": "26f6b50773f085042d301085bd1bf5d9f3735704db9f37c1ce6d8b85c38f2417"
        }
      ],
      "licenses": [
        {
          "license": {
            "name": "Copyright (C) 2001-2005 by Vinay Sajip. All Rights Reserved. See LICENSE for license."
          }
        }
      ],
      "purl": "pkg:pypi/logging@0.4.9.6",
      "modified": false
    },
    {
      "type": "library",
      "publisher": "Ben Finney",
      "name": "enum",
      "version": "0.4.7",
      "description": "Robust enumerated type support in Python.",
      "hashes": [
        {
          "alg": "MD5",
          "content": "e7d170e3f84435b77058de625c96ef58"
        },
        {
          "alg": "SHA-256",
          "content": "8c7cf3587eda51008bcc1eed99ea2c331ccd265c231dbaa95ec5258d3dc03100"
        }
      ],
      "licenses": [
        {
          "license": {
            "name": "GPL-3.0+"
          }
        }
      ],
      "purl": "pkg:pypi/enum@0.4.7",
      "modified": false
    },
    {
      "type": "library",
      "publisher": "The CARLA team",
      "name": "carla",
      "version": "0.9.13",
      "description": "Python API for communicating with the CARLA server.",
      "hashes": [
        {
          "alg": "MD5",
          "content": "2895881eb1bbef41befd7cc383e0399a"
        },
        {
          "alg": "SHA-256",
          "content": "a64ee78fe91137fa7d4828c7fc06d5824bd7312e29e4ea4f31a5d74dd28bff40"
        }
      ],
      "licenses": [
        {
          "license": {
            "name": "MIT License"
          }
        }
      ],
      "purl": "pkg:pypi/carla@0.9.13",
      "modified": false
    },
    {
      "type": "library",
      "publisher": "Thomas Heller",
      "name": "ctypes",
      "version": "1.0.2",
      "description": "create and manipulate C data types in Python, call functions in shared libraries",
      "licenses": [
        {
          "license": {
            "name": "MIT License"
          }
        }
      ],
      "purl": "pkg:pypi/ctypes@1.0.2",
      "modified": false
    },
    {
      "type": "library",
      "publisher": "lxml dev team",
      "name": "lxml",
      "version": "4.8.0",
      "description": "Powerful and Pythonic XML processing library combining libxml2/libxslt with the ElementTree API.",
      "hashes": [
        {
          "alg": "MD5",
          "content": "7ad82f2befca9ee0f3dc073ae7e0b85a"
        },
        {
          "alg": "SHA-256",
          "content": "8b99ec73073b37f9ebe8caf399001848fced9c08064effdbfc4da2b5a8d07b93"
        }
      ],
      "licenses": [
        {
          "license": {
            "name": "BSD"
          }
        }
      ],
      "purl": "pkg:pypi/lxml@4.8.0",
      "modified": false
    },
    {
      "type": "library",
      "publisher": "DLR and contributors",
      "name": "sumolib",
      "version": "1.13.0",
      "description": "Python helper modules to read networks, parse output data and do other useful stuff related to the traffic simulation Eclipse SUMO",
      "hashes": [
        {
          "alg": "MD5",
          "content": "294588a1cd6fd73bac674d82aa911eba"
        },
        {
          "alg": "SHA-256",
          "content": "e007c282400779d15f8a460d978b447350690ab81a18edfeabc34bf05dbdc752"
        }
      ],
      "licenses": [
        {
          "license": {
            "name": "EPL-2.0"
          }
        }
      ],
      "purl": "pkg:pypi/sumolib@1.13.0",
      "modified": false
    },
    {
      "type": "library",
      "publisher": "DLR and contributors",
      "name": "traci",
      "version": "1.13.0",
      "description": "The pure python version of the TraCI API to communicate with the traffic simulation Eclipse SUMO",
      "hashes": [
        {
          "alg": "MD5",
          "content": "55dff8d40f7408182236ca7f92ea58f0"
        },
        {
          "alg": "SHA-256",
          "content": "efce32028d487ee39948b1999aa4dc6e6430367a27e5584312bacb3c4cd028e2"
        }
      ],
      "licenses": [
        {
          "license": {
            "name": "EPL-2.0"
          }
        }
      ],
      "purl": "pkg:pypi/traci@1.13.0",
      "modified": false
    },
    {
      "type": "library",
      "publisher": "Zope Foundation and Contributors",
      "name": "datetime",
      "version": "4.4",
      "description": "This package provides a DateTime data type, as known from Zope. Unless you need to communicate with Zope APIs, you're probably better off using Python's built-in datetime module.",
      "hashes": [
        {
          "alg": "MD5",
          "content": "ad1e82d858ed7c8cd2ea437b4cb695ed"
        },
        {
          "alg": "SHA-256",
          "content": "4fcca115ddb466a1104df08d5c2a2f5805d14ca317800e1bfcea8f3d69f66e57"
        }
      ],
      "licenses": [
        {
          "license": {
            "name": "ZPL 2.1"
          }
        }
      ],
      "purl": "pkg:pypi/datetime@4.4",
      "modified": false
    },
    {
      "type": "library",
      "publisher": "Kenneth Reitz",
      "name": "requests",
      "version": "2.27.1",
      "description": "Python HTTP for Humans.",
      "hashes": [
        {
          "alg": "MD5",
          "content": "435db0f122c83decd27524f690e89650"
        },
        {
          "alg": "SHA-256",
          "content": "f22fa1e554c9ddfd16e6e41ac79759e17be9e492b3587efa038054674760e72d"
        }
      ],
      "licenses": [
        {
          "license": {
            "name": "Apache 2.0"
          }
        }
      ],
      "purl": "pkg:pypi/requests@2.27.1",
      "modified": false
    },
    {
      "type": "library",
      "publisher": "Danijar Hafner",
      "name": "sets",
      "version": "0.3.2",
      "description": "Read datasets in a standard way.",
      "hashes": [
        {
          "alg": "MD5",
          "content": "1b02efb4c7115008d754f265beae1be4"
        },
        {
          "alg": "SHA-256",
          "content": "46904a68816eaa4d8699eff15c6fffe13966bf119cc12eb3b4cbc0be4528e4ec"
        }
      ],
      "licenses": [
        {
          "license": {
            "name": "MIT"
          }
        }
      ],
      "purl": "pkg:pypi/sets@0.3.2",
      "modified": false
    },
    {
      "type": "library",
      "publisher": "Konstantin Lepa",
      "name": "termcolor",
      "version": "1.1.0",
      "description": "ANSII Color formatting for output in terminal.",
      "hashes": [
        {
          "alg": "MD5",
          "content": "043e89644f8909d462fbbfa511c768df"
        },
        {
          "alg": "SHA-256",
          "content": "1d6d69ce66211143803fbc56652b41d73b4a400a2891d7bf7a1cdf4c02de613b"
        }
      ],
      "licenses": [
        {
          "license": {
            "name": "MIT"
          }
        }
      ],
      "purl": "pkg:pypi/termcolor@1.1.0",
      "modified": false
    },
    {
      "type": "library",
      "name": "docker",
      "version": "5.0.3",
      "description": "A Python library for the Docker Engine API.",
      "hashes": [
        {
          "alg": "MD5",
          "content": "09d415649b96158c55eeced07b86bc84"
        },
        {
          "alg": "SHA-256",
          "content": "7a79bb439e3df59d0a72621775d600bc8bc8b422d285824cb37103eab91d1ce0"
        }
      ],
      "licenses": [
        {
          "license": {
            "name": "Apache License 2.0"
          }
        }
      ],
      "purl": "pkg:pypi/docker@5.0.3",
      "modified": false
    },
    {
      "type": "library",
      "publisher": "Python Packaging Authority",
      "name": "setuptools",
      "version": "62.3.2",
      "description": "Easily download, build, install, upgrade, and uninstall Python packages",
      "hashes": [
        {
          "alg": "MD5",
          "content": "8cec5ba9f875efdd8534000c3a0c9b24"
        },
        {
          "alg": "SHA-256",
          "content": "68e45d17c9281ba25dc0104eadd2647172b3472d9e01f911efa57965e8d51a36"
        }
      ],
      "purl": "pkg:pypi/setuptools@62.3.2",
      "modified": false
    },
    {
      "type": "library",
      "publisher": "Nir Cohen",
      "name": "distro",
      "version": "1.7.0",
      "description": "Distro - an OS platform information API",
      "hashes": [
        {
          "alg": "MD5",
          "content": "73469c383d9a8f6e31369e15cfe217ea"
        },
        {
          "alg": "SHA-256",
          "content": "d596311d707e692c2160c37807f83e3820c5d539d5a83e87cfb6babd8ba3a06b"
        }
      ],
      "licenses": [
        {
          "license": {
            "name": "Apache License, Version 2.0"
          }
        }
      ],
      "purl": "pkg:pypi/distro@1.7.0",
      "modified": false
    },
    {
      "type": "library",
      "publisher": "Aric Hagberg",
      "name": "networkx",
      "version": "2.8.1",
      "description": "Python package for creating and manipulating graphs and networks",
      "hashes": [
        {
          "alg": "MD5",
          "content": "230f04bad1927b46752bd41b06b4a03e"
        },
        {
          "alg": "SHA-256",
          "content": "07b89bb42483d385ae31f110b3da873b98639ae00b7dbc05bf0da706e2d10459"
        }
      ],
      "purl": "pkg:pypi/networkx@2.8.1",
      "modified": false
    },
    {
      "type": "library",
      "publisher": "Sean Gillies",
      "name": "shapely",
      "version": "1.8.2",
      "description": "Geometric objects, predicates, and operations",
      "hashes": [
        {
          "alg": "MD5",
          "content": "3590aa7bcf66e09e641ecc62868528c0"
        },
        {
          "alg": "SHA-256",
          "content": "3423299254deec075e79fb7dc7909d702104e4167149de7f45510c3a6342eeea"
        }
      ],
      "licenses": [
        {
          "license": {
            "name": "BSD"
          }
        }
      ],
      "purl": "pkg:pypi/shapely@1.8.2",
      "modified": false
    },
    {
      "type": "library",
      "publisher": "Michael Foord",
      "name": "unittest",
      "version": "0.0",
      "hashes": [
        {
          "alg": "MD5",
          "content": "2a416384f814604ed854d40f352f1191"
        },
        {
          "alg": "SHA-256",
          "content": "1b492484bea7f68abda5fcc61412e77b6a105e5842355d630f8b75f01add3555"
        }
      ],
      "purl": "pkg:pypi/unittest@0.0",
      "modified": false
    },
    {
      "type": "library",
      "name": "agents",
      "version": "1.4.0",
      "description": "Efficient TensorFlow implementation of reinforcement learning algorithms.",
      "hashes": [
        {
          "alg": "MD5",
          "content": "69a57f1c0b6519ecb6eb0d170b3c82af"
        },
        {
          "alg": "SHA-256",
          "content": "22b58de0aee838b19c547436734648c35571dd6d80d560d23c958571ae79c54d"
        }
      ],
      "licenses": [
        {
          "license": {
            "name": "Apache 2.0"
          }
        }
      ],
      "purl": "pkg:pypi/agents@1.4.0",
      "modified": false
    },
    {
      "type": "library",
      "publisher": "John D. Hunter, Michael Droettboom",
      "name": "matplotlib",
      "version": "3.5.2",
      "description": "Python plotting package",
      "hashes": [
        {
          "alg": "MD5",
          "content": "36ccc2efc47ed886836b2c7c3d3b9b3a"
        },
        {
          "alg": "SHA-256",
          "content": "24173c23d1bcbaed5bf47b8785d27933a1ac26a5d772200a0f3e0e38f471b001"
        }
      ],
      "licenses": [
        {
          "license": {
            "name": "PSF"
          }
        }
      ],
      "purl": "pkg:pypi/matplotlib@3.5.2",
      "modified": false
    },
    {
      "type": "library",
      "name": "hashlib",
      "version": "20081119",
      "description": "Secure hash and message digest algorithm library",
      "hashes": [
        {
          "alg": "MD5",
          "content": "46e59db6d5cac34b3344ef0c30d0897f"
        },
        {
          "alg": "SHA-256",
          "content": "419de2fd10ae71ed9c6adcb55903f116abd1d8acc8c814dfd5f839b4d5013e38"
        }
      ],
      "purl": "pkg:pypi/hashlib@20081119",
      "modified": false
    },
    {
      "type": "library",
      "publisher": "Łukasz Langa",
      "name": "configparser",
      "version": "5.2.0",
      "description": "Updated configparser from Python 3.8 for Python 2.6+.",
      "hashes": [
        {
          "alg": "MD5",
          "content": "69bab6f43cd4375830a54a53a50129fa"
        },
        {
          "alg": "SHA-256",
          "content": "e8b39238fb6f0153a069aa253d349467c3c4737934f253ef6abac5fe0eca1e5d"
        }
      ],
      "purl": "pkg:pypi/configparser@5.2.0",
      "modified": false
    },
    {
      "type": "library",
      "publisher": "Open3D Team",
      "name": "open3d",
      "version": "0.15.2",
      "hashes": [
        {
          "alg": "MD5",
          "content": "ebd465981d236cdb289393a3306cd2d7"
        },
        {
          "alg": "SHA-256",
          "content": "decd68788ede970ac7368d72126ef8f7832c0aac7bb92a284f8e691af96b5679"
        }
      ],
      "licenses": [
        {
          "license": {
            "name": "MIT"
          }
        }
      ],
      "purl": "pkg:pypi/open3d@0.15.2",
      "modified": false
    },
    {
      "type": "library",
      "publisher": "Stephan Klein",
      "name": "signal",
      "version": "0.1",
      "description": "Send SMS messages via ADB and your Android phone. Comes with a CLI.",
      "licenses": [
        {
          "license": {
            "name": "MIT"
          }
        }
      ],
      "purl": "pkg:pypi/signal@0.1",
      "modified": false
    },
    {
      "type": "library",
      "publisher": "anycode",
      "name": "tr",
      "version": "1.0.0.2",
      "description": "tr",
      "hashes": [
        {
          "alg": "MD5",
          "content": "1d569e61a4bb728cf1af8e7531484d80"
        },
        {
          "alg": "SHA-256",
          "content": "8db7b57e28b3462b6e669a34a31c5b4ee41ec03848c604ea61b9cd9d05e5d2d9"
        }
      ],
      "purl": "pkg:pypi/tr@1.0.0.2",
      "modified": false
    },
    {
      "type": "library",
      "publisher": "Giampaolo Rodola",
      "name": "psutil",
      "version": "5.9.0",
      "description": "Cross-platform lib for process and system monitoring in Python.",
      "hashes": [
        {
          "alg": "MD5",
          "content": "75d0c4cf515a5acd882fd30e87f6d13f"
        },
        {
          "alg": "SHA-256",
          "content": "7d190ee2eaef7831163f254dc58f6d2e2a22e27382b936aab51c835fc080c3d3"
        }
      ],
      "licenses": [
        {
          "license": {
            "name": "BSD"
          }
        }
      ],
      "purl": "pkg:pypi/psutil@5.9.0",
      "modified": false
    },
    {
      "type": "library",
      "publisher": "Anders Krogh Mortensen",
      "name": "GPUtil",
      "version": "1.4.0",
      "description": "GPUtil is a Python module for getting the GPU status from NVIDA GPUs using nvidia-smi.",
      "hashes": [
        {
          "alg": "MD5",
          "content": "618fcda541d7cbf108903d1d02d111e9"
        },
        {
          "alg": "SHA-256",
          "content": "099e52c65e512cdfa8c8763fca67f5a5c2afb63469602d5dcb4d296b3661efb9"
        }
      ],
      "licenses": [
        {
          "license": {
            "name": "MIT"
          }
        }
      ],
      "purl": "pkg:pypi/gputil@1.4.0",
      "modified": false
    },
    {
      "type": "library",
      "publisher": "imageio contributors",
      "name": "imageio",
      "version": "2.19.2",
      "description": "Library for reading and writing a wide range of image, video, scientific, and volumetric data formats.",
      "hashes": [
        {
          "alg": "MD5",
          "content": "a2ce9304281ac38ab5c2c4ce266387b9"
        },
        {
          "alg": "SHA-256",
          "content": "2c01611a90ac87119833946a41af53e55d68ec68e25e2780e6c3ce665100d006"
        }
      ],
      "licenses": [
        {
          "license": {
            "name": "BSD-2-Clause"
          }
        }
      ],
      "purl": "pkg:pypi/imageio@2.19.2",
      "modified": false
    },
    {
      "type": "library",
      "bom-ref": "pkg:pypi/lxml@4.6.2",
      "group": "",
      "name": "lxml",
      "version": "4.6.2",
      "description": "Powerful and Pythonic XML processing library combining libxml2/libxslt with the ElementTree API.",
      "hashes": [
        {
          "alg": "SHA-256",
          "content": "a9d6bc8642e2c67db33f1247a77c53476f3a166e09067c0474facb045756087f"
        }
      ],
      "licenses": [
        {
          "license": {
            "id": "0BSD",
            "url": "https://opensource.org/licenses/0BSD"
          }
        }
      ],
      "purl": "pkg:pypi/lxml@4.6.2",
      "externalReferences": [
        {
          "url": "https://lxml.de/",
          "type": "website"
        }
      ]
    },
    {
      "type": "library",
      "bom-ref": "pkg:pypi/mkdocs@1.1",
      "group": "",
      "name": "mkdocs",
      "version": "1.1",
      "description": "Project documentation with Markdown.",
      "hashes": [
        {
          "alg": "SHA-256",
          "content": "1e385a70aea8a9dedb731aea4fd5f3704b2074801c4f96f06b2920999babda8a"
        }
      ],
      "licenses": [
        {
          "license": {
            "id": "0BSD",
            "url": "https://opensource.org/licenses/0BSD"
          }
        }
      ],
      "purl": "pkg:pypi/mkdocs@1.1",
      "externalReferences": [
        {
          "url": "https://www.mkdocs.org",
          "type": "website"
        }
      ]
    },
    {
      "type": "library",
      "bom-ref": "pkg:pypi/numpy; python-version < '3.0'",
      "group": "",
      "name": "numpy; python_version < '3.0'",
      "version": "0.0.0",
      "description": "",
      "purl": "pkg:pypi/numpy; python-version < '3.0'"
    },
    {
      "type": "library",
      "bom-ref": "pkg:pypi/numpy@'3.0'",
      "group": "",
      "name": "numpy",
      "version": "'3.0'",
      "description": "NumPy is the fundamental package for array computing with Python.",
      "licenses": [
        {
          "license": {
            "id": "0BSD",
            "url": "https://opensource.org/licenses/0BSD"
          }
        }
      ],
      "purl": "pkg:pypi/numpy@'3.0'",
      "externalReferences": [
        {
          "url": "https://www.numpy.org",
          "type": "website"
        }
      ]
    },
    {
      "type": "library",
      "bom-ref": "pkg:pypi/shapely@1.6.4.post2",
      "group": "",
      "name": "Shapely",
      "version": "1.6.4.post2",
      "description": "Geometric objects, predicates, and operations",
      "hashes": [
        {
          "alg": "SHA-256",
          "content": "3ca69d4b12e2b05b549465822744b6a3a1095d8488cc27b2728a06d3c07d0eee"
        }
      ],
      "licenses": [
        {
          "license": {
            "id": "0BSD",
            "url": "https://opensource.org/licenses/0BSD"
          }
        }
      ],
      "purl": "pkg:pypi/shapely@1.6.4.post2",
      "externalReferences": [
        {
          "url": "https://github.com/shapely/shapely",
          "type": "vcs"
        }
      ]
    },
    {
      "type": "library",
      "bom-ref": "pkg:pypi/pyyaml@6.0",
      "group": "",
      "name": "pyyaml",
      "version": "6.0",
      "description": "YAML parser and emitter for Python",
      "hashes": [
        {
          "alg": "SHA-256",
          "content": "d4db7c7aef085872ef65a8fd7d6d09a14ae91f691dec3e87ee5ee0539d516f53"
        }
      ],
      "licenses": [
        {
          "license": {
            "id": "MIT",
            "url": "https://opensource.org/licenses/MIT"
          }
        }
      ],
      "purl": "pkg:pypi/pyyaml@6.0",
      "externalReferences": [
        {
          "url": "https://pyyaml.org/",
          "type": "website"
        }
      ]
    },
    {
      "type": "library",
      "bom-ref": "pkg:pypi/future@0.18.2",
      "group": "",
      "name": "future",
      "version": "0.18.2",
      "description": "Clean single-source support for Python 3 and 2",
      "hashes": [
        {
          "alg": "SHA-256",
          "content": "b1bead90b70cf6ec3f0710ae53a525360fa360d306a86583adc6bf83a4db537d"
        }
      ],
      "licenses": [
        {
          "license": {
            "id": "MIT",
            "url": "https://opensource.org/licenses/MIT"
          }
        }
      ],
      "purl": "pkg:pypi/future@0.18.2",
      "externalReferences": [
        {
          "url": "https://python-future.org",
          "type": "website"
        }
      ]
    },
    {
      "type": "library",
      "bom-ref": "pkg:pypi/pygame@2.1.2",
      "group": "",
      "name": "pygame",
      "version": "2.1.2",
      "description": "Python Game Development",
      "hashes": [
        {
          "alg": "SHA-256",
          "content": "f149e182d0eeef15d8a9b4c9dad1b87dc6eba3a99bd3c44a777a3a2b053a3dca"
        }
      ],
      "licenses": [
        {
          "license": {
            "name": "LGPL"
          }
        }
      ],
      "purl": "pkg:pypi/pygame@2.1.2",
      "externalReferences": [
        {
          "url": "https://www.pygame.org",
          "type": "website"
        }
      ]
    },
    {
      "type": "library",
      "bom-ref": "pkg:pypi/pillow@9.1.1",
      "group": "",
      "name": "Pillow",
      "version": "9.1.1",
      "description": "Python Imaging Library (Fork)",
      "hashes": [
        {
          "alg": "SHA-256",
          "content": "42dfefbef90eb67c10c45a73a9bc1599d4dac920f7dfcbf4ec6b80cb620757fe"
        }
      ],
      "licenses": [
        {
          "license": {
            "id": "HPND",
            "url": "https://opensource.org/licenses/HPND"
          }
        }
      ],
      "purl": "pkg:pypi/pillow@9.1.1",
      "externalReferences": [
        {
          "url": "https://python-pillow.org",
          "type": "website"
        }
      ]
    },
    {
      "type": "library",
      "bom-ref": "pkg:pypi/nose2@0.11.0",
      "group": "",
      "name": "nose2",
      "version": "0.11.0",
      "description": "unittest2 with plugins, the succesor to nose",
      "hashes": [
        {
          "alg": "SHA-256",
          "content": "d37e75e3010bb4739fe6045a29d4c633ac3146cb5704ee4e4a9e4abeceb2dee3"
        }
      ],
      "purl": "pkg:pypi/nose2@0.11.0",
      "externalReferences": [
        {
          "url": "https://github.com/nose-devs/nose2",
          "type": "vcs"
        }
      ]
    },
    {
      "type": "library",
      "bom-ref": "pkg:pypi/py-cpuinfo@8.0.0",
      "group": "",
      "name": "py-cpuinfo",
      "version": "8.0.0",
      "description": "Get CPU info with pure Python 2 & 3",
      "hashes": [
        {
          "alg": "SHA-256",
          "content": "5f269be0e08e33fd959de96b34cd4aeeeacac014dd8305f70eb28d06de2345c5"
        }
      ],
      "licenses": [
        {
          "license": {
            "id": "MIT",
            "url": "https://opensource.org/licenses/MIT"
          }
        }
      ],
      "purl": "pkg:pypi/py-cpuinfo@8.0.0",
      "externalReferences": [
        {
          "url": "https://github.com/workhorsy/py-cpuinfo",
          "type": "vcs"
        }
      ]
    },
    {
      "type": "library",
      "bom-ref": "pkg:pypi/python-tr@0.1.2",
      "group": "",
      "name": "python-tr",
      "version": "0.1.2",
      "description": "A Pure-Python implementation of the tr algorithm",
      "hashes": [
        {
          "alg": "SHA-256",
          "content": "705630c5abd4bfc46e5e799b1002529137b56f730baceffe19a25acc4a9377d5"
        }
      ],
      "licenses": [
        {
          "license": {
            "id": "MIT",
            "url": "https://opensource.org/licenses/MIT"
          }
        }
      ],
      "purl": "pkg:pypi/python-tr@0.1.2",
      "externalReferences": [
        {
          "url": "https://github.com/ikegami-yukino/python-tr",
          "type": "vcs"
        }
      ]
    }
  ]
}
