{
  "bomFormat": "CycloneDX",
  "specVersion": "1.3",
  "serialNumber": "urn:uuid:1ac080c5-f371-47f0-8176-49c5d549b24a",
  "version": 1,
  "metadata": {
    "timestamp": "2022-06-06T19:55:58Z",
    "tools": [
      {
        "vendor": "AppThreat",
        "name": "cdxgen",
        "version": "3.0.10"
      },
      {
        "vendor": "Fortress Information Security",
        "name": "Github Extractor",
        "version": "1.15.1"
      }
    ],
    "authors": [
      {
        "name": "Team AppThreat",
        "email": "cloud@appthreat.com"
      },
      {
        "name": "Fortress Information Security",
        "email": "sales@fortressinfosec.com",
        "phone": "1-407-573-6800"
      }
    ],
    "component": {
      "type": "application",
      "name": "scraper",
      "version": "v0.13.0",
      "group": "causal-agent",
      "externalReferences": [
        {
          "url": "https://github.com/causal-agent/scraper.git",
          "type": "distribution"
        },
        {
          "type": "website",
          "url": "https://docs.rs/scraper",
          "comment": "As set via `homepage` in Github API"
        }
      ]
    }
  },
  "components": [
    {
      "type": "library",
      "bom-ref": "pkg:crates/scraper@0.13.0",
      "group": "",
      "name": "scraper",
      "version": "0.13.0",
      "description": "",
      "purl": "pkg:crates/scraper@0.13.0"
    },
    {
      "type": "library",
      "bom-ref": "pkg:crates/cssparser@0.27",
      "group": "",
      "name": "cssparser",
      "version": "0.27",
      "description": "",
      "purl": "pkg:crates/cssparser@0.27"
    },
    {
      "type": "library",
      "bom-ref": "pkg:crates/ego-tree@0.6",
      "group": "",
      "name": "ego-tree",
      "version": "0.6",
      "description": "",
      "purl": "pkg:crates/ego-tree@0.6"
    },
    {
      "type": "library",
      "bom-ref": "pkg:crates/html5ever@0.26",
      "group": "",
      "name": "html5ever",
      "version": "0.26",
      "description": "",
      "purl": "pkg:crates/html5ever@0.26"
    },
    {
      "type": "library",
      "bom-ref": "pkg:crates/matches@0.1.6",
      "group": "",
      "name": "matches",
      "version": "0.1.6",
      "description": "",
      "purl": "pkg:crates/matches@0.1.6"
    },
    {
      "type": "library",
      "bom-ref": "pkg:crates/selectors@0.22",
      "group": "",
      "name": "selectors",
      "version": "0.22",
      "description": "",
      "purl": "pkg:crates/selectors@0.22"
    },
    {
      "type": "library",
      "bom-ref": "pkg:crates/smallvec@1",
      "group": "",
      "name": "smallvec",
      "version": "1",
      "description": "",
      "purl": "pkg:crates/smallvec@1"
    },
    {
      "type": "library",
      "bom-ref": "pkg:crates/tendril@0.4",
      "group": "",
      "name": "tendril",
      "version": "0.4",
      "description": "",
      "purl": "pkg:crates/tendril@0.4"
    },
    {
      "type": "library",
      "bom-ref": "pkg:crates/indexmap@1.6.1",
      "group": "",
      "name": "indexmap",
      "version": "1.6.1",
      "description": "",
      "purl": "pkg:crates/indexmap@1.6.1"
    },
    {
      "type": "library",
      "bom-ref": "pkg:crates/optional@true",
      "group": "",
      "name": "optional",
      "version": "true",
      "description": "",
      "purl": "pkg:crates/optional@true"
    },
    {
      "type": "library",
      "bom-ref": "pkg:crates/default@[main]",
      "group": "",
      "name": "default",
      "version": "[main]",
      "description": "",
      "purl": "pkg:crates/default@[main]"
    },
    {
      "type": "library",
      "bom-ref": "pkg:crates/deterministic@[indexmap]",
      "group": "",
      "name": "deterministic",
      "version": "[indexmap]",
      "description": "",
      "purl": "pkg:crates/deterministic@[indexmap]"
    },
    {
      "type": "library",
      "bom-ref": "pkg:crates/main@[getopts]",
      "group": "",
      "name": "main",
      "version": "[getopts]",
      "description": "",
      "purl": "pkg:crates/main@[getopts]"
    },
    {
      "type": "library",
      "bom-ref": "pkg:crates/name@scraper",
      "group": "",
      "name": "name",
      "version": "scraper",
      "description": "",
      "purl": "pkg:crates/name@scraper"
    },
    {
      "type": "library",
      "bom-ref": "pkg:crates/required-features@[main]",
      "group": "",
      "name": "required-features",
      "version": "[main]",
      "description": "",
      "purl": "pkg:crates/required-features@[main]"
    }
  ],
  "externalReferences": [
    {
      "url": "/project/src",
      "type": "other",
      "comment": "Base path"
    },
    {
      "url": "/project/src/Cargo.toml",
      "type": "other",
      "comment": "Package file"
    }
  ]
}
