{
  "bomFormat": "CycloneDX",
  "specVersion": "1.3",
  "version": 1,
  "components": [
    {
      "type": "library",
      "publisher": "Vinay Sajip",
      "name": "logging",
      "version": "0.4.9.6",
      "description": "A logging module for Python",
      "hashes": [
        {
          "alg": "MD5",
          "content": "dc0a7ebc8b8970263911e11e7b7e1ca8"
        },
        {
          "alg": "SHA-256",
          "content": "26f6b50773f085042d301085bd1bf5d9f3735704db9f37c1ce6d8b85c38f2417"
        }
      ],
      "licenses": [
        {
          "license": {
            "name": "Copyright (C) 2001-2005 by Vinay Sajip. All Rights Reserved. See LICENSE for license."
          }
        }
      ],
      "purl": "pkg:pypi/logging@0.4.9.6",
      "modified": false
    },
    {
      "type": "library",
      "publisher": "Anthon van der Neut",
      "name": "ruamel.yaml",
      "version": "0.17.21",
      "description": "ruamel.yaml is a YAML parser/emitter that supports roundtrip preservation of comments, seq/map flow style, and map key order",
      "hashes": [
        {
          "alg": "MD5",
          "content": "13ba8ef4e0f778b9b721a48fb52688ed"
        },
        {
          "alg": "SHA-256",
          "content": "742b35d3d665023981bd6d16b3d24248ce5df75fdb4e2924e93a05c1f8b61ca7"
        }
      ],
      "licenses": [
        {
          "license": {
            "name": "MIT license"
          }
        }
      ],
      "purl": "pkg:pypi/ruamel.yaml@0.17.21",
      "modified": false
    }
  ],
  "metadata": {
    "authors": [
      {
        "name": "Fortress Information Security",
        "email": "sales@fortressinfosec.com",
        "phone": "1-407-573-6800"
      }
    ],
    "tools": [
      {
        "vendor": "Fortress Information Security",
        "name": "GitHub Extractor",
        "version": "1.15.1"
      }
    ],
    "timestamp": "2022-06-28T22:22:12Z",
    "component": {
      "type": "application",
      "name": "Cloudbox",
      "version": "1.4.5",
      "group": "Cloudbox",
      "externalReferences": [
        {
          "url": "https://github.com/Cloudbox/Cloudbox.git",
          "type": "distribution"
        }
      ]
    }
  }
}
