{
  "bomFormat": "CycloneDX",
  "specVersion": "1.3",
  "version": 2,
  "metadata": {
    "tools": [
      {
        "vendor": "cyclonedx",
        "name": "cyclonedx-php-composer",
        "version": "3.10.0"
      },
      {
        "vendor": "AppThreat",
        "name": "cdxgen",
        "version": "3.0.10"
      },
      {
        "vendor": "Fortress Information Security",
        "name": "Github Extractor",
        "version": "1.15.1"
      }
    ],
    "authors": [
      {
        "name": "Fortress Information Security",
        "email": "sales@fortressinfosec.com",
        "phone": "1-407-573-6800"
      }
    ],
    "timestamp": "2022-07-26T23:37:09Z",
    "component": {
      "type": "application",
      "name": "installers",
      "version": "v2.1.1",
      "group": "composer",
      "externalReferences": [
        {
          "url": "https://github.com/composer/installers.git",
          "type": "distribution"
        },
        {
          "type": "website",
          "url": "null",
          "comment": "As set via `homepage` in Github API"
        }
      ]
    }
  },
  "components": [
    {
      "type": "library",
      "bom-ref": "pkg:composer/composer/ca-bundle@1.3.1",
      "group": "composer",
      "name": "ca-bundle",
      "version": "1.3.1",
      "description": "Lets you find a path to the system CA bundle, and includes a fallback to the Mozilla CA bundle.",
      "licenses": [
        {
          "license": {
            "id": "MIT"
          }
        }
      ],
      "purl": "pkg:composer/composer/ca-bundle@1.3.1",
      "externalReferences": [
        {
          "url": "https://github.com/composer/ca-bundle.git",
          "type": "distribution",
          "comment": "As detected by composer's `getSourceUrls()` (type=git & reference=4c679186f2aca4ab6a0f1b0b9cf9252decb44d0b)"
        },
        {
          "url": "https://api.github.com/repos/composer/ca-bundle/zipball/4c679186f2aca4ab6a0f1b0b9cf9252decb44d0b",
          "type": "distribution",
          "comment": "As detected by composer's `getDistUrls()` (type=zip & reference=4c679186f2aca4ab6a0f1b0b9cf9252decb44d0b & sha1=UNDEFINED)"
        },
        {
          "url": "irc://irc.freenode.org/composer",
          "type": "chat",
          "comment": "As set via `support.irc` in composer package definition."
        },
        {
          "url": "https://github.com/composer/ca-bundle/issues",
          "type": "issue-tracker",
          "comment": "As set via `support.issues` in composer package definition."
        },
        {
          "url": "https://github.com/composer/ca-bundle/tree/1.3.1",
          "type": "distribution",
          "comment": "As set via `support.source` in composer package definition."
        },
        {
          "url": "https://packagist.com",
          "type": "other",
          "comment": "As set via `funding` in composer package definition. (type=custom)"
        },
        {
          "url": "https://github.com/composer",
          "type": "other",
          "comment": "As set via `funding` in composer package definition. (type=github)"
        },
        {
          "url": "https://tidelift.com/funding/github/packagist/composer/composer",
          "type": "other",
          "comment": "As set via `funding` in composer package definition. (type=tidelift)"
        }
      ]
    },
    {
      "type": "library",
      "bom-ref": "pkg:composer/composer/composer@2.3.5",
      "group": "composer",
      "name": "composer",
      "version": "2.3.5",
      "description": "Composer helps you declare, manage and install dependencies of PHP projects. It ensures you have the right stack everywhere.",
      "licenses": [
        {
          "license": {
            "id": "MIT"
          }
        }
      ],
      "purl": "pkg:composer/composer/composer@2.3.5",
      "externalReferences": [
        {
          "url": "https://github.com/composer/composer.git",
          "type": "distribution",
          "comment": "As detected by composer's `getSourceUrls()` (type=git & reference=50c47b1f907cfcdb8f072b88164d22b527557ae1)"
        },
        {
          "url": "https://api.github.com/repos/composer/composer/zipball/50c47b1f907cfcdb8f072b88164d22b527557ae1",
          "type": "distribution",
          "comment": "As detected by composer's `getDistUrls()` (type=zip & reference=50c47b1f907cfcdb8f072b88164d22b527557ae1 & sha1=UNDEFINED)"
        },
        {
          "url": "https://getcomposer.org/",
          "type": "website",
          "comment": "As set via `homepage` in composer package definition."
        },
        {
          "url": "ircs://irc.libera.chat:6697/composer",
          "type": "chat",
          "comment": "As set via `support.irc` in composer package definition."
        },
        {
          "url": "https://github.com/composer/composer/issues",
          "type": "issue-tracker",
          "comment": "As set via `support.issues` in composer package definition."
        },
        {
          "url": "https://github.com/composer/composer/tree/2.3.5",
          "type": "distribution",
          "comment": "As set via `support.source` in composer package definition."
        },
        {
          "url": "https://packagist.com",
          "type": "other",
          "comment": "As set via `funding` in composer package definition. (type=custom)"
        },
        {
          "url": "https://github.com/composer",
          "type": "other",
          "comment": "As set via `funding` in composer package definition. (type=github)"
        },
        {
          "url": "https://tidelift.com/funding/github/packagist/composer/composer",
          "type": "other",
          "comment": "As set via `funding` in composer package definition. (type=tidelift)"
        }
      ]
    },
    {
      "type": "library",
      "bom-ref": "pkg:composer/composer/metadata-minifier@1.0.0",
      "group": "composer",
      "name": "metadata-minifier",
      "version": "1.0.0",
      "description": "Small utility library that handles metadata minification and expansion.",
      "licenses": [
        {
          "license": {
            "id": "MIT"
          }
        }
      ],
      "purl": "pkg:composer/composer/metadata-minifier@1.0.0",
      "externalReferences": [
        {
          "url": "https://github.com/composer/metadata-minifier.git",
          "type": "distribution",
          "comment": "As detected by composer's `getSourceUrls()` (type=git & reference=c549d23829536f0d0e984aaabbf02af91f443207)"
        },
        {
          "url": "https://api.github.com/repos/composer/metadata-minifier/zipball/c549d23829536f0d0e984aaabbf02af91f443207",
          "type": "distribution",
          "comment": "As detected by composer's `getDistUrls()` (type=zip & reference=c549d23829536f0d0e984aaabbf02af91f443207 & sha1=UNDEFINED)"
        },
        {
          "url": "https://github.com/composer/metadata-minifier/issues",
          "type": "issue-tracker",
          "comment": "As set via `support.issues` in composer package definition."
        },
        {
          "url": "https://github.com/composer/metadata-minifier/tree/1.0.0",
          "type": "distribution",
          "comment": "As set via `support.source` in composer package definition."
        },
        {
          "url": "https://packagist.com",
          "type": "other",
          "comment": "As set via `funding` in composer package definition. (type=custom)"
        },
        {
          "url": "https://github.com/composer",
          "type": "other",
          "comment": "As set via `funding` in composer package definition. (type=github)"
        },
        {
          "url": "https://tidelift.com/funding/github/packagist/composer/composer",
          "type": "other",
          "comment": "As set via `funding` in composer package definition. (type=tidelift)"
        }
      ]
    },
    {
      "type": "library",
      "bom-ref": "pkg:composer/composer/pcre@3.0.0",
      "group": "composer",
      "name": "pcre",
      "version": "3.0.0",
      "description": "PCRE wrapping library that offers type-safe preg_* replacements.",
      "licenses": [
        {
          "license": {
            "id": "MIT"
          }
        }
      ],
      "purl": "pkg:composer/composer/pcre@3.0.0",
      "externalReferences": [
        {
          "url": "https://github.com/composer/pcre.git",
          "type": "distribution",
          "comment": "As detected by composer's `getSourceUrls()` (type=git & reference=e300eb6c535192decd27a85bc72a9290f0d6b3bd)"
        },
        {
          "url": "https://api.github.com/repos/composer/pcre/zipball/e300eb6c535192decd27a85bc72a9290f0d6b3bd",
          "type": "distribution",
          "comment": "As detected by composer's `getDistUrls()` (type=zip & reference=e300eb6c535192decd27a85bc72a9290f0d6b3bd & sha1=UNDEFINED)"
        },
        {
          "url": "https://github.com/composer/pcre/issues",
          "type": "issue-tracker",
          "comment": "As set via `support.issues` in composer package definition."
        },
        {
          "url": "https://github.com/composer/pcre/tree/3.0.0",
          "type": "distribution",
          "comment": "As set via `support.source` in composer package definition."
        },
        {
          "url": "https://packagist.com",
          "type": "other",
          "comment": "As set via `funding` in composer package definition. (type=custom)"
        },
        {
          "url": "https://github.com/composer",
          "type": "other",
          "comment": "As set via `funding` in composer package definition. (type=github)"
        },
        {
          "url": "https://tidelift.com/funding/github/packagist/composer/composer",
          "type": "other",
          "comment": "As set via `funding` in composer package definition. (type=tidelift)"
        }
      ]
    },
    {
      "type": "library",
      "bom-ref": "pkg:composer/composer/semver@3.3.2",
      "group": "composer",
      "name": "semver",
      "version": "3.3.2",
      "description": "Semver library that offers utilities, version constraint parsing and validation.",
      "licenses": [
        {
          "license": {
            "id": "MIT"
          }
        }
      ],
      "purl": "pkg:composer/composer/semver@3.3.2",
      "externalReferences": [
        {
          "url": "https://github.com/composer/semver.git",
          "type": "distribution",
          "comment": "As detected by composer's `getSourceUrls()` (type=git & reference=3953f23262f2bff1919fc82183ad9acb13ff62c9)"
        },
        {
          "url": "https://api.github.com/repos/composer/semver/zipball/3953f23262f2bff1919fc82183ad9acb13ff62c9",
          "type": "distribution",
          "comment": "As detected by composer's `getDistUrls()` (type=zip & reference=3953f23262f2bff1919fc82183ad9acb13ff62c9 & sha1=UNDEFINED)"
        },
        {
          "url": "irc://irc.freenode.org/composer",
          "type": "chat",
          "comment": "As set via `support.irc` in composer package definition."
        },
        {
          "url": "https://github.com/composer/semver/issues",
          "type": "issue-tracker",
          "comment": "As set via `support.issues` in composer package definition."
        },
        {
          "url": "https://github.com/composer/semver/tree/3.3.2",
          "type": "distribution",
          "comment": "As set via `support.source` in composer package definition."
        },
        {
          "url": "https://packagist.com",
          "type": "other",
          "comment": "As set via `funding` in composer package definition. (type=custom)"
        },
        {
          "url": "https://github.com/composer",
          "type": "other",
          "comment": "As set via `funding` in composer package definition. (type=github)"
        },
        {
          "url": "https://tidelift.com/funding/github/packagist/composer/composer",
          "type": "other",
          "comment": "As set via `funding` in composer package definition. (type=tidelift)"
        }
      ]
    },
    {
      "type": "library",
      "bom-ref": "pkg:composer/composer/spdx-licenses@1.5.6",
      "group": "composer",
      "name": "spdx-licenses",
      "version": "1.5.6",
      "description": "SPDX licenses list and validation library.",
      "licenses": [
        {
          "license": {
            "id": "MIT"
          }
        }
      ],
      "purl": "pkg:composer/composer/spdx-licenses@1.5.6",
      "externalReferences": [
        {
          "url": "https://github.com/composer/spdx-licenses.git",
          "type": "distribution",
          "comment": "As detected by composer's `getSourceUrls()` (type=git & reference=a30d487169d799745ca7280bc90fdfa693536901)"
        },
        {
          "url": "https://api.github.com/repos/composer/spdx-licenses/zipball/a30d487169d799745ca7280bc90fdfa693536901",
          "type": "distribution",
          "comment": "As detected by composer's `getDistUrls()` (type=zip & reference=a30d487169d799745ca7280bc90fdfa693536901 & sha1=UNDEFINED)"
        },
        {
          "url": "irc://irc.freenode.org/composer",
          "type": "chat",
          "comment": "As set via `support.irc` in composer package definition."
        },
        {
          "url": "https://github.com/composer/spdx-licenses/issues",
          "type": "issue-tracker",
          "comment": "As set via `support.issues` in composer package definition."
        },
        {
          "url": "https://github.com/composer/spdx-licenses/tree/1.5.6",
          "type": "distribution",
          "comment": "As set via `support.source` in composer package definition."
        },
        {
          "url": "https://packagist.com",
          "type": "other",
          "comment": "As set via `funding` in composer package definition. (type=custom)"
        },
        {
          "url": "https://github.com/composer",
          "type": "other",
          "comment": "As set via `funding` in composer package definition. (type=github)"
        },
        {
          "url": "https://tidelift.com/funding/github/packagist/composer/composer",
          "type": "other",
          "comment": "As set via `funding` in composer package definition. (type=tidelift)"
        }
      ]
    },
    {
      "type": "library",
      "bom-ref": "pkg:composer/composer/xdebug-handler@3.0.3",
      "group": "composer",
      "name": "xdebug-handler",
      "version": "3.0.3",
      "description": "Restarts a process without Xdebug.",
      "licenses": [
        {
          "license": {
            "id": "MIT"
          }
        }
      ],
      "purl": "pkg:composer/composer/xdebug-handler@3.0.3",
      "externalReferences": [
        {
          "url": "https://github.com/composer/xdebug-handler.git",
          "type": "distribution",
          "comment": "As detected by composer's `getSourceUrls()` (type=git & reference=ced299686f41dce890debac69273b47ffe98a40c)"
        },
        {
          "url": "https://api.github.com/repos/composer/xdebug-handler/zipball/ced299686f41dce890debac69273b47ffe98a40c",
          "type": "distribution",
          "comment": "As detected by composer's `getDistUrls()` (type=zip & reference=ced299686f41dce890debac69273b47ffe98a40c & sha1=UNDEFINED)"
        },
        {
          "url": "irc://irc.freenode.org/composer",
          "type": "chat",
          "comment": "As set via `support.irc` in composer package definition."
        },
        {
          "url": "https://github.com/composer/xdebug-handler/issues",
          "type": "issue-tracker",
          "comment": "As set via `support.issues` in composer package definition."
        },
        {
          "url": "https://github.com/composer/xdebug-handler/tree/3.0.3",
          "type": "distribution",
          "comment": "As set via `support.source` in composer package definition."
        },
        {
          "url": "https://packagist.com",
          "type": "other",
          "comment": "As set via `funding` in composer package definition. (type=custom)"
        },
        {
          "url": "https://github.com/composer",
          "type": "other",
          "comment": "As set via `funding` in composer package definition. (type=github)"
        },
        {
          "url": "https://tidelift.com/funding/github/packagist/composer/composer",
          "type": "other",
          "comment": "As set via `funding` in composer package definition. (type=tidelift)"
        }
      ]
    },
    {
      "type": "library",
      "bom-ref": "pkg:composer/cyclonedx/cyclonedx-library@1.5.0",
      "group": "cyclonedx",
      "name": "cyclonedx-library",
      "version": "1.5.0",
      "description": "Work with CycloneDX Software Bill-of-Materials (SBOM)",
      "licenses": [
        {
          "license": {
            "id": "Apache-2.0"
          }
        }
      ],
      "purl": "pkg:composer/cyclonedx/cyclonedx-library@1.5.0",
      "externalReferences": [
        {
          "url": "https://github.com/CycloneDX/cyclonedx-php-library.git",
          "type": "distribution",
          "comment": "As detected by composer's `getSourceUrls()` (type=git & reference=f41632e1d47001700ef93fa899e6dc49779aa784)"
        },
        {
          "url": "https://api.github.com/repos/CycloneDX/cyclonedx-php-library/zipball/f41632e1d47001700ef93fa899e6dc49779aa784",
          "type": "distribution",
          "comment": "As detected by composer's `getDistUrls()` (type=zip & reference=f41632e1d47001700ef93fa899e6dc49779aa784 & sha1=UNDEFINED)"
        },
        {
          "url": "https://github.com/CycloneDX/cyclonedx-php-library/",
          "type": "website",
          "comment": "As set via `homepage` in composer package definition."
        },
        {
          "url": "https://github.com/CycloneDX/cyclonedx-php-library/issues",
          "type": "issue-tracker",
          "comment": "As set via `support.issues` in composer package definition."
        },
        {
          "url": "https://github.com/CycloneDX/cyclonedx-php-library/tree/v1.5.0",
          "type": "distribution",
          "comment": "As set via `support.source` in composer package definition."
        }
      ]
    },
    {
      "type": "application",
      "bom-ref": "pkg:composer/cyclonedx/cyclonedx-php-composer@3.10.0",
      "group": "cyclonedx",
      "name": "cyclonedx-php-composer",
      "version": "3.10.0",
      "description": "Creates CycloneDX Software Bill-of-Materials (SBOM) from PHP Composer projects",
      "licenses": [
        {
          "license": {
            "id": "Apache-2.0"
          }
        }
      ],
      "purl": "pkg:composer/cyclonedx/cyclonedx-php-composer@3.10.0",
      "externalReferences": [
        {
          "url": "https://github.com/CycloneDX/cyclonedx-php-composer.git",
          "type": "distribution",
          "comment": "As detected by composer's `getSourceUrls()` (type=git & reference=341792df609deab6131ffa65f2f3b273f2e6128a)"
        },
        {
          "url": "https://api.github.com/repos/CycloneDX/cyclonedx-php-composer/zipball/341792df609deab6131ffa65f2f3b273f2e6128a",
          "type": "distribution",
          "comment": "As detected by composer's `getDistUrls()` (type=zip & reference=341792df609deab6131ffa65f2f3b273f2e6128a & sha1=UNDEFINED)"
        },
        {
          "url": "https://github.com/CycloneDX/cyclonedx-php-composer/",
          "type": "website",
          "comment": "As set via `homepage` in composer package definition."
        },
        {
          "url": "https://github.com/CycloneDX/cyclonedx-php-composer/issues",
          "type": "issue-tracker",
          "comment": "As set via `support.issues` in composer package definition."
        },
        {
          "url": "https://github.com/CycloneDX/cyclonedx-php-composer/tree/v3.10.0",
          "type": "distribution",
          "comment": "As set via `support.source` in composer package definition."
        }
      ]
    },
    {
      "type": "library",
      "bom-ref": "pkg:composer/justinrainbow/json-schema@5.2.12",
      "group": "justinrainbow",
      "name": "json-schema",
      "version": "5.2.12",
      "description": "A library to validate a json schema.",
      "licenses": [
        {
          "license": {
            "id": "MIT"
          }
        }
      ],
      "purl": "pkg:composer/justinrainbow/json-schema@5.2.12",
      "externalReferences": [
        {
          "url": "https://github.com/justinrainbow/json-schema.git",
          "type": "distribution",
          "comment": "As detected by composer's `getSourceUrls()` (type=git & reference=ad87d5a5ca981228e0e205c2bc7dfb8e24559b60)"
        },
        {
          "url": "https://api.github.com/repos/justinrainbow/json-schema/zipball/ad87d5a5ca981228e0e205c2bc7dfb8e24559b60",
          "type": "distribution",
          "comment": "As detected by composer's `getDistUrls()` (type=zip & reference=ad87d5a5ca981228e0e205c2bc7dfb8e24559b60 & sha1=UNDEFINED)"
        },
        {
          "url": "https://github.com/justinrainbow/json-schema",
          "type": "website",
          "comment": "As set via `homepage` in composer package definition."
        },
        {
          "url": "https://github.com/justinrainbow/json-schema/issues",
          "type": "issue-tracker",
          "comment": "As set via `support.issues` in composer package definition."
        },
        {
          "url": "https://github.com/justinrainbow/json-schema/tree/5.2.12",
          "type": "distribution",
          "comment": "As set via `support.source` in composer package definition."
        }
      ]
    },
    {
      "type": "library",
      "bom-ref": "pkg:composer/package-url/packageurl-php@1.0.4",
      "group": "package-url",
      "name": "packageurl-php",
      "version": "1.0.4",
      "description": "A parser and builder based on the package url spec.",
      "licenses": [
        {
          "license": {
            "id": "MIT"
          }
        }
      ],
      "purl": "pkg:composer/package-url/packageurl-php@1.0.4",
      "externalReferences": [
        {
          "url": "https://github.com/package-url/packageurl-php.git",
          "type": "distribution",
          "comment": "As detected by composer's `getSourceUrls()` (type=git & reference=c45953babed516d27a0cf6c1a2d9f7e883ce214f)"
        },
        {
          "url": "https://api.github.com/repos/package-url/packageurl-php/zipball/c45953babed516d27a0cf6c1a2d9f7e883ce214f",
          "type": "distribution",
          "comment": "As detected by composer's `getDistUrls()` (type=zip & reference=c45953babed516d27a0cf6c1a2d9f7e883ce214f & sha1=UNDEFINED)"
        },
        {
          "url": "https://github.com/package-url/packageurl-php",
          "type": "website",
          "comment": "As set via `homepage` in composer package definition."
        },
        {
          "url": "https://github.com/package-url/packageurl-php/issues",
          "type": "issue-tracker",
          "comment": "As set via `support.issues` in composer package definition."
        },
        {
          "url": "https://github.com/package-url/packageurl-php/tree/1.0.4",
          "type": "distribution",
          "comment": "As set via `support.source` in composer package definition."
        }
      ]
    },
    {
      "type": "library",
      "bom-ref": "pkg:composer/phplang/scope-exit@1.0.0",
      "group": "phplang",
      "name": "scope-exit",
      "version": "1.0.0",
      "description": "Emulation of SCOPE_EXIT construct from C++",
      "licenses": [
        {
          "license": {
            "name": "BSD"
          }
        }
      ],
      "purl": "pkg:composer/phplang/scope-exit@1.0.0",
      "externalReferences": [
        {
          "url": "https://github.com/phplang/scope-exit.git",
          "type": "distribution",
          "comment": "As detected by composer's `getSourceUrls()` (type=git & reference=239b73abe89f9414aa85a7ca075ec9445629192b)"
        },
        {
          "url": "https://api.github.com/repos/phplang/scope-exit/zipball/239b73abe89f9414aa85a7ca075ec9445629192b",
          "type": "distribution",
          "comment": "As detected by composer's `getDistUrls()` (type=zip & reference=239b73abe89f9414aa85a7ca075ec9445629192b & sha1=UNDEFINED)"
        },
        {
          "url": "https://github.com/phplang/scope-exit",
          "type": "website",
          "comment": "As set via `homepage` in composer package definition."
        },
        {
          "url": "https://github.com/phplang/scope-exit/issues",
          "type": "issue-tracker",
          "comment": "As set via `support.issues` in composer package definition."
        },
        {
          "url": "https://github.com/phplang/scope-exit/tree/master",
          "type": "distribution",
          "comment": "As set via `support.source` in composer package definition."
        }
      ]
    },
    {
      "type": "library",
      "bom-ref": "pkg:composer/phpstan/phpstan@0.12.99",
      "group": "phpstan",
      "name": "phpstan",
      "version": "0.12.99",
      "description": "PHPStan - PHP Static Analysis Tool",
      "licenses": [
        {
          "license": {
            "id": "MIT"
          }
        }
      ],
      "purl": "pkg:composer/phpstan/phpstan@0.12.99",
      "externalReferences": [
        {
          "url": "https://github.com/phpstan/phpstan.git",
          "type": "distribution",
          "comment": "As detected by composer's `getSourceUrls()` (type=git & reference=b4d40f1d759942f523be267a1bab6884f46ca3f7)"
        },
        {
          "url": "https://api.github.com/repos/phpstan/phpstan/zipball/b4d40f1d759942f523be267a1bab6884f46ca3f7",
          "type": "distribution",
          "comment": "As detected by composer's `getDistUrls()` (type=zip & reference=b4d40f1d759942f523be267a1bab6884f46ca3f7 & sha1=UNDEFINED)"
        },
        {
          "url": "https://github.com/phpstan/phpstan/issues",
          "type": "issue-tracker",
          "comment": "As set via `support.issues` in composer package definition."
        },
        {
          "url": "https://github.com/phpstan/phpstan/tree/0.12.99",
          "type": "distribution",
          "comment": "As set via `support.source` in composer package definition."
        },
        {
          "url": "https://github.com/ondrejmirtes",
          "type": "other",
          "comment": "As set via `funding` in composer package definition. (type=github)"
        },
        {
          "url": "https://github.com/phpstan",
          "type": "other",
          "comment": "As set via `funding` in composer package definition. (type=github)"
        },
        {
          "url": "https://www.patreon.com/phpstan",
          "type": "other",
          "comment": "As set via `funding` in composer package definition. (type=patreon)"
        },
        {
          "url": "https://tidelift.com/funding/github/packagist/phpstan/phpstan",
          "type": "other",
          "comment": "As set via `funding` in composer package definition. (type=tidelift)"
        }
      ]
    },
    {
      "type": "library",
      "bom-ref": "pkg:composer/phpstan/phpstan-phpunit@0.12.22",
      "group": "phpstan",
      "name": "phpstan-phpunit",
      "version": "0.12.22",
      "description": "PHPUnit extensions and rules for PHPStan",
      "licenses": [
        {
          "license": {
            "id": "MIT"
          }
        }
      ],
      "purl": "pkg:composer/phpstan/phpstan-phpunit@0.12.22",
      "externalReferences": [
        {
          "url": "https://github.com/phpstan/phpstan-phpunit.git",
          "type": "distribution",
          "comment": "As detected by composer's `getSourceUrls()` (type=git & reference=7c01ef93bf128b4ac8bdad38c54b2a4fd6b0b3cc)"
        },
        {
          "url": "https://api.github.com/repos/phpstan/phpstan-phpunit/zipball/7c01ef93bf128b4ac8bdad38c54b2a4fd6b0b3cc",
          "type": "distribution",
          "comment": "As detected by composer's `getDistUrls()` (type=zip & reference=7c01ef93bf128b4ac8bdad38c54b2a4fd6b0b3cc & sha1=UNDEFINED)"
        },
        {
          "url": "https://github.com/phpstan/phpstan-phpunit/issues",
          "type": "issue-tracker",
          "comment": "As set via `support.issues` in composer package definition."
        },
        {
          "url": "https://github.com/phpstan/phpstan-phpunit/tree/0.12.22",
          "type": "distribution",
          "comment": "As set via `support.source` in composer package definition."
        }
      ]
    },
    {
      "type": "library",
      "bom-ref": "pkg:composer/psr/container@2.0.2",
      "group": "psr",
      "name": "container",
      "version": "2.0.2",
      "description": "Common Container Interface (PHP FIG PSR-11)",
      "licenses": [
        {
          "license": {
            "id": "MIT"
          }
        }
      ],
      "purl": "pkg:composer/psr/container@2.0.2",
      "externalReferences": [
        {
          "url": "https://github.com/php-fig/container.git",
          "type": "distribution",
          "comment": "As detected by composer's `getSourceUrls()` (type=git & reference=c71ecc56dfe541dbd90c5360474fbc405f8d5963)"
        },
        {
          "url": "https://api.github.com/repos/php-fig/container/zipball/c71ecc56dfe541dbd90c5360474fbc405f8d5963",
          "type": "distribution",
          "comment": "As detected by composer's `getDistUrls()` (type=zip & reference=c71ecc56dfe541dbd90c5360474fbc405f8d5963 & sha1=UNDEFINED)"
        },
        {
          "url": "https://github.com/php-fig/container",
          "type": "website",
          "comment": "As set via `homepage` in composer package definition."
        },
        {
          "url": "https://github.com/php-fig/container/issues",
          "type": "issue-tracker",
          "comment": "As set via `support.issues` in composer package definition."
        },
        {
          "url": "https://github.com/php-fig/container/tree/2.0.2",
          "type": "distribution",
          "comment": "As set via `support.source` in composer package definition."
        }
      ]
    },
    {
      "type": "library",
      "bom-ref": "pkg:composer/psr/log@3.0.0",
      "group": "psr",
      "name": "log",
      "version": "3.0.0",
      "description": "Common interface for logging libraries",
      "licenses": [
        {
          "license": {
            "id": "MIT"
          }
        }
      ],
      "purl": "pkg:composer/psr/log@3.0.0",
      "externalReferences": [
        {
          "url": "https://github.com/php-fig/log.git",
          "type": "distribution",
          "comment": "As detected by composer's `getSourceUrls()` (type=git & reference=fe5ea303b0887d5caefd3d431c3e61ad47037001)"
        },
        {
          "url": "https://api.github.com/repos/php-fig/log/zipball/fe5ea303b0887d5caefd3d431c3e61ad47037001",
          "type": "distribution",
          "comment": "As detected by composer's `getDistUrls()` (type=zip & reference=fe5ea303b0887d5caefd3d431c3e61ad47037001 & sha1=UNDEFINED)"
        },
        {
          "url": "https://github.com/php-fig/log",
          "type": "website",
          "comment": "As set via `homepage` in composer package definition."
        },
        {
          "url": "https://github.com/php-fig/log/tree/3.0.0",
          "type": "distribution",
          "comment": "As set via `support.source` in composer package definition."
        }
      ]
    },
    {
      "type": "library",
      "bom-ref": "pkg:composer/react/promise@2.9.0",
      "group": "react",
      "name": "promise",
      "version": "2.9.0",
      "description": "A lightweight implementation of CommonJS Promises/A for PHP",
      "licenses": [
        {
          "license": {
            "id": "MIT"
          }
        }
      ],
      "purl": "pkg:composer/react/promise@2.9.0",
      "externalReferences": [
        {
          "url": "https://github.com/reactphp/promise.git",
          "type": "distribution",
          "comment": "As detected by composer's `getSourceUrls()` (type=git & reference=234f8fd1023c9158e2314fa9d7d0e6a83db42910)"
        },
        {
          "url": "https://api.github.com/repos/reactphp/promise/zipball/234f8fd1023c9158e2314fa9d7d0e6a83db42910",
          "type": "distribution",
          "comment": "As detected by composer's `getDistUrls()` (type=zip & reference=234f8fd1023c9158e2314fa9d7d0e6a83db42910 & sha1=UNDEFINED)"
        },
        {
          "url": "https://github.com/reactphp/promise/issues",
          "type": "issue-tracker",
          "comment": "As set via `support.issues` in composer package definition."
        },
        {
          "url": "https://github.com/reactphp/promise/tree/v2.9.0",
          "type": "distribution",
          "comment": "As set via `support.source` in composer package definition."
        },
        {
          "url": "https://github.com/WyriHaximus",
          "type": "other",
          "comment": "As set via `funding` in composer package definition. (type=github)"
        },
        {
          "url": "https://github.com/clue",
          "type": "other",
          "comment": "As set via `funding` in composer package definition. (type=github)"
        }
      ]
    },
    {
      "type": "library",
      "bom-ref": "pkg:composer/seld/jsonlint@1.9.0",
      "group": "seld",
      "name": "jsonlint",
      "version": "1.9.0",
      "description": "JSON Linter",
      "licenses": [
        {
          "license": {
            "id": "MIT"
          }
        }
      ],
      "purl": "pkg:composer/seld/jsonlint@1.9.0",
      "externalReferences": [
        {
          "url": "https://github.com/Seldaek/jsonlint.git",
          "type": "distribution",
          "comment": "As detected by composer's `getSourceUrls()` (type=git & reference=4211420d25eba80712bff236a98960ef68b866b7)"
        },
        {
          "url": "https://api.github.com/repos/Seldaek/jsonlint/zipball/4211420d25eba80712bff236a98960ef68b866b7",
          "type": "distribution",
          "comment": "As detected by composer's `getDistUrls()` (type=zip & reference=4211420d25eba80712bff236a98960ef68b866b7 & sha1=UNDEFINED)"
        },
        {
          "url": "https://github.com/Seldaek/jsonlint/issues",
          "type": "issue-tracker",
          "comment": "As set via `support.issues` in composer package definition."
        },
        {
          "url": "https://github.com/Seldaek/jsonlint/tree/1.9.0",
          "type": "distribution",
          "comment": "As set via `support.source` in composer package definition."
        },
        {
          "url": "https://github.com/Seldaek",
          "type": "other",
          "comment": "As set via `funding` in composer package definition. (type=github)"
        },
        {
          "url": "https://tidelift.com/funding/github/packagist/seld/jsonlint",
          "type": "other",
          "comment": "As set via `funding` in composer package definition. (type=tidelift)"
        }
      ]
    },
    {
      "type": "library",
      "bom-ref": "pkg:composer/seld/phar-utils@1.2.0",
      "group": "seld",
      "name": "phar-utils",
      "version": "1.2.0",
      "description": "PHAR file format utilities, for when PHP phars you up",
      "licenses": [
        {
          "license": {
            "id": "MIT"
          }
        }
      ],
      "purl": "pkg:composer/seld/phar-utils@1.2.0",
      "externalReferences": [
        {
          "url": "https://github.com/Seldaek/phar-utils.git",
          "type": "distribution",
          "comment": "As detected by composer's `getSourceUrls()` (type=git & reference=9f3452c93ff423469c0d56450431562ca423dcee)"
        },
        {
          "url": "https://api.github.com/repos/Seldaek/phar-utils/zipball/9f3452c93ff423469c0d56450431562ca423dcee",
          "type": "distribution",
          "comment": "As detected by composer's `getDistUrls()` (type=zip & reference=9f3452c93ff423469c0d56450431562ca423dcee & sha1=UNDEFINED)"
        },
        {
          "url": "https://github.com/Seldaek/phar-utils/issues",
          "type": "issue-tracker",
          "comment": "As set via `support.issues` in composer package definition."
        },
        {
          "url": "https://github.com/Seldaek/phar-utils/tree/1.2.0",
          "type": "distribution",
          "comment": "As set via `support.source` in composer package definition."
        }
      ]
    },
    {
      "type": "library",
      "bom-ref": "pkg:composer/swaggest/json-diff@3.8.3",
      "group": "swaggest",
      "name": "json-diff",
      "version": "3.8.3",
      "description": "JSON diff/rearrange/patch/pointer library for PHP",
      "licenses": [
        {
          "license": {
            "id": "MIT"
          }
        }
      ],
      "purl": "pkg:composer/swaggest/json-diff@3.8.3",
      "externalReferences": [
        {
          "url": "https://github.com/swaggest/json-diff.git",
          "type": "distribution",
          "comment": "As detected by composer's `getSourceUrls()` (type=git & reference=bb3e3b4e9d842bb2e48f31ea568d0459968d1d42)"
        },
        {
          "url": "https://api.github.com/repos/swaggest/json-diff/zipball/bb3e3b4e9d842bb2e48f31ea568d0459968d1d42",
          "type": "distribution",
          "comment": "As detected by composer's `getDistUrls()` (type=zip & reference=bb3e3b4e9d842bb2e48f31ea568d0459968d1d42 & sha1=UNDEFINED)"
        },
        {
          "url": "https://github.com/swaggest/json-diff/issues",
          "type": "issue-tracker",
          "comment": "As set via `support.issues` in composer package definition."
        },
        {
          "url": "https://github.com/swaggest/json-diff/tree/v3.8.3",
          "type": "distribution",
          "comment": "As set via `support.source` in composer package definition."
        }
      ]
    },
    {
      "type": "library",
      "bom-ref": "pkg:composer/swaggest/json-schema@0.12.39",
      "group": "swaggest",
      "name": "json-schema",
      "version": "0.12.39",
      "description": "High definition PHP structures with JSON-schema based validation",
      "licenses": [
        {
          "license": {
            "id": "MIT"
          }
        }
      ],
      "purl": "pkg:composer/swaggest/json-schema@0.12.39",
      "externalReferences": [
        {
          "url": "https://github.com/swaggest/php-json-schema.git",
          "type": "distribution",
          "comment": "As detected by composer's `getSourceUrls()` (type=git & reference=193ba39cce1ffa2d55ddd5445315e945a63298a2)"
        },
        {
          "url": "https://api.github.com/repos/swaggest/php-json-schema/zipball/193ba39cce1ffa2d55ddd5445315e945a63298a2",
          "type": "distribution",
          "comment": "As detected by composer's `getDistUrls()` (type=zip & reference=193ba39cce1ffa2d55ddd5445315e945a63298a2 & sha1=UNDEFINED)"
        },
        {
          "url": "mailto:vearutop@gmail.com",
          "type": "other",
          "comment": "As set via `support.email` in composer package definition."
        },
        {
          "url": "https://github.com/swaggest/php-json-schema/issues",
          "type": "issue-tracker",
          "comment": "As set via `support.issues` in composer package definition."
        },
        {
          "url": "https://github.com/swaggest/php-json-schema/tree/v0.12.39",
          "type": "distribution",
          "comment": "As set via `support.source` in composer package definition."
        }
      ]
    },
    {
      "type": "library",
      "bom-ref": "pkg:composer/symfony/console@6.0.8",
      "group": "symfony",
      "name": "console",
      "version": "6.0.8",
      "description": "Eases the creation of beautiful and testable command line interfaces",
      "licenses": [
        {
          "license": {
            "id": "MIT"
          }
        }
      ],
      "purl": "pkg:composer/symfony/console@6.0.8",
      "externalReferences": [
        {
          "url": "https://github.com/symfony/console.git",
          "type": "distribution",
          "comment": "As detected by composer's `getSourceUrls()` (type=git & reference=0d00aa289215353aa8746a31d101f8e60826285c)"
        },
        {
          "url": "https://api.github.com/repos/symfony/console/zipball/0d00aa289215353aa8746a31d101f8e60826285c",
          "type": "distribution",
          "comment": "As detected by composer's `getDistUrls()` (type=zip & reference=0d00aa289215353aa8746a31d101f8e60826285c & sha1=UNDEFINED)"
        },
        {
          "url": "https://symfony.com",
          "type": "website",
          "comment": "As set via `homepage` in composer package definition."
        },
        {
          "url": "https://github.com/symfony/console/tree/v6.0.8",
          "type": "distribution",
          "comment": "As set via `support.source` in composer package definition."
        },
        {
          "url": "https://symfony.com/sponsor",
          "type": "other",
          "comment": "As set via `funding` in composer package definition. (type=custom)"
        },
        {
          "url": "https://github.com/fabpot",
          "type": "other",
          "comment": "As set via `funding` in composer package definition. (type=github)"
        },
        {
          "url": "https://tidelift.com/funding/github/packagist/symfony/symfony",
          "type": "other",
          "comment": "As set via `funding` in composer package definition. (type=tidelift)"
        }
      ]
    },
    {
      "type": "library",
      "bom-ref": "pkg:composer/symfony/deprecation-contracts@3.0.1",
      "group": "symfony",
      "name": "deprecation-contracts",
      "version": "3.0.1",
      "description": "A generic function and convention to trigger deprecation notices",
      "licenses": [
        {
          "license": {
            "id": "MIT"
          }
        }
      ],
      "purl": "pkg:composer/symfony/deprecation-contracts@3.0.1",
      "externalReferences": [
        {
          "url": "https://github.com/symfony/deprecation-contracts.git",
          "type": "distribution",
          "comment": "As detected by composer's `getSourceUrls()` (type=git & reference=26954b3d62a6c5fd0ea8a2a00c0353a14978d05c)"
        },
        {
          "url": "https://api.github.com/repos/symfony/deprecation-contracts/zipball/26954b3d62a6c5fd0ea8a2a00c0353a14978d05c",
          "type": "distribution",
          "comment": "As detected by composer's `getDistUrls()` (type=zip & reference=26954b3d62a6c5fd0ea8a2a00c0353a14978d05c & sha1=UNDEFINED)"
        },
        {
          "url": "https://symfony.com",
          "type": "website",
          "comment": "As set via `homepage` in composer package definition."
        },
        {
          "url": "https://github.com/symfony/deprecation-contracts/tree/v3.0.1",
          "type": "distribution",
          "comment": "As set via `support.source` in composer package definition."
        },
        {
          "url": "https://symfony.com/sponsor",
          "type": "other",
          "comment": "As set via `funding` in composer package definition. (type=custom)"
        },
        {
          "url": "https://github.com/fabpot",
          "type": "other",
          "comment": "As set via `funding` in composer package definition. (type=github)"
        },
        {
          "url": "https://tidelift.com/funding/github/packagist/symfony/symfony",
          "type": "other",
          "comment": "As set via `funding` in composer package definition. (type=tidelift)"
        }
      ]
    },
    {
      "type": "library",
      "bom-ref": "pkg:composer/symfony/filesystem@6.0.7",
      "group": "symfony",
      "name": "filesystem",
      "version": "6.0.7",
      "description": "Provides basic utilities for the filesystem",
      "licenses": [
        {
          "license": {
            "id": "MIT"
          }
        }
      ],
      "purl": "pkg:composer/symfony/filesystem@6.0.7",
      "externalReferences": [
        {
          "url": "https://github.com/symfony/filesystem.git",
          "type": "distribution",
          "comment": "As detected by composer's `getSourceUrls()` (type=git & reference=6c9e4c41f2c51dfde3db298594ed9cba55dbf5ff)"
        },
        {
          "url": "https://api.github.com/repos/symfony/filesystem/zipball/6c9e4c41f2c51dfde3db298594ed9cba55dbf5ff",
          "type": "distribution",
          "comment": "As detected by composer's `getDistUrls()` (type=zip & reference=6c9e4c41f2c51dfde3db298594ed9cba55dbf5ff & sha1=UNDEFINED)"
        },
        {
          "url": "https://symfony.com",
          "type": "website",
          "comment": "As set via `homepage` in composer package definition."
        },
        {
          "url": "https://github.com/symfony/filesystem/tree/v6.0.7",
          "type": "distribution",
          "comment": "As set via `support.source` in composer package definition."
        },
        {
          "url": "https://symfony.com/sponsor",
          "type": "other",
          "comment": "As set via `funding` in composer package definition. (type=custom)"
        },
        {
          "url": "https://github.com/fabpot",
          "type": "other",
          "comment": "As set via `funding` in composer package definition. (type=github)"
        },
        {
          "url": "https://tidelift.com/funding/github/packagist/symfony/symfony",
          "type": "other",
          "comment": "As set via `funding` in composer package definition. (type=tidelift)"
        }
      ]
    },
    {
      "type": "library",
      "bom-ref": "pkg:composer/symfony/finder@6.0.8",
      "group": "symfony",
      "name": "finder",
      "version": "6.0.8",
      "description": "Finds files and directories via an intuitive fluent interface",
      "licenses": [
        {
          "license": {
            "id": "MIT"
          }
        }
      ],
      "purl": "pkg:composer/symfony/finder@6.0.8",
      "externalReferences": [
        {
          "url": "https://github.com/symfony/finder.git",
          "type": "distribution",
          "comment": "As detected by composer's `getSourceUrls()` (type=git & reference=af7edab28d17caecd1f40a9219fc646ae751c21f)"
        },
        {
          "url": "https://api.github.com/repos/symfony/finder/zipball/af7edab28d17caecd1f40a9219fc646ae751c21f",
          "type": "distribution",
          "comment": "As detected by composer's `getDistUrls()` (type=zip & reference=af7edab28d17caecd1f40a9219fc646ae751c21f & sha1=UNDEFINED)"
        },
        {
          "url": "https://symfony.com",
          "type": "website",
          "comment": "As set via `homepage` in composer package definition."
        },
        {
          "url": "https://github.com/symfony/finder/tree/v6.0.8",
          "type": "distribution",
          "comment": "As set via `support.source` in composer package definition."
        },
        {
          "url": "https://symfony.com/sponsor",
          "type": "other",
          "comment": "As set via `funding` in composer package definition. (type=custom)"
        },
        {
          "url": "https://github.com/fabpot",
          "type": "other",
          "comment": "As set via `funding` in composer package definition. (type=github)"
        },
        {
          "url": "https://tidelift.com/funding/github/packagist/symfony/symfony",
          "type": "other",
          "comment": "As set via `funding` in composer package definition. (type=tidelift)"
        }
      ]
    },
    {
      "type": "library",
      "bom-ref": "pkg:composer/symfony/phpunit-bridge@5.4.8",
      "group": "symfony",
      "name": "phpunit-bridge",
      "version": "5.4.8",
      "description": "Provides utilities for PHPUnit, especially user deprecation notices management",
      "licenses": [
        {
          "license": {
            "id": "MIT"
          }
        }
      ],
      "purl": "pkg:composer/symfony/phpunit-bridge@5.4.8",
      "externalReferences": [
        {
          "url": "https://github.com/symfony/phpunit-bridge.git",
          "type": "distribution",
          "comment": "As detected by composer's `getSourceUrls()` (type=git & reference=cec05218b4fd847b87dce5b3560b288096c36950)"
        },
        {
          "url": "https://api.github.com/repos/symfony/phpunit-bridge/zipball/cec05218b4fd847b87dce5b3560b288096c36950",
          "type": "distribution",
          "comment": "As detected by composer's `getDistUrls()` (type=zip & reference=cec05218b4fd847b87dce5b3560b288096c36950 & sha1=UNDEFINED)"
        },
        {
          "url": "https://symfony.com",
          "type": "website",
          "comment": "As set via `homepage` in composer package definition."
        },
        {
          "url": "https://github.com/symfony/phpunit-bridge/tree/v5.4.8",
          "type": "distribution",
          "comment": "As set via `support.source` in composer package definition."
        },
        {
          "url": "https://symfony.com/sponsor",
          "type": "other",
          "comment": "As set via `funding` in composer package definition. (type=custom)"
        },
        {
          "url": "https://github.com/fabpot",
          "type": "other",
          "comment": "As set via `funding` in composer package definition. (type=github)"
        },
        {
          "url": "https://tidelift.com/funding/github/packagist/symfony/symfony",
          "type": "other",
          "comment": "As set via `funding` in composer package definition. (type=tidelift)"
        }
      ]
    },
    {
      "type": "library",
      "bom-ref": "pkg:composer/symfony/polyfill-ctype@1.25.0",
      "group": "symfony",
      "name": "polyfill-ctype",
      "version": "1.25.0",
      "description": "Symfony polyfill for ctype functions",
      "licenses": [
        {
          "license": {
            "id": "MIT"
          }
        }
      ],
      "purl": "pkg:composer/symfony/polyfill-ctype@1.25.0",
      "externalReferences": [
        {
          "url": "https://github.com/symfony/polyfill-ctype.git",
          "type": "distribution",
          "comment": "As detected by composer's `getSourceUrls()` (type=git & reference=30885182c981ab175d4d034db0f6f469898070ab)"
        },
        {
          "url": "https://api.github.com/repos/symfony/polyfill-ctype/zipball/30885182c981ab175d4d034db0f6f469898070ab",
          "type": "distribution",
          "comment": "As detected by composer's `getDistUrls()` (type=zip & reference=30885182c981ab175d4d034db0f6f469898070ab & sha1=UNDEFINED)"
        },
        {
          "url": "https://symfony.com",
          "type": "website",
          "comment": "As set via `homepage` in composer package definition."
        },
        {
          "url": "https://github.com/symfony/polyfill-ctype/tree/v1.25.0",
          "type": "distribution",
          "comment": "As set via `support.source` in composer package definition."
        },
        {
          "url": "https://symfony.com/sponsor",
          "type": "other",
          "comment": "As set via `funding` in composer package definition. (type=custom)"
        },
        {
          "url": "https://github.com/fabpot",
          "type": "other",
          "comment": "As set via `funding` in composer package definition. (type=github)"
        },
        {
          "url": "https://tidelift.com/funding/github/packagist/symfony/symfony",
          "type": "other",
          "comment": "As set via `funding` in composer package definition. (type=tidelift)"
        }
      ]
    },
    {
      "type": "library",
      "bom-ref": "pkg:composer/symfony/polyfill-intl-grapheme@1.25.0",
      "group": "symfony",
      "name": "polyfill-intl-grapheme",
      "version": "1.25.0",
      "description": "Symfony polyfill for intl's grapheme_* functions",
      "licenses": [
        {
          "license": {
            "id": "MIT"
          }
        }
      ],
      "purl": "pkg:composer/symfony/polyfill-intl-grapheme@1.25.0",
      "externalReferences": [
        {
          "url": "https://github.com/symfony/polyfill-intl-grapheme.git",
          "type": "distribution",
          "comment": "As detected by composer's `getSourceUrls()` (type=git & reference=81b86b50cf841a64252b439e738e97f4a34e2783)"
        },
        {
          "url": "https://api.github.com/repos/symfony/polyfill-intl-grapheme/zipball/81b86b50cf841a64252b439e738e97f4a34e2783",
          "type": "distribution",
          "comment": "As detected by composer's `getDistUrls()` (type=zip & reference=81b86b50cf841a64252b439e738e97f4a34e2783 & sha1=UNDEFINED)"
        },
        {
          "url": "https://symfony.com",
          "type": "website",
          "comment": "As set via `homepage` in composer package definition."
        },
        {
          "url": "https://github.com/symfony/polyfill-intl-grapheme/tree/v1.25.0",
          "type": "distribution",
          "comment": "As set via `support.source` in composer package definition."
        },
        {
          "url": "https://symfony.com/sponsor",
          "type": "other",
          "comment": "As set via `funding` in composer package definition. (type=custom)"
        },
        {
          "url": "https://github.com/fabpot",
          "type": "other",
          "comment": "As set via `funding` in composer package definition. (type=github)"
        },
        {
          "url": "https://tidelift.com/funding/github/packagist/symfony/symfony",
          "type": "other",
          "comment": "As set via `funding` in composer package definition. (type=tidelift)"
        }
      ]
    },
    {
      "type": "library",
      "bom-ref": "pkg:composer/symfony/polyfill-intl-normalizer@1.25.0",
      "group": "symfony",
      "name": "polyfill-intl-normalizer",
      "version": "1.25.0",
      "description": "Symfony polyfill for intl's Normalizer class and related functions",
      "licenses": [
        {
          "license": {
            "id": "MIT"
          }
        }
      ],
      "purl": "pkg:composer/symfony/polyfill-intl-normalizer@1.25.0",
      "externalReferences": [
        {
          "url": "https://github.com/symfony/polyfill-intl-normalizer.git",
          "type": "distribution",
          "comment": "As detected by composer's `getSourceUrls()` (type=git & reference=8590a5f561694770bdcd3f9b5c69dde6945028e8)"
        },
        {
          "url": "https://api.github.com/repos/symfony/polyfill-intl-normalizer/zipball/8590a5f561694770bdcd3f9b5c69dde6945028e8",
          "type": "distribution",
          "comment": "As detected by composer's `getDistUrls()` (type=zip & reference=8590a5f561694770bdcd3f9b5c69dde6945028e8 & sha1=UNDEFINED)"
        },
        {
          "url": "https://symfony.com",
          "type": "website",
          "comment": "As set via `homepage` in composer package definition."
        },
        {
          "url": "https://github.com/symfony/polyfill-intl-normalizer/tree/v1.25.0",
          "type": "distribution",
          "comment": "As set via `support.source` in composer package definition."
        },
        {
          "url": "https://symfony.com/sponsor",
          "type": "other",
          "comment": "As set via `funding` in composer package definition. (type=custom)"
        },
        {
          "url": "https://github.com/fabpot",
          "type": "other",
          "comment": "As set via `funding` in composer package definition. (type=github)"
        },
        {
          "url": "https://tidelift.com/funding/github/packagist/symfony/symfony",
          "type": "other",
          "comment": "As set via `funding` in composer package definition. (type=tidelift)"
        }
      ]
    },
    {
      "type": "library",
      "bom-ref": "pkg:composer/symfony/polyfill-mbstring@1.25.0",
      "group": "symfony",
      "name": "polyfill-mbstring",
      "version": "1.25.0",
      "description": "Symfony polyfill for the Mbstring extension",
      "licenses": [
        {
          "license": {
            "id": "MIT"
          }
        }
      ],
      "purl": "pkg:composer/symfony/polyfill-mbstring@1.25.0",
      "externalReferences": [
        {
          "url": "https://github.com/symfony/polyfill-mbstring.git",
          "type": "distribution",
          "comment": "As detected by composer's `getSourceUrls()` (type=git & reference=0abb51d2f102e00a4eefcf46ba7fec406d245825)"
        },
        {
          "url": "https://api.github.com/repos/symfony/polyfill-mbstring/zipball/0abb51d2f102e00a4eefcf46ba7fec406d245825",
          "type": "distribution",
          "comment": "As detected by composer's `getDistUrls()` (type=zip & reference=0abb51d2f102e00a4eefcf46ba7fec406d245825 & sha1=UNDEFINED)"
        },
        {
          "url": "https://symfony.com",
          "type": "website",
          "comment": "As set via `homepage` in composer package definition."
        },
        {
          "url": "https://github.com/symfony/polyfill-mbstring/tree/v1.25.0",
          "type": "distribution",
          "comment": "As set via `support.source` in composer package definition."
        },
        {
          "url": "https://symfony.com/sponsor",
          "type": "other",
          "comment": "As set via `funding` in composer package definition. (type=custom)"
        },
        {
          "url": "https://github.com/fabpot",
          "type": "other",
          "comment": "As set via `funding` in composer package definition. (type=github)"
        },
        {
          "url": "https://tidelift.com/funding/github/packagist/symfony/symfony",
          "type": "other",
          "comment": "As set via `funding` in composer package definition. (type=tidelift)"
        }
      ]
    },
    {
      "type": "library",
      "bom-ref": "pkg:composer/symfony/polyfill-php73@1.25.0",
      "group": "symfony",
      "name": "polyfill-php73",
      "version": "1.25.0",
      "description": "Symfony polyfill backporting some PHP 7.3+ features to lower PHP versions",
      "licenses": [
        {
          "license": {
            "id": "MIT"
          }
        }
      ],
      "purl": "pkg:composer/symfony/polyfill-php73@1.25.0",
      "externalReferences": [
        {
          "url": "https://github.com/symfony/polyfill-php73.git",
          "type": "distribution",
          "comment": "As detected by composer's `getSourceUrls()` (type=git & reference=cc5db0e22b3cb4111010e48785a97f670b350ca5)"
        },
        {
          "url": "https://api.github.com/repos/symfony/polyfill-php73/zipball/cc5db0e22b3cb4111010e48785a97f670b350ca5",
          "type": "distribution",
          "comment": "As detected by composer's `getDistUrls()` (type=zip & reference=cc5db0e22b3cb4111010e48785a97f670b350ca5 & sha1=UNDEFINED)"
        },
        {
          "url": "https://symfony.com",
          "type": "website",
          "comment": "As set via `homepage` in composer package definition."
        },
        {
          "url": "https://github.com/symfony/polyfill-php73/tree/v1.25.0",
          "type": "distribution",
          "comment": "As set via `support.source` in composer package definition."
        },
        {
          "url": "https://symfony.com/sponsor",
          "type": "other",
          "comment": "As set via `funding` in composer package definition. (type=custom)"
        },
        {
          "url": "https://github.com/fabpot",
          "type": "other",
          "comment": "As set via `funding` in composer package definition. (type=github)"
        },
        {
          "url": "https://tidelift.com/funding/github/packagist/symfony/symfony",
          "type": "other",
          "comment": "As set via `funding` in composer package definition. (type=tidelift)"
        }
      ]
    },
    {
      "type": "library",
      "bom-ref": "pkg:composer/symfony/polyfill-php80@1.25.0",
      "group": "symfony",
      "name": "polyfill-php80",
      "version": "1.25.0",
      "description": "Symfony polyfill backporting some PHP 8.0+ features to lower PHP versions",
      "licenses": [
        {
          "license": {
            "id": "MIT"
          }
        }
      ],
      "purl": "pkg:composer/symfony/polyfill-php80@1.25.0",
      "externalReferences": [
        {
          "url": "https://github.com/symfony/polyfill-php80.git",
          "type": "distribution",
          "comment": "As detected by composer's `getSourceUrls()` (type=git & reference=4407588e0d3f1f52efb65fbe92babe41f37fe50c)"
        },
        {
          "url": "https://api.github.com/repos/symfony/polyfill-php80/zipball/4407588e0d3f1f52efb65fbe92babe41f37fe50c",
          "type": "distribution",
          "comment": "As detected by composer's `getDistUrls()` (type=zip & reference=4407588e0d3f1f52efb65fbe92babe41f37fe50c & sha1=UNDEFINED)"
        },
        {
          "url": "https://symfony.com",
          "type": "website",
          "comment": "As set via `homepage` in composer package definition."
        },
        {
          "url": "https://github.com/symfony/polyfill-php80/tree/v1.25.0",
          "type": "distribution",
          "comment": "As set via `support.source` in composer package definition."
        },
        {
          "url": "https://symfony.com/sponsor",
          "type": "other",
          "comment": "As set via `funding` in composer package definition. (type=custom)"
        },
        {
          "url": "https://github.com/fabpot",
          "type": "other",
          "comment": "As set via `funding` in composer package definition. (type=github)"
        },
        {
          "url": "https://tidelift.com/funding/github/packagist/symfony/symfony",
          "type": "other",
          "comment": "As set via `funding` in composer package definition. (type=tidelift)"
        }
      ]
    },
    {
      "type": "library",
      "bom-ref": "pkg:composer/symfony/process@5.4.8",
      "group": "symfony",
      "name": "process",
      "version": "5.4.8",
      "description": "Executes commands in sub-processes",
      "licenses": [
        {
          "license": {
            "id": "MIT"
          }
        }
      ],
      "purl": "pkg:composer/symfony/process@5.4.8",
      "externalReferences": [
        {
          "url": "https://github.com/symfony/process.git",
          "type": "distribution",
          "comment": "As detected by composer's `getSourceUrls()` (type=git & reference=597f3fff8e3e91836bb0bd38f5718b56ddbde2f3)"
        },
        {
          "url": "https://api.github.com/repos/symfony/process/zipball/597f3fff8e3e91836bb0bd38f5718b56ddbde2f3",
          "type": "distribution",
          "comment": "As detected by composer's `getDistUrls()` (type=zip & reference=597f3fff8e3e91836bb0bd38f5718b56ddbde2f3 & sha1=UNDEFINED)"
        },
        {
          "url": "https://symfony.com",
          "type": "website",
          "comment": "As set via `homepage` in composer package definition."
        },
        {
          "url": "https://github.com/symfony/process/tree/v5.4.8",
          "type": "distribution",
          "comment": "As set via `support.source` in composer package definition."
        },
        {
          "url": "https://symfony.com/sponsor",
          "type": "other",
          "comment": "As set via `funding` in composer package definition. (type=custom)"
        },
        {
          "url": "https://github.com/fabpot",
          "type": "other",
          "comment": "As set via `funding` in composer package definition. (type=github)"
        },
        {
          "url": "https://tidelift.com/funding/github/packagist/symfony/symfony",
          "type": "other",
          "comment": "As set via `funding` in composer package definition. (type=tidelift)"
        }
      ]
    },
    {
      "type": "library",
      "bom-ref": "pkg:composer/symfony/service-contracts@3.0.1",
      "group": "symfony",
      "name": "service-contracts",
      "version": "3.0.1",
      "description": "Generic abstractions related to writing services",
      "licenses": [
        {
          "license": {
            "id": "MIT"
          }
        }
      ],
      "purl": "pkg:composer/symfony/service-contracts@3.0.1",
      "externalReferences": [
        {
          "url": "https://github.com/symfony/service-contracts.git",
          "type": "distribution",
          "comment": "As detected by composer's `getSourceUrls()` (type=git & reference=e517458f278c2131ca9f262f8fbaf01410f2c65c)"
        },
        {
          "url": "https://api.github.com/repos/symfony/service-contracts/zipball/e517458f278c2131ca9f262f8fbaf01410f2c65c",
          "type": "distribution",
          "comment": "As detected by composer's `getDistUrls()` (type=zip & reference=e517458f278c2131ca9f262f8fbaf01410f2c65c & sha1=UNDEFINED)"
        },
        {
          "url": "https://symfony.com",
          "type": "website",
          "comment": "As set via `homepage` in composer package definition."
        },
        {
          "url": "https://github.com/symfony/service-contracts/tree/v3.0.1",
          "type": "distribution",
          "comment": "As set via `support.source` in composer package definition."
        },
        {
          "url": "https://symfony.com/sponsor",
          "type": "other",
          "comment": "As set via `funding` in composer package definition. (type=custom)"
        },
        {
          "url": "https://github.com/fabpot",
          "type": "other",
          "comment": "As set via `funding` in composer package definition. (type=github)"
        },
        {
          "url": "https://tidelift.com/funding/github/packagist/symfony/symfony",
          "type": "other",
          "comment": "As set via `funding` in composer package definition. (type=tidelift)"
        }
      ]
    },
    {
      "type": "library",
      "bom-ref": "pkg:composer/symfony/string@6.0.8",
      "group": "symfony",
      "name": "string",
      "version": "6.0.8",
      "description": "Provides an object-oriented API to strings and deals with bytes, UTF-8 code points and grapheme clusters in a unified way",
      "licenses": [
        {
          "license": {
            "id": "MIT"
          }
        }
      ],
      "purl": "pkg:composer/symfony/string@6.0.8",
      "externalReferences": [
        {
          "url": "https://github.com/symfony/string.git",
          "type": "distribution",
          "comment": "As detected by composer's `getSourceUrls()` (type=git & reference=ac0aa5c2282e0de624c175b68d13f2c8f2e2649d)"
        },
        {
          "url": "https://api.github.com/repos/symfony/string/zipball/ac0aa5c2282e0de624c175b68d13f2c8f2e2649d",
          "type": "distribution",
          "comment": "As detected by composer's `getDistUrls()` (type=zip & reference=ac0aa5c2282e0de624c175b68d13f2c8f2e2649d & sha1=UNDEFINED)"
        },
        {
          "url": "https://symfony.com",
          "type": "website",
          "comment": "As set via `homepage` in composer package definition."
        },
        {
          "url": "https://github.com/symfony/string/tree/v6.0.8",
          "type": "distribution",
          "comment": "As set via `support.source` in composer package definition."
        },
        {
          "url": "https://symfony.com/sponsor",
          "type": "other",
          "comment": "As set via `funding` in composer package definition. (type=custom)"
        },
        {
          "url": "https://github.com/fabpot",
          "type": "other",
          "comment": "As set via `funding` in composer package definition. (type=github)"
        },
        {
          "url": "https://tidelift.com/funding/github/packagist/symfony/symfony",
          "type": "other",
          "comment": "As set via `funding` in composer package definition. (type=tidelift)"
        }
      ]
    },
    {
      "type": "library",
      "bom-ref": "pkg:composer/composer/pcre@2.0.0",
      "group": "composer",
      "name": "pcre",
      "version": "2.0.0",
      "description": "PCRE wrapping library that offers type-safe preg_* replacements.",
      "licenses": [
        {
          "license": {
            "id": "MIT",
            "url": "https://opensource.org/licenses/MIT"
          }
        }
      ],
      "purl": "pkg:composer/composer/pcre@2.0.0",
      "externalReferences": [
        {
          "url": "https://github.com/composer/pcre.git",
          "type": "vcs"
        }
      ]
    },
    {
      "type": "library",
      "bom-ref": "pkg:composer/justinrainbow/json-schema@5.2.11",
      "group": "justinrainbow",
      "name": "json-schema",
      "version": "5.2.11",
      "description": "A library to validate a json schema.",
      "licenses": [
        {
          "license": {
            "id": "MIT",
            "url": "https://opensource.org/licenses/MIT"
          }
        }
      ],
      "purl": "pkg:composer/justinrainbow/json-schema@5.2.11",
      "externalReferences": [
        {
          "url": "https://github.com/justinrainbow/json-schema.git",
          "type": "vcs"
        }
      ]
    },
    {
      "type": "library",
      "bom-ref": "pkg:composer/psr/container@1.1.1",
      "group": "psr",
      "name": "container",
      "version": "1.1.1",
      "description": "Common Container Interface (PHP FIG PSR-11)",
      "licenses": [
        {
          "license": {
            "id": "MIT",
            "url": "https://opensource.org/licenses/MIT"
          }
        }
      ],
      "purl": "pkg:composer/psr/container@1.1.1",
      "externalReferences": [
        {
          "url": "https://github.com/php-fig/container.git",
          "type": "vcs"
        }
      ]
    },
    {
      "type": "library",
      "bom-ref": "pkg:composer/psr/log@1.1.4",
      "group": "psr",
      "name": "log",
      "version": "1.1.4",
      "description": "Common interface for logging libraries",
      "licenses": [
        {
          "license": {
            "id": "MIT",
            "url": "https://opensource.org/licenses/MIT"
          }
        }
      ],
      "purl": "pkg:composer/psr/log@1.1.4",
      "externalReferences": [
        {
          "url": "https://github.com/php-fig/log.git",
          "type": "vcs"
        }
      ]
    },
    {
      "type": "library",
      "bom-ref": "pkg:composer/symfony/console@5.4.5",
      "group": "symfony",
      "name": "console",
      "version": "5.4.5",
      "description": "Eases the creation of beautiful and testable command line interfaces",
      "licenses": [
        {
          "license": {
            "id": "MIT",
            "url": "https://opensource.org/licenses/MIT"
          }
        }
      ],
      "purl": "pkg:composer/symfony/console@5.4.5",
      "externalReferences": [
        {
          "url": "https://github.com/symfony/console.git",
          "type": "vcs"
        }
      ]
    },
    {
      "type": "library",
      "bom-ref": "pkg:composer/symfony/deprecation-contracts@2.5.0",
      "group": "symfony",
      "name": "deprecation-contracts",
      "version": "2.5.0",
      "description": "A generic function and convention to trigger deprecation notices",
      "licenses": [
        {
          "license": {
            "id": "MIT",
            "url": "https://opensource.org/licenses/MIT"
          }
        }
      ],
      "purl": "pkg:composer/symfony/deprecation-contracts@2.5.0",
      "externalReferences": [
        {
          "url": "https://github.com/symfony/deprecation-contracts.git",
          "type": "vcs"
        }
      ]
    },
    {
      "type": "library",
      "bom-ref": "pkg:composer/symfony/filesystem@5.4.6",
      "group": "symfony",
      "name": "filesystem",
      "version": "5.4.6",
      "description": "Provides basic utilities for the filesystem",
      "licenses": [
        {
          "license": {
            "id": "MIT",
            "url": "https://opensource.org/licenses/MIT"
          }
        }
      ],
      "purl": "pkg:composer/symfony/filesystem@5.4.6",
      "externalReferences": [
        {
          "url": "https://github.com/symfony/filesystem.git",
          "type": "vcs"
        }
      ]
    },
    {
      "type": "library",
      "bom-ref": "pkg:composer/symfony/finder@5.4.3",
      "group": "symfony",
      "name": "finder",
      "version": "5.4.3",
      "description": "Finds files and directories via an intuitive fluent interface",
      "licenses": [
        {
          "license": {
            "id": "MIT",
            "url": "https://opensource.org/licenses/MIT"
          }
        }
      ],
      "purl": "pkg:composer/symfony/finder@5.4.3",
      "externalReferences": [
        {
          "url": "https://github.com/symfony/finder.git",
          "type": "vcs"
        }
      ]
    },
    {
      "type": "library",
      "bom-ref": "pkg:composer/symfony/process@5.4.5",
      "group": "symfony",
      "name": "process",
      "version": "5.4.5",
      "description": "Executes commands in sub-processes",
      "licenses": [
        {
          "license": {
            "id": "MIT",
            "url": "https://opensource.org/licenses/MIT"
          }
        }
      ],
      "purl": "pkg:composer/symfony/process@5.4.5",
      "externalReferences": [
        {
          "url": "https://github.com/symfony/process.git",
          "type": "vcs"
        }
      ]
    },
    {
      "type": "library",
      "bom-ref": "pkg:composer/symfony/service-contracts@2.5.0",
      "group": "symfony",
      "name": "service-contracts",
      "version": "2.5.0",
      "description": "Generic abstractions related to writing services",
      "licenses": [
        {
          "license": {
            "id": "MIT",
            "url": "https://opensource.org/licenses/MIT"
          }
        }
      ],
      "purl": "pkg:composer/symfony/service-contracts@2.5.0",
      "externalReferences": [
        {
          "url": "https://github.com/symfony/service-contracts.git",
          "type": "vcs"
        }
      ]
    },
    {
      "type": "library",
      "bom-ref": "pkg:composer/symfony/string@5.4.3",
      "group": "symfony",
      "name": "string",
      "version": "5.4.3",
      "description": "Provides an object-oriented API to strings and deals with bytes, UTF-8 code points and grapheme clusters in a unified way",
      "licenses": [
        {
          "license": {
            "id": "MIT",
            "url": "https://opensource.org/licenses/MIT"
          }
        }
      ],
      "purl": "pkg:composer/symfony/string@5.4.3",
      "externalReferences": [
        {
          "url": "https://github.com/symfony/string.git",
          "type": "vcs"
        }
      ]
    },
    {
      "type": "library",
      "bom-ref": "pkg:composer/symfony/polyfill-mbstring@1.19.0",
      "group": "symfony",
      "name": "polyfill-mbstring",
      "version": "1.19.0",
      "description": "Symfony polyfill for the Mbstring extension",
      "licenses": [
        {
          "license": {
            "id": "MIT",
            "url": "https://opensource.org/licenses/MIT"
          }
        }
      ],
      "purl": "pkg:composer/symfony/polyfill-mbstring@1.19.0",
      "externalReferences": [
        {
          "url": "https://github.com/symfony/polyfill-mbstring.git",
          "type": "vcs"
        }
      ]
    }
  ],
  "dependencies": [
    {
      "ref": "pkg:composer/composer/ca-bundle@1.3.1"
    },
    {
      "ref": "pkg:composer/composer/composer@2.3.5",
      "dependsOn": [
        "pkg:composer/composer/ca-bundle@1.3.1",
        "pkg:composer/composer/metadata-minifier@1.0.0",
        "pkg:composer/composer/pcre@3.0.0",
        "pkg:composer/composer/semver@3.3.2",
        "pkg:composer/composer/spdx-licenses@1.5.6",
        "pkg:composer/composer/xdebug-handler@3.0.3",
        "pkg:composer/justinrainbow/json-schema@5.2.12",
        "pkg:composer/psr/log@3.0.0",
        "pkg:composer/react/promise@2.9.0",
        "pkg:composer/seld/jsonlint@1.9.0",
        "pkg:composer/seld/phar-utils@1.2.0",
        "pkg:composer/symfony/console@6.0.8",
        "pkg:composer/symfony/filesystem@6.0.7",
        "pkg:composer/symfony/finder@6.0.8",
        "pkg:composer/symfony/polyfill-php73@1.25.0",
        "pkg:composer/symfony/polyfill-php80@1.25.0",
        "pkg:composer/symfony/process@5.4.8"
      ]
    },
    {
      "ref": "pkg:composer/composer/metadata-minifier@1.0.0"
    },
    {
      "ref": "pkg:composer/composer/pcre@3.0.0"
    },
    {
      "ref": "pkg:composer/composer/semver@3.3.2"
    },
    {
      "ref": "pkg:composer/composer/spdx-licenses@1.5.6"
    },
    {
      "ref": "pkg:composer/composer/xdebug-handler@3.0.3",
      "dependsOn": [
        "pkg:composer/composer/pcre@3.0.0",
        "pkg:composer/psr/log@3.0.0"
      ]
    },
    {
      "ref": "pkg:composer/cyclonedx/cyclonedx-library@1.5.0",
      "dependsOn": [
        "pkg:composer/package-url/packageurl-php@1.0.4",
        "pkg:composer/swaggest/json-schema@0.12.39"
      ]
    },
    {
      "ref": "pkg:composer/cyclonedx/cyclonedx-php-composer@3.10.0",
      "dependsOn": [
        "pkg:composer/cyclonedx/cyclonedx-library@1.5.0",
        "pkg:composer/package-url/packageurl-php@1.0.4"
      ]
    },
    {
      "ref": "pkg:composer/justinrainbow/json-schema@5.2.12"
    },
    {
      "ref": "pkg:composer/package-url/packageurl-php@1.0.4"
    },
    {
      "ref": "pkg:composer/phplang/scope-exit@1.0.0"
    },
    {
      "ref": "pkg:composer/phpstan/phpstan@0.12.99"
    },
    {
      "ref": "pkg:composer/phpstan/phpstan-phpunit@0.12.22",
      "dependsOn": [
        "pkg:composer/phpstan/phpstan@0.12.99"
      ]
    },
    {
      "ref": "pkg:composer/psr/container@2.0.2"
    },
    {
      "ref": "pkg:composer/psr/log@3.0.0"
    },
    {
      "ref": "pkg:composer/react/promise@2.9.0"
    },
    {
      "ref": "pkg:composer/seld/jsonlint@1.9.0"
    },
    {
      "ref": "pkg:composer/seld/phar-utils@1.2.0"
    },
    {
      "ref": "pkg:composer/swaggest/json-diff@3.8.3"
    },
    {
      "ref": "pkg:composer/swaggest/json-schema@0.12.39",
      "dependsOn": [
        "pkg:composer/phplang/scope-exit@1.0.0",
        "pkg:composer/swaggest/json-diff@3.8.3",
        "pkg:composer/symfony/polyfill-mbstring@1.25.0"
      ]
    },
    {
      "ref": "pkg:composer/symfony/console@6.0.8",
      "dependsOn": [
        "pkg:composer/symfony/polyfill-mbstring@1.25.0",
        "pkg:composer/symfony/service-contracts@3.0.1",
        "pkg:composer/symfony/string@6.0.8"
      ]
    },
    {
      "ref": "pkg:composer/symfony/deprecation-contracts@3.0.1"
    },
    {
      "ref": "pkg:composer/symfony/filesystem@6.0.7",
      "dependsOn": [
        "pkg:composer/symfony/polyfill-ctype@1.25.0",
        "pkg:composer/symfony/polyfill-mbstring@1.25.0"
      ]
    },
    {
      "ref": "pkg:composer/symfony/finder@6.0.8"
    },
    {
      "ref": "pkg:composer/symfony/phpunit-bridge@5.4.8",
      "dependsOn": [
        "pkg:composer/symfony/deprecation-contracts@3.0.1"
      ]
    },
    {
      "ref": "pkg:composer/symfony/polyfill-ctype@1.25.0"
    },
    {
      "ref": "pkg:composer/symfony/polyfill-intl-grapheme@1.25.0"
    },
    {
      "ref": "pkg:composer/symfony/polyfill-intl-normalizer@1.25.0"
    },
    {
      "ref": "pkg:composer/symfony/polyfill-mbstring@1.25.0"
    },
    {
      "ref": "pkg:composer/symfony/polyfill-php73@1.25.0"
    },
    {
      "ref": "pkg:composer/symfony/polyfill-php80@1.25.0"
    },
    {
      "ref": "pkg:composer/symfony/process@5.4.8",
      "dependsOn": [
        "pkg:composer/symfony/polyfill-php80@1.25.0"
      ]
    },
    {
      "ref": "pkg:composer/symfony/service-contracts@3.0.1",
      "dependsOn": [
        "pkg:composer/psr/container@2.0.2"
      ]
    },
    {
      "ref": "pkg:composer/symfony/string@6.0.8",
      "dependsOn": [
        "pkg:composer/symfony/polyfill-ctype@1.25.0",
        "pkg:composer/symfony/polyfill-intl-grapheme@1.25.0",
        "pkg:composer/symfony/polyfill-intl-normalizer@1.25.0",
        "pkg:composer/symfony/polyfill-mbstring@1.25.0"
      ]
    },
    {
      "ref": "pkg:composer/composer/installers@2.x-dev",
      "dependsOn": [
        "pkg:composer/composer/composer@2.3.5",
        "pkg:composer/composer/semver@3.3.2",
        "pkg:composer/symfony/phpunit-bridge@5.4.8",
        "pkg:composer/phpstan/phpstan@0.12.99",
        "pkg:composer/symfony/process@5.4.8",
        "pkg:composer/phpstan/phpstan-phpunit@0.12.22",
        "pkg:composer/cyclonedx/cyclonedx-php-composer@3.10.0"
      ]
    }
  ]
}
