{
  "bomFormat": "CycloneDX",
  "specVersion": "1.3",
  "version": 1,
  "metadata": {
    "tools": [
      {
        "vendor": "CycloneDX",
        "name": "Node.js module",
        "version": "3.0.3"
      },
      {
        "vendor": "AppThreat",
        "name": "cdxgen",
        "version": "3.0.10"
      },
      {
        "vendor": "Fortress Information Security",
        "name": "Github Extractor",
        "version": "1.15.1"
      }
    ],
    "authors": [
      {
        "name": "Fortress Information Security",
        "email": "sales@fortressinfosec.com",
        "phone": "1-407-573-6800"
      }
    ],
    "timestamp": "2022-06-01T21:00:00Z",
    "component": {
      "type": "application",
      "name": "crawl",
      "version": "0.28.0",
      "group": "crawl",
      "externalReferences": [
        {
          "url": "https://github.com/crawl/crawl.git",
          "type": "distribution"
        },
        {
          "type": "website",
          "url": "https://crawl.develz.org/",
          "comment": "As set via `homepage` in Github API"
        }
      ]
    }
  },
  "components": [
    {
      "type": "library",
      "publisher": "Thomas Waldmann",
      "name": "argparse",
      "version": "1.4.0",
      "description": "Python command-line parsing library",
      "hashes": [
        {
          "alg": "MD5",
          "content": "c37216a954c8669054e2b2c54853dd49"
        },
        {
          "alg": "SHA-256",
          "content": "c31647edb69fd3d465a847ea3157d37bed1f95f19760b11a47aa91c04b666314"
        }
      ],
      "licenses": [
        {
          "license": {
            "name": "Python Software Foundation License"
          }
        }
      ],
      "purl": "pkg:pypi/argparse@1.4.0",
      "modified": false
    },
    {
      "type": "library",
      "publisher": "Vinay Sajip",
      "name": "logging",
      "version": "0.4.9.6",
      "description": "A logging module for Python",
      "hashes": [
        {
          "alg": "MD5",
          "content": "dc0a7ebc8b8970263911e11e7b7e1ca8"
        },
        {
          "alg": "SHA-256",
          "content": "26f6b50773f085042d301085bd1bf5d9f3735704db9f37c1ce6d8b85c38f2417"
        }
      ],
      "licenses": [
        {
          "license": {
            "name": "Copyright (C) 2001-2005 by Vinay Sajip. All Rights Reserved. See LICENSE for license."
          }
        }
      ],
      "purl": "pkg:pypi/logging@0.4.9.6",
      "modified": false
    },
    {
      "type": "library",
      "publisher": "Zope Foundation and Contributors",
      "name": "datetime",
      "version": "4.4",
      "description": "This package provides a DateTime data type, as known from Zope. Unless you need to communicate with Zope APIs, you're probably better off using Python's built-in datetime module.",
      "hashes": [
        {
          "alg": "MD5",
          "content": "ad1e82d858ed7c8cd2ea437b4cb695ed"
        },
        {
          "alg": "SHA-256",
          "content": "4fcca115ddb466a1104df08d5c2a2f5805d14ca317800e1bfcea8f3d69f66e57"
        }
      ],
      "licenses": [
        {
          "license": {
            "name": "ZPL 2.1"
          }
        }
      ],
      "purl": "pkg:pypi/datetime@4.4",
      "modified": false
    },
    {
      "type": "library",
      "publisher": "Stephan Klein",
      "name": "signal",
      "version": "0.1",
      "description": "Send SMS messages via ADB and your Android phone. Comes with a CLI.",
      "licenses": [
        {
          "license": {
            "name": "MIT"
          }
        }
      ],
      "purl": "pkg:pypi/signal@0.1",
      "modified": false
    },
    {
      "type": "library",
      "name": "hashlib",
      "version": "20081119",
      "description": "Secure hash and message digest algorithm library",
      "hashes": [
        {
          "alg": "MD5",
          "content": "46e59db6d5cac34b3344ef0c30d0897f"
        },
        {
          "alg": "SHA-256",
          "content": "419de2fd10ae71ed9c6adcb55903f116abd1d8acc8c814dfd5f839b4d5013e38"
        }
      ],
      "purl": "pkg:pypi/hashlib@20081119",
      "modified": false
    },
    {
      "type": "library",
      "name": "email",
      "version": "4.0.2",
      "description": "Standalone email package",
      "hashes": [
        {
          "alg": "MD5",
          "content": "67707dc0fab874edc5ac45f95ec9ec87"
        },
        {
          "alg": "SHA-256",
          "content": "e2254c9b4e4cf33553f7dfc85b500eea4c3e96733736f38c9dbfc3dcc6303705"
        }
      ],
      "purl": "pkg:pypi/email@4.0.2",
      "modified": false
    },
    {
      "type": "library",
      "publisher": "Thomas Heller",
      "name": "ctypes",
      "version": "1.0.2",
      "description": "create and manipulate C data types in Python, call functions in shared libraries",
      "licenses": [
        {
          "license": {
            "name": "MIT License"
          }
        }
      ],
      "purl": "pkg:pypi/ctypes@1.0.2",
      "modified": false
    },
    {
      "type": "library",
      "publisher": "Holger Krekel, Bruno Oliveira, Ronny Pfannschmidt, Floris Bruynooghe, Brianna Laugher, Florian Bruhin and others",
      "name": "pytest",
      "version": "7.1.2",
      "description": "pytest: simple powerful testing with Python",
      "hashes": [
        {
          "alg": "MD5",
          "content": "6f5a9e12007a2529cb00d3b5a8af33a1"
        },
        {
          "alg": "SHA-256",
          "content": "13d0e3ccfc2b6e26be000cb6568c832ba67ba32e719443bfe725814d3c42433c"
        }
      ],
      "licenses": [
        {
          "license": {
            "name": "MIT"
          }
        }
      ],
      "purl": "pkg:pypi/pytest@7.1.2",
      "modified": false
    },
    {
      "type": "library",
      "bom-ref": "pkg:pypi/backports-abc@0.5",
      "group": "",
      "name": "backports-abc",
      "version": "0.5",
      "description": "A backport of recent additions to the 'collections.abc' module.",
      "hashes": [
        {
          "alg": "SHA-256",
          "content": "52089f97fe7a9aa0d3277b220c1d730a85aefd64e1b2664696fe35317c5470a7"
        }
      ],
      "licenses": [
        {
          "license": {
            "name": "UNKNOWN"
          }
        }
      ],
      "purl": "pkg:pypi/backports-abc@0.5",
      "externalReferences": [
        {
          "url": "https://github.com/cython/backports_abc",
          "type": "vcs"
        }
      ]
    },
    {
      "type": "library",
      "bom-ref": "pkg:pypi/futures@3.3.0",
      "group": "",
      "name": "futures",
      "version": "3.3.0",
      "description": "Backport of the concurrent.futures package from Python 3",
      "hashes": [
        {
          "alg": "SHA-256",
          "content": "49b3f5b064b6e3afc3316421a3f25f66c137ae88f068abbf72830170033c5e16"
        }
      ],
      "licenses": [
        {
          "license": {
            "name": "PSF"
          }
        }
      ],
      "purl": "pkg:pypi/futures@3.3.0",
      "externalReferences": [
        {
          "url": "https://github.com/agronholm/pythonfutures",
          "type": "vcs"
        }
      ]
    },
    {
      "type": "library",
      "bom-ref": "pkg:pypi/pyyaml@5.4.1",
      "group": "",
      "name": "pyyaml",
      "version": "5.4.1",
      "description": "YAML parser and emitter for Python",
      "hashes": [
        {
          "alg": "SHA-256",
          "content": "3b2b1824fe7112845700f815ff6a489360226a5609b96ec2190a45e62a9fc922"
        }
      ],
      "licenses": [
        {
          "license": {
            "id": "MIT",
            "url": "https://opensource.org/licenses/MIT"
          }
        }
      ],
      "purl": "pkg:pypi/pyyaml@5.4.1",
      "externalReferences": [
        {
          "url": "https://pyyaml.org/",
          "type": "website"
        }
      ]
    },
    {
      "type": "library",
      "bom-ref": "pkg:pypi/singledispatch@3.4.0.3",
      "group": "",
      "name": "singledispatch",
      "version": "3.4.0.3",
      "description": "Backport functools.singledispatch from Python 3.4 to Python 2.6-3.3.",
      "hashes": [
        {
          "alg": "SHA-256",
          "content": "833b46966687b3de7f438c761ac475213e53b306740f1abfaa86e1d1aae56aa8"
        }
      ],
      "purl": "pkg:pypi/singledispatch@3.4.0.3",
      "externalReferences": [
        {
          "url": "https://github.com/jaraco/singledispatch",
          "type": "vcs"
        }
      ]
    },
    {
      "type": "library",
      "bom-ref": "pkg:pypi/six@1.15.0",
      "group": "",
      "name": "six",
      "version": "1.15.0",
      "description": "Python 2 and 3 compatibility utilities",
      "hashes": [
        {
          "alg": "SHA-256",
          "content": "8b74bedcbbbaca38ff6d7491d76f2b06b3592611af620f8426e82dddb04a5ced"
        }
      ],
      "licenses": [
        {
          "license": {
            "id": "MIT",
            "url": "https://opensource.org/licenses/MIT"
          }
        }
      ],
      "purl": "pkg:pypi/six@1.15.0",
      "externalReferences": [
        {
          "url": "https://github.com/benjaminp/six",
          "type": "vcs"
        }
      ]
    },
    {
      "type": "library",
      "bom-ref": "pkg:pypi/tornado@5.1.1",
      "group": "",
      "name": "tornado",
      "version": "5.1.1",
      "description": "Tornado is a Python web framework and asynchronous networking library, originally developed at FriendFeed.",
      "hashes": [
        {
          "alg": "SHA-256",
          "content": "732e836008c708de2e89a31cb2fa6c0e5a70cb60492bee6f1ea1047500feaf7f"
        }
      ],
      "licenses": [
        {
          "license": {
            "name": "CUSTOM",
            "url": "http://www.apache.org/licenses/LICENSE-2.0"
          }
        }
      ],
      "purl": "pkg:pypi/tornado@5.1.1",
      "externalReferences": [
        {
          "url": "http://www.tornadoweb.org/",
          "type": "website"
        }
      ]
    },
    {
      "type": "library",
      "bom-ref": "pkg:pypi/pyyaml@5.3.1",
      "group": "",
      "name": "pyyaml",
      "version": "5.3.1",
      "description": "YAML parser and emitter for Python",
      "hashes": [
        {
          "alg": "SHA-256",
          "content": "74809a57b329d6cc0fdccee6318f44b9b8649961fa73144a98735b0aaf029f1f"
        }
      ],
      "licenses": [
        {
          "license": {
            "id": "MIT",
            "url": "https://opensource.org/licenses/MIT"
          }
        }
      ],
      "purl": "pkg:pypi/pyyaml@5.3.1",
      "externalReferences": [
        {
          "url": "https://pyyaml.org/",
          "type": "website"
        }
      ]
    },
    {
      "type": "library",
      "bom-ref": "pkg:pypi/tornado@6.0.4",
      "group": "",
      "name": "tornado",
      "version": "6.0.4",
      "description": "Tornado is a Python web framework and asynchronous networking library, originally developed at FriendFeed.",
      "hashes": [
        {
          "alg": "SHA-256",
          "content": "5217e601700f24e966ddab689f90b7ea4bd91ff3357c3600fa1045e26d68e55d"
        }
      ],
      "licenses": [
        {
          "license": {
            "name": "CUSTOM",
            "url": "http://www.apache.org/licenses/LICENSE-2.0"
          }
        }
      ],
      "purl": "pkg:pypi/tornado@6.0.4",
      "externalReferences": [
        {
          "url": "http://www.tornadoweb.org/",
          "type": "website"
        }
      ]
    },
    {
      "type": "library",
      "bom-ref": "pkg:pypi/appdirs@1.4.4",
      "group": "",
      "name": "appdirs",
      "version": "1.4.4",
      "description": "A small Python module for determining appropriate platform-specific dirs, e.g. a \"user data dir\".",
      "hashes": [
        {
          "alg": "SHA-256",
          "content": "a841dacd6b99318a741b166adb07e19ee71a274450e68237b4650ca1055ab128"
        }
      ],
      "licenses": [
        {
          "license": {
            "id": "MIT",
            "url": "https://opensource.org/licenses/MIT"
          }
        }
      ],
      "purl": "pkg:pypi/appdirs@1.4.4",
      "externalReferences": [
        {
          "url": "http://github.com/ActiveState/appdirs",
          "type": "vcs"
        }
      ]
    },
    {
      "type": "library",
      "bom-ref": "pkg:pypi/atomicwrites@1.4.0",
      "group": "",
      "name": "atomicwrites",
      "version": "1.4.0",
      "description": "Atomic file writes.",
      "hashes": [
        {
          "alg": "SHA-256",
          "content": "6d1784dea7c0c8d4a5172b6c620f40b6e4cbfdf96d783691f2e1302a7b88e197"
        }
      ],
      "licenses": [
        {
          "license": {
            "id": "MIT",
            "url": "https://opensource.org/licenses/MIT"
          }
        }
      ],
      "purl": "pkg:pypi/atomicwrites@1.4.0",
      "externalReferences": [
        {
          "url": "https://github.com/untitaker/python-atomicwrites",
          "type": "vcs"
        }
      ]
    },
    {
      "type": "library",
      "bom-ref": "pkg:pypi/attrs@20.3.0",
      "group": "",
      "name": "attrs",
      "version": "20.3.0",
      "description": "Classes Without Boilerplate",
      "hashes": [
        {
          "alg": "SHA-256",
          "content": "31b2eced602aa8423c2aea9c76a724617ed67cf9513173fd3a4f03e3a929c7e6"
        }
      ],
      "licenses": [
        {
          "license": {
            "id": "MIT",
            "url": "https://opensource.org/licenses/MIT"
          }
        }
      ],
      "purl": "pkg:pypi/attrs@20.3.0",
      "externalReferences": [
        {
          "url": "https://www.attrs.org/",
          "type": "website"
        }
      ]
    },
    {
      "type": "library",
      "bom-ref": "pkg:pypi/backports.functools-lru-cache@1.6.1",
      "group": "",
      "name": "backports.functools-lru-cache",
      "version": "1.6.1",
      "description": "Backport of functools.lru_cache",
      "hashes": [
        {
          "alg": "SHA-256",
          "content": "0bada4c2f8a43d533e4ecb7a12214d9420e66eb206d54bf2d682581ca4b80848"
        }
      ],
      "purl": "pkg:pypi/backports.functools-lru-cache@1.6.1",
      "externalReferences": [
        {
          "url": "https://github.com/jaraco/backports.functools_lru_cache",
          "type": "vcs"
        }
      ]
    },
    {
      "type": "library",
      "bom-ref": "pkg:pypi/click@7.1.2",
      "group": "",
      "name": "click",
      "version": "7.1.2",
      "description": "Composable command line interface toolkit",
      "hashes": [
        {
          "alg": "SHA-256",
          "content": "dacca89f4bfadd5de3d7489b7c8a566eee0d3676333fbb50030263894c38c0dc"
        }
      ],
      "licenses": [
        {
          "license": {
            "id": "BSD-3-Clause",
            "url": "https://opensource.org/licenses/BSD-3-Clause"
          }
        }
      ],
      "purl": "pkg:pypi/click@7.1.2",
      "externalReferences": [
        {
          "url": "https://palletsprojects.com/p/click/",
          "type": "website"
        }
      ]
    },
    {
      "type": "library",
      "bom-ref": "pkg:pypi/configparser@4.0.2",
      "group": "",
      "name": "configparser",
      "version": "4.0.2",
      "description": "Updated configparser from Python 3.8 for Python 2.6+.",
      "hashes": [
        {
          "alg": "SHA-256",
          "content": "254c1d9c79f60c45dfde850850883d5aaa7f19a23f13561243a050d5a7c3fe4c"
        }
      ],
      "purl": "pkg:pypi/configparser@4.0.2",
      "externalReferences": [
        {
          "url": "https://github.com/jaraco/configparser/",
          "type": "vcs"
        }
      ]
    },
    {
      "type": "library",
      "bom-ref": "pkg:pypi/contextlib2@0.6.0.post1",
      "group": "",
      "name": "contextlib2",
      "version": "0.6.0.post1",
      "description": "Backports and enhancements for the contextlib module",
      "hashes": [
        {
          "alg": "SHA-256",
          "content": "3355078a159fbb44ee60ea80abd0d87b80b78c248643b49aa6d94673b413609b"
        }
      ],
      "licenses": [
        {
          "license": {
            "name": "PSF License"
          }
        }
      ],
      "purl": "pkg:pypi/contextlib2@0.6.0.post1",
      "externalReferences": [
        {
          "url": "http://contextlib2.readthedocs.org",
          "type": "website"
        }
      ]
    },
    {
      "type": "library",
      "bom-ref": "pkg:pypi/coverage@5.4",
      "group": "",
      "name": "coverage",
      "version": "5.4",
      "description": "Code coverage measurement for Python",
      "hashes": [
        {
          "alg": "SHA-256",
          "content": "6d9c88b787638a451f41f97446a1c9fd416e669b4d9717ae4615bd29de1ac135"
        }
      ],
      "licenses": [
        {
          "license": {
            "id": "Apache-2.0",
            "url": "https://opensource.org/licenses/Apache-2.0"
          }
        }
      ],
      "purl": "pkg:pypi/coverage@5.4",
      "externalReferences": [
        {
          "url": "https://github.com/nedbat/coveragepy",
          "type": "vcs"
        }
      ]
    },
    {
      "type": "library",
      "bom-ref": "pkg:pypi/distlib@0.3.1",
      "group": "",
      "name": "distlib",
      "version": "0.3.1",
      "description": "Distribution utilities",
      "hashes": [
        {
          "alg": "SHA-256",
          "content": "8c09de2c67b3e7deef7184574fc060ab8a793e7adbb183d942c389c8b13c52fb"
        }
      ],
      "licenses": [
        {
          "license": {
            "name": "Python license"
          }
        }
      ],
      "purl": "pkg:pypi/distlib@0.3.1",
      "externalReferences": [
        {
          "url": "https://bitbucket.org/pypa/distlib",
          "type": "website"
        }
      ]
    },
    {
      "type": "library",
      "bom-ref": "pkg:pypi/enum34@1.1.10",
      "group": "",
      "name": "enum34",
      "version": "1.1.10",
      "description": "Python 3.4 Enum backported to 3.3, 3.2, 3.1, 2.7, 2.6, 2.5, and 2.4",
      "hashes": [
        {
          "alg": "SHA-256",
          "content": "a98a201d6de3f2ab3db284e70a33b0f896fbf35f8086594e8c9e74b909058d53"
        }
      ],
      "licenses": [
        {
          "license": {
            "name": "BSD License"
          }
        }
      ],
      "purl": "pkg:pypi/enum34@1.1.10",
      "externalReferences": [
        {
          "url": "https://bitbucket.org/stoneleaf/enum34",
          "type": "website"
        }
      ]
    },
    {
      "type": "library",
      "bom-ref": "pkg:pypi/filelock@3.0.12",
      "group": "",
      "name": "filelock",
      "version": "3.0.12",
      "description": "A platform independent file lock.",
      "hashes": [
        {
          "alg": "SHA-256",
          "content": "929b7d63ec5b7d6b71b0fa5ac14e030b3f70b75747cef1b10da9b879fef15836"
        }
      ],
      "licenses": [
        {
          "license": {
            "id": "Unlicense",
            "url": "https://opensource.org/licenses/Unlicense"
          }
        }
      ],
      "purl": "pkg:pypi/filelock@3.0.12",
      "externalReferences": [
        {
          "url": "https://github.com/tox-dev/py-filelock",
          "type": "vcs"
        }
      ]
    },
    {
      "type": "library",
      "bom-ref": "pkg:pypi/flake8-builtins@1.5.3",
      "group": "",
      "name": "flake8-builtins",
      "version": "1.5.3",
      "description": "Check for python builtins being used as variables or parameters.",
      "hashes": [
        {
          "alg": "SHA-256",
          "content": "7706babee43879320376861897e5d1468e396a40b8918ed7bccf70e5f90b8687"
        }
      ],
      "licenses": [
        {
          "license": {
            "name": "GPL version 2"
          }
        }
      ],
      "purl": "pkg:pypi/flake8-builtins@1.5.3",
      "externalReferences": [
        {
          "url": "https://github.com/gforcada/flake8-builtins",
          "type": "vcs"
        }
      ]
    },
    {
      "type": "library",
      "bom-ref": "pkg:pypi/flake8-commas@2.0.0",
      "group": "",
      "name": "flake8-commas",
      "version": "2.0.0",
      "description": "Flake8 lint for trailing commas.",
      "hashes": [
        {
          "alg": "SHA-256",
          "content": "ee2141a3495ef9789a3894ed8802d03eff1eaaf98ce6d8653a7c573ef101935e"
        }
      ],
      "purl": "pkg:pypi/flake8-commas@2.0.0",
      "externalReferences": [
        {
          "url": "https://github.com/PyCQA/flake8-commas/",
          "type": "vcs"
        }
      ]
    },
    {
      "type": "library",
      "bom-ref": "pkg:pypi/flake8-isort@4.0.0",
      "group": "",
      "name": "flake8-isort",
      "version": "4.0.0",
      "description": "flake8 plugin that integrates isort .",
      "hashes": [
        {
          "alg": "SHA-256",
          "content": "729cd6ef9ba3659512dee337687c05d79c78e1215fdf921ed67e5fe46cce2f3c"
        }
      ],
      "licenses": [
        {
          "license": {
            "name": "GPL version 2"
          }
        }
      ],
      "purl": "pkg:pypi/flake8-isort@4.0.0",
      "externalReferences": [
        {
          "url": "https://github.com/gforcada/flake8-isort",
          "type": "vcs"
        }
      ]
    },
    {
      "type": "library",
      "bom-ref": "pkg:pypi/flake8-mutable@1.2.0",
      "group": "",
      "name": "flake8-mutable",
      "version": "1.2.0",
      "description": "mutable defaults flake8 extension",
      "hashes": [
        {
          "alg": "SHA-256",
          "content": "38fd9dadcbcda6550a916197bc40ed76908119dabb37fbcca30873666c31d2d5"
        }
      ],
      "licenses": [
        {
          "license": {
            "id": "MIT",
            "url": "https://opensource.org/licenses/MIT"
          }
        }
      ],
      "purl": "pkg:pypi/flake8-mutable@1.2.0",
      "externalReferences": [
        {
          "url": "https://github.com/ebeweber/flake8-mutable",
          "type": "vcs"
        }
      ]
    },
    {
      "type": "library",
      "bom-ref": "pkg:pypi/flake8-polyfill@1.0.2",
      "group": "",
      "name": "flake8-polyfill",
      "version": "1.0.2",
      "description": "Polyfill package for Flake8 plugins",
      "hashes": [
        {
          "alg": "SHA-256",
          "content": "12be6a34ee3ab795b19ca73505e7b55826d5f6ad7230d31b18e106400169b9e9"
        }
      ],
      "licenses": [
        {
          "license": {
            "id": "MIT",
            "url": "https://opensource.org/licenses/MIT"
          }
        }
      ],
      "purl": "pkg:pypi/flake8-polyfill@1.0.2",
      "externalReferences": [
        {
          "url": "https://gitlab.com/pycqa/flake8-polyfill",
          "type": "vcs"
        }
      ]
    },
    {
      "type": "library",
      "bom-ref": "pkg:pypi/flake8@3.8.4",
      "group": "",
      "name": "flake8",
      "version": "3.8.4",
      "description": "the modular source code checker: pep8 pyflakes and co",
      "hashes": [
        {
          "alg": "SHA-256",
          "content": "749dbbd6bfd0cf1318af27bf97a14e28e5ff548ef8e5b1566ccfb25a11e7c839"
        }
      ],
      "licenses": [
        {
          "license": {
            "id": "MIT",
            "url": "https://opensource.org/licenses/MIT"
          }
        }
      ],
      "purl": "pkg:pypi/flake8@3.8.4",
      "externalReferences": [
        {
          "url": "https://github.com/pycqa/flake8",
          "type": "vcs"
        }
      ]
    },
    {
      "type": "library",
      "bom-ref": "pkg:pypi/funcsigs@1.0.2",
      "group": "",
      "name": "funcsigs",
      "version": "1.0.2",
      "description": "Python function signatures from PEP362 for Python 2.6, 2.7 and 3.2+",
      "hashes": [
        {
          "alg": "SHA-256",
          "content": "330cc27ccbf7f1e992e69fef78261dc7c6569012cf397db8d3de0234e6c937ca"
        }
      ],
      "licenses": [
        {
          "license": {
            "name": "ASL"
          }
        }
      ],
      "purl": "pkg:pypi/funcsigs@1.0.2",
      "externalReferences": [
        {
          "url": "http://funcsigs.readthedocs.org",
          "type": "website"
        }
      ]
    },
    {
      "type": "library",
      "bom-ref": "pkg:pypi/functools32@3.2.3.post2",
      "group": "",
      "name": "functools32",
      "version": "3.2.3.post2",
      "description": "Backport of the functools module from Python 3.2.3 for use on 2.7 and PyPy.",
      "licenses": [
        {
          "license": {
            "name": "PSF license"
          }
        }
      ],
      "purl": "pkg:pypi/functools32@3.2.3.post2",
      "externalReferences": [
        {
          "url": "https://github.com/MiCHiLU/python-functools32",
          "type": "vcs"
        }
      ]
    },
    {
      "type": "library",
      "bom-ref": "pkg:pypi/importlib-metadata@2.1.1",
      "group": "",
      "name": "importlib-metadata",
      "version": "2.1.1",
      "description": "Read metadata from Python packages",
      "hashes": [
        {
          "alg": "SHA-256",
          "content": "c2d6341ff566f609e89a2acb2db190e5e1d23d5409d6cc8d2fe34d72443876d4"
        }
      ],
      "purl": "pkg:pypi/importlib-metadata@2.1.1",
      "externalReferences": [
        {
          "url": "https://github.com/python/importlib_metadata",
          "type": "vcs"
        }
      ]
    },
    {
      "type": "library",
      "bom-ref": "pkg:pypi/importlib-resources@3.3.1",
      "group": "",
      "name": "importlib-resources",
      "version": "3.3.1",
      "description": "Read resources from Python packages",
      "hashes": [
        {
          "alg": "SHA-256",
          "content": "42068585cc5e8c2bf0a17449817401102a5125cbfbb26bb0f43cde1568f6f2df"
        }
      ],
      "purl": "pkg:pypi/importlib-resources@3.3.1",
      "externalReferences": [
        {
          "url": "https://github.com/python/importlib_resources",
          "type": "vcs"
        }
      ]
    },
    {
      "type": "library",
      "bom-ref": "pkg:pypi/isort@4.3.21",
      "group": "",
      "name": "isort",
      "version": "4.3.21",
      "description": "A Python utility / library to sort Python imports.",
      "hashes": [
        {
          "alg": "SHA-256",
          "content": "6e811fcb295968434526407adb8796944f1988c5b65e8139058f2014cbe100fd"
        }
      ],
      "licenses": [
        {
          "license": {
            "id": "MIT",
            "url": "https://opensource.org/licenses/MIT"
          }
        }
      ],
      "purl": "pkg:pypi/isort@4.3.21",
      "externalReferences": [
        {
          "url": "https://pycqa.github.io/isort/",
          "type": "vcs"
        }
      ]
    },
    {
      "type": "library",
      "bom-ref": "pkg:pypi/mccabe@0.6.1",
      "group": "",
      "name": "mccabe",
      "version": "0.6.1",
      "description": "McCabe checker, plugin for flake8",
      "hashes": [
        {
          "alg": "SHA-256",
          "content": "ab8a6258860da4b6677da4bd2fe5dc2c659cff31b3ee4f7f5d64e79735b80d42"
        }
      ],
      "licenses": [
        {
          "license": {
            "name": "Expat license"
          }
        }
      ],
      "purl": "pkg:pypi/mccabe@0.6.1",
      "externalReferences": [
        {
          "url": "https://github.com/pycqa/mccabe",
          "type": "vcs"
        }
      ]
    },
    {
      "type": "library",
      "bom-ref": "pkg:pypi/mock@3.0.5",
      "group": "",
      "name": "mock",
      "version": "3.0.5",
      "description": "Rolling backport of unittest.mock for all Pythons",
      "hashes": [
        {
          "alg": "SHA-256",
          "content": "d157e52d4e5b938c550f39eb2fd15610db062441a9c2747d3dbfa9298211d0f8"
        }
      ],
      "purl": "pkg:pypi/mock@3.0.5",
      "externalReferences": [
        {
          "url": "http://mock.readthedocs.org/en/latest/",
          "type": "website"
        }
      ]
    },
    {
      "type": "library",
      "bom-ref": "pkg:pypi/more-itertools@5.0.0",
      "group": "",
      "name": "more-itertools",
      "version": "5.0.0",
      "description": "More routines for operating on iterables, beyond itertools",
      "hashes": [
        {
          "alg": "SHA-256",
          "content": "c0a5785b1109a6bd7fac76d6837fd1feca158e54e521ccd2ae8bfe393cc9d4fc"
        }
      ],
      "purl": "pkg:pypi/more-itertools@5.0.0"
    },
    {
      "type": "library",
      "bom-ref": "pkg:pypi/packaging@20.9",
      "group": "",
      "name": "packaging",
      "version": "20.9",
      "description": "Core utilities for Python packages",
      "hashes": [
        {
          "alg": "SHA-256",
          "content": "67714da7f7bc052e064859c05c595155bd1ee9f69f76557e21f051443c20947a"
        }
      ],
      "licenses": [
        {
          "license": {
            "name": "BSD-2-Clause or Apache-2.0"
          }
        }
      ],
      "purl": "pkg:pypi/packaging@20.9",
      "externalReferences": [
        {
          "url": "https://github.com/pypa/packaging",
          "type": "vcs"
        }
      ]
    },
    {
      "type": "library",
      "bom-ref": "pkg:pypi/pathlib2@2.3.5",
      "group": "",
      "name": "pathlib2",
      "version": "2.3.5",
      "description": "Object-oriented filesystem paths",
      "hashes": [
        {
          "alg": "SHA-256",
          "content": "0ec8205a157c80d7acc301c0b18fbd5d44fe655968f5d947b6ecef5290fc35db"
        }
      ],
      "licenses": [
        {
          "license": {
            "id": "MIT",
            "url": "https://opensource.org/licenses/MIT"
          }
        }
      ],
      "purl": "pkg:pypi/pathlib2@2.3.5",
      "externalReferences": [
        {
          "url": "https://github.com/jazzband/pathlib2",
          "type": "vcs"
        }
      ]
    },
    {
      "type": "library",
      "bom-ref": "pkg:pypi/pip-tools@5.5.0",
      "group": "",
      "name": "pip-tools",
      "version": "5.5.0",
      "description": "pip-tools keeps your pinned dependencies fresh.",
      "hashes": [
        {
          "alg": "SHA-256",
          "content": "10841c1e56c234d610d0466447685b9ea4ee4a2c274f858c0ef3c33d9bd0d985"
        }
      ],
      "licenses": [
        {
          "license": {
            "id": "BSD-3-Clause",
            "url": "https://opensource.org/licenses/BSD-3-Clause"
          }
        }
      ],
      "purl": "pkg:pypi/pip-tools@5.5.0",
      "externalReferences": [
        {
          "url": "https://github.com/jazzband/pip-tools/",
          "type": "vcs"
        }
      ]
    },
    {
      "type": "library",
      "bom-ref": "pkg:pypi/pluggy@0.13.1",
      "group": "",
      "name": "pluggy",
      "version": "0.13.1",
      "description": "plugin and hook calling mechanisms for python",
      "hashes": [
        {
          "alg": "SHA-256",
          "content": "966c145cd83c96502c3c3868f50408687b38434af77734af1e9ca461a4081d2d"
        }
      ],
      "licenses": [
        {
          "license": {
            "id": "MIT",
            "url": "https://opensource.org/licenses/MIT"
          }
        }
      ],
      "purl": "pkg:pypi/pluggy@0.13.1",
      "externalReferences": [
        {
          "url": "https://github.com/pytest-dev/pluggy",
          "type": "vcs"
        }
      ]
    },
    {
      "type": "library",
      "bom-ref": "pkg:pypi/py@1.10.0",
      "group": "",
      "name": "py",
      "version": "1.10.0",
      "description": "library with cross-python path, ini-parsing, io, code, log facilities",
      "hashes": [
        {
          "alg": "SHA-256",
          "content": "3b80836aa6d1feeaa108e046da6423ab8f6ceda6468545ae8d02d9d58d18818a"
        }
      ],
      "licenses": [
        {
          "license": {
            "id": "MIT",
            "url": "https://opensource.org/licenses/MIT"
          }
        }
      ],
      "purl": "pkg:pypi/py@1.10.0",
      "externalReferences": [
        {
          "url": "https://py.readthedocs.io/",
          "type": "website"
        }
      ]
    },
    {
      "type": "library",
      "bom-ref": "pkg:pypi/pycodestyle@2.6.0",
      "group": "",
      "name": "pycodestyle",
      "version": "2.6.0",
      "description": "Python style guide checker",
      "hashes": [
        {
          "alg": "SHA-256",
          "content": "2295e7b2f6b5bd100585ebcb1f616591b652db8a741695b3d8f5d28bdc934367"
        }
      ],
      "licenses": [
        {
          "license": {
            "name": "Expat license"
          }
        }
      ],
      "purl": "pkg:pypi/pycodestyle@2.6.0",
      "externalReferences": [
        {
          "url": "https://pycodestyle.pycqa.org/",
          "type": "website"
        }
      ]
    },
    {
      "type": "library",
      "bom-ref": "pkg:pypi/pyflakes@2.2.0",
      "group": "",
      "name": "pyflakes",
      "version": "2.2.0",
      "description": "passive checker of Python programs",
      "hashes": [
        {
          "alg": "SHA-256",
          "content": "0d94e0e05a19e57a99444b6ddcf9a6eb2e5c68d3ca1e98e90707af8152c90a92"
        }
      ],
      "licenses": [
        {
          "license": {
            "id": "MIT",
            "url": "https://opensource.org/licenses/MIT"
          }
        }
      ],
      "purl": "pkg:pypi/pyflakes@2.2.0",
      "externalReferences": [
        {
          "url": "https://github.com/PyCQA/pyflakes",
          "type": "vcs"
        }
      ]
    },
    {
      "type": "library",
      "bom-ref": "pkg:pypi/pyparsing@2.4.7",
      "group": "",
      "name": "pyparsing",
      "version": "2.4.7",
      "description": "pyparsing module - Classes and methods to define and execute parsing grammars",
      "hashes": [
        {
          "alg": "SHA-256",
          "content": "ef9d7589ef3c200abe66653d3f1ab1033c3c419ae9b9bdb1240a85b024efc88b"
        }
      ],
      "purl": "pkg:pypi/pyparsing@2.4.7"
    },
    {
      "type": "library",
      "bom-ref": "pkg:pypi/pytest@4.6.11",
      "group": "",
      "name": "pytest",
      "version": "4.6.11",
      "description": "pytest: simple powerful testing with Python",
      "hashes": [
        {
          "alg": "SHA-256",
          "content": "a00a7d79cbbdfa9d21e7d0298392a8dd4123316bfac545075e6f8f24c94d8c97"
        }
      ],
      "licenses": [
        {
          "license": {
            "id": "MIT",
            "url": "https://opensource.org/licenses/MIT"
          }
        }
      ],
      "purl": "pkg:pypi/pytest@4.6.11",
      "externalReferences": [
        {
          "url": "https://docs.pytest.org/en/latest/",
          "type": "website"
        }
      ]
    },
    {
      "type": "library",
      "bom-ref": "pkg:pypi/scandir@1.10.0",
      "group": "",
      "name": "scandir",
      "version": "1.10.0",
      "description": "scandir, a better directory iterator and faster os.walk()",
      "hashes": [
        {
          "alg": "SHA-256",
          "content": "92c85ac42f41ffdc35b6da57ed991575bdbe69db895507af88b9f499b701c188"
        }
      ],
      "licenses": [
        {
          "license": {
            "id": "BSD-3-Clause",
            "url": "https://opensource.org/licenses/BSD-3-Clause"
          }
        }
      ],
      "purl": "pkg:pypi/scandir@1.10.0",
      "externalReferences": [
        {
          "url": "https://github.com/benhoyt/scandir",
          "type": "vcs"
        }
      ]
    },
    {
      "type": "library",
      "bom-ref": "pkg:pypi/testfixtures@6.17.1",
      "group": "",
      "name": "testfixtures",
      "version": "6.17.1",
      "description": "A collection of helpers and mock objects for unit tests and doc tests.",
      "hashes": [
        {
          "alg": "SHA-256",
          "content": "9ed31e83f59619e2fa17df053b241e16e0608f4580f7b5a9333a0c9bdcc99137"
        }
      ],
      "licenses": [
        {
          "license": {
            "id": "MIT",
            "url": "https://opensource.org/licenses/MIT"
          }
        }
      ],
      "purl": "pkg:pypi/testfixtures@6.17.1",
      "externalReferences": [
        {
          "url": "https://github.com/Simplistix/testfixtures",
          "type": "vcs"
        }
      ]
    },
    {
      "type": "library",
      "bom-ref": "pkg:pypi/toml@0.10.2",
      "group": "",
      "name": "toml",
      "version": "0.10.2",
      "description": "Python Library for Tom's Obvious, Minimal Language",
      "hashes": [
        {
          "alg": "SHA-256",
          "content": "806143ae5bfb6a3c6e736a764057db0e6a0e05e338b5630894a5f779cabb4f9b"
        }
      ],
      "licenses": [
        {
          "license": {
            "id": "MIT",
            "url": "https://opensource.org/licenses/MIT"
          }
        }
      ],
      "purl": "pkg:pypi/toml@0.10.2",
      "externalReferences": [
        {
          "url": "https://github.com/uiri/toml",
          "type": "vcs"
        }
      ]
    },
    {
      "type": "library",
      "bom-ref": "pkg:pypi/tox@3.21.4",
      "group": "",
      "name": "tox",
      "version": "3.21.4",
      "description": "tox is a generic virtualenv management and test command line tool",
      "hashes": [
        {
          "alg": "SHA-256",
          "content": "65d0e90ceb816638a50d64f4b47b11da767b284c0addda2294cb3cd69bd72425"
        }
      ],
      "licenses": [
        {
          "license": {
            "id": "MIT",
            "url": "https://opensource.org/licenses/MIT"
          }
        }
      ],
      "purl": "pkg:pypi/tox@3.21.4",
      "externalReferences": [
        {
          "url": "https://tox.readthedocs.io",
          "type": "website"
        }
      ]
    },
    {
      "type": "library",
      "bom-ref": "pkg:pypi/typing@3.7.4.3",
      "group": "",
      "name": "typing",
      "version": "3.7.4.3",
      "description": "Type Hints for Python",
      "hashes": [
        {
          "alg": "SHA-256",
          "content": "283d868f5071ab9ad873e5e52268d611e851c870a2ba354193026f2dfb29d8b5"
        }
      ],
      "licenses": [
        {
          "license": {
            "name": "PSF"
          }
        }
      ],
      "purl": "pkg:pypi/typing@3.7.4.3",
      "externalReferences": [
        {
          "url": "https://docs.python.org/3/library/typing.html",
          "type": "website"
        }
      ]
    },
    {
      "type": "library",
      "bom-ref": "pkg:pypi/virtualenv@20.4.2",
      "group": "",
      "name": "virtualenv",
      "version": "20.4.2",
      "description": "Virtual Python Environment builder",
      "hashes": [
        {
          "alg": "SHA-256",
          "content": "2be72df684b74df0ea47679a7df93fd0e04e72520022c57b479d8f881485dbe3"
        }
      ],
      "licenses": [
        {
          "license": {
            "id": "MIT",
            "url": "https://opensource.org/licenses/MIT"
          }
        }
      ],
      "purl": "pkg:pypi/virtualenv@20.4.2",
      "externalReferences": [
        {
          "url": "https://virtualenv.pypa.io/",
          "type": "website"
        }
      ]
    },
    {
      "type": "library",
      "bom-ref": "pkg:pypi/wcwidth@0.2.5",
      "group": "",
      "name": "wcwidth",
      "version": "0.2.5",
      "description": "Measures the displayed width of unicode strings in a terminal",
      "hashes": [
        {
          "alg": "SHA-256",
          "content": "beb4802a9cebb9144e99086eff703a642a13d6a0052920003a230f3294bbe784"
        }
      ],
      "licenses": [
        {
          "license": {
            "id": "MIT",
            "url": "https://opensource.org/licenses/MIT"
          }
        }
      ],
      "purl": "pkg:pypi/wcwidth@0.2.5",
      "externalReferences": [
        {
          "url": "https://github.com/jquast/wcwidth",
          "type": "vcs"
        }
      ]
    },
    {
      "type": "library",
      "bom-ref": "pkg:pypi/zipp@1.2.0",
      "group": "",
      "name": "zipp",
      "version": "1.2.0",
      "description": "Backport of pathlib-compatible object wrapper for zip files",
      "hashes": [
        {
          "alg": "SHA-256",
          "content": "e0d9e63797e483a30d27e09fffd308c59a700d365ec34e93cc100844168bf921"
        }
      ],
      "purl": "pkg:pypi/zipp@1.2.0",
      "externalReferences": [
        {
          "url": "https://github.com/jaraco/zipp",
          "type": "vcs"
        }
      ]
    },
    {
      "type": "library",
      "bom-ref": "pkg:pypi/appdirs@1.4.3",
      "group": "",
      "name": "appdirs",
      "version": "1.4.3",
      "description": "A small Python module for determining appropriate platform-specific dirs, e.g. a \"user data dir\".",
      "hashes": [
        {
          "alg": "SHA-256",
          "content": "d8b24664561d0d34ddfaec54636d502d7cea6e29c3eaf68f3df6180863e2166e"
        }
      ],
      "licenses": [
        {
          "license": {
            "id": "MIT",
            "url": "https://opensource.org/licenses/MIT"
          }
        }
      ],
      "purl": "pkg:pypi/appdirs@1.4.3",
      "externalReferences": [
        {
          "url": "http://github.com/ActiveState/appdirs",
          "type": "vcs"
        }
      ]
    },
    {
      "type": "library",
      "bom-ref": "pkg:pypi/attrs@19.3.0",
      "group": "",
      "name": "attrs",
      "version": "19.3.0",
      "description": "Classes Without Boilerplate",
      "hashes": [
        {
          "alg": "SHA-256",
          "content": "08a96c641c3a74e44eb59afb61a24f2cb9f4d7188748e76ba4bb5edfa3cb7d1c"
        }
      ],
      "licenses": [
        {
          "license": {
            "id": "MIT",
            "url": "https://opensource.org/licenses/MIT"
          }
        }
      ],
      "purl": "pkg:pypi/attrs@19.3.0",
      "externalReferences": [
        {
          "url": "https://www.attrs.org/",
          "type": "website"
        }
      ]
    },
    {
      "type": "library",
      "bom-ref": "pkg:pypi/click@7.1.1",
      "group": "",
      "name": "click",
      "version": "7.1.1",
      "description": "Composable command line interface toolkit",
      "hashes": [
        {
          "alg": "SHA-256",
          "content": "e345d143d80bf5ee7534056164e5e112ea5e22716bbb1ce727941f4c8b471b9a"
        }
      ],
      "licenses": [
        {
          "license": {
            "id": "BSD-3-Clause",
            "url": "https://opensource.org/licenses/BSD-3-Clause"
          }
        }
      ],
      "purl": "pkg:pypi/click@7.1.1",
      "externalReferences": [
        {
          "url": "https://palletsprojects.com/p/click/",
          "type": "website"
        }
      ]
    },
    {
      "type": "library",
      "bom-ref": "pkg:pypi/coverage@5.0.4",
      "group": "",
      "name": "coverage",
      "version": "5.0.4",
      "description": "Code coverage measurement for Python",
      "hashes": [
        {
          "alg": "SHA-256",
          "content": "8a620767b8209f3446197c0e29ba895d75a1e272a36af0786ec70fe7834e4307"
        }
      ],
      "licenses": [
        {
          "license": {
            "id": "Apache-2.0",
            "url": "https://opensource.org/licenses/Apache-2.0"
          }
        }
      ],
      "purl": "pkg:pypi/coverage@5.0.4",
      "externalReferences": [
        {
          "url": "https://github.com/nedbat/coveragepy",
          "type": "vcs"
        }
      ]
    },
    {
      "type": "library",
      "bom-ref": "pkg:pypi/distlib@0.3.0",
      "group": "",
      "name": "distlib",
      "version": "0.3.0",
      "description": "Distribution utilities",
      "hashes": [
        {
          "alg": "SHA-256",
          "content": "2e166e231a26b36d6dfe35a48c4464346620f8645ed0ace01ee31822b288de21"
        }
      ],
      "licenses": [
        {
          "license": {
            "name": "Python license"
          }
        }
      ],
      "purl": "pkg:pypi/distlib@0.3.0",
      "externalReferences": [
        {
          "url": "https://bitbucket.org/pypa/distlib",
          "type": "website"
        }
      ]
    },
    {
      "type": "library",
      "bom-ref": "pkg:pypi/entrypoints@0.3",
      "group": "",
      "name": "entrypoints",
      "version": "0.3",
      "description": "Discover and load entry points from installed packages.",
      "hashes": [
        {
          "alg": "SHA-256",
          "content": "589f874b313739ad35be6e0cd7efde2a4e9b6fea91edcc34e58ecbb8dbe56d19"
        }
      ],
      "purl": "pkg:pypi/entrypoints@0.3",
      "externalReferences": [
        {
          "url": "https://github.com/takluyver/entrypoints",
          "type": "vcs"
        }
      ]
    },
    {
      "type": "library",
      "bom-ref": "pkg:pypi/eradicate@1.0",
      "group": "",
      "name": "eradicate",
      "version": "1.0",
      "description": "Removes commented-out code.",
      "hashes": [
        {
          "alg": "SHA-256",
          "content": "4ffda82aae6fd49dfffa777a857cb758d77502a1f2e0f54c9ac5155a39d2d01a"
        }
      ],
      "licenses": [
        {
          "license": {
            "name": "Expat License"
          }
        }
      ],
      "purl": "pkg:pypi/eradicate@1.0",
      "externalReferences": [
        {
          "url": "https://github.com/myint/eradicate",
          "type": "vcs"
        }
      ]
    },
    {
      "type": "library",
      "bom-ref": "pkg:pypi/flake8-bugbear@\"3\"",
      "group": "",
      "name": "flake8-bugbear",
      "version": "\"3\"",
      "description": "A plugin for flake8 finding likely bugs and design problems in your program. Contains warnings that don't belong in pyflakes and pycodestyle.",
      "licenses": [
        {
          "license": {
            "id": "MIT",
            "url": "https://opensource.org/licenses/MIT"
          }
        }
      ],
      "purl": "pkg:pypi/flake8-bugbear@\"3\"",
      "externalReferences": [
        {
          "url": "https://github.com/PyCQA/flake8-bugbear",
          "type": "vcs"
        }
      ]
    },
    {
      "type": "library",
      "bom-ref": "pkg:pypi/flake8-builtins@1.5.2",
      "group": "",
      "name": "flake8-builtins",
      "version": "1.5.2",
      "description": "Check for python builtins being used as variables or parameters.",
      "hashes": [
        {
          "alg": "SHA-256",
          "content": "a0296d23da92a6f2494243b9f2039bfdb73f34aba20054c1b70b2a60c84745bb"
        }
      ],
      "licenses": [
        {
          "license": {
            "name": "GPL version 2"
          }
        }
      ],
      "purl": "pkg:pypi/flake8-builtins@1.5.2",
      "externalReferences": [
        {
          "url": "https://github.com/gforcada/flake8-builtins",
          "type": "vcs"
        }
      ]
    },
    {
      "type": "library",
      "bom-ref": "pkg:pypi/flake8-comprehensions@\"3\"",
      "group": "",
      "name": "flake8-comprehensions",
      "version": "\"3\"",
      "description": "A flake8 plugin to help you write better list/set/dict comprehensions.",
      "licenses": [
        {
          "license": {
            "id": "MIT",
            "url": "https://opensource.org/licenses/MIT"
          }
        }
      ],
      "purl": "pkg:pypi/flake8-comprehensions@\"3\"",
      "externalReferences": [
        {
          "url": "https://github.com/adamchainz/flake8-comprehensions",
          "type": "vcs"
        }
      ]
    },
    {
      "type": "library",
      "bom-ref": "pkg:pypi/flake8-eradicate@\"3\"",
      "group": "",
      "name": "flake8-eradicate",
      "version": "\"3\"",
      "description": "Flake8 plugin to find commented out code",
      "licenses": [
        {
          "license": {
            "id": "MIT",
            "url": "https://opensource.org/licenses/MIT"
          }
        }
      ],
      "purl": "pkg:pypi/flake8-eradicate@\"3\"",
      "externalReferences": [
        {
          "url": "https://github.com/wemake-services/flake8-eradicate",
          "type": "vcs"
        }
      ]
    },
    {
      "type": "library",
      "bom-ref": "pkg:pypi/flake8-isort@2.9.0",
      "group": "",
      "name": "flake8-isort",
      "version": "2.9.0",
      "description": "flake8 plugin that integrates isort .",
      "hashes": [
        {
          "alg": "SHA-256",
          "content": "e1184919b07930506b109cec8bf405f9a95bf2c0c6223362760216c8a1cf2930"
        }
      ],
      "licenses": [
        {
          "license": {
            "name": "GPL version 2"
          }
        }
      ],
      "purl": "pkg:pypi/flake8-isort@2.9.0",
      "externalReferences": [
        {
          "url": "https://github.com/gforcada/flake8-isort",
          "type": "vcs"
        }
      ]
    },
    {
      "type": "library",
      "bom-ref": "pkg:pypi/flake8-mypy@\"3.5\"",
      "group": "",
      "name": "flake8-mypy",
      "version": "\"3.5\"",
      "description": "A plugin for flake8 integrating mypy.",
      "licenses": [
        {
          "license": {
            "id": "MIT",
            "url": "https://opensource.org/licenses/MIT"
          }
        }
      ],
      "purl": "pkg:pypi/flake8-mypy@\"3.5\"",
      "externalReferences": [
        {
          "url": "https://github.com/ambv/flake8-mypy",
          "type": "vcs"
        }
      ]
    },
    {
      "type": "library",
      "bom-ref": "pkg:pypi/flake8-pep3101@1.3.0",
      "group": "",
      "name": "flake8-pep3101",
      "version": "1.3.0",
      "description": "Checks for old string formatting.",
      "hashes": [
        {
          "alg": "SHA-256",
          "content": "a5dae1caca1243b2b40108dce926d97cf5a9f52515c4a4cbb1ffe1ca0c54e343"
        }
      ],
      "licenses": [
        {
          "license": {
            "name": "GPL version 2"
          }
        }
      ],
      "purl": "pkg:pypi/flake8-pep3101@1.3.0",
      "externalReferences": [
        {
          "url": "https://github.com/gforcada/flake8-pep3101",
          "type": "vcs"
        }
      ]
    },
    {
      "type": "library",
      "bom-ref": "pkg:pypi/flake8-print@3.1.4",
      "group": "",
      "name": "flake8-print",
      "version": "3.1.4",
      "description": "print statement checker plugin for flake8",
      "hashes": [
        {
          "alg": "SHA-256",
          "content": "324f9e59a522518daa2461bacd7f82da3c34eb26a4314c2a54bd493f8b394a68"
        }
      ],
      "licenses": [
        {
          "license": {
            "id": "MIT",
            "url": "https://opensource.org/licenses/MIT"
          }
        }
      ],
      "purl": "pkg:pypi/flake8-print@3.1.4",
      "externalReferences": [
        {
          "url": "https://github.com/jbkahn/flake8-print",
          "type": "vcs"
        }
      ]
    },
    {
      "type": "library",
      "bom-ref": "pkg:pypi/flake8@3.7.9",
      "group": "",
      "name": "flake8",
      "version": "3.7.9",
      "description": "the modular source code checker: pep8 pyflakes and co",
      "hashes": [
        {
          "alg": "SHA-256",
          "content": "49356e766643ad15072a789a20915d3c91dc89fd313ccd71802303fd67e4deca"
        }
      ],
      "licenses": [
        {
          "license": {
            "id": "MIT",
            "url": "https://opensource.org/licenses/MIT"
          }
        }
      ],
      "purl": "pkg:pypi/flake8@3.7.9",
      "externalReferences": [
        {
          "url": "https://github.com/pycqa/flake8",
          "type": "vcs"
        }
      ]
    },
    {
      "type": "library",
      "bom-ref": "pkg:pypi/more-itertools@8.2.0",
      "group": "",
      "name": "more-itertools",
      "version": "8.2.0",
      "description": "More routines for operating on iterables, beyond itertools",
      "hashes": [
        {
          "alg": "SHA-256",
          "content": "5dd8bcf33e5f9513ffa06d5ad33d78f31e1931ac9a18f33d37e77a180d393a7c"
        }
      ],
      "purl": "pkg:pypi/more-itertools@8.2.0"
    },
    {
      "type": "library",
      "bom-ref": "pkg:pypi/mypy-extensions@0.4.3",
      "group": "",
      "name": "mypy-extensions",
      "version": "0.4.3",
      "description": "Experimental type system extensions for programs checked with the mypy typechecker.",
      "hashes": [
        {
          "alg": "SHA-256",
          "content": "090fedd75945a69ae91ce1303b5824f428daf5a028d2f6ab8a299250a846f15d"
        }
      ],
      "licenses": [
        {
          "license": {
            "id": "MIT",
            "url": "https://opensource.org/licenses/MIT"
          }
        }
      ],
      "purl": "pkg:pypi/mypy-extensions@0.4.3",
      "externalReferences": [
        {
          "url": "https://github.com/python/mypy_extensions",
          "type": "vcs"
        }
      ]
    },
    {
      "type": "library",
      "bom-ref": "pkg:pypi/mypy@0.770",
      "group": "",
      "name": "mypy",
      "version": "0.770",
      "description": "Optional static typing for Python",
      "hashes": [
        {
          "alg": "SHA-256",
          "content": "a34b577cdf6313bf24755f7a0e3f3c326d5c1f4fe7422d1d06498eb25ad0c600"
        }
      ],
      "licenses": [
        {
          "license": {
            "id": "MIT",
            "url": "https://opensource.org/licenses/MIT"
          }
        }
      ],
      "purl": "pkg:pypi/mypy@0.770",
      "externalReferences": [
        {
          "url": "http://www.mypy-lang.org/",
          "type": "website"
        }
      ]
    },
    {
      "type": "library",
      "bom-ref": "pkg:pypi/packaging@20.3",
      "group": "",
      "name": "packaging",
      "version": "20.3",
      "description": "Core utilities for Python packages",
      "hashes": [
        {
          "alg": "SHA-256",
          "content": "82f77b9bee21c1bafbf35a84905d604d5d1223801d639cf3ed140bd651c08752"
        }
      ],
      "licenses": [
        {
          "license": {
            "name": "BSD-2-Clause or Apache-2.0"
          }
        }
      ],
      "purl": "pkg:pypi/packaging@20.3",
      "externalReferences": [
        {
          "url": "https://github.com/pypa/packaging",
          "type": "vcs"
        }
      ]
    },
    {
      "type": "library",
      "bom-ref": "pkg:pypi/pip-tools@4.5.1",
      "group": "",
      "name": "pip-tools",
      "version": "4.5.1",
      "description": "pip-tools keeps your pinned dependencies fresh.",
      "hashes": [
        {
          "alg": "SHA-256",
          "content": "be9c796aa88b2eec5cabf1323ba1cb60a08212b84bfb75b8b4037a8ef8cb8cb6"
        }
      ],
      "licenses": [
        {
          "license": {
            "id": "BSD-3-Clause",
            "url": "https://opensource.org/licenses/BSD-3-Clause"
          }
        }
      ],
      "purl": "pkg:pypi/pip-tools@4.5.1",
      "externalReferences": [
        {
          "url": "https://github.com/jazzband/pip-tools/",
          "type": "vcs"
        }
      ]
    },
    {
      "type": "library",
      "bom-ref": "pkg:pypi/py@1.8.1",
      "group": "",
      "name": "py",
      "version": "1.8.1",
      "description": "library with cross-python path, ini-parsing, io, code, log facilities",
      "hashes": [
        {
          "alg": "SHA-256",
          "content": "c20fdd83a5dbc0af9efd622bee9a5564e278f6380fffcacc43ba6f43db2813b0"
        }
      ],
      "licenses": [
        {
          "license": {
            "id": "MIT",
            "url": "https://opensource.org/licenses/MIT"
          }
        }
      ],
      "purl": "pkg:pypi/py@1.8.1",
      "externalReferences": [
        {
          "url": "https://py.readthedocs.io/",
          "type": "website"
        }
      ]
    },
    {
      "type": "library",
      "bom-ref": "pkg:pypi/pycodestyle@2.5.0",
      "group": "",
      "name": "pycodestyle",
      "version": "2.5.0",
      "description": "Python style guide checker",
      "hashes": [
        {
          "alg": "SHA-256",
          "content": "95a2219d12372f05704562a14ec30bc76b05a5b297b21a5dfe3f6fac3491ae56"
        }
      ],
      "licenses": [
        {
          "license": {
            "name": "Expat license"
          }
        }
      ],
      "purl": "pkg:pypi/pycodestyle@2.5.0",
      "externalReferences": [
        {
          "url": "https://pycodestyle.pycqa.org/",
          "type": "website"
        }
      ]
    },
    {
      "type": "library",
      "bom-ref": "pkg:pypi/pyflakes@2.1.1",
      "group": "",
      "name": "pyflakes",
      "version": "2.1.1",
      "description": "passive checker of Python programs",
      "hashes": [
        {
          "alg": "SHA-256",
          "content": "17dbeb2e3f4d772725c777fabc446d5634d1038f234e77343108ce445ea69ce0"
        }
      ],
      "licenses": [
        {
          "license": {
            "id": "MIT",
            "url": "https://opensource.org/licenses/MIT"
          }
        }
      ],
      "purl": "pkg:pypi/pyflakes@2.1.1",
      "externalReferences": [
        {
          "url": "https://github.com/PyCQA/pyflakes",
          "type": "vcs"
        }
      ]
    },
    {
      "type": "library",
      "bom-ref": "pkg:pypi/pyparsing@2.4.6",
      "group": "",
      "name": "pyparsing",
      "version": "2.4.6",
      "description": "pyparsing module - Classes and methods to define and execute parsing grammars",
      "hashes": [
        {
          "alg": "SHA-256",
          "content": "c342dccb5250c08d45fd6f8b4a559613ca603b57498511740e65cd11a2e7dcec"
        }
      ],
      "purl": "pkg:pypi/pyparsing@2.4.6"
    },
    {
      "type": "library",
      "bom-ref": "pkg:pypi/pytest@5.4.1",
      "group": "",
      "name": "pytest",
      "version": "5.4.1",
      "description": "pytest: simple powerful testing with Python",
      "hashes": [
        {
          "alg": "SHA-256",
          "content": "0e5b30f5cb04e887b91b1ee519fa3d89049595f428c1db76e73bd7f17b09b172"
        }
      ],
      "licenses": [
        {
          "license": {
            "id": "MIT",
            "url": "https://opensource.org/licenses/MIT"
          }
        }
      ],
      "purl": "pkg:pypi/pytest@5.4.1",
      "externalReferences": [
        {
          "url": "https://docs.pytest.org/en/latest/",
          "type": "website"
        }
      ]
    },
    {
      "type": "library",
      "bom-ref": "pkg:pypi/six@1.14.0",
      "group": "",
      "name": "six",
      "version": "1.14.0",
      "description": "Python 2 and 3 compatibility utilities",
      "hashes": [
        {
          "alg": "SHA-256",
          "content": "8f3cd2e254d8f793e7f3d6d9df77b92252b52637291d0f0da013c76ea2724b6c"
        }
      ],
      "licenses": [
        {
          "license": {
            "id": "MIT",
            "url": "https://opensource.org/licenses/MIT"
          }
        }
      ],
      "purl": "pkg:pypi/six@1.14.0",
      "externalReferences": [
        {
          "url": "https://github.com/benjaminp/six",
          "type": "vcs"
        }
      ]
    },
    {
      "type": "library",
      "bom-ref": "pkg:pypi/testfixtures@6.14.0",
      "group": "",
      "name": "testfixtures",
      "version": "6.14.0",
      "description": "A collection of helpers and mock objects for unit tests and doc tests.",
      "hashes": [
        {
          "alg": "SHA-256",
          "content": "799144b3cbef7b072452d9c36cbd024fef415ab42924b96aad49dfd9c763de66"
        }
      ],
      "licenses": [
        {
          "license": {
            "id": "MIT",
            "url": "https://opensource.org/licenses/MIT"
          }
        }
      ],
      "purl": "pkg:pypi/testfixtures@6.14.0",
      "externalReferences": [
        {
          "url": "https://github.com/Simplistix/testfixtures",
          "type": "vcs"
        }
      ]
    },
    {
      "type": "library",
      "bom-ref": "pkg:pypi/toml@0.10.0",
      "group": "",
      "name": "toml",
      "version": "0.10.0",
      "description": "Python Library for Tom's Obvious, Minimal Language",
      "hashes": [
        {
          "alg": "SHA-256",
          "content": "f1db651f9657708513243e61e6cc67d101a39bad662eaa9b5546f789338e07a3"
        }
      ],
      "licenses": [
        {
          "license": {
            "id": "MIT",
            "url": "https://opensource.org/licenses/MIT"
          }
        }
      ],
      "purl": "pkg:pypi/toml@0.10.0",
      "externalReferences": [
        {
          "url": "https://github.com/uiri/toml",
          "type": "vcs"
        }
      ]
    },
    {
      "type": "library",
      "bom-ref": "pkg:pypi/tox@3.14.5",
      "group": "",
      "name": "tox",
      "version": "3.14.5",
      "description": "tox is a generic virtualenv management and test command line tool",
      "hashes": [
        {
          "alg": "SHA-256",
          "content": "0cbe98369081fa16bd6f1163d3d0b2a62afa29d402ccfad2bd09fb2668be0956"
        }
      ],
      "licenses": [
        {
          "license": {
            "id": "MIT",
            "url": "https://opensource.org/licenses/MIT"
          }
        }
      ],
      "purl": "pkg:pypi/tox@3.14.5",
      "externalReferences": [
        {
          "url": "https://tox.readthedocs.io",
          "type": "website"
        }
      ]
    },
    {
      "type": "library",
      "bom-ref": "pkg:pypi/typed-ast@1.4.3",
      "group": "",
      "name": "typed-ast",
      "version": "1.4.3",
      "description": "a fork of Python 2 and 3 ast modules with type comment support",
      "hashes": [
        {
          "alg": "SHA-256",
          "content": "2068531575a125b87a41802130fa7e29f26c09a2833fea68d9a40cf33902eba6"
        }
      ],
      "licenses": [
        {
          "license": {
            "id": "Apache-2.0",
            "url": "https://opensource.org/licenses/Apache-2.0"
          }
        }
      ],
      "purl": "pkg:pypi/typed-ast@1.4.3",
      "externalReferences": [
        {
          "url": "https://github.com/python/typed_ast",
          "type": "vcs"
        }
      ]
    },
    {
      "type": "library",
      "bom-ref": "pkg:pypi/typing-extensions@3.7.4.1",
      "group": "",
      "name": "typing-extensions",
      "version": "3.7.4.1",
      "description": "Backported and Experimental Type Hints for Python 3.7+",
      "hashes": [
        {
          "alg": "SHA-256",
          "content": "910f4656f54de5993ad9304959ce9bb903f90aadc7c67a0bef07e678014e892d"
        }
      ],
      "purl": "pkg:pypi/typing-extensions@3.7.4.1"
    },
    {
      "type": "library",
      "bom-ref": "pkg:pypi/virtualenv@20.0.13",
      "group": "",
      "name": "virtualenv",
      "version": "20.0.13",
      "description": "Virtual Python Environment builder",
      "hashes": [
        {
          "alg": "SHA-256",
          "content": "87831f1070534b636fea2241dd66f3afe37ac9041bcca6d0af3215cdcfbf7d82"
        }
      ],
      "licenses": [
        {
          "license": {
            "id": "MIT",
            "url": "https://opensource.org/licenses/MIT"
          }
        }
      ],
      "purl": "pkg:pypi/virtualenv@20.0.13",
      "externalReferences": [
        {
          "url": "https://virtualenv.pypa.io/",
          "type": "website"
        }
      ]
    },
    {
      "type": "library",
      "bom-ref": "pkg:pypi/wcwidth@0.1.9",
      "group": "",
      "name": "wcwidth",
      "version": "0.1.9",
      "description": "Measures the displayed width of unicode strings in a terminal",
      "hashes": [
        {
          "alg": "SHA-256",
          "content": "cafe2186b3c009a04067022ce1dcd79cb38d8d65ee4f4791b8888d6599d1bbe1"
        }
      ],
      "licenses": [
        {
          "license": {
            "id": "MIT",
            "url": "https://opensource.org/licenses/MIT"
          }
        }
      ],
      "purl": "pkg:pypi/wcwidth@0.1.9",
      "externalReferences": [
        {
          "url": "https://github.com/jquast/wcwidth",
          "type": "vcs"
        }
      ]
    }
  ]
}
