{
  "bomFormat": "CycloneDX",
  "specVersion": "1.3",
  "version": 1,
  "metadata": {
    "tools": [
      {
        "vendor": "CycloneDX",
        "name": "Node.js module",
        "version": "3.0.3"
      },
      {
        "vendor": "AppThreat",
        "name": "cdxgen",
        "version": "3.0.10"
      },
      {
        "vendor": "Fortress Information Security",
        "name": "Github Extractor",
        "version": "1.15.1"
      }
    ],
    "authors": [
      {
        "name": "Fortress Information Security",
        "email": "sales@fortressinfosec.com",
        "phone": "1-407-573-6800"
      }
    ],
    "timestamp": "2022-06-01T21:00:00Z",
    "component": {
      "type": "application",
      "name": "daterangepicker",
      "version": "v3.1",
      "group": "dangrossman",
      "externalReferences": [
        {
          "url": "https://github.com/dangrossman/daterangepicker.git",
          "type": "distribution"
        },
        {
          "type": "website",
          "url": "http://www.daterangepicker.com",
          "comment": "As set via `homepage` in Github API"
        }
      ]
    }
  },
  "components": [
    {
      "type": "library",
      "bom-ref": "pkg:npm/jquery@3.6.0",
      "name": "jquery",
      "version": "3.6.0",
      "description": "JavaScript library for DOM operations",
      "hashes": [
        {
          "alg": "SHA-1",
          "content": "c72a09f15c1bdce142f49dbf1170bdf8adac2470"
        }
      ],
      "licenses": [
        {
          "license": {
            "id": "MIT"
          }
        }
      ],
      "purl": "pkg:npm/jquery@3.6.0",
      "externalReferences": [
        {
          "url": "https://jquery.com",
          "type": "website"
        },
        {
          "url": "https://github.com/jquery/jquery/issues",
          "type": "issue-tracker"
        },
        {
          "url": "git+https://github.com/jquery/jquery.git",
          "type": "vcs"
        }
      ]
    },
    {
      "type": "library",
      "bom-ref": "pkg:npm/moment@2.29.3",
      "name": "moment",
      "version": "2.29.3",
      "description": "Parse, validate, manipulate, and display dates",
      "hashes": [
        {
          "alg": "SHA-1",
          "content": "edd47411c322413999f7a5940d526de183c031f3"
        }
      ],
      "licenses": [
        {
          "license": {
            "id": "MIT"
          }
        }
      ],
      "purl": "pkg:npm/moment@2.29.3",
      "externalReferences": [
        {
          "url": "https://momentjs.com",
          "type": "website"
        },
        {
          "url": "https://github.com/moment/moment/issues",
          "type": "issue-tracker"
        },
        {
          "url": "git+https://github.com/moment/moment.git",
          "type": "vcs"
        }
      ]
    }
  ]
}
