{
  "bomFormat": "CycloneDX",
  "specVersion": "1.3",
  "version": 2,
  "metadata": {
    "tools": [
      {
        "vendor": "CycloneDX",
        "name": "Node.js module",
        "version": "3.0.3"
      },
      {
        "vendor": "AppThreat",
        "name": "cdxgen",
        "version": "3.0.10"
      },
      {
        "vendor": "Fortress Information Security",
        "name": "Github Extractor",
        "version": "1.15.1"
      }
    ],
    "authors": [
      {
        "name": "Fortress Information Security",
        "email": "sales@fortressinfosec.com",
        "phone": "1-407-573-6800"
      }
    ],
    "timestamp": "2022-07-26T23:34:49Z",
    "component": {
      "type": "application",
      "name": "buck",
      "version": "v2021.05.05.01",
      "group": "facebook",
      "externalReferences": [
        {
          "url": "https://github.com/facebook/buck.git",
          "type": "distribution"
        },
        {
          "type": "website",
          "url": "https://buck.build",
          "comment": "As set via `homepage` in Github API"
        }
      ]
    }
  },
  "components": [
    {
      "type": "library",
      "publisher": "Vinay Sajip",
      "name": "logging",
      "version": "0.4.9.6",
      "description": "A logging module for Python",
      "hashes": [
        {
          "alg": "MD5",
          "content": "dc0a7ebc8b8970263911e11e7b7e1ca8"
        },
        {
          "alg": "SHA-256",
          "content": "26f6b50773f085042d301085bd1bf5d9f3735704db9f37c1ce6d8b85c38f2417"
        }
      ],
      "licenses": [
        {
          "license": {
            "name": "Copyright (C) 2001-2005 by Vinay Sajip. All Rights Reserved. See LICENSE for license."
          }
        }
      ],
      "purl": "pkg:pypi/logging@0.4.9.6",
      "modified": false
    },
    {
      "type": "library",
      "publisher": "Thomas Waldmann",
      "name": "argparse",
      "version": "1.4.0",
      "description": "Python command-line parsing library",
      "hashes": [
        {
          "alg": "MD5",
          "content": "c37216a954c8669054e2b2c54853dd49"
        },
        {
          "alg": "SHA-256",
          "content": "c31647edb69fd3d465a847ea3157d37bed1f95f19760b11a47aa91c04b666314"
        }
      ],
      "licenses": [
        {
          "license": {
            "name": "Python Software Foundation License"
          }
        }
      ],
      "purl": "pkg:pypi/argparse@1.4.0",
      "modified": false
    },
    {
      "type": "library",
      "publisher": "Zope Foundation and Contributors",
      "name": "datetime",
      "version": "4.4",
      "description": "This package provides a DateTime data type, as known from Zope. Unless you need to communicate with Zope APIs, you're probably better off using Python's built-in datetime module.",
      "hashes": [
        {
          "alg": "MD5",
          "content": "ad1e82d858ed7c8cd2ea437b4cb695ed"
        },
        {
          "alg": "SHA-256",
          "content": "4fcca115ddb466a1104df08d5c2a2f5805d14ca317800e1bfcea8f3d69f66e57"
        }
      ],
      "licenses": [
        {
          "license": {
            "name": "ZPL 2.1"
          }
        }
      ],
      "purl": "pkg:pypi/datetime@4.4",
      "modified": false
    },
    {
      "type": "library",
      "publisher": "Jason Petrone",
      "name": "magic",
      "version": "0.1",
      "description": "Determines a file's mime type by its magic number",
      "purl": "pkg:pypi/magic@0.1",
      "modified": false
    },
    {
      "type": "library",
      "name": "hashlib",
      "version": "20081119",
      "description": "Secure hash and message digest algorithm library",
      "hashes": [
        {
          "alg": "MD5",
          "content": "46e59db6d5cac34b3344ef0c30d0897f"
        },
        {
          "alg": "SHA-256",
          "content": "419de2fd10ae71ed9c6adcb55903f116abd1d8acc8c814dfd5f839b4d5013e38"
        }
      ],
      "purl": "pkg:pypi/hashlib@20081119",
      "modified": false
    },
    {
      "type": "library",
      "publisher": "Ka-Ping Yee",
      "name": "uuid",
      "version": "1.30",
      "description": "UUID object and generation functions (Python 2.3 or higher)",
      "hashes": [
        {
          "alg": "MD5",
          "content": "639b310f1fe6800e4bf8aa1dd9333117"
        },
        {
          "alg": "SHA-256",
          "content": "1f87cc004ac5120466f36c5beae48b4c48cc411968eed0eaecd3da82aa96193f"
        }
      ],
      "purl": "pkg:pypi/uuid@1.30",
      "modified": false
    },
    {
      "type": "library",
      "publisher": "cls1991",
      "name": "ng",
      "version": "1.2.0",
      "description": "Get password of the wifi you're connected, and your current ip address.",
      "hashes": [
        {
          "alg": "MD5",
          "content": "20fb4a608265a76117e835bcff41a754"
        },
        {
          "alg": "SHA-256",
          "content": "61da28286f39a417fd1a9e879d78c35f65f0225ae3adb89b8077569c24345a89"
        }
      ],
      "licenses": [
        {
          "license": {
            "name": "Apache License 2.0"
          }
        }
      ],
      "purl": "pkg:pypi/ng@1.2.0",
      "modified": false
    },
    {
      "type": "library",
      "publisher": "Thomas Heller",
      "name": "ctypes",
      "version": "1.0.2",
      "description": "create and manipulate C data types in Python, call functions in shared libraries",
      "licenses": [
        {
          "license": {
            "name": "MIT License"
          }
        }
      ],
      "purl": "pkg:pypi/ctypes@1.0.2",
      "modified": false
    },
    {
      "type": "library",
      "publisher": "Christian Heimes",
      "name": "multiprocessing",
      "version": "2.6.2.1",
      "description": "Backport of the multiprocessing package to Python 2.4 and 2.5",
      "hashes": [
        {
          "alg": "MD5",
          "content": "5cc484396c040102116ccc2355379c72"
        },
        {
          "alg": "SHA-256",
          "content": "ef3b81ad85d7de252e5491b1daac028e17f9741cbe3625032e6eaa4ad4c79900"
        }
      ],
      "licenses": [
        {
          "license": {
            "name": "BSD Licence"
          }
        }
      ],
      "purl": "pkg:pypi/multiprocessing@2.6.2.1",
      "modified": false
    },
    {
      "type": "library",
      "publisher": "Eric V. Smith",
      "name": "dataclasses",
      "version": "0.8",
      "description": "A backport of the dataclasses module for Python 3.6",
      "hashes": [
        {
          "alg": "MD5",
          "content": "0d6e5bb7adcc8fb0de3ef1ace1b32999"
        },
        {
          "alg": "SHA-256",
          "content": "0201d89fa866f68c8ebd9d08ee6ff50c0b255f8ec63a71c16fda7af82bb887bf"
        }
      ],
      "licenses": [
        {
          "license": {
            "name": "Apache"
          }
        }
      ],
      "purl": "pkg:pypi/dataclasses@0.8",
      "modified": false
    },
    {
      "type": "library",
      "publisher": "Antoine Pitrou",
      "name": "pathlib",
      "version": "1.0.1",
      "description": "Object-oriented filesystem paths",
      "hashes": [
        {
          "alg": "MD5",
          "content": "f26b13acf298a15cdb46a3dffc8eb0de"
        },
        {
          "alg": "SHA-256",
          "content": "f35f95ab8b0f59e6d354090350b44a80a80635d22efdedfa84c7ad1cf0a74147"
        }
      ],
      "licenses": [
        {
          "license": {
            "name": "MIT License"
          }
        }
      ],
      "purl": "pkg:pypi/pathlib@1.0.1",
      "modified": false
    },
    {
      "type": "library",
      "publisher": "Guido van Rossum, Jukka Lehtosalo, Łukasz Langa, Ivan Levkivskyi",
      "name": "typing",
      "version": "3.10.0.0",
      "description": "Type Hints for Python",
      "hashes": [
        {
          "alg": "MD5",
          "content": "cf38139027dc160e3ecd8e5ccf151da9"
        },
        {
          "alg": "SHA-256",
          "content": "12fbdfbe7d6cca1a42e485229afcb0b0c8259258cfb919b8a5e2a5c953742f89"
        }
      ],
      "licenses": [
        {
          "license": {
            "name": "PSF"
          }
        }
      ],
      "purl": "pkg:pypi/typing@3.10.0.0",
      "modified": false
    },
    {
      "type": "library",
      "publisher": "Keith Horwood",
      "name": "lib",
      "version": "4.0.0",
      "description": "Autocode standard library Python bindings",
      "hashes": [
        {
          "alg": "MD5",
          "content": "eaffba56dbe2fe4e80691dcae8768670"
        },
        {
          "alg": "SHA-256",
          "content": "d0a9e03b27d2b94c403f43c1af39366500032d587dcd45ffdf707131cbdf58c6"
        }
      ],
      "licenses": [
        {
          "license": {
            "name": "MIT"
          }
        }
      ],
      "purl": "pkg:pypi/lib@4.0.0",
      "modified": false
    },
    {
      "type": "library",
      "publisher": "Aman Abhishek Tiwari",
      "name": "py_lib",
      "version": "2.0",
      "description": "My python library where you could find my miscellaneous python codes",
      "hashes": [
        {
          "alg": "MD5",
          "content": "56b3933bf4fe98c9b923a03f2ef8d4e5"
        },
        {
          "alg": "SHA-256",
          "content": "9b5ec8f46f0c161fa6cb24695d1efddccd7f667f9ad9b7e2454ee1477439ba15"
        }
      ],
      "licenses": [
        {
          "license": {
            "name": "GPLv3+"
          }
        }
      ],
      "purl": "pkg:pypi/py-lib@2.0",
      "modified": false
    },
    {
      "type": "library",
      "publisher": "Vinicius Araujo",
      "name": "impl",
      "version": "0.1.2",
      "description": "LIME-based library for interpretation of local models",
      "hashes": [
        {
          "alg": "MD5",
          "content": "5529a66f63a8b69f2224310fe69da622"
        },
        {
          "alg": "SHA-256",
          "content": "bfe6ce6d237c6e2aae8f022ff91c455c9716de41fe11a6b0389640820542dc03"
        }
      ],
      "licenses": [
        {
          "license": {
            "name": "BSD"
          }
        }
      ],
      "purl": "pkg:pypi/impl@0.1.2",
      "modified": false
    },
    {
      "type": "library",
      "publisher": "Gregory Petukhov",
      "name": "tools",
      "version": "0.1.9",
      "description": "Set of tools for web scraping projects",
      "hashes": [
        {
          "alg": "MD5",
          "content": "c60953c50e45c5793e161e522b1d1191"
        },
        {
          "alg": "SHA-256",
          "content": "7b7f998462cf5b02635fba76cc7cdb3653468aa46ff074b979dbecdb2a2fb014"
        }
      ],
      "licenses": [
        {
          "license": {
            "name": "MIT"
          }
        }
      ],
      "purl": "pkg:pypi/tools@0.1.9",
      "modified": false
    },
    {
      "type": "library",
      "publisher": "Wez Furlong",
      "name": "pywatchman",
      "version": "1.4.1",
      "description": "Watchman client for python",
      "hashes": [
        {
          "alg": "MD5",
          "content": "d770d09bd105e83013f63492fce70c6f"
        },
        {
          "alg": "SHA-256",
          "content": "d0047eb275deafb0011eda0a1a815fbd9742478c3d2b5ad6956d300e447dc2f9"
        }
      ],
      "licenses": [
        {
          "license": {
            "name": "BSD"
          }
        }
      ],
      "purl": "pkg:pypi/pywatchman@1.4.1",
      "modified": false
    },
    {
      "type": "library",
      "publisher": "Benjamin Peterson",
      "name": "six",
      "version": "1.16.0",
      "description": "Python 2 and 3 compatibility utilities",
      "hashes": [
        {
          "alg": "MD5",
          "content": "529d7fd7e14612ccde86417b4402d6f3"
        },
        {
          "alg": "SHA-256",
          "content": "8abb2f1d86890a2dfb989f9a77cfcfd3e47c2a354b01111771326f8aa26e0254"
        }
      ],
      "licenses": [
        {
          "license": {
            "name": "MIT"
          }
        }
      ],
      "purl": "pkg:pypi/six@1.16.0",
      "modified": false
    },
    {
      "type": "library",
      "publisher": "Mariano Sorgente",
      "name": "token",
      "version": "1.8.6",
      "description": "Token client to REST Apis",
      "hashes": [
        {
          "alg": "MD5",
          "content": "8b0c88a3bb336a58ae0928ea5e7cffb9"
        },
        {
          "alg": "SHA-256",
          "content": "81c73f207cd1405b2b9f38345a7ccc52ae644e6773a87b0b697888c309c66397"
        }
      ],
      "purl": "pkg:pypi/token@1.8.6",
      "modified": false
    },
    {
      "type": "library",
      "name": "email",
      "version": "4.0.2",
      "description": "Standalone email package",
      "hashes": [
        {
          "alg": "MD5",
          "content": "67707dc0fab874edc5ac45f95ec9ec87"
        },
        {
          "alg": "SHA-256",
          "content": "e2254c9b4e4cf33553f7dfc85b500eea4c3e96733736f38c9dbfc3dcc6303705"
        }
      ],
      "purl": "pkg:pypi/email@4.0.2",
      "modified": false
    },
    {
      "type": "library",
      "publisher": "Holger Krekel, Bruno Oliveira, Ronny Pfannschmidt, Floris Bruynooghe, Brianna Laugher, Florian Bruhin and others",
      "name": "pytest",
      "version": "7.1.2",
      "description": "pytest: simple powerful testing with Python",
      "hashes": [
        {
          "alg": "MD5",
          "content": "6f5a9e12007a2529cb00d3b5a8af33a1"
        },
        {
          "alg": "SHA-256",
          "content": "13d0e3ccfc2b6e26be000cb6568c832ba67ba32e719443bfe725814d3c42433c"
        }
      ],
      "licenses": [
        {
          "license": {
            "name": "MIT"
          }
        }
      ],
      "purl": "pkg:pypi/pytest@7.1.2",
      "modified": false
    },
    {
      "type": "library",
      "publisher": "zhengxingyu",
      "name": "pkg1",
      "version": "0.0.3",
      "description": "A daily useful kit by Hong Peng.",
      "hashes": [
        {
          "alg": "MD5",
          "content": "cf8a9933baf1be2a37551374b8178d70"
        },
        {
          "alg": "SHA-256",
          "content": "b6ce9286dd62abb213570f7103cff3da71e8e5740f8dd9afbf48dbd6ca149762"
        }
      ],
      "licenses": [
        {
          "license": {
            "name": "MIT"
          }
        }
      ],
      "purl": "pkg:pypi/pkg1@0.0.3",
      "modified": false
    },
    {
      "type": "library",
      "publisher": "Y. SOMDA",
      "name": "mod",
      "version": "0.3.0",
      "description": "Modular arithmetic in Python",
      "hashes": [
        {
          "alg": "MD5",
          "content": "d8386940b25d5ab16910f0ae8e8e2310"
        },
        {
          "alg": "SHA-256",
          "content": "c0416727a7172d426860185cfbf416268eb9dd1b44677eda000c0703304b23e2"
        }
      ],
      "licenses": [
        {
          "license": {
            "name": "MIT"
          }
        }
      ],
      "purl": "pkg:pypi/mod@0.3.0",
      "modified": false
    },
    {
      "type": "library",
      "publisher": "holger krekel, Ronny Pfannschmidt, Benjamin Peterson and others",
      "name": "py",
      "version": "1.11.0",
      "description": "library with cross-python path, ini-parsing, io, code, log facilities",
      "hashes": [
        {
          "alg": "MD5",
          "content": "52d444d43edb21938fad6010a2134cc3"
        },
        {
          "alg": "SHA-256",
          "content": "607c53218732647dff4acdfcd50cb62615cedf612e72d1724fb1a0cc6405b378"
        }
      ],
      "licenses": [
        {
          "license": {
            "name": "MIT license"
          }
        }
      ],
      "purl": "pkg:pypi/py@1.11.0",
      "modified": false
    },
    {
      "type": "library",
      "publisher": "The PEX developers",
      "name": "pex",
      "version": "2.1.85",
      "description": "The PEX packaging toolchain.",
      "hashes": [
        {
          "alg": "MD5",
          "content": "b592e7b7cf3fc89edca4615e024462b9"
        },
        {
          "alg": "SHA-256",
          "content": "8e8d9cb0be8dbcfd83ca2b4cefb6808f69f89d0d067c0c24b6f776b6cc51c65d"
        }
      ],
      "purl": "pkg:pypi/pex@2.1.85",
      "modified": false
    },
    {
      "type": "library",
      "bom-ref": "pkg:pypi/sphinx@4.5.0",
      "group": "",
      "name": "sphinx",
      "version": "4.5.0",
      "description": "Python documentation generator",
      "hashes": [
        {
          "alg": "SHA-256",
          "content": "ebf612653238bcc8f4359627a9b7ce44ede6fdd75d9d30f68255c7383d3a6226"
        }
      ],
      "licenses": [
        {
          "license": {
            "id": "0BSD",
            "url": "https://opensource.org/licenses/0BSD"
          }
        }
      ],
      "purl": "pkg:pypi/sphinx@4.5.0",
      "externalReferences": [
        {
          "url": "https://www.sphinx-doc.org/",
          "type": "website"
        }
      ]
    }
  ]
}
