{
  "bomFormat": "CycloneDX",
  "specVersion": "1.3",
  "version": 1,
  "components": [
    {
      "type": "library",
      "publisher": "Travis E. Oliphant et al.",
      "name": "numpy",
      "version": "1.22.3",
      "description": "NumPy is the fundamental package for array computing with Python.",
      "hashes": [
        {
          "alg": "MD5",
          "content": "99d2dfb943327b108b2c3b923bd42000"
        },
        {
          "alg": "SHA-256",
          "content": "c34ea7e9d13a70bf2ab64a2532fe149a9aced424cd05a2c4ba662fd989e3e45f"
        }
      ],
      "licenses": [
        {
          "license": {
            "name": "BSD"
          }
        }
      ],
      "purl": "pkg:pypi/numpy@1.22.3",
      "modified": false
    },
    {
      "type": "library",
      "publisher": "Keras team",
      "name": "keras",
      "version": "2.8.0",
      "description": "Deep learning for humans.",
      "hashes": [
        {
          "alg": "MD5",
          "content": "16eccd60ecedf5579ea010a9e2d6d6a9"
        },
        {
          "alg": "SHA-256",
          "content": "744d39dc6577dcd80ff4a4d41549e92b77d6a17e0edd58a431d30656e29bc94e"
        }
      ],
      "licenses": [
        {
          "license": {
            "name": "Apache 2.0"
          }
        }
      ],
      "purl": "pkg:pypi/keras@2.8.0",
      "modified": false
    },
    {
      "type": "library",
      "publisher": "Brian McFee, librosa development team",
      "name": "librosa",
      "version": "0.9.1",
      "description": "Python module for audio and music processing",
      "hashes": [
        {
          "alg": "MD5",
          "content": "9243343481580355813b6824d671b101"
        },
        {
          "alg": "SHA-256",
          "content": "c2bb61a8008367cca89a3f1dad352d8e55fe5ca5f7414fb5d5258eb52765db33"
        }
      ],
      "licenses": [
        {
          "license": {
            "name": "ISC"
          }
        }
      ],
      "purl": "pkg:pypi/librosa@0.9.1",
      "modified": false
    }
  ],
  "metadata": {
    "tools": [
      {
        "vendor": "Fortress Information Security",
        "name": "Github Extractor",
        "version": "1.15.1"
      }
    ],
    "authors": [
      {
        "name": "Fortress Information Security",
        "email": "sales@fortressinfosec.com",
        "phone": "1-407-573-6800"
      }
    ],
    "timestamp": "2022-06-01T21:00:00Z",
    "component": {
      "type": "application",
      "name": "deep-learning-models",
      "version": "v0.8",
      "group": "fchollet",
      "externalReferences": [
        {
          "url": "https://github.com/fchollet/deep-learning-models.git",
          "type": "distribution"
        },
        {
          "type": "website",
          "url": "null",
          "comment": "As set via `homepage` in Github API"
        }
      ]
    }
  }
}
