{
  "bomFormat": "CycloneDX",
  "specVersion": "1.3",
  "version": 1,
  "metadata": {
    "tools": [
      {
        "vendor": "CycloneDX",
        "name": "cyclonedx-gomod",
        "version": "v0.0.0-unset",
        "hashes": [
          {
            "alg": "MD5",
            "content": "a35776fc9417e8071d3f1dcfa2f1dd19"
          },
          {
            "alg": "SHA-1",
            "content": "a19a8eed713eff5a2092e5283c201a146f19421d"
          },
          {
            "alg": "SHA-256",
            "content": "17b3b980b9a5d0f48ad52043dee5b31aff3ae6599a36bc94224dc7b6a46759ef"
          },
          {
            "alg": "SHA-512",
            "content": "9d4f06aab20cede94a1aedf11a300ae9de98871235c68c72e421cd6d45495910861b39e743ee0eceb11bbdcd2c9acc3312c19064cfe90177243fb43127fcfa46"
          }
        ]
      },
      {
        "vendor": "AppThreat",
        "name": "cdxgen",
        "version": "3.0.10"
      },
      {
        "vendor": "Fortress Information Security",
        "name": "Github Extractor",
        "version": "1.15.1"
      }
    ],
    "authors": [
      {
        "name": "Fortress Information Security",
        "email": "sales@fortressinfosec.com",
        "phone": "1-407-573-6800"
      }
    ],
    "timestamp": "2022-06-01T21:00:00Z",
    "component": {
      "type": "application",
      "name": "freegeoip",
      "version": "v3.4.1",
      "group": "fiorix",
      "externalReferences": [
        {
          "url": "https://github.com/fiorix/freegeoip.git",
          "type": "distribution"
        },
        {
          "type": "website",
          "url": "null",
          "comment": "As set via `homepage` in Github API"
        }
      ]
    }
  },
  "components": [
    {
      "type": "library",
      "bom-ref": "pkg:golang/github.com/beorn7/perks@v0.0.0-20160804104726-4c0e84591b9a",
      "name": "github.com/beorn7/perks",
      "version": "v0.0.0-20160804104726-4c0e84591b9a",
      "scope": "required",
      "hashes": [
        {
          "alg": "SHA-256",
          "content": "06da6c6e257adfc590670840f7c704670d81b1b9d026b6ddd0123bb6ccb45b57"
        }
      ],
      "purl": "pkg:golang/github.com/beorn7/perks@v0.0.0-20160804104726-4c0e84591b9a",
      "externalReferences": [
        {
          "url": "https://github.com/beorn7/perks",
          "type": "vcs"
        }
      ]
    },
    {
      "type": "library",
      "bom-ref": "pkg:golang/github.com/bradfitz/gomemcache@v0.0.0-20170208213004-1952afaa557d",
      "name": "github.com/bradfitz/gomemcache",
      "version": "v0.0.0-20170208213004-1952afaa557d",
      "scope": "required",
      "hashes": [
        {
          "alg": "SHA-256",
          "content": "ec88cde103f7737f31860eb0cfc477623a14fba4bd7bbc417340c054b2c8a471"
        }
      ],
      "purl": "pkg:golang/github.com/bradfitz/gomemcache@v0.0.0-20170208213004-1952afaa557d",
      "externalReferences": [
        {
          "url": "https://github.com/bradfitz/gomemcache",
          "type": "vcs"
        }
      ]
    },
    {
      "type": "library",
      "bom-ref": "pkg:golang/github.com/fiorix/go-listener@v0.0.0-20170930130624-dbaa12f318e5",
      "name": "github.com/fiorix/go-listener",
      "version": "v0.0.0-20170930130624-dbaa12f318e5",
      "scope": "required",
      "hashes": [
        {
          "alg": "SHA-256",
          "content": "1941776a8049d30f9659d1b8a19f60ecada0affbedbcae0ff99e8b39b8af83bd"
        }
      ],
      "purl": "pkg:golang/github.com/fiorix/go-listener@v0.0.0-20170930130624-dbaa12f318e5",
      "externalReferences": [
        {
          "url": "https://github.com/fiorix/go-listener",
          "type": "vcs"
        }
      ]
    },
    {
      "type": "library",
      "bom-ref": "pkg:golang/github.com/fiorix/go-redis@v0.0.0-20160104010333-d987058b55eb",
      "name": "github.com/fiorix/go-redis",
      "version": "v0.0.0-20160104010333-d987058b55eb",
      "scope": "required",
      "hashes": [
        {
          "alg": "SHA-256",
          "content": "108eef07422b92f6cb9b3d6ebde3b1950603ea4c669e82d63e992e0a93e44baf"
        }
      ],
      "purl": "pkg:golang/github.com/fiorix/go-redis@v0.0.0-20160104010333-d987058b55eb",
      "externalReferences": [
        {
          "url": "https://github.com/fiorix/go-redis",
          "type": "vcs"
        }
      ]
    },
    {
      "type": "library",
      "bom-ref": "pkg:golang/github.com/go-web/httplog@v0.0.0-20160412232724-580d0d49f0d3",
      "name": "github.com/go-web/httplog",
      "version": "v0.0.0-20160412232724-580d0d49f0d3",
      "scope": "required",
      "hashes": [
        {
          "alg": "SHA-256",
          "content": "299bc868db26777afa3174d8cbd2aca18330252247a40a9d800b27f5c7325bfd"
        }
      ],
      "purl": "pkg:golang/github.com/go-web/httplog@v0.0.0-20160412232724-580d0d49f0d3",
      "externalReferences": [
        {
          "url": "https://github.com/go-web/httplog",
          "type": "vcs"
        }
      ]
    },
    {
      "type": "library",
      "bom-ref": "pkg:golang/github.com/go-web/httpmux@v0.0.0-20160505070239-9e95425ee2c3",
      "name": "github.com/go-web/httpmux",
      "version": "v0.0.0-20160505070239-9e95425ee2c3",
      "scope": "required",
      "hashes": [
        {
          "alg": "SHA-256",
          "content": "9e6b955ef397b85bab0d3773673ea59c5986af5876e21e869afdbf6dd127cae0"
        }
      ],
      "purl": "pkg:golang/github.com/go-web/httpmux@v0.0.0-20160505070239-9e95425ee2c3",
      "externalReferences": [
        {
          "url": "https://github.com/go-web/httpmux",
          "type": "vcs"
        }
      ]
    },
    {
      "type": "library",
      "bom-ref": "pkg:golang/github.com/go-web/httprl@v0.0.0-20160505070143-20dc8024cb5d",
      "name": "github.com/go-web/httprl",
      "version": "v0.0.0-20160505070143-20dc8024cb5d",
      "scope": "required",
      "hashes": [
        {
          "alg": "SHA-256",
          "content": "5c05a1b2217d30bfccbc3d697b9f3ddc83a2569c91d09a65742b2f096cdf5783"
        }
      ],
      "purl": "pkg:golang/github.com/go-web/httprl@v0.0.0-20160505070143-20dc8024cb5d",
      "externalReferences": [
        {
          "url": "https://github.com/go-web/httprl",
          "type": "vcs"
        }
      ]
    },
    {
      "type": "library",
      "bom-ref": "pkg:golang/github.com/golang/protobuf@v0.0.0-20170920220647-130e6b02ab05",
      "name": "github.com/golang/protobuf",
      "version": "v0.0.0-20170920220647-130e6b02ab05",
      "scope": "required",
      "hashes": [
        {
          "alg": "SHA-256",
          "content": "29eb2bbbb53a321a5fff1eebb61c402a7af9f3a5459a813635d12f90e2af7e38"
        }
      ],
      "purl": "pkg:golang/github.com/golang/protobuf@v0.0.0-20170920220647-130e6b02ab05",
      "externalReferences": [
        {
          "url": "https://github.com/golang/protobuf",
          "type": "vcs"
        }
      ]
    },
    {
      "type": "library",
      "bom-ref": "pkg:golang/github.com/howeyc/fsnotify@v0.9.1-0.20151003194602-f0c08ee9c607",
      "name": "github.com/howeyc/fsnotify",
      "version": "v0.9.1-0.20151003194602-f0c08ee9c607",
      "scope": "required",
      "hashes": [
        {
          "alg": "SHA-256",
          "content": "a5800212bfe25c459e4c59cec475c9656f21f74cdb03ad9730152a6f754bae7a"
        }
      ],
      "purl": "pkg:golang/github.com/howeyc/fsnotify@v0.9.1-0.20151003194602-f0c08ee9c607",
      "externalReferences": [
        {
          "url": "https://github.com/howeyc/fsnotify",
          "type": "vcs"
        }
      ]
    },
    {
      "type": "library",
      "bom-ref": "pkg:golang/github.com/julienschmidt/httprouter@v1.1.1-0.20170430222011-975b5c4c7c21",
      "name": "github.com/julienschmidt/httprouter",
      "version": "v1.1.1-0.20170430222011-975b5c4c7c21",
      "scope": "required",
      "hashes": [
        {
          "alg": "SHA-256",
          "content": "17f88a7246b42b62e09cacbf7e04817f6df90044ed9b59f54ef073aaee342c4d"
        }
      ],
      "purl": "pkg:golang/github.com/julienschmidt/httprouter@v1.1.1-0.20170430222011-975b5c4c7c21",
      "externalReferences": [
        {
          "url": "https://github.com/julienschmidt/httprouter",
          "type": "vcs"
        }
      ]
    },
    {
      "type": "library",
      "bom-ref": "pkg:golang/github.com/kelseyhightower/envconfig@v1.3.1-0.20170918161510-462fda1f11d8",
      "name": "github.com/kelseyhightower/envconfig",
      "version": "v1.3.1-0.20170918161510-462fda1f11d8",
      "scope": "required",
      "hashes": [
        {
          "alg": "SHA-256",
          "content": "43568e8d5fb363c7d4097ad97df4b8b1173e016093225e33a597141d7df340ea"
        }
      ],
      "purl": "pkg:golang/github.com/kelseyhightower/envconfig@v1.3.1-0.20170918161510-462fda1f11d8",
      "externalReferences": [
        {
          "url": "https://github.com/kelseyhightower/envconfig",
          "type": "vcs"
        }
      ]
    },
    {
      "type": "library",
      "bom-ref": "pkg:golang/github.com/matttproud/golang_protobuf_extensions@v1.0.1",
      "name": "github.com/matttproud/golang_protobuf_extensions",
      "version": "v1.0.1",
      "scope": "required",
      "hashes": [
        {
          "alg": "SHA-256",
          "content": "e21a7d8e41f184c1e4aa4ac1dc8c748de812e6cc7f464a80465b1667aa48c225"
        }
      ],
      "purl": "pkg:golang/github.com/matttproud/golang_protobuf_extensions@v1.0.1",
      "externalReferences": [
        {
          "url": "https://github.com/matttproud/golang_protobuf_extensions",
          "type": "vcs"
        }
      ]
    },
    {
      "type": "library",
      "bom-ref": "pkg:golang/github.com/newrelic/go-agent@v1.9.0",
      "name": "github.com/newrelic/go-agent",
      "version": "v1.9.0",
      "scope": "required",
      "hashes": [
        {
          "alg": "SHA-256",
          "content": "0c40cb9c1f94b060c2719bcc65c7b70ddc991cbeede34d3e7f61bc783019772d"
        }
      ],
      "purl": "pkg:golang/github.com/newrelic/go-agent@v1.9.0",
      "externalReferences": [
        {
          "url": "https://github.com/newrelic/go-agent",
          "type": "vcs"
        }
      ]
    },
    {
      "type": "library",
      "bom-ref": "pkg:golang/github.com/oschwald/maxminddb-golang@v1.2.1-0.20170901134056-26fe5ace1c70",
      "name": "github.com/oschwald/maxminddb-golang",
      "version": "v1.2.1-0.20170901134056-26fe5ace1c70",
      "scope": "required",
      "hashes": [
        {
          "alg": "SHA-256",
          "content": "dac901349b24e5e9a80bfa7cb4e4bd0d02f921aecd0f550d11d9a07ef3fe98f2"
        }
      ],
      "purl": "pkg:golang/github.com/oschwald/maxminddb-golang@v1.2.1-0.20170901134056-26fe5ace1c70",
      "externalReferences": [
        {
          "url": "https://github.com/oschwald/maxminddb-golang",
          "type": "vcs"
        }
      ]
    },
    {
      "type": "library",
      "bom-ref": "pkg:golang/github.com/prometheus/client_golang@v0.9.0-pre1.0.20170921105543-353b8c3f3776",
      "name": "github.com/prometheus/client_golang",
      "version": "v0.9.0-pre1.0.20170921105543-353b8c3f3776",
      "scope": "required",
      "hashes": [
        {
          "alg": "SHA-256",
          "content": "33cfc8251d182c8a3482e73917a332ca4da2168eaf6d73193a19cd2de60bbd35"
        }
      ],
      "purl": "pkg:golang/github.com/prometheus/client_golang@v0.9.0-pre1.0.20170921105543-353b8c3f3776",
      "externalReferences": [
        {
          "url": "https://github.com/prometheus/client_golang",
          "type": "vcs"
        }
      ]
    },
    {
      "type": "library",
      "bom-ref": "pkg:golang/github.com/prometheus/client_model@v0.0.0-20170216185247-6f3806018612",
      "name": "github.com/prometheus/client_model",
      "version": "v0.0.0-20170216185247-6f3806018612",
      "scope": "required",
      "hashes": [
        {
          "alg": "SHA-256",
          "content": "d77a4874cdada5a0e2e0e55edb87e0a084bb653a8cb74408f9bc10b17e61abe8"
        }
      ],
      "purl": "pkg:golang/github.com/prometheus/client_model@v0.0.0-20170216185247-6f3806018612",
      "externalReferences": [
        {
          "url": "https://github.com/prometheus/client_model",
          "type": "vcs"
        }
      ]
    },
    {
      "type": "library",
      "bom-ref": "pkg:golang/github.com/prometheus/common@v0.0.0-20170908161822-2f17f4a9d485",
      "name": "github.com/prometheus/common",
      "version": "v0.0.0-20170908161822-2f17f4a9d485",
      "scope": "required",
      "hashes": [
        {
          "alg": "SHA-256",
          "content": "10bca953590100f133a9c8fc869843c99593270e5320581ea5753df37044903d"
        }
      ],
      "purl": "pkg:golang/github.com/prometheus/common@v0.0.0-20170908161822-2f17f4a9d485",
      "externalReferences": [
        {
          "url": "https://github.com/prometheus/common",
          "type": "vcs"
        }
      ]
    },
    {
      "type": "library",
      "bom-ref": "pkg:golang/github.com/prometheus/procfs@v0.0.0-20170703101242-e645f4e5aaa8",
      "name": "github.com/prometheus/procfs",
      "version": "v0.0.0-20170703101242-e645f4e5aaa8",
      "scope": "required",
      "hashes": [
        {
          "alg": "SHA-256",
          "content": "2a1eccea6cd1a50d9d7b5ae2c6849066be014c8357166f160db78de6db67c321"
        }
      ],
      "purl": "pkg:golang/github.com/prometheus/procfs@v0.0.0-20170703101242-e645f4e5aaa8",
      "externalReferences": [
        {
          "url": "https://github.com/prometheus/procfs",
          "type": "vcs"
        }
      ]
    },
    {
      "type": "library",
      "bom-ref": "pkg:golang/github.com/rs/cors@v0.0.0-20170801073201-eabcc6af4bbe",
      "name": "github.com/rs/cors",
      "version": "v0.0.0-20170801073201-eabcc6af4bbe",
      "scope": "required",
      "hashes": [
        {
          "alg": "SHA-256",
          "content": "7cf2d7205488bd3b3df50b4f482b112136efd35bfb32c3cdef0a6e62d0fc79b2"
        }
      ],
      "purl": "pkg:golang/github.com/rs/cors@v0.0.0-20170801073201-eabcc6af4bbe",
      "externalReferences": [
        {
          "url": "https://github.com/rs/cors",
          "type": "vcs"
        }
      ]
    },
    {
      "type": "library",
      "bom-ref": "pkg:golang/golang.org/x/crypto@v0.0.0-20170928142450-76eec36fa142",
      "name": "golang.org/x/crypto",
      "version": "v0.0.0-20170928142450-76eec36fa142",
      "scope": "required",
      "hashes": [
        {
          "alg": "SHA-256",
          "content": "e53e9a32e9fd57b910923b1293d65b0c39d39d934dc21e070cd6a111e38d683f"
        }
      ],
      "purl": "pkg:golang/golang.org/x/crypto@v0.0.0-20170928142450-76eec36fa142"
    },
    {
      "type": "library",
      "bom-ref": "pkg:golang/golang.org/x/net@v0.0.0-20170927055102-0a9397675ba3",
      "name": "golang.org/x/net",
      "version": "v0.0.0-20170927055102-0a9397675ba3",
      "scope": "required",
      "hashes": [
        {
          "alg": "SHA-256",
          "content": "b530e97338435635ba58ddc38a7cca730e63bb09034d59f6d88ecc3657f14973"
        }
      ],
      "purl": "pkg:golang/golang.org/x/net@v0.0.0-20170927055102-0a9397675ba3"
    },
    {
      "type": "library",
      "bom-ref": "pkg:golang/golang.org/x/sys@v0.0.0-20170927054621-314a259e304f",
      "name": "golang.org/x/sys",
      "version": "v0.0.0-20170927054621-314a259e304f",
      "scope": "required",
      "hashes": [
        {
          "alg": "SHA-256",
          "content": "894cba85233694f0469b677d1e05ead46a983f0709bc0f2286759ab9782060cb"
        }
      ],
      "purl": "pkg:golang/golang.org/x/sys@v0.0.0-20170927054621-314a259e304f"
    },
    {
      "type": "library",
      "bom-ref": "pkg:golang/golang.org/x/text@v0.1.1-0.20171013141220-c01e4764d870",
      "name": "golang.org/x/text",
      "version": "v0.1.1-0.20171013141220-c01e4764d870",
      "scope": "required",
      "hashes": [
        {
          "alg": "SHA-256",
          "content": "f63e3cc60b42a83dea66510175486ef7cd9240e19a07417854f98f828576acc7"
        }
      ],
      "purl": "pkg:golang/golang.org/x/text@v0.1.1-0.20171013141220-c01e4764d870"
    },
    {
      "type": "library",
      "bom-ref": "pkg:golang/github.com/stretchr/testify@v1.7.1",
      "group": "github.com/stretchr",
      "name": "testify",
      "version": "v1.7.1",
      "description": "",
      "hashes": [
        {
          "alg": "SHA-256",
          "content": "e85abca11711e77aebcbdd34ccca898d1462c6bc17dca5fdeb6fe1fd6c23b5e8"
        }
      ],
      "purl": "pkg:golang/github.com/stretchr/testify@v1.7.1"
    },
    {
      "type": "library",
      "bom-ref": "pkg:golang/golang.org/x/sync@v0.0.0-20210220032951-036812b2e83c",
      "group": "golang.org/x",
      "name": "sync",
      "version": "v0.0.0-20210220032951-036812b2e83c",
      "description": "",
      "hashes": [
        {
          "alg": "SHA-256",
          "content": "4713207b0e55271cee7b9fe3253139b9e8e98d594e7bf8b3ac1ef42687fbd9a3"
        }
      ],
      "purl": "pkg:golang/golang.org/x/sync@v0.0.0-20210220032951-036812b2e83c"
    }
  ],
  "dependencies": [
    {
      "ref": "pkg:golang/github.com/beorn7/perks@v0.0.0-20160804104726-4c0e84591b9a"
    },
    {
      "ref": "pkg:golang/github.com/bradfitz/gomemcache@v0.0.0-20170208213004-1952afaa557d"
    },
    {
      "ref": "pkg:golang/github.com/fiorix/go-listener@v0.0.0-20170930130624-dbaa12f318e5"
    },
    {
      "ref": "pkg:golang/github.com/fiorix/go-redis@v0.0.0-20160104010333-d987058b55eb"
    },
    {
      "ref": "pkg:golang/github.com/go-web/httplog@v0.0.0-20160412232724-580d0d49f0d3"
    },
    {
      "ref": "pkg:golang/github.com/go-web/httpmux@v0.0.0-20160505070239-9e95425ee2c3"
    },
    {
      "ref": "pkg:golang/github.com/go-web/httprl@v0.0.0-20160505070143-20dc8024cb5d"
    },
    {
      "ref": "pkg:golang/github.com/golang/protobuf@v0.0.0-20170920220647-130e6b02ab05"
    },
    {
      "ref": "pkg:golang/github.com/howeyc/fsnotify@v0.9.1-0.20151003194602-f0c08ee9c607"
    },
    {
      "ref": "pkg:golang/github.com/julienschmidt/httprouter@v1.1.1-0.20170430222011-975b5c4c7c21"
    },
    {
      "ref": "pkg:golang/github.com/kelseyhightower/envconfig@v1.3.1-0.20170918161510-462fda1f11d8"
    },
    {
      "ref": "pkg:golang/github.com/matttproud/golang_protobuf_extensions@v1.0.1"
    },
    {
      "ref": "pkg:golang/github.com/newrelic/go-agent@v1.9.0"
    },
    {
      "ref": "pkg:golang/github.com/oschwald/maxminddb-golang@v1.2.1-0.20170901134056-26fe5ace1c70"
    },
    {
      "ref": "pkg:golang/github.com/prometheus/client_golang@v0.9.0-pre1.0.20170921105543-353b8c3f3776"
    },
    {
      "ref": "pkg:golang/github.com/prometheus/client_model@v0.0.0-20170216185247-6f3806018612"
    },
    {
      "ref": "pkg:golang/github.com/prometheus/common@v0.0.0-20170908161822-2f17f4a9d485"
    },
    {
      "ref": "pkg:golang/github.com/prometheus/procfs@v0.0.0-20170703101242-e645f4e5aaa8"
    },
    {
      "ref": "pkg:golang/github.com/rs/cors@v0.0.0-20170801073201-eabcc6af4bbe"
    },
    {
      "ref": "pkg:golang/golang.org/x/crypto@v0.0.0-20170928142450-76eec36fa142"
    },
    {
      "ref": "pkg:golang/golang.org/x/net@v0.0.0-20170927055102-0a9397675ba3"
    },
    {
      "ref": "pkg:golang/golang.org/x/sys@v0.0.0-20170927054621-314a259e304f"
    },
    {
      "ref": "pkg:golang/golang.org/x/text@v0.1.1-0.20171013141220-c01e4764d870"
    },
    {
      "ref": "pkg:golang/github.com/fiorix/freegeoip@v0.0.0-20180403142536-4693d60f740b",
      "dependsOn": [
        "pkg:golang/github.com/beorn7/perks@v0.0.0-20160804104726-4c0e84591b9a",
        "pkg:golang/github.com/bradfitz/gomemcache@v0.0.0-20170208213004-1952afaa557d",
        "pkg:golang/github.com/fiorix/go-listener@v0.0.0-20170930130624-dbaa12f318e5",
        "pkg:golang/github.com/fiorix/go-redis@v0.0.0-20160104010333-d987058b55eb",
        "pkg:golang/github.com/go-web/httplog@v0.0.0-20160412232724-580d0d49f0d3",
        "pkg:golang/github.com/go-web/httpmux@v0.0.0-20160505070239-9e95425ee2c3",
        "pkg:golang/github.com/go-web/httprl@v0.0.0-20160505070143-20dc8024cb5d",
        "pkg:golang/github.com/golang/protobuf@v0.0.0-20170920220647-130e6b02ab05",
        "pkg:golang/github.com/howeyc/fsnotify@v0.9.1-0.20151003194602-f0c08ee9c607",
        "pkg:golang/github.com/julienschmidt/httprouter@v1.1.1-0.20170430222011-975b5c4c7c21",
        "pkg:golang/github.com/kelseyhightower/envconfig@v1.3.1-0.20170918161510-462fda1f11d8",
        "pkg:golang/github.com/matttproud/golang_protobuf_extensions@v1.0.1",
        "pkg:golang/github.com/newrelic/go-agent@v1.9.0",
        "pkg:golang/github.com/oschwald/maxminddb-golang@v1.2.1-0.20170901134056-26fe5ace1c70",
        "pkg:golang/github.com/prometheus/client_golang@v0.9.0-pre1.0.20170921105543-353b8c3f3776",
        "pkg:golang/github.com/prometheus/client_model@v0.0.0-20170216185247-6f3806018612",
        "pkg:golang/github.com/prometheus/common@v0.0.0-20170908161822-2f17f4a9d485",
        "pkg:golang/github.com/prometheus/procfs@v0.0.0-20170703101242-e645f4e5aaa8",
        "pkg:golang/github.com/rs/cors@v0.0.0-20170801073201-eabcc6af4bbe",
        "pkg:golang/golang.org/x/crypto@v0.0.0-20170928142450-76eec36fa142",
        "pkg:golang/golang.org/x/net@v0.0.0-20170927055102-0a9397675ba3",
        "pkg:golang/golang.org/x/sys@v0.0.0-20170927054621-314a259e304f",
        "pkg:golang/golang.org/x/text@v0.1.1-0.20171013141220-c01e4764d870"
      ]
    }
  ]
}
