{
  "bomFormat": "CycloneDX",
  "specVersion": "1.3",
  "serialNumber": "urn:uuid:90d8d205-fbfc-41a8-bf34-861fcf833b92",
  "version": 1,
  "metadata": {
    "timestamp": "2022-05-30T19:09:12Z",
    "tools": [
      {
        "vendor": "AppThreat",
        "name": "cdxgen",
        "version": "3.0.10"
      },
      {
        "vendor": "Fortress Information Security",
        "name": "Github Extractor",
        "version": "1.15.1"
      }
    ],
    "authors": [
      {
        "name": "Team AppThreat",
        "email": "cloud@appthreat.com"
      },
      {
        "name": "Fortress Information Security",
        "email": "sales@fortressinfosec.com",
        "phone": "1-407-573-6800"
      }
    ],
    "component": {
      "type": "application",
      "name": "formtastic",
      "version": "report",
      "group": "formtastic",
      "externalReferences": [
        {
          "url": "https://github.com/formtastic/formtastic.git",
          "type": "distribution"
        },
        {
          "type": "website",
          "url": "null",
          "comment": "As set via `homepage` in Github API"
        }
      ]
    }
  },
  "components": [
    {
      "type": "library",
      "bom-ref": "pkg:rubygems/formtastic@4.0.0",
      "group": "",
      "name": "formtastic",
      "version": "4.0.0",
      "description": "",
      "purl": "pkg:rubygems/formtastic@4.0.0"
    },
    {
      "type": "library",
      "bom-ref": "pkg:rubygems/remote:@https://rubygems.org/",
      "group": "",
      "name": "remote:",
      "version": "https://rubygems.org/",
      "description": "",
      "purl": "pkg:rubygems/remote:@https://rubygems.org/"
    },
    {
      "type": "library",
      "bom-ref": "pkg:rubygems/actionpack@6.1.5.1",
      "group": "",
      "name": "actionpack",
      "version": "6.1.5.1",
      "description": "",
      "purl": "pkg:rubygems/actionpack@6.1.5.1"
    },
    {
      "type": "library",
      "bom-ref": "pkg:rubygems/actionview@6.1.5.1",
      "group": "",
      "name": "actionview",
      "version": "6.1.5.1",
      "description": "",
      "purl": "pkg:rubygems/actionview@6.1.5.1"
    },
    {
      "type": "library",
      "bom-ref": "pkg:rubygems/activesupport@6.1.5.1",
      "group": "",
      "name": "activesupport",
      "version": "6.1.5.1",
      "description": "",
      "purl": "pkg:rubygems/activesupport@6.1.5.1"
    },
    {
      "type": "library",
      "bom-ref": "pkg:rubygems/ammeter@1.1.4",
      "group": "",
      "name": "ammeter",
      "version": "1.1.4",
      "description": "",
      "purl": "pkg:rubygems/ammeter@1.1.4"
    },
    {
      "type": "library",
      "bom-ref": "pkg:rubygems/builder@3.2.4",
      "group": "",
      "name": "builder",
      "version": "3.2.4",
      "description": "",
      "purl": "pkg:rubygems/builder@3.2.4"
    },
    {
      "type": "library",
      "bom-ref": "pkg:rubygems/concurrent-ruby@1.1.10",
      "group": "",
      "name": "concurrent-ruby",
      "version": "1.1.10",
      "description": "",
      "purl": "pkg:rubygems/concurrent-ruby@1.1.10"
    },
    {
      "type": "library",
      "bom-ref": "pkg:rubygems/crass@1.0.6",
      "group": "",
      "name": "crass",
      "version": "1.0.6",
      "description": "",
      "purl": "pkg:rubygems/crass@1.0.6"
    },
    {
      "type": "library",
      "bom-ref": "pkg:rubygems/diff-lcs@1.3",
      "group": "",
      "name": "diff-lcs",
      "version": "1.3",
      "description": "",
      "purl": "pkg:rubygems/diff-lcs@1.3"
    },
    {
      "type": "library",
      "bom-ref": "pkg:rubygems/erubi@1.10.0",
      "group": "",
      "name": "erubi",
      "version": "1.10.0",
      "description": "",
      "purl": "pkg:rubygems/erubi@1.10.0"
    },
    {
      "type": "library",
      "bom-ref": "pkg:rubygems/i18n@1.10.0",
      "group": "",
      "name": "i18n",
      "version": "1.10.0",
      "description": "",
      "purl": "pkg:rubygems/i18n@1.10.0"
    },
    {
      "type": "library",
      "bom-ref": "pkg:rubygems/loofah@2.16.0",
      "group": "",
      "name": "loofah",
      "version": "2.16.0",
      "description": "",
      "purl": "pkg:rubygems/loofah@2.16.0"
    },
    {
      "type": "library",
      "bom-ref": "pkg:rubygems/method_source@1.0.0",
      "group": "",
      "name": "method_source",
      "version": "1.0.0",
      "description": "",
      "purl": "pkg:rubygems/method_source@1.0.0"
    },
    {
      "type": "library",
      "bom-ref": "pkg:rubygems/mini_portile2@2.8.0",
      "group": "",
      "name": "mini_portile2",
      "version": "2.8.0",
      "description": "",
      "purl": "pkg:rubygems/mini_portile2@2.8.0"
    },
    {
      "type": "library",
      "bom-ref": "pkg:rubygems/minitest@5.15.0",
      "group": "",
      "name": "minitest",
      "version": "5.15.0",
      "description": "",
      "purl": "pkg:rubygems/minitest@5.15.0"
    },
    {
      "type": "library",
      "bom-ref": "pkg:rubygems/nokogiri@1.13.6",
      "group": "",
      "name": "nokogiri",
      "version": "1.13.6",
      "description": "",
      "purl": "pkg:rubygems/nokogiri@1.13.6"
    },
    {
      "type": "library",
      "bom-ref": "pkg:rubygems/racc@1.6.0",
      "group": "",
      "name": "racc",
      "version": "1.6.0",
      "description": "",
      "purl": "pkg:rubygems/racc@1.6.0"
    },
    {
      "type": "library",
      "bom-ref": "pkg:rubygems/rack@2.2.3",
      "group": "",
      "name": "rack",
      "version": "2.2.3",
      "description": "",
      "purl": "pkg:rubygems/rack@2.2.3"
    },
    {
      "type": "library",
      "bom-ref": "pkg:rubygems/rack-test@1.1.0",
      "group": "",
      "name": "rack-test",
      "version": "1.1.0",
      "description": "",
      "purl": "pkg:rubygems/rack-test@1.1.0"
    },
    {
      "type": "library",
      "bom-ref": "pkg:rubygems/rails-dom-testing@2.0.3",
      "group": "",
      "name": "rails-dom-testing",
      "version": "2.0.3",
      "description": "",
      "purl": "pkg:rubygems/rails-dom-testing@2.0.3"
    },
    {
      "type": "library",
      "bom-ref": "pkg:rubygems/rails-html-sanitizer@1.4.2",
      "group": "",
      "name": "rails-html-sanitizer",
      "version": "1.4.2",
      "description": "",
      "purl": "pkg:rubygems/rails-html-sanitizer@1.4.2"
    },
    {
      "type": "library",
      "bom-ref": "pkg:rubygems/railties@6.1.5.1",
      "group": "",
      "name": "railties",
      "version": "6.1.5.1",
      "description": "",
      "purl": "pkg:rubygems/railties@6.1.5.1"
    },
    {
      "type": "library",
      "bom-ref": "pkg:rubygems/rake@13.0.6",
      "group": "",
      "name": "rake",
      "version": "13.0.6",
      "description": "",
      "purl": "pkg:rubygems/rake@13.0.6"
    },
    {
      "type": "library",
      "bom-ref": "pkg:rubygems/rspec-core@3.9.2",
      "group": "",
      "name": "rspec-core",
      "version": "3.9.2",
      "description": "",
      "purl": "pkg:rubygems/rspec-core@3.9.2"
    },
    {
      "type": "library",
      "bom-ref": "pkg:rubygems/rspec-dom-testing@0.1.0",
      "group": "",
      "name": "rspec-dom-testing",
      "version": "0.1.0",
      "description": "",
      "purl": "pkg:rubygems/rspec-dom-testing@0.1.0"
    },
    {
      "type": "library",
      "bom-ref": "pkg:rubygems/rspec-expectations@3.9.2",
      "group": "",
      "name": "rspec-expectations",
      "version": "3.9.2",
      "description": "",
      "purl": "pkg:rubygems/rspec-expectations@3.9.2"
    },
    {
      "type": "library",
      "bom-ref": "pkg:rubygems/rspec-mocks@3.9.1",
      "group": "",
      "name": "rspec-mocks",
      "version": "3.9.1",
      "description": "",
      "purl": "pkg:rubygems/rspec-mocks@3.9.1"
    },
    {
      "type": "library",
      "bom-ref": "pkg:rubygems/rspec-rails@3.9.1",
      "group": "",
      "name": "rspec-rails",
      "version": "3.9.1",
      "description": "",
      "purl": "pkg:rubygems/rspec-rails@3.9.1"
    },
    {
      "type": "library",
      "bom-ref": "pkg:rubygems/rspec-support@3.9.3",
      "group": "",
      "name": "rspec-support",
      "version": "3.9.3",
      "description": "",
      "purl": "pkg:rubygems/rspec-support@3.9.3"
    },
    {
      "type": "library",
      "bom-ref": "pkg:rubygems/sqlite3@1.4.2",
      "group": "",
      "name": "sqlite3",
      "version": "1.4.2",
      "description": "",
      "purl": "pkg:rubygems/sqlite3@1.4.2"
    },
    {
      "type": "library",
      "bom-ref": "pkg:rubygems/thor@1.2.1",
      "group": "",
      "name": "thor",
      "version": "1.2.1",
      "description": "",
      "purl": "pkg:rubygems/thor@1.2.1"
    },
    {
      "type": "library",
      "bom-ref": "pkg:rubygems/tzinfo@2.0.4",
      "group": "",
      "name": "tzinfo",
      "version": "2.0.4",
      "description": "",
      "purl": "pkg:rubygems/tzinfo@2.0.4"
    },
    {
      "type": "library",
      "bom-ref": "pkg:rubygems/yard@0.9.25",
      "group": "",
      "name": "yard",
      "version": "0.9.25",
      "description": "",
      "purl": "pkg:rubygems/yard@0.9.25"
    },
    {
      "type": "library",
      "bom-ref": "pkg:rubygems/zeitwerk@2.5.4",
      "group": "",
      "name": "zeitwerk",
      "version": "2.5.4",
      "description": "",
      "purl": "pkg:rubygems/zeitwerk@2.5.4"
    }
  ],
  "externalReferences": [
    {
      "url": "/project/src",
      "type": "other",
      "comment": "Base path"
    },
    {
      "url": "/project/src/Gemfile.lock",
      "type": "other",
      "comment": "Package file"
    }
  ]
}
