{
  "bomFormat": "CycloneDX",
  "specVersion": "1.3",
  "version": 1,
  "metadata": {
    "tools": [
      {
        "vendor": "AppThreat",
        "name": "cdxgen",
        "version": "3.0.10"
      },
      {
        "vendor": "Fortress Information Security",
        "name": "Github Extractor",
        "version": "1.15.1"
      }
    ],
    "authors": [
      {
        "name": "Fortress Information Security",
        "email": "sales@fortressinfosec.com",
        "phone": "1-407-573-6800"
      }
    ],
    "timestamp": "2022-06-01T21:00:00Z",
    "component": {
      "type": "application",
      "name": "got-your-back",
      "version": "v1.62",
      "group": "GAM-team",
      "externalReferences": [
        {
          "url": "https://github.com/GAM-team/got-your-back.git",
          "type": "distribution"
        },
        {
          "type": "website",
          "url": "https://github.com/GAM-team/got-your-back/wiki",
          "comment": "As set via `homepage` in Github API"
        }
      ]
    }
  },
  "components": [
    {
      "type": "library",
      "publisher": "Thomas Waldmann",
      "name": "argparse",
      "version": "1.4.0",
      "description": "Python command-line parsing library",
      "hashes": [
        {
          "alg": "MD5",
          "content": "c37216a954c8669054e2b2c54853dd49"
        },
        {
          "alg": "SHA-256",
          "content": "c31647edb69fd3d465a847ea3157d37bed1f95f19760b11a47aa91c04b666314"
        }
      ],
      "licenses": [
        {
          "license": {
            "name": "Python Software Foundation License"
          }
        }
      ],
      "purl": "pkg:pypi/argparse@1.4.0",
      "modified": false
    },
    {
      "type": "library",
      "publisher": "Brett Cannon",
      "name": "importlib",
      "version": "1.0.4",
      "description": "Backport of importlib.import_module() from Python 2.7",
      "hashes": [
        {
          "alg": "MD5",
          "content": "5f9a0803bca7ba95f670d1464984296f"
        },
        {
          "alg": "SHA-256",
          "content": "b6ee7066fea66e35f8d0acee24d98006de1a0a8a94a8ce6efe73a9a23c8d9826"
        }
      ],
      "purl": "pkg:pypi/importlib@1.0.4",
      "modified": false
    },
    {
      "type": "library",
      "name": "io",
      "version": "0.0.1",
      "purl": "pkg:pypi/io@0.0.1",
      "modified": false
    },
    {
      "type": "library",
      "publisher": "Philipp Hagemeister",
      "name": "ipaddress",
      "version": "1.0.23",
      "description": "IPv4/IPv6 manipulation library",
      "hashes": [
        {
          "alg": "MD5",
          "content": "1d1615d1bb0dd32b4f3e1cf6a24dca3a"
        },
        {
          "alg": "SHA-256",
          "content": "6e0f4a39e66cb5bb9a137b00276a2eff74f93b71dcbdad6f10ff7df9d3557fcc"
        }
      ],
      "licenses": [
        {
          "license": {
            "name": "Python Software Foundation License"
          }
        }
      ],
      "purl": "pkg:pypi/ipaddress@1.0.23",
      "modified": false
    },
    {
      "type": "library",
      "publisher": "Christian Heimes",
      "name": "multiprocessing",
      "version": "2.6.2.1",
      "description": "Backport of the multiprocessing package to Python 2.4 and 2.5",
      "hashes": [
        {
          "alg": "MD5",
          "content": "5cc484396c040102116ccc2355379c72"
        },
        {
          "alg": "SHA-256",
          "content": "ef3b81ad85d7de252e5491b1daac028e17f9741cbe3625032e6eaa4ad4c79900"
        }
      ],
      "licenses": [
        {
          "license": {
            "name": "BSD Licence"
          }
        }
      ],
      "purl": "pkg:pypi/multiprocessing@2.6.2.1",
      "modified": false
    },
    {
      "type": "library",
      "publisher": "Phillip J. Eby",
      "name": "wsgiref",
      "version": "0.1.2",
      "description": "WSGI (PEP 333) Reference Library",
      "hashes": [
        {
          "alg": "MD5",
          "content": "29b146e6ebd0f9fb119fe321f7bcf6cb"
        },
        {
          "alg": "SHA-256",
          "content": "c7e610c800957046c04c8014aab8cce8f0b9f0495c8cd349e57c1f7cabf40e79"
        }
      ],
      "licenses": [
        {
          "license": {
            "name": "PSF or ZPL"
          }
        }
      ],
      "purl": "pkg:pypi/wsgiref@0.1.2",
      "modified": false
    },
    {
      "type": "library",
      "publisher": "Tadayoshi Funaba",
      "name": "calendar",
      "version": "1.11.4",
      "description": "Calendrical calculation modules",
      "purl": "pkg:pypi/calendar@1.11.4",
      "modified": false
    },
    {
      "type": "library",
      "publisher": "Zope Foundation and Contributors",
      "name": "datetime",
      "version": "4.4",
      "description": "This package provides a DateTime data type, as known from Zope. Unless you need to communicate with Zope APIs, you're probably better off using Python's built-in datetime module.",
      "hashes": [
        {
          "alg": "MD5",
          "content": "ad1e82d858ed7c8cd2ea437b4cb695ed"
        },
        {
          "alg": "SHA-256",
          "content": "4fcca115ddb466a1104df08d5c2a2f5805d14ca317800e1bfcea8f3d69f66e57"
        }
      ],
      "licenses": [
        {
          "license": {
            "name": "ZPL 2.1"
          }
        }
      ],
      "purl": "pkg:pypi/datetime@4.4",
      "modified": false
    },
    {
      "type": "library",
      "publisher": "See long_description for details",
      "name": "ssl",
      "version": "1.16",
      "description": "SSL wrapper for socket objects (2.3, 2.4, 2.5 compatible)",
      "hashes": [
        {
          "alg": "MD5",
          "content": "fb12d335d56f3c8c7c1fefc1c06c4bfb"
        },
        {
          "alg": "SHA-256",
          "content": "ac21156fee6aee9eb8d765bbb16f5f49492d81ff4b22f7b8fc001d2251120930"
        }
      ],
      "licenses": [
        {
          "license": {
            "name": "Python (MIT-like)"
          }
        }
      ],
      "purl": "pkg:pypi/ssl@1.16",
      "modified": false
    },
    {
      "type": "library",
      "name": "email",
      "version": "4.0.2",
      "description": "Standalone email package",
      "hashes": [
        {
          "alg": "MD5",
          "content": "67707dc0fab874edc5ac45f95ec9ec87"
        },
        {
          "alg": "SHA-256",
          "content": "e2254c9b4e4cf33553f7dfc85b500eea4c3e96733736f38c9dbfc3dcc6303705"
        }
      ],
      "purl": "pkg:pypi/email@4.0.2",
      "modified": false
    },
    {
      "type": "library",
      "name": "hashlib",
      "version": "20081119",
      "description": "Secure hash and message digest algorithm library",
      "hashes": [
        {
          "alg": "MD5",
          "content": "46e59db6d5cac34b3344ef0c30d0897f"
        },
        {
          "alg": "SHA-256",
          "content": "419de2fd10ae71ed9c6adcb55903f116abd1d8acc8c814dfd5f839b4d5013e38"
        }
      ],
      "purl": "pkg:pypi/hashlib@20081119",
      "modified": false
    },
    {
      "type": "library",
      "publisher": "Łukasz Langa",
      "name": "configparser",
      "version": "5.2.0",
      "description": "Updated configparser from Python 3.8 for Python 2.6+.",
      "hashes": [
        {
          "alg": "MD5",
          "content": "69bab6f43cd4375830a54a53a50129fa"
        },
        {
          "alg": "SHA-256",
          "content": "e8b39238fb6f0153a069aa253d349467c3c4737934f253ef6abac5fe0eca1e5d"
        }
      ],
      "purl": "pkg:pypi/configparser@5.2.0",
      "modified": false
    },
    {
      "type": "library",
      "publisher": "Joe Gregorio",
      "name": "httplib2",
      "version": "0.20.4",
      "description": "A comprehensive HTTP client library.",
      "hashes": [
        {
          "alg": "MD5",
          "content": "795025a3e4d28a073caf9b4c801422fb"
        },
        {
          "alg": "SHA-256",
          "content": "8b6a905cb1c79eefd03f8669fd993c36dc341f7c558f056cb5a33b5c2f458543"
        }
      ],
      "licenses": [
        {
          "license": {
            "name": "MIT"
          }
        }
      ],
      "purl": "pkg:pypi/httplib2@0.20.4",
      "modified": false
    },
    {
      "type": "library",
      "publisher": "Mario Vilas",
      "name": "google",
      "version": "3.0.0",
      "description": "Python bindings to the Google search engine.",
      "hashes": [
        {
          "alg": "MD5",
          "content": "30c719790d3e7e57e9482d108eda355c"
        },
        {
          "alg": "SHA-256",
          "content": "889cf695f84e4ae2c55fbc0cfdaf4c1e729417fa52ab1db0485202ba173e4935"
        }
      ],
      "purl": "pkg:pypi/google@3.0.0",
      "modified": false
    },
    {
      "type": "library",
      "publisher": "Google Cloud Platform",
      "name": "google_auth_oauthlib",
      "version": "0.5.1",
      "description": "Google Authentication Library",
      "hashes": [
        {
          "alg": "MD5",
          "content": "14d0679ad8fd0b9c4c48251715e5159f"
        },
        {
          "alg": "SHA-256",
          "content": "24f67735513c4c7134dbde2f1dee5a1deb6acc8dfcb577d7bff30d213a28e7b0"
        }
      ],
      "licenses": [
        {
          "license": {
            "name": "Apache 2.0"
          }
        }
      ],
      "purl": "pkg:pypi/google-auth-oauthlib@0.5.1",
      "modified": false
    },
    {
      "type": "library",
      "publisher": "Google Cloud Platform",
      "name": "google_auth_httplib2",
      "version": "0.1.0",
      "description": "Google Authentication Library: httplib2 transport",
      "hashes": [
        {
          "alg": "MD5",
          "content": "7af470278ed23e6a6aad8166ed3fe44c"
        },
        {
          "alg": "SHA-256",
          "content": "31e49c36c6b5643b57e82617cb3e021e3e1d2df9da63af67252c02fa9c1f4a10"
        }
      ],
      "licenses": [
        {
          "license": {
            "name": "Apache 2.0"
          }
        }
      ],
      "purl": "pkg:pypi/google-auth-httplib2@0.1.0",
      "modified": false
    },
    {
      "type": "library",
      "publisher": "Donald Stufft and individual contributors",
      "name": "packaging",
      "version": "21.3",
      "description": "Core utilities for Python packages",
      "hashes": [
        {
          "alg": "MD5",
          "content": "670a7057642064a747bd8274b24eb3f9"
        },
        {
          "alg": "SHA-256",
          "content": "ef103e05f519cdc783ae24ea4e2e0f508a9c99b2d4969652eed6a2e1ea5bd522"
        }
      ],
      "licenses": [
        {
          "license": {
            "name": "BSD-2-Clause or Apache-2.0"
          }
        }
      ],
      "purl": "pkg:pypi/packaging@21.3",
      "modified": false
    },
    {
      "type": "library",
      "bom-ref": "pkg:pypi/httplib2@0.17.0",
      "group": "",
      "name": "httplib2",
      "version": "0.17.0",
      "description": "A comprehensive HTTP client library.",
      "hashes": [
        {
          "alg": "SHA-256",
          "content": "79751cc040229ec896aa01dced54de0cd0bf042f928e84d5761294422dde4454"
        }
      ],
      "licenses": [
        {
          "license": {
            "id": "MIT",
            "url": "https://opensource.org/licenses/MIT"
          }
        }
      ],
      "purl": "pkg:pypi/httplib2@0.17.0",
      "externalReferences": [
        {
          "url": "https://github.com/httplib2/httplib2",
          "type": "vcs"
        }
      ]
    },
    {
      "type": "library",
      "bom-ref": "pkg:pypi/google-api-python-client@2.0",
      "group": "",
      "name": "google-api-python-client",
      "version": "2.0",
      "description": "Google API Client Library for Python",
      "licenses": [
        {
          "license": {
            "id": "Apache-2.0",
            "url": "https://opensource.org/licenses/Apache-2.0"
          }
        }
      ],
      "purl": "pkg:pypi/google-api-python-client@2.0",
      "externalReferences": [
        {
          "url": "https://github.com/googleapis/google-api-python-client/",
          "type": "vcs"
        }
      ]
    },
    {
      "type": "library",
      "bom-ref": "pkg:pypi/google-auth@1.11.2",
      "group": "",
      "name": "google-auth",
      "version": "1.11.2",
      "description": "Google Authentication Library",
      "hashes": [
        {
          "alg": "SHA-256",
          "content": "28a848d47c55075a0f29d7e26b7a213515c137ab8f0670e546e46d1277060e47"
        }
      ],
      "licenses": [
        {
          "license": {
            "id": "Apache-2.0",
            "url": "https://opensource.org/licenses/Apache-2.0"
          }
        }
      ],
      "purl": "pkg:pypi/google-auth@1.11.2",
      "externalReferences": [
        {
          "url": "https://github.com/googleapis/google-auth-library-python",
          "type": "vcs"
        }
      ]
    },
    {
      "type": "library",
      "bom-ref": "pkg:pypi/google-auth-oauthlib@0.4.1",
      "group": "",
      "name": "google-auth-oauthlib",
      "version": "0.4.1",
      "description": "Google Authentication Library",
      "hashes": [
        {
          "alg": "SHA-256",
          "content": "a92a0f6f41a0fb6138454fbc02674e64f89d82a244ea32f98471733c8ef0e0e1"
        }
      ],
      "licenses": [
        {
          "license": {
            "id": "Apache-2.0",
            "url": "https://opensource.org/licenses/Apache-2.0"
          }
        }
      ],
      "purl": "pkg:pypi/google-auth-oauthlib@0.4.1",
      "externalReferences": [
        {
          "url": "https://github.com/GoogleCloudPlatform/google-auth-library-python-oauthlib",
          "type": "vcs"
        }
      ]
    }
  ]
}
