{
  "bomFormat": "CycloneDX",
  "specVersion": "1.3",
  "serialNumber": "urn:uuid:c3651c0c-2c7c-43e7-8b44-54f93edfc321",
  "version": 2,
  "metadata": {
    "timestamp": "2022-07-26T23:37:34Z",
    "tools": [
      {
        "vendor": "AppThreat",
        "name": "cdxgen",
        "version": "3.0.10"
      },
      {
        "vendor": "Fortress Information Security",
        "name": "Github Extractor",
        "version": "1.15.1"
      }
    ],
    "authors": [
      {
        "name": "Team AppThreat",
        "email": "cloud@appthreat.com"
      },
      {
        "name": "Fortress Information Security",
        "email": "sales@fortressinfosec.com",
        "phone": "1-407-573-6800"
      }
    ],
    "component": {
      "type": "application",
      "name": "mooneye-gb",
      "version": "v0.1.0",
      "group": "Gekkio",
      "externalReferences": [
        {
          "url": "https://github.com/Gekkio/mooneye-gb.git",
          "type": "distribution"
        },
        {
          "type": "website",
          "url": "null",
          "comment": "As set via `homepage` in Github API"
        }
      ]
    }
  },
  "components": [
    {
      "type": "library",
      "bom-ref": "pkg:crates/ab_glyph_rasterizer@0.1.4",
      "group": "",
      "name": "ab_glyph_rasterizer",
      "version": "0.1.4",
      "description": "",
      "hashes": [
        {
          "alg": "SHA-384",
          "content": "d9fe5e32de01730eb1f6b7f5b51c17e03e2325bf40a74f754f04f130043affff"
        }
      ],
      "purl": "pkg:crates/ab_glyph_rasterizer@0.1.4"
    },
    {
      "type": "library",
      "bom-ref": "pkg:crates/addr2line@0.14.1",
      "group": "",
      "name": "addr2line",
      "version": "0.14.1",
      "description": "",
      "hashes": [
        {
          "alg": "SHA-384",
          "content": "a55f82cfe485775d02112886f4169bde0c5894d75e79ead7eafe7e40a25e45f7"
        }
      ],
      "purl": "pkg:crates/addr2line@0.14.1"
    },
    {
      "type": "library",
      "bom-ref": "pkg:crates/adler@1.0.2",
      "group": "",
      "name": "adler",
      "version": "1.0.2",
      "description": "",
      "hashes": [
        {
          "alg": "SHA-384",
          "content": "f26201604c87b1e01bd3d98f8d5d9a8fcbb815e8cedb41ffccbeb4bf593a35fe"
        }
      ],
      "purl": "pkg:crates/adler@1.0.2"
    },
    {
      "type": "library",
      "bom-ref": "pkg:crates/aho-corasick@0.7.15",
      "group": "",
      "name": "aho-corasick",
      "version": "0.7.15",
      "description": "",
      "hashes": [
        {
          "alg": "SHA-384",
          "content": "7404febffaa47dac81aa44dba71523c9d069b1bdc50a77db41195149e17f68e5"
        }
      ],
      "purl": "pkg:crates/aho-corasick@0.7.15"
    },
    {
      "type": "library",
      "bom-ref": "pkg:crates/andrew@0.3.1",
      "group": "",
      "name": "andrew",
      "version": "0.3.1",
      "description": "",
      "hashes": [
        {
          "alg": "SHA-384",
          "content": "8c4afb09dd642feec8408e33f92f3ffc4052946f6b20f32fb99c1f58cd4fa7cf"
        }
      ],
      "purl": "pkg:crates/andrew@0.3.1"
    },
    {
      "type": "library",
      "bom-ref": "pkg:crates/android_glue@0.2.3",
      "group": "",
      "name": "android_glue",
      "version": "0.2.3",
      "description": "",
      "hashes": [
        {
          "alg": "SHA-384",
          "content": "000444226fcff248f2bc4c7625be32c63caccfecc2723a2b9f78a7487a49c407"
        }
      ],
      "purl": "pkg:crates/android_glue@0.2.3"
    },
    {
      "type": "library",
      "bom-ref": "pkg:crates/anyhow@1.0.38",
      "group": "",
      "name": "anyhow",
      "version": "1.0.38",
      "description": "",
      "hashes": [
        {
          "alg": "SHA-384",
          "content": "afddf7f520a80dbf76e6f50a35bca42a2331ef227a28b3b6dc5c2e2338d114b1"
        }
      ],
      "purl": "pkg:crates/anyhow@1.0.38"
    },
    {
      "type": "library",
      "bom-ref": "pkg:crates/approx@0.4.0",
      "group": "",
      "name": "approx",
      "version": "0.4.0",
      "description": "",
      "hashes": [
        {
          "alg": "SHA-384",
          "content": "3f2a05fd1bd10b2527e20a2cd32d8873d115b8b39fe219ee25f42a8aca6ba278"
        }
      ],
      "purl": "pkg:crates/approx@0.4.0"
    },
    {
      "type": "library",
      "bom-ref": "pkg:crates/arraydeque@0.4.5",
      "group": "",
      "name": "arraydeque",
      "version": "0.4.5",
      "description": "",
      "hashes": [
        {
          "alg": "SHA-384",
          "content": "f0ffd3d69bd89910509a5d31d1f1353f38ccffdd116dd0099bbd6627f7bd8ad8"
        }
      ],
      "purl": "pkg:crates/arraydeque@0.4.5"
    },
    {
      "type": "library",
      "bom-ref": "pkg:crates/arrayvec@0.5.2",
      "group": "",
      "name": "arrayvec",
      "version": "0.5.2",
      "description": "",
      "hashes": [
        {
          "alg": "SHA-384",
          "content": "23b62fc65de8e4e7f52534fb52b0f3ed04746ae267519eef2a83941e8085068b"
        }
      ],
      "purl": "pkg:crates/arrayvec@0.5.2"
    },
    {
      "type": "library",
      "bom-ref": "pkg:crates/atty@0.2.14",
      "group": "",
      "name": "atty",
      "version": "0.2.14",
      "description": "",
      "hashes": [
        {
          "alg": "SHA-384",
          "content": "d9b39be18770d11421cdb1b9947a45dd3f37e93092cbf377614828a319d5fee8"
        }
      ],
      "purl": "pkg:crates/atty@0.2.14"
    },
    {
      "type": "library",
      "bom-ref": "pkg:crates/autocfg@1.0.1",
      "group": "",
      "name": "autocfg",
      "version": "1.0.1",
      "description": "",
      "hashes": [
        {
          "alg": "SHA-384",
          "content": "cdb031dd78e28731d87d56cc8ffef4a8f36ca26c38fe2de700543e627f8a464a"
        }
      ],
      "purl": "pkg:crates/autocfg@1.0.1"
    },
    {
      "type": "library",
      "bom-ref": "pkg:crates/backtrace@0.3.56",
      "group": "",
      "name": "backtrace",
      "version": "0.3.56",
      "description": "",
      "hashes": [
        {
          "alg": "SHA-384",
          "content": "9d117600f438b1707d4e4ae15d3595657288f8235a0eb593e80ecc98ab34e1bc"
        }
      ],
      "purl": "pkg:crates/backtrace@0.3.56"
    },
    {
      "type": "library",
      "bom-ref": "pkg:crates/base-x@0.2.8",
      "group": "",
      "name": "base-x",
      "version": "0.2.8",
      "description": "",
      "hashes": [
        {
          "alg": "SHA-384",
          "content": "a4521f3e3d031370679b3b140beb36dfe4801b09ac77e30c61941f97df3ef28b"
        }
      ],
      "purl": "pkg:crates/base-x@0.2.8"
    },
    {
      "type": "library",
      "bom-ref": "pkg:crates/bitflags@1.2.1",
      "group": "",
      "name": "bitflags",
      "version": "1.2.1",
      "description": "",
      "hashes": [
        {
          "alg": "SHA-384",
          "content": "cf1de2fe8c75bc145a2f577add951f8134889b4795d47466a54a5c846d691693"
        }
      ],
      "purl": "pkg:crates/bitflags@1.2.1"
    },
    {
      "type": "library",
      "bom-ref": "pkg:crates/block@0.1.6",
      "group": "",
      "name": "block",
      "version": "0.1.6",
      "description": "",
      "hashes": [
        {
          "alg": "SHA-384",
          "content": "0d8c1fef690941d3e7788d328517591fecc684c084084702d6ff1641e993699a"
        }
      ],
      "purl": "pkg:crates/block@0.1.6"
    },
    {
      "type": "library",
      "bom-ref": "pkg:crates/bstr@0.2.15",
      "group": "",
      "name": "bstr",
      "version": "0.2.15",
      "description": "",
      "hashes": [
        {
          "alg": "SHA-384",
          "content": "a40b47ad93e1a5404e6c18dec46b628214fee441c70f4ab5d6942142cc268a3d"
        }
      ],
      "purl": "pkg:crates/bstr@0.2.15"
    },
    {
      "type": "library",
      "bom-ref": "pkg:crates/build_const@0.2.1",
      "group": "",
      "name": "build_const",
      "version": "0.2.1",
      "description": "",
      "hashes": [
        {
          "alg": "SHA-384",
          "content": "39092a32794787acd8525ee150305ff051b0aa6cc2abaf193924f5ab05425f39"
        }
      ],
      "purl": "pkg:crates/build_const@0.2.1"
    },
    {
      "type": "library",
      "bom-ref": "pkg:crates/bumpalo@3.6.1",
      "group": "",
      "name": "bumpalo",
      "version": "3.6.1",
      "description": "",
      "hashes": [
        {
          "alg": "SHA-384",
          "content": "63396b8a4b9de3f4fdfb320ab6080762242f66a8ef174c49d8e19b674db4cdbe"
        }
      ],
      "purl": "pkg:crates/bumpalo@3.6.1"
    },
    {
      "type": "library",
      "bom-ref": "pkg:crates/byteorder@1.4.2",
      "group": "",
      "name": "byteorder",
      "version": "1.4.2",
      "description": "",
      "hashes": [
        {
          "alg": "SHA-384",
          "content": "ae44d1a3d5a19df61dd0c8beb138458ac2a53a7ac09eba97d55592540004306b"
        }
      ],
      "purl": "pkg:crates/byteorder@1.4.2"
    },
    {
      "type": "library",
      "bom-ref": "pkg:crates/calloop@0.6.5",
      "group": "",
      "name": "calloop",
      "version": "0.6.5",
      "description": "",
      "hashes": [
        {
          "alg": "SHA-384",
          "content": "0b036167e76041694579972c28cf4877b4f92da222560ddb49008937b6a6727c"
        }
      ],
      "purl": "pkg:crates/calloop@0.6.5"
    },
    {
      "type": "library",
      "bom-ref": "pkg:crates/cast@0.2.3",
      "group": "",
      "name": "cast",
      "version": "0.2.3",
      "description": "",
      "hashes": [
        {
          "alg": "SHA-384",
          "content": "4b9434b9a5aa1450faa3f9cb14ea0e8c53bb5d2b3c1bfd1ab4fc03e9f33fbfb0"
        }
      ],
      "purl": "pkg:crates/cast@0.2.3"
    },
    {
      "type": "library",
      "bom-ref": "pkg:crates/cc@1.0.67",
      "group": "",
      "name": "cc",
      "version": "1.0.67",
      "description": "",
      "hashes": [
        {
          "alg": "SHA-384",
          "content": "e3c69b077ad434294d3ce9f1f6143a2a4b89a8a2d54ef813d85003a4fd1137fd"
        }
      ],
      "purl": "pkg:crates/cc@1.0.67"
    },
    {
      "type": "library",
      "bom-ref": "pkg:crates/cfg-if@0.1.10",
      "group": "",
      "name": "cfg-if",
      "version": "0.1.10",
      "description": "",
      "hashes": [
        {
          "alg": "SHA-384",
          "content": "4785bdd1c96b2a846b2bd7cc02e86b6b3dbf14e7e53446c4f54c92a361040822"
        }
      ],
      "purl": "pkg:crates/cfg-if@0.1.10"
    },
    {
      "type": "library",
      "bom-ref": "pkg:crates/cfg-if@1.0.0",
      "group": "",
      "name": "cfg-if",
      "version": "1.0.0",
      "description": "",
      "hashes": [
        {
          "alg": "SHA-384",
          "content": "baf1de4339761588bc0619e3cbc0120ee582ebb74b53b4efbf79117bd2da40fd"
        }
      ],
      "purl": "pkg:crates/cfg-if@1.0.0"
    },
    {
      "type": "library",
      "bom-ref": "pkg:crates/cgl@0.3.2",
      "group": "",
      "name": "cgl",
      "version": "0.3.2",
      "description": "",
      "hashes": [
        {
          "alg": "SHA-384",
          "content": "0ced0551234e87afee12411d535648dd89d2e7f34c78b753395567aff3d447ff"
        }
      ],
      "purl": "pkg:crates/cgl@0.3.2"
    },
    {
      "type": "library",
      "bom-ref": "pkg:crates/chlorine@1.0.7",
      "group": "",
      "name": "chlorine",
      "version": "1.0.7",
      "description": "",
      "hashes": [
        {
          "alg": "SHA-384",
          "content": "bd650552110e39b7c5058986cf177decd3365841836578ac50a286094eac0be6"
        }
      ],
      "purl": "pkg:crates/chlorine@1.0.7"
    },
    {
      "type": "library",
      "bom-ref": "pkg:crates/chrono@0.4.19",
      "group": "",
      "name": "chrono",
      "version": "0.4.19",
      "description": "",
      "hashes": [
        {
          "alg": "SHA-384",
          "content": "670ad68c9088c2a963aaa298cb369688cf3f9465ce5e2d4ca10e6e0098a1ce73"
        }
      ],
      "purl": "pkg:crates/chrono@0.4.19"
    },
    {
      "type": "library",
      "bom-ref": "pkg:crates/clap@2.33.3",
      "group": "",
      "name": "clap",
      "version": "2.33.3",
      "description": "",
      "hashes": [
        {
          "alg": "SHA-384",
          "content": "37e58ac78573c40708d45522f0d80fa2f01cc4f9b4e2bf749807255454312002"
        }
      ],
      "purl": "pkg:crates/clap@2.33.3"
    },
    {
      "type": "library",
      "bom-ref": "pkg:crates/cocoa@0.23.0",
      "group": "",
      "name": "cocoa",
      "version": "0.23.0",
      "description": "",
      "hashes": [
        {
          "alg": "SHA-384",
          "content": "c54201c07dcf3a5ca33fececb8042aed767ee4bfd5a0235a8ceabcda956044b2"
        }
      ],
      "purl": "pkg:crates/cocoa@0.23.0"
    },
    {
      "type": "library",
      "bom-ref": "pkg:crates/cocoa@0.24.0",
      "group": "",
      "name": "cocoa",
      "version": "0.24.0",
      "description": "",
      "hashes": [
        {
          "alg": "SHA-384",
          "content": "6f63902e9223530efb4e26ccd0cf55ec30d592d3b42e21a28defc42a9586e832"
        }
      ],
      "purl": "pkg:crates/cocoa@0.24.0"
    },
    {
      "type": "library",
      "bom-ref": "pkg:crates/cocoa-foundation@0.1.0",
      "group": "",
      "name": "cocoa-foundation",
      "version": "0.1.0",
      "description": "",
      "hashes": [
        {
          "alg": "SHA-384",
          "content": "7ade49b65d560ca58c403a479bb396592b155c0185eada742ee323d1d68d6318"
        }
      ],
      "purl": "pkg:crates/cocoa-foundation@0.1.0"
    },
    {
      "type": "library",
      "bom-ref": "pkg:crates/core-foundation@0.6.4",
      "group": "",
      "name": "core-foundation",
      "version": "0.6.4",
      "description": "",
      "hashes": [
        {
          "alg": "SHA-384",
          "content": "25b9e03f145fd4f2bf705e07b900cd41fc636598fe5dc452fd0db1441c3f496d"
        }
      ],
      "purl": "pkg:crates/core-foundation@0.6.4"
    },
    {
      "type": "library",
      "bom-ref": "pkg:crates/core-foundation@0.7.0",
      "group": "",
      "name": "core-foundation",
      "version": "0.7.0",
      "description": "",
      "hashes": [
        {
          "alg": "SHA-384",
          "content": "57d24c7a13c43e870e37c1556b74555437870a04514f7685f5b354e090567171"
        }
      ],
      "purl": "pkg:crates/core-foundation@0.7.0"
    },
    {
      "type": "library",
      "bom-ref": "pkg:crates/core-foundation@0.9.1",
      "group": "",
      "name": "core-foundation",
      "version": "0.9.1",
      "description": "",
      "hashes": [
        {
          "alg": "SHA-384",
          "content": "0a89e2ae426ea83155dccf10c0fa6b1463ef6d5fcb44cee0b224a408fa640a62"
        }
      ],
      "purl": "pkg:crates/core-foundation@0.9.1"
    },
    {
      "type": "library",
      "bom-ref": "pkg:crates/core-foundation-sys@0.6.2",
      "group": "",
      "name": "core-foundation-sys",
      "version": "0.6.2",
      "description": "",
      "hashes": [
        {
          "alg": "SHA-384",
          "content": "e7ca8a5221364ef15ce201e8ed2f609fc312682a8f4e0e3d4aa5879764e0fa3b"
        }
      ],
      "purl": "pkg:crates/core-foundation-sys@0.6.2"
    },
    {
      "type": "library",
      "bom-ref": "pkg:crates/core-foundation-sys@0.7.0",
      "group": "",
      "name": "core-foundation-sys",
      "version": "0.7.0",
      "description": "",
      "hashes": [
        {
          "alg": "SHA-384",
          "content": "b3a71ab494c0b5b860bdc8407ae08978052417070c2ced38573a9157ad75b8ac"
        }
      ],
      "purl": "pkg:crates/core-foundation-sys@0.7.0"
    },
    {
      "type": "library",
      "bom-ref": "pkg:crates/core-foundation-sys@0.8.2",
      "group": "",
      "name": "core-foundation-sys",
      "version": "0.8.2",
      "description": "",
      "hashes": [
        {
          "alg": "SHA-384",
          "content": "ea221b5284a47e40033bf9b66f35f984ec0ea2931eb03505246cd27a963f981b"
        }
      ],
      "purl": "pkg:crates/core-foundation-sys@0.8.2"
    },
    {
      "type": "library",
      "bom-ref": "pkg:crates/core-graphics@0.19.2",
      "group": "",
      "name": "core-graphics",
      "version": "0.19.2",
      "description": "",
      "hashes": [
        {
          "alg": "SHA-384",
          "content": "b3889374e6ea6ab25dba90bb5d96202f61108058361f6dc72e8b03e6f8bbe923"
        }
      ],
      "purl": "pkg:crates/core-graphics@0.19.2"
    },
    {
      "type": "library",
      "bom-ref": "pkg:crates/core-graphics@0.22.2",
      "group": "",
      "name": "core-graphics",
      "version": "0.22.2",
      "description": "",
      "hashes": [
        {
          "alg": "SHA-384",
          "content": "269f35f69b542b80e736a20a89a05215c0ce80c2c03c514abb2e318b78379d86"
        }
      ],
      "purl": "pkg:crates/core-graphics@0.22.2"
    },
    {
      "type": "library",
      "bom-ref": "pkg:crates/core-graphics-types@0.1.1",
      "group": "",
      "name": "core-graphics-types",
      "version": "0.1.1",
      "description": "",
      "hashes": [
        {
          "alg": "SHA-384",
          "content": "3a68b68b3446082644c91ac778bf50cd4104bfb002b5a6a7c44cca5a2c70788b"
        }
      ],
      "purl": "pkg:crates/core-graphics-types@0.1.1"
    },
    {
      "type": "library",
      "bom-ref": "pkg:crates/core-video-sys@0.1.4",
      "group": "",
      "name": "core-video-sys",
      "version": "0.1.4",
      "description": "",
      "hashes": [
        {
          "alg": "SHA-384",
          "content": "34ecad23610ad9757664d644e369246edde1803fcb43ed72876565098a5d3828"
        }
      ],
      "purl": "pkg:crates/core-video-sys@0.1.4"
    },
    {
      "type": "library",
      "bom-ref": "pkg:crates/crc@1.8.1",
      "group": "",
      "name": "crc",
      "version": "1.8.1",
      "description": "",
      "hashes": [
        {
          "alg": "SHA-384",
          "content": "d663548de7f5cca343f1e0a48d14dcfb0e9eb4e079ec58883b7251539fa10aeb"
        }
      ],
      "purl": "pkg:crates/crc@1.8.1"
    },
    {
      "type": "library",
      "bom-ref": "pkg:crates/criterion@0.3.4",
      "group": "",
      "name": "criterion",
      "version": "0.3.4",
      "description": "",
      "hashes": [
        {
          "alg": "SHA-384",
          "content": "ab327ed7354547cc2ef43cbe20ef68b988e70b4b593cbd66a2a61733123a3d23"
        }
      ],
      "purl": "pkg:crates/criterion@0.3.4"
    },
    {
      "type": "library",
      "bom-ref": "pkg:crates/criterion-plot@0.4.3",
      "group": "",
      "name": "criterion-plot",
      "version": "0.4.3",
      "description": "",
      "hashes": [
        {
          "alg": "SHA-384",
          "content": "e022feadec601fba1649cfa83586381a4ad31c6bf3a9ab7d408118b05dd9889d"
        }
      ],
      "purl": "pkg:crates/criterion-plot@0.4.3"
    },
    {
      "type": "library",
      "bom-ref": "pkg:crates/crossbeam-channel@0.5.0",
      "group": "",
      "name": "crossbeam-channel",
      "version": "0.5.0",
      "description": "",
      "hashes": [
        {
          "alg": "SHA-384",
          "content": "dca26ee1f8d361640700bde38b2c37d8c22b3ce2d360e1fc1c74ea4b0aa7d775"
        }
      ],
      "purl": "pkg:crates/crossbeam-channel@0.5.0"
    },
    {
      "type": "library",
      "bom-ref": "pkg:crates/crossbeam-deque@0.8.0",
      "group": "",
      "name": "crossbeam-deque",
      "version": "0.8.0",
      "description": "",
      "hashes": [
        {
          "alg": "SHA-384",
          "content": "94af6efb46fef72616855b036a624cf27ba656ffc9be1b9a3c931cfc7749a9a9"
        }
      ],
      "purl": "pkg:crates/crossbeam-deque@0.8.0"
    },
    {
      "type": "library",
      "bom-ref": "pkg:crates/crossbeam-epoch@0.9.3",
      "group": "",
      "name": "crossbeam-epoch",
      "version": "0.9.3",
      "description": "",
      "hashes": [
        {
          "alg": "SHA-384",
          "content": "2584f639eb95fea8c798496315b297cf81b9b58b6d30ab066a75455333cf4b12"
        }
      ],
      "purl": "pkg:crates/crossbeam-epoch@0.9.3"
    },
    {
      "type": "library",
      "bom-ref": "pkg:crates/crossbeam-utils@0.8.3",
      "group": "",
      "name": "crossbeam-utils",
      "version": "0.8.3",
      "description": "",
      "hashes": [
        {
          "alg": "SHA-384",
          "content": "e7e9d99fa91428effe99c5c6d4634cdeba32b8cf784fc428a2a687f61a952c49"
        }
      ],
      "purl": "pkg:crates/crossbeam-utils@0.8.3"
    },
    {
      "type": "library",
      "bom-ref": "pkg:crates/csv@1.1.5",
      "group": "",
      "name": "csv",
      "version": "1.1.5",
      "description": "",
      "hashes": [
        {
          "alg": "SHA-384",
          "content": "f9d58633299b24b515ac72a3f869f8b91306a3cec616a602843a383acd6f9e97"
        }
      ],
      "purl": "pkg:crates/csv@1.1.5"
    },
    {
      "type": "library",
      "bom-ref": "pkg:crates/csv-core@0.1.10",
      "group": "",
      "name": "csv-core",
      "version": "0.1.10",
      "description": "",
      "hashes": [
        {
          "alg": "SHA-384",
          "content": "2b2466559f260f48ad25fe6317b3c8dac77b5bdb5763ac7d9d6103530663bc90"
        }
      ],
      "purl": "pkg:crates/csv-core@0.1.10"
    },
    {
      "type": "library",
      "bom-ref": "pkg:crates/darling@0.10.2",
      "group": "",
      "name": "darling",
      "version": "0.10.2",
      "description": "",
      "hashes": [
        {
          "alg": "SHA-384",
          "content": "0d706e75d87e35569db781a9b5e2416cff1236a47ed380831f959382ccd5f858"
        }
      ],
      "purl": "pkg:crates/darling@0.10.2"
    },
    {
      "type": "library",
      "bom-ref": "pkg:crates/darling_core@0.10.2",
      "group": "",
      "name": "darling_core",
      "version": "0.10.2",
      "description": "",
      "hashes": [
        {
          "alg": "SHA-384",
          "content": "f0c960ae2da4de88a91b2d920c2a7233b400bc33cb28453a2987822d8392519b"
        }
      ],
      "purl": "pkg:crates/darling_core@0.10.2"
    },
    {
      "type": "library",
      "bom-ref": "pkg:crates/darling_macro@0.10.2",
      "group": "",
      "name": "darling_macro",
      "version": "0.10.2",
      "description": "",
      "hashes": [
        {
          "alg": "SHA-384",
          "content": "d9b5a2f4ac4969822c62224815d069952656cadc7084fdca9751e6d959189b72"
        }
      ],
      "purl": "pkg:crates/darling_macro@0.10.2"
    },
    {
      "type": "library",
      "bom-ref": "pkg:crates/derivative@2.2.0",
      "group": "",
      "name": "derivative",
      "version": "2.2.0",
      "description": "",
      "hashes": [
        {
          "alg": "SHA-384",
          "content": "fcc3dd5e9e9c0b295d6e1e4d811fb6f157d5ffd784b8d202fc62eac8035a770b"
        }
      ],
      "purl": "pkg:crates/derivative@2.2.0"
    },
    {
      "type": "library",
      "bom-ref": "pkg:crates/directories-next@2.0.0",
      "group": "",
      "name": "directories-next",
      "version": "2.0.0",
      "description": "",
      "hashes": [
        {
          "alg": "SHA-384",
          "content": "339ee130d97a610ea5a5872d2bbb130fdf68884ff09d3028b81bec8a1ac23bbc"
        }
      ],
      "purl": "pkg:crates/directories-next@2.0.0"
    },
    {
      "type": "library",
      "bom-ref": "pkg:crates/dirs-sys-next@0.1.2",
      "group": "",
      "name": "dirs-sys-next",
      "version": "0.1.2",
      "description": "",
      "hashes": [
        {
          "alg": "SHA-384",
          "content": "4ebda144c4fe02d1f7ea1a7d9641b6fc6b580adcfa024ae48797ecdeb6825b4d"
        }
      ],
      "purl": "pkg:crates/dirs-sys-next@0.1.2"
    },
    {
      "type": "library",
      "bom-ref": "pkg:crates/discard@1.0.4",
      "group": "",
      "name": "discard",
      "version": "1.0.4",
      "description": "",
      "hashes": [
        {
          "alg": "SHA-384",
          "content": "212d0f5754cb6769937f4501cc0e67f4f4483c8d2c3e1e922ee9edbe4ab4c7c0"
        }
      ],
      "purl": "pkg:crates/discard@1.0.4"
    },
    {
      "type": "library",
      "bom-ref": "pkg:crates/dispatch@0.2.0",
      "group": "",
      "name": "dispatch",
      "version": "0.2.0",
      "description": "",
      "hashes": [
        {
          "alg": "SHA-384",
          "content": "bd0c93bb4b0c6d9b77f4435b0ae98c24d17f1c45b2ff844c6151a07256ca923b"
        }
      ],
      "purl": "pkg:crates/dispatch@0.2.0"
    },
    {
      "type": "library",
      "bom-ref": "pkg:crates/dlib@0.4.2",
      "group": "",
      "name": "dlib",
      "version": "0.4.2",
      "description": "",
      "hashes": [
        {
          "alg": "SHA-384",
          "content": "b11f15d1e3268f140f68d390637d5e76d849782d971ae7063e0da69fe9709a76"
        }
      ],
      "purl": "pkg:crates/dlib@0.4.2"
    },
    {
      "type": "library",
      "bom-ref": "pkg:crates/dlib@0.5.0",
      "group": "",
      "name": "dlib",
      "version": "0.5.0",
      "description": "",
      "hashes": [
        {
          "alg": "SHA-384",
          "content": "ac1b7517328c04c2aa68422fc60a41b92208182142ed04a25879c26c8f878794"
        }
      ],
      "purl": "pkg:crates/dlib@0.5.0"
    },
    {
      "type": "library",
      "bom-ref": "pkg:crates/doc-comment@0.3.3",
      "group": "",
      "name": "doc-comment",
      "version": "0.3.3",
      "description": "",
      "hashes": [
        {
          "alg": "SHA-384",
          "content": "fea41bba32d969b513997752735605054bc0dfa92b4c56bf1189f2e174be7a10"
        }
      ],
      "purl": "pkg:crates/doc-comment@0.3.3"
    },
    {
      "type": "library",
      "bom-ref": "pkg:crates/downcast-rs@1.2.0",
      "group": "",
      "name": "downcast-rs",
      "version": "1.2.0",
      "description": "",
      "hashes": [
        {
          "alg": "SHA-384",
          "content": "9ea835d29036a4087793836fa931b08837ad5e957da9e23886b29586fb9b6650"
        }
      ],
      "purl": "pkg:crates/downcast-rs@1.2.0"
    },
    {
      "type": "library",
      "bom-ref": "pkg:crates/either@1.6.1",
      "group": "",
      "name": "either",
      "version": "1.6.1",
      "description": "",
      "hashes": [
        {
          "alg": "SHA-384",
          "content": "e78d4f1cc4ae33bbfc157ed5d5a5ef3bc29227303d595861deb238fcec4e9457"
        }
      ],
      "purl": "pkg:crates/either@1.6.1"
    },
    {
      "type": "library",
      "bom-ref": "pkg:crates/env_logger@0.8.3",
      "group": "",
      "name": "env_logger",
      "version": "0.8.3",
      "description": "",
      "hashes": [
        {
          "alg": "SHA-384",
          "content": "17392a012ea30ef05a610aa97dfb49496e71c9f676b27879922ea5bdf60d9d3f"
        }
      ],
      "purl": "pkg:crates/env_logger@0.8.3"
    },
    {
      "type": "library",
      "bom-ref": "pkg:crates/fnv@1.0.7",
      "group": "",
      "name": "fnv",
      "version": "1.0.7",
      "description": "",
      "hashes": [
        {
          "alg": "SHA-384",
          "content": "3f9eec918d3f24069decb9af1554cad7c880e2da24a9afd88aca000531ab82c1"
        }
      ],
      "purl": "pkg:crates/fnv@1.0.7"
    },
    {
      "type": "library",
      "bom-ref": "pkg:crates/foreign-types@0.3.2",
      "group": "",
      "name": "foreign-types",
      "version": "0.3.2",
      "description": "",
      "hashes": [
        {
          "alg": "SHA-384",
          "content": "f6f339eb8adc052cd2ca78910fda869aefa38d22d5cb648e6485e4d3fc06f3b1"
        }
      ],
      "purl": "pkg:crates/foreign-types@0.3.2"
    },
    {
      "type": "library",
      "bom-ref": "pkg:crates/foreign-types-shared@0.1.1",
      "group": "",
      "name": "foreign-types-shared",
      "version": "0.1.1",
      "description": "",
      "hashes": [
        {
          "alg": "SHA-384",
          "content": "00b0228411908ca8685dba7fc2cdd70ec9990a6e753e89b6ac91a84c40fbaf4b"
        }
      ],
      "purl": "pkg:crates/foreign-types-shared@0.1.1"
    },
    {
      "type": "library",
      "bom-ref": "pkg:crates/fuchsia-zircon@0.3.3",
      "group": "",
      "name": "fuchsia-zircon",
      "version": "0.3.3",
      "description": "",
      "hashes": [
        {
          "alg": "SHA-384",
          "content": "2e9763c69ebaae630ba35f74888db465e49e259ba1bc0eda7d06f4a067615d82"
        }
      ],
      "purl": "pkg:crates/fuchsia-zircon@0.3.3"
    },
    {
      "type": "library",
      "bom-ref": "pkg:crates/fuchsia-zircon-sys@0.3.3",
      "group": "",
      "name": "fuchsia-zircon-sys",
      "version": "0.3.3",
      "description": "",
      "hashes": [
        {
          "alg": "SHA-384",
          "content": "3dcaa9ae7725d12cdb85b3ad99a434db70b468c09ded17e012d86b5c1010f7a7"
        }
      ],
      "purl": "pkg:crates/fuchsia-zircon-sys@0.3.3"
    },
    {
      "type": "library",
      "bom-ref": "pkg:crates/generic-array@0.14.4",
      "group": "",
      "name": "generic-array",
      "version": "0.14.4",
      "description": "",
      "hashes": [
        {
          "alg": "SHA-384",
          "content": "501466ecc8a30d1d3b7fc9229b122b2ce8ed6e9d9223f1138d4babb253e51817"
        }
      ],
      "purl": "pkg:crates/generic-array@0.14.4"
    },
    {
      "type": "library",
      "bom-ref": "pkg:crates/getrandom@0.2.2",
      "group": "",
      "name": "getrandom",
      "version": "0.2.2",
      "description": "",
      "hashes": [
        {
          "alg": "SHA-384",
          "content": "c9495705279e7140bf035dde1f6e750c162df8b625267cd52cc44e0b156732c8"
        }
      ],
      "purl": "pkg:crates/getrandom@0.2.2"
    },
    {
      "type": "library",
      "bom-ref": "pkg:crates/gilrs@0.8.0",
      "group": "",
      "name": "gilrs",
      "version": "0.8.0",
      "description": "",
      "hashes": [
        {
          "alg": "SHA-384",
          "content": "3b64ac678e1174eb012be1cfd409ff2483f23cb79bc880ce4737147245b0fbff"
        }
      ],
      "purl": "pkg:crates/gilrs@0.8.0"
    },
    {
      "type": "library",
      "bom-ref": "pkg:crates/gilrs-core@0.3.0",
      "group": "",
      "name": "gilrs-core",
      "version": "0.3.0",
      "description": "",
      "hashes": [
        {
          "alg": "SHA-384",
          "content": "1024d4046c5c67d2adb8c90f6ed235163b58e05d35a63bf699b53f0cceeba2c6"
        }
      ],
      "purl": "pkg:crates/gilrs-core@0.3.0"
    },
    {
      "type": "library",
      "bom-ref": "pkg:crates/gimli@0.23.0",
      "group": "",
      "name": "gimli",
      "version": "0.23.0",
      "description": "",
      "hashes": [
        {
          "alg": "SHA-384",
          "content": "f6503fe142514ca4799d4c26297c4248239fe8838d827db6bd6065c6ed29a6ce"
        }
      ],
      "purl": "pkg:crates/gimli@0.23.0"
    },
    {
      "type": "library",
      "bom-ref": "pkg:crates/gl_generator@0.14.0",
      "group": "",
      "name": "gl_generator",
      "version": "0.14.0",
      "description": "",
      "hashes": [
        {
          "alg": "SHA-384",
          "content": "1a95dfc23a2b4a9a2f5ab41d194f8bfda3cabec42af4e39f08c339eb2a0c124d"
        }
      ],
      "purl": "pkg:crates/gl_generator@0.14.0"
    },
    {
      "type": "library",
      "bom-ref": "pkg:crates/glium@0.29.0",
      "group": "",
      "name": "glium",
      "version": "0.29.0",
      "description": "",
      "hashes": [
        {
          "alg": "SHA-384",
          "content": "77623b4b688e68ec5ce256dd45614e374d4bee6ecec964b790733bf2c05f8732"
        }
      ],
      "purl": "pkg:crates/glium@0.29.0"
    },
    {
      "type": "library",
      "bom-ref": "pkg:crates/glutin@0.26.0",
      "group": "",
      "name": "glutin",
      "version": "0.26.0",
      "description": "",
      "hashes": [
        {
          "alg": "SHA-384",
          "content": "1ae1cbb9176b9151c4ce03f012e3cd1c6c18c4be79edeaeb3d99f5d8085c5fa3"
        }
      ],
      "purl": "pkg:crates/glutin@0.26.0"
    },
    {
      "type": "library",
      "bom-ref": "pkg:crates/glutin_egl_sys@0.1.5",
      "group": "",
      "name": "glutin_egl_sys",
      "version": "0.1.5",
      "description": "",
      "hashes": [
        {
          "alg": "SHA-384",
          "content": "2abb6aa55523480c4adc5a56bbaa249992e2dddb2fc63dc96e04a3355364c211"
        }
      ],
      "purl": "pkg:crates/glutin_egl_sys@0.1.5"
    },
    {
      "type": "library",
      "bom-ref": "pkg:crates/glutin_emscripten_sys@0.1.1",
      "group": "",
      "name": "glutin_emscripten_sys",
      "version": "0.1.1",
      "description": "",
      "hashes": [
        {
          "alg": "SHA-384",
          "content": "80de4146df76e8a6c32b03007bc764ff3249dcaeb4f675d68a06caf1bac363f1"
        }
      ],
      "purl": "pkg:crates/glutin_emscripten_sys@0.1.1"
    },
    {
      "type": "library",
      "bom-ref": "pkg:crates/glutin_gles2_sys@0.1.5",
      "group": "",
      "name": "glutin_gles2_sys",
      "version": "0.1.5",
      "description": "",
      "hashes": [
        {
          "alg": "SHA-384",
          "content": "e8094e708b730a7c8a1954f4f8a31880af00eb8a1c5b5bf85d28a0a3c6d69103"
        }
      ],
      "purl": "pkg:crates/glutin_gles2_sys@0.1.5"
    },
    {
      "type": "library",
      "bom-ref": "pkg:crates/glutin_glx_sys@0.1.7",
      "group": "",
      "name": "glutin_glx_sys",
      "version": "0.1.7",
      "description": "",
      "hashes": [
        {
          "alg": "SHA-384",
          "content": "7e393c8fc02b807459410429150e9c4faffdb312d59b8c038566173c81991351"
        }
      ],
      "purl": "pkg:crates/glutin_glx_sys@0.1.7"
    },
    {
      "type": "library",
      "bom-ref": "pkg:crates/glutin_wgl_sys@0.1.5",
      "group": "",
      "name": "glutin_wgl_sys",
      "version": "0.1.5",
      "description": "",
      "hashes": [
        {
          "alg": "SHA-384",
          "content": "3da5951a1569dbab865c6f2a863efafff193a93caf05538d193e9e3816d21696"
        }
      ],
      "purl": "pkg:crates/glutin_wgl_sys@0.1.5"
    },
    {
      "type": "library",
      "bom-ref": "pkg:crates/half@1.7.1",
      "group": "",
      "name": "half",
      "version": "1.7.1",
      "description": "",
      "hashes": [
        {
          "alg": "SHA-384",
          "content": "62aca2aba2d62b4a7f5b33f3712cb1b0692779a56fb510499d5c0aa594daeaf3"
        }
      ],
      "purl": "pkg:crates/half@1.7.1"
    },
    {
      "type": "library",
      "bom-ref": "pkg:crates/hermit-abi@0.1.18",
      "group": "",
      "name": "hermit-abi",
      "version": "0.1.18",
      "description": "",
      "hashes": [
        {
          "alg": "SHA-384",
          "content": "322f4de77956e22ed0e5032c359a0f1273f1f7f0d79bfa3b8ffbc730d7fbcc5c"
        }
      ],
      "purl": "pkg:crates/hermit-abi@0.1.18"
    },
    {
      "type": "library",
      "bom-ref": "pkg:crates/ident_case@1.0.1",
      "group": "",
      "name": "ident_case",
      "version": "1.0.1",
      "description": "",
      "hashes": [
        {
          "alg": "SHA-384",
          "content": "b9e0384b61958566e926dc50660321d12159025e767c18e043daf26b70104c39"
        }
      ],
      "purl": "pkg:crates/ident_case@1.0.1"
    },
    {
      "type": "library",
      "bom-ref": "pkg:crates/imgui@0.7.0",
      "group": "",
      "name": "imgui",
      "version": "0.7.0",
      "description": "",
      "hashes": [
        {
          "alg": "SHA-384",
          "content": "24cfcf6e3326886321c5d637caf1ce217006651059015fae372b1c49c0e722b2"
        }
      ],
      "purl": "pkg:crates/imgui@0.7.0"
    },
    {
      "type": "library",
      "bom-ref": "pkg:crates/imgui-glium-renderer@0.7.0",
      "group": "",
      "name": "imgui-glium-renderer",
      "version": "0.7.0",
      "description": "",
      "hashes": [
        {
          "alg": "SHA-384",
          "content": "8c295c510c0d7209cf2304741808425bcd8e421142679d2448a38d4aa51762f3"
        }
      ],
      "purl": "pkg:crates/imgui-glium-renderer@0.7.0"
    },
    {
      "type": "library",
      "bom-ref": "pkg:crates/imgui-sys@0.7.0",
      "group": "",
      "name": "imgui-sys",
      "version": "0.7.0",
      "description": "",
      "hashes": [
        {
          "alg": "SHA-384",
          "content": "85ca00be6b78bf02b57e91468cf19d08dfcc11d0fb3c2f3dc491c29404d8d330"
        }
      ],
      "purl": "pkg:crates/imgui-sys@0.7.0"
    },
    {
      "type": "library",
      "bom-ref": "pkg:crates/imgui-winit-support@0.7.0",
      "group": "",
      "name": "imgui-winit-support",
      "version": "0.7.0",
      "description": "",
      "hashes": [
        {
          "alg": "SHA-384",
          "content": "d632440e05c964e8a7f00f2659c4f71c97897d8c38a77a0c2dc1f3fe8d632208"
        }
      ],
      "purl": "pkg:crates/imgui-winit-support@0.7.0"
    },
    {
      "type": "library",
      "bom-ref": "pkg:crates/instant@0.1.9",
      "group": "",
      "name": "instant",
      "version": "0.1.9",
      "description": "",
      "hashes": [
        {
          "alg": "SHA-384",
          "content": "61124eeebbd69b8190558df225adf7e4caafce0d743919e5d6b19652314ec5ec"
        }
      ],
      "purl": "pkg:crates/instant@0.1.9"
    },
    {
      "type": "library",
      "bom-ref": "pkg:crates/io-kit-sys@0.1.0",
      "group": "",
      "name": "io-kit-sys",
      "version": "0.1.0",
      "description": "",
      "hashes": [
        {
          "alg": "SHA-384",
          "content": "f21dcc74995dd4cd090b147e79789f8d65959cbfb5f0b118002db869ea3bd0a0"
        }
      ],
      "purl": "pkg:crates/io-kit-sys@0.1.0"
    },
    {
      "type": "library",
      "bom-ref": "pkg:crates/iovec@0.1.4",
      "group": "",
      "name": "iovec",
      "version": "0.1.4",
      "description": "",
      "hashes": [
        {
          "alg": "SHA-384",
          "content": "b2b3ea6ff95e175473f8ffe6a7eb7c00d054240321b84c57051175fe3c1e075e"
        }
      ],
      "purl": "pkg:crates/iovec@0.1.4"
    },
    {
      "type": "library",
      "bom-ref": "pkg:crates/itertools@0.9.0",
      "group": "",
      "name": "itertools",
      "version": "0.9.0",
      "description": "",
      "hashes": [
        {
          "alg": "SHA-384",
          "content": "284f18f85651fe11e8a991b2adb42cb078325c996ed026d994719efcfca1d54b"
        }
      ],
      "purl": "pkg:crates/itertools@0.9.0"
    },
    {
      "type": "library",
      "bom-ref": "pkg:crates/itertools@0.10.0",
      "group": "",
      "name": "itertools",
      "version": "0.10.0",
      "description": "",
      "hashes": [
        {
          "alg": "SHA-384",
          "content": "37d572918e350e82412fe766d24b15e6682fb2ed2bbe018280caa810397cb319"
        }
      ],
      "purl": "pkg:crates/itertools@0.10.0"
    },
    {
      "type": "library",
      "bom-ref": "pkg:crates/itoa@0.4.7",
      "group": "",
      "name": "itoa",
      "version": "0.4.7",
      "description": "",
      "hashes": [
        {
          "alg": "SHA-384",
          "content": "dd25036021b0de88a0aff6b850051563c6516d0bf53f8638938edbb9de732736"
        }
      ],
      "purl": "pkg:crates/itoa@0.4.7"
    },
    {
      "type": "library",
      "bom-ref": "pkg:crates/jni-sys@0.3.0",
      "group": "",
      "name": "jni-sys",
      "version": "0.3.0",
      "description": "",
      "hashes": [
        {
          "alg": "SHA-384",
          "content": "8eaf4bc02d17cbdd7ff4c7438cafcdf7fb9a4613313ad11b4f8fefe7d3fa0130"
        }
      ],
      "purl": "pkg:crates/jni-sys@0.3.0"
    },
    {
      "type": "library",
      "bom-ref": "pkg:crates/js-sys@0.3.48",
      "group": "",
      "name": "js-sys",
      "version": "0.3.48",
      "description": "",
      "hashes": [
        {
          "alg": "SHA-384",
          "content": "dc9f84f9b115ce7843d60706df1422a916680bfdfcbdb0447c5614ff9d7e4d78"
        }
      ],
      "purl": "pkg:crates/js-sys@0.3.48"
    },
    {
      "type": "library",
      "bom-ref": "pkg:crates/kernel32-sys@0.2.2",
      "group": "",
      "name": "kernel32-sys",
      "version": "0.2.2",
      "description": "",
      "hashes": [
        {
          "alg": "SHA-384",
          "content": "7507624b29483431c0ba2d82aece8ca6cdba9382bff4ddd0f7490560c056098d"
        }
      ],
      "purl": "pkg:crates/kernel32-sys@0.2.2"
    },
    {
      "type": "library",
      "bom-ref": "pkg:crates/khronos_api@3.1.0",
      "group": "",
      "name": "khronos_api",
      "version": "3.1.0",
      "description": "",
      "hashes": [
        {
          "alg": "SHA-384",
          "content": "e2db585e1d738fc771bf08a151420d3ed193d9d895a36df7f6f8a9456b911ddc"
        }
      ],
      "purl": "pkg:crates/khronos_api@3.1.0"
    },
    {
      "type": "library",
      "bom-ref": "pkg:crates/lazy_static@1.4.0",
      "group": "",
      "name": "lazy_static",
      "version": "1.4.0",
      "description": "",
      "hashes": [
        {
          "alg": "SHA-384",
          "content": "e2abad23fbc42b3700f2f279844dc832adb2b2eb069b2df918f455c4e18cc646"
        }
      ],
      "purl": "pkg:crates/lazy_static@1.4.0"
    },
    {
      "type": "library",
      "bom-ref": "pkg:crates/lazycell@1.3.0",
      "group": "",
      "name": "lazycell",
      "version": "1.3.0",
      "description": "",
      "hashes": [
        {
          "alg": "SHA-384",
          "content": "830d08ce1d1d941e6b30645f1a0eb5643013d835ce3779a5fc208261dbe10f55"
        }
      ],
      "purl": "pkg:crates/lazycell@1.3.0"
    },
    {
      "type": "library",
      "bom-ref": "pkg:crates/libc@0.2.88",
      "group": "",
      "name": "libc",
      "version": "0.2.88",
      "description": "",
      "hashes": [
        {
          "alg": "SHA-384",
          "content": "03b07a082330a35e43f63177cc01689da34fbffa0105e1246cf0311472cac73a"
        }
      ],
      "purl": "pkg:crates/libc@0.2.88"
    },
    {
      "type": "library",
      "bom-ref": "pkg:crates/libloading@0.6.7",
      "group": "",
      "name": "libloading",
      "version": "0.6.7",
      "description": "",
      "hashes": [
        {
          "alg": "SHA-384",
          "content": "351a32417a12d5f7e82c368a66781e307834dae04c6ce0cd4456d52989229883"
        }
      ],
      "purl": "pkg:crates/libloading@0.6.7"
    },
    {
      "type": "library",
      "bom-ref": "pkg:crates/libloading@0.7.0",
      "group": "",
      "name": "libloading",
      "version": "0.7.0",
      "description": "",
      "hashes": [
        {
          "alg": "SHA-384",
          "content": "6f84d96438c15fcd6c3f244c8fce01d1e2b9c6b5623e9c711dc9286d8fc92d6a"
        }
      ],
      "purl": "pkg:crates/libloading@0.7.0"
    },
    {
      "type": "library",
      "bom-ref": "pkg:crates/libudev-sys@0.1.4",
      "group": "",
      "name": "libudev-sys",
      "version": "0.1.4",
      "description": "",
      "hashes": [
        {
          "alg": "SHA-384",
          "content": "3c8469b4a23b962c1396b9b451dda50ef5b283e8dd309d69033475fa9b334324"
        }
      ],
      "purl": "pkg:crates/libudev-sys@0.1.4"
    },
    {
      "type": "library",
      "bom-ref": "pkg:crates/lock_api@0.4.2",
      "group": "",
      "name": "lock_api",
      "version": "0.4.2",
      "description": "",
      "hashes": [
        {
          "alg": "SHA-384",
          "content": "dd96ffd135b2fd7b973ac026d28085defbe8983df057ced3eb4f2130b0831312"
        }
      ],
      "purl": "pkg:crates/lock_api@0.4.2"
    },
    {
      "type": "library",
      "bom-ref": "pkg:crates/log@0.4.14",
      "group": "",
      "name": "log",
      "version": "0.4.14",
      "description": "",
      "hashes": [
        {
          "alg": "SHA-384",
          "content": "51b9bbe6c47d51fc3e1a9b945965946b4c44142ab8792c50835a980d362c2710"
        }
      ],
      "purl": "pkg:crates/log@0.4.14"
    },
    {
      "type": "library",
      "bom-ref": "pkg:crates/mach@0.2.3",
      "group": "",
      "name": "mach",
      "version": "0.2.3",
      "description": "",
      "hashes": [
        {
          "alg": "SHA-384",
          "content": "86dd2487cdfea56def77b88438a2c915fb45113c5319bfe7e14306ca4cd0b0e1"
        }
      ],
      "purl": "pkg:crates/mach@0.2.3"
    },
    {
      "type": "library",
      "bom-ref": "pkg:crates/malloc_buf@0.0.6",
      "group": "",
      "name": "malloc_buf",
      "version": "0.0.6",
      "description": "",
      "hashes": [
        {
          "alg": "SHA-384",
          "content": "62bb907fe88d54d8d9ce32a3cceab4218ed2f6b7d35617cafe9adf84e43919cb"
        }
      ],
      "purl": "pkg:crates/malloc_buf@0.0.6"
    },
    {
      "type": "library",
      "bom-ref": "pkg:crates/matrixmultiply@0.3.0",
      "group": "",
      "name": "matrixmultiply",
      "version": "0.3.0",
      "description": "",
      "hashes": [
        {
          "alg": "SHA-384",
          "content": "1300bdbea33ec2836b01ff1f5a6eed8bad66d0c31f94d9b7993407a8b054c3a1"
        }
      ],
      "purl": "pkg:crates/matrixmultiply@0.3.0"
    },
    {
      "type": "library",
      "bom-ref": "pkg:crates/maybe-uninit@2.0.0",
      "group": "",
      "name": "maybe-uninit",
      "version": "2.0.0",
      "description": "",
      "hashes": [
        {
          "alg": "SHA-384",
          "content": "60302e4db3a61da70c0cb7991976248362f30319e88850c487b9b95bbf059e00"
        }
      ],
      "purl": "pkg:crates/maybe-uninit@2.0.0"
    },
    {
      "type": "library",
      "bom-ref": "pkg:crates/memchr@2.3.4",
      "group": "",
      "name": "memchr",
      "version": "2.3.4",
      "description": "",
      "hashes": [
        {
          "alg": "SHA-384",
          "content": "0ee1c47aaa256ecabcaea351eae4a9b01ef39ed810004e298d2511ed284b1525"
        }
      ],
      "purl": "pkg:crates/memchr@2.3.4"
    },
    {
      "type": "library",
      "bom-ref": "pkg:crates/memmap2@0.1.0",
      "group": "",
      "name": "memmap2",
      "version": "0.1.0",
      "description": "",
      "hashes": [
        {
          "alg": "SHA-384",
          "content": "d9b70ca2a6103ac8b665dc150b142ef0e4e89df640c9e6cf295d189c3caebe5a"
        }
      ],
      "purl": "pkg:crates/memmap2@0.1.0"
    },
    {
      "type": "library",
      "bom-ref": "pkg:crates/memoffset@0.6.1",
      "group": "",
      "name": "memoffset",
      "version": "0.6.1",
      "description": "",
      "hashes": [
        {
          "alg": "SHA-384",
          "content": "157b4208e3059a8f9e78d559edc658e13df41410cb3ae03979c83130067fdd87"
        }
      ],
      "purl": "pkg:crates/memoffset@0.6.1"
    },
    {
      "type": "library",
      "bom-ref": "pkg:crates/miniz_oxide@0.4.4",
      "group": "",
      "name": "miniz_oxide",
      "version": "0.4.4",
      "description": "",
      "hashes": [
        {
          "alg": "SHA-384",
          "content": "a92518e98c078586bc6c934028adcca4c92a53d6a958196de835170a01d84e4b"
        }
      ],
      "purl": "pkg:crates/miniz_oxide@0.4.4"
    },
    {
      "type": "library",
      "bom-ref": "pkg:crates/mio@0.6.23",
      "group": "",
      "name": "mio",
      "version": "0.6.23",
      "description": "",
      "hashes": [
        {
          "alg": "SHA-384",
          "content": "4afd66f5b91bf2a3bc13fad0e21caedac168ca4c707504e75585648ae80e4cc4"
        }
      ],
      "purl": "pkg:crates/mio@0.6.23"
    },
    {
      "type": "library",
      "bom-ref": "pkg:crates/mio-extras@2.0.6",
      "group": "",
      "name": "mio-extras",
      "version": "2.0.6",
      "description": "",
      "hashes": [
        {
          "alg": "SHA-384",
          "content": "52403fe290012ce777c4626790c8951324a2b9e3316b3143779c72b029742f19"
        }
      ],
      "purl": "pkg:crates/mio-extras@2.0.6"
    },
    {
      "type": "library",
      "bom-ref": "pkg:crates/miow@0.2.2",
      "group": "",
      "name": "miow",
      "version": "0.2.2",
      "description": "",
      "hashes": [
        {
          "alg": "SHA-384",
          "content": "ebd808424166322d4a38da87083bfddd3ac4c131334ed55856112eb06d46944d"
        }
      ],
      "purl": "pkg:crates/miow@0.2.2"
    },
    {
      "type": "library",
      "bom-ref": "pkg:crates/mooneye-gb@0.2.0-pre",
      "group": "",
      "name": "mooneye-gb",
      "version": "0.2.0-pre",
      "description": "",
      "purl": "pkg:crates/mooneye-gb@0.2.0-pre"
    },
    {
      "type": "library",
      "bom-ref": "pkg:crates/mooneye-gb-core@0.2.0-pre",
      "group": "",
      "name": "mooneye-gb-core",
      "version": "0.2.0-pre",
      "description": "",
      "purl": "pkg:crates/mooneye-gb-core@0.2.0-pre"
    },
    {
      "type": "library",
      "bom-ref": "pkg:crates/nalgebra@0.25.1",
      "group": "",
      "name": "nalgebra",
      "version": "0.25.1",
      "description": "",
      "hashes": [
        {
          "alg": "SHA-384",
          "content": "e2ac95d3b4b9ee72d70be9131c9bd23ab9982d45fc58d7c4cb171b03ef3b6540"
        }
      ],
      "purl": "pkg:crates/nalgebra@0.25.1"
    },
    {
      "type": "library",
      "bom-ref": "pkg:crates/ndk@0.2.1",
      "group": "",
      "name": "ndk",
      "version": "0.2.1",
      "description": "",
      "hashes": [
        {
          "alg": "SHA-384",
          "content": "5eb167c1febed0a496639034d0c76b3b74263636045db5489eee52143c246e73"
        }
      ],
      "purl": "pkg:crates/ndk@0.2.1"
    },
    {
      "type": "library",
      "bom-ref": "pkg:crates/ndk-glue@0.2.1",
      "group": "",
      "name": "ndk-glue",
      "version": "0.2.1",
      "description": "",
      "hashes": [
        {
          "alg": "SHA-384",
          "content": "bdf399b8b7a39c6fb153c4ec32c72fd5fe789df24a647f229c239aa7adb15241"
        }
      ],
      "purl": "pkg:crates/ndk-glue@0.2.1"
    },
    {
      "type": "library",
      "bom-ref": "pkg:crates/ndk-macro@0.2.0",
      "group": "",
      "name": "ndk-macro",
      "version": "0.2.0",
      "description": "",
      "hashes": [
        {
          "alg": "SHA-384",
          "content": "05d1c6307dc424d0f65b9b06e94f88248e6305726b14729fd67a5e47b2dc481d"
        }
      ],
      "purl": "pkg:crates/ndk-macro@0.2.0"
    },
    {
      "type": "library",
      "bom-ref": "pkg:crates/ndk-sys@0.2.1",
      "group": "",
      "name": "ndk-sys",
      "version": "0.2.1",
      "description": "",
      "hashes": [
        {
          "alg": "SHA-384",
          "content": "c44922cb3dbb1c70b5e5f443d63b64363a898564d739ba5198e3a9138442868d"
        }
      ],
      "purl": "pkg:crates/ndk-sys@0.2.1"
    },
    {
      "type": "library",
      "bom-ref": "pkg:crates/net2@0.2.37",
      "group": "",
      "name": "net2",
      "version": "0.2.37",
      "description": "",
      "hashes": [
        {
          "alg": "SHA-384",
          "content": "391630d12b68002ae1e25e8f974306474966550ad82dac6886fb8910c19568ae"
        }
      ],
      "purl": "pkg:crates/net2@0.2.37"
    },
    {
      "type": "library",
      "bom-ref": "pkg:crates/nix@0.18.0",
      "group": "",
      "name": "nix",
      "version": "0.18.0",
      "description": "",
      "hashes": [
        {
          "alg": "SHA-384",
          "content": "83450fe6a6142ddd95fb064b746083fc4ef1705fe81f64a64e1d4b39f54a1055"
        }
      ],
      "purl": "pkg:crates/nix@0.18.0"
    },
    {
      "type": "library",
      "bom-ref": "pkg:crates/nix@0.20.0",
      "group": "",
      "name": "nix",
      "version": "0.20.0",
      "description": "",
      "hashes": [
        {
          "alg": "SHA-384",
          "content": "fa9b4819da1bc61c0ea48b63b7bc8604064dd43013e7cc325df098d49cd7c18a"
        }
      ],
      "purl": "pkg:crates/nix@0.20.0"
    },
    {
      "type": "library",
      "bom-ref": "pkg:crates/nom@6.1.2",
      "group": "",
      "name": "nom",
      "version": "6.1.2",
      "description": "",
      "hashes": [
        {
          "alg": "SHA-384",
          "content": "e7413f999671bd4745a7b624bd370a569fb6bc574b23c83a3c5ed2e453f3d5e2"
        }
      ],
      "purl": "pkg:crates/nom@6.1.2"
    },
    {
      "type": "library",
      "bom-ref": "pkg:crates/num-complex@0.3.1",
      "group": "",
      "name": "num-complex",
      "version": "0.3.1",
      "description": "",
      "hashes": [
        {
          "alg": "SHA-384",
          "content": "747d632c0c558b87dbabbe6a82f3b4ae03720d0646ac5b7b4dae89394be5f2c5"
        }
      ],
      "purl": "pkg:crates/num-complex@0.3.1"
    },
    {
      "type": "library",
      "bom-ref": "pkg:crates/num-integer@0.1.44",
      "group": "",
      "name": "num-integer",
      "version": "0.1.44",
      "description": "",
      "hashes": [
        {
          "alg": "SHA-384",
          "content": "d2cc698a63b549a70bc047073d2949cce27cd1c7b0a4a862d08a8031bc2801db"
        }
      ],
      "purl": "pkg:crates/num-integer@0.1.44"
    },
    {
      "type": "library",
      "bom-ref": "pkg:crates/num-rational@0.3.2",
      "group": "",
      "name": "num-rational",
      "version": "0.3.2",
      "description": "",
      "hashes": [
        {
          "alg": "SHA-384",
          "content": "12ac428b1cb17fce6f731001d307d351ec70a6d202fc2e60f7d4c5e42d8f4f07"
        }
      ],
      "purl": "pkg:crates/num-rational@0.3.2"
    },
    {
      "type": "library",
      "bom-ref": "pkg:crates/num-traits@0.2.14",
      "group": "",
      "name": "num-traits",
      "version": "0.2.14",
      "description": "",
      "hashes": [
        {
          "alg": "SHA-384",
          "content": "9a64b1ec5cda2586e284722486d802acf1f7dbdc623e2bfc57e65ca1cd099290"
        }
      ],
      "purl": "pkg:crates/num-traits@0.2.14"
    },
    {
      "type": "library",
      "bom-ref": "pkg:crates/num_cpus@1.13.0",
      "group": "",
      "name": "num_cpus",
      "version": "1.13.0",
      "description": "",
      "hashes": [
        {
          "alg": "SHA-384",
          "content": "05499f3756671c15885fee9034446956fff3f243d6077b91e5767df161f766b3"
        }
      ],
      "purl": "pkg:crates/num_cpus@1.13.0"
    },
    {
      "type": "library",
      "bom-ref": "pkg:crates/num_enum@0.4.3",
      "group": "",
      "name": "num_enum",
      "version": "0.4.3",
      "description": "",
      "hashes": [
        {
          "alg": "SHA-384",
          "content": "ca565a7df06f3d4b485494f25ba05da1435950f4dc263440eda7a6fa9b8e36e4"
        }
      ],
      "purl": "pkg:crates/num_enum@0.4.3"
    },
    {
      "type": "library",
      "bom-ref": "pkg:crates/num_enum_derive@0.4.3",
      "group": "",
      "name": "num_enum_derive",
      "version": "0.4.3",
      "description": "",
      "hashes": [
        {
          "alg": "SHA-384",
          "content": "ffa5a33ddddfee04c0283a7653987d634e880347e96b5b2ed64de07efb59db9d"
        }
      ],
      "purl": "pkg:crates/num_enum_derive@0.4.3"
    },
    {
      "type": "library",
      "bom-ref": "pkg:crates/objc@0.2.7",
      "group": "",
      "name": "objc",
      "version": "0.2.7",
      "description": "",
      "hashes": [
        {
          "alg": "SHA-384",
          "content": "915b1b472bc21c53464d6c8461c9d3af805ba1ef837e1cac254428f4a77177b1"
        }
      ],
      "purl": "pkg:crates/objc@0.2.7"
    },
    {
      "type": "library",
      "bom-ref": "pkg:crates/object@0.23.0",
      "group": "",
      "name": "object",
      "version": "0.23.0",
      "description": "",
      "hashes": [
        {
          "alg": "SHA-384",
          "content": "a9a7ab5d64814df0fe4a4b5ead45ed6c5f181ee3ff04ba344313a6c80446c5d4"
        }
      ],
      "purl": "pkg:crates/object@0.23.0"
    },
    {
      "type": "library",
      "bom-ref": "pkg:crates/once_cell@1.7.2",
      "group": "",
      "name": "once_cell",
      "version": "1.7.2",
      "description": "",
      "hashes": [
        {
          "alg": "SHA-384",
          "content": "af8b08b04175473088b46763e51ee54da5f9a164bc162f615b91bc179dbf15a3"
        }
      ],
      "purl": "pkg:crates/once_cell@1.7.2"
    },
    {
      "type": "library",
      "bom-ref": "pkg:crates/oorandom@11.1.3",
      "group": "",
      "name": "oorandom",
      "version": "11.1.3",
      "description": "",
      "hashes": [
        {
          "alg": "SHA-384",
          "content": "0ab1bc2a289d34bd04a330323ac98a1b4bc82c9d9fcb1e66b63caa84da26b575"
        }
      ],
      "purl": "pkg:crates/oorandom@11.1.3"
    },
    {
      "type": "library",
      "bom-ref": "pkg:crates/osmesa-sys@0.1.2",
      "group": "",
      "name": "osmesa-sys",
      "version": "0.1.2",
      "description": "",
      "hashes": [
        {
          "alg": "SHA-384",
          "content": "88cfece6e95d2e717e0872a7f53a8684712ad13822a7979bc760b9c77ec0013b"
        }
      ],
      "purl": "pkg:crates/osmesa-sys@0.1.2"
    },
    {
      "type": "library",
      "bom-ref": "pkg:crates/owned_ttf_parser@0.6.0",
      "group": "",
      "name": "owned_ttf_parser",
      "version": "0.6.0",
      "description": "",
      "hashes": [
        {
          "alg": "SHA-384",
          "content": "9f923fb806c46266c02ab4a5b239735c144bdeda724a50ed058e5226f594cde3"
        }
      ],
      "purl": "pkg:crates/owned_ttf_parser@0.6.0"
    },
    {
      "type": "library",
      "bom-ref": "pkg:crates/parking_lot@0.11.1",
      "group": "",
      "name": "parking_lot",
      "version": "0.11.1",
      "description": "",
      "hashes": [
        {
          "alg": "SHA-384",
          "content": "6d7744ac029df22dca6284efe4e898991d28e3085c706c972bcd7da4a27a15eb"
        }
      ],
      "purl": "pkg:crates/parking_lot@0.11.1"
    },
    {
      "type": "library",
      "bom-ref": "pkg:crates/parking_lot_core@0.8.3",
      "group": "",
      "name": "parking_lot_core",
      "version": "0.8.3",
      "description": "",
      "hashes": [
        {
          "alg": "SHA-384",
          "content": "fa7a782938e745763fe6907fc6ba86946d72f49fe7e21de074e08128a99fb018"
        }
      ],
      "purl": "pkg:crates/parking_lot_core@0.8.3"
    },
    {
      "type": "library",
      "bom-ref": "pkg:crates/paste@1.0.4",
      "group": "",
      "name": "paste",
      "version": "1.0.4",
      "description": "",
      "hashes": [
        {
          "alg": "SHA-384",
          "content": "c5d65c4d95931acda4498f675e332fcbdc9a06705cd07086c510e9b6009cd1c1"
        }
      ],
      "purl": "pkg:crates/paste@1.0.4"
    },
    {
      "type": "library",
      "bom-ref": "pkg:crates/percent-encoding@2.1.0",
      "group": "",
      "name": "percent-encoding",
      "version": "2.1.0",
      "description": "",
      "hashes": [
        {
          "alg": "SHA-384",
          "content": "d4fd5641d01c8f18a23da7b6fe29298ff4b55afcccdf78973b24cf3175fee32e"
        }
      ],
      "purl": "pkg:crates/percent-encoding@2.1.0"
    },
    {
      "type": "library",
      "bom-ref": "pkg:crates/pico-args@0.4.0",
      "group": "",
      "name": "pico-args",
      "version": "0.4.0",
      "description": "",
      "hashes": [
        {
          "alg": "SHA-384",
          "content": "d70072c20945e1ab871c472a285fc772aefd4f5407723c206242f2c6f94595d6"
        }
      ],
      "purl": "pkg:crates/pico-args@0.4.0"
    },
    {
      "type": "library",
      "bom-ref": "pkg:crates/pkg-config@0.3.19",
      "group": "",
      "name": "pkg-config",
      "version": "0.3.19",
      "description": "",
      "hashes": [
        {
          "alg": "SHA-384",
          "content": "3831453b3449ceb48b6d9c7ad7c96d5ea673e9b470a1dc578c2ce6521230884c"
        }
      ],
      "purl": "pkg:crates/pkg-config@0.3.19"
    },
    {
      "type": "library",
      "bom-ref": "pkg:crates/plotters@0.3.0",
      "group": "",
      "name": "plotters",
      "version": "0.3.0",
      "description": "",
      "hashes": [
        {
          "alg": "SHA-384",
          "content": "45ca0ae5f169d0917a7c7f5a9c1a3d3d9598f18f529dd2b8373ed988efea307a"
        }
      ],
      "purl": "pkg:crates/plotters@0.3.0"
    },
    {
      "type": "library",
      "bom-ref": "pkg:crates/plotters-backend@0.3.0",
      "group": "",
      "name": "plotters-backend",
      "version": "0.3.0",
      "description": "",
      "hashes": [
        {
          "alg": "SHA-384",
          "content": "b07fffcddc1cb3a1de753caa4e4df03b79922ba43cf882acc1bdd7e8df9f4590"
        }
      ],
      "purl": "pkg:crates/plotters-backend@0.3.0"
    },
    {
      "type": "library",
      "bom-ref": "pkg:crates/plotters-svg@0.3.0",
      "group": "",
      "name": "plotters-svg",
      "version": "0.3.0",
      "description": "",
      "hashes": [
        {
          "alg": "SHA-384",
          "content": "b38a02e23bd9604b842a812063aec4ef702b57989c37b655254bb61c471ad211"
        }
      ],
      "purl": "pkg:crates/plotters-svg@0.3.0"
    },
    {
      "type": "library",
      "bom-ref": "pkg:crates/proc-macro-crate@0.1.5",
      "group": "",
      "name": "proc-macro-crate",
      "version": "0.1.5",
      "description": "",
      "hashes": [
        {
          "alg": "SHA-384",
          "content": "1d6ea3c4595b96363c13943497db34af4460fb474a95c43f4446ad341b8c9785"
        }
      ],
      "purl": "pkg:crates/proc-macro-crate@0.1.5"
    },
    {
      "type": "library",
      "bom-ref": "pkg:crates/proc-macro2@1.0.24",
      "group": "",
      "name": "proc-macro2",
      "version": "1.0.24",
      "description": "",
      "hashes": [
        {
          "alg": "SHA-384",
          "content": "1e0704ee1a7e00d7bb417d0770ea303c1bccbabf0ef1667dae92b5967f5f8a71"
        }
      ],
      "purl": "pkg:crates/proc-macro2@1.0.24"
    },
    {
      "type": "library",
      "bom-ref": "pkg:crates/quickcheck@1.0.3",
      "group": "",
      "name": "quickcheck",
      "version": "1.0.3",
      "description": "",
      "hashes": [
        {
          "alg": "SHA-384",
          "content": "588f6378e4dd99458b60ec275b4477add41ce4fa9f64dcba6f15adccb19b50d6"
        }
      ],
      "purl": "pkg:crates/quickcheck@1.0.3"
    },
    {
      "type": "library",
      "bom-ref": "pkg:crates/quote@1.0.9",
      "group": "",
      "name": "quote",
      "version": "1.0.9",
      "description": "",
      "hashes": [
        {
          "alg": "SHA-384",
          "content": "c3d0b9745dc2debf507c8422de05d7226cc1f0644216dfdfead988f9b1ab32a7"
        }
      ],
      "purl": "pkg:crates/quote@1.0.9"
    },
    {
      "type": "library",
      "bom-ref": "pkg:crates/rand@0.8.3",
      "group": "",
      "name": "rand",
      "version": "0.8.3",
      "description": "",
      "hashes": [
        {
          "alg": "SHA-384",
          "content": "0ef9e7e66b4468674bfcb0c81af8b7fa0bb154fa9f28eb840da5c447baeb8d7e"
        }
      ],
      "purl": "pkg:crates/rand@0.8.3"
    },
    {
      "type": "library",
      "bom-ref": "pkg:crates/rand_core@0.6.2",
      "group": "",
      "name": "rand_core",
      "version": "0.6.2",
      "description": "",
      "hashes": [
        {
          "alg": "SHA-384",
          "content": "34cf66eb183df1c5876e2dcf6b13d57340741e8dc255b48e40a26de954d06ae7"
        }
      ],
      "purl": "pkg:crates/rand_core@0.6.2"
    },
    {
      "type": "library",
      "bom-ref": "pkg:crates/raw-window-handle@0.3.3",
      "group": "",
      "name": "raw-window-handle",
      "version": "0.3.3",
      "description": "",
      "hashes": [
        {
          "alg": "SHA-384",
          "content": "0a441a7a6c80ad6473bd4b74ec1c9a4c951794285bf941c2126f607c72e48211"
        }
      ],
      "purl": "pkg:crates/raw-window-handle@0.3.3"
    },
    {
      "type": "library",
      "bom-ref": "pkg:crates/rawpointer@0.2.1",
      "group": "",
      "name": "rawpointer",
      "version": "0.2.1",
      "description": "",
      "hashes": [
        {
          "alg": "SHA-384",
          "content": "60a357793950651c4ed0f3f52338f53b2f809f32d83a07f72909fa13e4c6c1e3"
        }
      ],
      "purl": "pkg:crates/rawpointer@0.2.1"
    },
    {
      "type": "library",
      "bom-ref": "pkg:crates/rayon@1.5.0",
      "group": "",
      "name": "rayon",
      "version": "1.5.0",
      "description": "",
      "hashes": [
        {
          "alg": "SHA-384",
          "content": "8b0d8e0819fadc20c74ea8373106ead0600e3a67ef1fe8da56e39b9ae7275674"
        }
      ],
      "purl": "pkg:crates/rayon@1.5.0"
    },
    {
      "type": "library",
      "bom-ref": "pkg:crates/rayon-core@1.9.0",
      "group": "",
      "name": "rayon-core",
      "version": "1.9.0",
      "description": "",
      "hashes": [
        {
          "alg": "SHA-384",
          "content": "9ab346ac5921dc62ffa9f89b7a773907511cdfa5490c572ae9be1be33e8afa4a"
        }
      ],
      "purl": "pkg:crates/rayon-core@1.9.0"
    },
    {
      "type": "library",
      "bom-ref": "pkg:crates/redox_syscall@0.2.5",
      "group": "",
      "name": "redox_syscall",
      "version": "0.2.5",
      "description": "",
      "hashes": [
        {
          "alg": "SHA-384",
          "content": "94341e4e44e24f6b591b59e47a8a027df12e008d73fd5672dbea9cc22f4507d9"
        }
      ],
      "purl": "pkg:crates/redox_syscall@0.2.5"
    },
    {
      "type": "library",
      "bom-ref": "pkg:crates/redox_users@0.4.0",
      "group": "",
      "name": "redox_users",
      "version": "0.4.0",
      "description": "",
      "hashes": [
        {
          "alg": "SHA-384",
          "content": "528532f3d801c87aec9def2add9ca802fe569e44a544afe633765267840abe64"
        }
      ],
      "purl": "pkg:crates/redox_users@0.4.0"
    },
    {
      "type": "library",
      "bom-ref": "pkg:crates/regex@1.4.3",
      "group": "",
      "name": "regex",
      "version": "1.4.3",
      "description": "",
      "hashes": [
        {
          "alg": "SHA-384",
          "content": "d9251239e129e16308e70d853559389de218ac275b515068abc96829d05b948a"
        }
      ],
      "purl": "pkg:crates/regex@1.4.3"
    },
    {
      "type": "library",
      "bom-ref": "pkg:crates/regex-automata@0.1.9",
      "group": "",
      "name": "regex-automata",
      "version": "0.1.9",
      "description": "",
      "hashes": [
        {
          "alg": "SHA-384",
          "content": "ae1ded71d66a4a97f5e961fd0cb25a5f366a42a41570d16a763a69c092c26ae4"
        }
      ],
      "purl": "pkg:crates/regex-automata@0.1.9"
    },
    {
      "type": "library",
      "bom-ref": "pkg:crates/regex-syntax@0.6.22",
      "group": "",
      "name": "regex-syntax",
      "version": "0.6.22",
      "description": "",
      "hashes": [
        {
          "alg": "SHA-384",
          "content": "b5eb417147ba9860a96cfe72a0b93bf88fee1744b5636ec99ab20c1aa9376581"
        }
      ],
      "purl": "pkg:crates/regex-syntax@0.6.22"
    },
    {
      "type": "library",
      "bom-ref": "pkg:crates/rustc-demangle@0.1.18",
      "group": "",
      "name": "rustc-demangle",
      "version": "0.1.18",
      "description": "",
      "hashes": [
        {
          "alg": "SHA-384",
          "content": "6e3bad0ee36814ca07d7968269dd4b7ec89ec2da10c4bb613928d3077083c232"
        }
      ],
      "purl": "pkg:crates/rustc-demangle@0.1.18"
    },
    {
      "type": "library",
      "bom-ref": "pkg:crates/rustc_version@0.2.3",
      "group": "",
      "name": "rustc_version",
      "version": "0.2.3",
      "description": "",
      "hashes": [
        {
          "alg": "SHA-384",
          "content": "138e3e0acb6c9fb258b19b67cb8abd63c00679d2851805ea151465464fe9030a"
        }
      ],
      "purl": "pkg:crates/rustc_version@0.2.3"
    },
    {
      "type": "library",
      "bom-ref": "pkg:crates/rusttype@0.9.2",
      "group": "",
      "name": "rusttype",
      "version": "0.9.2",
      "description": "",
      "hashes": [
        {
          "alg": "SHA-384",
          "content": "dc7c727aded0be18c5b80c1640eae0ac8e396abf6fa8477d96cb37d18ee5ec59"
        }
      ],
      "purl": "pkg:crates/rusttype@0.9.2"
    },
    {
      "type": "library",
      "bom-ref": "pkg:crates/rusty-xinput@1.2.0",
      "group": "",
      "name": "rusty-xinput",
      "version": "1.2.0",
      "description": "",
      "hashes": [
        {
          "alg": "SHA-384",
          "content": "d2aa654bc32eb9ca14cce1a084abc9dfe43949a4547c35269a094c39272db3bb"
        }
      ],
      "purl": "pkg:crates/rusty-xinput@1.2.0"
    },
    {
      "type": "library",
      "bom-ref": "pkg:crates/ryu@1.0.5",
      "group": "",
      "name": "ryu",
      "version": "1.0.5",
      "description": "",
      "hashes": [
        {
          "alg": "SHA-384",
          "content": "71d301d4193d031abdd79ff7e3dd721168a9572ef3fe51a1517aba235bd8f86e"
        }
      ],
      "purl": "pkg:crates/ryu@1.0.5"
    },
    {
      "type": "library",
      "bom-ref": "pkg:crates/same-file@1.0.6",
      "group": "",
      "name": "same-file",
      "version": "1.0.6",
      "description": "",
      "hashes": [
        {
          "alg": "SHA-384",
          "content": "93fc1dc3aaa9bfed95e02e6eadabb4baf7e3078b0bd1b4d7b6b0b68378900502"
        }
      ],
      "purl": "pkg:crates/same-file@1.0.6"
    },
    {
      "type": "library",
      "bom-ref": "pkg:crates/scoped-tls@1.0.0",
      "group": "",
      "name": "scoped-tls",
      "version": "1.0.0",
      "description": "",
      "hashes": [
        {
          "alg": "SHA-384",
          "content": "ea6a9290e3c9cf0f18145ef7ffa62d68ee0bf5fcd651017e586dc7fd5da448c2"
        }
      ],
      "purl": "pkg:crates/scoped-tls@1.0.0"
    },
    {
      "type": "library",
      "bom-ref": "pkg:crates/scopeguard@1.1.0",
      "group": "",
      "name": "scopeguard",
      "version": "1.1.0",
      "description": "",
      "hashes": [
        {
          "alg": "SHA-384",
          "content": "d29ab0c6d3fc0ee92fe66e2d99f700eab17a8d57d1c1d3b748380fb20baa78cd"
        }
      ],
      "purl": "pkg:crates/scopeguard@1.1.0"
    },
    {
      "type": "library",
      "bom-ref": "pkg:crates/semver@0.9.0",
      "group": "",
      "name": "semver",
      "version": "0.9.0",
      "description": "",
      "hashes": [
        {
          "alg": "SHA-384",
          "content": "1d7eb9ef2c18661902cc47e535f9bc51b78acd254da71d375c2f6720d9a40403"
        }
      ],
      "purl": "pkg:crates/semver@0.9.0"
    },
    {
      "type": "library",
      "bom-ref": "pkg:crates/semver-parser@0.7.0",
      "group": "",
      "name": "semver-parser",
      "version": "0.7.0",
      "description": "",
      "hashes": [
        {
          "alg": "SHA-384",
          "content": "388a1df253eca08550bef6c72392cfe7c30914bf41df5269b68cbd6ff8f570a3"
        }
      ],
      "purl": "pkg:crates/semver-parser@0.7.0"
    },
    {
      "type": "library",
      "bom-ref": "pkg:crates/serde@1.0.124",
      "group": "",
      "name": "serde",
      "version": "1.0.124",
      "description": "",
      "hashes": [
        {
          "alg": "SHA-384",
          "content": "bd761ff957cb2a45fbb9ab3da6512de9de55872866160b23c25f1a841e99d29f"
        }
      ],
      "purl": "pkg:crates/serde@1.0.124"
    },
    {
      "type": "library",
      "bom-ref": "pkg:crates/serde_cbor@0.11.1",
      "group": "",
      "name": "serde_cbor",
      "version": "0.11.1",
      "description": "",
      "hashes": [
        {
          "alg": "SHA-384",
          "content": "1e18acfa2f90e8b735b2836ab8d538de304cbb6729a7360729ea5a895d15a622"
        }
      ],
      "purl": "pkg:crates/serde_cbor@0.11.1"
    },
    {
      "type": "library",
      "bom-ref": "pkg:crates/serde_derive@1.0.124",
      "group": "",
      "name": "serde_derive",
      "version": "1.0.124",
      "description": "",
      "hashes": [
        {
          "alg": "SHA-384",
          "content": "1800f7693e94e186f5e25a28291ae1570da908aff7d97a095dec1e56ff99069b"
        }
      ],
      "purl": "pkg:crates/serde_derive@1.0.124"
    },
    {
      "type": "library",
      "bom-ref": "pkg:crates/serde_json@1.0.64",
      "group": "",
      "name": "serde_json",
      "version": "1.0.64",
      "description": "",
      "hashes": [
        {
          "alg": "SHA-384",
          "content": "799e97dc9fdae36a5c8b8f2cae9ce2ee9fdce2058c57a93e6099d919fd982f79"
        }
      ],
      "purl": "pkg:crates/serde_json@1.0.64"
    },
    {
      "type": "library",
      "bom-ref": "pkg:crates/sha1@0.6.0",
      "group": "",
      "name": "sha1",
      "version": "0.6.0",
      "description": "",
      "hashes": [
        {
          "alg": "SHA-384",
          "content": "2579985fda508104f7587689507983eadd6a6e84dd35d6d115361f530916fa0d"
        }
      ],
      "purl": "pkg:crates/sha1@0.6.0"
    },
    {
      "type": "library",
      "bom-ref": "pkg:crates/shared_library@0.1.9",
      "group": "",
      "name": "shared_library",
      "version": "0.1.9",
      "description": "",
      "hashes": [
        {
          "alg": "SHA-384",
          "content": "5a9e7e0f2bfae24d8a5b5a66c5b257a83c7412304311512a0c054cd5e619da11"
        }
      ],
      "purl": "pkg:crates/shared_library@0.1.9"
    },
    {
      "type": "library",
      "bom-ref": "pkg:crates/simba@0.4.0",
      "group": "",
      "name": "simba",
      "version": "0.4.0",
      "description": "",
      "hashes": [
        {
          "alg": "SHA-384",
          "content": "5132a955559188f3d13c9ba831e77c802ddc8782783f050ed0c52f5988b95f4c"
        }
      ],
      "purl": "pkg:crates/simba@0.4.0"
    },
    {
      "type": "library",
      "bom-ref": "pkg:crates/simplelog@0.9.0",
      "group": "",
      "name": "simplelog",
      "version": "0.9.0",
      "description": "",
      "hashes": [
        {
          "alg": "SHA-384",
          "content": "4bc0ffd69814a9b251d43afcabf96dad1b29f5028378056257be9e3fecc9f720"
        }
      ],
      "purl": "pkg:crates/simplelog@0.9.0"
    },
    {
      "type": "library",
      "bom-ref": "pkg:crates/slab@0.4.2",
      "group": "",
      "name": "slab",
      "version": "0.4.2",
      "description": "",
      "hashes": [
        {
          "alg": "SHA-384",
          "content": "c111b5bd5695e56cffe5129854aa230b39c93a305372fdbb2668ca2394eea9f8"
        }
      ],
      "purl": "pkg:crates/slab@0.4.2"
    },
    {
      "type": "library",
      "bom-ref": "pkg:crates/smallvec@1.6.1",
      "group": "",
      "name": "smallvec",
      "version": "1.6.1",
      "description": "",
      "hashes": [
        {
          "alg": "SHA-384",
          "content": "fe0f37c9e8f3c5a4a66ad655a93c74daac4ad00c441533bf5c6e7990bb42604e"
        }
      ],
      "purl": "pkg:crates/smallvec@1.6.1"
    },
    {
      "type": "library",
      "bom-ref": "pkg:crates/smithay-client-toolkit@0.12.3",
      "group": "",
      "name": "smithay-client-toolkit",
      "version": "0.12.3",
      "description": "",
      "hashes": [
        {
          "alg": "SHA-384",
          "content": "4750c76fd5d3ac95fa3ed80fe667d6a3d8590a960e5b575b98eea93339a80b80"
        }
      ],
      "purl": "pkg:crates/smithay-client-toolkit@0.12.3"
    },
    {
      "type": "library",
      "bom-ref": "pkg:crates/snafu@0.6.10",
      "group": "",
      "name": "snafu",
      "version": "0.6.10",
      "description": "",
      "hashes": [
        {
          "alg": "SHA-384",
          "content": "eab12d3c261b2308b0d80c26fffb58d17eba81a4be97890101f416b478c79ca7"
        }
      ],
      "purl": "pkg:crates/snafu@0.6.10"
    },
    {
      "type": "library",
      "bom-ref": "pkg:crates/snafu-derive@0.6.10",
      "group": "",
      "name": "snafu-derive",
      "version": "0.6.10",
      "description": "",
      "hashes": [
        {
          "alg": "SHA-384",
          "content": "1508efa03c362e23817f96cde18abed596a25219a8b2c66e8db33c03543d315b"
        }
      ],
      "purl": "pkg:crates/snafu-derive@0.6.10"
    },
    {
      "type": "library",
      "bom-ref": "pkg:crates/stdweb@0.4.20",
      "group": "",
      "name": "stdweb",
      "version": "0.4.20",
      "description": "",
      "hashes": [
        {
          "alg": "SHA-384",
          "content": "d022496b16281348b52d0e30ae99e01a73d737b2f45d38fed4edf79f9325a1d5"
        }
      ],
      "purl": "pkg:crates/stdweb@0.4.20"
    },
    {
      "type": "library",
      "bom-ref": "pkg:crates/stdweb-derive@0.5.3",
      "group": "",
      "name": "stdweb-derive",
      "version": "0.5.3",
      "description": "",
      "hashes": [
        {
          "alg": "SHA-384",
          "content": "c87a60a40fccc84bef0652345bbbbbe20a605bf5d0ce81719fc476f5c03b50ef"
        }
      ],
      "purl": "pkg:crates/stdweb-derive@0.5.3"
    },
    {
      "type": "library",
      "bom-ref": "pkg:crates/stdweb-internal-macros@0.2.9",
      "group": "",
      "name": "stdweb-internal-macros",
      "version": "0.2.9",
      "description": "",
      "hashes": [
        {
          "alg": "SHA-384",
          "content": "58fa5ff6ad0d98d1ffa8cb115892b6e69d67799f6763e162a1c9db421dc22e11"
        }
      ],
      "purl": "pkg:crates/stdweb-internal-macros@0.2.9"
    },
    {
      "type": "library",
      "bom-ref": "pkg:crates/stdweb-internal-runtime@0.1.5",
      "group": "",
      "name": "stdweb-internal-runtime",
      "version": "0.1.5",
      "description": "",
      "hashes": [
        {
          "alg": "SHA-384",
          "content": "213701ba3370744dcd1a12960caa4843b3d68b4d1c0a5d575e0d65b2ee9d16c0"
        }
      ],
      "purl": "pkg:crates/stdweb-internal-runtime@0.1.5"
    },
    {
      "type": "library",
      "bom-ref": "pkg:crates/strsim@0.9.3",
      "group": "",
      "name": "strsim",
      "version": "0.9.3",
      "description": "",
      "hashes": [
        {
          "alg": "SHA-384",
          "content": "6446ced80d6c486436db5c078dde11a9f73d42b57fb273121e160b84f63d894c"
        }
      ],
      "purl": "pkg:crates/strsim@0.9.3"
    },
    {
      "type": "library",
      "bom-ref": "pkg:crates/syn@1.0.61",
      "group": "",
      "name": "syn",
      "version": "1.0.61",
      "description": "",
      "hashes": [
        {
          "alg": "SHA-384",
          "content": "ed22b90a0e734a23a7610f4283ac9e5acfb96cbb30dfefa540d66f866f1c09c5"
        }
      ],
      "purl": "pkg:crates/syn@1.0.61"
    },
    {
      "type": "library",
      "bom-ref": "pkg:crates/takeable-option@0.5.0",
      "group": "",
      "name": "takeable-option",
      "version": "0.5.0",
      "description": "",
      "hashes": [
        {
          "alg": "SHA-384",
          "content": "36ae8932fcfea38b7d3883ae2ab357b0d57a02caaa18ebb4f5ece08beaec4aa0"
        }
      ],
      "purl": "pkg:crates/takeable-option@0.5.0"
    },
    {
      "type": "library",
      "bom-ref": "pkg:crates/termcolor@1.1.2",
      "group": "",
      "name": "termcolor",
      "version": "1.1.2",
      "description": "",
      "hashes": [
        {
          "alg": "SHA-384",
          "content": "2dfed899f0eb03f32ee8c6a0aabdb8a7949659e3466561fc0adf54e26d88c5f4"
        }
      ],
      "purl": "pkg:crates/termcolor@1.1.2"
    },
    {
      "type": "library",
      "bom-ref": "pkg:crates/textwrap@0.11.0",
      "group": "",
      "name": "textwrap",
      "version": "0.11.0",
      "description": "",
      "hashes": [
        {
          "alg": "SHA-384",
          "content": "d326610f408c7a4eb6f51c37c330e496b08506c9457c9d34287ecc38809fb060"
        }
      ],
      "purl": "pkg:crates/textwrap@0.11.0"
    },
    {
      "type": "library",
      "bom-ref": "pkg:crates/thiserror@1.0.24",
      "group": "",
      "name": "thiserror",
      "version": "1.0.24",
      "description": "",
      "hashes": [
        {
          "alg": "SHA-384",
          "content": "e0f4a65597094d4483ddaed134f409b2cb7c1beccf25201a9f73c719254fa98e"
        }
      ],
      "purl": "pkg:crates/thiserror@1.0.24"
    },
    {
      "type": "library",
      "bom-ref": "pkg:crates/thiserror-impl@1.0.24",
      "group": "",
      "name": "thiserror-impl",
      "version": "1.0.24",
      "description": "",
      "hashes": [
        {
          "alg": "SHA-384",
          "content": "7765189610d8241a44529806d6fd1f2e0a08734313a35d5b3a556f92b381f3c0"
        }
      ],
      "purl": "pkg:crates/thiserror-impl@1.0.24"
    },
    {
      "type": "library",
      "bom-ref": "pkg:crates/thread_local@1.1.3",
      "group": "",
      "name": "thread_local",
      "version": "1.1.3",
      "description": "",
      "hashes": [
        {
          "alg": "SHA-384",
          "content": "8018d24e04c95ac8790716a5987d0fec4f8b27249ffa0f7d33f1369bdfb88cbd"
        }
      ],
      "purl": "pkg:crates/thread_local@1.1.3"
    },
    {
      "type": "library",
      "bom-ref": "pkg:crates/time@0.1.43",
      "group": "",
      "name": "time",
      "version": "0.1.43",
      "description": "",
      "hashes": [
        {
          "alg": "SHA-384",
          "content": "ca8a50ef2360fbd1eeb0ecd46795a87a19024eb4b53c5dc916ca1fd95fe62438"
        }
      ],
      "purl": "pkg:crates/time@0.1.43"
    },
    {
      "type": "library",
      "bom-ref": "pkg:crates/tinytemplate@1.2.1",
      "group": "",
      "name": "tinytemplate",
      "version": "1.2.1",
      "description": "",
      "hashes": [
        {
          "alg": "SHA-384",
          "content": "be4d6b5f19ff7664e8c98d03e2139cb510db9b0a60b55f8e8709b689d939b6bc"
        }
      ],
      "purl": "pkg:crates/tinytemplate@1.2.1"
    },
    {
      "type": "library",
      "bom-ref": "pkg:crates/toml@0.5.8",
      "group": "",
      "name": "toml",
      "version": "0.5.8",
      "description": "",
      "hashes": [
        {
          "alg": "SHA-384",
          "content": "a31142970826733df8241ef35dc040ef98c679ab14d7c3e54d827099b3acecaa"
        }
      ],
      "purl": "pkg:crates/toml@0.5.8"
    },
    {
      "type": "library",
      "bom-ref": "pkg:crates/ttf-parser@0.6.2",
      "group": "",
      "name": "ttf-parser",
      "version": "0.6.2",
      "description": "",
      "hashes": [
        {
          "alg": "SHA-384",
          "content": "3e5d7cd7ab3e47dda6e56542f4bbf3824c15234958c6e1bd6aaa347e93499fdc"
        }
      ],
      "purl": "pkg:crates/ttf-parser@0.6.2"
    },
    {
      "type": "library",
      "bom-ref": "pkg:crates/typenum@1.12.0",
      "group": "",
      "name": "typenum",
      "version": "1.12.0",
      "description": "",
      "hashes": [
        {
          "alg": "SHA-384",
          "content": "373c8a200f9e67a0c95e62a4f52fbf80c23b4381c05a17845531982fa99e6b33"
        }
      ],
      "purl": "pkg:crates/typenum@1.12.0"
    },
    {
      "type": "library",
      "bom-ref": "pkg:crates/unicode-width@0.1.8",
      "group": "",
      "name": "unicode-width",
      "version": "0.1.8",
      "description": "",
      "hashes": [
        {
          "alg": "SHA-384",
          "content": "9337591893a19b88d8d87f2cec1e73fad5cdfd10e5a6f349f498ad6ea2ffb1e3"
        }
      ],
      "purl": "pkg:crates/unicode-width@0.1.8"
    },
    {
      "type": "library",
      "bom-ref": "pkg:crates/unicode-xid@0.2.1",
      "group": "",
      "name": "unicode-xid",
      "version": "0.2.1",
      "description": "",
      "hashes": [
        {
          "alg": "SHA-384",
          "content": "f7fe0bb3479651439c9112f72b6c505038574c9fbb575ed1bf3b797fa39dd564"
        }
      ],
      "purl": "pkg:crates/unicode-xid@0.2.1"
    },
    {
      "type": "library",
      "bom-ref": "pkg:crates/uuid@0.8.2",
      "group": "",
      "name": "uuid",
      "version": "0.8.2",
      "description": "",
      "hashes": [
        {
          "alg": "SHA-384",
          "content": "bc5cf98d8186244414c848017f0e2676b3fcb46807f6668a97dfe67359a3c4b7"
        }
      ],
      "purl": "pkg:crates/uuid@0.8.2"
    },
    {
      "type": "library",
      "bom-ref": "pkg:crates/vec_map@0.8.2",
      "group": "",
      "name": "vec_map",
      "version": "0.8.2",
      "description": "",
      "hashes": [
        {
          "alg": "SHA-384",
          "content": "f1bddf1187be692e79c5ffeab891132dfb0f236ed36a43c7ed39f1165ee20191"
        }
      ],
      "purl": "pkg:crates/vec_map@0.8.2"
    },
    {
      "type": "library",
      "bom-ref": "pkg:crates/version_check@0.9.2",
      "group": "",
      "name": "version_check",
      "version": "0.9.2",
      "description": "",
      "hashes": [
        {
          "alg": "SHA-384",
          "content": "b5a972e5669d67ba988ce3dc826706fb0a8b01471c088cb0b6110b805cc36aed"
        }
      ],
      "purl": "pkg:crates/version_check@0.9.2"
    },
    {
      "type": "library",
      "bom-ref": "pkg:crates/walkdir@2.3.1",
      "group": "",
      "name": "walkdir",
      "version": "2.3.1",
      "description": "",
      "hashes": [
        {
          "alg": "SHA-384",
          "content": "777182bc735b6424e1a57516d35ed72cb8019d85c8c9bf536dccb3445c1a2f7d"
        }
      ],
      "purl": "pkg:crates/walkdir@2.3.1"
    },
    {
      "type": "library",
      "bom-ref": "pkg:crates/wasi@0.10.2+wasi-snapshot-preview1",
      "group": "",
      "name": "wasi",
      "version": "0.10.2+wasi-snapshot-preview1",
      "description": "",
      "hashes": [
        {
          "alg": "SHA-384",
          "content": "fd6fbd9a79829dd1ad0cc20627bf1ed606756a7f77edff7b66b7064f9cb327c6"
        }
      ],
      "purl": "pkg:crates/wasi@0.10.2+wasi-snapshot-preview1"
    },
    {
      "type": "library",
      "bom-ref": "pkg:crates/wasm-bindgen@0.2.71",
      "group": "",
      "name": "wasm-bindgen",
      "version": "0.2.71",
      "description": "",
      "hashes": [
        {
          "alg": "SHA-384",
          "content": "7ee1280240b7c461d6a0071313e08f34a60b0365f14260362e5a2b17d1d31aa7"
        }
      ],
      "purl": "pkg:crates/wasm-bindgen@0.2.71"
    },
    {
      "type": "library",
      "bom-ref": "pkg:crates/wasm-bindgen-backend@0.2.71",
      "group": "",
      "name": "wasm-bindgen-backend",
      "version": "0.2.71",
      "description": "",
      "hashes": [
        {
          "alg": "SHA-384",
          "content": "5b7d8b6942b8bb3a9b0e73fc79b98095a27de6fa247615e59d096754a3bc2aa8"
        }
      ],
      "purl": "pkg:crates/wasm-bindgen-backend@0.2.71"
    },
    {
      "type": "library",
      "bom-ref": "pkg:crates/wasm-bindgen-macro@0.2.71",
      "group": "",
      "name": "wasm-bindgen-macro",
      "version": "0.2.71",
      "description": "",
      "hashes": [
        {
          "alg": "SHA-384",
          "content": "e5ac38da8ef716661f0f36c0d8320b89028efe10c7c0afde65baffb496ce0d3b"
        }
      ],
      "purl": "pkg:crates/wasm-bindgen-macro@0.2.71"
    },
    {
      "type": "library",
      "bom-ref": "pkg:crates/wasm-bindgen-macro-support@0.2.71",
      "group": "",
      "name": "wasm-bindgen-macro-support",
      "version": "0.2.71",
      "description": "",
      "hashes": [
        {
          "alg": "SHA-384",
          "content": "cc053ec74d454df287b9374ee8abb36ffd5acb95ba87da3ba5b7d3fe20eb401e"
        }
      ],
      "purl": "pkg:crates/wasm-bindgen-macro-support@0.2.71"
    },
    {
      "type": "library",
      "bom-ref": "pkg:crates/wasm-bindgen-shared@0.2.71",
      "group": "",
      "name": "wasm-bindgen-shared",
      "version": "0.2.71",
      "description": "",
      "hashes": [
        {
          "alg": "SHA-384",
          "content": "7d6f8ec44822dd71f5f221a5847fb34acd9060535c1211b70a05844c0f6383b1"
        }
      ],
      "purl": "pkg:crates/wasm-bindgen-shared@0.2.71"
    },
    {
      "type": "library",
      "bom-ref": "pkg:crates/wayland-client@0.28.5",
      "group": "",
      "name": "wayland-client",
      "version": "0.28.5",
      "description": "",
      "hashes": [
        {
          "alg": "SHA-384",
          "content": "06ca44d86554b85cf449f1557edc6cc7da935cc748c8e4bf1c507cbd43bae02c"
        }
      ],
      "purl": "pkg:crates/wayland-client@0.28.5"
    },
    {
      "type": "library",
      "bom-ref": "pkg:crates/wayland-commons@0.28.5",
      "group": "",
      "name": "wayland-commons",
      "version": "0.28.5",
      "description": "",
      "hashes": [
        {
          "alg": "SHA-384",
          "content": "8bd75ae380325dbcff2707f0cd9869827ea1d2d6d534cff076858d3f0460fd5a"
        }
      ],
      "purl": "pkg:crates/wayland-commons@0.28.5"
    },
    {
      "type": "library",
      "bom-ref": "pkg:crates/wayland-cursor@0.28.5",
      "group": "",
      "name": "wayland-cursor",
      "version": "0.28.5",
      "description": "",
      "hashes": [
        {
          "alg": "SHA-384",
          "content": "b37e5455ec72f5de555ec39b5c3704036ac07c2ecd50d0bffe02d5fe2d4e65ab"
        }
      ],
      "purl": "pkg:crates/wayland-cursor@0.28.5"
    },
    {
      "type": "library",
      "bom-ref": "pkg:crates/wayland-egl@0.28.5",
      "group": "",
      "name": "wayland-egl",
      "version": "0.28.5",
      "description": "",
      "hashes": [
        {
          "alg": "SHA-384",
          "content": "9461a67930ec16da7a4fd8b50e9ffa23f4417240b43ec84008bd1b2c94421c94"
        }
      ],
      "purl": "pkg:crates/wayland-egl@0.28.5"
    },
    {
      "type": "library",
      "bom-ref": "pkg:crates/wayland-protocols@0.28.5",
      "group": "",
      "name": "wayland-protocols",
      "version": "0.28.5",
      "description": "",
      "hashes": [
        {
          "alg": "SHA-384",
          "content": "95df3317872bcf9eec096c864b69aa4769a1d5d6291a5b513f8ba0af0efbd52c"
        }
      ],
      "purl": "pkg:crates/wayland-protocols@0.28.5"
    },
    {
      "type": "library",
      "bom-ref": "pkg:crates/wayland-scanner@0.28.5",
      "group": "",
      "name": "wayland-scanner",
      "version": "0.28.5",
      "description": "",
      "hashes": [
        {
          "alg": "SHA-384",
          "content": "389d680d7bd67512dc9c37f39560224327038deb0f0e8d33f870900441b68720"
        }
      ],
      "purl": "pkg:crates/wayland-scanner@0.28.5"
    },
    {
      "type": "library",
      "bom-ref": "pkg:crates/wayland-sys@0.28.5",
      "group": "",
      "name": "wayland-sys",
      "version": "0.28.5",
      "description": "",
      "hashes": [
        {
          "alg": "SHA-384",
          "content": "2907bd297eef464a95ba9349ea771611771aa285b932526c633dc94d5400a8e2"
        }
      ],
      "purl": "pkg:crates/wayland-sys@0.28.5"
    },
    {
      "type": "library",
      "bom-ref": "pkg:crates/web-sys@0.3.48",
      "group": "",
      "name": "web-sys",
      "version": "0.3.48",
      "description": "",
      "hashes": [
        {
          "alg": "SHA-384",
          "content": "ec600b26223b2948cedfde2a0aa6756dcf1fef616f43d7b3097aaf53a6c4d92b"
        }
      ],
      "purl": "pkg:crates/web-sys@0.3.48"
    },
    {
      "type": "library",
      "bom-ref": "pkg:crates/winapi@0.2.8",
      "group": "",
      "name": "winapi",
      "version": "0.2.8",
      "description": "",
      "hashes": [
        {
          "alg": "SHA-384",
          "content": "167dc9d6949a9b857f3451275e911c3f44255842c1f7a76f33c55103a909087a"
        }
      ],
      "purl": "pkg:crates/winapi@0.2.8"
    },
    {
      "type": "library",
      "bom-ref": "pkg:crates/winapi@0.3.9",
      "group": "",
      "name": "winapi",
      "version": "0.3.9",
      "description": "",
      "hashes": [
        {
          "alg": "SHA-384",
          "content": "5c839a674fcd7a98952e593242ea400abe93992746761e38641405d28b00f419"
        }
      ],
      "purl": "pkg:crates/winapi@0.3.9"
    },
    {
      "type": "library",
      "bom-ref": "pkg:crates/winapi-build@0.1.1",
      "group": "",
      "name": "winapi-build",
      "version": "0.1.1",
      "description": "",
      "hashes": [
        {
          "alg": "SHA-384",
          "content": "2d315eee3b34aca4797b2da6b13ed88266e6d612562a0c46390af8299fc699bc"
        }
      ],
      "purl": "pkg:crates/winapi-build@0.1.1"
    },
    {
      "type": "library",
      "bom-ref": "pkg:crates/winapi-i686-pc-windows-gnu@0.4.0",
      "group": "",
      "name": "winapi-i686-pc-windows-gnu",
      "version": "0.4.0",
      "description": "",
      "hashes": [
        {
          "alg": "SHA-384",
          "content": "ac3b87c63620426dd9b991e5ce0329eff545bccbbb34f3be09ff6fb6ab51b7b6"
        }
      ],
      "purl": "pkg:crates/winapi-i686-pc-windows-gnu@0.4.0"
    },
    {
      "type": "library",
      "bom-ref": "pkg:crates/winapi-util@0.1.5",
      "group": "",
      "name": "winapi-util",
      "version": "0.1.5",
      "description": "",
      "hashes": [
        {
          "alg": "SHA-384",
          "content": "70ec6ce85bb158151cae5e5c87f95a8e97d2c0c4b001223f33a334e3ce5de178"
        }
      ],
      "purl": "pkg:crates/winapi-util@0.1.5"
    },
    {
      "type": "library",
      "bom-ref": "pkg:crates/winapi-x86_64-pc-windows-gnu@0.4.0",
      "group": "",
      "name": "winapi-x86_64-pc-windows-gnu",
      "version": "0.4.0",
      "description": "",
      "hashes": [
        {
          "alg": "SHA-384",
          "content": "712e227841d057c1ee1cd2fb22fa7e5a5461ae8e48fa2ca79ec42cfc1931183f"
        }
      ],
      "purl": "pkg:crates/winapi-x86_64-pc-windows-gnu@0.4.0"
    },
    {
      "type": "library",
      "bom-ref": "pkg:crates/winit@0.24.0",
      "group": "",
      "name": "winit",
      "version": "0.24.0",
      "description": "",
      "hashes": [
        {
          "alg": "SHA-384",
          "content": "da4eda6fce0eb84bd0a33e3c8794eb902e1033d0a1d5a31bc4f19b1b4bbff597"
        }
      ],
      "purl": "pkg:crates/winit@0.24.0"
    },
    {
      "type": "library",
      "bom-ref": "pkg:crates/ws2_32-sys@0.2.1",
      "group": "",
      "name": "ws2_32-sys",
      "version": "0.2.1",
      "description": "",
      "hashes": [
        {
          "alg": "SHA-384",
          "content": "d59cefebd0c892fa2dd6de581e937301d8552cb44489cdff035c6187cb63fa5e"
        }
      ],
      "purl": "pkg:crates/ws2_32-sys@0.2.1"
    },
    {
      "type": "library",
      "bom-ref": "pkg:crates/x11-dl@2.18.5",
      "group": "",
      "name": "x11-dl",
      "version": "2.18.5",
      "description": "",
      "hashes": [
        {
          "alg": "SHA-384",
          "content": "2bf981e3a5b3301209754218f962052d4d9ee97e478f4d26d4a6eced34c1fef8"
        }
      ],
      "purl": "pkg:crates/x11-dl@2.18.5"
    },
    {
      "type": "library",
      "bom-ref": "pkg:crates/xcursor@0.3.3",
      "group": "",
      "name": "xcursor",
      "version": "0.3.3",
      "description": "",
      "hashes": [
        {
          "alg": "SHA-384",
          "content": "3a9a231574ae78801646617cefd13bfe94be907c0e4fa979cfd8b770aa3c5d08"
        }
      ],
      "purl": "pkg:crates/xcursor@0.3.3"
    },
    {
      "type": "library",
      "bom-ref": "pkg:crates/xdg@2.2.0",
      "group": "",
      "name": "xdg",
      "version": "2.2.0",
      "description": "",
      "hashes": [
        {
          "alg": "SHA-384",
          "content": "d089681aa106a86fade1b0128fb5daf07d5867a509ab036d99988dec80429a57"
        }
      ],
      "purl": "pkg:crates/xdg@2.2.0"
    }
  ],
  "externalReferences": [
    {
      "url": "/project/src",
      "type": "other",
      "comment": "Base path"
    },
    {
      "url": "/project/src/Cargo.lock",
      "type": "other",
      "comment": "Package file"
    }
  ]
}
