{
  "bomFormat": "CycloneDX",
  "specVersion": "1.3",
  "version": 1,
  "metadata": {
    "tools": [
      {
        "vendor": "CycloneDX",
        "name": "Node.js module",
        "version": "3.0.3"
      },
      {
        "vendor": "Fortress Information Security",
        "name": "Github Extractor",
        "version": "1.15.1"
      }
    ],
    "authors": [
      {
        "name": "Fortress Information Security",
        "email": "sales@fortressinfosec.com",
        "phone": "1-407-573-6800"
      }
    ],
    "timestamp": "2022-06-01T21:00:00Z",
    "component": {
      "type": "application",
      "name": "sling",
      "version": "v1.1.0",
      "group": "google",
      "externalReferences": [
        {
          "url": "https://github.com/google/sling.git",
          "type": "distribution"
        },
        {
          "type": "website",
          "url": "null",
          "comment": "As set via `homepage` in Github API"
        }
      ]
    }
  },
  "components": [
    {
      "type": "library",
      "publisher": "Fritz Larco",
      "name": "sling",
      "version": "0.84.1",
      "description": "Slings data from a source to a target",
      "hashes": [
        {
          "alg": "MD5",
          "content": "3a834b010732894f05849f9dbcfe136e"
        },
        {
          "alg": "SHA-256",
          "content": "4d7907a6b70d39d6d0fe5aae42b51a82fb565703a41a37cb72e9de632f2aa0a0"
        }
      ],
      "purl": "pkg:pypi/sling@0.84.1",
      "modified": false
    },
    {
      "type": "library",
      "name": "hashlib",
      "version": "20081119",
      "description": "Secure hash and message digest algorithm library",
      "hashes": [
        {
          "alg": "MD5",
          "content": "46e59db6d5cac34b3344ef0c30d0897f"
        },
        {
          "alg": "SHA-256",
          "content": "419de2fd10ae71ed9c6adcb55903f116abd1d8acc8c814dfd5f839b4d5013e38"
        }
      ],
      "purl": "pkg:pypi/hashlib@20081119",
      "modified": false
    },
    {
      "type": "library",
      "publisher": "Greg Ward",
      "name": "distutils",
      "version": "1.0",
      "description": "Python Distribution Utilities",
      "purl": "pkg:pypi/distutils@1.0",
      "modified": false
    },
    {
      "type": "library",
      "publisher": "Travis E. Oliphant et al.",
      "name": "numpy",
      "version": "1.22.3",
      "description": "NumPy is the fundamental package for array computing with Python.",
      "hashes": [
        {
          "alg": "MD5",
          "content": "99d2dfb943327b108b2c3b923bd42000"
        },
        {
          "alg": "SHA-256",
          "content": "c34ea7e9d13a70bf2ab64a2532fe149a9aced424cd05a2c4ba662fd989e3e45f"
        }
      ],
      "licenses": [
        {
          "license": {
            "name": "BSD"
          }
        }
      ],
      "purl": "pkg:pypi/numpy@1.22.3",
      "modified": false
    },
    {
      "type": "library",
      "publisher": "Krzysztof Dorosz",
      "name": "corpora",
      "version": "1.0",
      "description": "Lightweight, fast and scalable text corpus library.",
      "hashes": [
        {
          "alg": "MD5",
          "content": "02781c45591ff458819e13120394828d"
        },
        {
          "alg": "SHA-256",
          "content": "208a68da259c6c5ccd36a85d83c5cfdf43f1fb25aa77d21b7a2b0c6bfa1cd1db"
        }
      ],
      "licenses": [
        {
          "license": {
            "name": "LGPL"
          }
        }
      ],
      "purl": "pkg:pypi/corpora@1.0",
      "modified": false
    },
    {
      "type": "library",
      "publisher": "woodsgao",
      "name": "pytorch_modules",
      "version": "0.3.5",
      "description": "A neural network toolkit.",
      "hashes": [
        {
          "alg": "MD5",
          "content": "831763cf12c582d81ae53a9708b94e1f"
        },
        {
          "alg": "SHA-256",
          "content": "82648653e881a23c7a2790ab4a61d27fbd7c04fc1cd7800fe06e3892e4f22e35"
        }
      ],
      "licenses": [
        {
          "license": {
            "name": "MIT"
          }
        }
      ],
      "purl": "pkg:pypi/pytorch-modules@0.3.5",
      "modified": false
    },
    {
      "type": "library",
      "publisher": "Jeff Forcier",
      "name": "spec",
      "version": "1.4.1",
      "description": "Specification-style output for nose",
      "hashes": [
        {
          "alg": "MD5",
          "content": "ac4283b6978449fc702887b96b0cd248"
        },
        {
          "alg": "SHA-256",
          "content": "7f805563ff1d11b449d419bc851b58859401e6bde183b21250f4fa21dd216545"
        }
      ],
      "licenses": [
        {
          "license": {
            "name": "MIT"
          }
        }
      ],
      "purl": "pkg:pypi/spec@1.4.1",
      "modified": false
    },
    {
      "type": "library",
      "publisher": "Eren Gölge",
      "name": "trainer",
      "version": "0.0.11",
      "description": "General purpose model trainer for PyTorch that is more flexible than it should be, by 🐸Coqui.",
      "hashes": [
        {
          "alg": "MD5",
          "content": "2afbd89115525ca5f990e3e08932a4be"
        },
        {
          "alg": "SHA-256",
          "content": "487c0bbbdcb8a5db5b5f72286f2dc61410a48eb71cebf4d2c9acdd9e83a7ef41"
        }
      ],
      "licenses": [
        {
          "license": {
            "name": "Apache2"
          }
        }
      ],
      "purl": "pkg:pypi/trainer@0.0.11",
      "modified": false
    },
    {
      "type": "library",
      "publisher": "PyTorch Team",
      "name": "torch",
      "version": "1.11.0",
      "description": "Tensors and Dynamic neural networks in Python with strong GPU acceleration",
      "hashes": [
        {
          "alg": "MD5",
          "content": "d88113ea2a0597fd611880e93a508fe0"
        },
        {
          "alg": "SHA-256",
          "content": "0e48af66ad755f0f9c5f2664028a414f57c49d6adc37e77e06fe0004da4edb61"
        }
      ],
      "licenses": [
        {
          "license": {
            "name": "BSD-3"
          }
        }
      ],
      "purl": "pkg:pypi/torch@1.11.0",
      "modified": false
    },
    {
      "type": "library",
      "publisher": "Dima Dorfman",
      "name": "functools",
      "version": "0.5",
      "description": "Fast tools for functional programming",
      "hashes": [
        {
          "alg": "MD5",
          "content": "91111c28ee685a2f89f1a41e6f0ce8ea"
        },
        {
          "alg": "SHA-256",
          "content": "596ed8999dee419c0749a41bfdd82e4697e80ea27ee01c716003ef55be9a54c5"
        }
      ],
      "licenses": [
        {
          "license": {
            "name": "BSD"
          }
        }
      ],
      "purl": "pkg:pypi/functools@0.5",
      "modified": false
    },
    {
      "type": "library",
      "publisher": "Zope Foundation and Contributors",
      "name": "datetime",
      "version": "4.4",
      "description": "This package provides a DateTime data type, as known from Zope. Unless you need to communicate with Zope APIs, you're probably better off using Python's built-in datetime module.",
      "hashes": [
        {
          "alg": "MD5",
          "content": "ad1e82d858ed7c8cd2ea437b4cb695ed"
        },
        {
          "alg": "SHA-256",
          "content": "4fcca115ddb466a1104df08d5c2a2f5805d14ca317800e1bfcea8f3d69f66e57"
        }
      ],
      "licenses": [
        {
          "license": {
            "name": "ZPL 2.1"
          }
        }
      ],
      "purl": "pkg:pypi/datetime@4.4",
      "modified": false
    },
    {
      "type": "library",
      "publisher": "Franck Cuny",
      "name": "http",
      "version": "0.02",
      "description": "HTTP library for Python",
      "hashes": [
        {
          "alg": "MD5",
          "content": "9e4684a411a9cf371cbd0bc8658a803a"
        },
        {
          "alg": "SHA-256",
          "content": "071bc409f687535b6e31a94bced6a7773905abad8d2f236b406202b7283f682c"
        }
      ],
      "licenses": [
        {
          "license": {
            "name": "MIT"
          }
        }
      ],
      "purl": "pkg:pypi/http@0.02",
      "modified": false
    },
    {
      "type": "library",
      "publisher": "Ben Finney",
      "name": "enum",
      "version": "0.4.7",
      "description": "Robust enumerated type support in Python.",
      "hashes": [
        {
          "alg": "MD5",
          "content": "e7d170e3f84435b77058de625c96ef58"
        },
        {
          "alg": "SHA-256",
          "content": "8c7cf3587eda51008bcc1eed99ea2c331ccd265c231dbaa95ec5258d3dc03100"
        }
      ],
      "licenses": [
        {
          "license": {
            "name": "GPL-3.0+"
          }
        }
      ],
      "purl": "pkg:pypi/enum@0.4.7",
      "modified": false
    },
    {
      "type": "library",
      "publisher": "Thomas Waldmann",
      "name": "argparse",
      "version": "1.4.0",
      "description": "Python command-line parsing library",
      "hashes": [
        {
          "alg": "MD5",
          "content": "c37216a954c8669054e2b2c54853dd49"
        },
        {
          "alg": "SHA-256",
          "content": "c31647edb69fd3d465a847ea3157d37bed1f95f19760b11a47aa91c04b666314"
        }
      ],
      "licenses": [
        {
          "license": {
            "name": "Python Software Foundation License"
          }
        }
      ],
      "purl": "pkg:pypi/argparse@1.4.0",
      "modified": false
    },
    {
      "type": "library",
      "name": "pywikibot",
      "version": "7.2.0",
      "description": "Python MediaWiki Bot Framework",
      "hashes": [
        {
          "alg": "MD5",
          "content": "ee252a32978f81c1bec94185c4299861"
        },
        {
          "alg": "SHA-256",
          "content": "e7cd0bd9ea26c40eb45169b37e3f2845d075f3e171b77da1731bca788719699a"
        }
      ],
      "licenses": [
        {
          "license": {
            "name": "MIT License"
          }
        }
      ],
      "purl": "pkg:pypi/pywikibot@7.2.0",
      "modified": false
    }
  ]
}
