{
  "bomFormat": "CycloneDX",
  "specVersion": "1.3",
  "version": 2,
  "components": [
    {
      "type": "library",
      "publisher": "Secret Labs AB (PythonWare)",
      "name": "PIL",
      "version": "1.1.6",
      "description": "Python Imaging Library",
      "licenses": [
        {
          "license": {
            "name": "Python (MIT style)"
          }
        }
      ],
      "purl": "pkg:pypi/pil@1.1.6",
      "modified": false
    }
  ],
  "metadata": {
    "tools": [
      {
        "vendor": "Fortress Information Security",
        "name": "Github Extractor",
        "version": "1.15.1"
      }
    ],
    "authors": [
      {
        "name": "Fortress Information Security",
        "email": "sales@fortressinfosec.com",
        "phone": "1-407-573-6800"
      }
    ],
    "timestamp": "2022-07-26T23:34:08Z",
    "component": {
      "type": "application",
      "name": "goxel",
      "version": "v0.10.8",
      "group": "guillaumechereau",
      "externalReferences": [
        {
          "url": "https://github.com/guillaumechereau/goxel.git",
          "type": "distribution"
        },
        {
          "type": "website",
          "url": "null",
          "comment": "As set via `homepage` in Github API"
        }
      ]
    }
  }
}
