{
  "bomFormat": "CycloneDX",
  "specVersion": "1.3",
  "version": 1,
  "metadata": {
    "tools": [
      {
        "vendor": "CycloneDX",
        "name": "cyclonedx-gomod",
        "version": "v0.0.0-unset",
        "hashes": [
          {
            "alg": "MD5",
            "content": "a35776fc9417e8071d3f1dcfa2f1dd19"
          },
          {
            "alg": "SHA-1",
            "content": "a19a8eed713eff5a2092e5283c201a146f19421d"
          },
          {
            "alg": "SHA-256",
            "content": "17b3b980b9a5d0f48ad52043dee5b31aff3ae6599a36bc94224dc7b6a46759ef"
          },
          {
            "alg": "SHA-512",
            "content": "9d4f06aab20cede94a1aedf11a300ae9de98871235c68c72e421cd6d45495910861b39e743ee0eceb11bbdcd2c9acc3312c19064cfe90177243fb43127fcfa46"
          }
        ]
      },
      {
        "vendor": "CycloneDX",
        "name": "Node.js module",
        "version": "3.0.3"
      },
      {
        "vendor": "AppThreat",
        "name": "cdxgen",
        "version": "3.0.10"
      },
      {
        "vendor": "Fortress Information Security",
        "name": "Github Extractor",
        "version": "1.15.1"
      }
    ],
    "authors": [
      {
        "name": "Fortress Information Security",
        "email": "sales@fortressinfosec.com",
        "phone": "1-407-573-6800"
      }
    ],
    "timestamp": "2022-06-01T21:00:00Z",
    "component": {
      "type": "application",
      "name": "nakama",
      "version": "v3.12.0",
      "group": "heroiclabs",
      "externalReferences": [
        {
          "url": "https://github.com/heroiclabs/nakama.git",
          "type": "distribution"
        },
        {
          "type": "website",
          "url": "https://heroiclabs.com",
          "comment": "As set via `homepage` in Github API"
        }
      ]
    }
  },
  "components": [
    {
      "type": "library",
      "bom-ref": "pkg:golang/github.com/RoaringBitmap/roaring@v0.9.4",
      "name": "github.com/RoaringBitmap/roaring",
      "version": "v0.9.4",
      "scope": "required",
      "purl": "pkg:golang/github.com/RoaringBitmap/roaring@v0.9.4",
      "externalReferences": [
        {
          "url": "https://github.com/RoaringBitmap/roaring",
          "type": "vcs"
        }
      ]
    },
    {
      "type": "library",
      "bom-ref": "pkg:golang/github.com/axiomhq/hyperloglog@v0.0.0-20191112132149-a4c4c47bc57f",
      "name": "github.com/axiomhq/hyperloglog",
      "version": "v0.0.0-20191112132149-a4c4c47bc57f",
      "scope": "required",
      "purl": "pkg:golang/github.com/axiomhq/hyperloglog@v0.0.0-20191112132149-a4c4c47bc57f",
      "externalReferences": [
        {
          "url": "https://github.com/axiomhq/hyperloglog",
          "type": "vcs"
        }
      ]
    },
    {
      "type": "library",
      "bom-ref": "pkg:golang/github.com/beorn7/perks@v1.0.1",
      "name": "github.com/beorn7/perks",
      "version": "v1.0.1",
      "scope": "required",
      "purl": "pkg:golang/github.com/beorn7/perks@v1.0.1",
      "externalReferences": [
        {
          "url": "https://github.com/beorn7/perks",
          "type": "vcs"
        }
      ]
    },
    {
      "type": "library",
      "bom-ref": "pkg:golang/github.com/bits-and-blooms/bitset@v1.2.0",
      "name": "github.com/bits-and-blooms/bitset",
      "version": "v1.2.0",
      "scope": "required",
      "purl": "pkg:golang/github.com/bits-and-blooms/bitset@v1.2.0",
      "externalReferences": [
        {
          "url": "https://github.com/bits-and-blooms/bitset",
          "type": "vcs"
        }
      ]
    },
    {
      "type": "library",
      "bom-ref": "pkg:golang/github.com/blevesearch/go-porterstemmer@v1.0.3",
      "name": "github.com/blevesearch/go-porterstemmer",
      "version": "v1.0.3",
      "scope": "required",
      "purl": "pkg:golang/github.com/blevesearch/go-porterstemmer@v1.0.3",
      "externalReferences": [
        {
          "url": "https://github.com/blevesearch/go-porterstemmer",
          "type": "vcs"
        }
      ]
    },
    {
      "type": "library",
      "bom-ref": "pkg:golang/github.com/blevesearch/mmap-go@v1.0.3",
      "name": "github.com/blevesearch/mmap-go",
      "version": "v1.0.3",
      "scope": "required",
      "purl": "pkg:golang/github.com/blevesearch/mmap-go@v1.0.3",
      "externalReferences": [
        {
          "url": "https://github.com/blevesearch/mmap-go",
          "type": "vcs"
        }
      ]
    },
    {
      "type": "library",
      "bom-ref": "pkg:golang/github.com/blevesearch/segment@v0.9.0",
      "name": "github.com/blevesearch/segment",
      "version": "v0.9.0",
      "scope": "required",
      "purl": "pkg:golang/github.com/blevesearch/segment@v0.9.0",
      "externalReferences": [
        {
          "url": "https://github.com/blevesearch/segment",
          "type": "vcs"
        }
      ]
    },
    {
      "type": "library",
      "bom-ref": "pkg:golang/github.com/blevesearch/snowballstem@v0.9.0",
      "name": "github.com/blevesearch/snowballstem",
      "version": "v0.9.0",
      "scope": "required",
      "purl": "pkg:golang/github.com/blevesearch/snowballstem@v0.9.0",
      "externalReferences": [
        {
          "url": "https://github.com/blevesearch/snowballstem",
          "type": "vcs"
        }
      ]
    },
    {
      "type": "library",
      "bom-ref": "pkg:golang/github.com/blevesearch/vellum@v1.0.7",
      "name": "github.com/blevesearch/vellum",
      "version": "v1.0.7",
      "scope": "required",
      "purl": "pkg:golang/github.com/blevesearch/vellum@v1.0.7",
      "externalReferences": [
        {
          "url": "https://github.com/blevesearch/vellum",
          "type": "vcs"
        }
      ]
    },
    {
      "type": "library",
      "bom-ref": "pkg:golang/github.com/blugelabs/bluge@v0.1.9",
      "name": "github.com/blugelabs/bluge",
      "version": "v0.1.9",
      "scope": "required",
      "purl": "pkg:golang/github.com/blugelabs/bluge@v0.1.9",
      "externalReferences": [
        {
          "url": "https://github.com/blugelabs/bluge",
          "type": "vcs"
        }
      ]
    },
    {
      "type": "library",
      "bom-ref": "pkg:golang/github.com/blugelabs/bluge_segment_api@v0.2.0",
      "name": "github.com/blugelabs/bluge_segment_api",
      "version": "v0.2.0",
      "scope": "required",
      "purl": "pkg:golang/github.com/blugelabs/bluge_segment_api@v0.2.0",
      "externalReferences": [
        {
          "url": "https://github.com/blugelabs/bluge_segment_api",
          "type": "vcs"
        }
      ]
    },
    {
      "type": "library",
      "bom-ref": "pkg:golang/github.com/blugelabs/ice@v0.2.0",
      "name": "github.com/blugelabs/ice",
      "version": "v0.2.0",
      "scope": "required",
      "purl": "pkg:golang/github.com/blugelabs/ice@v0.2.0",
      "externalReferences": [
        {
          "url": "https://github.com/blugelabs/ice",
          "type": "vcs"
        }
      ]
    },
    {
      "type": "library",
      "bom-ref": "pkg:golang/github.com/blugelabs/query_string@v0.3.0",
      "name": "github.com/blugelabs/query_string",
      "version": "v0.3.0",
      "scope": "required",
      "purl": "pkg:golang/github.com/blugelabs/query_string@v0.3.0",
      "externalReferences": [
        {
          "url": "https://github.com/blugelabs/query_string",
          "type": "vcs"
        }
      ]
    },
    {
      "type": "library",
      "bom-ref": "pkg:golang/github.com/caio/go-tdigest@v3.1.0",
      "name": "github.com/caio/go-tdigest",
      "version": "v3.1.0",
      "scope": "required",
      "purl": "pkg:golang/github.com/caio/go-tdigest@v3.1.0",
      "externalReferences": [
        {
          "url": "https://github.com/caio/go-tdigest",
          "type": "vcs"
        }
      ]
    },
    {
      "type": "library",
      "bom-ref": "pkg:golang/github.com/cespare/xxhash/v2@v2.1.2",
      "name": "github.com/cespare/xxhash/v2",
      "version": "v2.1.2",
      "scope": "required",
      "purl": "pkg:golang/github.com/cespare/xxhash/v2@v2.1.2",
      "externalReferences": [
        {
          "url": "https://github.com/cespare/xxhash",
          "type": "vcs"
        }
      ]
    },
    {
      "type": "library",
      "bom-ref": "pkg:golang/github.com/dgryski/go-metro@v0.0.0-20180109044635-280f6062b5bc",
      "name": "github.com/dgryski/go-metro",
      "version": "v0.0.0-20180109044635-280f6062b5bc",
      "scope": "required",
      "purl": "pkg:golang/github.com/dgryski/go-metro@v0.0.0-20180109044635-280f6062b5bc",
      "externalReferences": [
        {
          "url": "https://github.com/dgryski/go-metro",
          "type": "vcs"
        }
      ]
    },
    {
      "type": "library",
      "bom-ref": "pkg:golang/github.com/dlclark/regexp2@v1.4.1-0.20201116162257-a2a8dda75c91",
      "name": "github.com/dlclark/regexp2",
      "version": "v1.4.1-0.20201116162257-a2a8dda75c91",
      "scope": "required",
      "purl": "pkg:golang/github.com/dlclark/regexp2@v1.4.1-0.20201116162257-a2a8dda75c91",
      "externalReferences": [
        {
          "url": "https://github.com/dlclark/regexp2",
          "type": "vcs"
        }
      ]
    },
    {
      "type": "library",
      "bom-ref": "pkg:golang/github.com/dop251/goja@v0.0.0-20220403115030-90825c02072b",
      "name": "github.com/dop251/goja",
      "version": "v0.0.0-20220403115030-90825c02072b",
      "scope": "required",
      "purl": "pkg:golang/github.com/dop251/goja@v0.0.0-20220403115030-90825c02072b",
      "externalReferences": [
        {
          "url": "https://github.com/dop251/goja",
          "type": "vcs"
        }
      ]
    },
    {
      "type": "library",
      "bom-ref": "pkg:golang/github.com/felixge/httpsnoop@v1.0.1",
      "name": "github.com/felixge/httpsnoop",
      "version": "v1.0.1",
      "scope": "required",
      "purl": "pkg:golang/github.com/felixge/httpsnoop@v1.0.1",
      "externalReferences": [
        {
          "url": "https://github.com/felixge/httpsnoop",
          "type": "vcs"
        }
      ]
    },
    {
      "type": "library",
      "bom-ref": "pkg:golang/github.com/ghodss/yaml@v1.0.0",
      "name": "github.com/ghodss/yaml",
      "version": "v1.0.0",
      "scope": "required",
      "purl": "pkg:golang/github.com/ghodss/yaml@v1.0.0",
      "externalReferences": [
        {
          "url": "https://github.com/ghodss/yaml",
          "type": "vcs"
        }
      ]
    },
    {
      "type": "library",
      "bom-ref": "pkg:golang/github.com/go-sourcemap/sourcemap@v2.1.3",
      "name": "github.com/go-sourcemap/sourcemap",
      "version": "v2.1.3",
      "scope": "required",
      "purl": "pkg:golang/github.com/go-sourcemap/sourcemap@v2.1.3",
      "externalReferences": [
        {
          "url": "https://github.com/go-sourcemap/sourcemap",
          "type": "vcs"
        }
      ]
    },
    {
      "type": "library",
      "bom-ref": "pkg:golang/github.com/gofrs/uuid@v4.0.0",
      "name": "github.com/gofrs/uuid",
      "version": "v4.0.0",
      "scope": "required",
      "purl": "pkg:golang/github.com/gofrs/uuid@v4.0.0",
      "externalReferences": [
        {
          "url": "https://github.com/gofrs/uuid",
          "type": "vcs"
        }
      ]
    },
    {
      "type": "library",
      "bom-ref": "pkg:golang/github.com/golang-jwt/jwt/v4@v4.1.0",
      "name": "github.com/golang-jwt/jwt/v4",
      "version": "v4.1.0",
      "scope": "required",
      "purl": "pkg:golang/github.com/golang-jwt/jwt/v4@v4.1.0",
      "externalReferences": [
        {
          "url": "https://github.com/golang-jwt/jwt",
          "type": "vcs"
        }
      ]
    },
    {
      "type": "library",
      "bom-ref": "pkg:golang/github.com/golang/glog@v1.0.0",
      "name": "github.com/golang/glog",
      "version": "v1.0.0",
      "scope": "required",
      "purl": "pkg:golang/github.com/golang/glog@v1.0.0",
      "externalReferences": [
        {
          "url": "https://github.com/golang/glog",
          "type": "vcs"
        }
      ]
    },
    {
      "type": "library",
      "bom-ref": "pkg:golang/github.com/golang/protobuf@v1.5.2",
      "name": "github.com/golang/protobuf",
      "version": "v1.5.2",
      "scope": "required",
      "purl": "pkg:golang/github.com/golang/protobuf@v1.5.2",
      "externalReferences": [
        {
          "url": "https://github.com/golang/protobuf",
          "type": "vcs"
        }
      ]
    },
    {
      "type": "library",
      "bom-ref": "pkg:golang/github.com/golang/snappy@v0.0.1",
      "name": "github.com/golang/snappy",
      "version": "v0.0.1",
      "scope": "required",
      "purl": "pkg:golang/github.com/golang/snappy@v0.0.1",
      "externalReferences": [
        {
          "url": "https://github.com/golang/snappy",
          "type": "vcs"
        }
      ]
    },
    {
      "type": "library",
      "bom-ref": "pkg:golang/github.com/gorilla/handlers@v1.5.1",
      "name": "github.com/gorilla/handlers",
      "version": "v1.5.1",
      "scope": "required",
      "purl": "pkg:golang/github.com/gorilla/handlers@v1.5.1",
      "externalReferences": [
        {
          "url": "https://github.com/gorilla/handlers",
          "type": "vcs"
        }
      ]
    },
    {
      "type": "library",
      "bom-ref": "pkg:golang/github.com/gorilla/mux@v1.8.0",
      "name": "github.com/gorilla/mux",
      "version": "v1.8.0",
      "scope": "required",
      "purl": "pkg:golang/github.com/gorilla/mux@v1.8.0",
      "externalReferences": [
        {
          "url": "https://github.com/gorilla/mux",
          "type": "vcs"
        }
      ]
    },
    {
      "type": "library",
      "bom-ref": "pkg:golang/github.com/gorilla/websocket@v1.4.2",
      "name": "github.com/gorilla/websocket",
      "version": "v1.4.2",
      "scope": "required",
      "purl": "pkg:golang/github.com/gorilla/websocket@v1.4.2",
      "externalReferences": [
        {
          "url": "https://github.com/gorilla/websocket",
          "type": "vcs"
        }
      ]
    },
    {
      "type": "library",
      "bom-ref": "pkg:golang/github.com/grpc-ecosystem/grpc-gateway/v2@v2.7.0",
      "name": "github.com/grpc-ecosystem/grpc-gateway/v2",
      "version": "v2.7.0",
      "scope": "required",
      "purl": "pkg:golang/github.com/grpc-ecosystem/grpc-gateway/v2@v2.7.0",
      "externalReferences": [
        {
          "url": "https://github.com/grpc-ecosystem/grpc-gateway",
          "type": "vcs"
        }
      ]
    },
    {
      "type": "library",
      "bom-ref": "pkg:golang/github.com/heroiclabs/nakama-common@v1.22.1-0.20220506145920-4c0b3c5a4a43",
      "name": "github.com/heroiclabs/nakama-common",
      "version": "v1.22.1-0.20220506145920-4c0b3c5a4a43",
      "scope": "required",
      "purl": "pkg:golang/github.com/heroiclabs/nakama-common@v1.22.1-0.20220506145920-4c0b3c5a4a43",
      "externalReferences": [
        {
          "url": "https://github.com/heroiclabs/nakama-common",
          "type": "vcs"
        }
      ]
    },
    {
      "type": "library",
      "bom-ref": "pkg:golang/github.com/jackc/chunkreader/v2@v2.0.1",
      "name": "github.com/jackc/chunkreader/v2",
      "version": "v2.0.1",
      "scope": "required",
      "purl": "pkg:golang/github.com/jackc/chunkreader/v2@v2.0.1",
      "externalReferences": [
        {
          "url": "https://github.com/jackc/chunkreader",
          "type": "vcs"
        }
      ]
    },
    {
      "type": "library",
      "bom-ref": "pkg:golang/github.com/jackc/pgconn@v1.10.0",
      "name": "github.com/jackc/pgconn",
      "version": "v1.10.0",
      "scope": "required",
      "purl": "pkg:golang/github.com/jackc/pgconn@v1.10.0",
      "externalReferences": [
        {
          "url": "https://github.com/jackc/pgconn",
          "type": "vcs"
        }
      ]
    },
    {
      "type": "library",
      "bom-ref": "pkg:golang/github.com/jackc/pgerrcode@v0.0.0-20201024163028-a0d42d470451",
      "name": "github.com/jackc/pgerrcode",
      "version": "v0.0.0-20201024163028-a0d42d470451",
      "scope": "required",
      "purl": "pkg:golang/github.com/jackc/pgerrcode@v0.0.0-20201024163028-a0d42d470451",
      "externalReferences": [
        {
          "url": "https://github.com/jackc/pgerrcode",
          "type": "vcs"
        }
      ]
    },
    {
      "type": "library",
      "bom-ref": "pkg:golang/github.com/jackc/pgio@v1.0.0",
      "name": "github.com/jackc/pgio",
      "version": "v1.0.0",
      "scope": "required",
      "purl": "pkg:golang/github.com/jackc/pgio@v1.0.0",
      "externalReferences": [
        {
          "url": "https://github.com/jackc/pgio",
          "type": "vcs"
        }
      ]
    },
    {
      "type": "library",
      "bom-ref": "pkg:golang/github.com/jackc/pgpassfile@v1.0.0",
      "name": "github.com/jackc/pgpassfile",
      "version": "v1.0.0",
      "scope": "required",
      "purl": "pkg:golang/github.com/jackc/pgpassfile@v1.0.0",
      "externalReferences": [
        {
          "url": "https://github.com/jackc/pgpassfile",
          "type": "vcs"
        }
      ]
    },
    {
      "type": "library",
      "bom-ref": "pkg:golang/github.com/jackc/pgproto3/v2@v2.1.1",
      "name": "github.com/jackc/pgproto3/v2",
      "version": "v2.1.1",
      "scope": "required",
      "purl": "pkg:golang/github.com/jackc/pgproto3/v2@v2.1.1",
      "externalReferences": [
        {
          "url": "https://github.com/jackc/pgproto3",
          "type": "vcs"
        }
      ]
    },
    {
      "type": "library",
      "bom-ref": "pkg:golang/github.com/jackc/pgservicefile@v0.0.0-20200714003250-2b9c44734f2b",
      "name": "github.com/jackc/pgservicefile",
      "version": "v0.0.0-20200714003250-2b9c44734f2b",
      "scope": "required",
      "purl": "pkg:golang/github.com/jackc/pgservicefile@v0.0.0-20200714003250-2b9c44734f2b",
      "externalReferences": [
        {
          "url": "https://github.com/jackc/pgservicefile",
          "type": "vcs"
        }
      ]
    },
    {
      "type": "library",
      "bom-ref": "pkg:golang/github.com/jackc/pgtype@v1.8.1",
      "name": "github.com/jackc/pgtype",
      "version": "v1.8.1",
      "scope": "required",
      "purl": "pkg:golang/github.com/jackc/pgtype@v1.8.1",
      "externalReferences": [
        {
          "url": "https://github.com/jackc/pgtype",
          "type": "vcs"
        }
      ]
    },
    {
      "type": "library",
      "bom-ref": "pkg:golang/github.com/jackc/pgx/v4@v4.13.0",
      "name": "github.com/jackc/pgx/v4",
      "version": "v4.13.0",
      "scope": "required",
      "purl": "pkg:golang/github.com/jackc/pgx/v4@v4.13.0",
      "externalReferences": [
        {
          "url": "https://github.com/jackc/pgx",
          "type": "vcs"
        }
      ]
    },
    {
      "type": "library",
      "bom-ref": "pkg:golang/github.com/matttproud/golang_protobuf_extensions@v1.0.1",
      "name": "github.com/matttproud/golang_protobuf_extensions",
      "version": "v1.0.1",
      "scope": "required",
      "purl": "pkg:golang/github.com/matttproud/golang_protobuf_extensions@v1.0.1",
      "externalReferences": [
        {
          "url": "https://github.com/matttproud/golang_protobuf_extensions",
          "type": "vcs"
        }
      ]
    },
    {
      "type": "library",
      "bom-ref": "pkg:golang/github.com/mschoch/smat@v0.2.0",
      "name": "github.com/mschoch/smat",
      "version": "v0.2.0",
      "scope": "required",
      "purl": "pkg:golang/github.com/mschoch/smat@v0.2.0",
      "externalReferences": [
        {
          "url": "https://github.com/mschoch/smat",
          "type": "vcs"
        }
      ]
    },
    {
      "type": "library",
      "bom-ref": "pkg:golang/github.com/pkg/errors@v0.9.1",
      "name": "github.com/pkg/errors",
      "version": "v0.9.1",
      "scope": "required",
      "purl": "pkg:golang/github.com/pkg/errors@v0.9.1",
      "externalReferences": [
        {
          "url": "https://github.com/pkg/errors",
          "type": "vcs"
        }
      ]
    },
    {
      "type": "library",
      "bom-ref": "pkg:golang/github.com/prometheus/client_golang@v1.11.1-0.20211129121811-6d5cf25fcc34",
      "name": "github.com/prometheus/client_golang",
      "version": "v1.11.1-0.20211129121811-6d5cf25fcc34",
      "scope": "required",
      "purl": "pkg:golang/github.com/prometheus/client_golang@v1.11.1-0.20211129121811-6d5cf25fcc34",
      "externalReferences": [
        {
          "url": "https://github.com/prometheus/client_golang",
          "type": "vcs"
        }
      ]
    },
    {
      "type": "library",
      "bom-ref": "pkg:golang/github.com/prometheus/client_model@v0.2.0",
      "name": "github.com/prometheus/client_model",
      "version": "v0.2.0",
      "scope": "required",
      "purl": "pkg:golang/github.com/prometheus/client_model@v0.2.0",
      "externalReferences": [
        {
          "url": "https://github.com/prometheus/client_model",
          "type": "vcs"
        }
      ]
    },
    {
      "type": "library",
      "bom-ref": "pkg:golang/github.com/prometheus/common@v0.29.0",
      "name": "github.com/prometheus/common",
      "version": "v0.29.0",
      "scope": "required",
      "purl": "pkg:golang/github.com/prometheus/common@v0.29.0",
      "externalReferences": [
        {
          "url": "https://github.com/prometheus/common",
          "type": "vcs"
        }
      ]
    },
    {
      "type": "library",
      "bom-ref": "pkg:golang/github.com/prometheus/procfs@v0.6.0",
      "name": "github.com/prometheus/procfs",
      "version": "v0.6.0",
      "scope": "required",
      "purl": "pkg:golang/github.com/prometheus/procfs@v0.6.0",
      "externalReferences": [
        {
          "url": "https://github.com/prometheus/procfs",
          "type": "vcs"
        }
      ]
    },
    {
      "type": "library",
      "bom-ref": "pkg:golang/github.com/rubenv/sql-migrate@v0.0.0-20210408115534-a32ed26c37ea",
      "name": "github.com/rubenv/sql-migrate",
      "version": "v0.0.0-20210408115534-a32ed26c37ea",
      "scope": "required",
      "purl": "pkg:golang/github.com/rubenv/sql-migrate@v0.0.0-20210408115534-a32ed26c37ea",
      "externalReferences": [
        {
          "url": "https://github.com/rubenv/sql-migrate",
          "type": "vcs"
        }
      ]
    },
    {
      "type": "library",
      "bom-ref": "pkg:golang/github.com/twmb/murmur3@v1.1.6",
      "name": "github.com/twmb/murmur3",
      "version": "v1.1.6",
      "scope": "required",
      "purl": "pkg:golang/github.com/twmb/murmur3@v1.1.6",
      "externalReferences": [
        {
          "url": "https://github.com/twmb/murmur3",
          "type": "vcs"
        }
      ]
    },
    {
      "type": "library",
      "bom-ref": "pkg:golang/github.com/uber-go/tally/v4@v4.1.1",
      "name": "github.com/uber-go/tally/v4",
      "version": "v4.1.1",
      "scope": "required",
      "purl": "pkg:golang/github.com/uber-go/tally/v4@v4.1.1",
      "externalReferences": [
        {
          "url": "https://github.com/uber-go/tally",
          "type": "vcs"
        }
      ]
    },
    {
      "type": "library",
      "bom-ref": "pkg:golang/go.uber.org/atomic@v1.9.0",
      "name": "go.uber.org/atomic",
      "version": "v1.9.0",
      "scope": "required",
      "purl": "pkg:golang/go.uber.org/atomic@v1.9.0"
    },
    {
      "type": "library",
      "bom-ref": "pkg:golang/go.uber.org/multierr@v1.6.0",
      "name": "go.uber.org/multierr",
      "version": "v1.6.0",
      "scope": "required",
      "purl": "pkg:golang/go.uber.org/multierr@v1.6.0"
    },
    {
      "type": "library",
      "bom-ref": "pkg:golang/go.uber.org/zap@v1.19.1",
      "name": "go.uber.org/zap",
      "version": "v1.19.1",
      "scope": "required",
      "purl": "pkg:golang/go.uber.org/zap@v1.19.1"
    },
    {
      "type": "library",
      "bom-ref": "pkg:golang/golang.org/x/crypto@v0.0.0-20210921155107-089bfa567519",
      "name": "golang.org/x/crypto",
      "version": "v0.0.0-20210921155107-089bfa567519",
      "scope": "required",
      "purl": "pkg:golang/golang.org/x/crypto@v0.0.0-20210921155107-089bfa567519"
    },
    {
      "type": "library",
      "bom-ref": "pkg:golang/golang.org/x/net@v0.0.0-20210525063256-abc453219eb5",
      "name": "golang.org/x/net",
      "version": "v0.0.0-20210525063256-abc453219eb5",
      "scope": "required",
      "purl": "pkg:golang/golang.org/x/net@v0.0.0-20210525063256-abc453219eb5"
    },
    {
      "type": "library",
      "bom-ref": "pkg:golang/golang.org/x/sys@v0.0.0-20210615035016-665e8c7367d1",
      "name": "golang.org/x/sys",
      "version": "v0.0.0-20210615035016-665e8c7367d1",
      "scope": "required",
      "purl": "pkg:golang/golang.org/x/sys@v0.0.0-20210615035016-665e8c7367d1"
    },
    {
      "type": "library",
      "bom-ref": "pkg:golang/golang.org/x/text@v0.3.7",
      "name": "golang.org/x/text",
      "version": "v0.3.7",
      "scope": "required",
      "purl": "pkg:golang/golang.org/x/text@v0.3.7"
    },
    {
      "type": "library",
      "bom-ref": "pkg:golang/google.golang.org/genproto@v0.0.0-20211118181313-81c1377c94b1",
      "name": "google.golang.org/genproto",
      "version": "v0.0.0-20211118181313-81c1377c94b1",
      "scope": "required",
      "purl": "pkg:golang/google.golang.org/genproto@v0.0.0-20211118181313-81c1377c94b1"
    },
    {
      "type": "library",
      "bom-ref": "pkg:golang/google.golang.org/grpc@v1.42.0",
      "name": "google.golang.org/grpc",
      "version": "v1.42.0",
      "scope": "required",
      "purl": "pkg:golang/google.golang.org/grpc@v1.42.0"
    },
    {
      "type": "library",
      "bom-ref": "pkg:golang/google.golang.org/grpc/cmd/protoc-gen-go-grpc@v1.1.0",
      "name": "google.golang.org/grpc/cmd/protoc-gen-go-grpc",
      "version": "v1.1.0",
      "scope": "required",
      "purl": "pkg:golang/google.golang.org/grpc/cmd/protoc-gen-go-grpc@v1.1.0"
    },
    {
      "type": "library",
      "bom-ref": "pkg:golang/google.golang.org/protobuf@v1.27.1",
      "name": "google.golang.org/protobuf",
      "version": "v1.27.1",
      "scope": "required",
      "purl": "pkg:golang/google.golang.org/protobuf@v1.27.1"
    },
    {
      "type": "library",
      "bom-ref": "pkg:golang/gopkg.in/gorp.v1@v1.7.2",
      "name": "gopkg.in/gorp.v1",
      "version": "v1.7.2",
      "scope": "required",
      "purl": "pkg:golang/gopkg.in/gorp.v1@v1.7.2",
      "externalReferences": [
        {
          "url": "https://github.com/go-gorp/gorp",
          "type": "vcs"
        }
      ]
    },
    {
      "type": "library",
      "bom-ref": "pkg:golang/gopkg.in/natefinch/lumberjack.v2@v2.0.0-20190411184413-94d9e492cc53",
      "name": "gopkg.in/natefinch/lumberjack.v2",
      "version": "v2.0.0-20190411184413-94d9e492cc53",
      "scope": "required",
      "purl": "pkg:golang/gopkg.in/natefinch/lumberjack.v2@v2.0.0-20190411184413-94d9e492cc53",
      "externalReferences": [
        {
          "url": "https://github.com/natefinch/lumberjack",
          "type": "vcs"
        }
      ]
    },
    {
      "type": "library",
      "bom-ref": "pkg:golang/gopkg.in/yaml.v2@v2.4.0",
      "name": "gopkg.in/yaml.v2",
      "version": "v2.4.0",
      "scope": "required",
      "purl": "pkg:golang/gopkg.in/yaml.v2@v2.4.0",
      "externalReferences": [
        {
          "url": "https://github.com/go-yaml/yaml",
          "type": "vcs"
        }
      ]
    },
    {
      "type": "library",
      "publisher": "Marat Dukhan",
      "name": "peachpy",
      "version": "0.0.1",
      "description": "Portable Efficient Assembly Codegen in Higher-level Python",
      "hashes": [
        {
          "alg": "MD5",
          "content": "9e41ae48b72537f7788482ddec6b9958"
        },
        {
          "alg": "SHA-256",
          "content": "9eaa37c0a914900dd93051080a9510c488fff626a22cc9c855c35045e0ac2843"
        }
      ],
      "purl": "pkg:pypi/peachpy@0.0.1",
      "modified": false
    },
    {
      "type": "library",
      "bom-ref": "pkg:golang/github.com/gofrs/uuid@v4.0.0+incompatible",
      "group": "github.com/gofrs",
      "name": "uuid",
      "version": "v4.0.0+incompatible",
      "description": "",
      "scope": "required",
      "hashes": [
        {
          "alg": "SHA-256",
          "content": "6f669026fdd9e05a7ac8dbb771d4a5941c5308b4719e994880ffdcd0dff4e253"
        }
      ],
      "purl": "pkg:golang/github.com/gofrs/uuid@v4.0.0+incompatible"
    },
    {
      "type": "library",
      "bom-ref": "pkg:golang/github.com/heroiclabs/nakama/v3",
      "group": "github.com/heroiclabs/nakama",
      "name": "v3",
      "version": "",
      "description": "",
      "scope": "required",
      "purl": "pkg:golang/github.com/heroiclabs/nakama/v3"
    },
    {
      "type": "library",
      "bom-ref": "pkg:golang/github.com/caio/go-tdigest@v3.1.0+incompatible",
      "group": "github.com/caio",
      "name": "go-tdigest",
      "version": "v3.1.0+incompatible",
      "description": "",
      "scope": "required",
      "hashes": [
        {
          "alg": "SHA-256",
          "content": "b0740cfee6d94ad054985d566c1f05026f2af468c36a32c2e53ef27711372472"
        }
      ],
      "purl": "pkg:golang/github.com/caio/go-tdigest@v3.1.0+incompatible"
    },
    {
      "type": "library",
      "bom-ref": "pkg:golang/github.com/go-sourcemap/sourcemap@v2.1.3+incompatible",
      "group": "github.com/go-sourcemap",
      "name": "sourcemap",
      "version": "v2.1.3+incompatible",
      "description": "",
      "scope": "required",
      "hashes": [
        {
          "alg": "SHA-256",
          "content": "17c8c97ef9b629b56373936a7a5c982667ffbf927477034b4b698be2c340d498"
        }
      ],
      "purl": "pkg:golang/github.com/go-sourcemap/sourcemap@v2.1.3+incompatible"
    }
  ],
  "dependencies": [
    {
      "ref": "pkg:golang/github.com/RoaringBitmap/roaring@v0.9.4",
      "dependsOn": [
        "pkg:golang/github.com/bits-and-blooms/bitset@v1.2.0",
        "pkg:golang/github.com/mschoch/smat@v0.2.0"
      ]
    },
    {
      "ref": "pkg:golang/github.com/axiomhq/hyperloglog@v0.0.0-20191112132149-a4c4c47bc57f",
      "dependsOn": [
        "pkg:golang/github.com/dgryski/go-metro@v0.0.0-20180109044635-280f6062b5bc"
      ]
    },
    {
      "ref": "pkg:golang/github.com/beorn7/perks@v1.0.1"
    },
    {
      "ref": "pkg:golang/github.com/bits-and-blooms/bitset@v1.2.0"
    },
    {
      "ref": "pkg:golang/github.com/blevesearch/go-porterstemmer@v1.0.3"
    },
    {
      "ref": "pkg:golang/github.com/blevesearch/mmap-go@v1.0.3",
      "dependsOn": [
        "pkg:golang/golang.org/x/sys@v0.0.0-20210615035016-665e8c7367d1"
      ]
    },
    {
      "ref": "pkg:golang/github.com/blevesearch/segment@v0.9.0"
    },
    {
      "ref": "pkg:golang/github.com/blevesearch/snowballstem@v0.9.0"
    },
    {
      "ref": "pkg:golang/github.com/blevesearch/vellum@v1.0.7",
      "dependsOn": [
        "pkg:golang/github.com/bits-and-blooms/bitset@v1.2.0",
        "pkg:golang/github.com/blevesearch/mmap-go@v1.0.3"
      ]
    },
    {
      "ref": "pkg:golang/github.com/blugelabs/bluge@v0.1.9",
      "dependsOn": [
        "pkg:golang/github.com/RoaringBitmap/roaring@v0.9.4",
        "pkg:golang/github.com/axiomhq/hyperloglog@v0.0.0-20191112132149-a4c4c47bc57f",
        "pkg:golang/github.com/bits-and-blooms/bitset@v1.2.0",
        "pkg:golang/github.com/blevesearch/go-porterstemmer@v1.0.3",
        "pkg:golang/github.com/blevesearch/mmap-go@v1.0.3",
        "pkg:golang/github.com/blevesearch/segment@v0.9.0",
        "pkg:golang/github.com/blevesearch/snowballstem@v0.9.0",
        "pkg:golang/github.com/blevesearch/vellum@v1.0.7",
        "pkg:golang/github.com/blugelabs/bluge_segment_api@v0.2.0",
        "pkg:golang/github.com/blugelabs/ice@v0.2.0",
        "pkg:golang/github.com/caio/go-tdigest@v3.1.0",
        "pkg:golang/golang.org/x/sys@v0.0.0-20210615035016-665e8c7367d1",
        "pkg:golang/golang.org/x/text@v0.3.7"
      ]
    },
    {
      "ref": "pkg:golang/github.com/blugelabs/bluge_segment_api@v0.2.0",
      "dependsOn": [
        "pkg:golang/github.com/RoaringBitmap/roaring@v0.9.4"
      ]
    },
    {
      "ref": "pkg:golang/github.com/blugelabs/ice@v0.2.0",
      "dependsOn": [
        "pkg:golang/github.com/RoaringBitmap/roaring@v0.9.4",
        "pkg:golang/github.com/blevesearch/mmap-go@v1.0.3",
        "pkg:golang/github.com/blevesearch/vellum@v1.0.7",
        "pkg:golang/github.com/blugelabs/bluge_segment_api@v0.2.0",
        "pkg:golang/github.com/golang/snappy@v0.0.1"
      ]
    },
    {
      "ref": "pkg:golang/github.com/blugelabs/query_string@v0.3.0",
      "dependsOn": [
        "pkg:golang/github.com/blugelabs/bluge@v0.1.9"
      ]
    },
    {
      "ref": "pkg:golang/github.com/caio/go-tdigest@v3.1.0"
    },
    {
      "ref": "pkg:golang/github.com/cespare/xxhash/v2@v2.1.2"
    },
    {
      "ref": "pkg:golang/github.com/dgryski/go-metro@v0.0.0-20180109044635-280f6062b5bc"
    },
    {
      "ref": "pkg:golang/github.com/dlclark/regexp2@v1.4.1-0.20201116162257-a2a8dda75c91"
    },
    {
      "ref": "pkg:golang/github.com/dop251/goja@v0.0.0-20220403115030-90825c02072b",
      "dependsOn": [
        "pkg:golang/github.com/dlclark/regexp2@v1.4.1-0.20201116162257-a2a8dda75c91",
        "pkg:golang/github.com/go-sourcemap/sourcemap@v2.1.3",
        "pkg:golang/golang.org/x/text@v0.3.7",
        "pkg:golang/gopkg.in/yaml.v2@v2.4.0"
      ]
    },
    {
      "ref": "pkg:golang/github.com/felixge/httpsnoop@v1.0.1"
    },
    {
      "ref": "pkg:golang/github.com/ghodss/yaml@v1.0.0"
    },
    {
      "ref": "pkg:golang/github.com/go-sourcemap/sourcemap@v2.1.3"
    },
    {
      "ref": "pkg:golang/github.com/gofrs/uuid@v4.0.0"
    },
    {
      "ref": "pkg:golang/github.com/golang-jwt/jwt/v4@v4.1.0"
    },
    {
      "ref": "pkg:golang/github.com/golang/glog@v1.0.0"
    },
    {
      "ref": "pkg:golang/github.com/golang/protobuf@v1.5.2",
      "dependsOn": [
        "pkg:golang/google.golang.org/protobuf@v1.27.1"
      ]
    },
    {
      "ref": "pkg:golang/github.com/golang/snappy@v0.0.1"
    },
    {
      "ref": "pkg:golang/github.com/gorilla/handlers@v1.5.1",
      "dependsOn": [
        "pkg:golang/github.com/felixge/httpsnoop@v1.0.1"
      ]
    },
    {
      "ref": "pkg:golang/github.com/gorilla/mux@v1.8.0"
    },
    {
      "ref": "pkg:golang/github.com/gorilla/websocket@v1.4.2"
    },
    {
      "ref": "pkg:golang/github.com/grpc-ecosystem/grpc-gateway/v2@v2.7.0",
      "dependsOn": [
        "pkg:golang/github.com/ghodss/yaml@v1.0.0",
        "pkg:golang/github.com/golang/glog@v1.0.0",
        "pkg:golang/github.com/golang/protobuf@v1.5.2",
        "pkg:golang/google.golang.org/genproto@v0.0.0-20211118181313-81c1377c94b1",
        "pkg:golang/google.golang.org/grpc@v1.42.0",
        "pkg:golang/google.golang.org/protobuf@v1.27.1"
      ]
    },
    {
      "ref": "pkg:golang/github.com/heroiclabs/nakama-common@v1.22.1-0.20220506145920-4c0b3c5a4a43",
      "dependsOn": [
        "pkg:golang/google.golang.org/protobuf@v1.27.1"
      ]
    },
    {
      "ref": "pkg:golang/github.com/jackc/chunkreader/v2@v2.0.1"
    },
    {
      "ref": "pkg:golang/github.com/jackc/pgconn@v1.10.0",
      "dependsOn": [
        "pkg:golang/github.com/jackc/chunkreader/v2@v2.0.1",
        "pkg:golang/github.com/jackc/pgio@v1.0.0",
        "pkg:golang/github.com/jackc/pgpassfile@v1.0.0",
        "pkg:golang/github.com/jackc/pgproto3/v2@v2.1.1",
        "pkg:golang/github.com/jackc/pgservicefile@v0.0.0-20200714003250-2b9c44734f2b",
        "pkg:golang/golang.org/x/crypto@v0.0.0-20210921155107-089bfa567519",
        "pkg:golang/golang.org/x/text@v0.3.7"
      ]
    },
    {
      "ref": "pkg:golang/github.com/jackc/pgerrcode@v0.0.0-20201024163028-a0d42d470451"
    },
    {
      "ref": "pkg:golang/github.com/jackc/pgio@v1.0.0"
    },
    {
      "ref": "pkg:golang/github.com/jackc/pgpassfile@v1.0.0"
    },
    {
      "ref": "pkg:golang/github.com/jackc/pgproto3/v2@v2.1.1",
      "dependsOn": [
        "pkg:golang/github.com/jackc/chunkreader/v2@v2.0.1",
        "pkg:golang/github.com/jackc/pgio@v1.0.0"
      ]
    },
    {
      "ref": "pkg:golang/github.com/jackc/pgservicefile@v0.0.0-20200714003250-2b9c44734f2b"
    },
    {
      "ref": "pkg:golang/github.com/jackc/pgtype@v1.8.1",
      "dependsOn": [
        "pkg:golang/github.com/gofrs/uuid@v4.0.0",
        "pkg:golang/github.com/jackc/pgconn@v1.10.0",
        "pkg:golang/github.com/jackc/pgio@v1.0.0",
        "pkg:golang/github.com/jackc/pgx/v4@v4.13.0"
      ]
    },
    {
      "ref": "pkg:golang/github.com/jackc/pgx/v4@v4.13.0",
      "dependsOn": [
        "pkg:golang/github.com/gofrs/uuid@v4.0.0",
        "pkg:golang/github.com/jackc/pgconn@v1.10.0",
        "pkg:golang/github.com/jackc/pgio@v1.0.0",
        "pkg:golang/github.com/jackc/pgproto3/v2@v2.1.1",
        "pkg:golang/github.com/jackc/pgtype@v1.8.1",
        "pkg:golang/go.uber.org/zap@v1.19.1"
      ]
    },
    {
      "ref": "pkg:golang/github.com/matttproud/golang_protobuf_extensions@v1.0.1"
    },
    {
      "ref": "pkg:golang/github.com/mschoch/smat@v0.2.0"
    },
    {
      "ref": "pkg:golang/github.com/pkg/errors@v0.9.1"
    },
    {
      "ref": "pkg:golang/github.com/prometheus/client_golang@v1.11.1-0.20211129121811-6d5cf25fcc34",
      "dependsOn": [
        "pkg:golang/github.com/beorn7/perks@v1.0.1",
        "pkg:golang/github.com/cespare/xxhash/v2@v2.1.2",
        "pkg:golang/github.com/golang/protobuf@v1.5.2",
        "pkg:golang/github.com/prometheus/client_model@v0.2.0",
        "pkg:golang/github.com/prometheus/common@v0.29.0",
        "pkg:golang/github.com/prometheus/procfs@v0.6.0",
        "pkg:golang/golang.org/x/sys@v0.0.0-20210615035016-665e8c7367d1"
      ]
    },
    {
      "ref": "pkg:golang/github.com/prometheus/client_model@v0.2.0",
      "dependsOn": [
        "pkg:golang/github.com/golang/protobuf@v1.5.2"
      ]
    },
    {
      "ref": "pkg:golang/github.com/prometheus/common@v0.29.0",
      "dependsOn": [
        "pkg:golang/github.com/golang/protobuf@v1.5.2",
        "pkg:golang/github.com/matttproud/golang_protobuf_extensions@v1.0.1",
        "pkg:golang/github.com/pkg/errors@v0.9.1",
        "pkg:golang/github.com/prometheus/client_golang@v1.11.1-0.20211129121811-6d5cf25fcc34",
        "pkg:golang/github.com/prometheus/client_model@v0.2.0",
        "pkg:golang/golang.org/x/net@v0.0.0-20210525063256-abc453219eb5",
        "pkg:golang/gopkg.in/yaml.v2@v2.4.0"
      ]
    },
    {
      "ref": "pkg:golang/github.com/prometheus/procfs@v0.6.0",
      "dependsOn": [
        "pkg:golang/golang.org/x/sys@v0.0.0-20210615035016-665e8c7367d1"
      ]
    },
    {
      "ref": "pkg:golang/github.com/rubenv/sql-migrate@v0.0.0-20210408115534-a32ed26c37ea",
      "dependsOn": [
        "pkg:golang/gopkg.in/gorp.v1@v1.7.2",
        "pkg:golang/gopkg.in/yaml.v2@v2.4.0"
      ]
    },
    {
      "ref": "pkg:golang/github.com/twmb/murmur3@v1.1.6"
    },
    {
      "ref": "pkg:golang/github.com/uber-go/tally/v4@v4.1.1",
      "dependsOn": [
        "pkg:golang/github.com/pkg/errors@v0.9.1",
        "pkg:golang/github.com/prometheus/client_golang@v1.11.1-0.20211129121811-6d5cf25fcc34",
        "pkg:golang/github.com/prometheus/client_model@v0.2.0",
        "pkg:golang/github.com/twmb/murmur3@v1.1.6",
        "pkg:golang/go.uber.org/atomic@v1.9.0",
        "pkg:golang/gopkg.in/yaml.v2@v2.4.0"
      ]
    },
    {
      "ref": "pkg:golang/go.uber.org/atomic@v1.9.0"
    },
    {
      "ref": "pkg:golang/go.uber.org/multierr@v1.6.0",
      "dependsOn": [
        "pkg:golang/go.uber.org/atomic@v1.9.0"
      ]
    },
    {
      "ref": "pkg:golang/go.uber.org/zap@v1.19.1",
      "dependsOn": [
        "pkg:golang/github.com/pkg/errors@v0.9.1",
        "pkg:golang/go.uber.org/atomic@v1.9.0",
        "pkg:golang/go.uber.org/multierr@v1.6.0",
        "pkg:golang/gopkg.in/yaml.v2@v2.4.0"
      ]
    },
    {
      "ref": "pkg:golang/golang.org/x/crypto@v0.0.0-20210921155107-089bfa567519",
      "dependsOn": [
        "pkg:golang/golang.org/x/net@v0.0.0-20210525063256-abc453219eb5",
        "pkg:golang/golang.org/x/sys@v0.0.0-20210615035016-665e8c7367d1",
        "pkg:golang/golang.org/x/text@v0.3.7"
      ]
    },
    {
      "ref": "pkg:golang/golang.org/x/net@v0.0.0-20210525063256-abc453219eb5",
      "dependsOn": [
        "pkg:golang/golang.org/x/sys@v0.0.0-20210615035016-665e8c7367d1",
        "pkg:golang/golang.org/x/text@v0.3.7"
      ]
    },
    {
      "ref": "pkg:golang/golang.org/x/sys@v0.0.0-20210615035016-665e8c7367d1"
    },
    {
      "ref": "pkg:golang/golang.org/x/text@v0.3.7"
    },
    {
      "ref": "pkg:golang/google.golang.org/genproto@v0.0.0-20211118181313-81c1377c94b1",
      "dependsOn": [
        "pkg:golang/github.com/golang/protobuf@v1.5.2",
        "pkg:golang/golang.org/x/net@v0.0.0-20210525063256-abc453219eb5",
        "pkg:golang/golang.org/x/sys@v0.0.0-20210615035016-665e8c7367d1",
        "pkg:golang/golang.org/x/text@v0.3.7",
        "pkg:golang/google.golang.org/grpc@v1.42.0",
        "pkg:golang/google.golang.org/protobuf@v1.27.1"
      ]
    },
    {
      "ref": "pkg:golang/google.golang.org/grpc@v1.42.0",
      "dependsOn": [
        "pkg:golang/github.com/cespare/xxhash/v2@v2.1.2",
        "pkg:golang/github.com/golang/glog@v1.0.0",
        "pkg:golang/github.com/golang/protobuf@v1.5.2",
        "pkg:golang/golang.org/x/net@v0.0.0-20210525063256-abc453219eb5",
        "pkg:golang/golang.org/x/sys@v0.0.0-20210615035016-665e8c7367d1",
        "pkg:golang/google.golang.org/genproto@v0.0.0-20211118181313-81c1377c94b1",
        "pkg:golang/google.golang.org/protobuf@v1.27.1"
      ]
    },
    {
      "ref": "pkg:golang/google.golang.org/grpc/cmd/protoc-gen-go-grpc@v1.1.0",
      "dependsOn": [
        "pkg:golang/google.golang.org/protobuf@v1.27.1"
      ]
    },
    {
      "ref": "pkg:golang/google.golang.org/protobuf@v1.27.1",
      "dependsOn": [
        "pkg:golang/github.com/golang/protobuf@v1.5.2"
      ]
    },
    {
      "ref": "pkg:golang/gopkg.in/gorp.v1@v1.7.2"
    },
    {
      "ref": "pkg:golang/gopkg.in/natefinch/lumberjack.v2@v2.0.0-20190411184413-94d9e492cc53"
    },
    {
      "ref": "pkg:golang/gopkg.in/yaml.v2@v2.4.0"
    },
    {
      "ref": "pkg:golang/github.com/heroiclabs/nakama/v3@v0.0.0-20220506165846-ce725b02c6ad",
      "dependsOn": [
        "pkg:golang/github.com/RoaringBitmap/roaring@v0.9.4",
        "pkg:golang/github.com/axiomhq/hyperloglog@v0.0.0-20191112132149-a4c4c47bc57f",
        "pkg:golang/github.com/beorn7/perks@v1.0.1",
        "pkg:golang/github.com/bits-and-blooms/bitset@v1.2.0",
        "pkg:golang/github.com/blevesearch/go-porterstemmer@v1.0.3",
        "pkg:golang/github.com/blevesearch/mmap-go@v1.0.3",
        "pkg:golang/github.com/blevesearch/segment@v0.9.0",
        "pkg:golang/github.com/blevesearch/snowballstem@v0.9.0",
        "pkg:golang/github.com/blevesearch/vellum@v1.0.7",
        "pkg:golang/github.com/blugelabs/bluge@v0.1.9",
        "pkg:golang/github.com/blugelabs/bluge_segment_api@v0.2.0",
        "pkg:golang/github.com/blugelabs/ice@v0.2.0",
        "pkg:golang/github.com/blugelabs/query_string@v0.3.0",
        "pkg:golang/github.com/caio/go-tdigest@v3.1.0",
        "pkg:golang/github.com/cespare/xxhash/v2@v2.1.2",
        "pkg:golang/github.com/dgryski/go-metro@v0.0.0-20180109044635-280f6062b5bc",
        "pkg:golang/github.com/dlclark/regexp2@v1.4.1-0.20201116162257-a2a8dda75c91",
        "pkg:golang/github.com/dop251/goja@v0.0.0-20220403115030-90825c02072b",
        "pkg:golang/github.com/felixge/httpsnoop@v1.0.1",
        "pkg:golang/github.com/ghodss/yaml@v1.0.0",
        "pkg:golang/github.com/go-sourcemap/sourcemap@v2.1.3",
        "pkg:golang/github.com/gofrs/uuid@v4.0.0",
        "pkg:golang/github.com/golang-jwt/jwt/v4@v4.1.0",
        "pkg:golang/github.com/golang/glog@v1.0.0",
        "pkg:golang/github.com/golang/protobuf@v1.5.2",
        "pkg:golang/github.com/golang/snappy@v0.0.1",
        "pkg:golang/github.com/gorilla/handlers@v1.5.1",
        "pkg:golang/github.com/gorilla/mux@v1.8.0",
        "pkg:golang/github.com/gorilla/websocket@v1.4.2",
        "pkg:golang/github.com/grpc-ecosystem/grpc-gateway/v2@v2.7.0",
        "pkg:golang/github.com/heroiclabs/nakama-common@v1.22.1-0.20220506145920-4c0b3c5a4a43",
        "pkg:golang/github.com/jackc/chunkreader/v2@v2.0.1",
        "pkg:golang/github.com/jackc/pgconn@v1.10.0",
        "pkg:golang/github.com/jackc/pgerrcode@v0.0.0-20201024163028-a0d42d470451",
        "pkg:golang/github.com/jackc/pgio@v1.0.0",
        "pkg:golang/github.com/jackc/pgpassfile@v1.0.0",
        "pkg:golang/github.com/jackc/pgproto3/v2@v2.1.1",
        "pkg:golang/github.com/jackc/pgservicefile@v0.0.0-20200714003250-2b9c44734f2b",
        "pkg:golang/github.com/jackc/pgtype@v1.8.1",
        "pkg:golang/github.com/jackc/pgx/v4@v4.13.0",
        "pkg:golang/github.com/matttproud/golang_protobuf_extensions@v1.0.1",
        "pkg:golang/github.com/mschoch/smat@v0.2.0",
        "pkg:golang/github.com/pkg/errors@v0.9.1",
        "pkg:golang/github.com/prometheus/client_golang@v1.11.1-0.20211129121811-6d5cf25fcc34",
        "pkg:golang/github.com/prometheus/client_model@v0.2.0",
        "pkg:golang/github.com/prometheus/common@v0.29.0",
        "pkg:golang/github.com/prometheus/procfs@v0.6.0",
        "pkg:golang/github.com/rubenv/sql-migrate@v0.0.0-20210408115534-a32ed26c37ea",
        "pkg:golang/github.com/twmb/murmur3@v1.1.6",
        "pkg:golang/github.com/uber-go/tally/v4@v4.1.1",
        "pkg:golang/go.uber.org/atomic@v1.9.0",
        "pkg:golang/go.uber.org/multierr@v1.6.0",
        "pkg:golang/go.uber.org/zap@v1.19.1",
        "pkg:golang/golang.org/x/crypto@v0.0.0-20210921155107-089bfa567519",
        "pkg:golang/golang.org/x/net@v0.0.0-20210525063256-abc453219eb5",
        "pkg:golang/golang.org/x/sys@v0.0.0-20210615035016-665e8c7367d1",
        "pkg:golang/golang.org/x/text@v0.3.7",
        "pkg:golang/google.golang.org/genproto@v0.0.0-20211118181313-81c1377c94b1",
        "pkg:golang/google.golang.org/grpc@v1.42.0",
        "pkg:golang/google.golang.org/grpc/cmd/protoc-gen-go-grpc@v1.1.0",
        "pkg:golang/google.golang.org/protobuf@v1.27.1",
        "pkg:golang/gopkg.in/gorp.v1@v1.7.2",
        "pkg:golang/gopkg.in/natefinch/lumberjack.v2@v2.0.0-20190411184413-94d9e492cc53",
        "pkg:golang/gopkg.in/yaml.v2@v2.4.0"
      ]
    }
  ]
}
