{
  "bomFormat": "CycloneDX",
  "specVersion": "1.3",
  "version": 2,
  "metadata": {
    "tools": [
      {
        "vendor": "CycloneDX",
        "name": "Node.js module",
        "version": "3.0.3"
      },
      {
        "vendor": "Fortress Information Security",
        "name": "Github Extractor",
        "version": "1.15.1"
      }
    ],
    "authors": [
      {
        "name": "Fortress Information Security",
        "email": "sales@fortressinfosec.com",
        "phone": "1-407-573-6800"
      }
    ],
    "timestamp": "2022-07-26T23:34:26Z",
    "component": {
      "type": "application",
      "name": "holochain",
      "version": "holochain-0.0.143",
      "group": "holochain",
      "externalReferences": [
        {
          "url": "https://github.com/holochain/holochain.git",
          "type": "distribution"
        },
        {
          "type": "website",
          "url": "https://holochain.org",
          "comment": "As set via `homepage` in Github API"
        }
      ]
    }
  },
  "components": [
    {
      "type": "library",
      "publisher": "Bob Lantz",
      "name": "mininet",
      "version": "2.3.0.dev6",
      "description": "Process-based OpenFlow emulator",
      "hashes": [
        {
          "alg": "MD5",
          "content": "b2435af03398d24577f11808ad41c3f0"
        },
        {
          "alg": "SHA-256",
          "content": "2175d04efa37dd6df86d1ff80e1f55d0d388c0edd0c8f0fc467c52a72799a85b"
        }
      ],
      "licenses": [
        {
          "license": {
            "name": "BSD"
          }
        }
      ],
      "purl": "pkg:pypi/mininet@2.3.0.dev6",
      "modified": false
    }
  ]
}
