{
  "bomFormat": "CycloneDX",
  "specVersion": "1.3",
  "version": 1,
  "metadata": {
    "tools": [
      {
        "vendor": "AppThreat",
        "name": "cdxgen",
        "version": "3.0.10"
      },
      {
        "vendor": "Fortress Information Security",
        "name": "Github Extractor",
        "version": "1.15.1"
      }
    ],
    "authors": [
      {
        "name": "Fortress Information Security",
        "email": "sales@fortressinfosec.com",
        "phone": "1-407-573-6800"
      }
    ],
    "timestamp": "2022-06-01T21:00:00Z",
    "component": {
      "type": "application",
      "name": "neuralcoref",
      "version": "v4.0.0",
      "group": "huggingface",
      "externalReferences": [
        {
          "url": "https://github.com/huggingface/neuralcoref.git",
          "type": "distribution"
        },
        {
          "type": "website",
          "url": "https://huggingface.co/coref/",
          "comment": "As set via `homepage` in Github API"
        }
      ]
    }
  },
  "components": [
    {
      "type": "library",
      "publisher": "Python Packaging Authority",
      "name": "setuptools",
      "version": "62.3.2",
      "description": "Easily download, build, install, upgrade, and uninstall Python packages",
      "hashes": [
        {
          "alg": "MD5",
          "content": "8cec5ba9f875efdd8534000c3a0c9b24"
        },
        {
          "alg": "SHA-256",
          "content": "68e45d17c9281ba25dc0104eadd2647172b3472d9e01f911efa57965e8d51a36"
        }
      ],
      "purl": "pkg:pypi/setuptools@62.3.2",
      "modified": false
    },
    {
      "type": "library",
      "publisher": "Phillip J. Eby",
      "name": "wsgiref",
      "version": "0.1.2",
      "description": "WSGI (PEP 333) Reference Library",
      "hashes": [
        {
          "alg": "MD5",
          "content": "29b146e6ebd0f9fb119fe321f7bcf6cb"
        },
        {
          "alg": "SHA-256",
          "content": "c7e610c800957046c04c8014aab8cce8f0b9f0495c8cd349e57c1f7cabf40e79"
        }
      ],
      "licenses": [
        {
          "license": {
            "name": "PSF or ZPL"
          }
        }
      ],
      "purl": "pkg:pypi/wsgiref@0.1.2",
      "modified": false
    },
    {
      "type": "library",
      "publisher": "Kurt Griffiths",
      "name": "falcon",
      "version": "3.1.0",
      "description": "The ultra-reliable, fast ASGI+WSGI framework for building data plane APIs at scale.",
      "hashes": [
        {
          "alg": "MD5",
          "content": "896d5e8ced55b376fa7744cc85600b3f"
        },
        {
          "alg": "SHA-256",
          "content": "455a6c1a46af8505b0427a1ab85924aed47c462afe4e7cb7ae58c9fd6c5cc06f"
        }
      ],
      "licenses": [
        {
          "license": {
            "name": "Apache 2.0"
          }
        }
      ],
      "purl": "pkg:pypi/falcon@3.1.0",
      "modified": false
    },
    {
      "type": "library",
      "publisher": "Explosion",
      "name": "spacy",
      "version": "3.3.0",
      "description": "Industrial-strength Natural Language Processing (NLP) in Python",
      "hashes": [
        {
          "alg": "MD5",
          "content": "adc46e6829521d5e703e36c902dd6561"
        },
        {
          "alg": "SHA-256",
          "content": "1f1c5b86daee2b1b4e60ce7c9f7a953ea60dbfe6c9c4acf3bc3c0b5a4332d475"
        }
      ],
      "licenses": [
        {
          "license": {
            "name": "MIT"
          }
        }
      ],
      "purl": "pkg:pypi/spacy@3.3.0",
      "modified": false
    },
    {
      "type": "library",
      "name": "hashlib",
      "version": "20081119",
      "description": "Secure hash and message digest algorithm library",
      "hashes": [
        {
          "alg": "MD5",
          "content": "46e59db6d5cac34b3344ef0c30d0897f"
        },
        {
          "alg": "SHA-256",
          "content": "419de2fd10ae71ed9c6adcb55903f116abd1d8acc8c814dfd5f839b4d5013e38"
        }
      ],
      "purl": "pkg:pypi/hashlib@20081119",
      "modified": false
    },
    {
      "type": "library",
      "publisher": "Thomas Waldmann",
      "name": "argparse",
      "version": "1.4.0",
      "description": "Python command-line parsing library",
      "hashes": [
        {
          "alg": "MD5",
          "content": "c37216a954c8669054e2b2c54853dd49"
        },
        {
          "alg": "SHA-256",
          "content": "c31647edb69fd3d465a847ea3157d37bed1f95f19760b11a47aa91c04b666314"
        }
      ],
      "licenses": [
        {
          "license": {
            "name": "Python Software Foundation License"
          }
        }
      ],
      "purl": "pkg:pypi/argparse@1.4.0",
      "modified": false
    },
    {
      "type": "library",
      "publisher": "Vinay Sajip",
      "name": "logging",
      "version": "0.4.9.6",
      "description": "A logging module for Python",
      "hashes": [
        {
          "alg": "MD5",
          "content": "dc0a7ebc8b8970263911e11e7b7e1ca8"
        },
        {
          "alg": "SHA-256",
          "content": "26f6b50773f085042d301085bd1bf5d9f3735704db9f37c1ce6d8b85c38f2417"
        }
      ],
      "licenses": [
        {
          "license": {
            "name": "Copyright (C) 2001-2005 by Vinay Sajip. All Rights Reserved. See LICENSE for license."
          }
        }
      ],
      "purl": "pkg:pypi/logging@0.4.9.6",
      "modified": false
    },
    {
      "type": "library",
      "publisher": "Dima Dorfman",
      "name": "functools",
      "version": "0.5",
      "description": "Fast tools for functional programming",
      "hashes": [
        {
          "alg": "MD5",
          "content": "91111c28ee685a2f89f1a41e6f0ce8ea"
        },
        {
          "alg": "SHA-256",
          "content": "596ed8999dee419c0749a41bfdd82e4697e80ea27ee01c716003ef55be9a54c5"
        }
      ],
      "licenses": [
        {
          "license": {
            "name": "BSD"
          }
        }
      ],
      "purl": "pkg:pypi/functools@0.5",
      "modified": false
    },
    {
      "type": "library",
      "name": "io",
      "version": "0.0.1",
      "purl": "pkg:pypi/io@0.0.1",
      "modified": false
    },
    {
      "type": "library",
      "publisher": "Amazon Web Services",
      "name": "boto3",
      "version": "1.23.4",
      "description": "The AWS SDK for Python",
      "hashes": [
        {
          "alg": "MD5",
          "content": "564816cbb35e00bcfdd321cc2a57b4bc"
        },
        {
          "alg": "SHA-256",
          "content": "cef1730f607939da45b9c3c413f8b93f7c445bd74e24be7cbcdd817ebbf58fbc"
        }
      ],
      "licenses": [
        {
          "license": {
            "name": "Apache License 2.0"
          }
        }
      ],
      "purl": "pkg:pypi/boto3@1.23.4",
      "modified": false
    },
    {
      "type": "library",
      "publisher": "Kenneth Reitz",
      "name": "requests",
      "version": "2.27.1",
      "description": "Python HTTP for Humans.",
      "hashes": [
        {
          "alg": "MD5",
          "content": "435db0f122c83decd27524f690e89650"
        },
        {
          "alg": "SHA-256",
          "content": "f22fa1e554c9ddfd16e6e41ac79759e17be9e492b3587efa038054674760e72d"
        }
      ],
      "licenses": [
        {
          "license": {
            "name": "Apache 2.0"
          }
        }
      ],
      "purl": "pkg:pypi/requests@2.27.1",
      "modified": false
    },
    {
      "type": "library",
      "publisher": "Amazon Web Services",
      "name": "botocore",
      "version": "1.26.4",
      "description": "Low-level, data-driven core of boto 3.",
      "hashes": [
        {
          "alg": "MD5",
          "content": "bb23899bcbaea43d8624a4757aded617"
        },
        {
          "alg": "SHA-256",
          "content": "bd436455310f8876dfab1a27760afffa5e34dced24b4ea6a9f6b20fec082e47e"
        }
      ],
      "licenses": [
        {
          "license": {
            "name": "Apache License 2.0"
          }
        }
      ],
      "purl": "pkg:pypi/botocore@1.26.4",
      "modified": false
    },
    {
      "type": "library",
      "name": "tqdm",
      "version": "4.64.0",
      "description": "Fast, Extensible Progress Meter",
      "hashes": [
        {
          "alg": "MD5",
          "content": "67cd3830694b2a7e577d0db9e52a7830"
        },
        {
          "alg": "SHA-256",
          "content": "74a2cdefe14d11442cedf3ba4e21a3b84ff9a2dbdc6cfae2c34addb2a14a5ea6"
        }
      ],
      "licenses": [
        {
          "license": {
            "name": "MPLv2.0, MIT Licences"
          }
        }
      ],
      "purl": "pkg:pypi/tqdm@4.64.0",
      "modified": false
    },
    {
      "type": "library",
      "publisher": "Zope Foundation and Contributors",
      "name": "datetime",
      "version": "4.4",
      "description": "This package provides a DateTime data type, as known from Zope. Unless you need to communicate with Zope APIs, you're probably better off using Python's built-in datetime module.",
      "hashes": [
        {
          "alg": "MD5",
          "content": "ad1e82d858ed7c8cd2ea437b4cb695ed"
        },
        {
          "alg": "SHA-256",
          "content": "4fcca115ddb466a1104df08d5c2a2f5805d14ca317800e1bfcea8f3d69f66e57"
        }
      ],
      "licenses": [
        {
          "license": {
            "name": "ZPL 2.1"
          }
        }
      ],
      "purl": "pkg:pypi/datetime@4.4",
      "modified": false
    },
    {
      "type": "library",
      "publisher": "Travis E. Oliphant et al.",
      "name": "numpy",
      "version": "1.22.3",
      "description": "NumPy is the fundamental package for array computing with Python.",
      "hashes": [
        {
          "alg": "MD5",
          "content": "99d2dfb943327b108b2c3b923bd42000"
        },
        {
          "alg": "SHA-256",
          "content": "c34ea7e9d13a70bf2ab64a2532fe149a9aced424cd05a2c4ba662fd989e3e45f"
        }
      ],
      "licenses": [
        {
          "license": {
            "name": "BSD"
          }
        }
      ],
      "purl": "pkg:pypi/numpy@1.22.3",
      "modified": false
    },
    {
      "type": "library",
      "publisher": "PyTorch Team",
      "name": "torch",
      "version": "1.11.0",
      "description": "Tensors and Dynamic neural networks in Python with strong GPU acceleration",
      "hashes": [
        {
          "alg": "MD5",
          "content": "d88113ea2a0597fd611880e93a508fe0"
        },
        {
          "alg": "SHA-256",
          "content": "0e48af66ad755f0f9c5f2664028a414f57c49d6adc37e77e06fe0004da4edb61"
        }
      ],
      "licenses": [
        {
          "license": {
            "name": "BSD-3"
          }
        }
      ],
      "purl": "pkg:pypi/torch@1.11.0",
      "modified": false
    },
    {
      "type": "library",
      "publisher": "Tzu-Wei Huang",
      "name": "tensorboardX",
      "version": "2.5",
      "description": "TensorBoardX lets you watch Tensors Flow without Tensorflow",
      "hashes": [
        {
          "alg": "MD5",
          "content": "88ab96449927800eaa2299ab1cbe6ce5"
        },
        {
          "alg": "SHA-256",
          "content": "b1d8903f8106e2f4484640a293f9680f9757d5f7d2e699e0672bb2382d988e07"
        }
      ],
      "licenses": [
        {
          "license": {
            "name": "MIT license"
          }
        }
      ],
      "purl": "pkg:pypi/tensorboardx@2.5",
      "modified": false
    },
    {
      "type": "library",
      "publisher": "Benjamin Peterson",
      "name": "six",
      "version": "1.16.0",
      "description": "Python 2 and 3 compatibility utilities",
      "hashes": [
        {
          "alg": "MD5",
          "content": "529d7fd7e14612ccde86417b4402d6f3"
        },
        {
          "alg": "SHA-256",
          "content": "8abb2f1d86890a2dfb989f9a77cfcfd3e47c2a354b01111771326f8aa26e0254"
        }
      ],
      "licenses": [
        {
          "license": {
            "name": "MIT"
          }
        }
      ],
      "purl": "pkg:pypi/six@1.16.0",
      "modified": false
    },
    {
      "type": "library",
      "bom-ref": "pkg:pypi/cython@0.25",
      "group": "",
      "name": "cython",
      "version": "0.25",
      "description": "The Cython compiler for writing C extensions for the Python language.",
      "hashes": [
        {
          "alg": "SHA-256",
          "content": "3304e433e692869dcd832f2099f3f2c70b6916570d62ee6ef2c707b280d3300a"
        }
      ],
      "licenses": [
        {
          "license": {
            "name": "Apache"
          }
        }
      ],
      "purl": "pkg:pypi/cython@0.25",
      "externalReferences": [
        {
          "url": "http://cython.org/",
          "type": "website"
        }
      ]
    },
    {
      "type": "library",
      "bom-ref": "pkg:pypi/pytest@7.1.2",
      "group": "",
      "name": "pytest",
      "version": "7.1.2",
      "description": "pytest: simple powerful testing with Python",
      "hashes": [
        {
          "alg": "SHA-256",
          "content": "13d0e3ccfc2b6e26be000cb6568c832ba67ba32e719443bfe725814d3c42433c"
        }
      ],
      "licenses": [
        {
          "license": {
            "id": "MIT",
            "url": "https://opensource.org/licenses/MIT"
          }
        }
      ],
      "purl": "pkg:pypi/pytest@7.1.2",
      "externalReferences": [
        {
          "url": "https://docs.pytest.org/en/latest/",
          "type": "website"
        }
      ]
    }
  ]
}
