{
  "bomFormat": "CycloneDX",
  "specVersion": "1.3",
  "serialNumber": "urn:uuid:4f997c35-d656-4893-9c07-1075e09f833f",
  "version": 1,
  "metadata": {
    "timestamp": "2022-06-06T22:39:30Z",
    "tools": [
      {
        "vendor": "AppThreat",
        "name": "cdxgen",
        "version": "3.0.10"
      },
      {
        "vendor": "Fortress Information Security",
        "name": "Github Extractor",
        "version": "1.15.1"
      }
    ],
    "authors": [
      {
        "name": "Team AppThreat",
        "email": "cloud@appthreat.com"
      },
      {
        "name": "Fortress Information Security",
        "email": "sales@fortressinfosec.com",
        "phone": "1-407-573-6800"
      }
    ],
    "component": {
      "type": "application",
      "name": "solang",
      "version": "v0.1.12",
      "group": "hyperledger-labs",
      "externalReferences": [
        {
          "url": "https://github.com/hyperledger-labs/solang.git",
          "type": "distribution"
        },
        {
          "type": "website",
          "url": "https://solang.readthedocs.io/en/latest/",
          "comment": "As set via `homepage` in Github API"
        }
      ]
    }
  },
  "components": [
    {
      "type": "library",
      "bom-ref": "pkg:pypi/docutils<0.18",
      "group": "",
      "name": "docutils<0.18",
      "version": "0.0.0",
      "description": "",
      "purl": "pkg:pypi/docutils<0.18"
    }
  ],
  "externalReferences": [
    {
      "url": "/project/src",
      "type": "other",
      "comment": "Base path"
    },
    {
      "url": "/project/src/requirements.txt",
      "type": "other",
      "comment": "Package file"
    }
  ]
}
