{
  "bomFormat": "CycloneDX",
  "specVersion": "1.3",
  "serialNumber": "urn:uuid:1252abde-4504-4e6a-ae1e-718edb529b00",
  "version": 1,
  "metadata": {
    "timestamp": "2022-06-06T23:05:30Z",
    "tools": [
      {
        "vendor": "AppThreat",
        "name": "cdxgen",
        "version": "3.0.10"
      },
      {
        "vendor": "Fortress Information Security",
        "name": "Github Extractor",
        "version": "1.15.1"
      }
    ],
    "authors": [
      {
        "name": "Team AppThreat",
        "email": "cloud@appthreat.com"
      },
      {
        "name": "Fortress Information Security",
        "email": "sales@fortressinfosec.com",
        "phone": "1-407-573-6800"
      }
    ],
    "component": {
      "type": "application",
      "name": "iced",
      "version": "0.4.0",
      "group": "iced-rs",
      "externalReferences": [
        {
          "url": "https://github.com/iced-rs/iced.git",
          "type": "distribution"
        },
        {
          "type": "website",
          "url": "https://iced.rs",
          "comment": "As set via `homepage` in Github API"
        }
      ]
    }
  },
  "components": [
    {
      "type": "library",
      "bom-ref": "pkg:crates/iced@0.4.2",
      "group": "",
      "name": "iced",
      "version": "0.4.2",
      "description": "",
      "purl": "pkg:crates/iced@0.4.2"
    },
    {
      "type": "library",
      "bom-ref": "pkg:crates/iced_core@0.5",
      "group": "",
      "name": "iced_core",
      "version": "0.5",
      "description": "",
      "purl": "pkg:crates/iced_core@0.5"
    },
    {
      "type": "library",
      "bom-ref": "pkg:crates/iced_futures@0.4",
      "group": "",
      "name": "iced_futures",
      "version": "0.4",
      "description": "",
      "purl": "pkg:crates/iced_futures@0.4"
    },
    {
      "type": "library",
      "bom-ref": "pkg:crates/iced_native@0.5",
      "group": "",
      "name": "iced_native",
      "version": "0.5",
      "description": "",
      "purl": "pkg:crates/iced_native@0.5"
    },
    {
      "type": "library",
      "bom-ref": "pkg:crates/iced_graphics@0.3",
      "group": "",
      "name": "iced_graphics",
      "version": "0.3",
      "description": "",
      "purl": "pkg:crates/iced_graphics@0.3"
    },
    {
      "type": "library",
      "bom-ref": "pkg:crates/iced_winit@0.4",
      "group": "",
      "name": "iced_winit",
      "version": "0.4",
      "description": "",
      "purl": "pkg:crates/iced_winit@0.4"
    },
    {
      "type": "library",
      "bom-ref": "pkg:crates/iced_glutin@0.3",
      "group": "",
      "name": "iced_glutin",
      "version": "0.3",
      "description": "",
      "purl": "pkg:crates/iced_glutin@0.3"
    },
    {
      "type": "library",
      "bom-ref": "pkg:crates/iced_glow@0.3",
      "group": "",
      "name": "iced_glow",
      "version": "0.3",
      "description": "",
      "purl": "pkg:crates/iced_glow@0.3"
    },
    {
      "type": "library",
      "bom-ref": "pkg:crates/iced_pure@0.2",
      "group": "",
      "name": "iced_pure",
      "version": "0.2",
      "description": "",
      "purl": "pkg:crates/iced_pure@0.2"
    },
    {
      "type": "library",
      "bom-ref": "pkg:crates/thiserror@1.0",
      "group": "",
      "name": "thiserror",
      "version": "1.0",
      "description": "",
      "purl": "pkg:crates/thiserror@1.0"
    },
    {
      "type": "library",
      "bom-ref": "pkg:crates/[target.cfg(not(target_arch@wasm32)).dependencies]",
      "group": "",
      "name": "[target.cfg(not(target_arch",
      "version": "wasm32)).dependencies]",
      "description": "",
      "purl": "pkg:crates/[target.cfg(not(target_arch@wasm32)).dependencies]"
    },
    {
      "type": "library",
      "bom-ref": "pkg:crates/iced_wgpu@0.5",
      "group": "",
      "name": "iced_wgpu",
      "version": "0.5",
      "description": "",
      "purl": "pkg:crates/iced_wgpu@0.5"
    },
    {
      "type": "library",
      "bom-ref": "pkg:crates/[target.cfg(target_arch@wasm32).dependencies]",
      "group": "",
      "name": "[target.cfg(target_arch",
      "version": "wasm32).dependencies]",
      "description": "",
      "purl": "pkg:crates/[target.cfg(target_arch@wasm32).dependencies]"
    },
    {
      "type": "library",
      "bom-ref": "pkg:crates/rustdoc-args@[--cfg, docsrs]",
      "group": "",
      "name": "rustdoc-args",
      "version": "[--cfg, docsrs]",
      "description": "",
      "purl": "pkg:crates/rustdoc-args@[--cfg, docsrs]"
    },
    {
      "type": "library",
      "bom-ref": "pkg:crates/features@[image, svg, canvas, qr_code, pure]",
      "group": "",
      "name": "features",
      "version": "[image, svg, canvas, qr_code, pure]",
      "description": "",
      "purl": "pkg:crates/features@[image, svg, canvas, qr_code, pure]"
    },
    {
      "type": "library",
      "bom-ref": "pkg:crates/iced_core@0.5.0",
      "group": "",
      "name": "iced_core",
      "version": "0.5.0",
      "description": "",
      "purl": "pkg:crates/iced_core@0.5.0"
    },
    {
      "type": "library",
      "bom-ref": "pkg:crates/bitflags@1.2",
      "group": "",
      "name": "bitflags",
      "version": "1.2",
      "description": "",
      "purl": "pkg:crates/bitflags@1.2"
    },
    {
      "type": "library",
      "bom-ref": "pkg:crates/optional@true",
      "group": "",
      "name": "optional",
      "version": "true",
      "description": "",
      "purl": "pkg:crates/optional@true"
    },
    {
      "type": "library",
      "bom-ref": "pkg:crates/wasm-timer@0.2 }",
      "group": "",
      "name": "wasm-timer",
      "version": "0.2 }",
      "description": "",
      "purl": "pkg:crates/wasm-timer@0.2 }"
    },
    {
      "type": "library",
      "bom-ref": "pkg:crates/bezier_tool@0.1.0",
      "group": "",
      "name": "bezier_tool",
      "version": "0.1.0",
      "description": "",
      "purl": "pkg:crates/bezier_tool@0.1.0"
    },
    {
      "type": "library",
      "bom-ref": "pkg:crates/clock@0.1.0",
      "group": "",
      "name": "clock",
      "version": "0.1.0",
      "description": "",
      "purl": "pkg:crates/clock@0.1.0"
    },
    {
      "type": "library",
      "bom-ref": "pkg:crates/time@0.3.5",
      "group": "",
      "name": "time",
      "version": "0.3.5",
      "description": "",
      "purl": "pkg:crates/time@0.3.5"
    },
    {
      "type": "library",
      "bom-ref": "pkg:crates/color_palette@0.1.0",
      "group": "",
      "name": "color_palette",
      "version": "0.1.0",
      "description": "",
      "purl": "pkg:crates/color_palette@0.1.0"
    },
    {
      "type": "library",
      "bom-ref": "pkg:crates/palette@0.6.0",
      "group": "",
      "name": "palette",
      "version": "0.6.0",
      "description": "",
      "purl": "pkg:crates/palette@0.6.0"
    },
    {
      "type": "library",
      "bom-ref": "pkg:crates/component@0.1.0",
      "group": "",
      "name": "component",
      "version": "0.1.0",
      "description": "",
      "purl": "pkg:crates/component@0.1.0"
    },
    {
      "type": "library",
      "bom-ref": "pkg:crates/counter@0.1.0",
      "group": "",
      "name": "counter",
      "version": "0.1.0",
      "description": "",
      "purl": "pkg:crates/counter@0.1.0"
    },
    {
      "type": "library",
      "bom-ref": "pkg:crates/custom_widget@0.1.0",
      "group": "",
      "name": "custom_widget",
      "version": "0.1.0",
      "description": "",
      "purl": "pkg:crates/custom_widget@0.1.0"
    },
    {
      "type": "library",
      "bom-ref": "pkg:crates/download_progress@0.1.0",
      "group": "",
      "name": "download_progress",
      "version": "0.1.0",
      "description": "",
      "purl": "pkg:crates/download_progress@0.1.0"
    },
    {
      "type": "library",
      "bom-ref": "pkg:crates/default-features@false",
      "group": "",
      "name": "default-features",
      "version": "false",
      "description": "",
      "purl": "pkg:crates/default-features@false"
    },
    {
      "type": "library",
      "bom-ref": "pkg:crates/features@[rustls-tls]",
      "group": "",
      "name": "features",
      "version": "[rustls-tls]",
      "description": "",
      "purl": "pkg:crates/features@[rustls-tls]"
    },
    {
      "type": "library",
      "bom-ref": "pkg:crates/events@0.1.0",
      "group": "",
      "name": "events",
      "version": "0.1.0",
      "description": "",
      "purl": "pkg:crates/events@0.1.0"
    },
    {
      "type": "library",
      "bom-ref": "pkg:crates/exit@0.1.0",
      "group": "",
      "name": "exit",
      "version": "0.1.0",
      "description": "",
      "purl": "pkg:crates/exit@0.1.0"
    },
    {
      "type": "library",
      "bom-ref": "pkg:crates/game_of_life@0.1.0",
      "group": "",
      "name": "game_of_life",
      "version": "0.1.0",
      "description": "",
      "purl": "pkg:crates/game_of_life@0.1.0"
    },
    {
      "type": "library",
      "bom-ref": "pkg:crates/tokio@1.0",
      "group": "",
      "name": "tokio",
      "version": "1.0",
      "description": "",
      "purl": "pkg:crates/tokio@1.0"
    },
    {
      "type": "library",
      "bom-ref": "pkg:crates/itertools@0.9",
      "group": "",
      "name": "itertools",
      "version": "0.9",
      "description": "",
      "purl": "pkg:crates/itertools@0.9"
    },
    {
      "type": "library",
      "bom-ref": "pkg:crates/rustc-hash@1.1",
      "group": "",
      "name": "rustc-hash",
      "version": "1.1",
      "description": "",
      "purl": "pkg:crates/rustc-hash@1.1"
    },
    {
      "type": "library",
      "bom-ref": "pkg:crates/env_logger@0.9",
      "group": "",
      "name": "env_logger",
      "version": "0.9",
      "description": "",
      "purl": "pkg:crates/env_logger@0.9"
    },
    {
      "type": "library",
      "bom-ref": "pkg:crates/geometry@0.1.0",
      "group": "",
      "name": "geometry",
      "version": "0.1.0",
      "description": "",
      "purl": "pkg:crates/geometry@0.1.0"
    },
    {
      "type": "library",
      "bom-ref": "pkg:crates/integration_opengl@0.1.0",
      "group": "",
      "name": "integration_opengl",
      "version": "0.1.0",
      "description": "",
      "purl": "pkg:crates/integration_opengl@0.1.0"
    },
    {
      "type": "library",
      "bom-ref": "pkg:crates/env_logger@0.8",
      "group": "",
      "name": "env_logger",
      "version": "0.8",
      "description": "",
      "purl": "pkg:crates/env_logger@0.8"
    },
    {
      "type": "library",
      "bom-ref": "pkg:crates/integration_wgpu@0.1.0",
      "group": "",
      "name": "integration_wgpu",
      "version": "0.1.0",
      "description": "",
      "purl": "pkg:crates/integration_wgpu@0.1.0"
    },
    {
      "type": "library",
      "bom-ref": "pkg:crates/console_error_panic_hook@0.1.7",
      "group": "",
      "name": "console_error_panic_hook",
      "version": "0.1.7",
      "description": "",
      "purl": "pkg:crates/console_error_panic_hook@0.1.7"
    },
    {
      "type": "library",
      "bom-ref": "pkg:crates/console_log@0.2.0",
      "group": "",
      "name": "console_log",
      "version": "0.2.0",
      "description": "",
      "purl": "pkg:crates/console_log@0.2.0"
    },
    {
      "type": "library",
      "bom-ref": "pkg:crates/log@0.4",
      "group": "",
      "name": "log",
      "version": "0.4",
      "description": "",
      "purl": "pkg:crates/log@0.4"
    },
    {
      "type": "library",
      "bom-ref": "pkg:crates/wasm-bindgen@0.2",
      "group": "",
      "name": "wasm-bindgen",
      "version": "0.2",
      "description": "",
      "purl": "pkg:crates/wasm-bindgen@0.2"
    },
    {
      "type": "library",
      "bom-ref": "pkg:crates/web-sys@0.3",
      "group": "",
      "name": "web-sys",
      "version": "0.3",
      "description": "",
      "purl": "pkg:crates/web-sys@0.3"
    },
    {
      "type": "library",
      "bom-ref": "pkg:crates/getrandom@0.2",
      "group": "",
      "name": "getrandom",
      "version": "0.2",
      "description": "",
      "purl": "pkg:crates/getrandom@0.2"
    },
    {
      "type": "library",
      "bom-ref": "pkg:crates/pane_grid@0.1.0",
      "group": "",
      "name": "pane_grid",
      "version": "0.1.0",
      "description": "",
      "purl": "pkg:crates/pane_grid@0.1.0"
    },
    {
      "type": "library",
      "bom-ref": "pkg:crates/pick_list@0.1.0",
      "group": "",
      "name": "pick_list",
      "version": "0.1.0",
      "description": "",
      "purl": "pkg:crates/pick_list@0.1.0"
    },
    {
      "type": "library",
      "bom-ref": "pkg:crates/pokedex@0.1.0",
      "group": "",
      "name": "pokedex",
      "version": "0.1.0",
      "description": "",
      "purl": "pkg:crates/pokedex@0.1.0"
    },
    {
      "type": "library",
      "bom-ref": "pkg:crates/serde_json@1.0",
      "group": "",
      "name": "serde_json",
      "version": "1.0",
      "description": "",
      "purl": "pkg:crates/serde_json@1.0"
    },
    {
      "type": "library",
      "bom-ref": "pkg:crates/features@[derive]",
      "group": "",
      "name": "features",
      "version": "[derive]",
      "description": "",
      "purl": "pkg:crates/features@[derive]"
    },
    {
      "type": "library",
      "bom-ref": "pkg:crates/features@[json, rustls-tls]",
      "group": "",
      "name": "features",
      "version": "[json, rustls-tls]",
      "description": "",
      "purl": "pkg:crates/features@[json, rustls-tls]"
    },
    {
      "type": "library",
      "bom-ref": "pkg:crates/features@[wasm-bindgen]",
      "group": "",
      "name": "features",
      "version": "[wasm-bindgen]",
      "description": "",
      "purl": "pkg:crates/features@[wasm-bindgen]"
    },
    {
      "type": "library",
      "bom-ref": "pkg:crates/progress_bar@0.1.0",
      "group": "",
      "name": "progress_bar",
      "version": "0.1.0",
      "description": "",
      "purl": "pkg:crates/progress_bar@0.1.0"
    },
    {
      "type": "library",
      "bom-ref": "pkg:crates/pure_component@0.1.0",
      "group": "",
      "name": "pure_component",
      "version": "0.1.0",
      "description": "",
      "purl": "pkg:crates/pure_component@0.1.0"
    },
    {
      "type": "library",
      "bom-ref": "pkg:crates/pure_counter@0.1.0",
      "group": "",
      "name": "pure_counter",
      "version": "0.1.0",
      "description": "",
      "purl": "pkg:crates/pure_counter@0.1.0"
    },
    {
      "type": "library",
      "bom-ref": "pkg:crates/pure_game_of_life@0.1.0",
      "group": "",
      "name": "pure_game_of_life",
      "version": "0.1.0",
      "description": "",
      "purl": "pkg:crates/pure_game_of_life@0.1.0"
    },
    {
      "type": "library",
      "bom-ref": "pkg:crates/pure_pane_grid@0.1.0",
      "group": "",
      "name": "pure_pane_grid",
      "version": "0.1.0",
      "description": "",
      "purl": "pkg:crates/pure_pane_grid@0.1.0"
    },
    {
      "type": "library",
      "bom-ref": "pkg:crates/pure_pick_list@0.1.0",
      "group": "",
      "name": "pure_pick_list",
      "version": "0.1.0",
      "description": "",
      "purl": "pkg:crates/pure_pick_list@0.1.0"
    },
    {
      "type": "library",
      "bom-ref": "pkg:crates/pure_todos@0.1.0",
      "group": "",
      "name": "pure_todos",
      "version": "0.1.0",
      "description": "",
      "purl": "pkg:crates/pure_todos@0.1.0"
    },
    {
      "type": "library",
      "bom-ref": "pkg:crates/serde@1.0",
      "group": "",
      "name": "serde",
      "version": "1.0",
      "description": "",
      "purl": "pkg:crates/serde@1.0"
    },
    {
      "type": "library",
      "bom-ref": "pkg:crates/async-std@1.0",
      "group": "",
      "name": "async-std",
      "version": "1.0",
      "description": "",
      "purl": "pkg:crates/async-std@1.0"
    },
    {
      "type": "library",
      "bom-ref": "pkg:crates/directories-next@2.0",
      "group": "",
      "name": "directories-next",
      "version": "2.0",
      "description": "",
      "purl": "pkg:crates/directories-next@2.0"
    },
    {
      "type": "library",
      "bom-ref": "pkg:crates/wasm-timer@0.2",
      "group": "",
      "name": "wasm-timer",
      "version": "0.2",
      "description": "",
      "purl": "pkg:crates/wasm-timer@0.2"
    },
    {
      "type": "library",
      "bom-ref": "pkg:crates/pure_tooltip@0.1.0",
      "group": "",
      "name": "pure_tooltip",
      "version": "0.1.0",
      "description": "",
      "purl": "pkg:crates/pure_tooltip@0.1.0"
    },
    {
      "type": "library",
      "bom-ref": "pkg:crates/pure_tour@0.1.0",
      "group": "",
      "name": "pure_tour",
      "version": "0.1.0",
      "description": "",
      "purl": "pkg:crates/pure_tour@0.1.0"
    },
    {
      "type": "library",
      "bom-ref": "pkg:crates/qr_code@0.1.0",
      "group": "",
      "name": "qr_code",
      "version": "0.1.0",
      "description": "",
      "purl": "pkg:crates/qr_code@0.1.0"
    },
    {
      "type": "library",
      "bom-ref": "pkg:crates/scrollable@0.1.0",
      "group": "",
      "name": "scrollable",
      "version": "0.1.0",
      "description": "",
      "purl": "pkg:crates/scrollable@0.1.0"
    },
    {
      "type": "library",
      "bom-ref": "pkg:crates/solar_system@0.1.0",
      "group": "",
      "name": "solar_system",
      "version": "0.1.0",
      "description": "",
      "purl": "pkg:crates/solar_system@0.1.0"
    },
    {
      "type": "library",
      "bom-ref": "pkg:crates/rand@0.8.3",
      "group": "",
      "name": "rand",
      "version": "0.8.3",
      "description": "",
      "purl": "pkg:crates/rand@0.8.3"
    },
    {
      "type": "library",
      "bom-ref": "pkg:crates/stopwatch@0.1.0",
      "group": "",
      "name": "stopwatch",
      "version": "0.1.0",
      "description": "",
      "purl": "pkg:crates/stopwatch@0.1.0"
    },
    {
      "type": "library",
      "bom-ref": "pkg:crates/styling@0.1.0",
      "group": "",
      "name": "styling",
      "version": "0.1.0",
      "description": "",
      "purl": "pkg:crates/styling@0.1.0"
    },
    {
      "type": "library",
      "bom-ref": "pkg:crates/svg@0.1.0",
      "group": "",
      "name": "svg",
      "version": "0.1.0",
      "description": "",
      "purl": "pkg:crates/svg@0.1.0"
    },
    {
      "type": "library",
      "bom-ref": "pkg:crates/system_information@0.1.0",
      "group": "",
      "name": "system_information",
      "version": "0.1.0",
      "description": "",
      "purl": "pkg:crates/system_information@0.1.0"
    },
    {
      "type": "library",
      "bom-ref": "pkg:crates/bytesize@1.1.0 }",
      "group": "",
      "name": "bytesize",
      "version": "1.1.0 }",
      "description": "",
      "purl": "pkg:crates/bytesize@1.1.0 }"
    },
    {
      "type": "library",
      "bom-ref": "pkg:crates/todos@0.1.0",
      "group": "",
      "name": "todos",
      "version": "0.1.0",
      "description": "",
      "purl": "pkg:crates/todos@0.1.0"
    },
    {
      "type": "library",
      "bom-ref": "pkg:crates/assets@[",
      "group": "",
      "name": "assets",
      "version": "[",
      "description": "",
      "purl": "pkg:crates/assets@["
    },
    {
      "type": "library",
      "bom-ref": "pkg:crates/tooltip@0.1.0",
      "group": "",
      "name": "tooltip",
      "version": "0.1.0",
      "description": "",
      "purl": "pkg:crates/tooltip@0.1.0"
    },
    {
      "type": "library",
      "bom-ref": "pkg:crates/tour@0.1.0",
      "group": "",
      "name": "tour",
      "version": "0.1.0",
      "description": "",
      "purl": "pkg:crates/tour@0.1.0"
    },
    {
      "type": "library",
      "bom-ref": "pkg:crates/url_handler@0.1.0",
      "group": "",
      "name": "url_handler",
      "version": "0.1.0",
      "description": "",
      "purl": "pkg:crates/url_handler@0.1.0"
    },
    {
      "type": "library",
      "bom-ref": "pkg:crates/websocket@0.1.0",
      "group": "",
      "name": "websocket",
      "version": "0.1.0",
      "description": "",
      "purl": "pkg:crates/websocket@0.1.0"
    },
    {
      "type": "library",
      "bom-ref": "pkg:crates/features@[tokio-rustls-webpki-roots]",
      "group": "",
      "name": "features",
      "version": "[tokio-rustls-webpki-roots]",
      "description": "",
      "purl": "pkg:crates/features@[tokio-rustls-webpki-roots]"
    },
    {
      "type": "library",
      "bom-ref": "pkg:crates/features@[time]",
      "group": "",
      "name": "features",
      "version": "[time]",
      "description": "",
      "purl": "pkg:crates/features@[time]"
    },
    {
      "type": "library",
      "bom-ref": "pkg:crates/iced_futures@0.4.1",
      "group": "",
      "name": "iced_futures",
      "version": "0.4.1",
      "description": "",
      "purl": "pkg:crates/iced_futures@0.4.1"
    },
    {
      "type": "library",
      "bom-ref": "pkg:crates/[target.cfg(not(target_arch@wasm32)).dependencies.tokio]",
      "group": "",
      "name": "[target.cfg(not(target_arch",
      "version": "wasm32)).dependencies.tokio]",
      "description": "",
      "purl": "pkg:crates/[target.cfg(not(target_arch@wasm32)).dependencies.tokio]"
    },
    {
      "type": "library",
      "bom-ref": "pkg:crates/package@tokio",
      "group": "",
      "name": "package",
      "version": "tokio",
      "description": "",
      "purl": "pkg:crates/package@tokio"
    },
    {
      "type": "library",
      "bom-ref": "pkg:crates/features@[rt, rt-multi-thread, time]",
      "group": "",
      "name": "features",
      "version": "[rt, rt-multi-thread, time]",
      "description": "",
      "purl": "pkg:crates/features@[rt, rt-multi-thread, time]"
    },
    {
      "type": "library",
      "bom-ref": "pkg:crates/[target.cfg(not(target_arch@wasm32)).dependencies.async-std]",
      "group": "",
      "name": "[target.cfg(not(target_arch",
      "version": "wasm32)).dependencies.async-std]",
      "description": "",
      "purl": "pkg:crates/[target.cfg(not(target_arch@wasm32)).dependencies.async-std]"
    },
    {
      "type": "library",
      "bom-ref": "pkg:crates/features@[unstable]",
      "group": "",
      "name": "features",
      "version": "[unstable]",
      "description": "",
      "purl": "pkg:crates/features@[unstable]"
    },
    {
      "type": "library",
      "bom-ref": "pkg:crates/[target.cfg(not(target_arch@wasm32)).dependencies.smol]",
      "group": "",
      "name": "[target.cfg(not(target_arch",
      "version": "wasm32)).dependencies.smol]",
      "description": "",
      "purl": "pkg:crates/[target.cfg(not(target_arch@wasm32)).dependencies.smol]"
    },
    {
      "type": "library",
      "bom-ref": "pkg:crates/wasm-bindgen-futures@0.4",
      "group": "",
      "name": "wasm-bindgen-futures",
      "version": "0.4",
      "description": "",
      "purl": "pkg:crates/wasm-bindgen-futures@0.4"
    },
    {
      "type": "library",
      "bom-ref": "pkg:crates/all-features@true",
      "group": "",
      "name": "all-features",
      "version": "true",
      "description": "",
      "purl": "pkg:crates/all-features@true"
    },
    {
      "type": "library",
      "bom-ref": "pkg:crates/iced_glow@0.3.0",
      "group": "",
      "name": "iced_glow",
      "version": "0.3.0",
      "description": "",
      "purl": "pkg:crates/iced_glow@0.3.0"
    },
    {
      "type": "library",
      "bom-ref": "pkg:crates/glow@0.11.1",
      "group": "",
      "name": "glow",
      "version": "0.11.1",
      "description": "",
      "purl": "pkg:crates/glow@0.11.1"
    },
    {
      "type": "library",
      "bom-ref": "pkg:crates/glow_glyph@0.5.0",
      "group": "",
      "name": "glow_glyph",
      "version": "0.5.0",
      "description": "",
      "purl": "pkg:crates/glow_glyph@0.5.0"
    },
    {
      "type": "library",
      "bom-ref": "pkg:crates/glyph_brush@0.7",
      "group": "",
      "name": "glyph_brush",
      "version": "0.7",
      "description": "",
      "purl": "pkg:crates/glyph_brush@0.7"
    },
    {
      "type": "library",
      "bom-ref": "pkg:crates/euclid@0.22",
      "group": "",
      "name": "euclid",
      "version": "0.22",
      "description": "",
      "purl": "pkg:crates/euclid@0.22"
    },
    {
      "type": "library",
      "bom-ref": "pkg:crates/bytemuck@1.4",
      "group": "",
      "name": "bytemuck",
      "version": "1.4",
      "description": "",
      "purl": "pkg:crates/bytemuck@1.4"
    },
    {
      "type": "library",
      "bom-ref": "pkg:crates/features@[font-fallback, font-icons, opengl]",
      "group": "",
      "name": "features",
      "version": "[font-fallback, font-icons, opengl]",
      "description": "",
      "purl": "pkg:crates/features@[font-fallback, font-icons, opengl]"
    },
    {
      "type": "library",
      "bom-ref": "pkg:crates/iced_graphics@0.3.0",
      "group": "",
      "name": "iced_graphics",
      "version": "0.3.0",
      "description": "",
      "purl": "pkg:crates/iced_graphics@0.3.0"
    },
    {
      "type": "library",
      "bom-ref": "pkg:crates/glam@0.10",
      "group": "",
      "name": "glam",
      "version": "0.10",
      "description": "",
      "purl": "pkg:crates/glam@0.10"
    },
    {
      "type": "library",
      "bom-ref": "pkg:crates/raw-window-handle@0.4",
      "group": "",
      "name": "raw-window-handle",
      "version": "0.4",
      "description": "",
      "purl": "pkg:crates/raw-window-handle@0.4"
    },
    {
      "type": "library",
      "bom-ref": "pkg:crates/iced_lazy@0.1.0",
      "group": "",
      "name": "iced_lazy",
      "version": "0.1.0",
      "description": "",
      "purl": "pkg:crates/iced_lazy@0.1.0"
    },
    {
      "type": "library",
      "bom-ref": "pkg:crates/ouroboros@0.13",
      "group": "",
      "name": "ouroboros",
      "version": "0.13",
      "description": "",
      "purl": "pkg:crates/ouroboros@0.13"
    },
    {
      "type": "library",
      "bom-ref": "pkg:crates/iced_native@0.5.1",
      "group": "",
      "name": "iced_native",
      "version": "0.5.1",
      "description": "",
      "purl": "pkg:crates/iced_native@0.5.1"
    },
    {
      "type": "library",
      "bom-ref": "pkg:crates/twox-hash@1.5",
      "group": "",
      "name": "twox-hash",
      "version": "1.5",
      "description": "",
      "purl": "pkg:crates/twox-hash@1.5"
    },
    {
      "type": "library",
      "bom-ref": "pkg:crates/unicode-segmentation@1.6",
      "group": "",
      "name": "unicode-segmentation",
      "version": "1.6",
      "description": "",
      "purl": "pkg:crates/unicode-segmentation@1.6"
    },
    {
      "type": "library",
      "bom-ref": "pkg:crates/num-traits@0.2",
      "group": "",
      "name": "num-traits",
      "version": "0.2",
      "description": "",
      "purl": "pkg:crates/num-traits@0.2"
    },
    {
      "type": "library",
      "bom-ref": "pkg:crates/features@[thread-pool]",
      "group": "",
      "name": "features",
      "version": "[thread-pool]",
      "description": "",
      "purl": "pkg:crates/features@[thread-pool]"
    },
    {
      "type": "library",
      "bom-ref": "pkg:crates/iced_pure@0.2.2",
      "group": "",
      "name": "iced_pure",
      "version": "0.2.2",
      "description": "",
      "purl": "pkg:crates/iced_pure@0.2.2"
    },
    {
      "type": "library",
      "bom-ref": "pkg:crates/iced_style@0.4",
      "group": "",
      "name": "iced_style",
      "version": "0.4",
      "description": "",
      "purl": "pkg:crates/iced_style@0.4"
    },
    {
      "type": "library",
      "bom-ref": "pkg:crates/iced_style@0.5",
      "group": "",
      "name": "iced_style",
      "version": "0.5",
      "description": "",
      "purl": "pkg:crates/iced_style@0.5"
    },
    {
      "type": "library",
      "bom-ref": "pkg:crates/iced_wgpu@0.5.1",
      "group": "",
      "name": "iced_wgpu",
      "version": "0.5.1",
      "description": "",
      "purl": "pkg:crates/iced_wgpu@0.5.1"
    },
    {
      "type": "library",
      "bom-ref": "pkg:crates/wgpu@0.12",
      "group": "",
      "name": "wgpu",
      "version": "0.12",
      "description": "",
      "purl": "pkg:crates/wgpu@0.12"
    },
    {
      "type": "library",
      "bom-ref": "pkg:crates/wgpu_glyph@0.16",
      "group": "",
      "name": "wgpu_glyph",
      "version": "0.16",
      "description": "",
      "purl": "pkg:crates/wgpu_glyph@0.16"
    },
    {
      "type": "library",
      "bom-ref": "pkg:crates/guillotiere@0.6",
      "group": "",
      "name": "guillotiere",
      "version": "0.6",
      "description": "",
      "purl": "pkg:crates/guillotiere@0.6"
    },
    {
      "type": "library",
      "bom-ref": "pkg:crates/futures@0.3",
      "group": "",
      "name": "futures",
      "version": "0.3",
      "description": "",
      "purl": "pkg:crates/futures@0.3"
    },
    {
      "type": "library",
      "bom-ref": "pkg:crates/kamadak-exif@0.5",
      "group": "",
      "name": "kamadak-exif",
      "version": "0.5",
      "description": "",
      "purl": "pkg:crates/kamadak-exif@0.5"
    },
    {
      "type": "library",
      "bom-ref": "pkg:crates/features@[font-fallback, font-icons]",
      "group": "",
      "name": "features",
      "version": "[font-fallback, font-icons]",
      "description": "",
      "purl": "pkg:crates/features@[font-fallback, font-icons]"
    },
    {
      "type": "library",
      "bom-ref": "pkg:crates/package@image",
      "group": "",
      "name": "package",
      "version": "image",
      "description": "",
      "purl": "pkg:crates/package@image"
    },
    {
      "type": "library",
      "bom-ref": "pkg:crates/iced_winit@0.4.0",
      "group": "",
      "name": "iced_winit",
      "version": "0.4.0",
      "description": "",
      "purl": "pkg:crates/iced_winit@0.4.0"
    },
    {
      "type": "library",
      "bom-ref": "pkg:crates/window_clipboard@0.2",
      "group": "",
      "name": "window_clipboard",
      "version": "0.2",
      "description": "",
      "purl": "pkg:crates/window_clipboard@0.2"
    },
    {
      "type": "library",
      "bom-ref": "pkg:crates/git@https://github.com/iced-rs/winit",
      "group": "",
      "name": "git",
      "version": "https://github.com/iced-rs/winit",
      "description": "",
      "purl": "pkg:crates/git@https://github.com/iced-rs/winit"
    },
    {
      "type": "library",
      "bom-ref": "pkg:crates/rev@02a12380960cec2f351c09a33d6a7cc2789d96a6",
      "group": "",
      "name": "rev",
      "version": "02a12380960cec2f351c09a33d6a7cc2789d96a6",
      "description": "",
      "purl": "pkg:crates/rev@02a12380960cec2f351c09a33d6a7cc2789d96a6"
    },
    {
      "type": "library",
      "bom-ref": "pkg:crates/[target.cfg(target_os@windows).dependencies.winapi]",
      "group": "",
      "name": "[target.cfg(target_os",
      "version": "windows).dependencies.winapi]",
      "description": "",
      "purl": "pkg:crates/[target.cfg(target_os@windows).dependencies.winapi]"
    },
    {
      "type": "library",
      "bom-ref": "pkg:crates/[target.cfg(target_arch@wasm32).dependencies.web-sys]",
      "group": "",
      "name": "[target.cfg(target_arch",
      "version": "wasm32).dependencies.web-sys]",
      "description": "",
      "purl": "pkg:crates/[target.cfg(target_arch@wasm32).dependencies.web-sys]"
    },
    {
      "type": "library",
      "bom-ref": "pkg:crates/features@[Document, Window]",
      "group": "",
      "name": "features",
      "version": "[Document, Window]",
      "description": "",
      "purl": "pkg:crates/features@[Document, Window]"
    }
  ],
  "externalReferences": [
    {
      "url": "/project/src",
      "type": "other",
      "comment": "Base path"
    },
    {
      "url": "/project/src/Cargo.toml, /project/src/core/Cargo.toml, /project/src/examples/bezier_tool/Cargo.toml, /project/src/examples/clock/Cargo.toml, /project/src/examples/color_palette/Cargo.toml, /project/src/examples/component/Cargo.toml, /project/src/examples/counter/Cargo.toml, /project/src/examples/custom_widget/Cargo.toml, /project/src/examples/download_progress/Cargo.toml, /project/src/examples/events/Cargo.toml, /project/src/examples/exit/Cargo.toml, /project/src/examples/game_of_life/Cargo.toml, /project/src/examples/geometry/Cargo.toml, /project/src/examples/integration_opengl/Cargo.toml, /project/src/examples/integration_wgpu/Cargo.toml, /project/src/examples/pane_grid/Cargo.toml, /project/src/examples/pick_list/Cargo.toml, /project/src/examples/pokedex/Cargo.toml, /project/src/examples/progress_bar/Cargo.toml, /project/src/examples/pure/component/Cargo.toml, /project/src/examples/pure/counter/Cargo.toml, /project/src/examples/pure/game_of_life/Cargo.toml, /project/src/examples/pure/pane_grid/Cargo.toml, /project/src/examples/pure/pick_list/Cargo.toml, /project/src/examples/pure/todos/Cargo.toml, /project/src/examples/pure/tooltip/Cargo.toml, /project/src/examples/pure/tour/Cargo.toml, /project/src/examples/qr_code/Cargo.toml, /project/src/examples/scrollable/Cargo.toml, /project/src/examples/solar_system/Cargo.toml, /project/src/examples/stopwatch/Cargo.toml, /project/src/examples/styling/Cargo.toml, /project/src/examples/svg/Cargo.toml, /project/src/examples/system_information/Cargo.toml, /project/src/examples/todos/Cargo.toml, /project/src/examples/tooltip/Cargo.toml, /project/src/examples/tour/Cargo.toml, /project/src/examples/url_handler/Cargo.toml, /project/src/examples/websocket/Cargo.toml, /project/src/futures/Cargo.toml, /project/src/glow/Cargo.toml, /project/src/glutin/Cargo.toml, /project/src/graphics/Cargo.toml, /project/src/lazy/Cargo.toml, /project/src/native/Cargo.toml, /project/src/pure/Cargo.toml, /project/src/style/Cargo.toml, /project/src/wgpu/Cargo.toml, /project/src/winit/Cargo.toml",
      "type": "other",
      "comment": "Package file"
    }
  ]
}
