{
  "bomFormat": "CycloneDX",
  "specVersion": "1.3",
  "version": 1,
  "metadata": {
    "tools": [
      {
        "vendor": "CycloneDX",
        "name": "cyclonedx-gomod",
        "version": "v0.0.0-unset",
        "hashes": [
          {
            "alg": "MD5",
            "content": "a35776fc9417e8071d3f1dcfa2f1dd19"
          },
          {
            "alg": "SHA-1",
            "content": "a19a8eed713eff5a2092e5283c201a146f19421d"
          },
          {
            "alg": "SHA-256",
            "content": "17b3b980b9a5d0f48ad52043dee5b31aff3ae6599a36bc94224dc7b6a46759ef"
          },
          {
            "alg": "SHA-512",
            "content": "9d4f06aab20cede94a1aedf11a300ae9de98871235c68c72e421cd6d45495910861b39e743ee0eceb11bbdcd2c9acc3312c19064cfe90177243fb43127fcfa46"
          }
        ]
      },
      {
        "vendor": "AppThreat",
        "name": "cdxgen",
        "version": "3.0.10"
      },
      {
        "vendor": "Fortress Information Security",
        "name": "Github Extractor",
        "version": "1.15.1"
      }
    ],
    "authors": [
      {
        "name": "Fortress Information Security",
        "email": "sales@fortressinfosec.com",
        "phone": "1-407-573-6800"
      }
    ],
    "timestamp": "2022-06-01T21:00:00Z",
    "component": {
      "type": "application",
      "name": "CasaOS",
      "version": "v0.3.1.1",
      "group": "IceWhaleTech",
      "externalReferences": [
        {
          "url": "https://github.com/IceWhaleTech/CasaOS.git",
          "type": "distribution"
        },
        {
          "type": "website",
          "url": "https://www.casaos.io",
          "comment": "As set via `homepage` in Github API"
        }
      ]
    }
  },
  "components": [
    {
      "type": "library",
      "bom-ref": "pkg:golang/github.com/Curtis-Milo/nat-type-identifier-go@v0.0.0-20220215191915-18d42168c63d",
      "name": "github.com/Curtis-Milo/nat-type-identifier-go",
      "version": "v0.0.0-20220215191915-18d42168c63d",
      "scope": "required",
      "hashes": [
        {
          "alg": "SHA-256",
          "content": "eb6944048993c59f37a60cf2c200cd22b3cfb90fa3e1ea7d423aab5819f586b5"
        }
      ],
      "purl": "pkg:golang/github.com/Curtis-Milo/nat-type-identifier-go@v0.0.0-20220215191915-18d42168c63d",
      "externalReferences": [
        {
          "url": "https://github.com/Curtis-Milo/nat-type-identifier-go",
          "type": "vcs"
        }
      ]
    },
    {
      "type": "library",
      "bom-ref": "pkg:golang/github.com/KyleBanks/depth@v1.2.1",
      "name": "github.com/KyleBanks/depth",
      "version": "v1.2.1",
      "scope": "required",
      "hashes": [
        {
          "alg": "SHA-256",
          "content": "e61f1f4000c5ad6b5aad376d0ee74c986b02ec63db380bba4550777dfb151477"
        }
      ],
      "purl": "pkg:golang/github.com/KyleBanks/depth@v1.2.1",
      "externalReferences": [
        {
          "url": "https://github.com/KyleBanks/depth",
          "type": "vcs"
        }
      ]
    },
    {
      "type": "library",
      "bom-ref": "pkg:golang/github.com/Microsoft/go-winio@v0.5.0",
      "name": "github.com/Microsoft/go-winio",
      "version": "v0.5.0",
      "scope": "required",
      "hashes": [
        {
          "alg": "SHA-256",
          "content": "125afd5a7fac18a3e591a06fc2ee264ebc6d98ea77177c95f6a85a1db5c68f05"
        }
      ],
      "purl": "pkg:golang/github.com/Microsoft/go-winio@v0.5.0",
      "externalReferences": [
        {
          "url": "https://github.com/Microsoft/go-winio",
          "type": "vcs"
        }
      ]
    },
    {
      "type": "library",
      "bom-ref": "pkg:golang/github.com/Microsoft/hcsshim@v0.8.22",
      "name": "github.com/Microsoft/hcsshim",
      "version": "v0.8.22",
      "scope": "required",
      "hashes": [
        {
          "alg": "SHA-256",
          "content": "0ae959dc65bcb0d244c649d3a28f91583f94fba64ce6490d7eec72c120cf774f"
        }
      ],
      "purl": "pkg:golang/github.com/Microsoft/hcsshim@v0.8.22",
      "externalReferences": [
        {
          "url": "https://github.com/Microsoft/hcsshim",
          "type": "vcs"
        }
      ]
    },
    {
      "type": "library",
      "bom-ref": "pkg:golang/github.com/PuerkitoBio/purell@v1.1.1",
      "name": "github.com/PuerkitoBio/purell",
      "version": "v1.1.1",
      "scope": "required",
      "hashes": [
        {
          "alg": "SHA-256",
          "content": "58442a96a6866eb3e4c4b2567c1c1099f10013567b38d7432eaacddfcb4d15f2"
        }
      ],
      "purl": "pkg:golang/github.com/PuerkitoBio/purell@v1.1.1",
      "externalReferences": [
        {
          "url": "https://github.com/PuerkitoBio/purell",
          "type": "vcs"
        }
      ]
    },
    {
      "type": "library",
      "bom-ref": "pkg:golang/github.com/PuerkitoBio/urlesc@v0.0.0-20170810143723-de5bf2ad4578",
      "name": "github.com/PuerkitoBio/urlesc",
      "version": "v0.0.0-20170810143723-de5bf2ad4578",
      "scope": "required",
      "hashes": [
        {
          "alg": "SHA-256",
          "content": "77e05cedae6b2ee7d5fec4a4ffc76782e7ea7a57e1ea39eb8bce6b88c01a17f3"
        }
      ],
      "purl": "pkg:golang/github.com/PuerkitoBio/urlesc@v0.0.0-20170810143723-de5bf2ad4578",
      "externalReferences": [
        {
          "url": "https://github.com/PuerkitoBio/urlesc",
          "type": "vcs"
        }
      ]
    },
    {
      "type": "library",
      "bom-ref": "pkg:golang/github.com/StackExchange/wmi@v0.0.0-20210224194228-fe8f1750fd46",
      "name": "github.com/StackExchange/wmi",
      "version": "v0.0.0-20210224194228-fe8f1750fd46",
      "scope": "required",
      "hashes": [
        {
          "alg": "SHA-256",
          "content": "e6c5dbaa54a89af7639516d6c8daa43ec277160fad41909b81e5f55469636d06"
        }
      ],
      "purl": "pkg:golang/github.com/StackExchange/wmi@v0.0.0-20210224194228-fe8f1750fd46",
      "externalReferences": [
        {
          "url": "https://github.com/StackExchange/wmi",
          "type": "vcs"
        }
      ]
    },
    {
      "type": "library",
      "bom-ref": "pkg:golang/github.com/bits-and-blooms/bitset@v1.2.1",
      "name": "github.com/bits-and-blooms/bitset",
      "version": "v1.2.1",
      "scope": "required",
      "hashes": [
        {
          "alg": "SHA-256",
          "content": "33efe1ad4f7194ca7bb784f24c3416f7b777b513d5b8a142eb30442b5e909d76"
        }
      ],
      "purl": "pkg:golang/github.com/bits-and-blooms/bitset@v1.2.1",
      "externalReferences": [
        {
          "url": "https://github.com/bits-and-blooms/bitset",
          "type": "vcs"
        }
      ]
    },
    {
      "type": "library",
      "bom-ref": "pkg:golang/github.com/cheekybits/genny@v1.0.0",
      "name": "github.com/cheekybits/genny",
      "version": "v1.0.0",
      "scope": "required",
      "hashes": [
        {
          "alg": "SHA-256",
          "content": "b8619ae277a2fa3db4ace49e0de3f939fd765d59bb4c651de1d240f510e2b5f1"
        }
      ],
      "purl": "pkg:golang/github.com/cheekybits/genny@v1.0.0",
      "externalReferences": [
        {
          "url": "https://github.com/cheekybits/genny",
          "type": "vcs"
        }
      ]
    },
    {
      "type": "library",
      "bom-ref": "pkg:golang/github.com/containerd/cgroups@v1.0.1",
      "name": "github.com/containerd/cgroups",
      "version": "v1.0.1",
      "scope": "required",
      "hashes": [
        {
          "alg": "SHA-256",
          "content": "8899ccbdca3d5c6bca52f35092ff3c6c4e2e257c51407d7c79f6caa3dc39bc74"
        }
      ],
      "purl": "pkg:golang/github.com/containerd/cgroups@v1.0.1",
      "externalReferences": [
        {
          "url": "https://github.com/containerd/cgroups",
          "type": "vcs"
        }
      ]
    },
    {
      "type": "library",
      "bom-ref": "pkg:golang/github.com/containerd/containerd@v1.5.7",
      "name": "github.com/containerd/containerd",
      "version": "v1.5.7",
      "scope": "required",
      "hashes": [
        {
          "alg": "SHA-256",
          "content": "ad0ca862d8f829d741ddbc46e9202a778fb4f2078f37226346abce21f577ae43"
        }
      ],
      "purl": "pkg:golang/github.com/containerd/containerd@v1.5.7",
      "externalReferences": [
        {
          "url": "https://github.com/containerd/containerd",
          "type": "vcs"
        }
      ]
    },
    {
      "type": "library",
      "bom-ref": "pkg:golang/github.com/containerd/continuity@v0.2.0",
      "name": "github.com/containerd/continuity",
      "version": "v0.2.0",
      "scope": "required",
      "hashes": [
        {
          "alg": "SHA-256",
          "content": "8fff569e7fa1ac45a32ef1ee231514d582392631235654f6000ebc72c7bdaf06"
        }
      ],
      "purl": "pkg:golang/github.com/containerd/continuity@v0.2.0",
      "externalReferences": [
        {
          "url": "https://github.com/containerd/continuity",
          "type": "vcs"
        }
      ]
    },
    {
      "type": "library",
      "bom-ref": "pkg:golang/github.com/containerd/fifo@v1.0.0",
      "name": "github.com/containerd/fifo",
      "version": "v1.0.0",
      "scope": "required",
      "hashes": [
        {
          "alg": "SHA-256",
          "content": "e8f8ab581afdfcbec60da98aafe5ccd08794157bb999fdccfc13e91fd81a2c15"
        }
      ],
      "purl": "pkg:golang/github.com/containerd/fifo@v1.0.0",
      "externalReferences": [
        {
          "url": "https://github.com/containerd/fifo",
          "type": "vcs"
        }
      ]
    },
    {
      "type": "library",
      "bom-ref": "pkg:golang/github.com/containerd/ttrpc@v1.0.2",
      "name": "github.com/containerd/ttrpc",
      "version": "v1.0.2",
      "scope": "required",
      "hashes": [
        {
          "alg": "SHA-256",
          "content": "dbf3b7a1364ddfaab6c51a259346b65961a087bfd57ff96212583984560b5fd5"
        }
      ],
      "purl": "pkg:golang/github.com/containerd/ttrpc@v1.0.2",
      "externalReferences": [
        {
          "url": "https://github.com/containerd/ttrpc",
          "type": "vcs"
        }
      ]
    },
    {
      "type": "library",
      "bom-ref": "pkg:golang/github.com/containerd/typeurl@v1.0.2",
      "name": "github.com/containerd/typeurl",
      "version": "v1.0.2",
      "scope": "required",
      "hashes": [
        {
          "alg": "SHA-256",
          "content": "0a196df332227836f3405cd7cc0781105f762a1131b84e29f69f76fd0998eda6"
        }
      ],
      "purl": "pkg:golang/github.com/containerd/typeurl@v1.0.2",
      "externalReferences": [
        {
          "url": "https://github.com/containerd/typeurl",
          "type": "vcs"
        }
      ]
    },
    {
      "type": "library",
      "bom-ref": "pkg:golang/github.com/disintegration/imaging@v1.6.2",
      "name": "github.com/disintegration/imaging",
      "version": "v1.6.2",
      "scope": "required",
      "hashes": [
        {
          "alg": "SHA-256",
          "content": "c352de701946d8b9e9f01de3939cd2b8da9dedbe035e1723c1e9357a2f362fe7"
        }
      ],
      "purl": "pkg:golang/github.com/disintegration/imaging@v1.6.2",
      "externalReferences": [
        {
          "url": "https://github.com/disintegration/imaging",
          "type": "vcs"
        }
      ]
    },
    {
      "type": "library",
      "bom-ref": "pkg:golang/github.com/docker/distribution@v2.8.0",
      "name": "github.com/docker/distribution",
      "version": "v2.8.0",
      "scope": "required",
      "hashes": [
        {
          "alg": "SHA-256",
          "content": "16bb4d5ae5bf5adcb99ec73e6b14e3a0bb260e4be66c7ff78e6770daf3db2639"
        }
      ],
      "purl": "pkg:golang/github.com/docker/distribution@v2.8.0",
      "externalReferences": [
        {
          "url": "https://github.com/docker/distribution",
          "type": "vcs"
        }
      ]
    },
    {
      "type": "library",
      "bom-ref": "pkg:golang/github.com/docker/docker@v20.10.7",
      "name": "github.com/docker/docker",
      "version": "v20.10.7",
      "scope": "required",
      "hashes": [
        {
          "alg": "SHA-256",
          "content": "68c31c9fe3f2f4acb394eebf26bd80be0191700fd94fabcdbe104c2bd639f35b"
        }
      ],
      "purl": "pkg:golang/github.com/docker/docker@v20.10.7",
      "externalReferences": [
        {
          "url": "https://github.com/docker/docker",
          "type": "vcs"
        }
      ]
    },
    {
      "type": "library",
      "bom-ref": "pkg:golang/github.com/docker/go-connections@v0.4.0",
      "name": "github.com/docker/go-connections",
      "version": "v0.4.0",
      "scope": "required",
      "hashes": [
        {
          "alg": "SHA-256",
          "content": "125f7154849e95107b06e16eb2b668ce39e420ce589f309588d2a884016a4494"
        }
      ],
      "purl": "pkg:golang/github.com/docker/go-connections@v0.4.0",
      "externalReferences": [
        {
          "url": "https://github.com/docker/go-connections",
          "type": "vcs"
        }
      ]
    },
    {
      "type": "library",
      "bom-ref": "pkg:golang/github.com/docker/go-events@v0.0.0-20190806004212-e31b211e4f1c",
      "name": "github.com/docker/go-events",
      "version": "v0.0.0-20190806004212-e31b211e4f1c",
      "scope": "required",
      "hashes": [
        {
          "alg": "SHA-256",
          "content": "fa92a5586330ee07fa6d0fa80d9078287405ca9b1f8d896afc2e2b7cbec3de0f"
        }
      ],
      "purl": "pkg:golang/github.com/docker/go-events@v0.0.0-20190806004212-e31b211e4f1c",
      "externalReferences": [
        {
          "url": "https://github.com/docker/go-events",
          "type": "vcs"
        }
      ]
    },
    {
      "type": "library",
      "bom-ref": "pkg:golang/github.com/docker/go-units@v0.4.0",
      "name": "github.com/docker/go-units",
      "version": "v0.4.0",
      "scope": "required",
      "hashes": [
        {
          "alg": "SHA-256",
          "content": "dee8743e0570b379c803443e3300c2f328c43dff738d17d96565d960372ddd3c"
        }
      ],
      "purl": "pkg:golang/github.com/docker/go-units@v0.4.0",
      "externalReferences": [
        {
          "url": "https://github.com/docker/go-units",
          "type": "vcs"
        }
      ]
    },
    {
      "type": "library",
      "bom-ref": "pkg:golang/github.com/dsoprea/go-exif/v3@v3.0.0-20210625224831-a6301f85c82b",
      "name": "github.com/dsoprea/go-exif/v3",
      "version": "v3.0.0-20210625224831-a6301f85c82b",
      "scope": "required",
      "hashes": [
        {
          "alg": "SHA-256",
          "content": "36036e2ef5bf80014a537d142d65b482d902b79e897c1ec5ad9db3ca8d304fc2"
        }
      ],
      "purl": "pkg:golang/github.com/dsoprea/go-exif/v3@v3.0.0-20210625224831-a6301f85c82b",
      "externalReferences": [
        {
          "url": "https://github.com/dsoprea/go-exif",
          "type": "vcs"
        }
      ]
    },
    {
      "type": "library",
      "bom-ref": "pkg:golang/github.com/dsoprea/go-logging@v0.0.0-20200710184922-b02d349568dd",
      "name": "github.com/dsoprea/go-logging",
      "version": "v0.0.0-20200710184922-b02d349568dd",
      "scope": "required",
      "hashes": [
        {
          "alg": "SHA-256",
          "content": "97ebcb6eec69b6c0ba550c90b1f0fb367102f0166e169cf8e4f818fa91fc6138"
        }
      ],
      "purl": "pkg:golang/github.com/dsoprea/go-logging@v0.0.0-20200710184922-b02d349568dd",
      "externalReferences": [
        {
          "url": "https://github.com/dsoprea/go-logging",
          "type": "vcs"
        }
      ]
    },
    {
      "type": "library",
      "bom-ref": "pkg:golang/github.com/dsoprea/go-utility/v2@v2.0.0-20200717064901-2fccff4aa15e",
      "name": "github.com/dsoprea/go-utility/v2",
      "version": "v2.0.0-20200717064901-2fccff4aa15e",
      "scope": "required",
      "hashes": [
        {
          "alg": "SHA-256",
          "content": "23121b03b55b08daf0ba62188c3a0c39d7f828e4a4302e8d244e2cf2845b13b1"
        }
      ],
      "purl": "pkg:golang/github.com/dsoprea/go-utility/v2@v2.0.0-20200717064901-2fccff4aa15e",
      "externalReferences": [
        {
          "url": "https://github.com/dsoprea/go-utility",
          "type": "vcs"
        }
      ]
    },
    {
      "type": "library",
      "bom-ref": "pkg:golang/github.com/forease/gotld@v0.0.0-20190808124948-c50ff635576b",
      "name": "github.com/forease/gotld",
      "version": "v0.0.0-20190808124948-c50ff635576b",
      "scope": "required",
      "hashes": [
        {
          "alg": "SHA-256",
          "content": "af5dccbed153b67bf1b6e28aef3d19490d847cc993cd60c7c1f0ef182a2a5101"
        }
      ],
      "purl": "pkg:golang/github.com/forease/gotld@v0.0.0-20190808124948-c50ff635576b",
      "externalReferences": [
        {
          "url": "https://github.com/forease/gotld",
          "type": "vcs"
        }
      ]
    },
    {
      "type": "library",
      "bom-ref": "pkg:golang/github.com/fsnotify/fsnotify@v1.4.9",
      "name": "github.com/fsnotify/fsnotify",
      "version": "v1.4.9",
      "scope": "required",
      "hashes": [
        {
          "alg": "SHA-256",
          "content": "86c9acd50caed23827c0d5c8c5afbf57f3c3b14e827cb7fa08d3bc1fb216a12e"
        }
      ],
      "purl": "pkg:golang/github.com/fsnotify/fsnotify@v1.4.9",
      "externalReferences": [
        {
          "url": "https://github.com/fsnotify/fsnotify",
          "type": "vcs"
        }
      ]
    },
    {
      "type": "library",
      "bom-ref": "pkg:golang/github.com/gin-contrib/gzip@v0.0.2",
      "name": "github.com/gin-contrib/gzip",
      "version": "v0.0.2",
      "scope": "required",
      "hashes": [
        {
          "alg": "SHA-256",
          "content": "54c064778641d4797b7b594e03980467fa9d0f777dbcb22ae7bc4a5a03c2095f"
        }
      ],
      "purl": "pkg:golang/github.com/gin-contrib/gzip@v0.0.2",
      "externalReferences": [
        {
          "url": "https://github.com/gin-contrib/gzip",
          "type": "vcs"
        }
      ]
    },
    {
      "type": "library",
      "bom-ref": "pkg:golang/github.com/gin-contrib/sse@v0.1.0",
      "name": "github.com/gin-contrib/sse",
      "version": "v0.1.0",
      "scope": "required",
      "hashes": [
        {
          "alg": "SHA-256",
          "content": "63fca5ffe60d3bc1994a30218ccb12b8bb76f6e5911477476146f9958395f6a1"
        }
      ],
      "purl": "pkg:golang/github.com/gin-contrib/sse@v0.1.0",
      "externalReferences": [
        {
          "url": "https://github.com/gin-contrib/sse",
          "type": "vcs"
        }
      ]
    },
    {
      "type": "library",
      "bom-ref": "pkg:golang/github.com/gin-gonic/gin@v1.7.2",
      "name": "github.com/gin-gonic/gin",
      "version": "v1.7.2",
      "scope": "required",
      "hashes": [
        {
          "alg": "SHA-256",
          "content": "4e0d374fdc8cdb16bc8fa237677a2a2da4114a62afc4f77a83fd8727acc80850"
        }
      ],
      "purl": "pkg:golang/github.com/gin-gonic/gin@v1.7.2",
      "externalReferences": [
        {
          "url": "https://github.com/gin-gonic/gin",
          "type": "vcs"
        }
      ]
    },
    {
      "type": "library",
      "bom-ref": "pkg:golang/github.com/go-errors/errors@v1.1.1",
      "name": "github.com/go-errors/errors",
      "version": "v1.1.1",
      "scope": "required",
      "hashes": [
        {
          "alg": "SHA-256",
          "content": "9632bfa4be65b60deaa0df8eb4deb20aff475927ccc314b1f7418909943160d8"
        }
      ],
      "purl": "pkg:golang/github.com/go-errors/errors@v1.1.1",
      "externalReferences": [
        {
          "url": "https://github.com/go-errors/errors",
          "type": "vcs"
        }
      ]
    },
    {
      "type": "library",
      "bom-ref": "pkg:golang/github.com/go-ini/ini@v1.62.0",
      "name": "github.com/go-ini/ini",
      "version": "v1.62.0",
      "scope": "required",
      "hashes": [
        {
          "alg": "SHA-256",
          "content": "ed5253fd95e3cea4abbedada169e0e36af3485371142d87573d667437b8d42f5"
        }
      ],
      "purl": "pkg:golang/github.com/go-ini/ini@v1.62.0",
      "externalReferences": [
        {
          "url": "https://github.com/go-ini/ini",
          "type": "vcs"
        }
      ]
    },
    {
      "type": "library",
      "bom-ref": "pkg:golang/github.com/go-ole/go-ole@v1.2.5",
      "name": "github.com/go-ole/go-ole",
      "version": "v1.2.5",
      "scope": "required",
      "hashes": [
        {
          "alg": "SHA-256",
          "content": "b78306079c440d9bd723ed2b3238ec7c1b03ef2020a7fb3d64390bd499dd5f06"
        }
      ],
      "purl": "pkg:golang/github.com/go-ole/go-ole@v1.2.5",
      "externalReferences": [
        {
          "url": "https://github.com/go-ole/go-ole",
          "type": "vcs"
        }
      ]
    },
    {
      "type": "library",
      "bom-ref": "pkg:golang/github.com/go-openapi/jsonpointer@v0.19.5",
      "name": "github.com/go-openapi/jsonpointer",
      "version": "v0.19.5",
      "scope": "required",
      "hashes": [
        {
          "alg": "SHA-256",
          "content": "819afe088601c94aa372078b5e742eda01d8402f68ef71b65d478e1581080ae6"
        }
      ],
      "purl": "pkg:golang/github.com/go-openapi/jsonpointer@v0.19.5",
      "externalReferences": [
        {
          "url": "https://github.com/go-openapi/jsonpointer",
          "type": "vcs"
        }
      ]
    },
    {
      "type": "library",
      "bom-ref": "pkg:golang/github.com/go-openapi/jsonreference@v0.19.6",
      "name": "github.com/go-openapi/jsonreference",
      "version": "v0.19.6",
      "scope": "required",
      "hashes": [
        {
          "alg": "SHA-256",
          "content": "5012318e486df80588818cc20d2bf618df84feda207f05d42454535a1976263b"
        }
      ],
      "purl": "pkg:golang/github.com/go-openapi/jsonreference@v0.19.6",
      "externalReferences": [
        {
          "url": "https://github.com/go-openapi/jsonreference",
          "type": "vcs"
        }
      ]
    },
    {
      "type": "library",
      "bom-ref": "pkg:golang/github.com/go-openapi/spec@v0.20.4",
      "name": "github.com/go-openapi/spec",
      "version": "v0.20.4",
      "scope": "required",
      "hashes": [
        {
          "alg": "SHA-256",
          "content": "3bc849aedd14327847725ba121d52008b456c8cdb1ed09015d1bceb3b9be3b53"
        }
      ],
      "purl": "pkg:golang/github.com/go-openapi/spec@v0.20.4",
      "externalReferences": [
        {
          "url": "https://github.com/go-openapi/spec",
          "type": "vcs"
        }
      ]
    },
    {
      "type": "library",
      "bom-ref": "pkg:golang/github.com/go-openapi/swag@v0.19.15",
      "name": "github.com/go-openapi/swag",
      "version": "v0.19.15",
      "scope": "required",
      "hashes": [
        {
          "alg": "SHA-256",
          "content": "0f6351081cd2f7fa4463780ff4d97c683a8651c3c5af01b6a7e08d16b2f2ac23"
        }
      ],
      "purl": "pkg:golang/github.com/go-openapi/swag@v0.19.15",
      "externalReferences": [
        {
          "url": "https://github.com/go-openapi/swag",
          "type": "vcs"
        }
      ]
    },
    {
      "type": "library",
      "bom-ref": "pkg:golang/github.com/go-playground/locales@v0.13.0",
      "name": "github.com/go-playground/locales",
      "version": "v0.13.0",
      "scope": "required",
      "hashes": [
        {
          "alg": "SHA-256",
          "content": "1f25a4ea6823e6a16a093e5f8c606e440adb5437c4e218bcf9ef1c7814bfb7b4"
        }
      ],
      "purl": "pkg:golang/github.com/go-playground/locales@v0.13.0",
      "externalReferences": [
        {
          "url": "https://github.com/go-playground/locales",
          "type": "vcs"
        }
      ]
    },
    {
      "type": "library",
      "bom-ref": "pkg:golang/github.com/go-playground/universal-translator@v0.17.0",
      "name": "github.com/go-playground/universal-translator",
      "version": "v0.17.0",
      "scope": "required",
      "hashes": [
        {
          "alg": "SHA-256",
          "content": "89cc5de5f9be444273a59c7b65fa5a0fcefa2e6b60cbb56d44e01b1c75e4f27a"
        }
      ],
      "purl": "pkg:golang/github.com/go-playground/universal-translator@v0.17.0",
      "externalReferences": [
        {
          "url": "https://github.com/go-playground/universal-translator",
          "type": "vcs"
        }
      ]
    },
    {
      "type": "library",
      "bom-ref": "pkg:golang/github.com/go-playground/validator/v10@v10.6.1",
      "name": "github.com/go-playground/validator/v10",
      "version": "v10.6.1",
      "scope": "required",
      "hashes": [
        {
          "alg": "SHA-256",
          "content": "5ba4d10d7b7859c5a9e1ce277ff1bee81906761888a34938d7b81fafe57abb82"
        }
      ],
      "purl": "pkg:golang/github.com/go-playground/validator/v10@v10.6.1",
      "externalReferences": [
        {
          "url": "https://github.com/go-playground/validator",
          "type": "vcs"
        }
      ]
    },
    {
      "type": "library",
      "bom-ref": "pkg:golang/github.com/go-task/slim-sprig@v0.0.0-20210107165309-348f09dbbbc0",
      "name": "github.com/go-task/slim-sprig",
      "version": "v0.0.0-20210107165309-348f09dbbbc0",
      "scope": "required",
      "hashes": [
        {
          "alg": "SHA-256",
          "content": "a75d38927e3a43c59dbc7ba7209f5d0328cf56dac13e14abdca4f6c94b2de372"
        }
      ],
      "purl": "pkg:golang/github.com/go-task/slim-sprig@v0.0.0-20210107165309-348f09dbbbc0",
      "externalReferences": [
        {
          "url": "https://github.com/go-task/slim-sprig",
          "type": "vcs"
        }
      ]
    },
    {
      "type": "library",
      "bom-ref": "pkg:golang/github.com/gogo/googleapis@v1.4.1",
      "name": "github.com/gogo/googleapis",
      "version": "v1.4.1",
      "scope": "required",
      "hashes": [
        {
          "alg": "SHA-256",
          "content": "d58c78332b7b071cef52be6574649bc188991bab7dc06059fbcfdf5f75afb6ad"
        }
      ],
      "purl": "pkg:golang/github.com/gogo/googleapis@v1.4.1",
      "externalReferences": [
        {
          "url": "https://github.com/gogo/googleapis",
          "type": "vcs"
        }
      ]
    },
    {
      "type": "library",
      "bom-ref": "pkg:golang/github.com/gogo/protobuf@v1.3.2",
      "name": "github.com/gogo/protobuf",
      "version": "v1.3.2",
      "scope": "required",
      "hashes": [
        {
          "alg": "SHA-256",
          "content": "3afd5cbdce7c505ddbe578c19d9bfbfa8a5c4dc40565e6d88d6ce2df8bdd9b84"
        }
      ],
      "purl": "pkg:golang/github.com/gogo/protobuf@v1.3.2",
      "externalReferences": [
        {
          "url": "https://github.com/gogo/protobuf",
          "type": "vcs"
        }
      ]
    },
    {
      "type": "library",
      "bom-ref": "pkg:golang/github.com/golang-jwt/jwt@v3.2.2",
      "name": "github.com/golang-jwt/jwt",
      "version": "v3.2.2",
      "scope": "required",
      "hashes": [
        {
          "alg": "SHA-256",
          "content": "fda7abe741c226e9192f3eb29525fc969a3a69dee4146379313a0fe21c0affbf"
        }
      ],
      "purl": "pkg:golang/github.com/golang-jwt/jwt@v3.2.2",
      "externalReferences": [
        {
          "url": "https://github.com/golang-jwt/jwt",
          "type": "vcs"
        }
      ]
    },
    {
      "type": "library",
      "bom-ref": "pkg:golang/github.com/golang/geo@v0.0.0-20200319012246-673a6f80352d",
      "name": "github.com/golang/geo",
      "version": "v0.0.0-20200319012246-673a6f80352d",
      "scope": "required",
      "hashes": [
        {
          "alg": "SHA-256",
          "content": "0bf84a51c1d3e3cddbb516de1a4ad18c9cfe65b723f1ab9d95d222f6d4490c27"
        }
      ],
      "purl": "pkg:golang/github.com/golang/geo@v0.0.0-20200319012246-673a6f80352d",
      "externalReferences": [
        {
          "url": "https://github.com/golang/geo",
          "type": "vcs"
        }
      ]
    },
    {
      "type": "library",
      "bom-ref": "pkg:golang/github.com/golang/groupcache@v0.0.0-20210331224755-41bb18bfe9da",
      "name": "github.com/golang/groupcache",
      "version": "v0.0.0-20210331224755-41bb18bfe9da",
      "scope": "required",
      "hashes": [
        {
          "alg": "SHA-256",
          "content": "a08e710aab02a39eb897c88d53e0f00797a9c66b1aa81fab8462f49b98ed62a1"
        }
      ],
      "purl": "pkg:golang/github.com/golang/groupcache@v0.0.0-20210331224755-41bb18bfe9da",
      "externalReferences": [
        {
          "url": "https://github.com/golang/groupcache",
          "type": "vcs"
        }
      ]
    },
    {
      "type": "library",
      "bom-ref": "pkg:golang/github.com/golang/protobuf@v1.5.2",
      "name": "github.com/golang/protobuf",
      "version": "v1.5.2",
      "scope": "required",
      "hashes": [
        {
          "alg": "SHA-256",
          "content": "44e3ca04d15f4203943227c7c8ff8a61bbe98db76814db3e68aec35e58e2d13c"
        }
      ],
      "purl": "pkg:golang/github.com/golang/protobuf@v1.5.2",
      "externalReferences": [
        {
          "url": "https://github.com/golang/protobuf",
          "type": "vcs"
        }
      ]
    },
    {
      "type": "library",
      "bom-ref": "pkg:golang/github.com/gomodule/redigo@v1.8.5",
      "name": "github.com/gomodule/redigo",
      "version": "v1.8.5",
      "scope": "required",
      "hashes": [
        {
          "alg": "SHA-256",
          "content": "9d103109af9256cca3481aed6661bf72a6fa55b4e6b91ce983f3e84c5969ba67"
        }
      ],
      "purl": "pkg:golang/github.com/gomodule/redigo@v1.8.5",
      "externalReferences": [
        {
          "url": "https://github.com/gomodule/redigo",
          "type": "vcs"
        }
      ]
    },
    {
      "type": "library",
      "bom-ref": "pkg:golang/github.com/google/go-github/v36@v36.0.0",
      "name": "github.com/google/go-github/v36",
      "version": "v36.0.0",
      "scope": "required",
      "hashes": [
        {
          "alg": "SHA-256",
          "content": "9dd0b333ad7afe88a3c2e7c8ee70516bee5e6472e5753fb8c8807af226f9a20b"
        }
      ],
      "purl": "pkg:golang/github.com/google/go-github/v36@v36.0.0",
      "externalReferences": [
        {
          "url": "https://github.com/google/go-github",
          "type": "vcs"
        }
      ]
    },
    {
      "type": "library",
      "bom-ref": "pkg:golang/github.com/google/go-querystring@v1.0.0",
      "name": "github.com/google/go-querystring",
      "version": "v1.0.0",
      "scope": "required",
      "hashes": [
        {
          "alg": "SHA-256",
          "content": "5e4c22fdad6b72f360d4f3d87b9bc8f066de058fe3ad5b835f9012b803564eb9"
        }
      ],
      "purl": "pkg:golang/github.com/google/go-querystring@v1.0.0",
      "externalReferences": [
        {
          "url": "https://github.com/google/go-querystring",
          "type": "vcs"
        }
      ]
    },
    {
      "type": "library",
      "bom-ref": "pkg:golang/github.com/google/uuid@v1.3.0",
      "name": "github.com/google/uuid",
      "version": "v1.3.0",
      "scope": "required",
      "hashes": [
        {
          "alg": "SHA-256",
          "content": "b7a2625e09b05cc8c4b3c56eb172099360571ec9fec31f0165d4daa19e5fbbb2"
        }
      ],
      "purl": "pkg:golang/github.com/google/uuid@v1.3.0",
      "externalReferences": [
        {
          "url": "https://github.com/google/uuid",
          "type": "vcs"
        }
      ]
    },
    {
      "type": "library",
      "bom-ref": "pkg:golang/github.com/gorilla/websocket@v1.4.2",
      "name": "github.com/gorilla/websocket",
      "version": "v1.4.2",
      "scope": "required",
      "hashes": [
        {
          "alg": "SHA-256",
          "content": "fbf4cc69361ce10162b4a271b10ed8c9edf90e45af91d2dcbc62aa33ec7451f7"
        }
      ],
      "purl": "pkg:golang/github.com/gorilla/websocket@v1.4.2",
      "externalReferences": [
        {
          "url": "https://github.com/gorilla/websocket",
          "type": "vcs"
        }
      ]
    },
    {
      "type": "library",
      "bom-ref": "pkg:golang/github.com/jinzhu/copier@v0.3.2",
      "name": "github.com/jinzhu/copier",
      "version": "v0.3.2",
      "scope": "required",
      "hashes": [
        {
          "alg": "SHA-256",
          "content": "41d04e09b6a8b8b0d86883c57e2d5b2afe45e6d3e9793c177b8b03d23aadcf9c"
        }
      ],
      "purl": "pkg:golang/github.com/jinzhu/copier@v0.3.2",
      "externalReferences": [
        {
          "url": "https://github.com/jinzhu/copier",
          "type": "vcs"
        }
      ]
    },
    {
      "type": "library",
      "bom-ref": "pkg:golang/github.com/jinzhu/inflection@v1.0.0",
      "name": "github.com/jinzhu/inflection",
      "version": "v1.0.0",
      "scope": "required",
      "hashes": [
        {
          "alg": "SHA-256",
          "content": "2b7d7b16acee85673c62f4959453020946f7e8efd2f4c08a44323b42444a0ff1"
        }
      ],
      "purl": "pkg:golang/github.com/jinzhu/inflection@v1.0.0",
      "externalReferences": [
        {
          "url": "https://github.com/jinzhu/inflection",
          "type": "vcs"
        }
      ]
    },
    {
      "type": "library",
      "bom-ref": "pkg:golang/github.com/jinzhu/now@v1.1.4",
      "name": "github.com/jinzhu/now",
      "version": "v1.1.4",
      "scope": "required",
      "hashes": [
        {
          "alg": "SHA-256",
          "content": "b479d1072d62e45d8387c040171a85cf12aaaaf7b35eb2f6396d539d7f8c95ab"
        }
      ],
      "purl": "pkg:golang/github.com/jinzhu/now@v1.1.4",
      "externalReferences": [
        {
          "url": "https://github.com/jinzhu/now",
          "type": "vcs"
        }
      ]
    },
    {
      "type": "library",
      "bom-ref": "pkg:golang/github.com/josharian/intern@v1.0.0",
      "name": "github.com/josharian/intern",
      "version": "v1.0.0",
      "scope": "required",
      "hashes": [
        {
          "alg": "SHA-256",
          "content": "be54b8cf9e2849d8e6d1b823462808f86d47a45fad23ef6b1392cbcce83c1e66"
        }
      ],
      "purl": "pkg:golang/github.com/josharian/intern@v1.0.0",
      "externalReferences": [
        {
          "url": "https://github.com/josharian/intern",
          "type": "vcs"
        }
      ]
    },
    {
      "type": "library",
      "bom-ref": "pkg:golang/github.com/json-iterator/go@v1.1.11",
      "name": "github.com/json-iterator/go",
      "version": "v1.1.11",
      "scope": "required",
      "hashes": [
        {
          "alg": "SHA-256",
          "content": "b955005e11764e8f1c6f0ff7c4dde9c63ea493b4d82acf7c348ad3a8f94c5804"
        }
      ],
      "purl": "pkg:golang/github.com/json-iterator/go@v1.1.11",
      "externalReferences": [
        {
          "url": "https://github.com/json-iterator/go",
          "type": "vcs"
        }
      ]
    },
    {
      "type": "library",
      "bom-ref": "pkg:golang/github.com/klauspost/compress@v1.13.6",
      "name": "github.com/klauspost/compress",
      "version": "v1.13.6",
      "scope": "required",
      "hashes": [
        {
          "alg": "SHA-256",
          "content": "3fbe82a292442d2d1388eda679b9a7ce059a6a3b2c3ff12cce996db604317207"
        }
      ],
      "purl": "pkg:golang/github.com/klauspost/compress@v1.13.6",
      "externalReferences": [
        {
          "url": "https://github.com/klauspost/compress",
          "type": "vcs"
        }
      ]
    },
    {
      "type": "library",
      "bom-ref": "pkg:golang/github.com/leodido/go-urn@v1.2.1",
      "name": "github.com/leodido/go-urn",
      "version": "v1.2.1",
      "scope": "required",
      "hashes": [
        {
          "alg": "SHA-256",
          "content": "06aa406800aecd54a08bf54bcc6648a1b4f6cf8bf9de98e8b3235df58bfa9ffc"
        }
      ],
      "purl": "pkg:golang/github.com/leodido/go-urn@v1.2.1",
      "externalReferences": [
        {
          "url": "https://github.com/leodido/go-urn",
          "type": "vcs"
        }
      ]
    },
    {
      "type": "library",
      "bom-ref": "pkg:golang/github.com/lucas-clemente/quic-go@v0.25.0",
      "name": "github.com/lucas-clemente/quic-go",
      "version": "v0.25.0",
      "scope": "required",
      "hashes": [
        {
          "alg": "SHA-256",
          "content": "2be5fd1af77b257b0e1ed53437689c676370debc7cdae05e8f798fe022e089b7"
        }
      ],
      "purl": "pkg:golang/github.com/lucas-clemente/quic-go@v0.25.0",
      "externalReferences": [
        {
          "url": "https://github.com/lucas-clemente/quic-go",
          "type": "vcs"
        }
      ]
    },
    {
      "type": "library",
      "bom-ref": "pkg:golang/github.com/mailru/easyjson@v0.7.7",
      "name": "github.com/mailru/easyjson",
      "version": "v0.7.7",
      "scope": "required",
      "hashes": [
        {
          "alg": "SHA-256",
          "content": "506600bcac5edec06c103ccef1979639294841f5859716f32d97bb87015446bd"
        }
      ],
      "purl": "pkg:golang/github.com/mailru/easyjson@v0.7.7",
      "externalReferences": [
        {
          "url": "https://github.com/mailru/easyjson",
          "type": "vcs"
        }
      ]
    },
    {
      "type": "library",
      "bom-ref": "pkg:golang/github.com/marten-seemann/qtls-go1-16@v0.1.4",
      "name": "github.com/marten-seemann/qtls-go1-16",
      "version": "v0.1.4",
      "scope": "required",
      "hashes": [
        {
          "alg": "SHA-256",
          "content": "c5b1db3861a1ade9d5b4823a0a8f1a9212c476b6b0c01da21e5e728494699dca"
        }
      ],
      "purl": "pkg:golang/github.com/marten-seemann/qtls-go1-16@v0.1.4",
      "externalReferences": [
        {
          "url": "https://github.com/marten-seemann/qtls-go1-16",
          "type": "vcs"
        }
      ]
    },
    {
      "type": "library",
      "bom-ref": "pkg:golang/github.com/marten-seemann/qtls-go1-17@v0.1.0",
      "name": "github.com/marten-seemann/qtls-go1-17",
      "version": "v0.1.0",
      "scope": "required",
      "hashes": [
        {
          "alg": "SHA-256",
          "content": "3fd820aece71b708aa5effc51cdc27b66b8b30dab729a4881bddc0b40678f319"
        }
      ],
      "purl": "pkg:golang/github.com/marten-seemann/qtls-go1-17@v0.1.0",
      "externalReferences": [
        {
          "url": "https://github.com/marten-seemann/qtls-go1-17",
          "type": "vcs"
        }
      ]
    },
    {
      "type": "library",
      "bom-ref": "pkg:golang/github.com/marten-seemann/qtls-go1-18@v0.1.0-beta.1",
      "name": "github.com/marten-seemann/qtls-go1-18",
      "version": "v0.1.0-beta.1",
      "scope": "required",
      "hashes": [
        {
          "alg": "SHA-256",
          "content": "127cf337d7cf52451c93fd42b98d4597305a218328881b1dc133663469305143"
        }
      ],
      "purl": "pkg:golang/github.com/marten-seemann/qtls-go1-18@v0.1.0-beta.1",
      "externalReferences": [
        {
          "url": "https://github.com/marten-seemann/qtls-go1-18",
          "type": "vcs"
        }
      ]
    },
    {
      "type": "library",
      "bom-ref": "pkg:golang/github.com/mattn/go-isatty@v0.0.14",
      "name": "github.com/mattn/go-isatty",
      "version": "v0.0.14",
      "scope": "required",
      "hashes": [
        {
          "alg": "SHA-256",
          "content": "c95b806b2b3a0477f18a38193f3c3edd996ee724202863f6fe17106c76fb4bd6"
        }
      ],
      "purl": "pkg:golang/github.com/mattn/go-isatty@v0.0.14",
      "externalReferences": [
        {
          "url": "https://github.com/mattn/go-isatty",
          "type": "vcs"
        }
      ]
    },
    {
      "type": "library",
      "bom-ref": "pkg:golang/github.com/mattn/go-sqlite3@v1.14.11",
      "name": "github.com/mattn/go-sqlite3",
      "version": "v1.14.11",
      "scope": "required",
      "hashes": [
        {
          "alg": "SHA-256",
          "content": "82df9ca7d7345c6a9ef52ff00074cbde7ffb32a63eb223d6816260a9db05af34"
        }
      ],
      "purl": "pkg:golang/github.com/mattn/go-sqlite3@v1.14.11",
      "externalReferences": [
        {
          "url": "https://github.com/mattn/go-sqlite3",
          "type": "vcs"
        }
      ]
    },
    {
      "type": "library",
      "bom-ref": "pkg:golang/github.com/moby/locker@v1.0.1",
      "name": "github.com/moby/locker",
      "version": "v1.0.1",
      "scope": "required",
      "hashes": [
        {
          "alg": "SHA-256",
          "content": "7ce5ea478d737af7a0e1f14e0e2c7ed428789a3fe04f4344d5725ba7f7a9b818"
        }
      ],
      "purl": "pkg:golang/github.com/moby/locker@v1.0.1",
      "externalReferences": [
        {
          "url": "https://github.com/moby/locker",
          "type": "vcs"
        }
      ]
    },
    {
      "type": "library",
      "bom-ref": "pkg:golang/github.com/moby/sys/mountinfo@v0.4.1",
      "name": "github.com/moby/sys/mountinfo",
      "version": "v0.4.1",
      "scope": "required",
      "hashes": [
        {
          "alg": "SHA-256",
          "content": "d4efb57070356ae8f0130c1531ad979b697e808a541f2777f83f9decb661d643"
        }
      ],
      "purl": "pkg:golang/github.com/moby/sys/mountinfo@v0.4.1",
      "externalReferences": [
        {
          "url": "https://github.com/moby/sys/mountinfo",
          "type": "vcs"
        }
      ]
    },
    {
      "type": "library",
      "bom-ref": "pkg:golang/github.com/modern-go/concurrent@v0.0.0-20180306012644-bacd9c7ef1dd",
      "name": "github.com/modern-go/concurrent",
      "version": "v0.0.0-20180306012644-bacd9c7ef1dd",
      "scope": "required",
      "hashes": [
        {
          "alg": "SHA-256",
          "content": "4d12da67d703ff0f0f561f779ec3d76b556b43a8e5c0be6837c975e1095c35f8"
        }
      ],
      "purl": "pkg:golang/github.com/modern-go/concurrent@v0.0.0-20180306012644-bacd9c7ef1dd",
      "externalReferences": [
        {
          "url": "https://github.com/modern-go/concurrent",
          "type": "vcs"
        }
      ]
    },
    {
      "type": "library",
      "bom-ref": "pkg:golang/github.com/modern-go/reflect2@v1.0.1",
      "name": "github.com/modern-go/reflect2",
      "version": "v1.0.1",
      "scope": "required",
      "hashes": [
        {
          "alg": "SHA-256",
          "content": "f5fe35dacfba4666172d665213355580f18aec2d8fa611e3e5126bbdfc7d0162"
        }
      ],
      "purl": "pkg:golang/github.com/modern-go/reflect2@v1.0.1",
      "externalReferences": [
        {
          "url": "https://github.com/modern-go/reflect2",
          "type": "vcs"
        }
      ]
    },
    {
      "type": "library",
      "bom-ref": "pkg:golang/github.com/nxadm/tail@v1.4.8",
      "name": "github.com/nxadm/tail",
      "version": "v1.4.8",
      "scope": "required",
      "hashes": [
        {
          "alg": "SHA-256",
          "content": "9cfafae6bb7a63924548a40eeea4e85ebee978f803e86c22c34e6591bc804131"
        }
      ],
      "purl": "pkg:golang/github.com/nxadm/tail@v1.4.8",
      "externalReferences": [
        {
          "url": "https://github.com/nxadm/tail",
          "type": "vcs"
        }
      ]
    },
    {
      "type": "library",
      "bom-ref": "pkg:golang/github.com/onsi/ginkgo@v1.16.4",
      "name": "github.com/onsi/ginkgo",
      "version": "v1.16.4",
      "scope": "required",
      "hashes": [
        {
          "alg": "SHA-256",
          "content": "dbd246aebe685419b9ba50967adebdcd09335a2a555c8a25eb281051efc4ccd7"
        }
      ],
      "purl": "pkg:golang/github.com/onsi/ginkgo@v1.16.4",
      "externalReferences": [
        {
          "url": "https://github.com/onsi/ginkgo",
          "type": "vcs"
        }
      ]
    },
    {
      "type": "library",
      "bom-ref": "pkg:golang/github.com/opencontainers/go-digest@v1.0.0",
      "name": "github.com/opencontainers/go-digest",
      "version": "v1.0.0",
      "scope": "required",
      "hashes": [
        {
          "alg": "SHA-256",
          "content": "6a93945ace755b93e586ec86cb3f4509e78120e50303fea75bc3a2ff23a18795"
        }
      ],
      "purl": "pkg:golang/github.com/opencontainers/go-digest@v1.0.0",
      "externalReferences": [
        {
          "url": "https://github.com/opencontainers/go-digest",
          "type": "vcs"
        }
      ]
    },
    {
      "type": "library",
      "bom-ref": "pkg:golang/github.com/opencontainers/image-spec@v1.0.2",
      "name": "github.com/opencontainers/image-spec",
      "version": "v1.0.2",
      "scope": "required",
      "hashes": [
        {
          "alg": "SHA-256",
          "content": "f7208a85afd3e57746b4ed2af50f5ae93e4d502b139ff0eb060d03eee7ce7053"
        }
      ],
      "purl": "pkg:golang/github.com/opencontainers/image-spec@v1.0.2",
      "externalReferences": [
        {
          "url": "https://github.com/opencontainers/image-spec",
          "type": "vcs"
        }
      ]
    },
    {
      "type": "library",
      "bom-ref": "pkg:golang/github.com/opencontainers/runc@v1.0.2",
      "name": "github.com/opencontainers/runc",
      "version": "v1.0.2",
      "scope": "required",
      "hashes": [
        {
          "alg": "SHA-256",
          "content": "a291d931ab30972c73d4eb86a41139dc3c1ee3fc45ec46536340362ff16908e8"
        }
      ],
      "purl": "pkg:golang/github.com/opencontainers/runc@v1.0.2",
      "externalReferences": [
        {
          "url": "https://github.com/opencontainers/runc",
          "type": "vcs"
        }
      ]
    },
    {
      "type": "library",
      "bom-ref": "pkg:golang/github.com/opencontainers/runtime-spec@v1.0.3-0.20210326190908-1c3f411f0417",
      "name": "github.com/opencontainers/runtime-spec",
      "version": "v1.0.3-0.20210326190908-1c3f411f0417",
      "scope": "required",
      "hashes": [
        {
          "alg": "SHA-256",
          "content": "dec9c6ebac819b9f6d2a18523d0ad0ff46c2aefd4b41b2ade342e750f894c5d7"
        }
      ],
      "purl": "pkg:golang/github.com/opencontainers/runtime-spec@v1.0.3-0.20210326190908-1c3f411f0417",
      "externalReferences": [
        {
          "url": "https://github.com/opencontainers/runtime-spec",
          "type": "vcs"
        }
      ]
    },
    {
      "type": "library",
      "bom-ref": "pkg:golang/github.com/opencontainers/selinux@v1.8.5",
      "name": "github.com/opencontainers/selinux",
      "version": "v1.8.5",
      "scope": "required",
      "hashes": [
        {
          "alg": "SHA-256",
          "content": "3a44fa6cc1ce43525040ee22863438f6c8f4fb07220dc8f3892553467f157930"
        }
      ],
      "purl": "pkg:golang/github.com/opencontainers/selinux@v1.8.5",
      "externalReferences": [
        {
          "url": "https://github.com/opencontainers/selinux",
          "type": "vcs"
        }
      ]
    },
    {
      "type": "library",
      "bom-ref": "pkg:golang/github.com/patrickmn/go-cache@v2.1.0",
      "name": "github.com/patrickmn/go-cache",
      "version": "v2.1.0",
      "scope": "required",
      "hashes": [
        {
          "alg": "SHA-256",
          "content": "21a155ccbd59658d9480f211b77d8fdbc828f72b3c9d1b14b24431bdb7511ed2"
        }
      ],
      "purl": "pkg:golang/github.com/patrickmn/go-cache@v2.1.0",
      "externalReferences": [
        {
          "url": "https://github.com/patrickmn/go-cache",
          "type": "vcs"
        }
      ]
    },
    {
      "type": "library",
      "bom-ref": "pkg:golang/github.com/pkg/errors@v0.9.1",
      "name": "github.com/pkg/errors",
      "version": "v0.9.1",
      "scope": "required",
      "hashes": [
        {
          "alg": "SHA-256",
          "content": "14404bc75cd2db5e28c298f2eeab017a2c5b51192e850030acae54c0b193c2de"
        }
      ],
      "purl": "pkg:golang/github.com/pkg/errors@v0.9.1",
      "externalReferences": [
        {
          "url": "https://github.com/pkg/errors",
          "type": "vcs"
        }
      ]
    },
    {
      "type": "library",
      "bom-ref": "pkg:golang/github.com/prestonTao/upnp@v0.0.0-20150206124352-f4370df5e109",
      "name": "github.com/prestonTao/upnp",
      "version": "v0.0.0-20150206124352-f4370df5e109",
      "scope": "required",
      "hashes": [
        {
          "alg": "SHA-256",
          "content": "87d59869309027b85aa7c0b9bd09e212e9b66196dcfa245a77f44e69f4e3cb5d"
        }
      ],
      "purl": "pkg:golang/github.com/prestonTao/upnp@v0.0.0-20150206124352-f4370df5e109",
      "externalReferences": [
        {
          "url": "https://github.com/prestonTao/upnp",
          "type": "vcs"
        }
      ]
    },
    {
      "type": "library",
      "bom-ref": "pkg:golang/github.com/robfig/cron@v1.2.0",
      "name": "github.com/robfig/cron",
      "version": "v1.2.0",
      "scope": "required",
      "hashes": [
        {
          "alg": "SHA-256",
          "content": "66349c5efbf1790eb70dbcb1cbbe858f7013dd4b7468ab32776fed9770d332e4"
        }
      ],
      "purl": "pkg:golang/github.com/robfig/cron@v1.2.0",
      "externalReferences": [
        {
          "url": "https://github.com/robfig/cron",
          "type": "vcs"
        }
      ]
    },
    {
      "type": "library",
      "bom-ref": "pkg:golang/github.com/satori/go.uuid@v1.2.0",
      "name": "github.com/satori/go.uuid",
      "version": "v1.2.0",
      "scope": "required",
      "hashes": [
        {
          "alg": "SHA-256",
          "content": "d2e617f5db19db20fbab646d2d1b4f49d1835b38de3374db3093fdbad800d30c"
        }
      ],
      "purl": "pkg:golang/github.com/satori/go.uuid@v1.2.0",
      "externalReferences": [
        {
          "url": "https://github.com/satori/go.uuid",
          "type": "vcs"
        }
      ]
    },
    {
      "type": "library",
      "bom-ref": "pkg:golang/github.com/shirou/gopsutil/v3@v3.21.5",
      "name": "github.com/shirou/gopsutil/v3",
      "version": "v3.21.5",
      "scope": "required",
      "hashes": [
        {
          "alg": "SHA-256",
          "content": "61405fd30fca3cb93bc35f34dc06019c7ec1980fb567f439304671a51114681e"
        }
      ],
      "purl": "pkg:golang/github.com/shirou/gopsutil/v3@v3.21.5",
      "externalReferences": [
        {
          "url": "https://github.com/shirou/gopsutil",
          "type": "vcs"
        }
      ]
    },
    {
      "type": "library",
      "bom-ref": "pkg:golang/github.com/sirupsen/logrus@v1.8.1",
      "name": "github.com/sirupsen/logrus",
      "version": "v1.8.1",
      "scope": "required",
      "hashes": [
        {
          "alg": "SHA-256",
          "content": "7492ae1e0aa4d4d35096aa00e814e533559ff43387dcd063432bb487df806591"
        }
      ],
      "purl": "pkg:golang/github.com/sirupsen/logrus@v1.8.1",
      "externalReferences": [
        {
          "url": "https://github.com/sirupsen/logrus",
          "type": "vcs"
        }
      ]
    },
    {
      "type": "library",
      "bom-ref": "pkg:golang/github.com/spf13/afero@v1.2.2",
      "name": "github.com/spf13/afero",
      "version": "v1.2.2",
      "scope": "required",
      "hashes": [
        {
          "alg": "SHA-256",
          "content": "e6386ea89c990997f6251a1f46f37f9c81602163733dadff573f266329606d67"
        }
      ],
      "purl": "pkg:golang/github.com/spf13/afero@v1.2.2",
      "externalReferences": [
        {
          "url": "https://github.com/spf13/afero",
          "type": "vcs"
        }
      ]
    },
    {
      "type": "library",
      "bom-ref": "pkg:golang/github.com/swaggo/gin-swagger@v1.3.0",
      "name": "github.com/swaggo/gin-swagger",
      "version": "v1.3.0",
      "scope": "required",
      "hashes": [
        {
          "alg": "SHA-256",
          "content": "78e9a9eebe7ba148193f0d9d24e8dc18d32c7bd72f5dc238b53a8172766d3ec2"
        }
      ],
      "purl": "pkg:golang/github.com/swaggo/gin-swagger@v1.3.0",
      "externalReferences": [
        {
          "url": "https://github.com/swaggo/gin-swagger",
          "type": "vcs"
        }
      ]
    },
    {
      "type": "library",
      "bom-ref": "pkg:golang/github.com/swaggo/swag@v1.7.3",
      "name": "github.com/swaggo/swag",
      "version": "v1.7.3",
      "scope": "required",
      "hashes": [
        {
          "alg": "SHA-256",
          "content": "b9c07b8ab11d46b863996f99d52b381a33baf283ca4058d280e47c04202f71b5"
        }
      ],
      "purl": "pkg:golang/github.com/swaggo/swag@v1.7.3",
      "externalReferences": [
        {
          "url": "https://github.com/swaggo/swag",
          "type": "vcs"
        }
      ]
    },
    {
      "type": "library",
      "bom-ref": "pkg:golang/github.com/tidwall/gjson@v1.10.2",
      "name": "github.com/tidwall/gjson",
      "version": "v1.10.2",
      "scope": "required",
      "hashes": [
        {
          "alg": "SHA-256",
          "content": "00f6cb18e334aeb12477c581c3d0b6e27965ae8e1a8c5b89bb449cf61473f01a"
        }
      ],
      "purl": "pkg:golang/github.com/tidwall/gjson@v1.10.2",
      "externalReferences": [
        {
          "url": "https://github.com/tidwall/gjson",
          "type": "vcs"
        }
      ]
    },
    {
      "type": "library",
      "bom-ref": "pkg:golang/github.com/tidwall/match@v1.1.1",
      "name": "github.com/tidwall/match",
      "version": "v1.1.1",
      "scope": "required",
      "hashes": [
        {
          "alg": "SHA-256",
          "content": "f87a3bd7926994edfa41883037d3c660d86066fa1449cf57d9cf342954e2f860"
        }
      ],
      "purl": "pkg:golang/github.com/tidwall/match@v1.1.1",
      "externalReferences": [
        {
          "url": "https://github.com/tidwall/match",
          "type": "vcs"
        }
      ]
    },
    {
      "type": "library",
      "bom-ref": "pkg:golang/github.com/tidwall/pretty@v1.2.0",
      "name": "github.com/tidwall/pretty",
      "version": "v1.2.0",
      "scope": "required",
      "hashes": [
        {
          "alg": "SHA-256",
          "content": "456219120da227cfe0e9f0c3633329a1b99aa0687938b978017b465063dca82b"
        }
      ],
      "purl": "pkg:golang/github.com/tidwall/pretty@v1.2.0",
      "externalReferences": [
        {
          "url": "https://github.com/tidwall/pretty",
          "type": "vcs"
        }
      ]
    },
    {
      "type": "library",
      "bom-ref": "pkg:golang/github.com/tklauser/go-sysconf@v0.3.6",
      "name": "github.com/tklauser/go-sysconf",
      "version": "v0.3.6",
      "scope": "required",
      "hashes": [
        {
          "alg": "SHA-256",
          "content": "a1cd6c256bca926bc8c610c778a5af652e1fe805be61ca20b927d1176fc79a8e"
        }
      ],
      "purl": "pkg:golang/github.com/tklauser/go-sysconf@v0.3.6",
      "externalReferences": [
        {
          "url": "https://github.com/tklauser/go-sysconf",
          "type": "vcs"
        }
      ]
    },
    {
      "type": "library",
      "bom-ref": "pkg:golang/github.com/tklauser/numcpus@v0.2.2",
      "name": "github.com/tklauser/numcpus",
      "version": "v0.2.2",
      "scope": "required",
      "hashes": [
        {
          "alg": "SHA-256",
          "content": "a32865972ad272e608ea0fa1ff352f357369d70cbbc7ca90cb7b7fa6279f95d0"
        }
      ],
      "purl": "pkg:golang/github.com/tklauser/numcpus@v0.2.2",
      "externalReferences": [
        {
          "url": "https://github.com/tklauser/numcpus",
          "type": "vcs"
        }
      ]
    },
    {
      "type": "library",
      "bom-ref": "pkg:golang/github.com/ugorji/go/codec@v1.2.6",
      "name": "github.com/ugorji/go/codec",
      "version": "v1.2.6",
      "scope": "required",
      "hashes": [
        {
          "alg": "SHA-256",
          "content": "ee46c679fc4ba0306e6173a6b38c83ef6db73a934c30f34f6715e4e53bc57324"
        }
      ],
      "purl": "pkg:golang/github.com/ugorji/go/codec@v1.2.6",
      "externalReferences": [
        {
          "url": "https://github.com/ugorji/go/codec",
          "type": "vcs"
        }
      ]
    },
    {
      "type": "library",
      "bom-ref": "pkg:golang/go.opencensus.io@v0.23.0",
      "name": "go.opencensus.io",
      "version": "v0.23.0",
      "scope": "required",
      "hashes": [
        {
          "alg": "SHA-256",
          "content": "82a0b0d0b7cbc52733f22ad28bc7b141cedfc90d1f29053faa70bf5fcf95ff53"
        }
      ],
      "purl": "pkg:golang/go.opencensus.io@v0.23.0"
    },
    {
      "type": "library",
      "bom-ref": "pkg:golang/golang.org/x/crypto@v0.0.0-20210817164053-32db794688a5",
      "name": "golang.org/x/crypto",
      "version": "v0.0.0-20210817164053-32db794688a5",
      "scope": "required",
      "hashes": [
        {
          "alg": "SHA-256",
          "content": "1d68ffc632077e3614e67557a53334b37f49f426cb9fb09ce5aec80b9af0b0c4"
        }
      ],
      "purl": "pkg:golang/golang.org/x/crypto@v0.0.0-20210817164053-32db794688a5"
    },
    {
      "type": "library",
      "bom-ref": "pkg:golang/golang.org/x/image@v0.0.0-20191009234506-e7c1f5e7dbb8",
      "name": "golang.org/x/image",
      "version": "v0.0.0-20191009234506-e7c1f5e7dbb8",
      "scope": "required",
      "hashes": [
        {
          "alg": "SHA-256",
          "content": "855c331f32141918e217b11c523a8dc64dcd09f90fc5b0ca45d9cd1354698345"
        }
      ],
      "purl": "pkg:golang/golang.org/x/image@v0.0.0-20191009234506-e7c1f5e7dbb8"
    },
    {
      "type": "library",
      "bom-ref": "pkg:golang/golang.org/x/mod@v0.5.0",
      "name": "golang.org/x/mod",
      "version": "v0.5.0",
      "scope": "required",
      "hashes": [
        {
          "alg": "SHA-256",
          "content": "506db5b8e96665a6c0e1f5b98bb657e9b8f0d7110b10683f64b819abd6ae93f4"
        }
      ],
      "purl": "pkg:golang/golang.org/x/mod@v0.5.0"
    },
    {
      "type": "library",
      "bom-ref": "pkg:golang/golang.org/x/net@v0.0.0-20211020060615-d418f374d309",
      "name": "golang.org/x/net",
      "version": "v0.0.0-20211020060615-d418f374d309",
      "scope": "required",
      "hashes": [
        {
          "alg": "SHA-256",
          "content": "034949222fa171347a69a8c91f862a296c28858e1a5bd44eee844c71dbfe1ca2"
        }
      ],
      "purl": "pkg:golang/golang.org/x/net@v0.0.0-20211020060615-d418f374d309"
    },
    {
      "type": "library",
      "bom-ref": "pkg:golang/golang.org/x/oauth2@v0.0.0-20210819190943-2bc19b11175f",
      "name": "golang.org/x/oauth2",
      "version": "v0.0.0-20210819190943-2bc19b11175f",
      "scope": "required",
      "hashes": [
        {
          "alg": "SHA-256",
          "content": "426776a5bcf4e73ef3ea59b40eb8105553ee066f768eaba304a30730e94e404c"
        }
      ],
      "purl": "pkg:golang/golang.org/x/oauth2@v0.0.0-20210819190943-2bc19b11175f"
    },
    {
      "type": "library",
      "bom-ref": "pkg:golang/golang.org/x/sync@v0.0.0-20210220032951-036812b2e83c",
      "name": "golang.org/x/sync",
      "version": "v0.0.0-20210220032951-036812b2e83c",
      "scope": "required",
      "hashes": [
        {
          "alg": "SHA-256",
          "content": "e4ab25198c05a6484687e435e9bc0c3f770ea27b47f0539ea7bb4657ce98ed24"
        }
      ],
      "purl": "pkg:golang/golang.org/x/sync@v0.0.0-20210220032951-036812b2e83c"
    },
    {
      "type": "library",
      "bom-ref": "pkg:golang/golang.org/x/sys@v0.0.0-20211020174200-9d6173849985",
      "name": "golang.org/x/sys",
      "version": "v0.0.0-20211020174200-9d6173849985",
      "scope": "required",
      "hashes": [
        {
          "alg": "SHA-256",
          "content": "2ce94a5617c3c9a8609aa6bdedac1cce9970923ccd6842c5837cd1209d77458a"
        }
      ],
      "purl": "pkg:golang/golang.org/x/sys@v0.0.0-20211020174200-9d6173849985"
    },
    {
      "type": "library",
      "bom-ref": "pkg:golang/golang.org/x/text@v0.3.7",
      "name": "golang.org/x/text",
      "version": "v0.3.7",
      "scope": "required",
      "hashes": [
        {
          "alg": "SHA-256",
          "content": "a25a70bcfd8a69c5b5656bec47bb90868c9362f280ba97d0ad118114cdf9d869"
        }
      ],
      "purl": "pkg:golang/golang.org/x/text@v0.3.7"
    },
    {
      "type": "library",
      "bom-ref": "pkg:golang/golang.org/x/tools@v0.1.7",
      "name": "golang.org/x/tools",
      "version": "v0.1.7",
      "scope": "required",
      "hashes": [
        {
          "alg": "SHA-256",
          "content": "ea3f0281a9ed0b2df273c24606a9032cc296a99d110d4da0d4756069ca231964"
        }
      ],
      "purl": "pkg:golang/golang.org/x/tools@v0.1.7"
    },
    {
      "type": "library",
      "bom-ref": "pkg:golang/golang.org/x/xerrors@v0.0.0-20200804184101-5ec99f83aff1",
      "name": "golang.org/x/xerrors",
      "version": "v0.0.0-20200804184101-5ec99f83aff1",
      "scope": "required",
      "hashes": [
        {
          "alg": "SHA-256",
          "content": "828d5b2bf0ff045655d88f1c21077534a119fb4a304931b57c34dc8b822a15c1"
        }
      ],
      "purl": "pkg:golang/golang.org/x/xerrors@v0.0.0-20200804184101-5ec99f83aff1"
    },
    {
      "type": "library",
      "bom-ref": "pkg:golang/google.golang.org/appengine@v1.6.7",
      "name": "google.golang.org/appengine",
      "version": "v1.6.7",
      "scope": "required",
      "hashes": [
        {
          "alg": "SHA-256",
          "content": "159475ab47b1830c733f3a7f685f9571c1ab49fc5f3e9901aa320812adebbba7"
        }
      ],
      "purl": "pkg:golang/google.golang.org/appengine@v1.6.7"
    },
    {
      "type": "library",
      "bom-ref": "pkg:golang/google.golang.org/genproto@v0.0.0-20210924002016-3dee208752a0",
      "name": "google.golang.org/genproto",
      "version": "v0.0.0-20210924002016-3dee208752a0",
      "scope": "required",
      "hashes": [
        {
          "alg": "SHA-256",
          "content": "e536e5bb3bacdd0c68009c7821e7c6b755b41d0656e27b8cad593af388c8ef84"
        }
      ],
      "purl": "pkg:golang/google.golang.org/genproto@v0.0.0-20210924002016-3dee208752a0"
    },
    {
      "type": "library",
      "bom-ref": "pkg:golang/google.golang.org/grpc@v1.41.0",
      "name": "google.golang.org/grpc",
      "version": "v1.41.0",
      "scope": "required",
      "hashes": [
        {
          "alg": "SHA-256",
          "content": "7fe3e53a1ed05788882643ebc79350eea68d185437393b1eebbc9a0c77e3bb81"
        }
      ],
      "purl": "pkg:golang/google.golang.org/grpc@v1.41.0"
    },
    {
      "type": "library",
      "bom-ref": "pkg:golang/google.golang.org/protobuf@v1.27.1",
      "name": "google.golang.org/protobuf",
      "version": "v1.27.1",
      "scope": "required",
      "hashes": [
        {
          "alg": "SHA-256",
          "content": "4a7a9b9c3c3557b46265c5cfc793047aa3efdacefd2fd8bb0495251bff91bab4"
        }
      ],
      "purl": "pkg:golang/google.golang.org/protobuf@v1.27.1"
    },
    {
      "type": "library",
      "bom-ref": "pkg:golang/gopkg.in/tomb.v1@v1.0.0-20141024135613-dd632973f1e7",
      "name": "gopkg.in/tomb.v1",
      "version": "v1.0.0-20141024135613-dd632973f1e7",
      "scope": "required",
      "hashes": [
        {
          "alg": "SHA-256",
          "content": "b9118975c88e1da108af37b65bc43700a91ea4b4e1da13aba13edafbb7337dd4"
        }
      ],
      "purl": "pkg:golang/gopkg.in/tomb.v1@v1.0.0-20141024135613-dd632973f1e7",
      "externalReferences": [
        {
          "url": "https://github.com/go-tomb/tomb",
          "type": "vcs"
        }
      ]
    },
    {
      "type": "library",
      "bom-ref": "pkg:golang/gopkg.in/yaml.v2@v2.4.0",
      "name": "gopkg.in/yaml.v2",
      "version": "v2.4.0",
      "scope": "required",
      "hashes": [
        {
          "alg": "SHA-256",
          "content": "0fcc60c04098ec262fc7e6369f8b01cfddc99fd251bf1762cb2a3c0937ee29a6"
        }
      ],
      "purl": "pkg:golang/gopkg.in/yaml.v2@v2.4.0",
      "externalReferences": [
        {
          "url": "https://github.com/go-yaml/yaml",
          "type": "vcs"
        }
      ]
    },
    {
      "type": "library",
      "bom-ref": "pkg:golang/gorm.io/driver/sqlite@v1.2.6",
      "name": "gorm.io/driver/sqlite",
      "version": "v1.2.6",
      "scope": "required",
      "hashes": [
        {
          "alg": "SHA-256",
          "content": "492b5a1ff6fedbcd0cec2f2f5de64bcffce8f5c2d09881b0c23ddc4a3ee9ea5e"
        }
      ],
      "purl": "pkg:golang/gorm.io/driver/sqlite@v1.2.6"
    },
    {
      "type": "library",
      "bom-ref": "pkg:golang/gorm.io/gorm@v1.22.5",
      "name": "gorm.io/gorm",
      "version": "v1.22.5",
      "scope": "required",
      "hashes": [
        {
          "alg": "SHA-256",
          "content": "958444060734d817bfe654824eecac6590dbe9f7cbdaaadab7a7e0f4215bbd75"
        }
      ],
      "purl": "pkg:golang/gorm.io/gorm@v1.22.5"
    },
    {
      "type": "library",
      "bom-ref": "pkg:golang/github.com/patrickmn/go-cache@v2.1.0+incompatible",
      "group": "github.com/patrickmn",
      "name": "go-cache",
      "version": "v2.1.0+incompatible",
      "description": "",
      "scope": "required",
      "hashes": [
        {
          "alg": "SHA-256",
          "content": "dd07fc916593ece25125b7622024caa998eed598b143f2a9306cf301f7baf964"
        }
      ],
      "purl": "pkg:golang/github.com/patrickmn/go-cache@v2.1.0+incompatible"
    },
    {
      "type": "library",
      "bom-ref": "pkg:golang/github.com/IceWhaleTech/CasaOS",
      "group": "github.com/IceWhaleTech",
      "name": "CasaOS",
      "version": "",
      "description": "",
      "scope": "required",
      "purl": "pkg:golang/github.com/IceWhaleTech/CasaOS"
    },
    {
      "type": "library",
      "bom-ref": "pkg:golang/github.com/docker/docker@v20.10.7+incompatible",
      "group": "github.com/docker",
      "name": "docker",
      "version": "v20.10.7+incompatible",
      "description": "",
      "scope": "optional",
      "hashes": [
        {
          "alg": "SHA-256",
          "content": "784281d0dd2be4d5ff235904bde133d396dcbbcb4b0bff1acc966cbe2ba9f129"
        }
      ],
      "purl": "pkg:golang/github.com/docker/docker@v20.10.7+incompatible"
    },
    {
      "type": "library",
      "bom-ref": "pkg:golang/github.com/docker/distribution@v2.8.0+incompatible",
      "group": "github.com/docker",
      "name": "distribution",
      "version": "v2.8.0+incompatible",
      "description": "",
      "scope": "optional",
      "hashes": [
        {
          "alg": "SHA-256",
          "content": "276813dae76c0c037de948f829f70c46a634ff2a51fa8c985189a36bc1fecbec"
        }
      ],
      "purl": "pkg:golang/github.com/docker/distribution@v2.8.0+incompatible"
    },
    {
      "type": "library",
      "bom-ref": "pkg:golang/github.com/golang-jwt/jwt@v3.2.2+incompatible",
      "group": "github.com/golang-jwt",
      "name": "jwt",
      "version": "v3.2.2+incompatible",
      "description": "",
      "scope": "required",
      "hashes": [
        {
          "alg": "SHA-256",
          "content": "f29cf6b7913203bd1f150412ae5e97657cea79c99865e50407c39418793127e2"
        }
      ],
      "purl": "pkg:golang/github.com/golang-jwt/jwt@v3.2.2+incompatible"
    }
  ],
  "dependencies": [
    {
      "ref": "pkg:golang/github.com/Curtis-Milo/nat-type-identifier-go@v0.0.0-20220215191915-18d42168c63d"
    },
    {
      "ref": "pkg:golang/github.com/KyleBanks/depth@v1.2.1"
    },
    {
      "ref": "pkg:golang/github.com/Microsoft/go-winio@v0.5.0",
      "dependsOn": [
        "pkg:golang/github.com/pkg/errors@v0.9.1",
        "pkg:golang/github.com/sirupsen/logrus@v1.8.1",
        "pkg:golang/golang.org/x/sys@v0.0.0-20211020174200-9d6173849985"
      ]
    },
    {
      "ref": "pkg:golang/github.com/Microsoft/hcsshim@v0.8.22",
      "dependsOn": [
        "pkg:golang/github.com/Microsoft/go-winio@v0.5.0",
        "pkg:golang/github.com/containerd/cgroups@v1.0.1",
        "pkg:golang/github.com/containerd/containerd@v1.5.7",
        "pkg:golang/github.com/containerd/continuity@v0.2.0",
        "pkg:golang/github.com/containerd/fifo@v1.0.0",
        "pkg:golang/github.com/containerd/ttrpc@v1.0.2",
        "pkg:golang/github.com/containerd/typeurl@v1.0.2",
        "pkg:golang/github.com/gogo/protobuf@v1.3.2",
        "pkg:golang/github.com/opencontainers/runtime-spec@v1.0.3-0.20210326190908-1c3f411f0417",
        "pkg:golang/github.com/pkg/errors@v0.9.1",
        "pkg:golang/github.com/sirupsen/logrus@v1.8.1",
        "pkg:golang/go.opencensus.io@v0.23.0",
        "pkg:golang/golang.org/x/sync@v0.0.0-20210220032951-036812b2e83c",
        "pkg:golang/golang.org/x/sys@v0.0.0-20211020174200-9d6173849985",
        "pkg:golang/google.golang.org/grpc@v1.41.0"
      ]
    },
    {
      "ref": "pkg:golang/github.com/PuerkitoBio/purell@v1.1.1"
    },
    {
      "ref": "pkg:golang/github.com/PuerkitoBio/urlesc@v0.0.0-20170810143723-de5bf2ad4578"
    },
    {
      "ref": "pkg:golang/github.com/StackExchange/wmi@v0.0.0-20210224194228-fe8f1750fd46"
    },
    {
      "ref": "pkg:golang/github.com/bits-and-blooms/bitset@v1.2.1"
    },
    {
      "ref": "pkg:golang/github.com/cheekybits/genny@v1.0.0"
    },
    {
      "ref": "pkg:golang/github.com/containerd/cgroups@v1.0.1",
      "dependsOn": [
        "pkg:golang/github.com/docker/go-units@v0.4.0",
        "pkg:golang/github.com/gogo/protobuf@v1.3.2",
        "pkg:golang/github.com/opencontainers/runtime-spec@v1.0.3-0.20210326190908-1c3f411f0417",
        "pkg:golang/github.com/pkg/errors@v0.9.1",
        "pkg:golang/github.com/sirupsen/logrus@v1.8.1",
        "pkg:golang/golang.org/x/sys@v0.0.0-20211020174200-9d6173849985"
      ]
    },
    {
      "ref": "pkg:golang/github.com/containerd/containerd@v1.5.7",
      "dependsOn": [
        "pkg:golang/github.com/Microsoft/go-winio@v0.5.0",
        "pkg:golang/github.com/Microsoft/hcsshim@v0.8.22",
        "pkg:golang/github.com/containerd/cgroups@v1.0.1",
        "pkg:golang/github.com/containerd/continuity@v0.2.0",
        "pkg:golang/github.com/containerd/fifo@v1.0.0",
        "pkg:golang/github.com/containerd/ttrpc@v1.0.2",
        "pkg:golang/github.com/containerd/typeurl@v1.0.2",
        "pkg:golang/github.com/docker/go-events@v0.0.0-20190806004212-e31b211e4f1c",
        "pkg:golang/github.com/docker/go-units@v0.4.0",
        "pkg:golang/github.com/fsnotify/fsnotify@v1.4.9",
        "pkg:golang/github.com/gogo/googleapis@v1.4.1",
        "pkg:golang/github.com/gogo/protobuf@v1.3.2",
        "pkg:golang/github.com/golang/protobuf@v1.5.2",
        "pkg:golang/github.com/google/uuid@v1.3.0",
        "pkg:golang/github.com/klauspost/compress@v1.13.6",
        "pkg:golang/github.com/moby/locker@v1.0.1",
        "pkg:golang/github.com/moby/sys/mountinfo@v0.4.1",
        "pkg:golang/github.com/opencontainers/go-digest@v1.0.0",
        "pkg:golang/github.com/opencontainers/image-spec@v1.0.2",
        "pkg:golang/github.com/opencontainers/runc@v1.0.2",
        "pkg:golang/github.com/opencontainers/runtime-spec@v1.0.3-0.20210326190908-1c3f411f0417",
        "pkg:golang/github.com/opencontainers/selinux@v1.8.5",
        "pkg:golang/github.com/pkg/errors@v0.9.1",
        "pkg:golang/github.com/satori/go.uuid@v1.2.0",
        "pkg:golang/github.com/sirupsen/logrus@v1.8.1",
        "pkg:golang/golang.org/x/net@v0.0.0-20211020060615-d418f374d309",
        "pkg:golang/golang.org/x/sync@v0.0.0-20210220032951-036812b2e83c",
        "pkg:golang/golang.org/x/sys@v0.0.0-20211020174200-9d6173849985",
        "pkg:golang/google.golang.org/grpc@v1.41.0"
      ]
    },
    {
      "ref": "pkg:golang/github.com/containerd/continuity@v0.2.0",
      "dependsOn": [
        "pkg:golang/github.com/golang/protobuf@v1.5.2",
        "pkg:golang/github.com/opencontainers/go-digest@v1.0.0",
        "pkg:golang/github.com/sirupsen/logrus@v1.8.1",
        "pkg:golang/golang.org/x/sync@v0.0.0-20210220032951-036812b2e83c",
        "pkg:golang/golang.org/x/sys@v0.0.0-20211020174200-9d6173849985"
      ]
    },
    {
      "ref": "pkg:golang/github.com/containerd/fifo@v1.0.0",
      "dependsOn": [
        "pkg:golang/github.com/pkg/errors@v0.9.1",
        "pkg:golang/golang.org/x/sys@v0.0.0-20211020174200-9d6173849985"
      ]
    },
    {
      "ref": "pkg:golang/github.com/containerd/ttrpc@v1.0.2",
      "dependsOn": [
        "pkg:golang/github.com/gogo/protobuf@v1.3.2",
        "pkg:golang/github.com/pkg/errors@v0.9.1",
        "pkg:golang/github.com/sirupsen/logrus@v1.8.1",
        "pkg:golang/golang.org/x/sys@v0.0.0-20211020174200-9d6173849985",
        "pkg:golang/google.golang.org/genproto@v0.0.0-20210924002016-3dee208752a0",
        "pkg:golang/google.golang.org/grpc@v1.41.0"
      ]
    },
    {
      "ref": "pkg:golang/github.com/containerd/typeurl@v1.0.2",
      "dependsOn": [
        "pkg:golang/github.com/gogo/protobuf@v1.3.2",
        "pkg:golang/github.com/pkg/errors@v0.9.1"
      ]
    },
    {
      "ref": "pkg:golang/github.com/disintegration/imaging@v1.6.2",
      "dependsOn": [
        "pkg:golang/golang.org/x/image@v0.0.0-20191009234506-e7c1f5e7dbb8"
      ]
    },
    {
      "ref": "pkg:golang/github.com/docker/distribution@v2.8.0"
    },
    {
      "ref": "pkg:golang/github.com/docker/docker@v20.10.7"
    },
    {
      "ref": "pkg:golang/github.com/docker/go-connections@v0.4.0"
    },
    {
      "ref": "pkg:golang/github.com/docker/go-events@v0.0.0-20190806004212-e31b211e4f1c"
    },
    {
      "ref": "pkg:golang/github.com/docker/go-units@v0.4.0"
    },
    {
      "ref": "pkg:golang/github.com/dsoprea/go-exif/v3@v3.0.0-20210625224831-a6301f85c82b",
      "dependsOn": [
        "pkg:golang/github.com/dsoprea/go-logging@v0.0.0-20200710184922-b02d349568dd",
        "pkg:golang/github.com/dsoprea/go-utility/v2@v2.0.0-20200717064901-2fccff4aa15e",
        "pkg:golang/github.com/golang/geo@v0.0.0-20200319012246-673a6f80352d",
        "pkg:golang/gopkg.in/yaml.v2@v2.4.0"
      ]
    },
    {
      "ref": "pkg:golang/github.com/dsoprea/go-logging@v0.0.0-20200710184922-b02d349568dd",
      "dependsOn": [
        "pkg:golang/github.com/go-errors/errors@v1.1.1",
        "pkg:golang/golang.org/x/net@v0.0.0-20211020060615-d418f374d309"
      ]
    },
    {
      "ref": "pkg:golang/github.com/dsoprea/go-utility/v2@v2.0.0-20200717064901-2fccff4aa15e",
      "dependsOn": [
        "pkg:golang/github.com/dsoprea/go-exif/v3@v3.0.0-20210625224831-a6301f85c82b",
        "pkg:golang/github.com/dsoprea/go-logging@v0.0.0-20200710184922-b02d349568dd",
        "pkg:golang/github.com/go-errors/errors@v1.1.1",
        "pkg:golang/github.com/golang/geo@v0.0.0-20200319012246-673a6f80352d"
      ]
    },
    {
      "ref": "pkg:golang/github.com/forease/gotld@v0.0.0-20190808124948-c50ff635576b"
    },
    {
      "ref": "pkg:golang/github.com/fsnotify/fsnotify@v1.4.9",
      "dependsOn": [
        "pkg:golang/golang.org/x/sys@v0.0.0-20211020174200-9d6173849985"
      ]
    },
    {
      "ref": "pkg:golang/github.com/gin-contrib/gzip@v0.0.2",
      "dependsOn": [
        "pkg:golang/github.com/gin-gonic/gin@v1.7.2"
      ]
    },
    {
      "ref": "pkg:golang/github.com/gin-contrib/sse@v0.1.0"
    },
    {
      "ref": "pkg:golang/github.com/gin-gonic/gin@v1.7.2",
      "dependsOn": [
        "pkg:golang/github.com/gin-contrib/sse@v0.1.0",
        "pkg:golang/github.com/go-playground/validator/v10@v10.6.1",
        "pkg:golang/github.com/golang/protobuf@v1.5.2",
        "pkg:golang/github.com/json-iterator/go@v1.1.11",
        "pkg:golang/github.com/mattn/go-isatty@v0.0.14",
        "pkg:golang/github.com/ugorji/go/codec@v1.2.6",
        "pkg:golang/gopkg.in/yaml.v2@v2.4.0"
      ]
    },
    {
      "ref": "pkg:golang/github.com/go-errors/errors@v1.1.1"
    },
    {
      "ref": "pkg:golang/github.com/go-ini/ini@v1.62.0"
    },
    {
      "ref": "pkg:golang/github.com/go-ole/go-ole@v1.2.5",
      "dependsOn": [
        "pkg:golang/golang.org/x/sys@v0.0.0-20211020174200-9d6173849985"
      ]
    },
    {
      "ref": "pkg:golang/github.com/go-openapi/jsonpointer@v0.19.5",
      "dependsOn": [
        "pkg:golang/github.com/go-openapi/swag@v0.19.15",
        "pkg:golang/github.com/mailru/easyjson@v0.7.7"
      ]
    },
    {
      "ref": "pkg:golang/github.com/go-openapi/jsonreference@v0.19.6",
      "dependsOn": [
        "pkg:golang/github.com/PuerkitoBio/purell@v1.1.1",
        "pkg:golang/github.com/PuerkitoBio/urlesc@v0.0.0-20170810143723-de5bf2ad4578",
        "pkg:golang/github.com/go-openapi/jsonpointer@v0.19.5",
        "pkg:golang/golang.org/x/net@v0.0.0-20211020060615-d418f374d309"
      ]
    },
    {
      "ref": "pkg:golang/github.com/go-openapi/spec@v0.20.4",
      "dependsOn": [
        "pkg:golang/github.com/go-openapi/jsonpointer@v0.19.5",
        "pkg:golang/github.com/go-openapi/jsonreference@v0.19.6",
        "pkg:golang/github.com/go-openapi/swag@v0.19.15",
        "pkg:golang/golang.org/x/text@v0.3.7",
        "pkg:golang/gopkg.in/yaml.v2@v2.4.0"
      ]
    },
    {
      "ref": "pkg:golang/github.com/go-openapi/swag@v0.19.15",
      "dependsOn": [
        "pkg:golang/github.com/mailru/easyjson@v0.7.7",
        "pkg:golang/gopkg.in/yaml.v2@v2.4.0"
      ]
    },
    {
      "ref": "pkg:golang/github.com/go-playground/locales@v0.13.0",
      "dependsOn": [
        "pkg:golang/golang.org/x/text@v0.3.7"
      ]
    },
    {
      "ref": "pkg:golang/github.com/go-playground/universal-translator@v0.17.0",
      "dependsOn": [
        "pkg:golang/github.com/go-playground/locales@v0.13.0"
      ]
    },
    {
      "ref": "pkg:golang/github.com/go-playground/validator/v10@v10.6.1",
      "dependsOn": [
        "pkg:golang/github.com/go-playground/locales@v0.13.0",
        "pkg:golang/github.com/go-playground/universal-translator@v0.17.0",
        "pkg:golang/github.com/leodido/go-urn@v1.2.1",
        "pkg:golang/golang.org/x/crypto@v0.0.0-20210817164053-32db794688a5",
        "pkg:golang/golang.org/x/text@v0.3.7"
      ]
    },
    {
      "ref": "pkg:golang/github.com/go-task/slim-sprig@v0.0.0-20210107165309-348f09dbbbc0"
    },
    {
      "ref": "pkg:golang/github.com/gogo/googleapis@v1.4.1",
      "dependsOn": [
        "pkg:golang/github.com/gogo/protobuf@v1.3.2"
      ]
    },
    {
      "ref": "pkg:golang/github.com/gogo/protobuf@v1.3.2",
      "dependsOn": [
        "pkg:golang/golang.org/x/tools@v0.1.7"
      ]
    },
    {
      "ref": "pkg:golang/github.com/golang-jwt/jwt@v3.2.2"
    },
    {
      "ref": "pkg:golang/github.com/golang/geo@v0.0.0-20200319012246-673a6f80352d"
    },
    {
      "ref": "pkg:golang/github.com/golang/groupcache@v0.0.0-20210331224755-41bb18bfe9da"
    },
    {
      "ref": "pkg:golang/github.com/golang/protobuf@v1.5.2",
      "dependsOn": [
        "pkg:golang/google.golang.org/protobuf@v1.27.1"
      ]
    },
    {
      "ref": "pkg:golang/github.com/gomodule/redigo@v1.8.5"
    },
    {
      "ref": "pkg:golang/github.com/google/go-github/v36@v36.0.0",
      "dependsOn": [
        "pkg:golang/github.com/golang/protobuf@v1.5.2",
        "pkg:golang/github.com/google/go-querystring@v1.0.0",
        "pkg:golang/golang.org/x/crypto@v0.0.0-20210817164053-32db794688a5",
        "pkg:golang/golang.org/x/net@v0.0.0-20211020060615-d418f374d309",
        "pkg:golang/golang.org/x/oauth2@v0.0.0-20210819190943-2bc19b11175f",
        "pkg:golang/google.golang.org/appengine@v1.6.7"
      ]
    },
    {
      "ref": "pkg:golang/github.com/google/go-querystring@v1.0.0"
    },
    {
      "ref": "pkg:golang/github.com/google/uuid@v1.3.0"
    },
    {
      "ref": "pkg:golang/github.com/gorilla/websocket@v1.4.2"
    },
    {
      "ref": "pkg:golang/github.com/jinzhu/copier@v0.3.2"
    },
    {
      "ref": "pkg:golang/github.com/jinzhu/inflection@v1.0.0"
    },
    {
      "ref": "pkg:golang/github.com/jinzhu/now@v1.1.4"
    },
    {
      "ref": "pkg:golang/github.com/josharian/intern@v1.0.0"
    },
    {
      "ref": "pkg:golang/github.com/json-iterator/go@v1.1.11",
      "dependsOn": [
        "pkg:golang/github.com/modern-go/concurrent@v0.0.0-20180306012644-bacd9c7ef1dd",
        "pkg:golang/github.com/modern-go/reflect2@v1.0.1"
      ]
    },
    {
      "ref": "pkg:golang/github.com/klauspost/compress@v1.13.6"
    },
    {
      "ref": "pkg:golang/github.com/leodido/go-urn@v1.2.1"
    },
    {
      "ref": "pkg:golang/github.com/lucas-clemente/quic-go@v0.25.0",
      "dependsOn": [
        "pkg:golang/github.com/cheekybits/genny@v1.0.0",
        "pkg:golang/github.com/marten-seemann/qtls-go1-16@v0.1.4",
        "pkg:golang/github.com/marten-seemann/qtls-go1-17@v0.1.0",
        "pkg:golang/github.com/marten-seemann/qtls-go1-18@v0.1.0-beta.1",
        "pkg:golang/github.com/onsi/ginkgo@v1.16.4",
        "pkg:golang/golang.org/x/crypto@v0.0.0-20210817164053-32db794688a5",
        "pkg:golang/golang.org/x/net@v0.0.0-20211020060615-d418f374d309",
        "pkg:golang/golang.org/x/sync@v0.0.0-20210220032951-036812b2e83c",
        "pkg:golang/golang.org/x/sys@v0.0.0-20211020174200-9d6173849985"
      ]
    },
    {
      "ref": "pkg:golang/github.com/mailru/easyjson@v0.7.7",
      "dependsOn": [
        "pkg:golang/github.com/josharian/intern@v1.0.0"
      ]
    },
    {
      "ref": "pkg:golang/github.com/marten-seemann/qtls-go1-16@v0.1.4",
      "dependsOn": [
        "pkg:golang/golang.org/x/crypto@v0.0.0-20210817164053-32db794688a5",
        "pkg:golang/golang.org/x/sys@v0.0.0-20211020174200-9d6173849985"
      ]
    },
    {
      "ref": "pkg:golang/github.com/marten-seemann/qtls-go1-17@v0.1.0",
      "dependsOn": [
        "pkg:golang/golang.org/x/crypto@v0.0.0-20210817164053-32db794688a5",
        "pkg:golang/golang.org/x/sys@v0.0.0-20211020174200-9d6173849985"
      ]
    },
    {
      "ref": "pkg:golang/github.com/marten-seemann/qtls-go1-18@v0.1.0-beta.1",
      "dependsOn": [
        "pkg:golang/golang.org/x/crypto@v0.0.0-20210817164053-32db794688a5",
        "pkg:golang/golang.org/x/sys@v0.0.0-20211020174200-9d6173849985"
      ]
    },
    {
      "ref": "pkg:golang/github.com/mattn/go-isatty@v0.0.14",
      "dependsOn": [
        "pkg:golang/golang.org/x/sys@v0.0.0-20211020174200-9d6173849985"
      ]
    },
    {
      "ref": "pkg:golang/github.com/mattn/go-sqlite3@v1.14.11"
    },
    {
      "ref": "pkg:golang/github.com/moby/locker@v1.0.1"
    },
    {
      "ref": "pkg:golang/github.com/moby/sys/mountinfo@v0.4.1",
      "dependsOn": [
        "pkg:golang/golang.org/x/sys@v0.0.0-20211020174200-9d6173849985"
      ]
    },
    {
      "ref": "pkg:golang/github.com/modern-go/concurrent@v0.0.0-20180306012644-bacd9c7ef1dd"
    },
    {
      "ref": "pkg:golang/github.com/modern-go/reflect2@v1.0.1"
    },
    {
      "ref": "pkg:golang/github.com/nxadm/tail@v1.4.8",
      "dependsOn": [
        "pkg:golang/github.com/fsnotify/fsnotify@v1.4.9",
        "pkg:golang/gopkg.in/tomb.v1@v1.0.0-20141024135613-dd632973f1e7"
      ]
    },
    {
      "ref": "pkg:golang/github.com/onsi/ginkgo@v1.16.4",
      "dependsOn": [
        "pkg:golang/github.com/go-task/slim-sprig@v0.0.0-20210107165309-348f09dbbbc0",
        "pkg:golang/github.com/nxadm/tail@v1.4.8",
        "pkg:golang/golang.org/x/sys@v0.0.0-20211020174200-9d6173849985",
        "pkg:golang/golang.org/x/tools@v0.1.7"
      ]
    },
    {
      "ref": "pkg:golang/github.com/opencontainers/go-digest@v1.0.0"
    },
    {
      "ref": "pkg:golang/github.com/opencontainers/image-spec@v1.0.2"
    },
    {
      "ref": "pkg:golang/github.com/opencontainers/runc@v1.0.2",
      "dependsOn": [
        "pkg:golang/github.com/bits-and-blooms/bitset@v1.2.1",
        "pkg:golang/github.com/docker/go-units@v0.4.0",
        "pkg:golang/github.com/moby/sys/mountinfo@v0.4.1",
        "pkg:golang/github.com/opencontainers/runtime-spec@v1.0.3-0.20210326190908-1c3f411f0417",
        "pkg:golang/github.com/opencontainers/selinux@v1.8.5",
        "pkg:golang/github.com/pkg/errors@v0.9.1",
        "pkg:golang/github.com/sirupsen/logrus@v1.8.1",
        "pkg:golang/golang.org/x/net@v0.0.0-20211020060615-d418f374d309",
        "pkg:golang/golang.org/x/sys@v0.0.0-20211020174200-9d6173849985",
        "pkg:golang/google.golang.org/protobuf@v1.27.1"
      ]
    },
    {
      "ref": "pkg:golang/github.com/opencontainers/runtime-spec@v1.0.3-0.20210326190908-1c3f411f0417"
    },
    {
      "ref": "pkg:golang/github.com/opencontainers/selinux@v1.8.5",
      "dependsOn": [
        "pkg:golang/github.com/bits-and-blooms/bitset@v1.2.1",
        "pkg:golang/golang.org/x/sys@v0.0.0-20211020174200-9d6173849985"
      ]
    },
    {
      "ref": "pkg:golang/github.com/patrickmn/go-cache@v2.1.0"
    },
    {
      "ref": "pkg:golang/github.com/pkg/errors@v0.9.1"
    },
    {
      "ref": "pkg:golang/github.com/prestonTao/upnp@v0.0.0-20150206124352-f4370df5e109"
    },
    {
      "ref": "pkg:golang/github.com/robfig/cron@v1.2.0"
    },
    {
      "ref": "pkg:golang/github.com/satori/go.uuid@v1.2.0"
    },
    {
      "ref": "pkg:golang/github.com/shirou/gopsutil/v3@v3.21.5",
      "dependsOn": [
        "pkg:golang/github.com/StackExchange/wmi@v0.0.0-20210224194228-fe8f1750fd46",
        "pkg:golang/github.com/go-ole/go-ole@v1.2.5",
        "pkg:golang/github.com/tklauser/go-sysconf@v0.3.6",
        "pkg:golang/golang.org/x/sys@v0.0.0-20211020174200-9d6173849985"
      ]
    },
    {
      "ref": "pkg:golang/github.com/sirupsen/logrus@v1.8.1",
      "dependsOn": [
        "pkg:golang/golang.org/x/sys@v0.0.0-20211020174200-9d6173849985"
      ]
    },
    {
      "ref": "pkg:golang/github.com/spf13/afero@v1.2.2",
      "dependsOn": [
        "pkg:golang/golang.org/x/text@v0.3.7"
      ]
    },
    {
      "ref": "pkg:golang/github.com/swaggo/gin-swagger@v1.3.0",
      "dependsOn": [
        "pkg:golang/github.com/gin-contrib/gzip@v0.0.2",
        "pkg:golang/github.com/gin-contrib/sse@v0.1.0",
        "pkg:golang/github.com/gin-gonic/gin@v1.7.2",
        "pkg:golang/github.com/mattn/go-isatty@v0.0.14",
        "pkg:golang/github.com/swaggo/swag@v1.7.3",
        "pkg:golang/golang.org/x/net@v0.0.0-20211020060615-d418f374d309",
        "pkg:golang/golang.org/x/sys@v0.0.0-20211020174200-9d6173849985",
        "pkg:golang/golang.org/x/text@v0.3.7",
        "pkg:golang/golang.org/x/tools@v0.1.7"
      ]
    },
    {
      "ref": "pkg:golang/github.com/swaggo/swag@v1.7.3",
      "dependsOn": [
        "pkg:golang/github.com/KyleBanks/depth@v1.2.1",
        "pkg:golang/github.com/go-openapi/spec@v0.20.4",
        "pkg:golang/golang.org/x/tools@v0.1.7"
      ]
    },
    {
      "ref": "pkg:golang/github.com/tidwall/gjson@v1.10.2",
      "dependsOn": [
        "pkg:golang/github.com/tidwall/match@v1.1.1",
        "pkg:golang/github.com/tidwall/pretty@v1.2.0"
      ]
    },
    {
      "ref": "pkg:golang/github.com/tidwall/match@v1.1.1"
    },
    {
      "ref": "pkg:golang/github.com/tidwall/pretty@v1.2.0"
    },
    {
      "ref": "pkg:golang/github.com/tklauser/go-sysconf@v0.3.6",
      "dependsOn": [
        "pkg:golang/github.com/tklauser/numcpus@v0.2.2",
        "pkg:golang/golang.org/x/sys@v0.0.0-20211020174200-9d6173849985"
      ]
    },
    {
      "ref": "pkg:golang/github.com/tklauser/numcpus@v0.2.2",
      "dependsOn": [
        "pkg:golang/golang.org/x/sys@v0.0.0-20211020174200-9d6173849985"
      ]
    },
    {
      "ref": "pkg:golang/github.com/ugorji/go/codec@v1.2.6"
    },
    {
      "ref": "pkg:golang/go.opencensus.io@v0.23.0",
      "dependsOn": [
        "pkg:golang/github.com/golang/groupcache@v0.0.0-20210331224755-41bb18bfe9da",
        "pkg:golang/github.com/golang/protobuf@v1.5.2",
        "pkg:golang/golang.org/x/net@v0.0.0-20211020060615-d418f374d309",
        "pkg:golang/google.golang.org/grpc@v1.41.0"
      ]
    },
    {
      "ref": "pkg:golang/golang.org/x/crypto@v0.0.0-20210817164053-32db794688a5",
      "dependsOn": [
        "pkg:golang/golang.org/x/net@v0.0.0-20211020060615-d418f374d309",
        "pkg:golang/golang.org/x/sys@v0.0.0-20211020174200-9d6173849985",
        "pkg:golang/golang.org/x/text@v0.3.7"
      ]
    },
    {
      "ref": "pkg:golang/golang.org/x/image@v0.0.0-20191009234506-e7c1f5e7dbb8",
      "dependsOn": [
        "pkg:golang/golang.org/x/text@v0.3.7"
      ]
    },
    {
      "ref": "pkg:golang/golang.org/x/mod@v0.5.0",
      "dependsOn": [
        "pkg:golang/golang.org/x/crypto@v0.0.0-20210817164053-32db794688a5",
        "pkg:golang/golang.org/x/tools@v0.1.7",
        "pkg:golang/golang.org/x/xerrors@v0.0.0-20200804184101-5ec99f83aff1"
      ]
    },
    {
      "ref": "pkg:golang/golang.org/x/net@v0.0.0-20211020060615-d418f374d309",
      "dependsOn": [
        "pkg:golang/golang.org/x/sys@v0.0.0-20211020174200-9d6173849985",
        "pkg:golang/golang.org/x/text@v0.3.7"
      ]
    },
    {
      "ref": "pkg:golang/golang.org/x/oauth2@v0.0.0-20210819190943-2bc19b11175f",
      "dependsOn": [
        "pkg:golang/golang.org/x/net@v0.0.0-20211020060615-d418f374d309",
        "pkg:golang/google.golang.org/appengine@v1.6.7"
      ]
    },
    {
      "ref": "pkg:golang/golang.org/x/sync@v0.0.0-20210220032951-036812b2e83c"
    },
    {
      "ref": "pkg:golang/golang.org/x/sys@v0.0.0-20211020174200-9d6173849985"
    },
    {
      "ref": "pkg:golang/golang.org/x/text@v0.3.7",
      "dependsOn": [
        "pkg:golang/golang.org/x/tools@v0.1.7"
      ]
    },
    {
      "ref": "pkg:golang/golang.org/x/tools@v0.1.7",
      "dependsOn": [
        "pkg:golang/golang.org/x/mod@v0.5.0",
        "pkg:golang/golang.org/x/net@v0.0.0-20211020060615-d418f374d309",
        "pkg:golang/golang.org/x/sync@v0.0.0-20210220032951-036812b2e83c",
        "pkg:golang/golang.org/x/sys@v0.0.0-20211020174200-9d6173849985",
        "pkg:golang/golang.org/x/text@v0.3.7",
        "pkg:golang/golang.org/x/xerrors@v0.0.0-20200804184101-5ec99f83aff1"
      ]
    },
    {
      "ref": "pkg:golang/golang.org/x/xerrors@v0.0.0-20200804184101-5ec99f83aff1"
    },
    {
      "ref": "pkg:golang/google.golang.org/appengine@v1.6.7",
      "dependsOn": [
        "pkg:golang/github.com/golang/protobuf@v1.5.2",
        "pkg:golang/golang.org/x/net@v0.0.0-20211020060615-d418f374d309",
        "pkg:golang/golang.org/x/text@v0.3.7"
      ]
    },
    {
      "ref": "pkg:golang/google.golang.org/genproto@v0.0.0-20210924002016-3dee208752a0",
      "dependsOn": [
        "pkg:golang/github.com/golang/protobuf@v1.5.2",
        "pkg:golang/golang.org/x/net@v0.0.0-20211020060615-d418f374d309",
        "pkg:golang/golang.org/x/sys@v0.0.0-20211020174200-9d6173849985",
        "pkg:golang/golang.org/x/text@v0.3.7",
        "pkg:golang/google.golang.org/grpc@v1.41.0",
        "pkg:golang/google.golang.org/protobuf@v1.27.1"
      ]
    },
    {
      "ref": "pkg:golang/google.golang.org/grpc@v1.41.0",
      "dependsOn": [
        "pkg:golang/github.com/golang/protobuf@v1.5.2",
        "pkg:golang/github.com/google/uuid@v1.3.0",
        "pkg:golang/golang.org/x/net@v0.0.0-20211020060615-d418f374d309",
        "pkg:golang/golang.org/x/oauth2@v0.0.0-20210819190943-2bc19b11175f",
        "pkg:golang/golang.org/x/sys@v0.0.0-20211020174200-9d6173849985",
        "pkg:golang/google.golang.org/genproto@v0.0.0-20210924002016-3dee208752a0",
        "pkg:golang/google.golang.org/protobuf@v1.27.1"
      ]
    },
    {
      "ref": "pkg:golang/google.golang.org/protobuf@v1.27.1",
      "dependsOn": [
        "pkg:golang/github.com/golang/protobuf@v1.5.2"
      ]
    },
    {
      "ref": "pkg:golang/gopkg.in/tomb.v1@v1.0.0-20141024135613-dd632973f1e7"
    },
    {
      "ref": "pkg:golang/gopkg.in/yaml.v2@v2.4.0"
    },
    {
      "ref": "pkg:golang/gorm.io/driver/sqlite@v1.2.6",
      "dependsOn": [
        "pkg:golang/github.com/mattn/go-sqlite3@v1.14.11",
        "pkg:golang/gorm.io/gorm@v1.22.5"
      ]
    },
    {
      "ref": "pkg:golang/gorm.io/gorm@v1.22.5",
      "dependsOn": [
        "pkg:golang/github.com/jinzhu/inflection@v1.0.0",
        "pkg:golang/github.com/jinzhu/now@v1.1.4"
      ]
    },
    {
      "ref": "pkg:golang/github.com/IceWhaleTech/CasaOS@v0.0.0-20220513202753-123e7e87589e",
      "dependsOn": [
        "pkg:golang/github.com/Curtis-Milo/nat-type-identifier-go@v0.0.0-20220215191915-18d42168c63d",
        "pkg:golang/github.com/Microsoft/go-winio@v0.5.0",
        "pkg:golang/github.com/Microsoft/hcsshim@v0.8.22",
        "pkg:golang/github.com/StackExchange/wmi@v0.0.0-20210224194228-fe8f1750fd46",
        "pkg:golang/github.com/bits-and-blooms/bitset@v1.2.1",
        "pkg:golang/github.com/containerd/containerd@v1.5.7",
        "pkg:golang/github.com/containerd/continuity@v0.2.0",
        "pkg:golang/github.com/disintegration/imaging@v1.6.2",
        "pkg:golang/github.com/docker/distribution@v2.8.0",
        "pkg:golang/github.com/docker/docker@v20.10.7",
        "pkg:golang/github.com/docker/go-connections@v0.4.0",
        "pkg:golang/github.com/dsoprea/go-exif/v3@v3.0.0-20210625224831-a6301f85c82b",
        "pkg:golang/github.com/dsoprea/go-logging@v0.0.0-20200710184922-b02d349568dd",
        "pkg:golang/github.com/forease/gotld@v0.0.0-20190808124948-c50ff635576b",
        "pkg:golang/github.com/gin-contrib/gzip@v0.0.2",
        "pkg:golang/github.com/gin-gonic/gin@v1.7.2",
        "pkg:golang/github.com/go-ini/ini@v1.62.0",
        "pkg:golang/github.com/go-ole/go-ole@v1.2.5",
        "pkg:golang/github.com/go-openapi/spec@v0.20.4",
        "pkg:golang/github.com/go-playground/validator/v10@v10.6.1",
        "pkg:golang/github.com/gogo/googleapis@v1.4.1",
        "pkg:golang/github.com/golang-jwt/jwt@v3.2.2",
        "pkg:golang/github.com/golang/groupcache@v0.0.0-20210331224755-41bb18bfe9da",
        "pkg:golang/github.com/gomodule/redigo@v1.8.5",
        "pkg:golang/github.com/google/go-github/v36@v36.0.0",
        "pkg:golang/github.com/google/uuid@v1.3.0",
        "pkg:golang/github.com/gorilla/websocket@v1.4.2",
        "pkg:golang/github.com/jinzhu/copier@v0.3.2",
        "pkg:golang/github.com/json-iterator/go@v1.1.11",
        "pkg:golang/github.com/klauspost/compress@v1.13.6",
        "pkg:golang/github.com/leodido/go-urn@v1.2.1",
        "pkg:golang/github.com/lucas-clemente/quic-go@v0.25.0",
        "pkg:golang/github.com/mailru/easyjson@v0.7.7",
        "pkg:golang/github.com/mattn/go-isatty@v0.0.14",
        "pkg:golang/github.com/mattn/go-sqlite3@v1.14.11",
        "pkg:golang/github.com/opencontainers/image-spec@v1.0.2",
        "pkg:golang/github.com/opencontainers/selinux@v1.8.5",
        "pkg:golang/github.com/patrickmn/go-cache@v2.1.0",
        "pkg:golang/github.com/pkg/errors@v0.9.1",
        "pkg:golang/github.com/prestonTao/upnp@v0.0.0-20150206124352-f4370df5e109",
        "pkg:golang/github.com/robfig/cron@v1.2.0",
        "pkg:golang/github.com/satori/go.uuid@v1.2.0",
        "pkg:golang/github.com/shirou/gopsutil/v3@v3.21.5",
        "pkg:golang/github.com/sirupsen/logrus@v1.8.1",
        "pkg:golang/github.com/spf13/afero@v1.2.2",
        "pkg:golang/github.com/swaggo/gin-swagger@v1.3.0",
        "pkg:golang/github.com/swaggo/swag@v1.7.3",
        "pkg:golang/github.com/tidwall/gjson@v1.10.2",
        "pkg:golang/github.com/tklauser/go-sysconf@v0.3.6",
        "pkg:golang/go.opencensus.io@v0.23.0",
        "pkg:golang/golang.org/x/crypto@v0.0.0-20210817164053-32db794688a5",
        "pkg:golang/golang.org/x/mod@v0.5.0",
        "pkg:golang/golang.org/x/net@v0.0.0-20211020060615-d418f374d309",
        "pkg:golang/golang.org/x/oauth2@v0.0.0-20210819190943-2bc19b11175f",
        "pkg:golang/golang.org/x/sys@v0.0.0-20211020174200-9d6173849985",
        "pkg:golang/golang.org/x/tools@v0.1.7",
        "pkg:golang/google.golang.org/appengine@v1.6.7",
        "pkg:golang/google.golang.org/genproto@v0.0.0-20210924002016-3dee208752a0",
        "pkg:golang/google.golang.org/grpc@v1.41.0",
        "pkg:golang/gorm.io/driver/sqlite@v1.2.6",
        "pkg:golang/gorm.io/gorm@v1.22.5"
      ]
    }
  ]
}
