{
  "bomFormat": "CycloneDX",
  "specVersion": "1.3",
  "version": 2,
  "metadata": {
    "tools": [
      {
        "vendor": "CycloneDX",
        "name": "cyclonedx-gomod",
        "version": "v0.0.0-unset",
        "hashes": [
          {
            "alg": "MD5",
            "content": "a35776fc9417e8071d3f1dcfa2f1dd19"
          },
          {
            "alg": "SHA-1",
            "content": "a19a8eed713eff5a2092e5283c201a146f19421d"
          },
          {
            "alg": "SHA-256",
            "content": "17b3b980b9a5d0f48ad52043dee5b31aff3ae6599a36bc94224dc7b6a46759ef"
          },
          {
            "alg": "SHA-512",
            "content": "9d4f06aab20cede94a1aedf11a300ae9de98871235c68c72e421cd6d45495910861b39e743ee0eceb11bbdcd2c9acc3312c19064cfe90177243fb43127fcfa46"
          }
        ]
      },
      {
        "vendor": "AppThreat",
        "name": "cdxgen",
        "version": "3.0.10"
      },
      {
        "vendor": "Fortress Information Security",
        "name": "Github Extractor",
        "version": "1.15.1"
      }
    ],
    "authors": [
      {
        "name": "Fortress Information Security",
        "email": "sales@fortressinfosec.com",
        "phone": "1-407-573-6800"
      }
    ],
    "timestamp": "2022-07-26T23:35:03Z",
    "component": {
      "type": "application",
      "name": "yay",
      "version": "v11.1.2",
      "group": "Jguer",
      "externalReferences": [
        {
          "url": "https://github.com/Jguer/yay.git",
          "type": "distribution"
        },
        {
          "type": "website",
          "url": "null",
          "comment": "As set via `homepage` in Github API"
        }
      ]
    }
  },
  "components": [
    {
      "type": "library",
      "bom-ref": "pkg:golang/github.com/Jguer/aur@v1.0.1",
      "name": "github.com/Jguer/aur",
      "version": "v1.0.1",
      "scope": "required",
      "hashes": [
        {
          "alg": "SHA-256",
          "content": "f860ceab446e567ec25e95f377c5bce7ffa13cd0d8a27459dce34f9bceded63a"
        }
      ],
      "purl": "pkg:golang/github.com/Jguer/aur@v1.0.1",
      "externalReferences": [
        {
          "url": "https://github.com/Jguer/aur",
          "type": "vcs"
        }
      ]
    },
    {
      "type": "library",
      "bom-ref": "pkg:golang/github.com/Jguer/go-alpm/v2@v2.1.2",
      "name": "github.com/Jguer/go-alpm/v2",
      "version": "v2.1.2",
      "scope": "required",
      "hashes": [
        {
          "alg": "SHA-256",
          "content": "0864c8c73b84a53f50ddaec806bc7413a69ca18a1a1d7d99f7750e0293c38605"
        }
      ],
      "purl": "pkg:golang/github.com/Jguer/go-alpm/v2@v2.1.2",
      "externalReferences": [
        {
          "url": "https://github.com/Jguer/go-alpm",
          "type": "vcs"
        }
      ]
    },
    {
      "type": "library",
      "bom-ref": "pkg:golang/github.com/Morganamilo/go-pacmanconf@v0.0.0-20210502114700-cff030e927a5",
      "name": "github.com/Morganamilo/go-pacmanconf",
      "version": "v0.0.0-20210502114700-cff030e927a5",
      "scope": "required",
      "hashes": [
        {
          "alg": "SHA-256",
          "content": "4ccb1c3e391bd53857377d8bb856396c4608717671dd8970ce14b51b13699ff7"
        }
      ],
      "purl": "pkg:golang/github.com/Morganamilo/go-pacmanconf@v0.0.0-20210502114700-cff030e927a5",
      "externalReferences": [
        {
          "url": "https://github.com/Morganamilo/go-pacmanconf",
          "type": "vcs"
        }
      ]
    },
    {
      "type": "library",
      "bom-ref": "pkg:golang/github.com/Morganamilo/go-srcinfo@v1.0.0",
      "name": "github.com/Morganamilo/go-srcinfo",
      "version": "v1.0.0",
      "scope": "required",
      "hashes": [
        {
          "alg": "SHA-256",
          "content": "5a1e27105f87256a3edbd867c4cd7c436862f8351fd067a34b5dfe5a0f9dce62"
        }
      ],
      "purl": "pkg:golang/github.com/Morganamilo/go-srcinfo@v1.0.0",
      "externalReferences": [
        {
          "url": "https://github.com/Morganamilo/go-srcinfo",
          "type": "vcs"
        }
      ]
    },
    {
      "type": "library",
      "bom-ref": "pkg:golang/github.com/adrg/strutil@v0.2.3",
      "name": "github.com/adrg/strutil",
      "version": "v0.2.3",
      "scope": "required",
      "hashes": [
        {
          "alg": "SHA-256",
          "content": "599567dc8b4f068bc598fe303071d55d4afc96e45a1eb6f222e2e51eddf61994"
        }
      ],
      "purl": "pkg:golang/github.com/adrg/strutil@v0.2.3",
      "externalReferences": [
        {
          "url": "https://github.com/adrg/strutil",
          "type": "vcs"
        }
      ]
    },
    {
      "type": "library",
      "bom-ref": "pkg:golang/github.com/leonelquinteros/gotext@v1.5.0",
      "name": "github.com/leonelquinteros/gotext",
      "version": "v1.5.0",
      "scope": "required",
      "hashes": [
        {
          "alg": "SHA-256",
          "content": "38363b2f32e965659225d0079f386b78eafa7302d74c099cf75e0539ab929013"
        }
      ],
      "purl": "pkg:golang/github.com/leonelquinteros/gotext@v1.5.0",
      "externalReferences": [
        {
          "url": "https://github.com/leonelquinteros/gotext",
          "type": "vcs"
        }
      ]
    },
    {
      "type": "library",
      "bom-ref": "pkg:golang/golang.org/x/sys@v0.0.0-20220412071739-889880a91fd5",
      "name": "golang.org/x/sys",
      "version": "v0.0.0-20220412071739-889880a91fd5",
      "scope": "required",
      "hashes": [
        {
          "alg": "SHA-256",
          "content": "36e6f17ef4d1b8d6f8455cd6ac80c053352f4441f51e4083e098f2413486f40b"
        }
      ],
      "purl": "pkg:golang/golang.org/x/sys@v0.0.0-20220412071739-889880a91fd5"
    },
    {
      "type": "library",
      "bom-ref": "pkg:golang/golang.org/x/term@v0.0.0-20220411215600-e5f449aeb171",
      "name": "golang.org/x/term",
      "version": "v0.0.0-20220411215600-e5f449aeb171",
      "scope": "required",
      "hashes": [
        {
          "alg": "SHA-256",
          "content": "107d4379bf16649d3173458afff95e5075dc5fd68b1394b29aeb284e6319c9ef"
        }
      ],
      "purl": "pkg:golang/golang.org/x/term@v0.0.0-20220411215600-e5f449aeb171"
    },
    {
      "type": "library",
      "bom-ref": "pkg:golang/golang.org/x/text@v0.3.7",
      "name": "golang.org/x/text",
      "version": "v0.3.7",
      "scope": "required",
      "hashes": [
        {
          "alg": "SHA-256",
          "content": "a25a70bcfd8a69c5b5656bec47bb90868c9362f280ba97d0ad118114cdf9d869"
        }
      ],
      "purl": "pkg:golang/golang.org/x/text@v0.3.7"
    },
    {
      "type": "library",
      "bom-ref": "pkg:golang/github.com/Jguer/yay/v11",
      "group": "github.com/Jguer/yay",
      "name": "v11",
      "version": "",
      "description": "",
      "scope": "required",
      "purl": "pkg:golang/github.com/Jguer/yay/v11"
    }
  ],
  "dependencies": [
    {
      "ref": "pkg:golang/github.com/Jguer/aur@v1.0.1"
    },
    {
      "ref": "pkg:golang/github.com/Jguer/go-alpm/v2@v2.1.2",
      "dependsOn": [
        "pkg:golang/github.com/Morganamilo/go-pacmanconf@v0.0.0-20210502114700-cff030e927a5"
      ]
    },
    {
      "ref": "pkg:golang/github.com/Morganamilo/go-pacmanconf@v0.0.0-20210502114700-cff030e927a5"
    },
    {
      "ref": "pkg:golang/github.com/Morganamilo/go-srcinfo@v1.0.0"
    },
    {
      "ref": "pkg:golang/github.com/adrg/strutil@v0.2.3"
    },
    {
      "ref": "pkg:golang/github.com/leonelquinteros/gotext@v1.5.0",
      "dependsOn": [
        "pkg:golang/golang.org/x/text@v0.3.7"
      ]
    },
    {
      "ref": "pkg:golang/golang.org/x/sys@v0.0.0-20220412071739-889880a91fd5"
    },
    {
      "ref": "pkg:golang/golang.org/x/term@v0.0.0-20220411215600-e5f449aeb171",
      "dependsOn": [
        "pkg:golang/golang.org/x/sys@v0.0.0-20220412071739-889880a91fd5"
      ]
    },
    {
      "ref": "pkg:golang/golang.org/x/text@v0.3.7"
    },
    {
      "ref": "pkg:golang/github.com/Jguer/yay/v11@v0.0.0-20220504041517-ed2f53353452",
      "dependsOn": [
        "pkg:golang/github.com/Jguer/aur@v1.0.1",
        "pkg:golang/github.com/Jguer/go-alpm/v2@v2.1.2",
        "pkg:golang/github.com/Morganamilo/go-pacmanconf@v0.0.0-20210502114700-cff030e927a5",
        "pkg:golang/github.com/Morganamilo/go-srcinfo@v1.0.0",
        "pkg:golang/github.com/adrg/strutil@v0.2.3",
        "pkg:golang/github.com/leonelquinteros/gotext@v1.5.0",
        "pkg:golang/golang.org/x/sys@v0.0.0-20220412071739-889880a91fd5",
        "pkg:golang/golang.org/x/term@v0.0.0-20220411215600-e5f449aeb171",
        "pkg:golang/golang.org/x/text@v0.3.7"
      ]
    }
  ]
}
