{
  "bomFormat": "CycloneDX",
  "specVersion": "1.3",
  "serialNumber": "urn:uuid:5bbd850f-f083-46b4-a50a-73c0ef6ddc6f",
  "version": 1,
  "metadata": {
    "timestamp": "2022-06-02T14:27:03Z",
    "tools": [
      {
        "vendor": "AppThreat",
        "name": "cdxgen",
        "version": "3.0.10"
      },
      {
        "vendor": "Fortress Information Security",
        "name": "Github Extractor",
        "version": "1.15.1"
      }
    ],
    "authors": [
      {
        "name": "Team AppThreat",
        "email": "cloud@appthreat.com"
      },
      {
        "name": "Fortress Information Security",
        "email": "sales@fortressinfosec.com",
        "phone": "1-407-573-6800"
      }
    ],
    "component": {
      "type": "application",
      "name": "pleaserun",
      "version": "report",
      "group": "jordansissel",
      "externalReferences": [
        {
          "url": "https://github.com/jordansissel/pleaserun.git",
          "type": "distribution"
        },
        {
          "type": "website",
          "url": "null",
          "comment": "As set via `homepage` in Github API"
        }
      ]
    }
  },
  "components": [
    {
      "type": "library",
      "bom-ref": "pkg:rubygems/pleaserun@0.0.29",
      "group": "",
      "name": "pleaserun",
      "version": "0.0.29",
      "description": "",
      "purl": "pkg:rubygems/pleaserun@0.0.29"
    },
    {
      "type": "library",
      "bom-ref": "pkg:rubygems/remote:@https://rubygems.org/",
      "group": "",
      "name": "remote:",
      "version": "https://rubygems.org/",
      "description": "",
      "purl": "pkg:rubygems/remote:@https://rubygems.org/"
    },
    {
      "type": "library",
      "bom-ref": "pkg:rubygems/cabin@0.9.0",
      "group": "",
      "name": "cabin",
      "version": "0.9.0",
      "description": "",
      "purl": "pkg:rubygems/cabin@0.9.0"
    },
    {
      "type": "library",
      "bom-ref": "pkg:rubygems/celluloid@0.16.0",
      "group": "",
      "name": "celluloid",
      "version": "0.16.0",
      "description": "",
      "purl": "pkg:rubygems/celluloid@0.16.0"
    },
    {
      "type": "library",
      "bom-ref": "pkg:rubygems/clamp@1.1.2",
      "group": "",
      "name": "clamp",
      "version": "1.1.2",
      "description": "",
      "purl": "pkg:rubygems/clamp@1.1.2"
    },
    {
      "type": "library",
      "bom-ref": "pkg:rubygems/coderay@1.1.0",
      "group": "",
      "name": "coderay",
      "version": "1.1.0",
      "description": "",
      "purl": "pkg:rubygems/coderay@1.1.0"
    },
    {
      "type": "library",
      "bom-ref": "pkg:rubygems/diff-lcs@1.2.5",
      "group": "",
      "name": "diff-lcs",
      "version": "1.2.5",
      "description": "",
      "purl": "pkg:rubygems/diff-lcs@1.2.5"
    },
    {
      "type": "library",
      "bom-ref": "pkg:rubygems/dotenv@2.2.0",
      "group": "",
      "name": "dotenv",
      "version": "2.2.0",
      "description": "",
      "purl": "pkg:rubygems/dotenv@2.2.0"
    },
    {
      "type": "library",
      "bom-ref": "pkg:rubygems/ffi@1.9.6",
      "group": "",
      "name": "ffi",
      "version": "1.9.6",
      "description": "",
      "purl": "pkg:rubygems/ffi@1.9.6"
    },
    {
      "type": "library",
      "bom-ref": "pkg:rubygems/flores@0.0.3",
      "group": "",
      "name": "flores",
      "version": "0.0.3",
      "description": "",
      "purl": "pkg:rubygems/flores@0.0.3"
    },
    {
      "type": "library",
      "bom-ref": "pkg:rubygems/formatador@0.2.5",
      "group": "",
      "name": "formatador",
      "version": "0.2.5",
      "description": "",
      "purl": "pkg:rubygems/formatador@0.2.5"
    },
    {
      "type": "library",
      "bom-ref": "pkg:rubygems/guard@2.12.4",
      "group": "",
      "name": "guard",
      "version": "2.12.4",
      "description": "",
      "purl": "pkg:rubygems/guard@2.12.4"
    },
    {
      "type": "library",
      "bom-ref": "pkg:rubygems/guard-compat@1.2.1",
      "group": "",
      "name": "guard-compat",
      "version": "1.2.1",
      "description": "",
      "purl": "pkg:rubygems/guard-compat@1.2.1"
    },
    {
      "type": "library",
      "bom-ref": "pkg:rubygems/guard-rspec@4.5.0",
      "group": "",
      "name": "guard-rspec",
      "version": "4.5.0",
      "description": "",
      "purl": "pkg:rubygems/guard-rspec@4.5.0"
    },
    {
      "type": "library",
      "bom-ref": "pkg:rubygems/hitimes@1.2.2",
      "group": "",
      "name": "hitimes",
      "version": "1.2.2",
      "description": "",
      "purl": "pkg:rubygems/hitimes@1.2.2"
    },
    {
      "type": "library",
      "bom-ref": "pkg:rubygems/insist@1.0.0",
      "group": "",
      "name": "insist",
      "version": "1.0.0",
      "description": "",
      "purl": "pkg:rubygems/insist@1.0.0"
    },
    {
      "type": "library",
      "bom-ref": "pkg:rubygems/listen@2.8.5",
      "group": "",
      "name": "listen",
      "version": "2.8.5",
      "description": "",
      "purl": "pkg:rubygems/listen@2.8.5"
    },
    {
      "type": "library",
      "bom-ref": "pkg:rubygems/lumberjack@1.0.9",
      "group": "",
      "name": "lumberjack",
      "version": "1.0.9",
      "description": "",
      "purl": "pkg:rubygems/lumberjack@1.0.9"
    },
    {
      "type": "library",
      "bom-ref": "pkg:rubygems/method_source@0.8.2",
      "group": "",
      "name": "method_source",
      "version": "0.8.2",
      "description": "",
      "purl": "pkg:rubygems/method_source@0.8.2"
    },
    {
      "type": "library",
      "bom-ref": "pkg:rubygems/mustache@0.99.8",
      "group": "",
      "name": "mustache",
      "version": "0.99.8",
      "description": "",
      "purl": "pkg:rubygems/mustache@0.99.8"
    },
    {
      "type": "library",
      "bom-ref": "pkg:rubygems/nenv@0.2.0",
      "group": "",
      "name": "nenv",
      "version": "0.2.0",
      "description": "",
      "purl": "pkg:rubygems/nenv@0.2.0"
    },
    {
      "type": "library",
      "bom-ref": "pkg:rubygems/net-ssh@2.9.2",
      "group": "",
      "name": "net-ssh",
      "version": "2.9.2",
      "description": "",
      "purl": "pkg:rubygems/net-ssh@2.9.2"
    },
    {
      "type": "library",
      "bom-ref": "pkg:rubygems/notiffany@0.0.6",
      "group": "",
      "name": "notiffany",
      "version": "0.0.6",
      "description": "",
      "purl": "pkg:rubygems/notiffany@0.0.6"
    },
    {
      "type": "library",
      "bom-ref": "pkg:rubygems/peach@0.5.1",
      "group": "",
      "name": "peach",
      "version": "0.5.1",
      "description": "",
      "purl": "pkg:rubygems/peach@0.5.1"
    },
    {
      "type": "library",
      "bom-ref": "pkg:rubygems/pry@0.10.1",
      "group": "",
      "name": "pry",
      "version": "0.10.1",
      "description": "",
      "purl": "pkg:rubygems/pry@0.10.1"
    },
    {
      "type": "library",
      "bom-ref": "pkg:rubygems/rb-fsevent@0.9.4",
      "group": "",
      "name": "rb-fsevent",
      "version": "0.9.4",
      "description": "",
      "purl": "pkg:rubygems/rb-fsevent@0.9.4"
    },
    {
      "type": "library",
      "bom-ref": "pkg:rubygems/rb-inotify@0.9.5",
      "group": "",
      "name": "rb-inotify",
      "version": "0.9.5",
      "description": "",
      "purl": "pkg:rubygems/rb-inotify@0.9.5"
    },
    {
      "type": "library",
      "bom-ref": "pkg:rubygems/rspec@3.0.0",
      "group": "",
      "name": "rspec",
      "version": "3.0.0",
      "description": "",
      "purl": "pkg:rubygems/rspec@3.0.0"
    },
    {
      "type": "library",
      "bom-ref": "pkg:rubygems/rspec-core@3.0.4",
      "group": "",
      "name": "rspec-core",
      "version": "3.0.4",
      "description": "",
      "purl": "pkg:rubygems/rspec-core@3.0.4"
    },
    {
      "type": "library",
      "bom-ref": "pkg:rubygems/rspec-expectations@3.0.4",
      "group": "",
      "name": "rspec-expectations",
      "version": "3.0.4",
      "description": "",
      "purl": "pkg:rubygems/rspec-expectations@3.0.4"
    },
    {
      "type": "library",
      "bom-ref": "pkg:rubygems/rspec-mocks@3.0.4",
      "group": "",
      "name": "rspec-mocks",
      "version": "3.0.4",
      "description": "",
      "purl": "pkg:rubygems/rspec-mocks@3.0.4"
    },
    {
      "type": "library",
      "bom-ref": "pkg:rubygems/rspec-support@3.0.4",
      "group": "",
      "name": "rspec-support",
      "version": "3.0.4",
      "description": "",
      "purl": "pkg:rubygems/rspec-support@3.0.4"
    },
    {
      "type": "library",
      "bom-ref": "pkg:rubygems/shellany@0.0.1",
      "group": "",
      "name": "shellany",
      "version": "0.0.1",
      "description": "",
      "purl": "pkg:rubygems/shellany@0.0.1"
    },
    {
      "type": "library",
      "bom-ref": "pkg:rubygems/slop@3.6.0",
      "group": "",
      "name": "slop",
      "version": "3.6.0",
      "description": "",
      "purl": "pkg:rubygems/slop@3.6.0"
    },
    {
      "type": "library",
      "bom-ref": "pkg:rubygems/spoon@0.0.4",
      "group": "",
      "name": "spoon",
      "version": "0.0.4",
      "description": "",
      "purl": "pkg:rubygems/spoon@0.0.4"
    },
    {
      "type": "library",
      "bom-ref": "pkg:rubygems/stud@0.0.22",
      "group": "",
      "name": "stud",
      "version": "0.0.22",
      "description": "",
      "purl": "pkg:rubygems/stud@0.0.22"
    },
    {
      "type": "library",
      "bom-ref": "pkg:rubygems/thor@0.19.1",
      "group": "",
      "name": "thor",
      "version": "0.19.1",
      "description": "",
      "purl": "pkg:rubygems/thor@0.19.1"
    },
    {
      "type": "library",
      "bom-ref": "pkg:rubygems/timers@4.0.1",
      "group": "",
      "name": "timers",
      "version": "4.0.1",
      "description": "",
      "purl": "pkg:rubygems/timers@4.0.1"
    }
  ],
  "externalReferences": [
    {
      "url": "/project/src",
      "type": "other",
      "comment": "Base path"
    },
    {
      "url": "/project/src/Gemfile.lock",
      "type": "other",
      "comment": "Package file"
    }
  ]
}
