{
  "bomFormat": "CycloneDX",
  "specVersion": "1.3",
  "version": 1,
  "metadata": {
    "tools": [
      {
        "vendor": "AppThreat",
        "name": "cdxgen",
        "version": "3.0.10"
      },
      {
        "vendor": "Fortress Information Security",
        "name": "Github Extractor",
        "version": "1.15.1"
      }
    ],
    "authors": [
      {
        "name": "Fortress Information Security",
        "email": "sales@fortressinfosec.com",
        "phone": "1-407-573-6800"
      }
    ],
    "timestamp": "2022-06-01T21:00:00Z",
    "component": {
      "type": "application",
      "name": "keras-rl",
      "version": "v0.4.2",
      "group": "keras-rl",
      "externalReferences": [
        {
          "url": "https://github.com/keras-rl/keras-rl.git",
          "type": "distribution"
        },
        {
          "type": "website",
          "url": "http://keras-rl.readthedocs.io/",
          "comment": "As set via `homepage` in Github API"
        }
      ]
    }
  },
  "components": [
    {
      "type": "library",
      "publisher": "Python Packaging Authority",
      "name": "setuptools",
      "version": "62.1.0",
      "description": "Easily download, build, install, upgrade, and uninstall Python packages",
      "hashes": [
        {
          "alg": "MD5",
          "content": "101d2e2bf9b7682ab90d9a7bd487bdbe"
        },
        {
          "alg": "SHA-256",
          "content": "26ead7d1f93efc0f8c804d9fafafbe4a44b179580a7105754b245155f9af05a8"
        }
      ],
      "purl": "pkg:pypi/setuptools@62.1.0",
      "modified": false
    },
    {
      "type": "library",
      "publisher": "Travis E. Oliphant et al.",
      "name": "numpy",
      "version": "1.22.3",
      "description": "NumPy is the fundamental package for array computing with Python.",
      "hashes": [
        {
          "alg": "MD5",
          "content": "99d2dfb943327b108b2c3b923bd42000"
        },
        {
          "alg": "SHA-256",
          "content": "c34ea7e9d13a70bf2ab64a2532fe149a9aced424cd05a2c4ba662fd989e3e45f"
        }
      ],
      "licenses": [
        {
          "license": {
            "name": "BSD"
          }
        }
      ],
      "purl": "pkg:pypi/numpy@1.22.3",
      "modified": false
    },
    {
      "type": "library",
      "publisher": "Keras team",
      "name": "keras",
      "version": "2.8.0",
      "description": "Deep learning for humans.",
      "hashes": [
        {
          "alg": "MD5",
          "content": "16eccd60ecedf5579ea010a9e2d6d6a9"
        },
        {
          "alg": "SHA-256",
          "content": "744d39dc6577dcd80ff4a4d41549e92b77d6a17e0edd58a431d30656e29bc94e"
        }
      ],
      "licenses": [
        {
          "license": {
            "name": "Apache 2.0"
          }
        }
      ],
      "purl": "pkg:pypi/keras@2.8.0",
      "modified": false
    },
    {
      "type": "library",
      "publisher": "Google Inc.",
      "name": "tensorflow",
      "version": "2.8.0",
      "description": "TensorFlow is an open source machine learning framework for everyone.",
      "hashes": [
        {
          "alg": "MD5",
          "content": "198e5d8efbc7b35d8e2b503eaeb7d2c7"
        },
        {
          "alg": "SHA-256",
          "content": "b360c13b3e58b9a5c0780cbdb6b549eea73f620275fa203f8508fe418ae02735"
        }
      ],
      "licenses": [
        {
          "license": {
            "name": "Apache 2.0"
          }
        }
      ],
      "purl": "pkg:pypi/tensorflow@2.8.0",
      "modified": false
    },
    {
      "type": "library",
      "publisher": "LISA laboratory, University of Montreal",
      "name": "theano",
      "version": "1.0.5",
      "description": "Optimizing compiler for evaluating mathematical expressions on CPUs and GPUs.",
      "hashes": [
        {
          "alg": "MD5",
          "content": "d9275643c4b9c5aef77ece8ec144fac9"
        },
        {
          "alg": "SHA-256",
          "content": "6e9439dd53ba995fcae27bf20626074bfc2fff446899dc5c53cb28c1f9202e89"
        }
      ],
      "licenses": [
        {
          "license": {
            "name": "BSD"
          }
        }
      ],
      "purl": "pkg:pypi/theano@1.0.5",
      "modified": false
    },
    {
      "type": "library",
      "publisher": "Weights & Biases",
      "name": "wandb",
      "version": "0.12.16",
      "description": "A CLI and library for interacting with the Weights and Biases API.",
      "hashes": [
        {
          "alg": "MD5",
          "content": "abc1e360f2efab0565bfe322094ecc57"
        },
        {
          "alg": "SHA-256",
          "content": "ed7782dadfb5bc457998eccd995f88ae564cdf2a36b12024e4a5d9a47b1b84e8"
        }
      ],
      "licenses": [
        {
          "license": {
            "name": "MIT license"
          }
        }
      ],
      "purl": "pkg:pypi/wandb@0.12.16",
      "modified": false
    },
    {
      "type": "library",
      "publisher": "Gym Community",
      "name": "gym",
      "version": "0.23.1",
      "description": "Gym: A universal API for reinforcement learning environments",
      "hashes": [
        {
          "alg": "MD5",
          "content": "bba57e36fff36dd02f6b5f05eab1cbc0"
        },
        {
          "alg": "SHA-256",
          "content": "d0f9b9da34edbdace421c9442fc9205d03b8d15d0fb451053c766cde706d40e0"
        }
      ],
      "licenses": [
        {
          "license": {
            "name": "MIT"
          }
        }
      ],
      "purl": "pkg:pypi/gym@0.23.1",
      "modified": false
    },
    {
      "type": "library",
      "publisher": "Christian Heimes",
      "name": "multiprocessing",
      "version": "2.6.2.1",
      "description": "Backport of the multiprocessing package to Python 2.4 and 2.5",
      "hashes": [
        {
          "alg": "MD5",
          "content": "5cc484396c040102116ccc2355379c72"
        },
        {
          "alg": "SHA-256",
          "content": "ef3b81ad85d7de252e5491b1daac028e17f9741cbe3625032e6eaa4ad4c79900"
        }
      ],
      "licenses": [
        {
          "license": {
            "name": "BSD Licence"
          }
        }
      ],
      "purl": "pkg:pypi/multiprocessing@2.6.2.1",
      "modified": false
    },
    {
      "type": "library",
      "publisher": "Cloudpipe",
      "name": "cloudpickle",
      "version": "2.0.0",
      "description": "Extended pickling support for Python objects",
      "hashes": [
        {
          "alg": "MD5",
          "content": "a897cd4df193aedbf48f8a5837879697"
        },
        {
          "alg": "SHA-256",
          "content": "6b2df9741d06f43839a3275c4e6632f7df6487a1f181f5f46a052d3c917c3d11"
        }
      ],
      "licenses": [
        {
          "license": {
            "name": "BSD 3-Clause License"
          }
        }
      ],
      "purl": "pkg:pypi/cloudpickle@2.0.0",
      "modified": false
    },
    {
      "type": "library",
      "publisher": "Thomas Waldmann",
      "name": "argparse",
      "version": "1.4.0",
      "description": "Python command-line parsing library",
      "hashes": [
        {
          "alg": "MD5",
          "content": "c37216a954c8669054e2b2c54853dd49"
        },
        {
          "alg": "SHA-256",
          "content": "c31647edb69fd3d465a847ea3157d37bed1f95f19760b11a47aa91c04b666314"
        }
      ],
      "licenses": [
        {
          "license": {
            "name": "Python Software Foundation License"
          }
        }
      ],
      "purl": "pkg:pypi/argparse@1.4.0",
      "modified": false
    },
    {
      "type": "library",
      "publisher": "Secret Labs AB (PythonWare)",
      "name": "PIL",
      "version": "1.1.6",
      "description": "Python Imaging Library",
      "licenses": [
        {
          "license": {
            "name": "Python (MIT style)"
          }
        }
      ],
      "purl": "pkg:pypi/pil@1.1.6",
      "modified": false
    },
    {
      "type": "library",
      "publisher": "John D. Hunter, Michael Droettboom",
      "name": "matplotlib",
      "version": "3.5.2",
      "description": "Python plotting package",
      "hashes": [
        {
          "alg": "MD5",
          "content": "36ccc2efc47ed886836b2c7c3d3b9b3a"
        },
        {
          "alg": "SHA-256",
          "content": "24173c23d1bcbaed5bf47b8785d27933a1ac26a5d772200a0f3e0e38f471b001"
        }
      ],
      "licenses": [
        {
          "license": {
            "name": "PSF"
          }
        }
      ],
      "purl": "pkg:pypi/matplotlib@3.5.2",
      "modified": false
    },
    {
      "type": "library",
      "publisher": "Holger Krekel, Bruno Oliveira, Ronny Pfannschmidt, Floris Bruynooghe, Brianna Laugher, Florian Bruhin and others",
      "name": "pytest",
      "version": "7.1.2",
      "description": "pytest: simple powerful testing with Python",
      "hashes": [
        {
          "alg": "MD5",
          "content": "6f5a9e12007a2529cb00d3b5a8af33a1"
        },
        {
          "alg": "SHA-256",
          "content": "13d0e3ccfc2b6e26be000cb6568c832ba67ba32e719443bfe725814d3c42433c"
        }
      ],
      "licenses": [
        {
          "license": {
            "name": "MIT"
          }
        }
      ],
      "purl": "pkg:pypi/pytest@7.1.2",
      "modified": false
    },
    {
      "type": "library",
      "bom-ref": "pkg:pypi/mkdocs@1.3.0",
      "group": "",
      "name": "mkdocs",
      "version": "1.3.0",
      "description": "Project documentation with Markdown.",
      "hashes": [
        {
          "alg": "SHA-256",
          "content": "26bd2b03d739ac57a3e6eed0b7bcc86168703b719c27b99ad6ca91dc439aacde"
        }
      ],
      "licenses": [
        {
          "license": {
            "id": "0BSD",
            "url": "https://opensource.org/licenses/0BSD"
          }
        }
      ],
      "purl": "pkg:pypi/mkdocs@1.3.0",
      "externalReferences": [
        {
          "url": "https://www.mkdocs.org",
          "type": "website"
        }
      ]
    },
    {
      "type": "library",
      "bom-ref": "pkg:pypi/python-markdown-math@0.8",
      "group": "",
      "name": "python-markdown-math",
      "version": "0.8",
      "description": "Math extension for Python-Markdown",
      "hashes": [
        {
          "alg": "SHA-256",
          "content": "c685249d84b5b697e9114d7beb352bd8ca2e07fd268fd4057ffca888c14641e5"
        }
      ],
      "licenses": [
        {
          "license": {
            "id": "BSD-3-Clause",
            "url": "https://opensource.org/licenses/BSD-3-Clause"
          }
        }
      ],
      "purl": "pkg:pypi/python-markdown-math@0.8",
      "externalReferences": [
        {
          "url": "https://github.com/mitya57/python-markdown-math",
          "type": "vcs"
        }
      ]
    }
  ]
}
