{
  "bomFormat": "CycloneDX",
  "specVersion": "1.3",
  "version": 1,
  "metadata": {
    "tools": [
      {
        "vendor": "CycloneDX",
        "name": "cyclonedx-gomod",
        "version": "v0.0.0-unset",
        "hashes": [
          {
            "alg": "MD5",
            "content": "a35776fc9417e8071d3f1dcfa2f1dd19"
          },
          {
            "alg": "SHA-1",
            "content": "a19a8eed713eff5a2092e5283c201a146f19421d"
          },
          {
            "alg": "SHA-256",
            "content": "17b3b980b9a5d0f48ad52043dee5b31aff3ae6599a36bc94224dc7b6a46759ef"
          },
          {
            "alg": "SHA-512",
            "content": "9d4f06aab20cede94a1aedf11a300ae9de98871235c68c72e421cd6d45495910861b39e743ee0eceb11bbdcd2c9acc3312c19064cfe90177243fb43127fcfa46"
          }
        ]
      },
      {
        "vendor": "CycloneDX",
        "name": "Node.js module",
        "version": "3.0.3"
      },
      {
        "vendor": "AppThreat",
        "name": "cdxgen",
        "version": "3.0.10"
      },
      {
        "vendor": "Fortress Information Security",
        "name": "Github Extractor",
        "version": "1.15.1"
      }
    ],
    "authors": [
      {
        "name": "Fortress Information Security",
        "email": "sales@fortressinfosec.com",
        "phone": "1-407-573-6800"
      }
    ],
    "timestamp": "2022-06-01T21:00:00Z",
    "component": {
      "type": "application",
      "name": "kind",
      "version": "v0.14.0",
      "group": "kubernetes-sigs",
      "externalReferences": [
        {
          "url": "https://github.com/kubernetes-sigs/kind.git",
          "type": "distribution"
        },
        {
          "type": "website",
          "url": "https://kind.sigs.k8s.io/",
          "comment": "As set via `homepage` in Github API"
        }
      ]
    }
  },
  "components": [
    {
      "type": "library",
      "bom-ref": "pkg:golang/github.com/BurntSushi/toml@v1.0.0",
      "name": "github.com/BurntSushi/toml",
      "version": "v1.0.0",
      "scope": "required",
      "hashes": [
        {
          "alg": "SHA-256",
          "content": "76d0d6adea6c54f7d6f47ff8cbb743805736301512789865683b4ad770b11655"
        }
      ],
      "purl": "pkg:golang/github.com/BurntSushi/toml@v1.0.0",
      "externalReferences": [
        {
          "url": "https://github.com/BurntSushi/toml",
          "type": "vcs"
        }
      ]
    },
    {
      "type": "library",
      "bom-ref": "pkg:golang/github.com/alessio/shellescape@v1.4.1",
      "name": "github.com/alessio/shellescape",
      "version": "v1.4.1",
      "scope": "required",
      "hashes": [
        {
          "alg": "SHA-256",
          "content": "57bca14830e7f0b3f895ce234bca4592dd330a7cd52651b9257cbd055289517d"
        }
      ],
      "purl": "pkg:golang/github.com/alessio/shellescape@v1.4.1",
      "externalReferences": [
        {
          "url": "https://github.com/alessio/shellescape",
          "type": "vcs"
        }
      ]
    },
    {
      "type": "library",
      "bom-ref": "pkg:golang/github.com/evanphx/json-patch/v5@v5.6.0",
      "name": "github.com/evanphx/json-patch/v5",
      "version": "v5.6.0",
      "scope": "required",
      "hashes": [
        {
          "alg": "SHA-256",
          "content": "6fdd4d8567dacf4d88b95c4ef5f692965c80b4d5c730f902e49f2c2422ee9f0c"
        }
      ],
      "purl": "pkg:golang/github.com/evanphx/json-patch/v5@v5.6.0",
      "externalReferences": [
        {
          "url": "https://github.com/evanphx/json-patch",
          "type": "vcs"
        }
      ]
    },
    {
      "type": "library",
      "bom-ref": "pkg:golang/github.com/inconshreveable/mousetrap@v1.0.0",
      "name": "github.com/inconshreveable/mousetrap",
      "version": "v1.0.0",
      "scope": "required",
      "hashes": [
        {
          "alg": "SHA-256",
          "content": "67cb6ee6cada2d709721c011c41a7ff1c6ef97055aed9d4d1e0f5710a86d4af3"
        }
      ],
      "purl": "pkg:golang/github.com/inconshreveable/mousetrap@v1.0.0",
      "externalReferences": [
        {
          "url": "https://github.com/inconshreveable/mousetrap",
          "type": "vcs"
        }
      ]
    },
    {
      "type": "library",
      "bom-ref": "pkg:golang/github.com/mattn/go-isatty@v0.0.14",
      "name": "github.com/mattn/go-isatty",
      "version": "v0.0.14",
      "scope": "required",
      "hashes": [
        {
          "alg": "SHA-256",
          "content": "c95b806b2b3a0477f18a38193f3c3edd996ee724202863f6fe17106c76fb4bd6"
        }
      ],
      "purl": "pkg:golang/github.com/mattn/go-isatty@v0.0.14",
      "externalReferences": [
        {
          "url": "https://github.com/mattn/go-isatty",
          "type": "vcs"
        }
      ]
    },
    {
      "type": "library",
      "bom-ref": "pkg:golang/github.com/pelletier/go-toml@v1.9.4",
      "name": "github.com/pelletier/go-toml",
      "version": "v1.9.4",
      "scope": "required",
      "hashes": [
        {
          "alg": "SHA-256",
          "content": "b6310d17a31f64083c7b8666653796696893daf5edb283bafa2b8e8c58440b03"
        }
      ],
      "purl": "pkg:golang/github.com/pelletier/go-toml@v1.9.4",
      "externalReferences": [
        {
          "url": "https://github.com/pelletier/go-toml",
          "type": "vcs"
        }
      ]
    },
    {
      "type": "library",
      "bom-ref": "pkg:golang/github.com/pkg/errors@v0.9.1",
      "name": "github.com/pkg/errors",
      "version": "v0.9.1",
      "scope": "required",
      "hashes": [
        {
          "alg": "SHA-256",
          "content": "14404bc75cd2db5e28c298f2eeab017a2c5b51192e850030acae54c0b193c2de"
        }
      ],
      "purl": "pkg:golang/github.com/pkg/errors@v0.9.1",
      "externalReferences": [
        {
          "url": "https://github.com/pkg/errors",
          "type": "vcs"
        }
      ]
    },
    {
      "type": "library",
      "bom-ref": "pkg:golang/github.com/spf13/cobra@v1.4.0",
      "name": "github.com/spf13/cobra",
      "version": "v1.4.0",
      "scope": "required",
      "hashes": [
        {
          "alg": "SHA-256",
          "content": "cbec09a71eb8c5c80ed55f91727c16d0b107c532918b66433d20635a7ae0f3c4"
        }
      ],
      "purl": "pkg:golang/github.com/spf13/cobra@v1.4.0",
      "externalReferences": [
        {
          "url": "https://github.com/spf13/cobra",
          "type": "vcs"
        }
      ]
    },
    {
      "type": "library",
      "bom-ref": "pkg:golang/github.com/spf13/pflag@v1.0.5",
      "name": "github.com/spf13/pflag",
      "version": "v1.0.5",
      "scope": "required",
      "hashes": [
        {
          "alg": "SHA-256",
          "content": "8b2f951543823f56bef3216da3f76b836089e6ed3246807b7d9c370cabff2570"
        }
      ],
      "purl": "pkg:golang/github.com/spf13/pflag@v1.0.5",
      "externalReferences": [
        {
          "url": "https://github.com/spf13/pflag",
          "type": "vcs"
        }
      ]
    },
    {
      "type": "library",
      "bom-ref": "pkg:golang/golang.org/x/sys@v0.0.0-20210630005230-0f9fa26af87c",
      "name": "golang.org/x/sys",
      "version": "v0.0.0-20210630005230-0f9fa26af87c",
      "scope": "required",
      "hashes": [
        {
          "alg": "SHA-256",
          "content": "1758d958616161f8740a2e79b08a482ed28a2bca778b6fe4ad3af41f5ae0ef82"
        }
      ],
      "purl": "pkg:golang/golang.org/x/sys@v0.0.0-20210630005230-0f9fa26af87c"
    },
    {
      "type": "library",
      "bom-ref": "pkg:golang/gopkg.in/yaml.v2@v2.4.0",
      "name": "gopkg.in/yaml.v2",
      "version": "v2.4.0",
      "scope": "required",
      "hashes": [
        {
          "alg": "SHA-256",
          "content": "0fcc60c04098ec262fc7e6369f8b01cfddc99fd251bf1762cb2a3c0937ee29a6"
        }
      ],
      "purl": "pkg:golang/gopkg.in/yaml.v2@v2.4.0",
      "externalReferences": [
        {
          "url": "https://github.com/go-yaml/yaml",
          "type": "vcs"
        }
      ]
    },
    {
      "type": "library",
      "bom-ref": "pkg:golang/gopkg.in/yaml.v3@v3.0.0-20210107192922-496545a6307b",
      "name": "gopkg.in/yaml.v3",
      "version": "v3.0.0-20210107192922-496545a6307b",
      "scope": "required",
      "hashes": [
        {
          "alg": "SHA-256",
          "content": "87ca83a2d6843ee2404eb3265b4e0d0b083bbf6d9a1c7dbcc30a5ab9484af4ea"
        }
      ],
      "purl": "pkg:golang/gopkg.in/yaml.v3@v3.0.0-20210107192922-496545a6307b",
      "externalReferences": [
        {
          "url": "https://github.com/go-yaml/yaml",
          "type": "vcs"
        }
      ]
    },
    {
      "type": "library",
      "bom-ref": "pkg:golang/sigs.k8s.io/yaml@v1.3.0",
      "name": "sigs.k8s.io/yaml",
      "version": "v1.3.0",
      "scope": "required",
      "hashes": [
        {
          "alg": "SHA-256",
          "content": "6b655c94bcce1abc0e1c3895f047c11a1be31ef3f8e82b56e63e8f3af858186a"
        }
      ],
      "purl": "pkg:golang/sigs.k8s.io/yaml@v1.3.0"
    },
    {
      "type": "library",
      "bom-ref": "pkg:golang/sigs.k8s.io/kind",
      "group": "sigs.k8s.io",
      "name": "kind",
      "version": "",
      "description": "",
      "scope": "required",
      "purl": "pkg:golang/sigs.k8s.io/kind"
    }
  ],
  "dependencies": [
    {
      "ref": "pkg:golang/github.com/BurntSushi/toml@v1.0.0"
    },
    {
      "ref": "pkg:golang/github.com/alessio/shellescape@v1.4.1"
    },
    {
      "ref": "pkg:golang/github.com/evanphx/json-patch/v5@v5.6.0",
      "dependsOn": [
        "pkg:golang/github.com/pkg/errors@v0.9.1"
      ]
    },
    {
      "ref": "pkg:golang/github.com/inconshreveable/mousetrap@v1.0.0"
    },
    {
      "ref": "pkg:golang/github.com/mattn/go-isatty@v0.0.14",
      "dependsOn": [
        "pkg:golang/golang.org/x/sys@v0.0.0-20210630005230-0f9fa26af87c"
      ]
    },
    {
      "ref": "pkg:golang/github.com/pelletier/go-toml@v1.9.4"
    },
    {
      "ref": "pkg:golang/github.com/pkg/errors@v0.9.1"
    },
    {
      "ref": "pkg:golang/github.com/spf13/cobra@v1.4.0",
      "dependsOn": [
        "pkg:golang/github.com/inconshreveable/mousetrap@v1.0.0",
        "pkg:golang/github.com/spf13/pflag@v1.0.5",
        "pkg:golang/gopkg.in/yaml.v2@v2.4.0"
      ]
    },
    {
      "ref": "pkg:golang/github.com/spf13/pflag@v1.0.5"
    },
    {
      "ref": "pkg:golang/golang.org/x/sys@v0.0.0-20210630005230-0f9fa26af87c"
    },
    {
      "ref": "pkg:golang/gopkg.in/yaml.v2@v2.4.0"
    },
    {
      "ref": "pkg:golang/gopkg.in/yaml.v3@v3.0.0-20210107192922-496545a6307b"
    },
    {
      "ref": "pkg:golang/sigs.k8s.io/yaml@v1.3.0",
      "dependsOn": [
        "pkg:golang/gopkg.in/yaml.v2@v2.4.0"
      ]
    },
    {
      "ref": "pkg:golang/sigs.k8s.io/kind@v0.0.0-20220513001948-6424d13597cb",
      "dependsOn": [
        "pkg:golang/github.com/BurntSushi/toml@v1.0.0",
        "pkg:golang/github.com/alessio/shellescape@v1.4.1",
        "pkg:golang/github.com/evanphx/json-patch/v5@v5.6.0",
        "pkg:golang/github.com/mattn/go-isatty@v0.0.14",
        "pkg:golang/github.com/pelletier/go-toml@v1.9.4",
        "pkg:golang/github.com/pkg/errors@v0.9.1",
        "pkg:golang/github.com/spf13/cobra@v1.4.0",
        "pkg:golang/github.com/spf13/pflag@v1.0.5",
        "pkg:golang/gopkg.in/yaml.v3@v3.0.0-20210107192922-496545a6307b",
        "pkg:golang/sigs.k8s.io/yaml@v1.3.0"
      ]
    }
  ]
}
