{
  "bomFormat": "CycloneDX",
  "specVersion": "1.3",
  "version": 1,
  "metadata": {
    "tools": [
      {
        "vendor": "CycloneDX",
        "name": "Node.js module",
        "version": "3.0.3"
      },
      {
        "vendor": "Fortress Information Security",
        "name": "Github Extractor",
        "version": "1.15.1"
      }
    ],
    "authors": [
      {
        "name": "Fortress Information Security",
        "email": "sales@fortressinfosec.com",
        "phone": "1-407-573-6800"
      }
    ],
    "timestamp": "2022-06-01T21:00:00Z",
    "component": {
      "type": "application",
      "name": "xerosploit",
      "version": "v1.0",
      "group": "LionSec",
      "externalReferences": [
        {
          "url": "https://github.com/LionSec/xerosploit.git",
          "type": "distribution"
        },
        {
          "type": "website",
          "url": "null",
          "comment": "As set via `homepage` in Github API"
        }
      ]
    }
  },
  "components": [
    {
      "type": "library",
      "publisher": "Robpol86",
      "name": "terminaltables",
      "version": "3.1.10",
      "description": "Generate simple tables in terminals from a nested list of strings.",
      "hashes": [
        {
          "alg": "MD5",
          "content": "6f125645c5a6766fa3fc01859d4a2514"
        },
        {
          "alg": "SHA-256",
          "content": "e4fdc4179c9e4aab5f674d80f09d76fa436b96fdc698a8505e0a36bf0804a874"
        }
      ],
      "licenses": [
        {
          "license": {
            "name": "MIT"
          }
        }
      ],
      "purl": "pkg:pypi/terminaltables@3.1.10",
      "modified": false
    },
    {
      "type": "library",
      "publisher": "Sergey Astanin",
      "name": "tabulate",
      "version": "0.8.9",
      "description": "Pretty-print tabular data",
      "hashes": [
        {
          "alg": "MD5",
          "content": "1a2ab1fba64a6c181c0c0924601c0851"
        },
        {
          "alg": "SHA-256",
          "content": "d7c013fe7abbc5e491394e10fa845f8f32fe54f8dc60c6622c6cf482d25d47e4"
        }
      ],
      "licenses": [
        {
          "license": {
            "name": "MIT"
          }
        }
      ],
      "purl": "pkg:pypi/tabulate@0.8.9",
      "modified": false
    },
    {
      "type": "library",
      "publisher": "Secret Labs AB (PythonWare)",
      "name": "PIL",
      "version": "1.1.6",
      "description": "Python Imaging Library",
      "licenses": [
        {
          "license": {
            "name": "Python (MIT style)"
          }
        }
      ],
      "purl": "pkg:pypi/pil@1.1.6",
      "modified": false
    },
    {
      "type": "library",
      "publisher": "Dave Snider, Read the Docs, Inc. & contributors",
      "name": "sphinx_rtd_theme",
      "version": "1.0.0",
      "description": "Read the Docs theme for Sphinx",
      "hashes": [
        {
          "alg": "MD5",
          "content": "98a94c3e7ff439b17bbf3ed5882fc99e"
        },
        {
          "alg": "SHA-256",
          "content": "4d35a56f4508cfee4c4fb604373ede6feae2a306731d533f409ef5c3496fdbd8"
        }
      ],
      "licenses": [
        {
          "license": {
            "name": "MIT"
          }
        }
      ],
      "purl": "pkg:pypi/sphinx-rtd-theme@1.0.0",
      "modified": false
    },
    {
      "type": "library",
      "name": "recommonmark",
      "version": "0.7.1",
      "description": "A docutils-compatibility bridge to CommonMark, enabling you to write CommonMark inside of Docutils & Sphinx projects.",
      "hashes": [
        {
          "alg": "MD5",
          "content": "ae65c083a1f49cc8f89aa37e19e5d005"
        },
        {
          "alg": "SHA-256",
          "content": "1b1db69af0231efce3fa21b94ff627ea33dee7079a01dd0a7f8482c3da148b3f"
        }
      ],
      "licenses": [
        {
          "license": {
            "name": "MIT"
          }
        }
      ],
      "purl": "pkg:pypi/recommonmark@0.7.1",
      "modified": false
    }
  ]
}
