{
  "bomFormat": "CycloneDX",
  "specVersion": "1.3",
  "version": 1,
  "metadata": {
    "tools": [
      {
        "vendor": "AppThreat",
        "name": "cdxgen",
        "version": "3.0.10"
      },
      {
        "vendor": "Fortress Information Security",
        "name": "Github Extractor",
        "version": "1.15.1"
      }
    ],
    "authors": [
      {
        "name": "Fortress Information Security",
        "email": "sales@fortressinfosec.com",
        "phone": "1-407-573-6800"
      }
    ],
    "timestamp": "2022-06-01T21:00:00Z",
    "component": {
      "type": "application",
      "name": "magenta",
      "version": "v2.1.2",
      "group": "magenta",
      "externalReferences": [
        {
          "url": "https://github.com/magenta/magenta.git",
          "type": "distribution"
        },
        {
          "type": "website",
          "url": "null",
          "comment": "As set via `homepage` in Github API"
        }
      ]
    }
  },
  "components": [
    {
      "type": "library",
      "publisher": "Python Packaging Authority",
      "name": "setuptools",
      "version": "62.1.0",
      "description": "Easily download, build, install, upgrade, and uninstall Python packages",
      "hashes": [
        {
          "alg": "MD5",
          "content": "101d2e2bf9b7682ab90d9a7bd487bdbe"
        },
        {
          "alg": "SHA-256",
          "content": "26ead7d1f93efc0f8c804d9fafafbe4a44b179580a7105754b245155f9af05a8"
        }
      ],
      "purl": "pkg:pypi/setuptools@62.1.0",
      "modified": false
    },
    {
      "type": "library",
      "publisher": "Google Inc.",
      "name": "tensorflow",
      "version": "2.8.0",
      "description": "TensorFlow is an open source machine learning framework for everyone.",
      "hashes": [
        {
          "alg": "MD5",
          "content": "198e5d8efbc7b35d8e2b503eaeb7d2c7"
        },
        {
          "alg": "SHA-256",
          "content": "b360c13b3e58b9a5c0780cbdb6b549eea73f620275fa203f8508fe418ae02735"
        }
      ],
      "licenses": [
        {
          "license": {
            "name": "Apache 2.0"
          }
        }
      ],
      "purl": "pkg:pypi/tensorflow@2.8.0",
      "modified": false
    },
    {
      "type": "library",
      "publisher": "Dima Dorfman",
      "name": "functools",
      "version": "0.5",
      "description": "Fast tools for functional programming",
      "hashes": [
        {
          "alg": "MD5",
          "content": "91111c28ee685a2f89f1a41e6f0ce8ea"
        },
        {
          "alg": "SHA-256",
          "content": "596ed8999dee419c0749a41bfdd82e4697e80ea27ee01c716003ef55be9a54c5"
        }
      ],
      "licenses": [
        {
          "license": {
            "name": "BSD"
          }
        }
      ],
      "purl": "pkg:pypi/functools@0.5",
      "modified": false
    },
    {
      "type": "library",
      "publisher": "Travis E. Oliphant et al.",
      "name": "numpy",
      "version": "1.22.3",
      "description": "NumPy is the fundamental package for array computing with Python.",
      "hashes": [
        {
          "alg": "MD5",
          "content": "99d2dfb943327b108b2c3b923bd42000"
        },
        {
          "alg": "SHA-256",
          "content": "c34ea7e9d13a70bf2ab64a2532fe149a9aced424cd05a2c4ba662fd989e3e45f"
        }
      ],
      "licenses": [
        {
          "license": {
            "name": "BSD"
          }
        }
      ],
      "purl": "pkg:pypi/numpy@1.22.3",
      "modified": false
    },
    {
      "type": "library",
      "publisher": "Benjamin Peterson",
      "name": "six",
      "version": "1.16.0",
      "description": "Python 2 and 3 compatibility utilities",
      "hashes": [
        {
          "alg": "MD5",
          "content": "529d7fd7e14612ccde86417b4402d6f3"
        },
        {
          "alg": "SHA-256",
          "content": "8abb2f1d86890a2dfb989f9a77cfcfd3e47c2a354b01111771326f8aa26e0254"
        }
      ],
      "licenses": [
        {
          "license": {
            "name": "MIT"
          }
        }
      ],
      "purl": "pkg:pypi/six@1.16.0",
      "modified": false
    },
    {
      "type": "library",
      "publisher": "Mario Vilas",
      "name": "google",
      "version": "3.0.0",
      "description": "Python bindings to the Google search engine.",
      "hashes": [
        {
          "alg": "MD5",
          "content": "30c719790d3e7e57e9482d108eda355c"
        },
        {
          "alg": "SHA-256",
          "content": "889cf695f84e4ae2c55fbc0cfdaf4c1e729417fa52ab1db0485202ba173e4935"
        }
      ],
      "purl": "pkg:pypi/google@3.0.0",
      "modified": false
    },
    {
      "type": "library",
      "publisher": "Google LLC",
      "name": "tensorflow_probability",
      "version": "0.16.0",
      "description": "Probabilistic modeling and statistical inference in TensorFlow",
      "hashes": [
        {
          "alg": "MD5",
          "content": "b89bd92be678e74ed46735556971405a"
        },
        {
          "alg": "SHA-256",
          "content": "48bcaa772ebbfa535594df025b3d7a5f531753117fd78f01bf740667dace99f7"
        }
      ],
      "licenses": [
        {
          "license": {
            "name": "Apache 2.0"
          }
        }
      ],
      "purl": "pkg:pypi/tensorflow-probability@0.16.0",
      "modified": false
    },
    {
      "type": "library",
      "publisher": "Google, Inc.",
      "name": "absl",
      "version": "0.0",
      "purl": "pkg:pypi/absl@0.0",
      "modified": false
    },
    {
      "type": "library",
      "publisher": "Google Inc.",
      "name": "note_seq",
      "version": "0.0.3",
      "description": "Use machine learning to create art and music",
      "hashes": [
        {
          "alg": "MD5",
          "content": "49f62f6380acda8ce5e5c2579ba1af48"
        },
        {
          "alg": "SHA-256",
          "content": "4d2aec0fa42e182bbc27ed5a192b2f9bd6307c8177794bb8e8b582d0601e1797"
        }
      ],
      "licenses": [
        {
          "license": {
            "name": "Apache 2"
          }
        }
      ],
      "purl": "pkg:pypi/note-seq@0.0.3",
      "modified": false
    },
    {
      "type": "library",
      "publisher": "Jean Pimentel",
      "name": "numbers",
      "version": "0.1",
      "description": "interesting numbers!",
      "purl": "pkg:pypi/numbers@0.1",
      "modified": false
    },
    {
      "type": "library",
      "publisher": "Thomas Waldmann",
      "name": "argparse",
      "version": "1.4.0",
      "description": "Python command-line parsing library",
      "hashes": [
        {
          "alg": "MD5",
          "content": "c37216a954c8669054e2b2c54853dd49"
        },
        {
          "alg": "SHA-256",
          "content": "c31647edb69fd3d465a847ea3157d37bed1f95f19760b11a47aa91c04b666314"
        }
      ],
      "licenses": [
        {
          "license": {
            "name": "Python Software Foundation License"
          }
        }
      ],
      "purl": "pkg:pypi/argparse@1.4.0",
      "modified": false
    },
    {
      "type": "library",
      "publisher": "Secret Labs AB (PythonWare)",
      "name": "PIL",
      "version": "1.1.6",
      "description": "Python Imaging Library",
      "licenses": [
        {
          "license": {
            "name": "Python (MIT style)"
          }
        }
      ],
      "purl": "pkg:pypi/pil@1.1.6",
      "modified": false
    },
    {
      "type": "library",
      "publisher": "Ole Martin Bjorndalen",
      "name": "mido",
      "version": "1.2.10",
      "description": "MIDI Objects for Python",
      "hashes": [
        {
          "alg": "MD5",
          "content": "aa5e3cf18a0add073d2b79869a93f270"
        },
        {
          "alg": "SHA-256",
          "content": "0e618232063e0a220249da4961563c7636fea00096cfb3e2b87a4231f0ac1a9e"
        }
      ],
      "licenses": [
        {
          "license": {
            "name": "MIT"
          }
        }
      ],
      "purl": "pkg:pypi/mido@1.2.10",
      "modified": false
    },
    {
      "type": "library",
      "publisher": "Kenneth Reitz",
      "name": "requests",
      "version": "2.27.1",
      "description": "Python HTTP for Humans.",
      "hashes": [
        {
          "alg": "MD5",
          "content": "435db0f122c83decd27524f690e89650"
        },
        {
          "alg": "SHA-256",
          "content": "f22fa1e554c9ddfd16e6e41ac79759e17be9e492b3587efa038054674760e72d"
        }
      ],
      "licenses": [
        {
          "license": {
            "name": "Apache 2.0"
          }
        }
      ],
      "purl": "pkg:pypi/requests@2.27.1",
      "modified": false
    },
    {
      "type": "library",
      "publisher": "Yijun Yu",
      "name": "ast",
      "version": "0.0.2",
      "description": "Conversion between protobuf3 and srcML.",
      "hashes": [
        {
          "alg": "MD5",
          "content": "866a45bda3dc0b19f8da494f6a548a8d"
        },
        {
          "alg": "SHA-256",
          "content": "04cf2827c4048d18635ca8f85357a4285d140424ac26028be0dc585f824e07cd"
        }
      ],
      "licenses": [
        {
          "license": {
            "name": "MIT"
          }
        }
      ],
      "purl": "pkg:pypi/ast@0.0.2",
      "modified": false
    },
    {
      "type": "library",
      "publisher": "Brett Cannon",
      "name": "importlib",
      "version": "1.0.4",
      "description": "Backport of importlib.import_module() from Python 2.7",
      "hashes": [
        {
          "alg": "MD5",
          "content": "5f9a0803bca7ba95f670d1464984296f"
        },
        {
          "alg": "SHA-256",
          "content": "b6ee7066fea66e35f8d0acee24d98006de1a0a8a94a8ce6efe73a9a23c8d9826"
        }
      ],
      "purl": "pkg:pypi/importlib@1.0.4",
      "modified": false
    },
    {
      "type": "library",
      "publisher": "Google Inc.",
      "name": "tensorflow_datasets",
      "version": "4.5.2",
      "description": "tensorflow/datasets is a library of datasets ready to use with TensorFlow.",
      "hashes": [
        {
          "alg": "MD5",
          "content": "8989ea4abb13512bd02874b8f63caa55"
        },
        {
          "alg": "SHA-256",
          "content": "319a0b5ae7c33822de64688105872849d00176ae1dbaef5c4a15d60dbc594de3"
        }
      ],
      "licenses": [
        {
          "license": {
            "name": "Apache 2.0"
          }
        }
      ],
      "purl": "pkg:pypi/tensorflow-datasets@4.5.2",
      "modified": false
    },
    {
      "type": "library",
      "publisher": "Google Inc.",
      "name": "tensorflow_gan",
      "version": "2.1.0",
      "description": "TF-GAN: A Generative Adversarial Networks library for TensorFlow.",
      "hashes": [
        {
          "alg": "MD5",
          "content": "76ca16cbf04fa75f7273a9286eb438ca"
        },
        {
          "alg": "SHA-256",
          "content": "a6869fc145c9df55bc337f255d7d27c2a36f5bed58507dde7bd9de5cfc2a9421"
        }
      ],
      "licenses": [
        {
          "license": {
            "name": "Apache 2.0"
          }
        }
      ],
      "purl": "pkg:pypi/tensorflow-gan@2.1.0",
      "modified": false
    },
    {
      "type": "library",
      "name": "io",
      "version": "0.0.1",
      "purl": "pkg:pypi/io@0.0.1",
      "modified": false
    },
    {
      "type": "library",
      "publisher": "The TF-Slim Team",
      "name": "tf_slim",
      "version": "1.1.0",
      "description": "TensorFlow-Slim: A lightweight library for defining, training and evaluating complex models in TensorFlow",
      "hashes": [
        {
          "alg": "MD5",
          "content": "b3586f0482f90b808ac5407dc6f1e80a"
        },
        {
          "alg": "SHA-256",
          "content": "fa2bab63b3925bd42601102e7f178dce997f525742596bf404fa8a6918e146ff"
        }
      ],
      "licenses": [
        {
          "license": {
            "name": "Apache 2.0"
          }
        }
      ],
      "purl": "pkg:pypi/tf-slim@1.1.0",
      "modified": false
    },
    {
      "type": "library",
      "name": "scipy",
      "version": "1.8.0",
      "description": "SciPy: Scientific Library for Python",
      "hashes": [
        {
          "alg": "MD5",
          "content": "1995af4cdd1a9174dcf58beccb8d2404"
        },
        {
          "alg": "SHA-256",
          "content": "bb7088e89cd751acf66195d2f00cf009a1ea113f3019664032d9075b1e727b6c"
        }
      ],
      "licenses": [
        {
          "license": {
            "name": "BSD"
          }
        }
      ],
      "purl": "pkg:pypi/scipy@1.8.0",
      "modified": false
    },
    {
      "type": "library",
      "publisher": "David Michael Brown",
      "name": "sonnet",
      "version": "0.1.6",
      "hashes": [
        {
          "alg": "MD5",
          "content": "1c95dbd4a285f6bffdb91ad66c2939f3"
        },
        {
          "alg": "SHA-256",
          "content": "57de398cff621a66f9d0658a9efe52059cd6ff38dc2e87969d6f365f5fc1ebdf"
        }
      ],
      "licenses": [
        {
          "license": {
            "name": "MIT"
          }
        }
      ],
      "purl": "pkg:pypi/sonnet@0.1.6",
      "modified": false
    },
    {
      "type": "library",
      "name": "tqdm",
      "version": "4.64.0",
      "description": "Fast, Extensible Progress Meter",
      "hashes": [
        {
          "alg": "MD5",
          "content": "67cd3830694b2a7e577d0db9e52a7830"
        },
        {
          "alg": "SHA-256",
          "content": "74a2cdefe14d11442cedf3ba4e21a3b84ff9a2dbdc6cfae2c34addb2a14a5ea6"
        }
      ],
      "licenses": [
        {
          "license": {
            "name": "MPLv2.0, MIT Licences"
          }
        }
      ],
      "purl": "pkg:pypi/tqdm@4.64.0",
      "modified": false
    },
    {
      "type": "library",
      "publisher": "Stefan van der Walt",
      "name": "skimage",
      "version": "0.0",
      "description": "Dummy package that points to scikit-image",
      "hashes": [
        {
          "alg": "MD5",
          "content": "cba2d2397f9ee986e7cfad264390b217"
        },
        {
          "alg": "SHA-256",
          "content": "6c96a11d9deea68489c9b80b38fad1dcdab582c36d4fa093b99b24a3b30c38ec"
        }
      ],
      "purl": "pkg:pypi/skimage@0.0",
      "modified": false
    },
    {
      "type": "library",
      "publisher": "Michal Nazarewicz",
      "name": "pygtrie",
      "version": "2.4.2",
      "description": "A pure Python trie data structure implementation.",
      "hashes": [
        {
          "alg": "MD5",
          "content": "f870035253c9290c9797a6c4dce03842"
        },
        {
          "alg": "SHA-256",
          "content": "43205559d28863358dbbf25045029f58e2ab357317a59b11f11ade278ac64692"
        }
      ],
      "licenses": [
        {
          "license": {
            "name": "Apache-2.0"
          }
        }
      ],
      "purl": "pkg:pypi/pygtrie@2.4.2",
      "modified": false
    },
    {
      "type": "library",
      "publisher": "Google Inc.",
      "name": "tensor2tensor",
      "version": "1.15.7",
      "description": "Tensor2Tensor",
      "hashes": [
        {
          "alg": "MD5",
          "content": "bb92c6dc7060f185462582b292dc370c"
        },
        {
          "alg": "SHA-256",
          "content": "26ef986c2b9f45bdefa4218229f33f2992e4d9df84f8939d41481cdaa8444392"
        }
      ],
      "licenses": [
        {
          "license": {
            "name": "Apache 2.0"
          }
        }
      ],
      "purl": "pkg:pypi/tensor2tensor@1.15.7",
      "modified": false
    },
    {
      "type": "library",
      "publisher": "Holger Krekel, Bruno Oliveira, Ronny Pfannschmidt, Floris Bruynooghe, Brianna Laugher, Florian Bruhin and others",
      "name": "pytest",
      "version": "7.1.2",
      "description": "pytest: simple powerful testing with Python",
      "hashes": [
        {
          "alg": "MD5",
          "content": "6f5a9e12007a2529cb00d3b5a8af33a1"
        },
        {
          "alg": "SHA-256",
          "content": "13d0e3ccfc2b6e26be000cb6568c832ba67ba32e719443bfe725814d3c42433c"
        }
      ],
      "licenses": [
        {
          "license": {
            "name": "MIT"
          }
        }
      ],
      "purl": "pkg:pypi/pytest@7.1.2",
      "modified": false
    },
    {
      "type": "library",
      "name": "hashlib",
      "version": "20081119",
      "description": "Secure hash and message digest algorithm library",
      "hashes": [
        {
          "alg": "MD5",
          "content": "46e59db6d5cac34b3344ef0c30d0897f"
        },
        {
          "alg": "SHA-256",
          "content": "419de2fd10ae71ed9c6adcb55903f116abd1d8acc8c814dfd5f839b4d5013e38"
        }
      ],
      "purl": "pkg:pypi/hashlib@20081119",
      "modified": false
    },
    {
      "type": "library",
      "publisher": "Vinay Sajip",
      "name": "logging",
      "version": "0.4.9.6",
      "description": "A logging module for Python",
      "hashes": [
        {
          "alg": "MD5",
          "content": "dc0a7ebc8b8970263911e11e7b7e1ca8"
        },
        {
          "alg": "SHA-256",
          "content": "26f6b50773f085042d301085bd1bf5d9f3735704db9f37c1ce6d8b85c38f2417"
        }
      ],
      "licenses": [
        {
          "license": {
            "name": "Copyright (C) 2001-2005 by Vinay Sajip. All Rights Reserved. See LICENSE for license."
          }
        }
      ],
      "purl": "pkg:pypi/logging@0.4.9.6",
      "modified": false
    },
    {
      "type": "library",
      "publisher": "Guido van Rossum, Jukka Lehtosalo, Łukasz Langa, Ivan Levkivskyi",
      "name": "typing",
      "version": "3.10.0.0",
      "description": "Type Hints for Python",
      "hashes": [
        {
          "alg": "MD5",
          "content": "cf38139027dc160e3ecd8e5ccf151da9"
        },
        {
          "alg": "SHA-256",
          "content": "12fbdfbe7d6cca1a42e485229afcb0b0c8259258cfb919b8a5e2a5c953742f89"
        }
      ],
      "licenses": [
        {
          "license": {
            "name": "PSF"
          }
        }
      ],
      "purl": "pkg:pypi/typing@3.10.0.0",
      "modified": false
    },
    {
      "type": "library",
      "publisher": "Apache Software Foundation",
      "name": "apache_beam",
      "version": "2.38.0",
      "description": "Apache Beam SDK for Python",
      "hashes": [
        {
          "alg": "MD5",
          "content": "8bdecc39ec1a20987404260f1118902e"
        },
        {
          "alg": "SHA-256",
          "content": "74130705bae1742c2e24e80ec786cff5bbd5c94fea141cb468a7022f6538e8e2"
        }
      ],
      "licenses": [
        {
          "license": {
            "name": "Apache License, Version 2.0"
          }
        }
      ],
      "purl": "pkg:pypi/apache-beam@2.38.0",
      "modified": false
    },
    {
      "type": "library",
      "publisher": "John D. Hunter, Michael Droettboom",
      "name": "matplotlib",
      "version": "3.5.2",
      "description": "Python plotting package",
      "hashes": [
        {
          "alg": "MD5",
          "content": "36ccc2efc47ed886836b2c7c3d3b9b3a"
        },
        {
          "alg": "SHA-256",
          "content": "24173c23d1bcbaed5bf47b8785d27933a1ac26a5d772200a0f3e0e38f471b001"
        }
      ],
      "licenses": [
        {
          "license": {
            "name": "PSF"
          }
        }
      ],
      "purl": "pkg:pypi/matplotlib@3.5.2",
      "modified": false
    },
    {
      "type": "library",
      "publisher": "imageio contributors",
      "name": "imageio",
      "version": "2.19.0",
      "description": "Library for reading and writing a wide range of image, video, scientific, and volumetric data formats.",
      "hashes": [
        {
          "alg": "MD5",
          "content": "4ce303a3e877c63fc7ccaebb4b14cb11"
        },
        {
          "alg": "SHA-256",
          "content": "7e803cd50a6b271e96e18f14767f8c2e01f27b84f93768cf9f08ad5277e9d030"
        }
      ],
      "licenses": [
        {
          "license": {
            "name": "BSD-2-Clause"
          }
        }
      ],
      "purl": "pkg:pypi/imageio@2.19.0",
      "modified": false
    },
    {
      "type": "library",
      "publisher": "P Henderson and M J Henderson",
      "name": "wave",
      "version": "0.0.2",
      "description": "Whole Architecture Verification",
      "hashes": [
        {
          "alg": "MD5",
          "content": "227bafdba903889ae50ef86085f98f16"
        },
        {
          "alg": "SHA-256",
          "content": "5187f49497287d218cc83d4cd1e5299dc31485ab3ed32abbaa9e95d8f73c4095"
        }
      ],
      "purl": "pkg:pypi/wave@0.0.2",
      "modified": false
    },
    {
      "type": "library",
      "publisher": "Brian McFee, librosa development team",
      "name": "librosa",
      "version": "0.9.1",
      "description": "Python module for audio and music processing",
      "hashes": [
        {
          "alg": "MD5",
          "content": "9243343481580355813b6824d671b101"
        },
        {
          "alg": "SHA-256",
          "content": "c2bb61a8008367cca89a3f1dad352d8e55fe5ca5f7414fb5d5258eb52765db33"
        }
      ],
      "licenses": [
        {
          "license": {
            "name": "ISC"
          }
        }
      ],
      "purl": "pkg:pypi/librosa@0.9.1",
      "modified": false
    },
    {
      "type": "library",
      "publisher": "Dave Cole",
      "name": "csv",
      "version": "1.0",
      "description": "Fast CSV Parser for Python",
      "licenses": [
        {
          "license": {
            "name": "BSD"
          }
        }
      ],
      "purl": "pkg:pypi/csv@1.0",
      "modified": false
    },
    {
      "type": "library",
      "publisher": "Rachel Bittner",
      "name": "sox",
      "version": "1.4.1",
      "description": "Python wrapper around SoX.",
      "hashes": [
        {
          "alg": "MD5",
          "content": "23a73d333360183c6cca4b5dc47e6902"
        },
        {
          "alg": "SHA-256",
          "content": "2458c8e71e229e7fb1a088874ad07906e0aedfb2874a6c4f0430efd6e7587129"
        }
      ],
      "licenses": [
        {
          "license": {
            "name": "BSD-3-Clause"
          }
        }
      ],
      "purl": "pkg:pypi/sox@1.4.1",
      "modified": false
    },
    {
      "type": "library",
      "publisher": "Colin Raffel",
      "name": "mir_eval",
      "version": "0.7",
      "description": "Common metrics for common audio/music processing tasks.",
      "hashes": [
        {
          "alg": "MD5",
          "content": "c0aa0ad140c2bb36e088837c00d4ecd7"
        },
        {
          "alg": "SHA-256",
          "content": "e1febaa5766c65a7545c2a170b241490f47a98987370b1e06742424c5debe65e"
        }
      ],
      "licenses": [
        {
          "license": {
            "name": "MIT"
          }
        }
      ],
      "purl": "pkg:pypi/mir-eval@0.7",
      "modified": false
    },
    {
      "type": "library",
      "publisher": "Hubert Pham",
      "name": "pyaudio",
      "version": "0.2.11",
      "description": "Bindings for PortAudio v19, the cross-platform audio input/output stream library.",
      "hashes": [
        {
          "alg": "MD5",
          "content": "a3bde4bd21ae817729a52abd69f093d9"
        },
        {
          "alg": "SHA-256",
          "content": "2a19bdb8ec1445b4f3e4b7b109e0e4cec1fd1f1ce588592aeb6db0b58d4fb3b0"
        }
      ],
      "purl": "pkg:pypi/pyaudio@0.2.11",
      "modified": false
    },
    {
      "type": "library",
      "publisher": "Christian Heimes",
      "name": "multiprocessing",
      "version": "2.6.2.1",
      "description": "Backport of the multiprocessing package to Python 2.4 and 2.5",
      "hashes": [
        {
          "alg": "MD5",
          "content": "5cc484396c040102116ccc2355379c72"
        },
        {
          "alg": "SHA-256",
          "content": "ef3b81ad85d7de252e5491b1daac028e17f9741cbe3625032e6eaa4ad4c79900"
        }
      ],
      "licenses": [
        {
          "license": {
            "name": "BSD Licence"
          }
        }
      ],
      "purl": "pkg:pypi/multiprocessing@2.6.2.1",
      "modified": false
    },
    {
      "type": "library",
      "publisher": "Denis Ryzhkov",
      "name": "attr",
      "version": "0.3.1",
      "description": "Simple decorator to set attributes of target function or class in a DRY way.",
      "hashes": [
        {
          "alg": "MD5",
          "content": "fe529263be9f20fde90b6362cfe48d59"
        },
        {
          "alg": "SHA-256",
          "content": "0b1aaddb85bd9e9c4bd75092f4440d6616ff40b0df0437f00771871670f7c9fd"
        }
      ],
      "licenses": [
        {
          "license": {
            "name": "MIT"
          }
        }
      ],
      "purl": "pkg:pypi/attr@0.3.1",
      "modified": false
    },
    {
      "type": "library",
      "publisher": "Jonathan Hartley",
      "name": "colorama",
      "version": "0.4.4",
      "description": "Cross-platform colored terminal text.",
      "hashes": [
        {
          "alg": "MD5",
          "content": "1dcd07acf2b1875ed09428e1ddf7e028"
        },
        {
          "alg": "SHA-256",
          "content": "9f47eda37229f68eee03b24b9748937c7dc3868f906e8ba69fbcbdd3bc5dc3e2"
        }
      ],
      "licenses": [
        {
          "license": {
            "name": "BSD"
          }
        }
      ],
      "purl": "pkg:pypi/colorama@0.4.4",
      "modified": false
    },
    {
      "type": "library",
      "publisher": "Michael Foord",
      "name": "unittest",
      "version": "0.0",
      "hashes": [
        {
          "alg": "MD5",
          "content": "2a416384f814604ed854d40f352f1191"
        },
        {
          "alg": "SHA-256",
          "content": "1b492484bea7f68abda5fcc61412e77b6a105e5842355d630f8b75f01add3555"
        }
      ],
      "purl": "pkg:pypi/unittest@0.0",
      "modified": false
    },
    {
      "type": "library",
      "publisher": "Zope Foundation and Contributors",
      "name": "datetime",
      "version": "4.4",
      "description": "This package provides a DateTime data type, as known from Zope. Unless you need to communicate with Zope APIs, you're probably better off using Python's built-in datetime module.",
      "hashes": [
        {
          "alg": "MD5",
          "content": "ad1e82d858ed7c8cd2ea437b4cb695ed"
        },
        {
          "alg": "SHA-256",
          "content": "4fcca115ddb466a1104df08d5c2a2f5805d14ca317800e1bfcea8f3d69f66e57"
        }
      ],
      "licenses": [
        {
          "license": {
            "name": "ZPL 2.1"
          }
        }
      ],
      "purl": "pkg:pypi/datetime@4.4",
      "modified": false
    },
    {
      "type": "library",
      "publisher": "Colin Raffel",
      "name": "pretty_midi",
      "version": "0.2.9",
      "description": "Functions and classes for handling MIDI data conveniently.",
      "hashes": [
        {
          "alg": "MD5",
          "content": "5efa5de45a6d58a5425c03a9ba771c2c"
        },
        {
          "alg": "SHA-256",
          "content": "f6a249cb843441e1cb78c4c0a1290948d6f56df7486f7974e20d5c80486dc99e"
        }
      ],
      "licenses": [
        {
          "license": {
            "name": "MIT"
          }
        }
      ],
      "purl": "pkg:pypi/pretty-midi@0.2.9",
      "modified": false
    },
    {
      "type": "library",
      "bom-ref": "pkg:pypi/p) for n",
      "group": "",
      "name": "p) for n",
      "version": "0.0.0",
      "description": "",
      "purl": "pkg:pypi/p) for n"
    },
    {
      "type": "library",
      "bom-ref": "pkg:pypi/p in",
      "group": "",
      "name": "p in",
      "version": "0.0.0",
      "description": "",
      "purl": "pkg:pypi/p in"
    },
    {
      "type": "library",
      "bom-ref": "pkg:pypi/((s.split(.)",
      "group": "",
      "name": "((s.split(.)",
      "version": "0.0.0",
      "description": "",
      "purl": "pkg:pypi/((s.split(.)"
    }
  ]
}
