{
  "bomFormat": "CycloneDX",
  "specVersion": "1.3",
  "serialNumber": "urn:uuid:45c39f17-2bc3-4c33-8b4e-e4d11ae83861",
  "version": 1,
  "metadata": {
    "timestamp": "2022-06-06T22:45:31Z",
    "tools": [
      {
        "vendor": "AppThreat",
        "name": "cdxgen",
        "version": "3.0.10"
      },
      {
        "vendor": "Fortress Information Security",
        "name": "Github Extractor",
        "version": "1.15.1"
      }
    ],
    "authors": [
      {
        "name": "Team AppThreat",
        "email": "cloud@appthreat.com"
      },
      {
        "name": "Fortress Information Security",
        "email": "sales@fortressinfosec.com",
        "phone": "1-407-573-6800"
      }
    ],
    "component": {
      "type": "application",
      "name": "makepad",
      "version": "report",
      "group": "makepad",
      "externalReferences": [
        {
          "url": "https://github.com/makepad/makepad.git",
          "type": "distribution"
        },
        {
          "type": "website",
          "url": "http://makepad.dev/",
          "comment": "As set via `homepage` in Github API"
        }
      ]
    }
  },
  "components": [
    {
      "type": "library",
      "bom-ref": "pkg:crates/builder@0.1.0",
      "group": "",
      "name": "builder",
      "version": "0.1.0",
      "description": "",
      "purl": "pkg:crates/builder@0.1.0"
    },
    {
      "type": "library",
      "bom-ref": "pkg:crates/makepad-code-editor@0.1.0",
      "group": "",
      "name": "makepad-code-editor",
      "version": "0.1.0",
      "description": "",
      "purl": "pkg:crates/makepad-code-editor@0.1.0"
    },
    {
      "type": "library",
      "bom-ref": "pkg:crates/makepad-render@{ git",
      "group": "",
      "name": "makepad-render",
      "version": "{ git",
      "description": "",
      "purl": "pkg:crates/makepad-render@{ git"
    },
    {
      "type": "library",
      "bom-ref": "pkg:crates/makepad-widget@{ git",
      "group": "",
      "name": "makepad-widget",
      "version": "{ git",
      "description": "",
      "purl": "pkg:crates/makepad-widget@{ git"
    },
    {
      "type": "library",
      "bom-ref": "pkg:crates/bare_example_app@0.1.0",
      "group": "",
      "name": "bare_example_app",
      "version": "0.1.0",
      "description": "",
      "purl": "pkg:crates/bare_example_app@0.1.0"
    },
    {
      "type": "library",
      "bom-ref": "pkg:crates/bare_example@0.1.0",
      "group": "",
      "name": "bare_example",
      "version": "0.1.0",
      "description": "",
      "purl": "pkg:crates/bare_example@0.1.0"
    },
    {
      "type": "library",
      "bom-ref": "pkg:crates/bare_example_wasm@0.1.0",
      "group": "",
      "name": "bare_example_wasm",
      "version": "0.1.0",
      "description": "",
      "purl": "pkg:crates/bare_example_wasm@0.1.0"
    },
    {
      "type": "library",
      "bom-ref": "pkg:crates/cmdline_example@0.1",
      "group": "",
      "name": "cmdline_example",
      "version": "0.1",
      "description": "",
      "purl": "pkg:crates/cmdline_example@0.1"
    },
    {
      "type": "library",
      "bom-ref": "pkg:crates/hello_world@0.1.0",
      "group": "",
      "name": "hello_world",
      "version": "0.1.0",
      "description": "",
      "purl": "pkg:crates/hello_world@0.1.0"
    },
    {
      "type": "library",
      "bom-ref": "pkg:crates/webgl_example_wasm@0.1.0",
      "group": "",
      "name": "webgl_example_wasm",
      "version": "0.1.0",
      "description": "",
      "purl": "pkg:crates/webgl_example_wasm@0.1.0"
    },
    {
      "type": "library",
      "bom-ref": "pkg:crates/editor_example_app@0.1.0",
      "group": "",
      "name": "editor_example_app",
      "version": "0.1.0",
      "description": "",
      "purl": "pkg:crates/editor_example_app@0.1.0"
    },
    {
      "type": "library",
      "bom-ref": "pkg:crates/editor_example@0.1.0",
      "group": "",
      "name": "editor_example",
      "version": "0.1.0",
      "description": "",
      "purl": "pkg:crates/editor_example@0.1.0"
    },
    {
      "type": "library",
      "bom-ref": "pkg:crates/editor_example_wasm@0.1.0",
      "group": "",
      "name": "editor_example_wasm",
      "version": "0.1.0",
      "description": "",
      "purl": "pkg:crates/editor_example_wasm@0.1.0"
    },
    {
      "type": "library",
      "bom-ref": "pkg:crates/widget_example_app@0.1.0",
      "group": "",
      "name": "widget_example_app",
      "version": "0.1.0",
      "description": "",
      "purl": "pkg:crates/widget_example_app@0.1.0"
    },
    {
      "type": "library",
      "bom-ref": "pkg:crates/widget_example@0.1.0",
      "group": "",
      "name": "widget_example",
      "version": "0.1.0",
      "description": "",
      "purl": "pkg:crates/widget_example@0.1.0"
    },
    {
      "type": "library",
      "bom-ref": "pkg:crates/widget_example_wasm@0.1.0",
      "group": "",
      "name": "widget_example_wasm",
      "version": "0.1.0",
      "description": "",
      "purl": "pkg:crates/widget_example_wasm@0.1.0"
    },
    {
      "type": "library",
      "bom-ref": "pkg:crates/mace@0.1.0",
      "group": "",
      "name": "mace",
      "version": "0.1.0",
      "description": "",
      "purl": "pkg:crates/mace@0.1.0"
    },
    {
      "type": "library",
      "bom-ref": "pkg:crates/bincode@1.3",
      "group": "",
      "name": "bincode",
      "version": "1.3",
      "description": "",
      "purl": "pkg:crates/bincode@1.3"
    },
    {
      "type": "library",
      "bom-ref": "pkg:crates/serde@1.0",
      "group": "",
      "name": "serde",
      "version": "1.0",
      "description": "",
      "purl": "pkg:crates/serde@1.0"
    },
    {
      "type": "library",
      "bom-ref": "pkg:crates/makepad-app@0.1.0",
      "group": "",
      "name": "makepad-app",
      "version": "0.1.0",
      "description": "",
      "purl": "pkg:crates/makepad-app@0.1.0"
    },
    {
      "type": "library",
      "bom-ref": "pkg:crates/makepad@0.1.0",
      "group": "",
      "name": "makepad",
      "version": "0.1.0",
      "description": "",
      "purl": "pkg:crates/makepad@0.1.0"
    },
    {
      "type": "library",
      "bom-ref": "pkg:crates/makepad-http@0.1.0",
      "group": "",
      "name": "makepad-http",
      "version": "0.1.0",
      "description": "",
      "purl": "pkg:crates/makepad-http@0.1.0"
    },
    {
      "type": "library",
      "bom-ref": "pkg:crates/makepad-hub@0.1.0",
      "group": "",
      "name": "makepad-hub",
      "version": "0.1.0",
      "description": "",
      "purl": "pkg:crates/makepad-hub@0.1.0"
    },
    {
      "type": "library",
      "bom-ref": "pkg:crates/makepad_wasm@0.1.0",
      "group": "",
      "name": "makepad_wasm",
      "version": "0.1.0",
      "description": "",
      "purl": "pkg:crates/makepad_wasm@0.1.0"
    },
    {
      "type": "library",
      "bom-ref": "pkg:crates/makepad-glx-sys@0.1.0",
      "group": "",
      "name": "makepad-glx-sys",
      "version": "0.1.0",
      "description": "",
      "purl": "pkg:crates/makepad-glx-sys@0.1.0"
    },
    {
      "type": "library",
      "bom-ref": "pkg:crates/makepad-objc-sys@0.2.7",
      "group": "",
      "name": "makepad-objc-sys",
      "version": "0.2.7",
      "description": "",
      "purl": "pkg:crates/makepad-objc-sys@0.2.7"
    },
    {
      "type": "library",
      "bom-ref": "pkg:crates/makepad-x11-sys@0.1.0",
      "group": "",
      "name": "makepad-x11-sys",
      "version": "0.1.0",
      "description": "",
      "purl": "pkg:crates/makepad-x11-sys@0.1.0"
    },
    {
      "type": "library",
      "bom-ref": "pkg:crates/makepad-render@0.2.0",
      "group": "",
      "name": "makepad-render",
      "version": "0.2.0",
      "description": "",
      "purl": "pkg:crates/makepad-render@0.2.0"
    },
    {
      "type": "library",
      "bom-ref": "pkg:crates/libc@0.2",
      "group": "",
      "name": "libc",
      "version": "0.2",
      "description": "",
      "purl": "pkg:crates/libc@0.2"
    },
    {
      "type": "library",
      "bom-ref": "pkg:crates/gl@0.14",
      "group": "",
      "name": "gl",
      "version": "0.14",
      "description": "",
      "purl": "pkg:crates/gl@0.14"
    },
    {
      "type": "library",
      "bom-ref": "pkg:crates/time@0.1.4",
      "group": "",
      "name": "time",
      "version": "0.1.4",
      "description": "",
      "purl": "pkg:crates/time@0.1.4"
    },
    {
      "type": "library",
      "bom-ref": "pkg:crates/wio@0.2",
      "group": "",
      "name": "wio",
      "version": "0.2",
      "description": "",
      "purl": "pkg:crates/wio@0.2"
    },
    {
      "type": "library",
      "bom-ref": "pkg:crates/features@[dwmapi, libloaderapi, shellscalingapi, winuser, winbase, d3d11, d3d11sdklayers, d3dcommon, d3dcompiler, dxgi1_2, dxgiformat, dxgitype, winerror]",
      "group": "",
      "name": "features",
      "version": "[dwmapi, libloaderapi, shellscalingapi, winuser, winbase, d3d11, d3d11sdklayers, d3dcommon, d3dcompiler, dxgi1_2, dxgiformat, dxgitype, winerror]",
      "description": "",
      "purl": "pkg:crates/features@[dwmapi, libloaderapi, shellscalingapi, winuser, winbase, d3d11, d3d11sdklayers, d3dcommon, d3dcompiler, dxgi1_2, dxgiformat, dxgitype, winerror]"
    },
    {
      "type": "library",
      "bom-ref": "pkg:crates/features@[dwmapi,libloaderapi, shellscalingapi, winuser, winbase, d3d11, d3d11sdklayers, d3dcommon, d3dcompiler, dxgi1_2, dxgiformat, dxgitype, winerror]",
      "group": "",
      "name": "features",
      "version": "[dwmapi,libloaderapi, shellscalingapi, winuser, winbase, d3d11, d3d11sdklayers, d3dcommon, d3dcompiler, dxgi1_2, dxgiformat, dxgitype, winerror]",
      "description": "",
      "purl": "pkg:crates/features@[dwmapi,libloaderapi, shellscalingapi, winuser, winbase, d3d11, d3d11sdklayers, d3dcommon, d3dcompiler, dxgi1_2, dxgiformat, dxgitype, winerror]"
    },
    {
      "type": "library",
      "bom-ref": "pkg:crates/makepad-draw-derive@0.1.0",
      "group": "",
      "name": "makepad-draw-derive",
      "version": "0.1.0",
      "description": "",
      "purl": "pkg:crates/makepad-draw-derive@0.1.0"
    },
    {
      "type": "library",
      "bom-ref": "pkg:crates/makepad-live-body@0.2.0",
      "group": "",
      "name": "makepad-live-body",
      "version": "0.2.0",
      "description": "",
      "purl": "pkg:crates/makepad-live-body@0.2.0"
    },
    {
      "type": "library",
      "bom-ref": "pkg:crates/makepad-live-compiler@0.1.0",
      "group": "",
      "name": "makepad-live-compiler",
      "version": "0.1.0",
      "description": "",
      "purl": "pkg:crates/makepad-live-compiler@0.1.0"
    },
    {
      "type": "library",
      "bom-ref": "pkg:crates/makepad-detok-derive@0.2.0",
      "group": "",
      "name": "makepad-detok-derive",
      "version": "0.2.0",
      "description": "",
      "purl": "pkg:crates/makepad-detok-derive@0.2.0"
    },
    {
      "type": "library",
      "bom-ref": "pkg:crates/makepad-live-parser@0.1.0",
      "group": "",
      "name": "makepad-live-parser",
      "version": "0.1.0",
      "description": "",
      "purl": "pkg:crates/makepad-live-parser@0.1.0"
    },
    {
      "type": "library",
      "bom-ref": "pkg:crates/makepad-live-derive@0.1.0",
      "group": "",
      "name": "makepad-live-derive",
      "version": "0.1.0",
      "description": "",
      "purl": "pkg:crates/makepad-live-derive@0.1.0"
    },
    {
      "type": "library",
      "bom-ref": "pkg:crates/makepad-microserde@0.1.0",
      "group": "",
      "name": "makepad-microserde",
      "version": "0.1.0",
      "description": "",
      "purl": "pkg:crates/makepad-microserde@0.1.0"
    },
    {
      "type": "library",
      "bom-ref": "pkg:crates/makepad-microserde-derive@0.1.0",
      "group": "",
      "name": "makepad-microserde-derive",
      "version": "0.1.0",
      "description": "",
      "purl": "pkg:crates/makepad-microserde-derive@0.1.0"
    },
    {
      "type": "library",
      "bom-ref": "pkg:crates/microserde_example@0.1.0",
      "group": "",
      "name": "microserde_example",
      "version": "0.1.0",
      "description": "",
      "purl": "pkg:crates/microserde_example@0.1.0"
    },
    {
      "type": "library",
      "bom-ref": "pkg:crates/makepad-font@0.1.0",
      "group": "",
      "name": "makepad-font",
      "version": "0.1.0",
      "description": "",
      "purl": "pkg:crates/makepad-font@0.1.0"
    },
    {
      "type": "library",
      "bom-ref": "pkg:crates/makepad-geometry@0.1.0",
      "group": "",
      "name": "makepad-geometry",
      "version": "0.1.0",
      "description": "",
      "purl": "pkg:crates/makepad-geometry@0.1.0"
    },
    {
      "type": "library",
      "bom-ref": "pkg:crates/makepad-internal-iter@0.1.0",
      "group": "",
      "name": "makepad-internal-iter",
      "version": "0.1.0",
      "description": "",
      "purl": "pkg:crates/makepad-internal-iter@0.1.0"
    },
    {
      "type": "library",
      "bom-ref": "pkg:crates/makepad-path@0.1.0",
      "group": "",
      "name": "makepad-path",
      "version": "0.1.0",
      "description": "",
      "purl": "pkg:crates/makepad-path@0.1.0"
    },
    {
      "type": "library",
      "bom-ref": "pkg:crates/makepad-trapezoidator@0.1.0",
      "group": "",
      "name": "makepad-trapezoidator",
      "version": "0.1.0",
      "description": "",
      "purl": "pkg:crates/makepad-trapezoidator@0.1.0"
    },
    {
      "type": "library",
      "bom-ref": "pkg:crates/makepad-ttf-parser@0.1.0",
      "group": "",
      "name": "makepad-ttf-parser",
      "version": "0.1.0",
      "description": "",
      "purl": "pkg:crates/makepad-ttf-parser@0.1.0"
    },
    {
      "type": "library",
      "bom-ref": "pkg:crates/brotli_test@0.1.0",
      "group": "",
      "name": "brotli_test",
      "version": "0.1.0",
      "description": "",
      "purl": "pkg:crates/brotli_test@0.1.0"
    },
    {
      "type": "library",
      "bom-ref": "pkg:crates/brotli@3.3.0",
      "group": "",
      "name": "brotli",
      "version": "3.3.0",
      "description": "",
      "purl": "pkg:crates/brotli@3.3.0"
    },
    {
      "type": "library",
      "bom-ref": "pkg:crates/webserver@0.1.0",
      "group": "",
      "name": "webserver",
      "version": "0.1.0",
      "description": "",
      "purl": "pkg:crates/webserver@0.1.0"
    },
    {
      "type": "library",
      "bom-ref": "pkg:crates/deflate@0.8.2",
      "group": "",
      "name": "deflate",
      "version": "0.8.2",
      "description": "",
      "purl": "pkg:crates/deflate@0.8.2"
    },
    {
      "type": "library",
      "bom-ref": "pkg:crates/makepad-widget@0.1.0",
      "group": "",
      "name": "makepad-widget",
      "version": "0.1.0",
      "description": "",
      "purl": "pkg:crates/makepad-widget@0.1.0"
    },
    {
      "type": "library",
      "bom-ref": "pkg:crates/#serde@1.0",
      "group": "",
      "name": "#serde",
      "version": "1.0",
      "description": "",
      "purl": "pkg:crates/#serde@1.0"
    },
    {
      "type": "library",
      "bom-ref": "pkg:crates/makepad-worlds@0.1.0",
      "group": "",
      "name": "makepad-worlds",
      "version": "0.1.0",
      "description": "",
      "purl": "pkg:crates/makepad-worlds@0.1.0"
    }
  ],
  "externalReferences": [
    {
      "url": "/project/src",
      "type": "other",
      "comment": "Base path"
    },
    {
      "url": "/project/src/builder/Cargo.toml, /project/src/Cargo.toml, /project/src/codeeditor/Cargo.toml, /project/src/examples/bare_example/app/Cargo.toml, /project/src/examples/bare_example/Cargo.toml, /project/src/examples/bare_example/wasm/Cargo.toml, /project/src/examples/cmdline_example/Cargo.toml, /project/src/examples/depricated/hello_world/Cargo.toml, /project/src/examples/depricated/webgl_example_wasm/Cargo.toml, /project/src/examples/editor_example/app/Cargo.toml, /project/src/examples/editor_example/Cargo.toml, /project/src/examples/editor_example/wasm/Cargo.toml, /project/src/examples/widget_example/app/Cargo.toml, /project/src/examples/widget_example/Cargo.toml, /project/src/examples/widget_example/wasm/Cargo.toml, /project/src/mace/Cargo.toml, /project/src/makepad/app/Cargo.toml, /project/src/makepad/Cargo.toml, /project/src/makepad/http/Cargo.toml, /project/src/makepad/hub/Cargo.toml, /project/src/makepad/wasm/Cargo.toml, /project/src/render/bind/glx-sys/Cargo.toml, /project/src/render/bind/objc-sys/Cargo.toml, /project/src/render/bind/x11-sys/Cargo.toml, /project/src/render/Cargo.toml, /project/src/render/draw_derive/Cargo.toml, /project/src/render/live_body/Cargo.toml, /project/src/render/live_compiler/Cargo.toml, /project/src/render/live_compiler/detok_derive/Cargo.toml, /project/src/render/live_parser/Cargo.toml, /project/src/render/live_parser/live_derive/Cargo.toml, /project/src/render/microserde/Cargo.toml, /project/src/render/microserde/derive/Cargo.toml, /project/src/render/microserde/example/Cargo.toml, /project/src/render/vector/font/Cargo.toml, /project/src/render/vector/geometry/Cargo.toml, /project/src/render/vector/internal_iter/Cargo.toml, /project/src/render/vector/path/Cargo.toml, /project/src/render/vector/trapezoidator/Cargo.toml, /project/src/render/vector/ttf_parser/Cargo.toml, /project/src/tools/brotli_test/Cargo.toml, /project/src/tools/webserver/Cargo.toml, /project/src/widget/Cargo.toml, /project/src/worlds/Cargo.toml",
      "type": "other",
      "comment": "Package file"
    }
  ]
}
