{
  "bomFormat": "CycloneDX",
  "specVersion": "1.3",
  "version": 1,
  "metadata": {
    "tools": [
      {
        "vendor": "CycloneDX",
        "name": "Node.js module",
        "version": "3.0.3"
      },
      {
        "vendor": "AppThreat",
        "name": "cdxgen",
        "version": "3.0.10"
      },
      {
        "vendor": "Fortress Information Security",
        "name": "Github Extractor",
        "version": "1.15.1"
      }
    ],
    "authors": [
      {
        "name": "Fortress Information Security",
        "email": "sales@fortressinfosec.com",
        "phone": "1-407-573-6800"
      }
    ],
    "timestamp": "2022-06-01T21:00:00Z",
    "component": {
      "type": "application",
      "name": "css-element-queries",
      "version": "1.2.2",
      "group": "marcj",
      "externalReferences": [
        {
          "url": "https://github.com/marcj/css-element-queries.git",
          "type": "distribution"
        },
        {
          "type": "website",
          "url": "http://marcj.github.io/css-element-queries/",
          "comment": "As set via `homepage` in Github API"
        }
      ]
    }
  },
  "components": [
    {
      "type": "library",
      "bom-ref": "pkg:npm/abbrev@1.1.1",
      "name": "abbrev",
      "version": "1.1.1",
      "description": "Like ruby's abbrev module, but in js",
      "hashes": [
        {
          "alg": "SHA-1",
          "content": "f8f2c887ad10bf67f634f005b6987fed3179aac8"
        }
      ],
      "licenses": [
        {
          "license": {
            "id": "ISC"
          }
        }
      ],
      "purl": "pkg:npm/abbrev@1.1.1",
      "externalReferences": [
        {
          "url": "https://github.com/isaacs/abbrev-js#readme",
          "type": "website"
        },
        {
          "url": "https://github.com/isaacs/abbrev-js/issues",
          "type": "issue-tracker"
        },
        {
          "url": "git+ssh://git@github.com/isaacs/abbrev-js.git",
          "type": "vcs"
        }
      ]
    },
    {
      "type": "library",
      "bom-ref": "pkg:npm/async@0.1.22",
      "name": "async",
      "version": "0.1.22",
      "description": "Higher-order functions and common patterns for asynchronous code",
      "hashes": [
        {
          "alg": "SHA-1",
          "content": "0fc1aaa088a0e3ef0ebe2d8831bab0dcf8845061"
        }
      ],
      "purl": "pkg:npm/async@0.1.22",
      "externalReferences": [
        {
          "url": "https://github.com/caolan/async#readme",
          "type": "website"
        },
        {
          "url": "http://github.com/caolan/async/issues",
          "type": "issue-tracker"
        },
        {
          "url": "git+ssh://git@github.com/caolan/async.git",
          "type": "vcs"
        }
      ]
    },
    {
      "type": "library",
      "bom-ref": "pkg:npm/colors@0.6.2",
      "name": "colors",
      "version": "0.6.2",
      "description": "get colors in your node.js console like what",
      "hashes": [
        {
          "alg": "SHA-1",
          "content": "2423fe6678ac0c5dae8852e5d0e5be08c997abcc"
        }
      ],
      "purl": "pkg:npm/colors@0.6.2",
      "externalReferences": [
        {
          "url": "https://github.com/Marak/colors.js",
          "type": "website"
        },
        {
          "url": "https://github.com/Marak/colors.js/issues",
          "type": "issue-tracker"
        },
        {
          "url": "git+ssh://git@github.com/Marak/colors.js.git",
          "type": "vcs"
        }
      ]
    },
    {
      "type": "library",
      "bom-ref": "pkg:npm/dateformat@1.0.2-1.2.3",
      "name": "dateformat",
      "version": "1.0.2-1.2.3",
      "description": "A node.js package for Steven Levithan's excellent dateFormat() function.",
      "hashes": [
        {
          "alg": "SHA-1",
          "content": "b0220c02de98617433b72851cf47de3df2cdbee9"
        }
      ],
      "purl": "pkg:npm/dateformat@1.0.2-1.2.3",
      "externalReferences": [
        {
          "url": "https://github.com/felixge/node-dateformat",
          "type": "website"
        }
      ]
    },
    {
      "type": "library",
      "bom-ref": "pkg:npm/eventemitter2@0.4.14",
      "name": "eventemitter2",
      "version": "0.4.14",
      "description": "A Node.js event emitter implementation with namespaces, wildcards, TTL and browser support.",
      "hashes": [
        {
          "alg": "SHA-1",
          "content": "8f61b75cde012b2e9eb284d4545583b5643b61ab"
        }
      ],
      "licenses": [
        {
          "license": {
            "id": "MIT"
          }
        }
      ],
      "purl": "pkg:npm/eventemitter2@0.4.14",
      "externalReferences": [
        {
          "url": "https://github.com/hij1nx/EventEmitter2#readme",
          "type": "website"
        },
        {
          "url": "https://github.com/hij1nx/EventEmitter2/issues",
          "type": "issue-tracker"
        },
        {
          "url": "git://github.com/hij1nx/EventEmitter2.git",
          "type": "vcs"
        }
      ]
    },
    {
      "type": "library",
      "bom-ref": "pkg:npm/exit@0.1.2",
      "name": "exit",
      "version": "0.1.2",
      "description": "A replacement for process.exit that ensures stdio are fully drained before exiting.",
      "hashes": [
        {
          "alg": "SHA-1",
          "content": "0632638f8d877cc82107d30a0fff1a17cba1cd0c"
        }
      ],
      "purl": "pkg:npm/exit@0.1.2",
      "externalReferences": [
        {
          "url": "https://github.com/cowboy/node-exit",
          "type": "website"
        },
        {
          "url": "https://github.com/cowboy/node-exit/issues",
          "type": "issue-tracker"
        },
        {
          "url": "git://github.com/cowboy/node-exit.git",
          "type": "vcs"
        }
      ]
    },
    {
      "type": "library",
      "bom-ref": "pkg:npm/getobject@0.1.0",
      "name": "getobject",
      "version": "0.1.0",
      "description": "get.and.set.deep.objects.easily = true",
      "hashes": [
        {
          "alg": "SHA-1",
          "content": "047a449789fa160d018f5486ed91320b6ec7885c"
        }
      ],
      "purl": "pkg:npm/getobject@0.1.0",
      "externalReferences": [
        {
          "url": "https://github.com/cowboy/node-getobject",
          "type": "website"
        },
        {
          "url": "https://github.com/cowboy/node-getobject/issues",
          "type": "issue-tracker"
        },
        {
          "url": "git://github.com/cowboy/node-getobject.git",
          "type": "vcs"
        }
      ]
    },
    {
      "type": "library",
      "bom-ref": "pkg:npm/grunt@0.4.5",
      "name": "grunt",
      "version": "0.4.5",
      "description": "The JavaScript Task Runner",
      "hashes": [
        {
          "alg": "SHA-1",
          "content": "56937cd5194324adff6d207631832a9d6ba4e7f0"
        }
      ],
      "purl": "pkg:npm/grunt@0.4.5",
      "externalReferences": [
        {
          "url": "http://gruntjs.com/",
          "type": "website"
        },
        {
          "url": "http://github.com/gruntjs/grunt/issues",
          "type": "issue-tracker"
        },
        {
          "url": "git://github.com/gruntjs/grunt.git",
          "type": "vcs"
        }
      ]
    },
    {
      "type": "library",
      "bom-ref": "pkg:npm/coffee-script@1.3.3",
      "name": "coffee-script",
      "version": "1.3.3",
      "description": "Unfancy JavaScript",
      "hashes": [
        {
          "alg": "SHA-1",
          "content": "150d6b4cb522894369efed6a2101c20bc7f4a4f4"
        }
      ],
      "purl": "pkg:npm/coffee-script@1.3.3",
      "externalReferences": [
        {
          "url": "http://coffeescript.org",
          "type": "website"
        },
        {
          "url": "https://github.com/jashkenas/coffee-script/issues",
          "type": "issue-tracker"
        },
        {
          "url": "git://github.com/jashkenas/coffee-script.git",
          "type": "vcs"
        }
      ]
    },
    {
      "type": "library",
      "bom-ref": "pkg:npm/findup-sync@0.1.3",
      "name": "findup-sync",
      "version": "0.1.3",
      "description": "Find the first file matching a given pattern in the current directory or the nearest ancestor directory.",
      "hashes": [
        {
          "alg": "SHA-1",
          "content": "7f3e7a97b82392c653bf06589bd85190e93c3683"
        }
      ],
      "purl": "pkg:npm/findup-sync@0.1.3",
      "externalReferences": [
        {
          "url": "https://github.com/cowboy/node-findup-sync",
          "type": "website"
        },
        {
          "url": "https://github.com/cowboy/node-findup-sync/issues",
          "type": "issue-tracker"
        },
        {
          "url": "git://github.com/cowboy/node-findup-sync.git",
          "type": "vcs"
        }
      ]
    },
    {
      "type": "library",
      "bom-ref": "pkg:npm/glob@3.2.11",
      "name": "glob",
      "version": "3.2.11",
      "description": "a little globber",
      "hashes": [
        {
          "alg": "SHA-1",
          "content": "4a973f635b9190f715d10987d5c00fd2815ebe3d"
        }
      ],
      "licenses": [
        {
          "license": {
            "name": "BSD"
          }
        }
      ],
      "purl": "pkg:npm/glob@3.2.11",
      "externalReferences": [
        {
          "url": "https://github.com/isaacs/node-glob#readme",
          "type": "website"
        },
        {
          "url": "https://github.com/isaacs/node-glob/issues",
          "type": "issue-tracker"
        },
        {
          "url": "git://github.com/isaacs/node-glob.git",
          "type": "vcs"
        }
      ]
    },
    {
      "type": "library",
      "bom-ref": "pkg:npm/inherits@2.0.4",
      "name": "inherits",
      "version": "2.0.4",
      "description": "Browser-friendly inheritance fully compatible with standard node.js inherits()",
      "hashes": [
        {
          "alg": "SHA-1",
          "content": "0fa2c64f932917c3433a0ded55363aae37416b7c"
        }
      ],
      "licenses": [
        {
          "license": {
            "id": "ISC"
          }
        }
      ],
      "purl": "pkg:npm/inherits@2.0.4",
      "externalReferences": [
        {
          "url": "https://github.com/isaacs/inherits#readme",
          "type": "website"
        },
        {
          "url": "https://github.com/isaacs/inherits/issues",
          "type": "issue-tracker"
        },
        {
          "url": "git://github.com/isaacs/inherits.git",
          "type": "vcs"
        }
      ]
    },
    {
      "type": "library",
      "bom-ref": "pkg:npm/minimatch@0.3.0",
      "name": "minimatch",
      "version": "0.3.0",
      "description": "a glob matcher in javascript",
      "hashes": [
        {
          "alg": "SHA-1",
          "content": "275d8edaac4f1bb3326472089e7949c8394699dd"
        }
      ],
      "licenses": [
        {
          "license": {
            "id": "MIT"
          }
        }
      ],
      "purl": "pkg:npm/minimatch@0.3.0",
      "externalReferences": [
        {
          "url": "https://github.com/isaacs/minimatch#readme",
          "type": "website"
        },
        {
          "url": "https://github.com/isaacs/minimatch/issues",
          "type": "issue-tracker"
        },
        {
          "url": "git://github.com/isaacs/minimatch.git",
          "type": "vcs"
        }
      ]
    },
    {
      "type": "library",
      "bom-ref": "pkg:npm/lru-cache@2.7.3",
      "name": "lru-cache",
      "version": "2.7.3",
      "description": "A cache object that deletes the least-recently-used items.",
      "hashes": [
        {
          "alg": "SHA-1",
          "content": "6d4524e8b955f95d4f5b58851ce21dd72fb4e952"
        }
      ],
      "licenses": [
        {
          "license": {
            "id": "ISC"
          }
        }
      ],
      "purl": "pkg:npm/lru-cache@2.7.3",
      "externalReferences": [
        {
          "url": "https://github.com/isaacs/node-lru-cache#readme",
          "type": "website"
        },
        {
          "url": "https://github.com/isaacs/node-lru-cache/issues",
          "type": "issue-tracker"
        },
        {
          "url": "git://github.com/isaacs/node-lru-cache.git",
          "type": "vcs"
        }
      ]
    },
    {
      "type": "library",
      "bom-ref": "pkg:npm/sigmund@1.0.1",
      "name": "sigmund",
      "version": "1.0.1",
      "description": "Quick and dirty signatures for Objects.",
      "hashes": [
        {
          "alg": "SHA-1",
          "content": "3ff21f198cad2175f9f3b781853fd94d0d19b590"
        }
      ],
      "licenses": [
        {
          "license": {
            "id": "ISC"
          }
        }
      ],
      "purl": "pkg:npm/sigmund@1.0.1",
      "externalReferences": [
        {
          "url": "https://github.com/isaacs/sigmund#readme",
          "type": "website"
        },
        {
          "url": "https://github.com/isaacs/sigmund/issues",
          "type": "issue-tracker"
        },
        {
          "url": "git://github.com/isaacs/sigmund.git",
          "type": "vcs"
        }
      ]
    },
    {
      "type": "library",
      "bom-ref": "pkg:npm/lodash@2.4.2",
      "name": "lodash",
      "version": "2.4.2",
      "description": "A utility library delivering consistency, customization, performance, & extras.",
      "hashes": [
        {
          "alg": "SHA-1",
          "content": "fadd834b9683073da179b3eae6d9c0d15053f73e"
        }
      ],
      "licenses": [
        {
          "license": {
            "id": "MIT"
          }
        }
      ],
      "purl": "pkg:npm/lodash@2.4.2",
      "externalReferences": [
        {
          "url": "http://lodash.com/",
          "type": "website"
        },
        {
          "url": "https://github.com/lodash/lodash/issues",
          "type": "issue-tracker"
        },
        {
          "url": "git+https://github.com/lodash/lodash.git",
          "type": "vcs"
        }
      ]
    },
    {
      "type": "library",
      "bom-ref": "pkg:npm/glob@3.1.21",
      "name": "glob",
      "version": "3.1.21",
      "description": "a little globber",
      "hashes": [
        {
          "alg": "SHA-1",
          "content": "d29e0a055dea5138f4d07ed40e8982e83c2066cd"
        }
      ],
      "licenses": [
        {
          "license": {
            "name": "BSD"
          }
        }
      ],
      "purl": "pkg:npm/glob@3.1.21",
      "externalReferences": [
        {
          "url": "https://github.com/isaacs/node-glob#readme",
          "type": "website"
        },
        {
          "url": "https://github.com/isaacs/node-glob/issues",
          "type": "issue-tracker"
        },
        {
          "url": "git://github.com/isaacs/node-glob.git",
          "type": "vcs"
        }
      ]
    },
    {
      "type": "library",
      "bom-ref": "pkg:npm/graceful-fs@1.2.3",
      "name": "graceful-fs",
      "version": "1.2.3",
      "description": "A drop-in replacement for fs, making various improvements.",
      "hashes": [
        {
          "alg": "SHA-1",
          "content": "15a4806a57547cb2d2dbf27f42e89a8c3451b364"
        }
      ],
      "licenses": [
        {
          "license": {
            "name": "BSD"
          }
        }
      ],
      "purl": "pkg:npm/graceful-fs@1.2.3",
      "externalReferences": [
        {
          "url": "https://github.com/isaacs/node-graceful-fs#readme",
          "type": "website"
        },
        {
          "url": "https://github.com/isaacs/node-graceful-fs/issues",
          "type": "issue-tracker"
        },
        {
          "url": "git://github.com/isaacs/node-graceful-fs.git",
          "type": "vcs"
        }
      ]
    },
    {
      "type": "library",
      "bom-ref": "pkg:npm/inherits@1.0.2",
      "name": "inherits",
      "version": "1.0.2",
      "description": "A tiny simple way to do classic inheritance in js",
      "hashes": [
        {
          "alg": "SHA-1",
          "content": "ca4309dadee6b54cc0b8d247e8d7c7a0975bdc9b"
        }
      ],
      "purl": "pkg:npm/inherits@1.0.2",
      "externalReferences": [
        {
          "url": "https://github.com/isaacs/inherits#readme",
          "type": "website"
        },
        {
          "url": "https://github.com/isaacs/inherits/issues",
          "type": "issue-tracker"
        },
        {
          "url": "git+https://github.com/isaacs/inherits.git",
          "type": "vcs"
        }
      ]
    },
    {
      "type": "library",
      "bom-ref": "pkg:npm/minimatch@0.2.14",
      "name": "minimatch",
      "version": "0.2.14",
      "description": "a glob matcher in javascript",
      "hashes": [
        {
          "alg": "SHA-1",
          "content": "c74e780574f63c6f9a090e90efbe6ef53a6a756a"
        }
      ],
      "licenses": [
        {
          "license": {
            "id": "MIT"
          }
        }
      ],
      "purl": "pkg:npm/minimatch@0.2.14",
      "externalReferences": [
        {
          "url": "https://github.com/isaacs/minimatch#readme",
          "type": "website"
        },
        {
          "url": "https://github.com/isaacs/minimatch/issues",
          "type": "issue-tracker"
        },
        {
          "url": "git://github.com/isaacs/minimatch.git",
          "type": "vcs"
        }
      ]
    },
    {
      "type": "library",
      "bom-ref": "pkg:npm/grunt-legacy-log@0.1.3",
      "name": "grunt-legacy-log",
      "version": "0.1.3",
      "description": "The Grunt 0.4.x logger.",
      "hashes": [
        {
          "alg": "SHA-1",
          "content": "ec29426e803021af59029f87d2f9cd7335a05531"
        }
      ],
      "licenses": [
        {
          "license": {
            "id": "MIT"
          }
        }
      ],
      "purl": "pkg:npm/grunt-legacy-log@0.1.3",
      "externalReferences": [
        {
          "url": "http://gruntjs.com/",
          "type": "website"
        },
        {
          "url": "http://github.com/gruntjs/grunt-legacy-log/issues",
          "type": "issue-tracker"
        },
        {
          "url": "git://github.com/gruntjs/grunt-legacy-log.git",
          "type": "vcs"
        }
      ]
    },
    {
      "type": "library",
      "bom-ref": "pkg:npm/grunt-legacy-log-utils@0.1.1",
      "name": "grunt-legacy-log-utils",
      "version": "0.1.1",
      "description": "Static methods for the Grunt 0.4.x logger.",
      "hashes": [
        {
          "alg": "SHA-1",
          "content": "c0706b9dd9064e116f36f23fe4e6b048672c0f7e"
        }
      ],
      "purl": "pkg:npm/grunt-legacy-log-utils@0.1.1",
      "externalReferences": [
        {
          "url": "http://gruntjs.com/",
          "type": "website"
        },
        {
          "url": "http://github.com/gruntjs/grunt-legacy-log-utils/issues",
          "type": "issue-tracker"
        },
        {
          "url": "git://github.com/gruntjs/grunt-legacy-log-utils.git",
          "type": "vcs"
        }
      ]
    },
    {
      "type": "library",
      "bom-ref": "pkg:npm/underscore.string@2.3.3",
      "name": "underscore.string",
      "version": "2.3.3",
      "description": "String manipulation extensions for Underscore.js javascript library.",
      "hashes": [
        {
          "alg": "SHA-1",
          "content": "71c08bf6b428b1133f37e78fa3a21c82f7329b0d"
        }
      ],
      "purl": "pkg:npm/underscore.string@2.3.3",
      "externalReferences": [
        {
          "url": "http://epeli.github.com/underscore.string/",
          "type": "website"
        },
        {
          "url": "https://github.com/epeli/underscore.string/issues",
          "type": "issue-tracker"
        },
        {
          "url": "git+https://github.com/epeli/underscore.string.git",
          "type": "vcs"
        }
      ]
    },
    {
      "type": "library",
      "bom-ref": "pkg:npm/hooker@0.2.3",
      "name": "hooker",
      "version": "0.2.3",
      "description": "Monkey-patch (hook) functions for debugging and stuff.",
      "hashes": [
        {
          "alg": "SHA-1",
          "content": "b834f723cc4a242aa65963459df6d984c5d3d959"
        }
      ],
      "purl": "pkg:npm/hooker@0.2.3",
      "externalReferences": [
        {
          "url": "http://github.com/cowboy/javascript-hooker",
          "type": "website"
        },
        {
          "url": "https://github.com/cowboy/javascript-hooker/issues",
          "type": "issue-tracker"
        },
        {
          "url": "git://github.com/cowboy/javascript-hooker.git",
          "type": "vcs"
        }
      ]
    },
    {
      "type": "library",
      "bom-ref": "pkg:npm/grunt-legacy-util@0.2.0",
      "name": "grunt-legacy-util",
      "version": "0.2.0",
      "description": "Some old grunt utils provided for backwards compatibility.",
      "hashes": [
        {
          "alg": "SHA-1",
          "content": "93324884dbf7e37a9ff7c026dff451d94a9e554b"
        }
      ],
      "purl": "pkg:npm/grunt-legacy-util@0.2.0",
      "externalReferences": [
        {
          "url": "http://gruntjs.com/",
          "type": "website"
        },
        {
          "url": "http://github.com/gruntjs/grunt-legacy-util/issues",
          "type": "issue-tracker"
        },
        {
          "url": "git://github.com/gruntjs/grunt-legacy-util.git",
          "type": "vcs"
        }
      ]
    },
    {
      "type": "library",
      "bom-ref": "pkg:npm/lodash@0.9.2",
      "name": "lodash",
      "version": "0.9.2",
      "description": "A utility library delivering consistency, customization, performance, and extras.",
      "hashes": [
        {
          "alg": "SHA-1",
          "content": "8f3499c5245d346d682e5b0d3b40767e09f1a92c"
        }
      ],
      "licenses": [
        {
          "license": {
            "id": "MIT"
          }
        }
      ],
      "purl": "pkg:npm/lodash@0.9.2",
      "externalReferences": [
        {
          "url": "http://lodash.com",
          "type": "website"
        },
        {
          "url": "https://github.com/lodash/lodash/issues",
          "type": "issue-tracker"
        },
        {
          "url": "git+https://github.com/lodash/lodash.git",
          "type": "vcs"
        }
      ]
    },
    {
      "type": "library",
      "bom-ref": "pkg:npm/underscore.string@2.2.1",
      "name": "underscore.string",
      "version": "2.2.1",
      "description": "String manipulation extensions for Underscore.js javascript library.",
      "hashes": [
        {
          "alg": "SHA-1",
          "content": "d7c0fa2af5d5a1a67f4253daee98132e733f0f19"
        }
      ],
      "purl": "pkg:npm/underscore.string@2.2.1",
      "externalReferences": [
        {
          "url": "http://epeli.github.com/underscore.string/",
          "type": "website"
        },
        {
          "url": "https://github.com/epeli/underscore.string/issues",
          "type": "issue-tracker"
        },
        {
          "url": "git+https://github.com/epeli/underscore.string.git",
          "type": "vcs"
        }
      ]
    },
    {
      "type": "library",
      "bom-ref": "pkg:npm/which@1.0.9",
      "name": "which",
      "version": "1.0.9",
      "description": "Like which(1) unix command. Find the first instance of an executable in the PATH.",
      "hashes": [
        {
          "alg": "SHA-1",
          "content": "460c1da0f810103d0321a9b633af9e575e64486f"
        }
      ],
      "licenses": [
        {
          "license": {
            "id": "ISC"
          }
        }
      ],
      "purl": "pkg:npm/which@1.0.9",
      "externalReferences": [
        {
          "url": "https://github.com/isaacs/node-which#readme",
          "type": "website"
        },
        {
          "url": "https://github.com/isaacs/node-which/issues",
          "type": "issue-tracker"
        },
        {
          "url": "git://github.com/isaacs/node-which.git",
          "type": "vcs"
        }
      ]
    },
    {
      "type": "library",
      "bom-ref": "pkg:npm/iconv-lite@0.2.11",
      "name": "iconv-lite",
      "version": "0.2.11",
      "description": "Convert character encodings in pure javascript.",
      "hashes": [
        {
          "alg": "SHA-1",
          "content": "1ce60a3a57864a292d1321ff4609ca4bb965adc8"
        }
      ],
      "licenses": [
        {
          "license": {
            "id": "MIT"
          }
        }
      ],
      "purl": "pkg:npm/iconv-lite@0.2.11",
      "externalReferences": [
        {
          "url": "https://github.com/ashtuchkin/iconv-lite",
          "type": "website"
        },
        {
          "url": "https://github.com/ashtuchkin/iconv-lite/issues",
          "type": "issue-tracker"
        },
        {
          "url": "git://github.com/ashtuchkin/iconv-lite.git",
          "type": "vcs"
        }
      ]
    },
    {
      "type": "library",
      "bom-ref": "pkg:npm/js-yaml@2.0.5",
      "name": "js-yaml",
      "version": "2.0.5",
      "description": "YAML 1.2 parser and serializer",
      "hashes": [
        {
          "alg": "SHA-1",
          "content": "a25ae6509999e97df278c6719da11bd0687743a8"
        }
      ],
      "licenses": [
        {
          "license": {
            "id": "MIT"
          }
        }
      ],
      "purl": "pkg:npm/js-yaml@2.0.5",
      "externalReferences": [
        {
          "url": "https://github.com/nodeca/js-yaml",
          "type": "website"
        },
        {
          "url": "https://github.com/nodeca/js-yaml/issues",
          "type": "issue-tracker"
        },
        {
          "url": "git://github.com/nodeca/js-yaml.git",
          "type": "vcs"
        }
      ]
    },
    {
      "type": "library",
      "bom-ref": "pkg:npm/argparse@0.1.16",
      "name": "argparse",
      "version": "0.1.16",
      "description": "Very powerful CLI arguments parser. Native port of argparse - python's options parsing library",
      "hashes": [
        {
          "alg": "SHA-1",
          "content": "cfd01e0fbba3d6caed049fbd758d40f65196f57c"
        }
      ],
      "licenses": [
        {
          "license": {
            "id": "MIT"
          }
        }
      ],
      "purl": "pkg:npm/argparse@0.1.16",
      "externalReferences": [
        {
          "url": "https://github.com/nodeca/argparse",
          "type": "website"
        },
        {
          "url": "https://github.com/nodeca/argparse/issues",
          "type": "issue-tracker"
        },
        {
          "url": "git://github.com/nodeca/argparse.git",
          "type": "vcs"
        }
      ]
    },
    {
      "type": "library",
      "bom-ref": "pkg:npm/underscore@1.7.0",
      "name": "underscore",
      "version": "1.7.0",
      "description": "JavaScript's functional programming helper library.",
      "hashes": [
        {
          "alg": "SHA-1",
          "content": "6bbaf0877500d36be34ecaa584e0db9fef035209"
        }
      ],
      "purl": "pkg:npm/underscore@1.7.0",
      "externalReferences": [
        {
          "url": "http://underscorejs.org",
          "type": "website"
        },
        {
          "url": "https://github.com/jashkenas/underscore/issues",
          "type": "issue-tracker"
        },
        {
          "url": "git://github.com/jashkenas/underscore.git",
          "type": "vcs"
        }
      ]
    },
    {
      "type": "library",
      "bom-ref": "pkg:npm/underscore.string@2.4.0",
      "name": "underscore.string",
      "version": "2.4.0",
      "description": "String manipulation extensions for Underscore.js javascript library.",
      "hashes": [
        {
          "alg": "SHA-1",
          "content": "8cdd8fbac4e2d2ea1e7e2e8097c42f442280f85b"
        }
      ],
      "purl": "pkg:npm/underscore.string@2.4.0",
      "externalReferences": [
        {
          "url": "http://epeli.github.com/underscore.string/",
          "type": "website"
        },
        {
          "url": "https://github.com/epeli/underscore.string/issues",
          "type": "issue-tracker"
        },
        {
          "url": "git+https://github.com/epeli/underscore.string.git",
          "type": "vcs"
        }
      ]
    },
    {
      "type": "library",
      "bom-ref": "pkg:npm/esprima@1.0.4",
      "name": "esprima",
      "version": "1.0.4",
      "description": "ECMAScript parsing infrastructure for multipurpose analysis",
      "hashes": [
        {
          "alg": "SHA-1",
          "content": "9f557e08fc3b4d26ece9dd34f8fbf476b62585ad"
        }
      ],
      "purl": "pkg:npm/esprima@1.0.4",
      "externalReferences": [
        {
          "url": "http://esprima.org",
          "type": "website"
        },
        {
          "url": "https://github.com/ariya/esprima/issues",
          "type": "issue-tracker"
        },
        {
          "url": "git+ssh://git@github.com/ariya/esprima.git",
          "type": "vcs"
        }
      ]
    },
    {
      "type": "library",
      "bom-ref": "pkg:npm/nopt@1.0.10",
      "name": "nopt",
      "version": "1.0.10",
      "description": "Option parsing for Node, supporting types, shorthands, etc. Used by npm.",
      "hashes": [
        {
          "alg": "SHA-1",
          "content": "6ddd21bd2a31417b92727dd585f8a6f37608ebee"
        }
      ],
      "licenses": [
        {
          "license": {
            "id": "MIT"
          }
        }
      ],
      "purl": "pkg:npm/nopt@1.0.10",
      "externalReferences": [
        {
          "url": "https://github.com/isaacs/nopt#readme",
          "type": "website"
        },
        {
          "url": "https://github.com/isaacs/nopt/issues",
          "type": "issue-tracker"
        },
        {
          "url": "git+ssh://git@github.com/isaacs/nopt.git",
          "type": "vcs"
        }
      ]
    },
    {
      "type": "library",
      "bom-ref": "pkg:npm/rimraf@2.2.8",
      "name": "rimraf",
      "version": "2.2.8",
      "description": "A deep deletion module for node (like `rm -rf`)",
      "hashes": [
        {
          "alg": "SHA-1",
          "content": "e439be2aaee327321952730f99a8929e4fc50582"
        }
      ],
      "licenses": [
        {
          "license": {
            "id": "MIT"
          }
        }
      ],
      "purl": "pkg:npm/rimraf@2.2.8",
      "externalReferences": [
        {
          "url": "https://github.com/isaacs/rimraf#readme",
          "type": "website"
        },
        {
          "url": "https://github.com/isaacs/rimraf/issues",
          "type": "issue-tracker"
        },
        {
          "url": "git://github.com/isaacs/rimraf.git",
          "type": "vcs"
        }
      ]
    },
    {
      "type": "library",
      "bom-ref": "pkg:npm/grunt-bump@0.3.4",
      "name": "grunt-bump",
      "version": "0.3.4",
      "description": "Bump package version",
      "hashes": [
        {
          "alg": "SHA-1",
          "content": "77251e86ff8be4dbd234afcd5ee824e5639a4767"
        }
      ],
      "licenses": [
        {
          "license": {
            "id": "MIT"
          }
        }
      ],
      "purl": "pkg:npm/grunt-bump@0.3.4",
      "externalReferences": [
        {
          "url": "https://github.com/vojtajina/grunt-bump",
          "type": "website"
        },
        {
          "url": "https://github.com/vojtajina/grunt-bump/issues",
          "type": "issue-tracker"
        },
        {
          "url": "git://github.com/vojtajina/grunt-bump.git",
          "type": "vcs"
        }
      ]
    },
    {
      "type": "library",
      "bom-ref": "pkg:npm/semver@4.3.6",
      "name": "semver",
      "version": "4.3.6",
      "description": "The semantic version parser used by npm.",
      "hashes": [
        {
          "alg": "SHA-1",
          "content": "300bc6e0e86374f7ba61068b5b1ecd57fc6532da"
        }
      ],
      "licenses": [
        {
          "license": {
            "id": "ISC"
          }
        }
      ],
      "purl": "pkg:npm/semver@4.3.6",
      "externalReferences": [
        {
          "url": "https://github.com/npm/node-semver#readme",
          "type": "website"
        },
        {
          "url": "https://github.com/npm/node-semver/issues",
          "type": "issue-tracker"
        },
        {
          "url": "git://github.com/npm/node-semver.git",
          "type": "vcs"
        }
      ]
    }
  ]
}
