{
  "bomFormat": "CycloneDX",
  "specVersion": "1.3",
  "version": 1,
  "components": [
    {
      "type": "library",
      "publisher": "Jeff Forcier",
      "name": "paramiko",
      "version": "2.11.0",
      "description": "SSH2 protocol library",
      "hashes": [
        {
          "alg": "MD5",
          "content": "ef28de11db43e937c5e86a77da65a10b"
        },
        {
          "alg": "SHA-256",
          "content": "655f25dc8baf763277b933dfcea101d636581df8d6b9774d1fb653426b72c270"
        }
      ],
      "licenses": [
        {
          "license": {
            "name": "LGPL"
          }
        }
      ],
      "purl": "pkg:pypi/paramiko@2.11.0",
      "modified": false
    },
    {
      "type": "library",
      "publisher": "Zope Foundation and Contributors",
      "name": "datetime",
      "version": "4.4",
      "description": "This package provides a DateTime data type, as known from Zope. Unless you need to communicate with Zope APIs, you're probably better off using Python's built-in datetime module.",
      "hashes": [
        {
          "alg": "MD5",
          "content": "ad1e82d858ed7c8cd2ea437b4cb695ed"
        },
        {
          "alg": "SHA-256",
          "content": "4fcca115ddb466a1104df08d5c2a2f5805d14ca317800e1bfcea8f3d69f66e57"
        }
      ],
      "licenses": [
        {
          "license": {
            "name": "ZPL 2.1"
          }
        }
      ],
      "purl": "pkg:pypi/datetime@4.4",
      "modified": false
    },
    {
      "type": "library",
      "publisher": "Kirk Byers",
      "name": "netmiko",
      "version": "4.1.1",
      "description": "Multi-vendor library to simplify legacy CLI connections to network devices",
      "hashes": [
        {
          "alg": "MD5",
          "content": "9d0cafad5e91da5c58479c11d8f9619b"
        },
        {
          "alg": "SHA-256",
          "content": "a01e65fbed9cefc460e336ea9bc28da68e1f4c215d9288a94080e200133e5a41"
        }
      ],
      "licenses": [
        {
          "license": {
            "name": "MIT"
          }
        }
      ],
      "purl": "pkg:pypi/netmiko@4.1.1",
      "modified": false
    }
  ],
  "metadata": {
    "authors": [
      {
        "name": "Fortress Information Security",
        "email": "sales@fortressinfosec.com",
        "phone": "1-407-573-6800"
      }
    ],
    "tools": [
      {
        "vendor": "Fortress Information Security",
        "name": "GitHub Extractor",
        "version": "1.15.1"
      }
    ],
    "timestamp": "2022-06-29T00:37:45Z",
    "component": {
      "type": "application",
      "name": "90DaysOfDevOps",
      "version": "0.2",
      "group": "MichaelCade",
      "externalReferences": [
        {
          "url": "https://github.com/MichaelCade/90DaysOfDevOps.git",
          "type": "distribution"
        }
      ]
    }
  }
}
