{
  "bomFormat": "CycloneDX",
  "specVersion": "1.3",
  "version": 1,
  "components": [
    {
      "type": "library",
      "publisher": "Thomas Waldmann",
      "name": "argparse",
      "version": "1.4.0",
      "description": "Python command-line parsing library",
      "hashes": [
        {
          "alg": "MD5",
          "content": "c37216a954c8669054e2b2c54853dd49"
        },
        {
          "alg": "SHA-256",
          "content": "c31647edb69fd3d465a847ea3157d37bed1f95f19760b11a47aa91c04b666314"
        }
      ],
      "licenses": [
        {
          "license": {
            "name": "Python Software Foundation License"
          }
        }
      ],
      "purl": "pkg:pypi/argparse@1.4.0",
      "modified": false
    },
    {
      "type": "library",
      "publisher": "Dave Cole",
      "name": "csv",
      "version": "1.0",
      "description": "Fast CSV Parser for Python",
      "licenses": [
        {
          "license": {
            "name": "BSD"
          }
        }
      ],
      "purl": "pkg:pypi/csv@1.0",
      "modified": false
    },
    {
      "type": "library",
      "publisher": "Vinay Sajip",
      "name": "logging",
      "version": "0.4.9.6",
      "description": "A logging module for Python",
      "hashes": [
        {
          "alg": "MD5",
          "content": "dc0a7ebc8b8970263911e11e7b7e1ca8"
        },
        {
          "alg": "SHA-256",
          "content": "26f6b50773f085042d301085bd1bf5d9f3735704db9f37c1ce6d8b85c38f2417"
        }
      ],
      "licenses": [
        {
          "license": {
            "name": "Copyright (C) 2001-2005 by Vinay Sajip. All Rights Reserved. See LICENSE for license."
          }
        }
      ],
      "purl": "pkg:pypi/logging@0.4.9.6",
      "modified": false
    },
    {
      "type": "library",
      "publisher": "Hironsan",
      "name": "seqeval",
      "version": "1.2.2",
      "description": "Testing framework for sequence labeling",
      "hashes": [
        {
          "alg": "MD5",
          "content": "8b722ecf75550c587f79f2425e3a4d40"
        },
        {
          "alg": "SHA-256",
          "content": "f28e97c3ab96d6fcd32b648f6438ff2e09cfba87f05939da9b3970713ec56e6f"
        }
      ],
      "licenses": [
        {
          "license": {
            "name": "MIT"
          }
        }
      ],
      "purl": "pkg:pypi/seqeval@1.2.2",
      "modified": false
    },
    {
      "type": "library",
      "publisher": "Microsoft Corporation",
      "name": "ptvsd",
      "version": "4.3.2",
      "description": "Remote debugging server for Python support in Visual Studio and Visual Studio Code",
      "hashes": [
        {
          "alg": "MD5",
          "content": "e5312f655af320d84623e319ef90d751"
        },
        {
          "alg": "SHA-256",
          "content": "459137736068bb02515040b2ed2738169cb30d69a38e0fd5dffcba255f41e68d"
        }
      ],
      "licenses": [
        {
          "license": {
            "name": "MIT"
          }
        }
      ],
      "purl": "pkg:pypi/ptvsd@4.3.2",
      "modified": false
    },
    {
      "type": "library",
      "name": "io",
      "version": "0.0.1",
      "purl": "pkg:pypi/io@0.0.1",
      "modified": false
    },
    {
      "type": "library",
      "publisher": "Keith Horwood",
      "name": "lib",
      "version": "4.0.0",
      "description": "Autocode standard library Python bindings",
      "hashes": [
        {
          "alg": "MD5",
          "content": "eaffba56dbe2fe4e80691dcae8768670"
        },
        {
          "alg": "SHA-256",
          "content": "d0a9e03b27d2b94c403f43c1af39366500032d587dcd45ffdf707131cbdf58c6"
        }
      ],
      "licenses": [
        {
          "license": {
            "name": "MIT"
          }
        }
      ],
      "purl": "pkg:pypi/lib@4.0.0",
      "modified": false
    },
    {
      "type": "library",
      "publisher": "Guido van Rossum, Jukka Lehtosalo, Łukasz Langa, Ivan Levkivskyi",
      "name": "typing",
      "version": "3.10.0.0",
      "description": "Type Hints for Python",
      "hashes": [
        {
          "alg": "MD5",
          "content": "cf38139027dc160e3ecd8e5ccf151da9"
        },
        {
          "alg": "SHA-256",
          "content": "12fbdfbe7d6cca1a42e485229afcb0b0c8259258cfb919b8a5e2a5c953742f89"
        }
      ],
      "licenses": [
        {
          "license": {
            "name": "PSF"
          }
        }
      ],
      "purl": "pkg:pypi/typing@3.10.0.0",
      "modified": false
    },
    {
      "type": "library",
      "publisher": "Donald Stufft and individual contributors",
      "name": "packaging",
      "version": "21.3",
      "description": "Core utilities for Python packages",
      "hashes": [
        {
          "alg": "MD5",
          "content": "670a7057642064a747bd8274b24eb3f9"
        },
        {
          "alg": "SHA-256",
          "content": "ef103e05f519cdc783ae24ea4e2e0f508a9c99b2d4969652eed6a2e1ea5bd522"
        }
      ],
      "licenses": [
        {
          "license": {
            "name": "BSD-2-Clause or Apache-2.0"
          }
        }
      ],
      "purl": "pkg:pypi/packaging@21.3",
      "modified": false
    },
    {
      "type": "library",
      "publisher": "Benjamin Peterson",
      "name": "six",
      "version": "1.16.0",
      "description": "Python 2 and 3 compatibility utilities",
      "hashes": [
        {
          "alg": "MD5",
          "content": "529d7fd7e14612ccde86417b4402d6f3"
        },
        {
          "alg": "SHA-256",
          "content": "8abb2f1d86890a2dfb989f9a77cfcfd3e47c2a354b01111771326f8aa26e0254"
        }
      ],
      "licenses": [
        {
          "license": {
            "name": "MIT"
          }
        }
      ],
      "purl": "pkg:pypi/six@1.16.0",
      "modified": false
    },
    {
      "type": "library",
      "publisher": "Dima Dorfman",
      "name": "functools",
      "version": "0.5",
      "description": "Fast tools for functional programming",
      "hashes": [
        {
          "alg": "MD5",
          "content": "91111c28ee685a2f89f1a41e6f0ce8ea"
        },
        {
          "alg": "SHA-256",
          "content": "596ed8999dee419c0749a41bfdd82e4697e80ea27ee01c716003ef55be9a54c5"
        }
      ],
      "licenses": [
        {
          "license": {
            "name": "BSD"
          }
        }
      ],
      "purl": "pkg:pypi/functools@0.5",
      "modified": false
    },
    {
      "type": "library",
      "name": "hashlib",
      "version": "20081119",
      "description": "Secure hash and message digest algorithm library",
      "hashes": [
        {
          "alg": "MD5",
          "content": "46e59db6d5cac34b3344ef0c30d0897f"
        },
        {
          "alg": "SHA-256",
          "content": "419de2fd10ae71ed9c6adcb55903f116abd1d8acc8c814dfd5f839b4d5013e38"
        }
      ],
      "purl": "pkg:pypi/hashlib@20081119",
      "modified": false
    },
    {
      "type": "library",
      "publisher": "Amazon Web Services",
      "name": "boto3",
      "version": "1.22.8",
      "description": "The AWS SDK for Python",
      "hashes": [
        {
          "alg": "MD5",
          "content": "63228ba15eb07d3c5d680faf96acab5d"
        },
        {
          "alg": "SHA-256",
          "content": "a6925fe88cc9cd6aab35ea950cdb1678a88210ece5271bb64c1593a46ed6de6c"
        }
      ],
      "licenses": [
        {
          "license": {
            "name": "Apache License 2.0"
          }
        }
      ],
      "purl": "pkg:pypi/boto3@1.22.8",
      "modified": false
    },
    {
      "type": "library",
      "publisher": "Amazon Web Services",
      "name": "botocore",
      "version": "1.25.8",
      "description": "Low-level, data-driven core of boto 3.",
      "hashes": [
        {
          "alg": "MD5",
          "content": "a4cecefed30974f1bc5876404b7c0d6b"
        },
        {
          "alg": "SHA-256",
          "content": "5b342da3487e5669801f5589cc15e379fc9f7803a426584d08a6329575644da3"
        }
      ],
      "licenses": [
        {
          "license": {
            "name": "Apache License 2.0"
          }
        }
      ],
      "purl": "pkg:pypi/botocore@1.25.8",
      "modified": false
    },
    {
      "type": "library",
      "publisher": "Benedikt Schmitt",
      "name": "filelock",
      "version": "3.6.0",
      "description": "A platform independent file lock.",
      "hashes": [
        {
          "alg": "MD5",
          "content": "12ac1a6c5008ee6077d64eda43c369b0"
        },
        {
          "alg": "SHA-256",
          "content": "f8314284bfffbdcfa0ff3d7992b023d4c628ced6feb957351d4c48d059f56bc0"
        }
      ],
      "licenses": [
        {
          "license": {
            "name": "Unlicense"
          }
        }
      ],
      "purl": "pkg:pypi/filelock@3.6.0",
      "modified": false
    },
    {
      "type": "library",
      "publisher": "PyThaiNLP",
      "name": "pythainlp",
      "version": "3.0.5",
      "description": "Thai Natural Language Processing library",
      "hashes": [
        {
          "alg": "MD5",
          "content": "feb7f06525d11acf3f4613bd52fe0ff7"
        },
        {
          "alg": "SHA-256",
          "content": "2a23a2047f60fac127efe3dcd9ac3a1a7de09f1b0370684dad249eafa5029576"
        }
      ],
      "licenses": [
        {
          "license": {
            "name": "Apache Software License 2.0"
          }
        }
      ],
      "purl": "pkg:pypi/pythainlp@3.0.5",
      "modified": false
    },
    {
      "type": "library",
      "publisher": "Sun, Junyi",
      "name": "jieba",
      "version": "0.42.1",
      "description": "Chinese Words Segmentation Utilities",
      "hashes": [
        {
          "alg": "MD5",
          "content": "32091ceaebbd38baee82cfe88bd0003b"
        },
        {
          "alg": "SHA-256",
          "content": "055ca12f62674fafed09427f176506079bc135638a14e23e25be909131928db2"
        }
      ],
      "licenses": [
        {
          "license": {
            "name": "MIT"
          }
        }
      ],
      "purl": "pkg:pypi/jieba@0.42.1",
      "modified": false
    },
    {
      "type": "library",
      "publisher": "Andrew Collette",
      "name": "h5py",
      "version": "3.6.0",
      "description": "Read and write HDF5 files from Python",
      "hashes": [
        {
          "alg": "MD5",
          "content": "5e5714151e127c50b6fc6aaec86fded6"
        },
        {
          "alg": "SHA-256",
          "content": "9fd8a14236fdd092a20c0bdf25c3aba3777718d266fabb0fdded4fcf252d1630"
        }
      ],
      "licenses": [
        {
          "license": {
            "name": "BSD"
          }
        }
      ],
      "purl": "pkg:pypi/h5py@3.6.0",
      "modified": false
    },
    {
      "type": "library",
      "publisher": "Yukino Ikegami",
      "name": "MeCab",
      "version": "0.996.3",
      "description": "MeCab binding for many OSs (Windows, macOS, and Linux)",
      "hashes": [
        {
          "alg": "MD5",
          "content": "8600abf9b003020621ea578ab54865e0"
        },
        {
          "alg": "SHA-256",
          "content": "6833fcbc5d7ce494d8e9aafff1b390684e5081cf92810917cdcd22d3b28f2e93"
        }
      ],
      "licenses": [
        {
          "license": {
            "name": "BSD, GPL or LGPL"
          }
        }
      ],
      "purl": "pkg:pypi/mecab@0.996.3",
      "modified": false
    },
    {
      "type": "library",
      "publisher": "Christian Heimes",
      "name": "multiprocessing",
      "version": "2.6.2.1",
      "description": "Backport of the multiprocessing package to Python 2.4 and 2.5",
      "hashes": [
        {
          "alg": "MD5",
          "content": "5cc484396c040102116ccc2355379c72"
        },
        {
          "alg": "SHA-256",
          "content": "ef3b81ad85d7de252e5491b1daac028e17f9741cbe3625032e6eaa4ad4c79900"
        }
      ],
      "licenses": [
        {
          "license": {
            "name": "BSD Licence"
          }
        }
      ],
      "purl": "pkg:pypi/multiprocessing@2.6.2.1",
      "modified": false
    },
    {
      "type": "library",
      "publisher": "The Pandas Development Team",
      "name": "pandas",
      "version": "1.4.2",
      "description": "Powerful data structures for data analysis, time series, and statistics",
      "hashes": [
        {
          "alg": "MD5",
          "content": "d03e1ba43fac967c83ca8223248cc32f"
        },
        {
          "alg": "SHA-256",
          "content": "09d8be7dd9e1c4c98224c4dfe8abd60d145d934e9fc1f5f411266308ae683e6a"
        }
      ],
      "licenses": [
        {
          "license": {
            "name": "BSD-3-Clause"
          }
        }
      ],
      "purl": "pkg:pypi/pandas@1.4.2",
      "modified": false
    },
    {
      "type": "library",
      "publisher": "anatoly techtonik <techtonik@gmail.com>",
      "name": "wget",
      "version": "3.2",
      "description": "pure python download utility",
      "hashes": [
        {
          "alg": "MD5",
          "content": "fb7a04ee59a56bd8db974146df1d7a8b"
        },
        {
          "alg": "SHA-256",
          "content": "35e630eca2aa50ce998b9b1a127bb26b30dfee573702782aa982f875e3f16061"
        }
      ],
      "licenses": [
        {
          "license": {
            "name": "Public Domain"
          }
        }
      ],
      "purl": "pkg:pypi/wget@3.2",
      "modified": false
    },
    {
      "type": "library",
      "publisher": "Onur Celebi",
      "name": "fasttext",
      "version": "0.9.2",
      "description": "fasttext Python bindings",
      "hashes": [
        {
          "alg": "MD5",
          "content": "a7b468fa4ca6474dead051536d7e1e7c"
        },
        {
          "alg": "SHA-256",
          "content": "665556f1f6dcb4fcbe25fa8ebcd4f71b18fa96a090de09d88d97a60cbd29dcb5"
        }
      ],
      "licenses": [
        {
          "license": {
            "name": "MIT"
          }
        }
      ],
      "purl": "pkg:pypi/fasttext@0.9.2",
      "modified": false
    },
    {
      "type": "library",
      "publisher": "Eric V. Smith",
      "name": "dataclasses",
      "version": "0.8",
      "description": "A backport of the dataclasses module for Python 3.6",
      "hashes": [
        {
          "alg": "MD5",
          "content": "0d6e5bb7adcc8fb0de3ef1ace1b32999"
        },
        {
          "alg": "SHA-256",
          "content": "0201d89fa866f68c8ebd9d08ee6ff50c0b255f8ec63a71c16fda7af82bb887bf"
        }
      ],
      "licenses": [
        {
          "license": {
            "name": "Apache"
          }
        }
      ],
      "purl": "pkg:pypi/dataclasses@0.8",
      "modified": false
    },
    {
      "type": "library",
      "publisher": "Omry Yadan",
      "name": "omegaconf",
      "version": "2.1.2",
      "description": "A flexible configuration library",
      "hashes": [
        {
          "alg": "MD5",
          "content": "b6f25bf78ce8097aa7d40746ff26898c"
        },
        {
          "alg": "SHA-256",
          "content": "2ae9cbbc1105991da5301b7a0ac8b960958c311239bb2dfd4e3f5e60d2a51029"
        }
      ],
      "purl": "pkg:pypi/omegaconf@2.1.2",
      "modified": false
    },
    {
      "type": "library",
      "publisher": "Yijun Yu",
      "name": "ast",
      "version": "0.0.2",
      "description": "Conversion between protobuf3 and srcML.",
      "hashes": [
        {
          "alg": "MD5",
          "content": "866a45bda3dc0b19f8da494f6a548a8d"
        },
        {
          "alg": "SHA-256",
          "content": "04cf2827c4048d18635ca8f85357a4285d140424ac26028be0dc585f824e07cd"
        }
      ],
      "licenses": [
        {
          "license": {
            "name": "MIT"
          }
        }
      ],
      "purl": "pkg:pypi/ast@0.0.2",
      "modified": false
    },
    {
      "type": "library",
      "publisher": "Ben Finney",
      "name": "enum",
      "version": "0.4.7",
      "description": "Robust enumerated type support in Python.",
      "hashes": [
        {
          "alg": "MD5",
          "content": "e7d170e3f84435b77058de625c96ef58"
        },
        {
          "alg": "SHA-256",
          "content": "8c7cf3587eda51008bcc1eed99ea2c331ccd265c231dbaa95ec5258d3dc03100"
        }
      ],
      "licenses": [
        {
          "license": {
            "name": "GPL-3.0+"
          }
        }
      ],
      "purl": "pkg:pypi/enum@0.4.7",
      "modified": false
    },
    {
      "type": "library",
      "name": "kenlm",
      "version": "0.0.0",
      "hashes": [
        {
          "alg": "MD5",
          "content": "cdbe6a8c742739c0e72eae72559ce220"
        },
        {
          "alg": "SHA-256",
          "content": "0c3f227fa79b15545e5fe147654714ddf41787ebf19261d9cbf1c1c3333421ad"
        }
      ],
      "purl": "pkg:pypi/kenlm@0.0.0",
      "modified": false
    },
    {
      "type": "library",
      "publisher": "Michael Siebert",
      "name": "npy_append_array",
      "version": "0.9.13",
      "description": "Create Numpy NPY files that are larger than the main memory",
      "hashes": [
        {
          "alg": "MD5",
          "content": "533c6c561ce39e8c8be56f4a9c3ef56c"
        },
        {
          "alg": "SHA-256",
          "content": "55a27f6c1d5a774db07fcba3eec9f6f5d500ad4cf9a56988a794af535c9f0d57"
        }
      ],
      "licenses": [
        {
          "license": {
            "name": "MIT"
          }
        }
      ],
      "purl": "pkg:pypi/npy-append-array@0.9.13",
      "modified": false
    },
    {
      "type": "library",
      "publisher": "Karel Vesely",
      "name": "kaldi_io",
      "version": "0.9.4",
      "description": "Glue code connecting Kaldi data and Python.",
      "hashes": [
        {
          "alg": "MD5",
          "content": "c8f1d683d4b9b480c3b8bd8c9e2ca077"
        },
        {
          "alg": "SHA-256",
          "content": "56c6fd9d19d940d392e26f2d2a013720016b1b6e2e94ebd8ba4bd59a3584d812"
        }
      ],
      "purl": "pkg:pypi/kaldi-io@0.9.4",
      "modified": false
    },
    {
      "type": "library",
      "publisher": "Gael Varoquaux",
      "name": "joblib",
      "version": "1.1.0",
      "description": "Lightweight pipelining with Python functions",
      "hashes": [
        {
          "alg": "MD5",
          "content": "18c6d42934f9e1a83d02b88952f65073"
        },
        {
          "alg": "SHA-256",
          "content": "f21f109b3c7ff9d95f8387f752d0d9c34a02aa2f7060c2135f465da0e5160ff6"
        }
      ],
      "licenses": [
        {
          "license": {
            "name": "BSD"
          }
        }
      ],
      "purl": "pkg:pypi/joblib@1.1.0",
      "modified": false
    },
    {
      "type": "library",
      "publisher": "Timothy Crosley",
      "name": "examples",
      "version": "1.0.2",
      "description": "Tests and Documentation Done by Example.",
      "hashes": [
        {
          "alg": "MD5",
          "content": "00d16ee7c341f366ea36e0afe52492b5"
        },
        {
          "alg": "SHA-256",
          "content": "372fefd15d5a17bda3b003cf26edbc2d29632bc63f29c816b55ed33dcccb3e65"
        }
      ],
      "licenses": [
        {
          "license": {
            "name": "MIT"
          }
        }
      ],
      "purl": "pkg:pypi/examples@1.0.2",
      "modified": false
    },
    {
      "type": "library",
      "publisher": "Nilton Volpato",
      "name": "progressbar",
      "version": "2.5",
      "description": "Text progress bar library for Python.",
      "hashes": [
        {
          "alg": "MD5",
          "content": "4aaf51533764d520c89b366a45ada248"
        },
        {
          "alg": "SHA-256",
          "content": "5d81cb529da2e223b53962afd6c8ca0f05c6670e40309a7219eacc36af9b6c63"
        }
      ],
      "licenses": [
        {
          "license": {
            "name": "LICENSE.txt"
          }
        }
      ],
      "purl": "pkg:pypi/progressbar@2.5",
      "modified": false
    },
    {
      "type": "library",
      "publisher": "Tomaz Solc",
      "name": "unidecode",
      "version": "1.3.4",
      "description": "ASCII transliterations of Unicode text",
      "hashes": [
        {
          "alg": "MD5",
          "content": "437c72205fb41ee2387bde63c06f8db8"
        },
        {
          "alg": "SHA-256",
          "content": "afa04efcdd818a93237574791be9b2817d7077c25a068b00f8cff7baa4e59257"
        }
      ],
      "licenses": [
        {
          "license": {
            "name": "GPL"
          }
        }
      ],
      "purl": "pkg:pypi/unidecode@1.3.4",
      "modified": false
    },
    {
      "type": "library",
      "publisher": "Paul Dyson",
      "name": "inflect",
      "version": "5.6.0",
      "description": "Correctly generate plurals, singular nouns, ordinals, indefinite articles; convert numbers to words",
      "hashes": [
        {
          "alg": "MD5",
          "content": "f1b48d1d16e27e31193168b3230116a3"
        },
        {
          "alg": "SHA-256",
          "content": "967d6db69932bac9f1977b8f2dd131a59147f4b56134cfc74a3f44e5adb65223"
        }
      ],
      "purl": "pkg:pypi/inflect@5.6.0",
      "modified": false
    },
    {
      "type": "library",
      "publisher": "PyTorch Core Team",
      "name": "torchvision",
      "version": "0.12.0",
      "description": "image and video datasets and models for torch deep learning",
      "hashes": [
        {
          "alg": "MD5",
          "content": "e4458886f57f6221343c4bc4121d4526"
        },
        {
          "alg": "SHA-256",
          "content": "edab05f7ba9f648c00435b384ffdbd7bde79a3b8ea893813fb50f6ccf28b1e76"
        }
      ],
      "licenses": [
        {
          "license": {
            "name": "BSD"
          }
        }
      ],
      "purl": "pkg:pypi/torchvision@0.12.0",
      "modified": false
    },
    {
      "type": "library",
      "publisher": "SkeyJIA",
      "name": "ffmpeg",
      "version": "1.4",
      "description": "ffmpeg python package url [https://github.com/jiashaokun/ffmpeg]",
      "hashes": [
        {
          "alg": "MD5",
          "content": "68c742dc35debb2ed94d7fd813bcd38b"
        },
        {
          "alg": "SHA-256",
          "content": "6931692c890ff21d39938433c2189747815dca0c60ddc7f9bb97f199dba0b5b9"
        }
      ],
      "licenses": [
        {
          "license": {
            "name": "MIT Licence"
          }
        }
      ],
      "purl": "pkg:pypi/ffmpeg@1.4",
      "modified": false
    },
    {
      "type": "library",
      "publisher": "Mike Boers",
      "name": "av",
      "version": "9.2.0",
      "description": "Pythonic bindings for FFmpeg's libraries.",
      "hashes": [
        {
          "alg": "MD5",
          "content": "c8f4fb59767cb578d4a7212120c0f2ae"
        },
        {
          "alg": "SHA-256",
          "content": "7a5dc26b9df656bed5e1bdeaf8bcc4ff4a2e009ee90b3b3024a86cf8476b2cbf"
        }
      ],
      "licenses": [
        {
          "license": {
            "name": "BSD"
          }
        }
      ],
      "purl": "pkg:pypi/av@9.2.0",
      "modified": false
    },
    {
      "type": "library",
      "publisher": "Yuxuan Dong",
      "name": "dp",
      "version": "1.00",
      "description": "Automatically transform recursive functions to dynamic programming",
      "hashes": [
        {
          "alg": "MD5",
          "content": "f3952938e8063a1fc693318dac65e9cd"
        },
        {
          "alg": "SHA-256",
          "content": "77eb01be83fe81139f1eb7871b93300b27f372b283146b7410d6195b4db19900"
        }
      ],
      "purl": "pkg:pypi/dp@1.00",
      "modified": false
    },
    {
      "type": "library",
      "publisher": "Michael Foord",
      "name": "unittest",
      "version": "0.0",
      "hashes": [
        {
          "alg": "MD5",
          "content": "2a416384f814604ed854d40f352f1191"
        },
        {
          "alg": "SHA-256",
          "content": "1b492484bea7f68abda5fcc61412e77b6a105e5842355d630f8b75f01add3555"
        }
      ],
      "purl": "pkg:pypi/unittest@0.0",
      "modified": false
    },
    {
      "type": "library",
      "publisher": "David R. MacIver and Zac Hatfield-Dodds",
      "name": "hypothesis",
      "version": "6.46.2",
      "description": "A library for property-based testing",
      "hashes": [
        {
          "alg": "MD5",
          "content": "90e30a14eb200ecf49ba80c694cb59ad"
        },
        {
          "alg": "SHA-256",
          "content": "37ca37f61939d0a92c18b5e17ab8088dccc5fc077c913d6619bbe1d233dfca1e"
        }
      ],
      "licenses": [
        {
          "license": {
            "name": "MPL-2.0"
          }
        }
      ],
      "purl": "pkg:pypi/hypothesis@6.46.2",
      "modified": false
    },
    {
      "type": "library",
      "publisher": "Soham Chatterjee",
      "name": "indicnlp",
      "version": "0.0.1",
      "description": "Resources for working on Indian Language NLP",
      "hashes": [
        {
          "alg": "MD5",
          "content": "3c905b474094600d6269768dd6135883"
        },
        {
          "alg": "SHA-256",
          "content": "1718a8f32d64b25fb47b50aa13313ef730b162315dce9f3a0f3c657f416cb13b"
        }
      ],
      "purl": "pkg:pypi/indicnlp@0.0.1",
      "modified": false
    },
    {
      "type": "library",
      "publisher": "Sergey Astanin",
      "name": "tabulate",
      "version": "0.8.9",
      "description": "Pretty-print tabular data",
      "hashes": [
        {
          "alg": "MD5",
          "content": "1a2ab1fba64a6c181c0c0924601c0851"
        },
        {
          "alg": "SHA-256",
          "content": "d7c013fe7abbc5e491394e10fa845f8f32fe54f8dc60c6622c6cf482d25d47e4"
        }
      ],
      "licenses": [
        {
          "license": {
            "name": "MIT"
          }
        }
      ],
      "purl": "pkg:pypi/tabulate@0.8.9",
      "modified": false
    },
    {
      "type": "library",
      "publisher": "P Henderson and M J Henderson",
      "name": "wave",
      "version": "0.0.2",
      "description": "Whole Architecture Verification",
      "hashes": [
        {
          "alg": "MD5",
          "content": "227bafdba903889ae50ef86085f98f16"
        },
        {
          "alg": "SHA-256",
          "content": "5187f49497287d218cc83d4cd1e5299dc31485ab3ed32abbaa9e95d8f73c4095"
        }
      ],
      "purl": "pkg:pypi/wave@0.0.2",
      "modified": false
    },
    {
      "type": "library",
      "publisher": "Ka-Ping Yee",
      "name": "uuid",
      "version": "1.30",
      "description": "UUID object and generation functions (Python 2.3 or higher)",
      "hashes": [
        {
          "alg": "MD5",
          "content": "639b310f1fe6800e4bf8aa1dd9333117"
        },
        {
          "alg": "SHA-256",
          "content": "1f87cc004ac5120466f36c5beae48b4c48cc411968eed0eaecd3da82aa96193f"
        }
      ],
      "purl": "pkg:pypi/uuid@1.30",
      "modified": false
    },
    {
      "type": "library",
      "publisher": "Zope Foundation and Contributors",
      "name": "datetime",
      "version": "4.4",
      "description": "This package provides a DateTime data type, as known from Zope. Unless you need to communicate with Zope APIs, you're probably better off using Python's built-in datetime module.",
      "hashes": [
        {
          "alg": "MD5",
          "content": "ad1e82d858ed7c8cd2ea437b4cb695ed"
        },
        {
          "alg": "SHA-256",
          "content": "4fcca115ddb466a1104df08d5c2a2f5805d14ca317800e1bfcea8f3d69f66e57"
        }
      ],
      "licenses": [
        {
          "license": {
            "name": "ZPL 2.1"
          }
        }
      ],
      "purl": "pkg:pypi/datetime@4.4",
      "modified": false
    },
    {
      "type": "library",
      "publisher": "Jean Pimentel",
      "name": "numbers",
      "version": "0.1",
      "description": "interesting numbers!",
      "purl": "pkg:pypi/numbers@0.1",
      "modified": false
    },
    {
      "type": "library",
      "publisher": "Ilan Schnell",
      "name": "bitarray",
      "version": "2.5.0",
      "description": "efficient arrays of booleans -- C extension",
      "hashes": [
        {
          "alg": "MD5",
          "content": "88e870b21252483ed8960421b60a14f0"
        },
        {
          "alg": "SHA-256",
          "content": "13522064ff58b44df34980ff6d911c7185380e9c91d58c5ac0a7131508df00b2"
        }
      ],
      "licenses": [
        {
          "license": {
            "name": "PSF"
          }
        }
      ],
      "purl": "pkg:pypi/bitarray@2.5.0",
      "modified": false
    },
    {
      "type": "library",
      "publisher": "Stephan Klein",
      "name": "signal",
      "version": "0.1",
      "description": "Send SMS messages via ADB and your Android phone. Comes with a CLI.",
      "licenses": [
        {
          "license": {
            "name": "MIT"
          }
        }
      ],
      "purl": "pkg:pypi/signal@0.1",
      "modified": false
    },
    {
      "type": "library",
      "name": "aml",
      "version": "0.0.0",
      "hashes": [
        {
          "alg": "MD5",
          "content": "6dae916658b18b9814e8fc7ad6a7ab32"
        },
        {
          "alg": "SHA-256",
          "content": "331fabd111b5e1b8e2084a1aeb4444e2a27a7d70e488cccc8f38025b86e6a041"
        }
      ],
      "purl": "pkg:pypi/aml@0.0.0",
      "modified": false
    },
    {
      "type": "library",
      "publisher": "Thomas Heller",
      "name": "ctypes",
      "version": "1.0.2",
      "description": "create and manipulate C data types in Python, call functions in shared libraries",
      "licenses": [
        {
          "license": {
            "name": "MIT License"
          }
        }
      ],
      "purl": "pkg:pypi/ctypes@1.0.2",
      "modified": false
    },
    {
      "type": "library",
      "publisher": "Benjamin Heinzerling, Anders Johannsen",
      "name": "pyrouge",
      "version": "0.1.3",
      "description": "A Python wrapper for the ROUGE summarization evaluation package.",
      "licenses": [
        {
          "license": {
            "name": "LICENSE.txt"
          }
        }
      ],
      "purl": "pkg:pypi/pyrouge@0.1.3",
      "modified": false
    },
    {
      "type": "library",
      "publisher": "Haak Saxberg",
      "name": "utils",
      "version": "1.0.1",
      "description": "A grab-bag of utility functions and objects",
      "hashes": [
        {
          "alg": "MD5",
          "content": "96dfa21b1739f63ca1bf073ee9d9be18"
        },
        {
          "alg": "SHA-256",
          "content": "ff04549b95deb2fd7a82ddaea077e2f41209079e2482df231c358770b27b72a7"
        }
      ],
      "purl": "pkg:pypi/utils@1.0.1",
      "modified": false
    },
    {
      "type": "library",
      "publisher": "pltrdy",
      "name": "rouge",
      "version": "1.0.1",
      "description": "Full Python ROUGE Score Implementation (not a wrapper)",
      "hashes": [
        {
          "alg": "MD5",
          "content": "f622a6b859eca46c4976a0abfc90e5d7"
        },
        {
          "alg": "SHA-256",
          "content": "28d118536e8c774dc47d1d15ec266479b4dd0914c4672ce117d4002789bdc644"
        }
      ],
      "licenses": [
        {
          "license": {
            "name": "LICENCE.txt"
          }
        }
      ],
      "purl": "pkg:pypi/rouge@1.0.1",
      "modified": false
    },
    {
      "type": "library",
      "publisher": "lxml dev team",
      "name": "lxml",
      "version": "4.8.0",
      "description": "Powerful and Pythonic XML processing library combining libxml2/libxslt with the ElementTree API.",
      "hashes": [
        {
          "alg": "MD5",
          "content": "7ad82f2befca9ee0f3dc073ae7e0b85a"
        },
        {
          "alg": "SHA-256",
          "content": "8b99ec73073b37f9ebe8caf399001848fced9c08064effdbfc4da2b5a8d07b93"
        }
      ],
      "licenses": [
        {
          "license": {
            "name": "BSD"
          }
        }
      ],
      "purl": "pkg:pypi/lxml@4.8.0",
      "modified": false
    },
    {
      "type": "library",
      "publisher": "Leonard Richardson",
      "name": "bs4",
      "version": "0.0.1",
      "description": "Dummy package for Beautiful Soup",
      "hashes": [
        {
          "alg": "MD5",
          "content": "fe7e51587ac3b174608f3c4f8bd893ac"
        },
        {
          "alg": "SHA-256",
          "content": "36ecea1fd7cc5c0c6e4a1ff075df26d50da647b75376626cc186e2212886dd3a"
        }
      ],
      "purl": "pkg:pypi/bs4@0.0.1",
      "modified": false
    },
    {
      "type": "library",
      "publisher": "Secret Labs AB (PythonWare)",
      "name": "PIL",
      "version": "1.1.6",
      "description": "Python Imaging Library",
      "licenses": [
        {
          "license": {
            "name": "Python (MIT style)"
          }
        }
      ],
      "purl": "pkg:pypi/pil@1.1.6",
      "modified": false
    },
    {
      "type": "library",
      "publisher": "HuggingFace Inc.",
      "name": "datasets",
      "version": "2.1.0",
      "description": "HuggingFace community-driven open-source library of datasets",
      "hashes": [
        {
          "alg": "MD5",
          "content": "c2b2d21632835f186cca8a62c1b5eab6"
        },
        {
          "alg": "SHA-256",
          "content": "7c186041abb980066bff4482037f41e302741bad4709885b2417569f2f6bac3a"
        }
      ],
      "licenses": [
        {
          "license": {
            "name": "Apache 2.0"
          }
        }
      ],
      "purl": "pkg:pypi/datasets@2.1.0",
      "modified": false
    },
    {
      "type": "library",
      "publisher": "Ross Wightman",
      "name": "timm",
      "version": "0.5.4",
      "description": "(Unofficial) PyTorch Image Models",
      "hashes": [
        {
          "alg": "MD5",
          "content": "8b01fa2cf14a2909817e5d73aa07e52c"
        },
        {
          "alg": "SHA-256",
          "content": "0592c8fd2d46d0769c0b7e954b3dacea93769eee40dabb4bd7f2acb85243b588"
        }
      ],
      "purl": "pkg:pypi/timm@0.5.4",
      "modified": false
    },
    {
      "type": "library",
      "publisher": "Microsoft Corporation",
      "name": "debugpy",
      "version": "1.6.0",
      "description": "An implementation of the Debug Adapter Protocol for Python",
      "hashes": [
        {
          "alg": "MD5",
          "content": "82091a38021a67561be7aa2d9440a3d3"
        },
        {
          "alg": "SHA-256",
          "content": "4de7777842da7e08652f2776c552070bbdd758557fdec73a15d7be0e4aab95ce"
        }
      ],
      "licenses": [
        {
          "license": {
            "name": "MIT"
          }
        }
      ],
      "purl": "pkg:pypi/debugpy@1.6.0",
      "modified": false
    },
    {
      "type": "library",
      "publisher": "FAIR",
      "name": "fvcore",
      "version": "0.1.5.post20220506",
      "description": "Collection of common code shared among different research projects in FAIR computer vision team",
      "hashes": [
        {
          "alg": "MD5",
          "content": "01d918afd21ec8a23cf2398cbf649d15"
        },
        {
          "alg": "SHA-256",
          "content": "90da902ffc5c3c6bdb08cb40657448a8c075e89db9502a9d66a6818c2e188ab8"
        }
      ],
      "licenses": [
        {
          "license": {
            "name": "Apache 2.0"
          }
        }
      ],
      "purl": "pkg:pypi/fvcore@0.1.5.post20220506",
      "modified": false
    },
    {
      "type": "library",
      "publisher": "Sean Gillies",
      "name": "shapely",
      "version": "1.8.2",
      "description": "Geometric objects, predicates, and operations",
      "hashes": [
        {
          "alg": "MD5",
          "content": "3590aa7bcf66e09e641ecc62868528c0"
        },
        {
          "alg": "SHA-256",
          "content": "3423299254deec075e79fb7dc7909d702104e4167149de7f45510c3a6342eeea"
        }
      ],
      "licenses": [
        {
          "license": {
            "name": "BSD"
          }
        }
      ],
      "purl": "pkg:pypi/shapely@1.8.2",
      "modified": false
    },
    {
      "type": "library",
      "publisher": "Alex Rogozhnikov",
      "name": "einops",
      "version": "0.4.1",
      "description": "A new flavour of deep learning operations",
      "hashes": [
        {
          "alg": "MD5",
          "content": "b2c53ce8a7eee7484de3564e1fcd3a25"
        },
        {
          "alg": "SHA-256",
          "content": "932b12bb3176caef629cc513fc8a442338fdbfe1e560794a6e7306dcee65a8af"
        }
      ],
      "purl": "pkg:pypi/einops@0.4.1",
      "modified": false
    },
    {
      "type": "library",
      "publisher": "MMCV Contributors",
      "name": "mmcv",
      "version": "1.5.0",
      "description": "OpenMMLab Computer Vision Foundation",
      "hashes": [
        {
          "alg": "MD5",
          "content": "5096085c2d26c4535988b428dff7839a"
        },
        {
          "alg": "SHA-256",
          "content": "357e8d3a4c2bf938834634ed95d05b26ee144a5c16f7d5afd0983605944d0412"
        }
      ],
      "purl": "pkg:pypi/mmcv@1.5.0",
      "modified": false
    },
    {
      "type": "library",
      "name": "mmseg",
      "version": "1.3.0",
      "description": "MMseg中文分词 Chinese Segment On MMSeg Algorithm",
      "hashes": [
        {
          "alg": "MD5",
          "content": "ebf97c3d1cc541d0a2241f87174734d0"
        },
        {
          "alg": "SHA-256",
          "content": "f8878cddde0e96b7c70ff457edf662e6741716e71723a46a08b9efdcf9e3542d"
        }
      ],
      "purl": "pkg:pypi/mmseg@1.3.0",
      "modified": false
    },
    {
      "type": "library",
      "publisher": "Backbone Developers",
      "name": "backbone",
      "version": "0.4.0",
      "description": "Tools for development with Backbone",
      "hashes": [
        {
          "alg": "MD5",
          "content": "464f33ad52c3ad120ba7b4c704f59d1d"
        },
        {
          "alg": "SHA-256",
          "content": "19b9a91a7bbe9cb69a419e8059c346ca22b7c9807c685543d66fa65559edc232"
        }
      ],
      "licenses": [
        {
          "license": {
            "name": "Proprietary"
          }
        }
      ],
      "purl": "pkg:pypi/backbone@0.4.0",
      "modified": false
    },
    {
      "type": "library",
      "publisher": "Denis Ryzhkov",
      "name": "attr",
      "version": "0.3.1",
      "description": "Simple decorator to set attributes of target function or class in a DRY way.",
      "hashes": [
        {
          "alg": "MD5",
          "content": "fe529263be9f20fde90b6362cfe48d59"
        },
        {
          "alg": "SHA-256",
          "content": "0b1aaddb85bd9e9c4bd75092f4440d6616ff40b0df0437f00771871670f7c9fd"
        }
      ],
      "licenses": [
        {
          "license": {
            "name": "MIT"
          }
        }
      ],
      "purl": "pkg:pypi/attr@0.3.1",
      "modified": false
    },
    {
      "type": "library",
      "publisher": "Zhijing Jin",
      "name": "bleu",
      "version": "0.3",
      "description": "A Python Wrapper to calculate standard BLEU scores for NLP",
      "hashes": [
        {
          "alg": "MD5",
          "content": "b005e08282effc650705ae4eb0a2bf28"
        },
        {
          "alg": "SHA-256",
          "content": "6edae73a588fe8b72678d3233da3be9e901a29d8313858347998910dc28baf80"
        }
      ],
      "licenses": [
        {
          "license": {
            "name": "BSD 3-Clause"
          }
        }
      ],
      "purl": "pkg:pypi/bleu@0.3",
      "modified": false
    },
    {
      "type": "library",
      "publisher": "Amadeus",
      "name": "meteor",
      "version": "0.1.3",
      "description": "Frontend toolbox",
      "hashes": [
        {
          "alg": "MD5",
          "content": "f0097f02d415cb4570f27b6310da2eeb"
        },
        {
          "alg": "SHA-256",
          "content": "0705c51f67bbc0a2a9a5036c321eb496a737ee25ddf88a6f9b38b7cc741060b9"
        }
      ],
      "purl": "pkg:pypi/meteor@0.1.3",
      "modified": false
    },
    {
      "type": "library",
      "publisher": "Michael Sanders",
      "name": "cider",
      "version": "1.1.12",
      "description": "Hassle-free bootstrapping using Homebrew.",
      "hashes": [
        {
          "alg": "MD5",
          "content": "ce682e296db68a3fb816d6e858df4f53"
        },
        {
          "alg": "SHA-256",
          "content": "e3e7855f6ac86557527c06c0544d3328db9ca7cb512b16445cfc07aa8c971dc3"
        }
      ],
      "licenses": [
        {
          "license": {
            "name": "MIT"
          }
        }
      ],
      "purl": "pkg:pypi/cider@1.1.12",
      "modified": false
    },
    {
      "type": "library",
      "publisher": "Thomas Gläßle",
      "name": "eval",
      "version": "0.0.5",
      "description": "Show value of an importable object",
      "hashes": [
        {
          "alg": "MD5",
          "content": "10ddd4e31cc481792c47e82c11bfe05e"
        },
        {
          "alg": "SHA-256",
          "content": "f8e6d7b89f073989b120b75c82b9f4735e4e563f9e33b3598b87035952f6a79c"
        }
      ],
      "licenses": [
        {
          "license": {
            "name": "GPLv3+"
          }
        }
      ],
      "purl": "pkg:pypi/eval@0.0.5",
      "modified": false
    },
    {
      "type": "library",
      "publisher": "Seth M. Morton",
      "name": "natsort",
      "version": "8.1.0",
      "description": "Simple yet flexible natural sorting in Python.",
      "hashes": [
        {
          "alg": "MD5",
          "content": "9acd1371d135869b9d6ebd90e7110fe2"
        },
        {
          "alg": "SHA-256",
          "content": "f59988d2f24e77b6b56f8a8f882d5df6b3b637e09e075abc67b486d59fba1a4b"
        }
      ],
      "licenses": [
        {
          "license": {
            "name": "MIT"
          }
        }
      ],
      "purl": "pkg:pypi/natsort@8.1.0",
      "modified": false
    },
    {
      "type": "library",
      "publisher": "Changhan Wang",
      "name": "fastwer",
      "version": "0.1.3",
      "description": "A PyPI package for fast word/character error rate (WER/CER) calculation",
      "hashes": [
        {
          "alg": "MD5",
          "content": "a06988c0af453c25075db5598d1548a7"
        },
        {
          "alg": "SHA-256",
          "content": "6004e53f5003810c4fccf2e6fff75a9fc9cd93b60747cb11327bd1fad91cf507"
        }
      ],
      "licenses": [
        {
          "license": {
            "name": "MIT"
          }
        }
      ],
      "purl": "pkg:pypi/fastwer@0.1.3",
      "modified": false
    },
    {
      "type": "library",
      "publisher": "Thomas Breuel",
      "name": "webdataset",
      "version": "0.2.5",
      "description": "Record sequential storage for deep learning.",
      "hashes": [
        {
          "alg": "MD5",
          "content": "786c8bdcf3e7c757ebc7d6c55d295331"
        },
        {
          "alg": "SHA-256",
          "content": "099fcdb35689442722fe3208ffca22f65deed1b1fb576bd1392e17645668d7a5"
        }
      ],
      "licenses": [
        {
          "license": {
            "name": "MIT"
          }
        }
      ],
      "purl": "pkg:pypi/webdataset@0.2.5",
      "modified": false
    },
    {
      "type": "library",
      "publisher": "Satoru SATOH",
      "name": "anyconfig",
      "version": "0.13.0",
      "description": "Library provides common APIs to load and dump configuration files in various formats",
      "hashes": [
        {
          "alg": "MD5",
          "content": "e9974eca3c293b46791a505098529924"
        },
        {
          "alg": "SHA-256",
          "content": "17cb189938d6cda4d21a2dabcd63db86658d2556e767dfd4835b1011544a1f8e"
        }
      ],
      "licenses": [
        {
          "license": {
            "name": "MIT"
          }
        }
      ],
      "purl": "pkg:pypi/anyconfig@0.13.0",
      "modified": false
    },
    {
      "type": "library",
      "publisher": "Rotem Yaari",
      "name": "munch",
      "version": "2.5.0",
      "description": "A dot-accessible dictionary (a la JavaScript objects)",
      "hashes": [
        {
          "alg": "MD5",
          "content": "b45ad9007e5abf23c303adee27ffd27e"
        },
        {
          "alg": "SHA-256",
          "content": "6f44af89a2ce4ed04ff8de41f70b226b984db10a91dcc7b9ac2efc1c77022fdd"
        }
      ],
      "licenses": [
        {
          "license": {
            "name": "MIT"
          }
        }
      ],
      "purl": "pkg:pypi/munch@2.5.0",
      "modified": false
    },
    {
      "type": "library",
      "publisher": "Denis Bilenko",
      "name": "gevent",
      "version": "21.12.0",
      "description": "Coroutine-based network library",
      "hashes": [
        {
          "alg": "MD5",
          "content": "6f5a336733aed2a0eab175b0d4d7c8e7"
        },
        {
          "alg": "SHA-256",
          "content": "9f9652d1e4062d4b5b5a0a49ff679fa890430b5f76969d35dccb2df114c55e0f"
        }
      ],
      "licenses": [
        {
          "license": {
            "name": "MIT"
          }
        }
      ],
      "purl": "pkg:pypi/gevent@21.12.0",
      "modified": false
    },
    {
      "type": "library",
      "publisher": "Armin Ronacher",
      "name": "flask",
      "version": "2.1.2",
      "description": "A simple framework for building complex web applications.",
      "hashes": [
        {
          "alg": "MD5",
          "content": "07aede47b441c019aeebbeaed6a76215"
        },
        {
          "alg": "SHA-256",
          "content": "fad5b446feb0d6db6aec0c3184d16a8c1f6c3e464b511649c8918a9be100b4fe"
        }
      ],
      "licenses": [
        {
          "license": {
            "name": "BSD-3-Clause"
          }
        }
      ],
      "purl": "pkg:pypi/flask@2.1.2",
      "modified": false
    }
  ],
  "metadata": {
    "tools": [
      {
        "vendor": "Fortress Information Security",
        "name": "Github Extractor",
        "version": "1.15.1"
      }
    ],
    "authors": [
      {
        "name": "Fortress Information Security",
        "email": "sales@fortressinfosec.com",
        "phone": "1-407-573-6800"
      }
    ],
    "timestamp": "2022-06-01T21:00:00Z",
    "component": {
      "type": "application",
      "name": "unilm",
      "version": "s2s-ft.v0.3",
      "group": "microsoft",
      "externalReferences": [
        {
          "url": "https://github.com/microsoft/unilm.git",
          "type": "distribution"
        },
        {
          "type": "website",
          "url": "null",
          "comment": "As set via `homepage` in Github API"
        }
      ]
    }
  }
}
