{
  "bomFormat": "CycloneDX",
  "specVersion": "1.3",
  "version": 1,
  "metadata": {
    "tools": [
      {
        "vendor": "CycloneDX",
        "name": "Node.js module",
        "version": "3.0.3"
      },
      {
        "vendor": "AppThreat",
        "name": "cdxgen",
        "version": "3.0.10"
      },
      {
        "vendor": "Fortress Information Security",
        "name": "GitHub Extractor",
        "version": "1.15.1"
      }
    ],
    "authors": [
      {
        "name": "Fortress Information Security",
        "email": "sales@fortressinfosec.com",
        "phone": "1-407-573-6800"
      }
    ],
    "timestamp": "2022-07-02T20:27:18Z",
    "component": {
      "type": "application",
      "name": "ProjectRed",
      "version": "v4.12",
      "group": "MrTJP",
      "externalReferences": [
        {
          "url": "https://github.com/MrTJP/ProjectRed.git",
          "type": "distribution"
        }
      ]
    }
  },
  "components": [
    {
      "type": "library",
      "publisher": "David Bieber",
      "name": "fire",
      "version": "0.4.0",
      "description": "A library for automatically generating command line interfaces.",
      "hashes": [
        {
          "alg": "MD5",
          "content": "799be84cbbd7df2cf159cdcb538ab6f9"
        },
        {
          "alg": "SHA-256",
          "content": "c5e2b8763699d1142393a46d0e3e790c5eb2f0706082df8f647878842c216a62"
        }
      ],
      "licenses": [
        {
          "license": {
            "name": "Apache Software License"
          }
        }
      ],
      "purl": "pkg:pypi/fire@0.4.0",
      "modified": false
    },
    {
      "type": "library",
      "publisher": "Vinay Sajip",
      "name": "logging",
      "version": "0.4.9.6",
      "description": "A logging module for Python",
      "hashes": [
        {
          "alg": "MD5",
          "content": "dc0a7ebc8b8970263911e11e7b7e1ca8"
        },
        {
          "alg": "SHA-256",
          "content": "26f6b50773f085042d301085bd1bf5d9f3735704db9f37c1ce6d8b85c38f2417"
        }
      ],
      "licenses": [
        {
          "license": {
            "name": "Copyright (C) 2001-2005 by Vinay Sajip. All Rights Reserved. See LICENSE for license."
          }
        }
      ],
      "purl": "pkg:pypi/logging@0.4.9.6",
      "modified": false
    },
    {
      "type": "library",
      "bom-ref": "pkg:maven/mezz.jei/jei-1.16.5@7.6.1.75?type=jar",
      "group": "mezz.jei",
      "name": "jei-1.16.5",
      "version": "7.6.1.75",
      "description": "",
      "purl": "pkg:maven/mezz.jei/jei-1.16.5@7.6.1.75?type=jar"
    },
    {
      "type": "library",
      "bom-ref": "pkg:maven/org.squiddev/cc-tweaked-1.16.5@1.98.2?type=jar",
      "group": "org.squiddev",
      "name": "cc-tweaked-1.16.5",
      "version": "1.98.2",
      "description": "",
      "purl": "pkg:maven/org.squiddev/cc-tweaked-1.16.5@1.98.2?type=jar"
    },
    {
      "type": "library",
      "bom-ref": "pkg:maven/net.minecraft/client@1.16.5?type=jar",
      "group": "net.minecraft",
      "name": "client",
      "version": "1.16.5",
      "description": "",
      "purl": "pkg:maven/net.minecraft/client@1.16.5?type=jar"
    },
    {
      "type": "library",
      "bom-ref": "pkg:maven/com.mojang/patchy@1.3.9?type=jar",
      "group": "com.mojang",
      "name": "patchy",
      "version": "1.3.9",
      "description": "",
      "purl": "pkg:maven/com.mojang/patchy@1.3.9?type=jar"
    },
    {
      "type": "library",
      "bom-ref": "pkg:maven/io.netty/netty-all@4.1.25.Final?type=jar",
      "group": "io.netty",
      "name": "netty-all",
      "version": "4.1.25.Final",
      "description": "",
      "purl": "pkg:maven/io.netty/netty-all@4.1.25.Final?type=jar"
    },
    {
      "type": "library",
      "bom-ref": "pkg:maven/com.google.guava/guava@21.0?type=jar",
      "group": "com.google.guava",
      "name": "guava",
      "version": "21.0",
      "description": "",
      "purl": "pkg:maven/com.google.guava/guava@21.0?type=jar"
    },
    {
      "type": "library",
      "bom-ref": "pkg:maven/oshi-project/oshi-core@1.1?type=jar",
      "group": "oshi-project",
      "name": "oshi-core",
      "version": "1.1",
      "description": "",
      "purl": "pkg:maven/oshi-project/oshi-core@1.1?type=jar"
    },
    {
      "type": "library",
      "bom-ref": "pkg:maven/net.java.dev.jna/jna@4.4.0?type=jar",
      "group": "net.java.dev.jna",
      "name": "jna",
      "version": "4.4.0",
      "description": "",
      "purl": "pkg:maven/net.java.dev.jna/jna@4.4.0?type=jar"
    },
    {
      "type": "library",
      "bom-ref": "pkg:maven/net.java.dev.jna/platform@3.4.0?type=jar",
      "group": "net.java.dev.jna",
      "name": "platform",
      "version": "3.4.0",
      "description": "",
      "purl": "pkg:maven/net.java.dev.jna/platform@3.4.0?type=jar"
    },
    {
      "type": "library",
      "bom-ref": "pkg:maven/com.ibm.icu/icu4j@66.1?type=jar",
      "group": "com.ibm.icu",
      "name": "icu4j",
      "version": "66.1",
      "description": "",
      "purl": "pkg:maven/com.ibm.icu/icu4j@66.1?type=jar"
    },
    {
      "type": "library",
      "bom-ref": "pkg:maven/com.mojang/javabridge@1.0.22?type=jar",
      "group": "com.mojang",
      "name": "javabridge",
      "version": "1.0.22",
      "description": "",
      "purl": "pkg:maven/com.mojang/javabridge@1.0.22?type=jar"
    },
    {
      "type": "library",
      "bom-ref": "pkg:maven/net.sf.jopt-simple/jopt-simple@5.0.4?type=jar",
      "group": "net.sf.jopt-simple",
      "name": "jopt-simple",
      "version": "5.0.4",
      "description": "",
      "purl": "pkg:maven/net.sf.jopt-simple/jopt-simple@5.0.4?type=jar"
    },
    {
      "type": "library",
      "bom-ref": "pkg:maven/org.apache.commons/commons-lang3@3.8.1?type=jar",
      "group": "org.apache.commons",
      "name": "commons-lang3",
      "version": "3.8.1",
      "description": "",
      "purl": "pkg:maven/org.apache.commons/commons-lang3@3.8.1?type=jar"
    },
    {
      "type": "library",
      "bom-ref": "pkg:maven/commons-io/commons-io@2.5?type=jar",
      "group": "commons-io",
      "name": "commons-io",
      "version": "2.5",
      "description": "",
      "purl": "pkg:maven/commons-io/commons-io@2.5?type=jar"
    },
    {
      "type": "library",
      "bom-ref": "pkg:maven/commons-codec/commons-codec@1.10?type=jar",
      "group": "commons-codec",
      "name": "commons-codec",
      "version": "1.10",
      "description": "",
      "purl": "pkg:maven/commons-codec/commons-codec@1.10?type=jar"
    },
    {
      "type": "library",
      "bom-ref": "pkg:maven/net.java.jinput/jinput@2.0.5?type=jar",
      "group": "net.java.jinput",
      "name": "jinput",
      "version": "2.0.5",
      "description": "",
      "purl": "pkg:maven/net.java.jinput/jinput@2.0.5?type=jar"
    },
    {
      "type": "library",
      "bom-ref": "pkg:maven/net.java.jutils/jutils@1.0.0?type=jar",
      "group": "net.java.jutils",
      "name": "jutils",
      "version": "1.0.0",
      "description": "",
      "purl": "pkg:maven/net.java.jutils/jutils@1.0.0?type=jar"
    },
    {
      "type": "library",
      "bom-ref": "pkg:maven/net.java.jinput/jinput-platform@2.0.5?type=jar",
      "group": "net.java.jinput",
      "name": "jinput-platform",
      "version": "2.0.5",
      "description": "",
      "purl": "pkg:maven/net.java.jinput/jinput-platform@2.0.5?type=jar"
    },
    {
      "type": "library",
      "bom-ref": "pkg:maven/com.mojang/brigadier@1.0.17?type=jar",
      "group": "com.mojang",
      "name": "brigadier",
      "version": "1.0.17",
      "description": "",
      "purl": "pkg:maven/com.mojang/brigadier@1.0.17?type=jar"
    },
    {
      "type": "library",
      "bom-ref": "pkg:maven/com.mojang/datafixerupper@4.0.26?type=jar",
      "group": "com.mojang",
      "name": "datafixerupper",
      "version": "4.0.26",
      "description": "",
      "purl": "pkg:maven/com.mojang/datafixerupper@4.0.26?type=jar"
    },
    {
      "type": "library",
      "bom-ref": "pkg:maven/com.google.code.findbugs/jsr305@3.0.2?type=jar",
      "group": "com.google.code.findbugs",
      "name": "jsr305",
      "version": "3.0.2",
      "description": "",
      "purl": "pkg:maven/com.google.code.findbugs/jsr305@3.0.2?type=jar"
    },
    {
      "type": "library",
      "bom-ref": "pkg:maven/com.google.code.gson/gson@2.8.0?type=jar",
      "group": "com.google.code.gson",
      "name": "gson",
      "version": "2.8.0",
      "description": "",
      "purl": "pkg:maven/com.google.code.gson/gson@2.8.0?type=jar"
    },
    {
      "type": "library",
      "bom-ref": "pkg:maven/org.apache.logging.log4j/log4j-api@2.11.2?type=jar",
      "group": "org.apache.logging.log4j",
      "name": "log4j-api",
      "version": "2.11.2",
      "description": "",
      "purl": "pkg:maven/org.apache.logging.log4j/log4j-api@2.11.2?type=jar"
    },
    {
      "type": "library",
      "bom-ref": "pkg:maven/it.unimi.dsi/fastutil@8.2.1?type=jar",
      "group": "it.unimi.dsi",
      "name": "fastutil",
      "version": "8.2.1",
      "description": "",
      "purl": "pkg:maven/it.unimi.dsi/fastutil@8.2.1?type=jar"
    },
    {
      "type": "library",
      "bom-ref": "pkg:maven/com.mojang/authlib@2.1.28?type=jar",
      "group": "com.mojang",
      "name": "authlib",
      "version": "2.1.28",
      "description": "",
      "purl": "pkg:maven/com.mojang/authlib@2.1.28?type=jar"
    },
    {
      "type": "library",
      "bom-ref": "pkg:maven/org.apache.logging.log4j/log4j-core@2.11.2?type=jar",
      "group": "org.apache.logging.log4j",
      "name": "log4j-core",
      "version": "2.11.2",
      "description": "",
      "purl": "pkg:maven/org.apache.logging.log4j/log4j-core@2.11.2?type=jar"
    },
    {
      "type": "library",
      "bom-ref": "pkg:maven/org.apache.commons/commons-compress@1.8.1?type=jar",
      "group": "org.apache.commons",
      "name": "commons-compress",
      "version": "1.8.1",
      "description": "",
      "purl": "pkg:maven/org.apache.commons/commons-compress@1.8.1?type=jar"
    },
    {
      "type": "library",
      "bom-ref": "pkg:maven/org.apache.httpcomponents/httpclient@4.3.3?type=jar",
      "group": "org.apache.httpcomponents",
      "name": "httpclient",
      "version": "4.3.3",
      "description": "",
      "purl": "pkg:maven/org.apache.httpcomponents/httpclient@4.3.3?type=jar"
    },
    {
      "type": "library",
      "bom-ref": "pkg:maven/org.apache.httpcomponents/httpcore@4.3.2?type=jar",
      "group": "org.apache.httpcomponents",
      "name": "httpcore",
      "version": "4.3.2",
      "description": "",
      "purl": "pkg:maven/org.apache.httpcomponents/httpcore@4.3.2?type=jar"
    },
    {
      "type": "library",
      "bom-ref": "pkg:maven/commons-logging/commons-logging@1.1.3?type=jar",
      "group": "commons-logging",
      "name": "commons-logging",
      "version": "1.1.3",
      "description": "",
      "purl": "pkg:maven/commons-logging/commons-logging@1.1.3?type=jar"
    },
    {
      "type": "library",
      "bom-ref": "pkg:maven/org.lwjgl/lwjgl@3.2.2?type=jar",
      "group": "org.lwjgl",
      "name": "lwjgl",
      "version": "3.2.2",
      "description": "",
      "purl": "pkg:maven/org.lwjgl/lwjgl@3.2.2?type=jar"
    },
    {
      "type": "library",
      "bom-ref": "pkg:maven/org.lwjgl/lwjgl-jemalloc@3.2.2?type=jar",
      "group": "org.lwjgl",
      "name": "lwjgl-jemalloc",
      "version": "3.2.2",
      "description": "",
      "purl": "pkg:maven/org.lwjgl/lwjgl-jemalloc@3.2.2?type=jar"
    },
    {
      "type": "library",
      "bom-ref": "pkg:maven/org.lwjgl/lwjgl-openal@3.2.2?type=jar",
      "group": "org.lwjgl",
      "name": "lwjgl-openal",
      "version": "3.2.2",
      "description": "",
      "purl": "pkg:maven/org.lwjgl/lwjgl-openal@3.2.2?type=jar"
    },
    {
      "type": "library",
      "bom-ref": "pkg:maven/org.lwjgl/lwjgl-opengl@3.2.2?type=jar",
      "group": "org.lwjgl",
      "name": "lwjgl-opengl",
      "version": "3.2.2",
      "description": "",
      "purl": "pkg:maven/org.lwjgl/lwjgl-opengl@3.2.2?type=jar"
    },
    {
      "type": "library",
      "bom-ref": "pkg:maven/org.lwjgl/lwjgl-glfw@3.2.2?type=jar",
      "group": "org.lwjgl",
      "name": "lwjgl-glfw",
      "version": "3.2.2",
      "description": "",
      "purl": "pkg:maven/org.lwjgl/lwjgl-glfw@3.2.2?type=jar"
    },
    {
      "type": "library",
      "bom-ref": "pkg:maven/org.lwjgl/lwjgl-stb@3.2.2?type=jar",
      "group": "org.lwjgl",
      "name": "lwjgl-stb",
      "version": "3.2.2",
      "description": "",
      "purl": "pkg:maven/org.lwjgl/lwjgl-stb@3.2.2?type=jar"
    },
    {
      "type": "library",
      "bom-ref": "pkg:maven/org.lwjgl/lwjgl-tinyfd@3.2.2?type=jar",
      "group": "org.lwjgl",
      "name": "lwjgl-tinyfd",
      "version": "3.2.2",
      "description": "",
      "purl": "pkg:maven/org.lwjgl/lwjgl-tinyfd@3.2.2?type=jar"
    },
    {
      "type": "library",
      "bom-ref": "pkg:maven/com.mojang/text2speech@1.11.3?type=jar",
      "group": "com.mojang",
      "name": "text2speech",
      "version": "1.11.3",
      "description": "",
      "purl": "pkg:maven/com.mojang/text2speech@1.11.3?type=jar"
    },
    {
      "type": "library",
      "bom-ref": "pkg:maven/ca.weblite/java-objc-bridge@1.0.0?type=jar",
      "group": "ca.weblite",
      "name": "java-objc-bridge",
      "version": "1.0.0",
      "description": "",
      "purl": "pkg:maven/ca.weblite/java-objc-bridge@1.0.0?type=jar"
    },
    {
      "type": "library",
      "bom-ref": "pkg:maven/net.minecraftforge/mergetool@1.0.9?type=jar",
      "group": "net.minecraftforge",
      "name": "mergetool",
      "version": "1.0.9",
      "description": "",
      "purl": "pkg:maven/net.minecraftforge/mergetool@1.0.9?type=jar"
    },
    {
      "type": "library",
      "bom-ref": "pkg:maven/org.ow2.asm/asm@9.0?type=jar",
      "group": "org.ow2.asm",
      "name": "asm",
      "version": "9.0",
      "description": "",
      "purl": "pkg:maven/org.ow2.asm/asm@9.0?type=jar"
    },
    {
      "type": "library",
      "bom-ref": "pkg:maven/org.ow2.asm/asm-tree@9.0?type=jar",
      "group": "org.ow2.asm",
      "name": "asm-tree",
      "version": "9.0",
      "description": "",
      "purl": "pkg:maven/org.ow2.asm/asm-tree@9.0?type=jar"
    },
    {
      "type": "library",
      "bom-ref": "pkg:maven/org.ow2.asm/asm-util@9.0?type=jar",
      "group": "org.ow2.asm",
      "name": "asm-util",
      "version": "9.0",
      "description": "",
      "purl": "pkg:maven/org.ow2.asm/asm-util@9.0?type=jar"
    },
    {
      "type": "library",
      "bom-ref": "pkg:maven/org.ow2.asm/asm-analysis@9.0?type=jar",
      "group": "org.ow2.asm",
      "name": "asm-analysis",
      "version": "9.0",
      "description": "",
      "purl": "pkg:maven/org.ow2.asm/asm-analysis@9.0?type=jar"
    },
    {
      "type": "library",
      "bom-ref": "pkg:maven/org.ow2.asm/asm-commons@9.0?type=jar",
      "group": "org.ow2.asm",
      "name": "asm-commons",
      "version": "9.0",
      "description": "",
      "purl": "pkg:maven/org.ow2.asm/asm-commons@9.0?type=jar"
    },
    {
      "type": "library",
      "bom-ref": "pkg:maven/cpw.mods/modlauncher@8.0.9?type=jar",
      "group": "cpw.mods",
      "name": "modlauncher",
      "version": "8.0.9",
      "description": "",
      "purl": "pkg:maven/cpw.mods/modlauncher@8.0.9?type=jar"
    },
    {
      "type": "library",
      "bom-ref": "pkg:maven/cpw.mods/grossjava9hacks@1.3.3?type=jar",
      "group": "cpw.mods",
      "name": "grossjava9hacks",
      "version": "1.3.3",
      "description": "",
      "purl": "pkg:maven/cpw.mods/grossjava9hacks@1.3.3?type=jar"
    },
    {
      "type": "library",
      "bom-ref": "pkg:maven/net.minecraftforge/accesstransformers@3.0.1?type=jar",
      "group": "net.minecraftforge",
      "name": "accesstransformers",
      "version": "3.0.1",
      "description": "",
      "purl": "pkg:maven/net.minecraftforge/accesstransformers@3.0.1?type=jar"
    },
    {
      "type": "library",
      "bom-ref": "pkg:maven/org.antlr/antlr4-runtime@4.9.1?type=jar",
      "group": "org.antlr",
      "name": "antlr4-runtime",
      "version": "4.9.1",
      "description": "",
      "purl": "pkg:maven/org.antlr/antlr4-runtime@4.9.1?type=jar"
    },
    {
      "type": "library",
      "bom-ref": "pkg:maven/net.minecraftforge/eventbus@4.0.0?type=jar",
      "group": "net.minecraftforge",
      "name": "eventbus",
      "version": "4.0.0",
      "description": "",
      "purl": "pkg:maven/net.minecraftforge/eventbus@4.0.0?type=jar"
    },
    {
      "type": "library",
      "bom-ref": "pkg:maven/net.jodah/typetools@0.8.3?type=jar",
      "group": "net.jodah",
      "name": "typetools",
      "version": "0.8.3",
      "description": "",
      "purl": "pkg:maven/net.jodah/typetools@0.8.3?type=jar"
    },
    {
      "type": "library",
      "bom-ref": "pkg:maven/net.minecraftforge/forgespi@3.2.0?type=jar",
      "group": "net.minecraftforge",
      "name": "forgespi",
      "version": "3.2.0",
      "description": "",
      "purl": "pkg:maven/net.minecraftforge/forgespi@3.2.0?type=jar"
    },
    {
      "type": "library",
      "bom-ref": "pkg:maven/org.apache.maven/maven-artifact@3.6.3?type=jar",
      "group": "org.apache.maven",
      "name": "maven-artifact",
      "version": "3.6.3",
      "description": "",
      "purl": "pkg:maven/org.apache.maven/maven-artifact@3.6.3?type=jar"
    },
    {
      "type": "library",
      "bom-ref": "pkg:maven/org.codehaus.plexus/plexus-utils@3.2.1?type=jar",
      "group": "org.codehaus.plexus",
      "name": "plexus-utils",
      "version": "3.2.1",
      "description": "",
      "purl": "pkg:maven/org.codehaus.plexus/plexus-utils@3.2.1?type=jar"
    },
    {
      "type": "library",
      "bom-ref": "pkg:maven/net.minecraftforge/coremods@4.0.6?type=jar",
      "group": "net.minecraftforge",
      "name": "coremods",
      "version": "4.0.6",
      "description": "",
      "purl": "pkg:maven/net.minecraftforge/coremods@4.0.6?type=jar"
    },
    {
      "type": "library",
      "bom-ref": "pkg:maven/net.minecraftforge/unsafe@0.2.0?type=jar",
      "group": "net.minecraftforge",
      "name": "unsafe",
      "version": "0.2.0",
      "description": "",
      "purl": "pkg:maven/net.minecraftforge/unsafe@0.2.0?type=jar"
    },
    {
      "type": "library",
      "bom-ref": "pkg:maven/com.electronwill.night-config/core@3.6.3?type=jar",
      "group": "com.electronwill.night-config",
      "name": "core",
      "version": "3.6.3",
      "description": "",
      "purl": "pkg:maven/com.electronwill.night-config/core@3.6.3?type=jar"
    },
    {
      "type": "library",
      "bom-ref": "pkg:maven/com.electronwill.night-config/toml@3.6.3?type=jar",
      "group": "com.electronwill.night-config",
      "name": "toml",
      "version": "3.6.3",
      "description": "",
      "purl": "pkg:maven/com.electronwill.night-config/toml@3.6.3?type=jar"
    },
    {
      "type": "library",
      "bom-ref": "pkg:maven/org.jline/jline@3.12.1?type=jar",
      "group": "org.jline",
      "name": "jline",
      "version": "3.12.1",
      "description": "",
      "purl": "pkg:maven/org.jline/jline@3.12.1?type=jar"
    },
    {
      "type": "library",
      "bom-ref": "pkg:maven/net.minecrell/terminalconsoleappender@1.2.0?type=jar",
      "group": "net.minecrell",
      "name": "terminalconsoleappender",
      "version": "1.2.0",
      "description": "",
      "purl": "pkg:maven/net.minecrell/terminalconsoleappender@1.2.0?type=jar"
    },
    {
      "type": "library",
      "bom-ref": "pkg:maven/org.jline/jline-reader@3.12.1?type=jar",
      "group": "org.jline",
      "name": "jline-reader",
      "version": "3.12.1",
      "description": "",
      "purl": "pkg:maven/org.jline/jline-reader@3.12.1?type=jar"
    },
    {
      "type": "library",
      "bom-ref": "pkg:maven/org.jline/jline-terminal@3.12.1?type=jar",
      "group": "org.jline",
      "name": "jline-terminal",
      "version": "3.12.1",
      "description": "",
      "purl": "pkg:maven/org.jline/jline-terminal@3.12.1?type=jar"
    },
    {
      "type": "library",
      "bom-ref": "pkg:maven/org.spongepowered/mixin@0.8.2?type=jar",
      "group": "org.spongepowered",
      "name": "mixin",
      "version": "0.8.2",
      "description": "",
      "purl": "pkg:maven/org.spongepowered/mixin@0.8.2?type=jar"
    },
    {
      "type": "library",
      "bom-ref": "pkg:maven/net.minecraftforge/nashorn-core-compat@15.1.1.1?type=jar",
      "group": "net.minecraftforge",
      "name": "nashorn-core-compat",
      "version": "15.1.1.1",
      "description": "",
      "purl": "pkg:maven/net.minecraftforge/nashorn-core-compat@15.1.1.1?type=jar"
    },
    {
      "type": "library",
      "bom-ref": "pkg:maven/net.minecraftforge/forge@1.16.5-36.1.0?type=jar",
      "group": "net.minecraftforge",
      "name": "forge",
      "version": "1.16.5-36.1.0",
      "description": "",
      "purl": "pkg:maven/net.minecraftforge/forge@1.16.5-36.1.0?type=jar"
    },
    {
      "type": "library",
      "bom-ref": "pkg:maven/org.scala-lang/scala-compiler@2.13.4?type=jar",
      "group": "org.scala-lang",
      "name": "scala-compiler",
      "version": "2.13.4",
      "description": "",
      "purl": "pkg:maven/org.scala-lang/scala-compiler@2.13.4?type=jar"
    },
    {
      "type": "library",
      "bom-ref": "pkg:maven/org.scala-lang/scala-library@2.13.4?type=jar",
      "group": "org.scala-lang",
      "name": "scala-library",
      "version": "2.13.4",
      "description": "",
      "purl": "pkg:maven/org.scala-lang/scala-library@2.13.4?type=jar"
    },
    {
      "type": "library",
      "bom-ref": "pkg:maven/org.scala-lang/scala-reflect@2.13.4?type=jar",
      "group": "org.scala-lang",
      "name": "scala-reflect",
      "version": "2.13.4",
      "description": "",
      "purl": "pkg:maven/org.scala-lang/scala-reflect@2.13.4?type=jar"
    },
    {
      "type": "library",
      "bom-ref": "pkg:maven/org.jline/jline@3.16.0?type=jar",
      "group": "org.jline",
      "name": "jline",
      "version": "3.16.0",
      "description": "",
      "purl": "pkg:maven/org.jline/jline@3.16.0?type=jar"
    },
    {
      "type": "library",
      "bom-ref": "pkg:maven/net.java.dev.jna/jna@5.3.1?type=jar",
      "group": "net.java.dev.jna",
      "name": "jna",
      "version": "5.3.1",
      "description": "",
      "purl": "pkg:maven/net.java.dev.jna/jna@5.3.1?type=jar"
    },
    {
      "type": "library",
      "bom-ref": "pkg:maven/org.scala-lang.modules/scala-java8-compat_2.13@0.9.1?type=jar",
      "group": "org.scala-lang.modules",
      "name": "scala-java8-compat_2.13",
      "version": "0.9.1",
      "description": "",
      "purl": "pkg:maven/org.scala-lang.modules/scala-java8-compat_2.13@0.9.1?type=jar"
    },
    {
      "type": "library",
      "bom-ref": "pkg:maven/net.minecraftforge/Scorge@3.1.3?type=jar",
      "group": "net.minecraftforge",
      "name": "Scorge",
      "version": "3.1.3",
      "description": "",
      "purl": "pkg:maven/net.minecraftforge/Scorge@3.1.3?type=jar"
    },
    {
      "type": "library",
      "bom-ref": "pkg:maven/net.minecraftforge/forge@1.16.5-36.1.0_mapped_official_1.16.5_at_0f3c50f9c0a58d2d36dde3e530f4868bf482218e?type=jar",
      "group": "net.minecraftforge",
      "name": "forge",
      "version": "1.16.5-36.1.0_mapped_official_1.16.5_at_0f3c50f9c0a58d2d36dde3e530f4868bf482218e",
      "description": "",
      "purl": "pkg:maven/net.minecraftforge/forge@1.16.5-36.1.0_mapped_official_1.16.5_at_0f3c50f9c0a58d2d36dde3e530f4868bf482218e?type=jar"
    },
    {
      "type": "library",
      "bom-ref": "pkg:maven/com.google.code.findbugs/jsr305@3.0.1?type=jar",
      "group": "com.google.code.findbugs",
      "name": "jsr305",
      "version": "3.0.1",
      "description": "",
      "purl": "pkg:maven/com.google.code.findbugs/jsr305@3.0.1?type=jar"
    },
    {
      "type": "library",
      "bom-ref": "pkg:maven/net.minecraft/mappings_official@1.16.5?type=jar",
      "group": "net.minecraft",
      "name": "mappings_official",
      "version": "1.16.5",
      "description": "",
      "purl": "pkg:maven/net.minecraft/mappings_official@1.16.5?type=jar"
    },
    {
      "type": "library",
      "bom-ref": "pkg:maven/cpw.mods/grossjava9hacks@1.3.0?type=jar",
      "group": "cpw.mods",
      "name": "grossjava9hacks",
      "version": "1.3.0",
      "description": "",
      "purl": "pkg:maven/cpw.mods/grossjava9hacks@1.3.0?type=jar"
    },
    {
      "type": "library",
      "bom-ref": "pkg:maven/codechicken/CodeChickenLib@1.16.5-4.0.2.430?type=jar",
      "group": "codechicken",
      "name": "CodeChickenLib",
      "version": "1.16.5-4.0.2.430",
      "description": "",
      "purl": "pkg:maven/codechicken/CodeChickenLib@1.16.5-4.0.2.430?type=jar"
    },
    {
      "type": "library",
      "bom-ref": "pkg:maven/codechicken/CBMultipart@1.16.5-3.0.2.120?type=jar",
      "group": "codechicken",
      "name": "CBMultipart",
      "version": "1.16.5-3.0.2.120",
      "description": "",
      "purl": "pkg:maven/codechicken/CBMultipart@1.16.5-3.0.2.120?type=jar"
    },
    {
      "type": "library",
      "bom-ref": "pkg:maven/org.squiddev/cc-tweaked-1.16.5@1.98.2_mapped_official_1.16.5?type=jar",
      "group": "org.squiddev",
      "name": "cc-tweaked-1.16.5",
      "version": "1.98.2_mapped_official_1.16.5",
      "description": "",
      "purl": "pkg:maven/org.squiddev/cc-tweaked-1.16.5@1.98.2_mapped_official_1.16.5?type=jar"
    },
    {
      "type": "library",
      "bom-ref": "pkg:maven/mezz.jei/jei-1.16.5@7.6.1.+_mapped_official_1.16.5?type=jar",
      "group": "mezz.jei",
      "name": "jei-1.16.5",
      "version": "7.6.1.+_mapped_official_1.16.5",
      "description": "",
      "purl": "pkg:maven/mezz.jei/jei-1.16.5@7.6.1.+_mapped_official_1.16.5?type=jar"
    },
    {
      "type": "library",
      "bom-ref": "pkg:maven/codechicken/CodeChickenLib@1.16.5-4.0.2.+?type=jar",
      "group": "codechicken",
      "name": "CodeChickenLib",
      "version": "1.16.5-4.0.2.+",
      "description": "",
      "purl": "pkg:maven/codechicken/CodeChickenLib@1.16.5-4.0.2.+?type=jar"
    },
    {
      "type": "library",
      "bom-ref": "pkg:maven/codechicken/CBMultipart@1.16.5-3.0.2.+?type=jar",
      "group": "codechicken",
      "name": "CBMultipart",
      "version": "1.16.5-3.0.2.+",
      "description": "",
      "purl": "pkg:maven/codechicken/CBMultipart@1.16.5-3.0.2.+?type=jar"
    },
    {
      "type": "library",
      "bom-ref": "pkg:maven/org.squiddev/cc-tweaked-1.16.5@{strictly?type=jar",
      "group": "org.squiddev",
      "name": "cc-tweaked-1.16.5",
      "version": "{strictly",
      "description": "",
      "purl": "pkg:maven/org.squiddev/cc-tweaked-1.16.5@{strictly?type=jar"
    },
    {
      "type": "library",
      "bom-ref": "pkg:maven/org.scala-sbt/zinc_2.12@1.3.5?type=jar",
      "group": "org.scala-sbt",
      "name": "zinc_2.12",
      "version": "1.3.5",
      "description": "",
      "purl": "pkg:maven/org.scala-sbt/zinc_2.12@1.3.5?type=jar"
    },
    {
      "type": "library",
      "bom-ref": "pkg:maven/org.scala-lang/scala-library@2.12.10?type=jar",
      "group": "org.scala-lang",
      "name": "scala-library",
      "version": "2.12.10",
      "description": "",
      "purl": "pkg:maven/org.scala-lang/scala-library@2.12.10?type=jar"
    },
    {
      "type": "library",
      "bom-ref": "pkg:maven/org.scala-sbt/zinc-core_2.12@1.3.5?type=jar",
      "group": "org.scala-sbt",
      "name": "zinc-core_2.12",
      "version": "1.3.5",
      "description": "",
      "purl": "pkg:maven/org.scala-sbt/zinc-core_2.12@1.3.5?type=jar"
    },
    {
      "type": "library",
      "bom-ref": "pkg:maven/org.scala-sbt/zinc-apiinfo_2.12@1.3.5?type=jar",
      "group": "org.scala-sbt",
      "name": "zinc-apiinfo_2.12",
      "version": "1.3.5",
      "description": "",
      "purl": "pkg:maven/org.scala-sbt/zinc-apiinfo_2.12@1.3.5?type=jar"
    },
    {
      "type": "library",
      "bom-ref": "pkg:maven/org.scala-sbt/compiler-interface@1.3.5?type=jar",
      "group": "org.scala-sbt",
      "name": "compiler-interface",
      "version": "1.3.5",
      "description": "",
      "purl": "pkg:maven/org.scala-sbt/compiler-interface@1.3.5?type=jar"
    },
    {
      "type": "library",
      "bom-ref": "pkg:maven/com.google.protobuf/protobuf-java@3.7.0?type=jar",
      "group": "com.google.protobuf",
      "name": "protobuf-java",
      "version": "3.7.0",
      "description": "",
      "purl": "pkg:maven/com.google.protobuf/protobuf-java@3.7.0?type=jar"
    },
    {
      "type": "library",
      "bom-ref": "pkg:maven/org.scala-sbt/util-interface@1.3.0?type=jar",
      "group": "org.scala-sbt",
      "name": "util-interface",
      "version": "1.3.0",
      "description": "",
      "purl": "pkg:maven/org.scala-sbt/util-interface@1.3.0?type=jar"
    },
    {
      "type": "library",
      "bom-ref": "pkg:maven/org.scala-sbt/compiler-bridge_2.12@1.3.5?type=jar",
      "group": "org.scala-sbt",
      "name": "compiler-bridge_2.12",
      "version": "1.3.5",
      "description": "",
      "purl": "pkg:maven/org.scala-sbt/compiler-bridge_2.12@1.3.5?type=jar"
    },
    {
      "type": "library",
      "bom-ref": "pkg:maven/org.scala-sbt/zinc-classfile_2.12@1.3.5?type=jar",
      "group": "org.scala-sbt",
      "name": "zinc-classfile_2.12",
      "version": "1.3.5",
      "description": "",
      "purl": "pkg:maven/org.scala-sbt/zinc-classfile_2.12@1.3.5?type=jar"
    },
    {
      "type": "library",
      "bom-ref": "pkg:maven/org.scala-sbt/io_2.12@1.3.0?type=jar",
      "group": "org.scala-sbt",
      "name": "io_2.12",
      "version": "1.3.0",
      "description": "",
      "purl": "pkg:maven/org.scala-sbt/io_2.12@1.3.0?type=jar"
    },
    {
      "type": "library",
      "bom-ref": "pkg:maven/com.swoval/file-tree-views@2.1.3?type=jar",
      "group": "com.swoval",
      "name": "file-tree-views",
      "version": "2.1.3",
      "description": "",
      "purl": "pkg:maven/com.swoval/file-tree-views@2.1.3?type=jar"
    },
    {
      "type": "library",
      "bom-ref": "pkg:maven/net.java.dev.jna/jna@4.5.0?type=jar",
      "group": "net.java.dev.jna",
      "name": "jna",
      "version": "4.5.0",
      "description": "",
      "purl": "pkg:maven/net.java.dev.jna/jna@4.5.0?type=jar"
    },
    {
      "type": "library",
      "bom-ref": "pkg:maven/net.java.dev.jna/jna-platform@4.5.0?type=jar",
      "group": "net.java.dev.jna",
      "name": "jna-platform",
      "version": "4.5.0",
      "description": "",
      "purl": "pkg:maven/net.java.dev.jna/jna-platform@4.5.0?type=jar"
    },
    {
      "type": "library",
      "bom-ref": "pkg:maven/org.scala-sbt/util-logging_2.12@1.3.0?type=jar",
      "group": "org.scala-sbt",
      "name": "util-logging_2.12",
      "version": "1.3.0",
      "description": "",
      "purl": "pkg:maven/org.scala-sbt/util-logging_2.12@1.3.0?type=jar"
    },
    {
      "type": "library",
      "bom-ref": "pkg:maven/com.eed3si9n/sjson-new-core_2.12@0.8.3?type=jar",
      "group": "com.eed3si9n",
      "name": "sjson-new-core_2.12",
      "version": "0.8.3",
      "description": "",
      "purl": "pkg:maven/com.eed3si9n/sjson-new-core_2.12@0.8.3?type=jar"
    },
    {
      "type": "library",
      "bom-ref": "pkg:maven/jline/jline@2.14.6?type=jar",
      "group": "jline",
      "name": "jline",
      "version": "2.14.6",
      "description": "",
      "purl": "pkg:maven/jline/jline@2.14.6?type=jar"
    },
    {
      "type": "library",
      "bom-ref": "pkg:maven/com.lmax/disruptor@3.4.2?type=jar",
      "group": "com.lmax",
      "name": "disruptor",
      "version": "3.4.2",
      "description": "",
      "purl": "pkg:maven/com.lmax/disruptor@3.4.2?type=jar"
    },
    {
      "type": "library",
      "bom-ref": "pkg:maven/com.eed3si9n/sjson-new-scalajson_2.12@0.8.3?type=jar",
      "group": "com.eed3si9n",
      "name": "sjson-new-scalajson_2.12",
      "version": "0.8.3",
      "description": "",
      "purl": "pkg:maven/com.eed3si9n/sjson-new-scalajson_2.12@0.8.3?type=jar"
    },
    {
      "type": "library",
      "bom-ref": "pkg:maven/com.eed3si9n/shaded-scalajson_2.12@1.0.0-M4?type=jar",
      "group": "com.eed3si9n",
      "name": "shaded-scalajson_2.12",
      "version": "1.0.0-M4",
      "description": "",
      "purl": "pkg:maven/com.eed3si9n/shaded-scalajson_2.12@1.0.0-M4?type=jar"
    },
    {
      "type": "library",
      "bom-ref": "pkg:maven/org.spire-math/jawn-parser_2.12@0.10.4?type=jar",
      "group": "org.spire-math",
      "name": "jawn-parser_2.12",
      "version": "0.10.4",
      "description": "",
      "purl": "pkg:maven/org.spire-math/jawn-parser_2.12@0.10.4?type=jar"
    },
    {
      "type": "library",
      "bom-ref": "pkg:maven/org.scala-lang/scala-reflect@2.12.10?type=jar",
      "group": "org.scala-lang",
      "name": "scala-reflect",
      "version": "2.12.10",
      "description": "",
      "purl": "pkg:maven/org.scala-lang/scala-reflect@2.12.10?type=jar"
    },
    {
      "type": "library",
      "bom-ref": "pkg:maven/org.scala-sbt/zinc-classpath_2.12@1.3.5?type=jar",
      "group": "org.scala-sbt",
      "name": "zinc-classpath_2.12",
      "version": "1.3.5",
      "description": "",
      "purl": "pkg:maven/org.scala-sbt/zinc-classpath_2.12@1.3.5?type=jar"
    },
    {
      "type": "library",
      "bom-ref": "pkg:maven/org.scala-lang/scala-compiler@2.12.10?type=jar",
      "group": "org.scala-lang",
      "name": "scala-compiler",
      "version": "2.12.10",
      "description": "",
      "purl": "pkg:maven/org.scala-lang/scala-compiler@2.12.10?type=jar"
    },
    {
      "type": "library",
      "bom-ref": "pkg:maven/org.scala-lang.modules/scala-xml_2.12@1.0.6?type=jar",
      "group": "org.scala-lang.modules",
      "name": "scala-xml_2.12",
      "version": "1.0.6",
      "description": "",
      "purl": "pkg:maven/org.scala-lang.modules/scala-xml_2.12@1.0.6?type=jar"
    },
    {
      "type": "library",
      "bom-ref": "pkg:maven/org.scala-sbt/launcher-interface@1.0.0?type=jar",
      "group": "org.scala-sbt",
      "name": "launcher-interface",
      "version": "1.0.0",
      "description": "",
      "purl": "pkg:maven/org.scala-sbt/launcher-interface@1.0.0?type=jar"
    },
    {
      "type": "library",
      "bom-ref": "pkg:maven/com.trueaccord.scalapb/scalapb-runtime_2.12@0.6.0?type=jar",
      "group": "com.trueaccord.scalapb",
      "name": "scalapb-runtime_2.12",
      "version": "0.6.0",
      "description": "",
      "purl": "pkg:maven/com.trueaccord.scalapb/scalapb-runtime_2.12@0.6.0?type=jar"
    },
    {
      "type": "library",
      "bom-ref": "pkg:maven/com.trueaccord.lenses/lenses_2.12@0.4.12?type=jar",
      "group": "com.trueaccord.lenses",
      "name": "lenses_2.12",
      "version": "0.4.12",
      "description": "",
      "purl": "pkg:maven/com.trueaccord.lenses/lenses_2.12@0.4.12?type=jar"
    },
    {
      "type": "library",
      "bom-ref": "pkg:maven/com.lihaoyi/fastparse_2.12@0.4.2?type=jar",
      "group": "com.lihaoyi",
      "name": "fastparse_2.12",
      "version": "0.4.2",
      "description": "",
      "purl": "pkg:maven/com.lihaoyi/fastparse_2.12@0.4.2?type=jar"
    },
    {
      "type": "library",
      "bom-ref": "pkg:maven/com.lihaoyi/fastparse-utils_2.12@0.4.2?type=jar",
      "group": "com.lihaoyi",
      "name": "fastparse-utils_2.12",
      "version": "0.4.2",
      "description": "",
      "purl": "pkg:maven/com.lihaoyi/fastparse-utils_2.12@0.4.2?type=jar"
    },
    {
      "type": "library",
      "bom-ref": "pkg:maven/com.lihaoyi/sourcecode_2.12@0.1.3?type=jar",
      "group": "com.lihaoyi",
      "name": "sourcecode_2.12",
      "version": "0.1.3",
      "description": "",
      "purl": "pkg:maven/com.lihaoyi/sourcecode_2.12@0.1.3?type=jar"
    },
    {
      "type": "library",
      "bom-ref": "pkg:maven/org.scala-sbt/util-relation_2.12@1.3.0?type=jar",
      "group": "org.scala-sbt",
      "name": "util-relation_2.12",
      "version": "1.3.0",
      "description": "",
      "purl": "pkg:maven/org.scala-sbt/util-relation_2.12@1.3.0?type=jar"
    },
    {
      "type": "library",
      "bom-ref": "pkg:maven/org.scala-sbt/zinc-persist_2.12@1.3.5?type=jar",
      "group": "org.scala-sbt",
      "name": "zinc-persist_2.12",
      "version": "1.3.5",
      "description": "",
      "purl": "pkg:maven/org.scala-sbt/zinc-persist_2.12@1.3.5?type=jar"
    },
    {
      "type": "library",
      "bom-ref": "pkg:maven/org.scala-sbt/sbinary_2.12@0.5.0?type=jar",
      "group": "org.scala-sbt",
      "name": "sbinary_2.12",
      "version": "0.5.0",
      "description": "",
      "purl": "pkg:maven/org.scala-sbt/sbinary_2.12@0.5.0?type=jar"
    },
    {
      "type": "library",
      "bom-ref": "pkg:maven/org.scala-sbt/zinc-compile-core_2.12@1.3.5?type=jar",
      "group": "org.scala-sbt",
      "name": "zinc-compile-core_2.12",
      "version": "1.3.5",
      "description": "",
      "purl": "pkg:maven/org.scala-sbt/zinc-compile-core_2.12@1.3.5?type=jar"
    },
    {
      "type": "library",
      "bom-ref": "pkg:maven/org.scala-lang.modules/scala-parser-combinators_2.12@1.1.2?type=jar",
      "group": "org.scala-lang.modules",
      "name": "scala-parser-combinators_2.12",
      "version": "1.1.2",
      "description": "",
      "purl": "pkg:maven/org.scala-lang.modules/scala-parser-combinators_2.12@1.1.2?type=jar"
    },
    {
      "type": "library",
      "bom-ref": "pkg:maven/org.scala-sbt/util-control_2.12@1.3.0?type=jar",
      "group": "org.scala-sbt",
      "name": "util-control_2.12",
      "version": "1.3.0",
      "description": "",
      "purl": "pkg:maven/org.scala-sbt/util-control_2.12@1.3.0?type=jar"
    }
  ]
}
