{
  "bomFormat": "CycloneDX",
  "specVersion": "1.3",
  "version": 1,
  "metadata": {
    "tools": [
      {
        "vendor": "CycloneDX",
        "name": "cyclonedx-gomod",
        "version": "v0.0.0-unset",
        "hashes": [
          {
            "alg": "MD5",
            "content": "a35776fc9417e8071d3f1dcfa2f1dd19"
          },
          {
            "alg": "SHA-1",
            "content": "a19a8eed713eff5a2092e5283c201a146f19421d"
          },
          {
            "alg": "SHA-256",
            "content": "17b3b980b9a5d0f48ad52043dee5b31aff3ae6599a36bc94224dc7b6a46759ef"
          },
          {
            "alg": "SHA-512",
            "content": "9d4f06aab20cede94a1aedf11a300ae9de98871235c68c72e421cd6d45495910861b39e743ee0eceb11bbdcd2c9acc3312c19064cfe90177243fb43127fcfa46"
          }
        ]
      },
      {
        "vendor": "AppThreat",
        "name": "cdxgen",
        "version": "3.0.10"
      },
      {
        "vendor": "Fortress Information Security",
        "name": "Github Extractor",
        "version": "1.15.1"
      }
    ],
    "authors": [
      {
        "name": "Fortress Information Security",
        "email": "sales@fortressinfosec.com",
        "phone": "1-407-573-6800"
      }
    ],
    "timestamp": "2022-06-01T21:00:00Z",
    "component": {
      "type": "application",
      "name": "beehive",
      "version": "v0.4.0",
      "group": "muesli",
      "externalReferences": [
        {
          "url": "https://github.com/muesli/beehive.git",
          "type": "distribution"
        },
        {
          "type": "website",
          "url": "null",
          "comment": "As set via `homepage` in Github API"
        }
      ]
    }
  },
  "components": [
    {
      "type": "library",
      "bom-ref": "pkg:golang/github.com/ChimeraCoder/anaconda@v2.0.0",
      "name": "github.com/ChimeraCoder/anaconda",
      "version": "v2.0.0",
      "scope": "required",
      "hashes": [
        {
          "alg": "SHA-256",
          "content": "b7fb79a5a165d7782b9e5f73a17d1f10328e882b5a7de75a3f31d45a7d3bde22"
        }
      ],
      "purl": "pkg:golang/github.com/ChimeraCoder/anaconda@v2.0.0",
      "externalReferences": [
        {
          "url": "https://github.com/ChimeraCoder/anaconda",
          "type": "vcs"
        }
      ]
    },
    {
      "type": "library",
      "bom-ref": "pkg:golang/github.com/ChimeraCoder/tokenbucket@v0.0.0-20131201223612-c5a927568de7",
      "name": "github.com/ChimeraCoder/tokenbucket",
      "version": "v0.0.0-20131201223612-c5a927568de7",
      "scope": "required",
      "hashes": [
        {
          "alg": "SHA-256",
          "content": "afe1265e37cfa2c28ee307e230b7b55d089cb6c225844ad3b9f6d652c8ce4d9b"
        }
      ],
      "purl": "pkg:golang/github.com/ChimeraCoder/tokenbucket@v0.0.0-20131201223612-c5a927568de7",
      "externalReferences": [
        {
          "url": "https://github.com/ChimeraCoder/tokenbucket",
          "type": "vcs"
        }
      ]
    },
    {
      "type": "library",
      "bom-ref": "pkg:golang/github.com/CleverbotIO/go-cleverbot.io@v0.0.0-20170417080108-d24926702e8d",
      "name": "github.com/CleverbotIO/go-cleverbot.io",
      "version": "v0.0.0-20170417080108-d24926702e8d",
      "scope": "required",
      "hashes": [
        {
          "alg": "SHA-256",
          "content": "6ad695e403b670f76e55cfe0c78f29678971a73c59afb58716e8bc93f9ba6369"
        }
      ],
      "purl": "pkg:golang/github.com/CleverbotIO/go-cleverbot.io@v0.0.0-20170417080108-d24926702e8d",
      "externalReferences": [
        {
          "url": "https://github.com/CleverbotIO/go-cleverbot.io",
          "type": "vcs"
        }
      ]
    },
    {
      "type": "library",
      "bom-ref": "pkg:golang/github.com/MariaTerzieva/gotumblr@v0.0.0-20170505145609-93ca5e50a3fd",
      "name": "github.com/MariaTerzieva/gotumblr",
      "version": "v0.0.0-20170505145609-93ca5e50a3fd",
      "scope": "required",
      "hashes": [
        {
          "alg": "SHA-256",
          "content": "29d7512e0f739262f9d964ef96f456258711dba85f2842a79332c4f0890a6736"
        }
      ],
      "purl": "pkg:golang/github.com/MariaTerzieva/gotumblr@v0.0.0-20170505145609-93ca5e50a3fd",
      "externalReferences": [
        {
          "url": "https://github.com/MariaTerzieva/gotumblr",
          "type": "vcs"
        }
      ]
    },
    {
      "type": "library",
      "bom-ref": "pkg:golang/github.com/Profpatsch/GoOse@v0.0.0-20181012194242-da5de31b9bd2",
      "name": "github.com/Profpatsch/GoOse",
      "version": "v0.0.0-20181012194242-da5de31b9bd2",
      "scope": "required",
      "hashes": [
        {
          "alg": "SHA-256",
          "content": "6ee97fdaaf85f9ef1b66a80d9a1feb412c592bc1785d7c36e120a2d46509da2e"
        }
      ],
      "purl": "pkg:golang/github.com/Profpatsch/GoOse@v0.0.0-20181012194242-da5de31b9bd2",
      "externalReferences": [
        {
          "url": "https://github.com/Profpatsch/GoOse",
          "type": "vcs"
        }
      ]
    },
    {
      "type": "library",
      "bom-ref": "pkg:golang/github.com/PuerkitoBio/goquery@v1.5.0",
      "name": "github.com/PuerkitoBio/goquery",
      "version": "v1.5.0",
      "scope": "required",
      "hashes": [
        {
          "alg": "SHA-256",
          "content": "b86be6157380ef720a96ebbf17ce17775b6dff3d3b1989bc5f8f572873fb1099"
        }
      ],
      "purl": "pkg:golang/github.com/PuerkitoBio/goquery@v1.5.0",
      "externalReferences": [
        {
          "url": "https://github.com/PuerkitoBio/goquery",
          "type": "vcs"
        }
      ]
    },
    {
      "type": "library",
      "bom-ref": "pkg:golang/github.com/akashshinde/go_cricket@v0.0.0-20170322162016-01a06b2c3f22",
      "name": "github.com/akashshinde/go_cricket",
      "version": "v0.0.0-20170322162016-01a06b2c3f22",
      "scope": "required",
      "hashes": [
        {
          "alg": "SHA-256",
          "content": "da3cd9c0194474651fdf8fffdf533b9be27593c2259fcc8d7952b41699d95ce6"
        }
      ],
      "purl": "pkg:golang/github.com/akashshinde/go_cricket@v0.0.0-20170322162016-01a06b2c3f22",
      "externalReferences": [
        {
          "url": "https://github.com/akashshinde/go_cricket",
          "type": "vcs"
        }
      ]
    },
    {
      "type": "library",
      "bom-ref": "pkg:golang/github.com/andybalholm/cascadia@v1.0.0",
      "name": "github.com/andybalholm/cascadia",
      "version": "v1.0.0",
      "scope": "required",
      "hashes": [
        {
          "alg": "SHA-256",
          "content": "84e0979e767903edde5435fca6f825e24a1f5efd842ecb346ca72a47249ce39a"
        }
      ],
      "purl": "pkg:golang/github.com/andybalholm/cascadia@v1.0.0",
      "externalReferences": [
        {
          "url": "https://github.com/andybalholm/cascadia",
          "type": "vcs"
        }
      ]
    },
    {
      "type": "library",
      "bom-ref": "pkg:golang/github.com/andygrunwald/go-jira@v1.13.0",
      "name": "github.com/andygrunwald/go-jira",
      "version": "v1.13.0",
      "scope": "required",
      "hashes": [
        {
          "alg": "SHA-256",
          "content": "bef208986817df66c77e88b253090da3efd8acf9d173335aaef84b3a770fe9d1"
        }
      ],
      "purl": "pkg:golang/github.com/andygrunwald/go-jira@v1.13.0",
      "externalReferences": [
        {
          "url": "https://github.com/andygrunwald/go-jira",
          "type": "vcs"
        }
      ]
    },
    {
      "type": "library",
      "bom-ref": "pkg:golang/github.com/araddon/dateparse@v0.0.0-20190426192744-0d74ffceef83",
      "name": "github.com/araddon/dateparse",
      "version": "v0.0.0-20190426192744-0d74ffceef83",
      "scope": "required",
      "hashes": [
        {
          "alg": "SHA-256",
          "content": "ba44cb39e302d1a5716c959583a84eb1527454f228f30fbe3db36ccdefe9a85f"
        }
      ],
      "purl": "pkg:golang/github.com/araddon/dateparse@v0.0.0-20190426192744-0d74ffceef83",
      "externalReferences": [
        {
          "url": "https://github.com/araddon/dateparse",
          "type": "vcs"
        }
      ]
    },
    {
      "type": "library",
      "bom-ref": "pkg:golang/github.com/asaskevich/EventBus@v0.0.0-20180315140547-d46933a94f05",
      "name": "github.com/asaskevich/EventBus",
      "version": "v0.0.0-20180315140547-d46933a94f05",
      "scope": "required",
      "hashes": [
        {
          "alg": "SHA-256",
          "content": "4a17a6e65446e20272aeb83d60c225edd3906b3c960aad036b3e0b8e89a9676f"
        }
      ],
      "purl": "pkg:golang/github.com/asaskevich/EventBus@v0.0.0-20180315140547-d46933a94f05",
      "externalReferences": [
        {
          "url": "https://github.com/asaskevich/EventBus",
          "type": "vcs"
        }
      ]
    },
    {
      "type": "library",
      "bom-ref": "pkg:golang/github.com/azr/backoff@v0.0.0-20160115115103-53511d3c7330",
      "name": "github.com/azr/backoff",
      "version": "v0.0.0-20160115115103-53511d3c7330",
      "scope": "required",
      "hashes": [
        {
          "alg": "SHA-256",
          "content": "7a40c02d7015bd8fd46f552d36d6b78a7290c19fe3301ff3a4eb43f2b01887bf"
        }
      ],
      "purl": "pkg:golang/github.com/azr/backoff@v0.0.0-20160115115103-53511d3c7330",
      "externalReferences": [
        {
          "url": "https://github.com/azr/backoff",
          "type": "vcs"
        }
      ]
    },
    {
      "type": "library",
      "bom-ref": "pkg:golang/github.com/beorn7/perks@v0.0.0-20180321164747-3a771d992973",
      "name": "github.com/beorn7/perks",
      "version": "v0.0.0-20180321164747-3a771d992973",
      "scope": "required",
      "hashes": [
        {
          "alg": "SHA-256",
          "content": "c49e1adef08568617f8eabf32cc62853c3f7d7b1f9390f9589ae119ae3f0092d"
        }
      ],
      "purl": "pkg:golang/github.com/beorn7/perks@v0.0.0-20180321164747-3a771d992973",
      "externalReferences": [
        {
          "url": "https://github.com/beorn7/perks",
          "type": "vcs"
        }
      ]
    },
    {
      "type": "library",
      "bom-ref": "pkg:golang/github.com/briandowns/openweathermap@v0.0.0-20180804155945-5f41b7c9d92d",
      "name": "github.com/briandowns/openweathermap",
      "version": "v0.0.0-20180804155945-5f41b7c9d92d",
      "scope": "required",
      "hashes": [
        {
          "alg": "SHA-256",
          "content": "dbcc56ccf43d6dd1b1280030429662a5967d5f3f2441c80c3c5f5c667bcc7ae2"
        }
      ],
      "purl": "pkg:golang/github.com/briandowns/openweathermap@v0.0.0-20180804155945-5f41b7c9d92d",
      "externalReferences": [
        {
          "url": "https://github.com/briandowns/openweathermap",
          "type": "vcs"
        }
      ]
    },
    {
      "type": "library",
      "bom-ref": "pkg:golang/github.com/bwmarrin/discordgo@v0.23.1",
      "name": "github.com/bwmarrin/discordgo",
      "version": "v0.23.1",
      "scope": "required",
      "hashes": [
        {
          "alg": "SHA-256",
          "content": "c652b8ffaf5ba65fd54a809868a7b704e73d8f51e4368a6845d0a9a5162ef1d9"
        }
      ],
      "purl": "pkg:golang/github.com/bwmarrin/discordgo@v0.23.1",
      "externalReferences": [
        {
          "url": "https://github.com/bwmarrin/discordgo",
          "type": "vcs"
        }
      ]
    },
    {
      "type": "library",
      "bom-ref": "pkg:golang/github.com/carlosdp/twiliogo@v0.0.0-20161027183705-b26045ebb9d1",
      "name": "github.com/carlosdp/twiliogo",
      "version": "v0.0.0-20161027183705-b26045ebb9d1",
      "scope": "required",
      "hashes": [
        {
          "alg": "SHA-256",
          "content": "8576a4850b4f9d71fcdfdab5a4197f1aa7d349c86a13e47916a9fdf08bbb5103"
        }
      ],
      "purl": "pkg:golang/github.com/carlosdp/twiliogo@v0.0.0-20161027183705-b26045ebb9d1",
      "externalReferences": [
        {
          "url": "https://github.com/carlosdp/twiliogo",
          "type": "vcs"
        }
      ]
    },
    {
      "type": "library",
      "bom-ref": "pkg:golang/github.com/cloudflare/cloudflare-go@v0.10.6",
      "name": "github.com/cloudflare/cloudflare-go",
      "version": "v0.10.6",
      "scope": "required",
      "hashes": [
        {
          "alg": "SHA-256",
          "content": "99bbf422b72bacb94f2f103309d5ba690fc23e5aa1c97ad74e3be25344dbfb7e"
        }
      ],
      "purl": "pkg:golang/github.com/cloudflare/cloudflare-go@v0.10.6",
      "externalReferences": [
        {
          "url": "https://github.com/cloudflare/cloudflare-go",
          "type": "vcs"
        }
      ]
    },
    {
      "type": "library",
      "bom-ref": "pkg:golang/github.com/coreos/go-systemd@v0.0.0-20190719114852-fd7a80b32e1f",
      "name": "github.com/coreos/go-systemd",
      "version": "v0.0.0-20190719114852-fd7a80b32e1f",
      "scope": "required",
      "hashes": [
        {
          "alg": "SHA-256",
          "content": "24eaedc36c452b3960f9c6c7a72ae92c39a73751ea8417e75fb583896ede1b67"
        }
      ],
      "purl": "pkg:golang/github.com/coreos/go-systemd@v0.0.0-20190719114852-fd7a80b32e1f",
      "externalReferences": [
        {
          "url": "https://github.com/coreos/go-systemd",
          "type": "vcs"
        }
      ]
    },
    {
      "type": "library",
      "bom-ref": "pkg:golang/github.com/davecgh/go-spew@v1.1.1",
      "name": "github.com/davecgh/go-spew",
      "version": "v1.1.1",
      "scope": "required",
      "hashes": [
        {
          "alg": "SHA-256",
          "content": "be3f63feed5baa7bc211f24ec1486d94e011aacdfeae41d8635de36164d4f7b7"
        }
      ],
      "purl": "pkg:golang/github.com/davecgh/go-spew@v1.1.1",
      "externalReferences": [
        {
          "url": "https://github.com/davecgh/go-spew",
          "type": "vcs"
        }
      ]
    },
    {
      "type": "library",
      "bom-ref": "pkg:golang/github.com/deckarep/gosx-notifier@v0.0.0-20180201035817-e127226297fb",
      "name": "github.com/deckarep/gosx-notifier",
      "version": "v0.0.0-20180201035817-e127226297fb",
      "scope": "required",
      "hashes": [
        {
          "alg": "SHA-256",
          "content": "e92f9328e6f3ebe228d9cf083a471b2b84b3ee78fa46911553b4e4be6b1965cc"
        }
      ],
      "purl": "pkg:golang/github.com/deckarep/gosx-notifier@v0.0.0-20180201035817-e127226297fb",
      "externalReferences": [
        {
          "url": "https://github.com/deckarep/gosx-notifier",
          "type": "vcs"
        }
      ]
    },
    {
      "type": "library",
      "bom-ref": "pkg:golang/github.com/dgrijalva/jwt-go@v3.2.0",
      "name": "github.com/dgrijalva/jwt-go",
      "version": "v3.2.0",
      "scope": "required",
      "hashes": [
        {
          "alg": "SHA-256",
          "content": "d2b9d7df363078b7430fbcdb250dd4d9ee4e0d47558a64736ba797e38e8829dc"
        }
      ],
      "purl": "pkg:golang/github.com/dgrijalva/jwt-go@v3.2.0",
      "externalReferences": [
        {
          "url": "https://github.com/dgrijalva/jwt-go",
          "type": "vcs"
        }
      ]
    },
    {
      "type": "library",
      "bom-ref": "pkg:golang/github.com/dustin/go-jsonpointer@v0.0.0-20160814072949-ba0abeacc3dc",
      "name": "github.com/dustin/go-jsonpointer",
      "version": "v0.0.0-20160814072949-ba0abeacc3dc",
      "scope": "required",
      "hashes": [
        {
          "alg": "SHA-256",
          "content": "b4feed914faf22c10e2a22be97f3522cde2e52d932bb173a86062941e09601e2"
        }
      ],
      "purl": "pkg:golang/github.com/dustin/go-jsonpointer@v0.0.0-20160814072949-ba0abeacc3dc",
      "externalReferences": [
        {
          "url": "https://github.com/dustin/go-jsonpointer",
          "type": "vcs"
        }
      ]
    },
    {
      "type": "library",
      "bom-ref": "pkg:golang/github.com/dustin/gojson@v0.0.0-20160307161227-2e71ec9dd5ad",
      "name": "github.com/dustin/gojson",
      "version": "v0.0.0-20160307161227-2e71ec9dd5ad",
      "scope": "required",
      "hashes": [
        {
          "alg": "SHA-256",
          "content": "424efa0ce59d3a9f869720ca0401b72a5afd727ecdf8b71873cd806764bbf9c0"
        }
      ],
      "purl": "pkg:golang/github.com/dustin/gojson@v0.0.0-20160307161227-2e71ec9dd5ad",
      "externalReferences": [
        {
          "url": "https://github.com/dustin/gojson",
          "type": "vcs"
        }
      ]
    },
    {
      "type": "library",
      "bom-ref": "pkg:golang/github.com/emicklei/go-restful@v2.9.3",
      "name": "github.com/emicklei/go-restful",
      "version": "v2.9.3",
      "scope": "required",
      "hashes": [
        {
          "alg": "SHA-256",
          "content": "cb4e0830307e1694b400af27a341e67f171b39f920fb9922af6d484bae2de58f"
        }
      ],
      "purl": "pkg:golang/github.com/emicklei/go-restful@v2.9.3",
      "externalReferences": [
        {
          "url": "https://github.com/emicklei/go-restful",
          "type": "vcs"
        }
      ]
    },
    {
      "type": "library",
      "bom-ref": "pkg:golang/github.com/fatih/set@v0.2.1",
      "name": "github.com/fatih/set",
      "version": "v0.2.1",
      "scope": "required",
      "hashes": [
        {
          "alg": "SHA-256",
          "content": "9e7d82689ca49d613feadc725031b0cacaf71b9402eb1581fcfb558cf05b79a0"
        }
      ],
      "purl": "pkg:golang/github.com/fatih/set@v0.2.1",
      "externalReferences": [
        {
          "url": "https://github.com/fatih/set",
          "type": "vcs"
        }
      ]
    },
    {
      "type": "library",
      "bom-ref": "pkg:golang/github.com/fatih/structs@v1.0.0",
      "name": "github.com/fatih/structs",
      "version": "v1.0.0",
      "scope": "required",
      "hashes": [
        {
          "alg": "SHA-256",
          "content": "06b5fdeb846fe6e437c304be291500242041c393d09a025f27abf8ca5cb94305"
        }
      ],
      "purl": "pkg:golang/github.com/fatih/structs@v1.0.0",
      "externalReferences": [
        {
          "url": "https://github.com/fatih/structs",
          "type": "vcs"
        }
      ]
    },
    {
      "type": "library",
      "bom-ref": "pkg:golang/github.com/flashmob/go-guerrilla@v1.6.1",
      "name": "github.com/flashmob/go-guerrilla",
      "version": "v1.6.1",
      "scope": "required",
      "hashes": [
        {
          "alg": "SHA-256",
          "content": "30b92acd115426f795016b90decd8c34f4c059bbd72edf0416c068ada4baa870"
        }
      ],
      "purl": "pkg:golang/github.com/flashmob/go-guerrilla@v1.6.1",
      "externalReferences": [
        {
          "url": "https://github.com/flashmob/go-guerrilla",
          "type": "vcs"
        }
      ]
    },
    {
      "type": "library",
      "bom-ref": "pkg:golang/github.com/fluffle/goirc@v1.0.1",
      "name": "github.com/fluffle/goirc",
      "version": "v1.0.1",
      "scope": "required",
      "hashes": [
        {
          "alg": "SHA-256",
          "content": "60705f5885d2160001cfc75b8a3bce20ab9c15e8e76c7764efcfabdb3ffa07f4"
        }
      ],
      "purl": "pkg:golang/github.com/fluffle/goirc@v1.0.1",
      "externalReferences": [
        {
          "url": "https://github.com/fluffle/goirc",
          "type": "vcs"
        }
      ]
    },
    {
      "type": "library",
      "bom-ref": "pkg:golang/github.com/fsnotify/fsnotify@v1.4.7",
      "name": "github.com/fsnotify/fsnotify",
      "version": "v1.4.7",
      "scope": "required",
      "hashes": [
        {
          "alg": "SHA-256",
          "content": "217b3e40b9a75d6d82717b98fbc333bff7d612c3c65b1a9e7cfb423f90a757d2"
        }
      ],
      "purl": "pkg:golang/github.com/fsnotify/fsnotify@v1.4.7",
      "externalReferences": [
        {
          "url": "https://github.com/fsnotify/fsnotify",
          "type": "vcs"
        }
      ]
    },
    {
      "type": "library",
      "bom-ref": "pkg:golang/github.com/garyburd/go-oauth@v0.0.0-20180319155456-bca2e7f09a17",
      "name": "github.com/garyburd/go-oauth",
      "version": "v0.0.0-20180319155456-bca2e7f09a17",
      "scope": "required",
      "hashes": [
        {
          "alg": "SHA-256",
          "content": "18e7cccfa71181327d8d6574a807b3bfae363a13e72841bb82d523252752b471"
        }
      ],
      "purl": "pkg:golang/github.com/garyburd/go-oauth@v0.0.0-20180319155456-bca2e7f09a17",
      "externalReferences": [
        {
          "url": "https://github.com/garyburd/go-oauth",
          "type": "vcs"
        }
      ]
    },
    {
      "type": "library",
      "bom-ref": "pkg:golang/github.com/gempir/go-twitch-irc/v2@v2.2.2",
      "name": "github.com/gempir/go-twitch-irc/v2",
      "version": "v2.2.2",
      "scope": "required",
      "hashes": [
        {
          "alg": "SHA-256",
          "content": "bb38a77a5daa0295cbd5455faf741c677749b1ff9853e3da529d2a264d37a8da"
        }
      ],
      "purl": "pkg:golang/github.com/gempir/go-twitch-irc/v2@v2.2.2",
      "externalReferences": [
        {
          "url": "https://github.com/gempir/go-twitch-irc",
          "type": "vcs"
        }
      ]
    },
    {
      "type": "library",
      "bom-ref": "pkg:golang/github.com/gigawattio/window@v0.0.0-20180317192513-0f5467e35573",
      "name": "github.com/gigawattio/window",
      "version": "v0.0.0-20180317192513-0f5467e35573",
      "scope": "required",
      "hashes": [
        {
          "alg": "SHA-256",
          "content": "bbc010f5b3daf680bef3f03f8e55a8b9a92122f9057eec602084638b2f1abfb2"
        }
      ],
      "purl": "pkg:golang/github.com/gigawattio/window@v0.0.0-20180317192513-0f5467e35573",
      "externalReferences": [
        {
          "url": "https://github.com/gigawattio/window",
          "type": "vcs"
        }
      ]
    },
    {
      "type": "library",
      "bom-ref": "pkg:golang/github.com/glaxx/go_pastebin@v0.0.0-20170619211819-7e72d56770d0",
      "name": "github.com/glaxx/go_pastebin",
      "version": "v0.0.0-20170619211819-7e72d56770d0",
      "scope": "required",
      "hashes": [
        {
          "alg": "SHA-256",
          "content": "11db33369c058918e638c05cf155b2a1ac9d40b08cbd70933b524684e3cdf09d"
        }
      ],
      "purl": "pkg:golang/github.com/glaxx/go_pastebin@v0.0.0-20170619211819-7e72d56770d0",
      "externalReferences": [
        {
          "url": "https://github.com/glaxx/go_pastebin",
          "type": "vcs"
        }
      ]
    },
    {
      "type": "library",
      "bom-ref": "pkg:golang/github.com/go-ini/ini@v1.42.0",
      "name": "github.com/go-ini/ini",
      "version": "v1.42.0",
      "scope": "required",
      "hashes": [
        {
          "alg": "SHA-256",
          "content": "4d6af5c068f7e7e52258794103c7abf3db1e157c73c059f5d6ca6296bae3fb7f"
        }
      ],
      "purl": "pkg:golang/github.com/go-ini/ini@v1.42.0",
      "externalReferences": [
        {
          "url": "https://github.com/go-ini/ini",
          "type": "vcs"
        }
      ]
    },
    {
      "type": "library",
      "bom-ref": "pkg:golang/github.com/go-mail/mail@v2.3.1",
      "name": "github.com/go-mail/mail",
      "version": "v2.3.1",
      "scope": "required",
      "hashes": [
        {
          "alg": "SHA-256",
          "content": "3f94a78f33d5454aa1f9cce9c4f425a2d78b654a6b3602058190d3280823c9a9"
        }
      ],
      "purl": "pkg:golang/github.com/go-mail/mail@v2.3.1",
      "externalReferences": [
        {
          "url": "https://github.com/go-mail/mail",
          "type": "vcs"
        }
      ]
    },
    {
      "type": "library",
      "bom-ref": "pkg:golang/github.com/go-redis/redis@v6.15.6",
      "name": "github.com/go-redis/redis",
      "version": "v6.15.6",
      "scope": "required",
      "hashes": [
        {
          "alg": "SHA-256",
          "content": "6d180e9d8238a23a687a59f0864ba2c2d41583ce7ccacac8c61ada55d0429a48"
        }
      ],
      "purl": "pkg:golang/github.com/go-redis/redis@v6.15.6",
      "externalReferences": [
        {
          "url": "https://github.com/go-redis/redis",
          "type": "vcs"
        }
      ]
    },
    {
      "type": "library",
      "bom-ref": "pkg:golang/github.com/go-telegram-bot-api/telegram-bot-api@v1.0.1-0.20200319042609-5e339ed016b0",
      "name": "github.com/go-telegram-bot-api/telegram-bot-api",
      "version": "v1.0.1-0.20200319042609-5e339ed016b0",
      "scope": "required",
      "hashes": [
        {
          "alg": "SHA-256",
          "content": "30cb9f8dc87cc96291a3aee673e1dd32c79a525175500c27825741441fe5800b"
        }
      ],
      "purl": "pkg:golang/github.com/go-telegram-bot-api/telegram-bot-api@v1.0.1-0.20200319042609-5e339ed016b0",
      "externalReferences": [
        {
          "url": "https://github.com/go-telegram-bot-api/telegram-bot-api",
          "type": "vcs"
        }
      ]
    },
    {
      "type": "library",
      "bom-ref": "pkg:golang/github.com/golang/freetype@v0.0.0-20170609003504-e2365dfdc4a0",
      "name": "github.com/golang/freetype",
      "version": "v0.0.0-20170609003504-e2365dfdc4a0",
      "scope": "required",
      "hashes": [
        {
          "alg": "SHA-256",
          "content": "0c00896afbc01e169bac5d3cbd7d0239f70e04946167c9546d1f99588b346398"
        }
      ],
      "purl": "pkg:golang/github.com/golang/freetype@v0.0.0-20170609003504-e2365dfdc4a0",
      "externalReferences": [
        {
          "url": "https://github.com/golang/freetype",
          "type": "vcs"
        }
      ]
    },
    {
      "type": "library",
      "bom-ref": "pkg:golang/github.com/golang/mock@v1.2.0",
      "name": "github.com/golang/mock",
      "version": "v1.2.0",
      "scope": "required",
      "hashes": [
        {
          "alg": "SHA-256",
          "content": "dbca39b01a8f901b0c1a70ba6f832f1364f34abe7f013e1cff57cba95188c259"
        }
      ],
      "purl": "pkg:golang/github.com/golang/mock@v1.2.0",
      "externalReferences": [
        {
          "url": "https://github.com/golang/mock",
          "type": "vcs"
        }
      ]
    },
    {
      "type": "library",
      "bom-ref": "pkg:golang/github.com/golang/protobuf@v1.3.1",
      "name": "github.com/golang/protobuf",
      "version": "v1.3.1",
      "scope": "required",
      "hashes": [
        {
          "alg": "SHA-256",
          "content": "605f3e7e50574b978ef36e93e27cea3ebc5f8504e18579746337ee50fbb84818"
        }
      ],
      "purl": "pkg:golang/github.com/golang/protobuf@v1.3.1",
      "externalReferences": [
        {
          "url": "https://github.com/golang/protobuf",
          "type": "vcs"
        }
      ]
    },
    {
      "type": "library",
      "bom-ref": "pkg:golang/github.com/google/go-github@v17.0.0",
      "name": "github.com/google/go-github",
      "version": "v17.0.0",
      "scope": "required",
      "hashes": [
        {
          "alg": "SHA-256",
          "content": "9d5bf02289bd2a8b783954016e7e375fc58cd2a61866eefb29c9bbe9a3d8ebd5"
        }
      ],
      "purl": "pkg:golang/github.com/google/go-github@v17.0.0",
      "externalReferences": [
        {
          "url": "https://github.com/google/go-github",
          "type": "vcs"
        }
      ]
    },
    {
      "type": "library",
      "bom-ref": "pkg:golang/github.com/google/go-querystring@v1.0.0",
      "name": "github.com/google/go-querystring",
      "version": "v1.0.0",
      "scope": "required",
      "hashes": [
        {
          "alg": "SHA-256",
          "content": "5e4c22fdad6b72f360d4f3d87b9bc8f066de058fe3ad5b835f9012b803564eb9"
        }
      ],
      "purl": "pkg:golang/github.com/google/go-querystring@v1.0.0",
      "externalReferences": [
        {
          "url": "https://github.com/google/go-querystring",
          "type": "vcs"
        }
      ]
    },
    {
      "type": "library",
      "bom-ref": "pkg:golang/github.com/gorilla/websocket@v1.4.0",
      "name": "github.com/gorilla/websocket",
      "version": "v1.4.0",
      "scope": "required",
      "hashes": [
        {
          "alg": "SHA-256",
          "content": "583163c7f4cccd5832f5574c3108b62b6126b708b641c510b33b59ff32da1ff4"
        }
      ],
      "purl": "pkg:golang/github.com/gorilla/websocket@v1.4.0",
      "externalReferences": [
        {
          "url": "https://github.com/gorilla/websocket",
          "type": "vcs"
        }
      ]
    },
    {
      "type": "library",
      "bom-ref": "pkg:golang/github.com/guelfey/go.dbus@v0.0.0-20131113121618-f6a3a2366cc3",
      "name": "github.com/guelfey/go.dbus",
      "version": "v0.0.0-20131113121618-f6a3a2366cc3",
      "scope": "required",
      "hashes": [
        {
          "alg": "SHA-256",
          "content": "7e7802c4a6ef65d72d22c5a3da16228e102de222b425749203bf01dfac4fd322"
        }
      ],
      "purl": "pkg:golang/github.com/guelfey/go.dbus@v0.0.0-20131113121618-f6a3a2366cc3",
      "externalReferences": [
        {
          "url": "https://github.com/guelfey/go.dbus",
          "type": "vcs"
        }
      ]
    },
    {
      "type": "library",
      "bom-ref": "pkg:golang/github.com/horrendus/go-mixcloud@v0.0.0-20190427074402-c2164c9e194c",
      "name": "github.com/horrendus/go-mixcloud",
      "version": "v0.0.0-20190427074402-c2164c9e194c",
      "scope": "required",
      "hashes": [
        {
          "alg": "SHA-256",
          "content": "9e76f875263b01c3de0e4f75150b7ec29046576336bd8773ff7b23376d5bfe95"
        }
      ],
      "purl": "pkg:golang/github.com/horrendus/go-mixcloud@v0.0.0-20190427074402-c2164c9e194c",
      "externalReferences": [
        {
          "url": "https://github.com/horrendus/go-mixcloud",
          "type": "vcs"
        }
      ]
    },
    {
      "type": "library",
      "bom-ref": "pkg:golang/github.com/huandu/facebook@v2.3.1",
      "name": "github.com/huandu/facebook",
      "version": "v2.3.1",
      "scope": "required",
      "hashes": [
        {
          "alg": "SHA-256",
          "content": "09b07b26c556e5c8d49bf4a5b335389a73c1f2000dae456ceeb91dc7eb7ccbfc"
        }
      ],
      "purl": "pkg:golang/github.com/huandu/facebook@v2.3.1",
      "externalReferences": [
        {
          "url": "https://github.com/huandu/facebook",
          "type": "vcs"
        }
      ]
    },
    {
      "type": "library",
      "bom-ref": "pkg:golang/github.com/jacobsa/go-serial@v0.0.0-20180131005756-15cf729a72d4",
      "name": "github.com/jacobsa/go-serial",
      "version": "v0.0.0-20180131005756-15cf729a72d4",
      "scope": "required",
      "hashes": [
        {
          "alg": "SHA-256",
          "content": "1b6ced0b05e8bfc991bcfd197e313a9c095a097d976f291a78775b4fa2b00f3d"
        }
      ],
      "purl": "pkg:golang/github.com/jacobsa/go-serial@v0.0.0-20180131005756-15cf729a72d4",
      "externalReferences": [
        {
          "url": "https://github.com/jacobsa/go-serial",
          "type": "vcs"
        }
      ]
    },
    {
      "type": "library",
      "bom-ref": "pkg:golang/github.com/jayeshsolanki93/devgorant@v0.0.0-20160810172004-69fb03e5c3b1",
      "name": "github.com/jayeshsolanki93/devgorant",
      "version": "v0.0.0-20160810172004-69fb03e5c3b1",
      "scope": "required",
      "hashes": [
        {
          "alg": "SHA-256",
          "content": "fab3d419c32d2b26f1724f4829c971a1d7deb42a020f6792044ccf31981cd990"
        }
      ],
      "purl": "pkg:golang/github.com/jayeshsolanki93/devgorant@v0.0.0-20160810172004-69fb03e5c3b1",
      "externalReferences": [
        {
          "url": "https://github.com/jayeshsolanki93/devgorant",
          "type": "vcs"
        }
      ]
    },
    {
      "type": "library",
      "bom-ref": "pkg:golang/github.com/jaytaylor/html2text@v0.0.0-20190408195923-01ec452cbe43",
      "name": "github.com/jaytaylor/html2text",
      "version": "v0.0.0-20190408195923-01ec452cbe43",
      "scope": "required",
      "hashes": [
        {
          "alg": "SHA-256",
          "content": "8d3932785ecd679a08af411299cae98838007e889d081178179909863b5a4701"
        }
      ],
      "purl": "pkg:golang/github.com/jaytaylor/html2text@v0.0.0-20190408195923-01ec452cbe43",
      "externalReferences": [
        {
          "url": "https://github.com/jaytaylor/html2text",
          "type": "vcs"
        }
      ]
    },
    {
      "type": "library",
      "bom-ref": "pkg:golang/github.com/jpillora/backoff@v1.0.0",
      "name": "github.com/jpillora/backoff",
      "version": "v1.0.0",
      "scope": "required",
      "hashes": [
        {
          "alg": "SHA-256",
          "content": "baf160e35d899a61c11f0ee2c29ac8c643cc23eb06438933396b0c7879e6d840"
        }
      ],
      "purl": "pkg:golang/github.com/jpillora/backoff@v1.0.0",
      "externalReferences": [
        {
          "url": "https://github.com/jpillora/backoff",
          "type": "vcs"
        }
      ]
    },
    {
      "type": "library",
      "bom-ref": "pkg:golang/github.com/json-iterator/go@v1.1.6",
      "name": "github.com/json-iterator/go",
      "version": "v1.1.6",
      "scope": "required",
      "hashes": [
        {
          "alg": "SHA-256",
          "content": "32b52f2cc2d33316ea149f64ce5bdab7fad866a6675b7bb8c242f3593685c0ab"
        }
      ],
      "purl": "pkg:golang/github.com/json-iterator/go@v1.1.6",
      "externalReferences": [
        {
          "url": "https://github.com/json-iterator/go",
          "type": "vcs"
        }
      ]
    },
    {
      "type": "library",
      "bom-ref": "pkg:golang/github.com/kelvins/sunrisesunset@v0.0.0-20170601204625-14f1915ad4b4",
      "name": "github.com/kelvins/sunrisesunset",
      "version": "v0.0.0-20170601204625-14f1915ad4b4",
      "scope": "required",
      "hashes": [
        {
          "alg": "SHA-256",
          "content": "f061331988ea5dc6f53d6d9116b91bb2fec6ceae2ff7291b8f2ea551cf676e73"
        }
      ],
      "purl": "pkg:golang/github.com/kelvins/sunrisesunset@v0.0.0-20170601204625-14f1915ad4b4",
      "externalReferences": [
        {
          "url": "https://github.com/kelvins/sunrisesunset",
          "type": "vcs"
        }
      ]
    },
    {
      "type": "library",
      "bom-ref": "pkg:golang/github.com/konsorten/go-windows-terminal-sequences@v1.0.2",
      "name": "github.com/konsorten/go-windows-terminal-sequences",
      "version": "v1.0.2",
      "scope": "required",
      "hashes": [
        {
          "alg": "SHA-256",
          "content": "0c1d7b6a0d7d92bc7d085b33e28dde9d3acf5f22170a5fb68825c7fda300a7db"
        }
      ],
      "purl": "pkg:golang/github.com/konsorten/go-windows-terminal-sequences@v1.0.2",
      "externalReferences": [
        {
          "url": "https://github.com/konsorten/go-windows-terminal-sequences",
          "type": "vcs"
        }
      ]
    },
    {
      "type": "library",
      "bom-ref": "pkg:golang/github.com/kr/pretty@v0.1.0",
      "name": "github.com/kr/pretty",
      "version": "v0.1.0",
      "scope": "required",
      "hashes": [
        {
          "alg": "SHA-256",
          "content": "2ff0b0374cdead90e644551aa523e2b64e9ff90dfed336b5ad093356e3223052"
        }
      ],
      "purl": "pkg:golang/github.com/kr/pretty@v0.1.0",
      "externalReferences": [
        {
          "url": "https://github.com/kr/pretty",
          "type": "vcs"
        }
      ]
    },
    {
      "type": "library",
      "bom-ref": "pkg:golang/github.com/kr/text@v0.1.0",
      "name": "github.com/kr/text",
      "version": "v0.1.0",
      "scope": "required",
      "hashes": [
        {
          "alg": "SHA-256",
          "content": "e39b0247946d9451cc4785301fdb1d4394c2f2fd2a0d00879d7b7e91a2924d51"
        }
      ],
      "purl": "pkg:golang/github.com/kr/text@v0.1.0",
      "externalReferences": [
        {
          "url": "https://github.com/kr/text",
          "type": "vcs"
        }
      ]
    },
    {
      "type": "library",
      "bom-ref": "pkg:golang/github.com/kurrik/oauth1a@v0.0.0-20151019171716-cb1b80e32dd4",
      "name": "github.com/kurrik/oauth1a",
      "version": "v0.0.0-20151019171716-cb1b80e32dd4",
      "scope": "required",
      "hashes": [
        {
          "alg": "SHA-256",
          "content": "8465fc7bc7c3b9698239012779a1edba2aa2cb536c067656d86ea5c62b6782eb"
        }
      ],
      "purl": "pkg:golang/github.com/kurrik/oauth1a@v0.0.0-20151019171716-cb1b80e32dd4",
      "externalReferences": [
        {
          "url": "https://github.com/kurrik/oauth1a",
          "type": "vcs"
        }
      ]
    },
    {
      "type": "library",
      "bom-ref": "pkg:golang/github.com/lucasb-eyer/go-colorful@v1.0.3",
      "name": "github.com/lucasb-eyer/go-colorful",
      "version": "v1.0.3",
      "scope": "required",
      "hashes": [
        {
          "alg": "SHA-256",
          "content": "4086d05e2ba0b1bfaad7407e308fbb0c8d6840b7669dea7cead58595a69401a7"
        }
      ],
      "purl": "pkg:golang/github.com/lucasb-eyer/go-colorful@v1.0.3",
      "externalReferences": [
        {
          "url": "https://github.com/lucasb-eyer/go-colorful",
          "type": "vcs"
        }
      ]
    },
    {
      "type": "library",
      "bom-ref": "pkg:golang/github.com/mattn/go-colorable@v0.1.1",
      "name": "github.com/mattn/go-colorable",
      "version": "v0.1.1",
      "scope": "required",
      "hashes": [
        {
          "alg": "SHA-256",
          "content": "1b57f948a795c666a0c3f232bf3bed644e06c9b71ce13af5b5fec8f33d1780e8"
        }
      ],
      "purl": "pkg:golang/github.com/mattn/go-colorable@v0.1.1",
      "externalReferences": [
        {
          "url": "https://github.com/mattn/go-colorable",
          "type": "vcs"
        }
      ]
    },
    {
      "type": "library",
      "bom-ref": "pkg:golang/github.com/mattn/go-isatty@v0.0.7",
      "name": "github.com/mattn/go-isatty",
      "version": "v0.0.7",
      "scope": "required",
      "hashes": [
        {
          "alg": "SHA-256",
          "content": "52fc93f6e37edebef22c4612949b1b40676c681fdad0396058fde9aa5ea2c0e7"
        }
      ],
      "purl": "pkg:golang/github.com/mattn/go-isatty@v0.0.7",
      "externalReferences": [
        {
          "url": "https://github.com/mattn/go-isatty",
          "type": "vcs"
        }
      ]
    },
    {
      "type": "library",
      "bom-ref": "pkg:golang/github.com/mattn/go-mastodon@v0.0.3",
      "name": "github.com/mattn/go-mastodon",
      "version": "v0.0.3",
      "scope": "required",
      "hashes": [
        {
          "alg": "SHA-256",
          "content": "155a78bcd5e678785fbc24874ef7e10a0aeb0bd510ceac767528ac3b3ce3b099"
        }
      ],
      "purl": "pkg:golang/github.com/mattn/go-mastodon@v0.0.3",
      "externalReferences": [
        {
          "url": "https://github.com/mattn/go-mastodon",
          "type": "vcs"
        }
      ]
    },
    {
      "type": "library",
      "bom-ref": "pkg:golang/github.com/mattn/go-runewidth@v0.0.4",
      "name": "github.com/mattn/go-runewidth",
      "version": "v0.0.4",
      "scope": "required",
      "hashes": [
        {
          "alg": "SHA-256",
          "content": "d81bdf2a6ce86fa06677862c2f4cf280ea9f7459caec647840bd3a0e8e3fa7b6"
        }
      ],
      "purl": "pkg:golang/github.com/mattn/go-runewidth@v0.0.4",
      "externalReferences": [
        {
          "url": "https://github.com/mattn/go-runewidth",
          "type": "vcs"
        }
      ]
    },
    {
      "type": "library",
      "bom-ref": "pkg:golang/github.com/mattn/go-xmpp@v0.0.0-20190124093244-6093f50721ed",
      "name": "github.com/mattn/go-xmpp",
      "version": "v0.0.0-20190124093244-6093f50721ed",
      "scope": "required",
      "hashes": [
        {
          "alg": "SHA-256",
          "content": "035844420e4cd1bdd6834ea99b7abf074c1d66c3e3550fdad8881ab90f30099a"
        }
      ],
      "purl": "pkg:golang/github.com/mattn/go-xmpp@v0.0.0-20190124093244-6093f50721ed",
      "externalReferences": [
        {
          "url": "https://github.com/mattn/go-xmpp",
          "type": "vcs"
        }
      ]
    },
    {
      "type": "library",
      "bom-ref": "pkg:golang/github.com/matttproud/golang_protobuf_extensions@v1.0.1",
      "name": "github.com/matttproud/golang_protobuf_extensions",
      "version": "v1.0.1",
      "scope": "required",
      "hashes": [
        {
          "alg": "SHA-256",
          "content": "e21a7d8e41f184c1e4aa4ac1dc8c748de812e6cc7f464a80465b1667aa48c225"
        }
      ],
      "purl": "pkg:golang/github.com/matttproud/golang_protobuf_extensions@v1.0.1",
      "externalReferences": [
        {
          "url": "https://github.com/matttproud/golang_protobuf_extensions",
          "type": "vcs"
        }
      ]
    },
    {
      "type": "library",
      "bom-ref": "pkg:golang/github.com/minio/minio-go@v6.0.14",
      "name": "github.com/minio/minio-go",
      "version": "v6.0.14",
      "scope": "required",
      "hashes": [
        {
          "alg": "SHA-256",
          "content": "ccc855c5f871ec9c2b7c9f20364ce03bedeb27bd96567849720e9ab50b930368"
        }
      ],
      "purl": "pkg:golang/github.com/minio/minio-go@v6.0.14",
      "externalReferences": [
        {
          "url": "https://github.com/minio/minio-go",
          "type": "vcs"
        }
      ]
    },
    {
      "type": "library",
      "bom-ref": "pkg:golang/github.com/mitchellh/go-homedir@v1.1.0",
      "name": "github.com/mitchellh/go-homedir",
      "version": "v1.1.0",
      "scope": "required",
      "hashes": [
        {
          "alg": "SHA-256",
          "content": "96e905f738971710c53e4035becaf9ce97355ee3c39ffc059edab9986fb81346"
        }
      ],
      "purl": "pkg:golang/github.com/mitchellh/go-homedir@v1.1.0",
      "externalReferences": [
        {
          "url": "https://github.com/mitchellh/go-homedir",
          "type": "vcs"
        }
      ]
    },
    {
      "type": "library",
      "bom-ref": "pkg:golang/github.com/modern-go/concurrent@v0.0.0-20180306012644-bacd9c7ef1dd",
      "name": "github.com/modern-go/concurrent",
      "version": "v0.0.0-20180306012644-bacd9c7ef1dd",
      "scope": "required",
      "hashes": [
        {
          "alg": "SHA-256",
          "content": "4d12da67d703ff0f0f561f779ec3d76b556b43a8e5c0be6837c975e1095c35f8"
        }
      ],
      "purl": "pkg:golang/github.com/modern-go/concurrent@v0.0.0-20180306012644-bacd9c7ef1dd",
      "externalReferences": [
        {
          "url": "https://github.com/modern-go/concurrent",
          "type": "vcs"
        }
      ]
    },
    {
      "type": "library",
      "bom-ref": "pkg:golang/github.com/modern-go/reflect2@v1.0.1",
      "name": "github.com/modern-go/reflect2",
      "version": "v1.0.1",
      "scope": "required",
      "hashes": [
        {
          "alg": "SHA-256",
          "content": "f5fe35dacfba4666172d665213355580f18aec2d8fa611e3e5126bbdfc7d0162"
        }
      ],
      "purl": "pkg:golang/github.com/modern-go/reflect2@v1.0.1",
      "externalReferences": [
        {
          "url": "https://github.com/modern-go/reflect2",
          "type": "vcs"
        }
      ]
    },
    {
      "type": "library",
      "bom-ref": "pkg:golang/github.com/mreiferson/go-httpclient@v0.0.0-20160630210159-31f0106b4474",
      "name": "github.com/mreiferson/go-httpclient",
      "version": "v0.0.0-20160630210159-31f0106b4474",
      "scope": "required",
      "hashes": [
        {
          "alg": "SHA-256",
          "content": "a0a22d793a9e4a97a7c93ace563e73922c8269f94b6bc07e083d37db8a2d4fea"
        }
      ],
      "purl": "pkg:golang/github.com/mreiferson/go-httpclient@v0.0.0-20160630210159-31f0106b4474",
      "externalReferences": [
        {
          "url": "https://github.com/mreiferson/go-httpclient",
          "type": "vcs"
        }
      ]
    },
    {
      "type": "library",
      "bom-ref": "pkg:golang/github.com/mrexodia/wray@v0.0.0-20160318003008-78a2c1f284ff",
      "name": "github.com/mrexodia/wray",
      "version": "v0.0.0-20160318003008-78a2c1f284ff",
      "scope": "required",
      "hashes": [
        {
          "alg": "SHA-256",
          "content": "1cb183e7ff54c717c4b8ef43b4ff209d398db4cc5b3f285896d7f1b084de97c8"
        }
      ],
      "purl": "pkg:golang/github.com/mrexodia/wray@v0.0.0-20160318003008-78a2c1f284ff",
      "externalReferences": [
        {
          "url": "https://github.com/mrexodia/wray",
          "type": "vcs"
        }
      ]
    },
    {
      "type": "library",
      "bom-ref": "pkg:golang/github.com/muesli/clusters@v0.0.0-20200529215643-2700303c1762",
      "name": "github.com/muesli/clusters",
      "version": "v0.0.0-20200529215643-2700303c1762",
      "scope": "required",
      "hashes": [
        {
          "alg": "SHA-256",
          "content": "a78036271ecb9b7355f7c55130a97259dde7a9ff286dfb7c35f5e50149aa7772"
        }
      ],
      "purl": "pkg:golang/github.com/muesli/clusters@v0.0.0-20200529215643-2700303c1762",
      "externalReferences": [
        {
          "url": "https://github.com/muesli/clusters",
          "type": "vcs"
        }
      ]
    },
    {
      "type": "library",
      "bom-ref": "pkg:golang/github.com/muesli/gamut@v0.2.0",
      "name": "github.com/muesli/gamut",
      "version": "v0.2.0",
      "scope": "required",
      "hashes": [
        {
          "alg": "SHA-256",
          "content": "2196e5fe14330a14d7b6a0d25cbf020ed8dd46de7c2e2bd8d376c60a6d720f25"
        }
      ],
      "purl": "pkg:golang/github.com/muesli/gamut@v0.2.0",
      "externalReferences": [
        {
          "url": "https://github.com/muesli/gamut",
          "type": "vcs"
        }
      ]
    },
    {
      "type": "library",
      "bom-ref": "pkg:golang/github.com/muesli/go-app-paths@v0.2.1",
      "name": "github.com/muesli/go-app-paths",
      "version": "v0.2.1",
      "scope": "required",
      "hashes": [
        {
          "alg": "SHA-256",
          "content": "422fb68a09035f668fab245d769ecfd2c310201c01aa191f41f35c8dd1a32fa6"
        }
      ],
      "purl": "pkg:golang/github.com/muesli/go-app-paths@v0.2.1",
      "externalReferences": [
        {
          "url": "https://github.com/muesli/go-app-paths",
          "type": "vcs"
        }
      ]
    },
    {
      "type": "library",
      "bom-ref": "pkg:golang/github.com/muesli/go-pkg-rss@v0.0.0-20180307042412-3bef0f3126ec",
      "name": "github.com/muesli/go-pkg-rss",
      "version": "v0.0.0-20180307042412-3bef0f3126ec",
      "scope": "required",
      "hashes": [
        {
          "alg": "SHA-256",
          "content": "1f2019b75fec9b4fecb6cbfe1b1cccaf540362ac172104b4685095888b31e84d"
        }
      ],
      "purl": "pkg:golang/github.com/muesli/go-pkg-rss@v0.0.0-20180307042412-3bef0f3126ec",
      "externalReferences": [
        {
          "url": "https://github.com/muesli/go-pkg-rss",
          "type": "vcs"
        }
      ]
    },
    {
      "type": "library",
      "bom-ref": "pkg:golang/github.com/muesli/go-pkg-xmlx@v0.0.0-20151201012946-76f54ee73233",
      "name": "github.com/muesli/go-pkg-xmlx",
      "version": "v0.0.0-20151201012946-76f54ee73233",
      "scope": "required",
      "hashes": [
        {
          "alg": "SHA-256",
          "content": "069451431ec38860af8f71bd8a8027cdeb1735a17e4d764ed58ed96b51b30bd0"
        }
      ],
      "purl": "pkg:golang/github.com/muesli/go-pkg-xmlx@v0.0.0-20151201012946-76f54ee73233",
      "externalReferences": [
        {
          "url": "https://github.com/muesli/go-pkg-xmlx",
          "type": "vcs"
        }
      ]
    },
    {
      "type": "library",
      "bom-ref": "pkg:golang/github.com/muesli/go.hue@v0.0.0-20140802040715-8aefcc693caf",
      "name": "github.com/muesli/go.hue",
      "version": "v0.0.0-20140802040715-8aefcc693caf",
      "scope": "required",
      "hashes": [
        {
          "alg": "SHA-256",
          "content": "2f1663f4e818b53c396d05a81da06e09273e6cb2ae5aad248641b27db06f00b4"
        }
      ],
      "purl": "pkg:golang/github.com/muesli/go.hue@v0.0.0-20140802040715-8aefcc693caf",
      "externalReferences": [
        {
          "url": "https://github.com/muesli/go.hue",
          "type": "vcs"
        }
      ]
    },
    {
      "type": "library",
      "bom-ref": "pkg:golang/github.com/muesli/goefa@v0.0.0-20180507204150-08d8ee2555d2",
      "name": "github.com/muesli/goefa",
      "version": "v0.0.0-20180507204150-08d8ee2555d2",
      "scope": "required",
      "hashes": [
        {
          "alg": "SHA-256",
          "content": "034c834198383d5701bf31fd2181b277296ed32b5f8932bc2da1ce1f9789acb6"
        }
      ],
      "purl": "pkg:golang/github.com/muesli/goefa@v0.0.0-20180507204150-08d8ee2555d2",
      "externalReferences": [
        {
          "url": "https://github.com/muesli/goefa",
          "type": "vcs"
        }
      ]
    },
    {
      "type": "library",
      "bom-ref": "pkg:golang/github.com/muesli/gominatim@v0.1.1-0.20200501135808-f6af22631c72",
      "name": "github.com/muesli/gominatim",
      "version": "v0.1.1-0.20200501135808-f6af22631c72",
      "scope": "required",
      "hashes": [
        {
          "alg": "SHA-256",
          "content": "f05abaaa412954d84333cc0a444e6f61f29e6aca7a75929fa4d59c0fe73ee4fc"
        }
      ],
      "purl": "pkg:golang/github.com/muesli/gominatim@v0.1.1-0.20200501135808-f6af22631c72",
      "externalReferences": [
        {
          "url": "https://github.com/muesli/gominatim",
          "type": "vcs"
        }
      ]
    },
    {
      "type": "library",
      "bom-ref": "pkg:golang/github.com/muesli/kmeans@v0.2.1",
      "name": "github.com/muesli/kmeans",
      "version": "v0.2.1",
      "scope": "required",
      "hashes": [
        {
          "alg": "SHA-256",
          "content": "8dae409f07f20c254108036b01f5ebda93a1dbdd8542749ebb5972480083254d"
        }
      ],
      "purl": "pkg:golang/github.com/muesli/kmeans@v0.2.1",
      "externalReferences": [
        {
          "url": "https://github.com/muesli/kmeans",
          "type": "vcs"
        }
      ]
    },
    {
      "type": "library",
      "bom-ref": "pkg:golang/github.com/muesli/smolder@v0.0.0-20190505085143-9c21fc7135ee",
      "name": "github.com/muesli/smolder",
      "version": "v0.0.0-20190505085143-9c21fc7135ee",
      "scope": "required",
      "hashes": [
        {
          "alg": "SHA-256",
          "content": "a30a7ee39b3e7b6c4dd5f1541c895dd57fb666d1d25235ca92012bee2c2aeeef"
        }
      ],
      "purl": "pkg:golang/github.com/muesli/smolder@v0.0.0-20190505085143-9c21fc7135ee",
      "externalReferences": [
        {
          "url": "https://github.com/muesli/smolder",
          "type": "vcs"
        }
      ]
    },
    {
      "type": "library",
      "bom-ref": "pkg:golang/github.com/nicklaw5/helix@v0.5.7",
      "name": "github.com/nicklaw5/helix",
      "version": "v0.5.7",
      "scope": "required",
      "hashes": [
        {
          "alg": "SHA-256",
          "content": "0ef372a0a92e2d8aea66fe7fcae80bd7c51df7d51e4285f3cc0b20e0ec14f2e6"
        }
      ],
      "purl": "pkg:golang/github.com/nicklaw5/helix@v0.5.7",
      "externalReferences": [
        {
          "url": "https://github.com/nicklaw5/helix",
          "type": "vcs"
        }
      ]
    },
    {
      "type": "library",
      "bom-ref": "pkg:golang/github.com/nlopes/slack@v0.6.0",
      "name": "github.com/nlopes/slack",
      "version": "v0.6.0",
      "scope": "required",
      "hashes": [
        {
          "alg": "SHA-256",
          "content": "8edd23c5540686cb31d486fb9da00e64465c19db48853ce43f49e8a4ad00b110"
        }
      ],
      "purl": "pkg:golang/github.com/nlopes/slack@v0.6.0",
      "externalReferences": [
        {
          "url": "https://github.com/nlopes/slack",
          "type": "vcs"
        }
      ]
    },
    {
      "type": "library",
      "bom-ref": "pkg:golang/github.com/nu7hatch/gouuid@v0.0.0-20131221200532-179d4d0c4d8d",
      "name": "github.com/nu7hatch/gouuid",
      "version": "v0.0.0-20131221200532-179d4d0c4d8d",
      "scope": "required",
      "hashes": [
        {
          "alg": "SHA-256",
          "content": "56180fa7abfda9ff4082bff9e9b8fb63fc5ad3851c7135b4e153f441e778be74"
        }
      ],
      "purl": "pkg:golang/github.com/nu7hatch/gouuid@v0.0.0-20131221200532-179d4d0c4d8d",
      "externalReferences": [
        {
          "url": "https://github.com/nu7hatch/gouuid",
          "type": "vcs"
        }
      ]
    },
    {
      "type": "library",
      "bom-ref": "pkg:golang/github.com/odwrtw/transmission@v0.0.0-20170515140915-08885b3058e7",
      "name": "github.com/odwrtw/transmission",
      "version": "v0.0.0-20170515140915-08885b3058e7",
      "scope": "required",
      "hashes": [
        {
          "alg": "SHA-256",
          "content": "359cfccae056586e28dc419da0c6a9e28f893ca2c186a79243b9d37d7e973e8b"
        }
      ],
      "purl": "pkg:golang/github.com/odwrtw/transmission@v0.0.0-20170515140915-08885b3058e7",
      "externalReferences": [
        {
          "url": "https://github.com/odwrtw/transmission",
          "type": "vcs"
        }
      ]
    },
    {
      "type": "library",
      "bom-ref": "pkg:golang/github.com/olekukonko/tablewriter@v0.0.1",
      "name": "github.com/olekukonko/tablewriter",
      "version": "v0.0.1",
      "scope": "required",
      "hashes": [
        {
          "alg": "SHA-256",
          "content": "6f78949dfd6ffa9a4988e7cd5f8cb1c6a7d628c40f651e72a21f2eac24c55fcf"
        }
      ],
      "purl": "pkg:golang/github.com/olekukonko/tablewriter@v0.0.1",
      "externalReferences": [
        {
          "url": "https://github.com/olekukonko/tablewriter",
          "type": "vcs"
        }
      ]
    },
    {
      "type": "library",
      "bom-ref": "pkg:golang/github.com/pkg/errors@v0.8.1",
      "name": "github.com/pkg/errors",
      "version": "v0.8.1",
      "scope": "required",
      "hashes": [
        {
          "alg": "SHA-256",
          "content": "894454ad11b13d434f772e7f1d14a6f988faa2427a52d2c834dd10f4ce3e8772"
        }
      ],
      "purl": "pkg:golang/github.com/pkg/errors@v0.8.1",
      "externalReferences": [
        {
          "url": "https://github.com/pkg/errors",
          "type": "vcs"
        }
      ]
    },
    {
      "type": "library",
      "bom-ref": "pkg:golang/github.com/pmezard/go-difflib@v1.0.0",
      "name": "github.com/pmezard/go-difflib",
      "version": "v1.0.0",
      "scope": "required",
      "hashes": [
        {
          "alg": "SHA-256",
          "content": "e030700c4d0d1b24280476cb4183f04943e808c591e41133224fdfd6565b0103"
        }
      ],
      "purl": "pkg:golang/github.com/pmezard/go-difflib@v1.0.0",
      "externalReferences": [
        {
          "url": "https://github.com/pmezard/go-difflib",
          "type": "vcs"
        }
      ]
    },
    {
      "type": "library",
      "bom-ref": "pkg:golang/github.com/prometheus/client_golang@v0.9.2",
      "name": "github.com/prometheus/client_golang",
      "version": "v0.9.2",
      "scope": "required",
      "hashes": [
        {
          "alg": "SHA-256",
          "content": "6b09bceb5fc1f0e28377623fea8d5dcb7adae016a6cca8583a2188b42799ef8d"
        }
      ],
      "purl": "pkg:golang/github.com/prometheus/client_golang@v0.9.2",
      "externalReferences": [
        {
          "url": "https://github.com/prometheus/client_golang",
          "type": "vcs"
        }
      ]
    },
    {
      "type": "library",
      "bom-ref": "pkg:golang/github.com/prometheus/client_model@v0.0.0-20180712105110-5c3871d89910",
      "name": "github.com/prometheus/client_model",
      "version": "v0.0.0-20180712105110-5c3871d89910",
      "scope": "required",
      "hashes": [
        {
          "alg": "SHA-256",
          "content": "89d7a30bc7f4e66f4c18eb2e122d404eaf6c84dd371ebc4d903fe5b90bf10aff"
        }
      ],
      "purl": "pkg:golang/github.com/prometheus/client_model@v0.0.0-20180712105110-5c3871d89910",
      "externalReferences": [
        {
          "url": "https://github.com/prometheus/client_model",
          "type": "vcs"
        }
      ]
    },
    {
      "type": "library",
      "bom-ref": "pkg:golang/github.com/prometheus/common@v0.0.0-20181126121408-4724e9255275",
      "name": "github.com/prometheus/common",
      "version": "v0.0.0-20181126121408-4724e9255275",
      "scope": "required",
      "hashes": [
        {
          "alg": "SHA-256",
          "content": "3e70561c17fee8bd233aaab48085547ba624d3f40c67ae3493a36f9317017fef"
        }
      ],
      "purl": "pkg:golang/github.com/prometheus/common@v0.0.0-20181126121408-4724e9255275",
      "externalReferences": [
        {
          "url": "https://github.com/prometheus/common",
          "type": "vcs"
        }
      ]
    },
    {
      "type": "library",
      "bom-ref": "pkg:golang/github.com/prometheus/procfs@v0.0.0-20181204211112-1dc9a6cbc91a",
      "name": "github.com/prometheus/procfs",
      "version": "v0.0.0-20181204211112-1dc9a6cbc91a",
      "scope": "required",
      "hashes": [
        {
          "alg": "SHA-256",
          "content": "f5af0c9d930fd17da72c974183ea4198682426549a282d8a6909930a4d570ed1"
        }
      ],
      "purl": "pkg:golang/github.com/prometheus/procfs@v0.0.0-20181204211112-1dc9a6cbc91a",
      "externalReferences": [
        {
          "url": "https://github.com/prometheus/procfs",
          "type": "vcs"
        }
      ]
    },
    {
      "type": "library",
      "bom-ref": "pkg:golang/github.com/rdegges/go-ipify@v0.0.0-20150526035502-2d94a6a86c40",
      "name": "github.com/rdegges/go-ipify",
      "version": "v0.0.0-20150526035502-2d94a6a86c40",
      "scope": "required",
      "hashes": [
        {
          "alg": "SHA-256",
          "content": "df563b519d724d8054e04efd084e7623fd48462dd3aa2bb0aae5c636d6435d6b"
        }
      ],
      "purl": "pkg:golang/github.com/rdegges/go-ipify@v0.0.0-20150526035502-2d94a6a86c40",
      "externalReferences": [
        {
          "url": "https://github.com/rdegges/go-ipify",
          "type": "vcs"
        }
      ]
    },
    {
      "type": "library",
      "bom-ref": "pkg:golang/github.com/robfig/cron/v3@v3.0.1",
      "name": "github.com/robfig/cron/v3",
      "version": "v3.0.1",
      "scope": "required",
      "hashes": [
        {
          "alg": "SHA-256",
          "content": "59d47192f6c9ced9fc2cccff404bcb379b0153ec4aa52ab0c143b53e3af8a83b"
        }
      ],
      "purl": "pkg:golang/github.com/robfig/cron/v3@v3.0.1",
      "externalReferences": [
        {
          "url": "https://github.com/robfig/cron",
          "type": "vcs"
        }
      ]
    },
    {
      "type": "library",
      "bom-ref": "pkg:golang/github.com/rogpeppe/go-charset@v0.0.0-20180617210344-2471d30d28b4",
      "name": "github.com/rogpeppe/go-charset",
      "version": "v0.0.0-20180617210344-2471d30d28b4",
      "scope": "required",
      "hashes": [
        {
          "alg": "SHA-256",
          "content": "04dfcdca7da758ca2a19103b1bba5a0cd0ea4d7137d265c6ab3cf26eb7e8d39c"
        }
      ],
      "purl": "pkg:golang/github.com/rogpeppe/go-charset@v0.0.0-20180617210344-2471d30d28b4",
      "externalReferences": [
        {
          "url": "https://github.com/rogpeppe/go-charset",
          "type": "vcs"
        }
      ]
    },
    {
      "type": "library",
      "bom-ref": "pkg:golang/github.com/shuheiktgw/go-travis@v0.1.10-0.20190502100712-2d0b3e9898f0",
      "name": "github.com/shuheiktgw/go-travis",
      "version": "v0.1.10-0.20190502100712-2d0b3e9898f0",
      "scope": "required",
      "hashes": [
        {
          "alg": "SHA-256",
          "content": "f952f920d22d0eedc67f859a9355d9460b26493238f361b391373b45fd838c8f"
        }
      ],
      "purl": "pkg:golang/github.com/shuheiktgw/go-travis@v0.1.10-0.20190502100712-2d0b3e9898f0",
      "externalReferences": [
        {
          "url": "https://github.com/shuheiktgw/go-travis",
          "type": "vcs"
        }
      ]
    },
    {
      "type": "library",
      "bom-ref": "pkg:golang/github.com/simplepush/simplepush-go@v0.0.0-20170307205831-8980e96b7b02",
      "name": "github.com/simplepush/simplepush-go",
      "version": "v0.0.0-20170307205831-8980e96b7b02",
      "scope": "required",
      "hashes": [
        {
          "alg": "SHA-256",
          "content": "d70149ab0d89ac3c28251266abf36d9591d1454193b7b5bdb876d68c9e97d9b1"
        }
      ],
      "purl": "pkg:golang/github.com/simplepush/simplepush-go@v0.0.0-20170307205831-8980e96b7b02",
      "externalReferences": [
        {
          "url": "https://github.com/simplepush/simplepush-go",
          "type": "vcs"
        }
      ]
    },
    {
      "type": "library",
      "bom-ref": "pkg:golang/github.com/sirupsen/logrus@v1.4.1",
      "name": "github.com/sirupsen/logrus",
      "version": "v1.4.1",
      "scope": "required",
      "hashes": [
        {
          "alg": "SHA-256",
          "content": "18bdab126cba9ec8a4996d2bf28a70f4921149c74c179840f1c3982c7ec89f59"
        }
      ],
      "purl": "pkg:golang/github.com/sirupsen/logrus@v1.4.1",
      "externalReferences": [
        {
          "url": "https://github.com/sirupsen/logrus",
          "type": "vcs"
        }
      ]
    },
    {
      "type": "library",
      "bom-ref": "pkg:golang/github.com/sromku/go-gitter@v0.0.0-20170828210750-70f7030a94a6",
      "name": "github.com/sromku/go-gitter",
      "version": "v0.0.0-20170828210750-70f7030a94a6",
      "scope": "required",
      "hashes": [
        {
          "alg": "SHA-256",
          "content": "ec0578ef1bd86eec2837147d2c3864470ab366cc92097e47f1654ce33ac398c1"
        }
      ],
      "purl": "pkg:golang/github.com/sromku/go-gitter@v0.0.0-20170828210750-70f7030a94a6",
      "externalReferences": [
        {
          "url": "https://github.com/sromku/go-gitter",
          "type": "vcs"
        }
      ]
    },
    {
      "type": "library",
      "bom-ref": "pkg:golang/github.com/ssor/bom@v0.0.0-20170718123548-6386211fdfcf",
      "name": "github.com/ssor/bom",
      "version": "v0.0.0-20170718123548-6386211fdfcf",
      "scope": "required",
      "hashes": [
        {
          "alg": "SHA-256",
          "content": "a6f6d9d253345d63c1a942aa154f1c99abeca6f225f67ba5398c1dcba205451a"
        }
      ],
      "purl": "pkg:golang/github.com/ssor/bom@v0.0.0-20170718123548-6386211fdfcf",
      "externalReferences": [
        {
          "url": "https://github.com/ssor/bom",
          "type": "vcs"
        }
      ]
    },
    {
      "type": "library",
      "bom-ref": "pkg:golang/github.com/stretchr/objx@v0.2.0",
      "name": "github.com/stretchr/objx",
      "version": "v0.2.0",
      "scope": "required",
      "hashes": [
        {
          "alg": "SHA-256",
          "content": "1db8363627692c4f2f7840641194cbdc2be5914215cee53d8c3a6564ee78738f"
        }
      ],
      "purl": "pkg:golang/github.com/stretchr/objx@v0.2.0",
      "externalReferences": [
        {
          "url": "https://github.com/stretchr/objx",
          "type": "vcs"
        }
      ]
    },
    {
      "type": "library",
      "bom-ref": "pkg:golang/github.com/stretchr/testify@v1.4.0",
      "name": "github.com/stretchr/testify",
      "version": "v1.4.0",
      "scope": "required",
      "hashes": [
        {
          "alg": "SHA-256",
          "content": "d84e125d5ff0b4e913a275eca2d622e258bacd55b162566e60d0977bd5d12729"
        }
      ],
      "purl": "pkg:golang/github.com/stretchr/testify@v1.4.0",
      "externalReferences": [
        {
          "url": "https://github.com/stretchr/testify",
          "type": "vcs"
        }
      ]
    },
    {
      "type": "library",
      "bom-ref": "pkg:golang/github.com/technoweenie/multipartstreamer@v1.0.1",
      "name": "github.com/technoweenie/multipartstreamer",
      "version": "v1.0.1",
      "scope": "required",
      "hashes": [
        {
          "alg": "SHA-256",
          "content": "5d1ced039317891d532111f11f6b8dc57c5a2242900de5fb9b65ec48e9501273"
        }
      ],
      "purl": "pkg:golang/github.com/technoweenie/multipartstreamer@v1.0.1",
      "externalReferences": [
        {
          "url": "https://github.com/technoweenie/multipartstreamer",
          "type": "vcs"
        }
      ]
    },
    {
      "type": "library",
      "bom-ref": "pkg:golang/github.com/tomnomnom/linkheader@v0.0.0-20180905144013-02ca5825eb80",
      "name": "github.com/tomnomnom/linkheader",
      "version": "v0.0.0-20180905144013-02ca5825eb80",
      "scope": "required",
      "hashes": [
        {
          "alg": "SHA-256",
          "content": "9eb677c92358c096d2a43e9c7bd76e88ff90903dc9b8b09c5a475a7a1512ff76"
        }
      ],
      "purl": "pkg:golang/github.com/tomnomnom/linkheader@v0.0.0-20180905144013-02ca5825eb80",
      "externalReferences": [
        {
          "url": "https://github.com/tomnomnom/linkheader",
          "type": "vcs"
        }
      ]
    },
    {
      "type": "library",
      "bom-ref": "pkg:golang/github.com/trivago/tgo@v1.0.1",
      "name": "github.com/trivago/tgo",
      "version": "v1.0.1",
      "scope": "required",
      "hashes": [
        {
          "alg": "SHA-256",
          "content": "6f16ad8c9217348a55d7c6ee714e1493f2daa31bf1b8e969fe8a30447ca770b4"
        }
      ],
      "purl": "pkg:golang/github.com/trivago/tgo@v1.0.1",
      "externalReferences": [
        {
          "url": "https://github.com/trivago/tgo",
          "type": "vcs"
        }
      ]
    },
    {
      "type": "library",
      "bom-ref": "pkg:golang/github.com/wcharczuk/go-chart/v2@v2.1.0",
      "name": "github.com/wcharczuk/go-chart/v2",
      "version": "v2.1.0",
      "scope": "required",
      "hashes": [
        {
          "alg": "SHA-256",
          "content": "b58dac96a550e9b37ec874a70d8c1979b2d0164a612b858dad5c27b7b0896762"
        }
      ],
      "purl": "pkg:golang/github.com/wcharczuk/go-chart/v2@v2.1.0",
      "externalReferences": [
        {
          "url": "https://github.com/wcharczuk/go-chart",
          "type": "vcs"
        }
      ]
    },
    {
      "type": "library",
      "bom-ref": "pkg:golang/github.com/xrash/smetrics@v0.0.0-20200730060457-89a2a8a1fb0b",
      "name": "github.com/xrash/smetrics",
      "version": "v0.0.0-20200730060457-89a2a8a1fb0b",
      "scope": "required",
      "hashes": [
        {
          "alg": "SHA-256",
          "content": "b675a0aa83819889e4b79a5b2e36a0c0d5638d3e117498451f32f579b092461f"
        }
      ],
      "purl": "pkg:golang/github.com/xrash/smetrics@v0.0.0-20200730060457-89a2a8a1fb0b",
      "externalReferences": [
        {
          "url": "https://github.com/xrash/smetrics",
          "type": "vcs"
        }
      ]
    },
    {
      "type": "library",
      "bom-ref": "pkg:golang/golang.org/x/crypto@v0.0.0-20190426145343-a29dc8fdc734",
      "name": "golang.org/x/crypto",
      "version": "v0.0.0-20190426145343-a29dc8fdc734",
      "scope": "required",
      "hashes": [
        {
          "alg": "SHA-256",
          "content": "a7f1fdf3628a1235272c990cdedb7f2de9839ce7351a264be4509594e449e73a"
        }
      ],
      "purl": "pkg:golang/golang.org/x/crypto@v0.0.0-20190426145343-a29dc8fdc734"
    },
    {
      "type": "library",
      "bom-ref": "pkg:golang/golang.org/x/image@v0.0.0-20200927104501-e162460cd6b5",
      "name": "golang.org/x/image",
      "version": "v0.0.0-20200927104501-e162460cd6b5",
      "scope": "required",
      "hashes": [
        {
          "alg": "SHA-256",
          "content": "41e953d753c1e055e20c45ee72b7cd7241e8171c2df144866356a33f5645e653"
        }
      ],
      "purl": "pkg:golang/golang.org/x/image@v0.0.0-20200927104501-e162460cd6b5"
    },
    {
      "type": "library",
      "bom-ref": "pkg:golang/golang.org/x/net@v0.0.0-20191014212845-da9a3fd4c582",
      "name": "golang.org/x/net",
      "version": "v0.0.0-20191014212845-da9a3fd4c582",
      "scope": "required",
      "hashes": [
        {
          "alg": "SHA-256",
          "content": "a7dc417bfc3f3b391e6152a6db7e20e7980c743d67488a284e2af9915d7591f0"
        }
      ],
      "purl": "pkg:golang/golang.org/x/net@v0.0.0-20191014212845-da9a3fd4c582"
    },
    {
      "type": "library",
      "bom-ref": "pkg:golang/golang.org/x/oauth2@v0.0.0-20190402181905-9f3314589c9a",
      "name": "golang.org/x/oauth2",
      "version": "v0.0.0-20190402181905-9f3314589c9a",
      "scope": "required",
      "hashes": [
        {
          "alg": "SHA-256",
          "content": "b489aca657edac5a402c262e9a86ec7742bceaf940b3f7971859acdadc5f25f0"
        }
      ],
      "purl": "pkg:golang/golang.org/x/oauth2@v0.0.0-20190402181905-9f3314589c9a"
    },
    {
      "type": "library",
      "bom-ref": "pkg:golang/golang.org/x/sys@v0.0.0-20191120155948-bd437916bb0e",
      "name": "golang.org/x/sys",
      "version": "v0.0.0-20191120155948-bd437916bb0e",
      "scope": "required",
      "hashes": [
        {
          "alg": "SHA-256",
          "content": "37b0de22b8d8b33366496e34f51ddfacf3f08254703245d2073c156e43a32cb0"
        }
      ],
      "purl": "pkg:golang/golang.org/x/sys@v0.0.0-20191120155948-bd437916bb0e"
    },
    {
      "type": "library",
      "bom-ref": "pkg:golang/golang.org/x/text@v0.3.2",
      "name": "golang.org/x/text",
      "version": "v0.3.2",
      "scope": "required",
      "hashes": [
        {
          "alg": "SHA-256",
          "content": "b56d9b9a206ac20263fd4a6ab42f04a571195583b0534c86e2259ba6b49501cb"
        }
      ],
      "purl": "pkg:golang/golang.org/x/text@v0.3.2"
    },
    {
      "type": "library",
      "bom-ref": "pkg:golang/golang.org/x/time@v0.0.0-20190921001708-c4c64cad1fd0",
      "name": "golang.org/x/time",
      "version": "v0.0.0-20190921001708-c4c64cad1fd0",
      "scope": "required",
      "hashes": [
        {
          "alg": "SHA-256",
          "content": "c50c17bfaed3c45a3d9c2d46245c9a6f97aaff9079f74afa4659cbfc6f12cfbc"
        }
      ],
      "purl": "pkg:golang/golang.org/x/time@v0.0.0-20190921001708-c4c64cad1fd0"
    },
    {
      "type": "library",
      "bom-ref": "pkg:golang/google.golang.org/appengine@v1.5.0",
      "name": "google.golang.org/appengine",
      "version": "v1.5.0",
      "scope": "required",
      "hashes": [
        {
          "alg": "SHA-256",
          "content": "2b190ed7720f5b82ec969d9bcfe2873f613782d165ac818d4e1c64650de0fb87"
        }
      ],
      "purl": "pkg:golang/google.golang.org/appengine@v1.5.0"
    },
    {
      "type": "library",
      "bom-ref": "pkg:golang/gopkg.in/alexcesaro/quotedprintable.v3@v3.0.0-20150716171945-2caba252f4dc",
      "name": "gopkg.in/alexcesaro/quotedprintable.v3",
      "version": "v3.0.0-20150716171945-2caba252f4dc",
      "scope": "required",
      "hashes": [
        {
          "alg": "SHA-256",
          "content": "da018a944dbe6ac355f66ef1af2c25dfa618367046e59434aff04e3b1a8fa669"
        }
      ],
      "purl": "pkg:golang/gopkg.in/alexcesaro/quotedprintable.v3@v3.0.0-20150716171945-2caba252f4dc",
      "externalReferences": [
        {
          "url": "https://github.com/alexcesaro/quotedprintable",
          "type": "vcs"
        }
      ]
    },
    {
      "type": "library",
      "bom-ref": "pkg:golang/gopkg.in/yaml.v2@v2.3.0",
      "name": "gopkg.in/yaml.v2",
      "version": "v2.3.0",
      "scope": "required",
      "hashes": [
        {
          "alg": "SHA-256",
          "content": "725c940101ce3371b43377f9bd08fb2ee26b113be3568b776797a5f677df52d5"
        }
      ],
      "purl": "pkg:golang/gopkg.in/yaml.v2@v2.3.0",
      "externalReferences": [
        {
          "url": "https://github.com/go-yaml/yaml",
          "type": "vcs"
        }
      ]
    },
    {
      "type": "library",
      "bom-ref": "pkg:golang/jaytaylor.com/html2text@v0.0.0-20200412013138-3577fbdbcff7",
      "name": "jaytaylor.com/html2text",
      "version": "v0.0.0-20200412013138-3577fbdbcff7",
      "scope": "required",
      "hashes": [
        {
          "alg": "SHA-256",
          "content": "9ae6f432614b3a7f172e29193808602c3d645c9abc8e07ed4abaefee6d34c45a"
        }
      ],
      "purl": "pkg:golang/jaytaylor.com/html2text@v0.0.0-20200412013138-3577fbdbcff7"
    },
    {
      "type": "library",
      "bom-ref": "pkg:golang/layeh.com/gumble@v0.0.0-20180508205105-1ea1159c4956",
      "name": "layeh.com/gumble",
      "version": "v0.0.0-20180508205105-1ea1159c4956",
      "scope": "required",
      "hashes": [
        {
          "alg": "SHA-256",
          "content": "4da436102adc0289b66e48d1bcec61b14903ea5e6288227ffbe9471d9e36cc82"
        }
      ],
      "purl": "pkg:golang/layeh.com/gumble@v0.0.0-20180508205105-1ea1159c4956"
    },
    {
      "type": "library",
      "bom-ref": "pkg:golang/github.com/emicklei/go-restful@v2.9.3+incompatible",
      "group": "github.com/emicklei",
      "name": "go-restful",
      "version": "v2.9.3+incompatible",
      "description": "",
      "scope": "required",
      "hashes": [
        {
          "alg": "SHA-256",
          "content": "a2dcdbf960866e4c831e4aa64264f9603d96478041c1475e428168f25ffbb55b"
        }
      ],
      "purl": "pkg:golang/github.com/emicklei/go-restful@v2.9.3+incompatible"
    },
    {
      "type": "library",
      "bom-ref": "pkg:golang/github.com/muesli/beehive",
      "group": "github.com/muesli",
      "name": "beehive",
      "version": "",
      "description": "",
      "scope": "required",
      "purl": "pkg:golang/github.com/muesli/beehive"
    },
    {
      "type": "library",
      "bom-ref": "pkg:golang/github.com/go-mail/mail@v2.3.1+incompatible",
      "group": "github.com/go-mail",
      "name": "mail",
      "version": "v2.3.1+incompatible",
      "description": "",
      "scope": "required",
      "hashes": [
        {
          "alg": "SHA-256",
          "content": "54f5a39a637246c5974191d51d3de0d186c820d5244a6b8a3a22c80e459b2fa3"
        }
      ],
      "purl": "pkg:golang/github.com/go-mail/mail@v2.3.1+incompatible"
    },
    {
      "type": "library",
      "bom-ref": "pkg:golang/github.com/huandu/facebook@v2.3.1+incompatible",
      "group": "github.com/huandu",
      "name": "facebook",
      "version": "v2.3.1+incompatible",
      "description": "",
      "scope": "required",
      "hashes": [
        {
          "alg": "SHA-256",
          "content": "c09a20a7dae15d45230ee871e99691e44ca5c7776c266cb4cf215168f614ab98"
        }
      ],
      "purl": "pkg:golang/github.com/huandu/facebook@v2.3.1+incompatible"
    },
    {
      "type": "library",
      "bom-ref": "pkg:golang/github.com/google/go-github@v17.0.0+incompatible",
      "group": "github.com/google",
      "name": "go-github",
      "version": "v17.0.0+incompatible",
      "description": "",
      "scope": "optional",
      "hashes": [
        {
          "alg": "SHA-256",
          "content": "ccb80e2e2f7c1f77e27d99fee389beba65eb4b9da5a151200b6000a678a0ad54"
        }
      ],
      "purl": "pkg:golang/github.com/google/go-github@v17.0.0+incompatible"
    },
    {
      "type": "library",
      "bom-ref": "pkg:golang/github.com/dgrijalva/jwt-go@v3.2.0+incompatible",
      "group": "github.com/dgrijalva",
      "name": "jwt-go",
      "version": "v3.2.0+incompatible",
      "description": "",
      "scope": "required",
      "hashes": [
        {
          "alg": "SHA-256",
          "content": "137aeefb5d64f3148187e84c3e038b666b6bac26e1aac99a3c78cb2989c909a4"
        }
      ],
      "purl": "pkg:golang/github.com/dgrijalva/jwt-go@v3.2.0+incompatible"
    },
    {
      "type": "library",
      "bom-ref": "pkg:golang/github.com/go-redis/redis@v6.15.6+incompatible",
      "group": "github.com/go-redis",
      "name": "redis",
      "version": "v6.15.6+incompatible",
      "description": "",
      "scope": "required",
      "hashes": [
        {
          "alg": "SHA-256",
          "content": "340204b8c399fdfc5f5c922b283403cfcc1a998ee603b3e8b88990d89be0ea40"
        }
      ],
      "purl": "pkg:golang/github.com/go-redis/redis@v6.15.6+incompatible"
    },
    {
      "type": "library",
      "bom-ref": "pkg:golang/github.com/minio/minio-go@v6.0.14+incompatible",
      "group": "github.com/minio",
      "name": "minio-go",
      "version": "v6.0.14+incompatible",
      "description": "",
      "scope": "required",
      "hashes": [
        {
          "alg": "SHA-256",
          "content": "ee0b8a62d8adbfc764b6f3541ab87398d940e70ac00014d05c2a1eb1974540ef"
        }
      ],
      "purl": "pkg:golang/github.com/minio/minio-go@v6.0.14+incompatible"
    },
    {
      "type": "library",
      "bom-ref": "pkg:golang/github.com/ChimeraCoder/anaconda@v2.0.0+incompatible",
      "group": "github.com/ChimeraCoder",
      "name": "anaconda",
      "version": "v2.0.0+incompatible",
      "description": "",
      "scope": "required",
      "hashes": [
        {
          "alg": "SHA-256",
          "content": "4c2b773228c8ab742aa3d481b6e5bfaeb338c7bac37d6a985878fc4fb84b70b8"
        }
      ],
      "purl": "pkg:golang/github.com/ChimeraCoder/anaconda@v2.0.0+incompatible"
    }
  ],
  "dependencies": [
    {
      "ref": "pkg:golang/github.com/ChimeraCoder/anaconda@v2.0.0"
    },
    {
      "ref": "pkg:golang/github.com/ChimeraCoder/tokenbucket@v0.0.0-20131201223612-c5a927568de7"
    },
    {
      "ref": "pkg:golang/github.com/CleverbotIO/go-cleverbot.io@v0.0.0-20170417080108-d24926702e8d"
    },
    {
      "ref": "pkg:golang/github.com/MariaTerzieva/gotumblr@v0.0.0-20170505145609-93ca5e50a3fd"
    },
    {
      "ref": "pkg:golang/github.com/Profpatsch/GoOse@v0.0.0-20181012194242-da5de31b9bd2"
    },
    {
      "ref": "pkg:golang/github.com/PuerkitoBio/goquery@v1.5.0",
      "dependsOn": [
        "pkg:golang/github.com/andybalholm/cascadia@v1.0.0",
        "pkg:golang/golang.org/x/net@v0.0.0-20191014212845-da9a3fd4c582"
      ]
    },
    {
      "ref": "pkg:golang/github.com/akashshinde/go_cricket@v0.0.0-20170322162016-01a06b2c3f22"
    },
    {
      "ref": "pkg:golang/github.com/andybalholm/cascadia@v1.0.0",
      "dependsOn": [
        "pkg:golang/golang.org/x/net@v0.0.0-20191014212845-da9a3fd4c582"
      ]
    },
    {
      "ref": "pkg:golang/github.com/andygrunwald/go-jira@v1.13.0",
      "dependsOn": [
        "pkg:golang/github.com/dgrijalva/jwt-go@v3.2.0",
        "pkg:golang/github.com/fatih/structs@v1.0.0",
        "pkg:golang/github.com/google/go-querystring@v1.0.0",
        "pkg:golang/github.com/pkg/errors@v0.8.1",
        "pkg:golang/github.com/trivago/tgo@v1.0.1",
        "pkg:golang/golang.org/x/crypto@v0.0.0-20190426145343-a29dc8fdc734"
      ]
    },
    {
      "ref": "pkg:golang/github.com/araddon/dateparse@v0.0.0-20190426192744-0d74ffceef83"
    },
    {
      "ref": "pkg:golang/github.com/asaskevich/EventBus@v0.0.0-20180315140547-d46933a94f05"
    },
    {
      "ref": "pkg:golang/github.com/azr/backoff@v0.0.0-20160115115103-53511d3c7330"
    },
    {
      "ref": "pkg:golang/github.com/beorn7/perks@v0.0.0-20180321164747-3a771d992973"
    },
    {
      "ref": "pkg:golang/github.com/briandowns/openweathermap@v0.0.0-20180804155945-5f41b7c9d92d"
    },
    {
      "ref": "pkg:golang/github.com/bwmarrin/discordgo@v0.23.1",
      "dependsOn": [
        "pkg:golang/github.com/gorilla/websocket@v1.4.0",
        "pkg:golang/golang.org/x/crypto@v0.0.0-20190426145343-a29dc8fdc734"
      ]
    },
    {
      "ref": "pkg:golang/github.com/carlosdp/twiliogo@v0.0.0-20161027183705-b26045ebb9d1"
    },
    {
      "ref": "pkg:golang/github.com/cloudflare/cloudflare-go@v0.10.6",
      "dependsOn": [
        "pkg:golang/github.com/davecgh/go-spew@v1.1.1",
        "pkg:golang/github.com/mattn/go-runewidth@v0.0.4",
        "pkg:golang/github.com/olekukonko/tablewriter@v0.0.1",
        "pkg:golang/github.com/pkg/errors@v0.8.1",
        "pkg:golang/github.com/stretchr/testify@v1.4.0",
        "pkg:golang/golang.org/x/net@v0.0.0-20191014212845-da9a3fd4c582",
        "pkg:golang/golang.org/x/time@v0.0.0-20190921001708-c4c64cad1fd0"
      ]
    },
    {
      "ref": "pkg:golang/github.com/coreos/go-systemd@v0.0.0-20190719114852-fd7a80b32e1f"
    },
    {
      "ref": "pkg:golang/github.com/davecgh/go-spew@v1.1.1"
    },
    {
      "ref": "pkg:golang/github.com/deckarep/gosx-notifier@v0.0.0-20180201035817-e127226297fb"
    },
    {
      "ref": "pkg:golang/github.com/dgrijalva/jwt-go@v3.2.0"
    },
    {
      "ref": "pkg:golang/github.com/dustin/go-jsonpointer@v0.0.0-20160814072949-ba0abeacc3dc"
    },
    {
      "ref": "pkg:golang/github.com/dustin/gojson@v0.0.0-20160307161227-2e71ec9dd5ad"
    },
    {
      "ref": "pkg:golang/github.com/emicklei/go-restful@v2.9.3"
    },
    {
      "ref": "pkg:golang/github.com/fatih/set@v0.2.1"
    },
    {
      "ref": "pkg:golang/github.com/fatih/structs@v1.0.0"
    },
    {
      "ref": "pkg:golang/github.com/flashmob/go-guerrilla@v1.6.1"
    },
    {
      "ref": "pkg:golang/github.com/fluffle/goirc@v1.0.1",
      "dependsOn": [
        "pkg:golang/github.com/golang/mock@v1.2.0",
        "pkg:golang/golang.org/x/net@v0.0.0-20191014212845-da9a3fd4c582"
      ]
    },
    {
      "ref": "pkg:golang/github.com/fsnotify/fsnotify@v1.4.7"
    },
    {
      "ref": "pkg:golang/github.com/garyburd/go-oauth@v0.0.0-20180319155456-bca2e7f09a17"
    },
    {
      "ref": "pkg:golang/github.com/gempir/go-twitch-irc/v2@v2.2.2"
    },
    {
      "ref": "pkg:golang/github.com/gigawattio/window@v0.0.0-20180317192513-0f5467e35573"
    },
    {
      "ref": "pkg:golang/github.com/glaxx/go_pastebin@v0.0.0-20170619211819-7e72d56770d0"
    },
    {
      "ref": "pkg:golang/github.com/go-ini/ini@v1.42.0"
    },
    {
      "ref": "pkg:golang/github.com/go-mail/mail@v2.3.1"
    },
    {
      "ref": "pkg:golang/github.com/go-redis/redis@v6.15.6"
    },
    {
      "ref": "pkg:golang/github.com/go-telegram-bot-api/telegram-bot-api@v1.0.1-0.20200319042609-5e339ed016b0",
      "dependsOn": [
        "pkg:golang/github.com/technoweenie/multipartstreamer@v1.0.1"
      ]
    },
    {
      "ref": "pkg:golang/github.com/golang/freetype@v0.0.0-20170609003504-e2365dfdc4a0"
    },
    {
      "ref": "pkg:golang/github.com/golang/mock@v1.2.0"
    },
    {
      "ref": "pkg:golang/github.com/golang/protobuf@v1.3.1"
    },
    {
      "ref": "pkg:golang/github.com/google/go-github@v17.0.0"
    },
    {
      "ref": "pkg:golang/github.com/google/go-querystring@v1.0.0"
    },
    {
      "ref": "pkg:golang/github.com/gorilla/websocket@v1.4.0"
    },
    {
      "ref": "pkg:golang/github.com/guelfey/go.dbus@v0.0.0-20131113121618-f6a3a2366cc3"
    },
    {
      "ref": "pkg:golang/github.com/horrendus/go-mixcloud@v0.0.0-20190427074402-c2164c9e194c"
    },
    {
      "ref": "pkg:golang/github.com/huandu/facebook@v2.3.1"
    },
    {
      "ref": "pkg:golang/github.com/jacobsa/go-serial@v0.0.0-20180131005756-15cf729a72d4"
    },
    {
      "ref": "pkg:golang/github.com/jayeshsolanki93/devgorant@v0.0.0-20160810172004-69fb03e5c3b1"
    },
    {
      "ref": "pkg:golang/github.com/jaytaylor/html2text@v0.0.0-20190408195923-01ec452cbe43"
    },
    {
      "ref": "pkg:golang/github.com/jpillora/backoff@v1.0.0"
    },
    {
      "ref": "pkg:golang/github.com/json-iterator/go@v1.1.6"
    },
    {
      "ref": "pkg:golang/github.com/kelvins/sunrisesunset@v0.0.0-20170601204625-14f1915ad4b4"
    },
    {
      "ref": "pkg:golang/github.com/konsorten/go-windows-terminal-sequences@v1.0.2"
    },
    {
      "ref": "pkg:golang/github.com/kr/pretty@v0.1.0",
      "dependsOn": [
        "pkg:golang/github.com/kr/text@v0.1.0"
      ]
    },
    {
      "ref": "pkg:golang/github.com/kr/text@v0.1.0"
    },
    {
      "ref": "pkg:golang/github.com/kurrik/oauth1a@v0.0.0-20151019171716-cb1b80e32dd4"
    },
    {
      "ref": "pkg:golang/github.com/lucasb-eyer/go-colorful@v1.0.3"
    },
    {
      "ref": "pkg:golang/github.com/mattn/go-colorable@v0.1.1",
      "dependsOn": [
        "pkg:golang/github.com/mattn/go-isatty@v0.0.7"
      ]
    },
    {
      "ref": "pkg:golang/github.com/mattn/go-isatty@v0.0.7",
      "dependsOn": [
        "pkg:golang/golang.org/x/sys@v0.0.0-20191120155948-bd437916bb0e"
      ]
    },
    {
      "ref": "pkg:golang/github.com/mattn/go-mastodon@v0.0.3"
    },
    {
      "ref": "pkg:golang/github.com/mattn/go-runewidth@v0.0.4"
    },
    {
      "ref": "pkg:golang/github.com/mattn/go-xmpp@v0.0.0-20190124093244-6093f50721ed"
    },
    {
      "ref": "pkg:golang/github.com/matttproud/golang_protobuf_extensions@v1.0.1"
    },
    {
      "ref": "pkg:golang/github.com/minio/minio-go@v6.0.14"
    },
    {
      "ref": "pkg:golang/github.com/mitchellh/go-homedir@v1.1.0"
    },
    {
      "ref": "pkg:golang/github.com/modern-go/concurrent@v0.0.0-20180306012644-bacd9c7ef1dd"
    },
    {
      "ref": "pkg:golang/github.com/modern-go/reflect2@v1.0.1"
    },
    {
      "ref": "pkg:golang/github.com/mreiferson/go-httpclient@v0.0.0-20160630210159-31f0106b4474"
    },
    {
      "ref": "pkg:golang/github.com/mrexodia/wray@v0.0.0-20160318003008-78a2c1f284ff"
    },
    {
      "ref": "pkg:golang/github.com/muesli/clusters@v0.0.0-20200529215643-2700303c1762"
    },
    {
      "ref": "pkg:golang/github.com/muesli/gamut@v0.2.0",
      "dependsOn": [
        "pkg:golang/github.com/lucasb-eyer/go-colorful@v1.0.3",
        "pkg:golang/github.com/muesli/clusters@v0.0.0-20200529215643-2700303c1762",
        "pkg:golang/github.com/muesli/kmeans@v0.2.1",
        "pkg:golang/github.com/xrash/smetrics@v0.0.0-20200730060457-89a2a8a1fb0b"
      ]
    },
    {
      "ref": "pkg:golang/github.com/muesli/go-app-paths@v0.2.1",
      "dependsOn": [
        "pkg:golang/github.com/mitchellh/go-homedir@v1.1.0"
      ]
    },
    {
      "ref": "pkg:golang/github.com/muesli/go-pkg-rss@v0.0.0-20180307042412-3bef0f3126ec"
    },
    {
      "ref": "pkg:golang/github.com/muesli/go-pkg-xmlx@v0.0.0-20151201012946-76f54ee73233"
    },
    {
      "ref": "pkg:golang/github.com/muesli/go.hue@v0.0.0-20140802040715-8aefcc693caf"
    },
    {
      "ref": "pkg:golang/github.com/muesli/goefa@v0.0.0-20180507204150-08d8ee2555d2"
    },
    {
      "ref": "pkg:golang/github.com/muesli/gominatim@v0.1.1-0.20200501135808-f6af22631c72"
    },
    {
      "ref": "pkg:golang/github.com/muesli/kmeans@v0.2.1",
      "dependsOn": [
        "pkg:golang/github.com/lucasb-eyer/go-colorful@v1.0.3",
        "pkg:golang/github.com/muesli/clusters@v0.0.0-20200529215643-2700303c1762",
        "pkg:golang/github.com/wcharczuk/go-chart/v2@v2.1.0"
      ]
    },
    {
      "ref": "pkg:golang/github.com/muesli/smolder@v0.0.0-20190505085143-9c21fc7135ee"
    },
    {
      "ref": "pkg:golang/github.com/nicklaw5/helix@v0.5.7"
    },
    {
      "ref": "pkg:golang/github.com/nlopes/slack@v0.6.0",
      "dependsOn": [
        "pkg:golang/github.com/davecgh/go-spew@v1.1.1",
        "pkg:golang/github.com/gorilla/websocket@v1.4.0",
        "pkg:golang/github.com/pkg/errors@v0.8.1",
        "pkg:golang/github.com/pmezard/go-difflib@v1.0.0",
        "pkg:golang/github.com/stretchr/testify@v1.4.0"
      ]
    },
    {
      "ref": "pkg:golang/github.com/nu7hatch/gouuid@v0.0.0-20131221200532-179d4d0c4d8d"
    },
    {
      "ref": "pkg:golang/github.com/odwrtw/transmission@v0.0.0-20170515140915-08885b3058e7"
    },
    {
      "ref": "pkg:golang/github.com/olekukonko/tablewriter@v0.0.1"
    },
    {
      "ref": "pkg:golang/github.com/pkg/errors@v0.8.1"
    },
    {
      "ref": "pkg:golang/github.com/pmezard/go-difflib@v1.0.0"
    },
    {
      "ref": "pkg:golang/github.com/prometheus/client_golang@v0.9.2",
      "dependsOn": [
        "pkg:golang/github.com/beorn7/perks@v0.0.0-20180321164747-3a771d992973",
        "pkg:golang/github.com/golang/protobuf@v1.3.1",
        "pkg:golang/github.com/matttproud/golang_protobuf_extensions@v1.0.1",
        "pkg:golang/github.com/prometheus/client_model@v0.0.0-20180712105110-5c3871d89910",
        "pkg:golang/github.com/prometheus/common@v0.0.0-20181126121408-4724e9255275",
        "pkg:golang/github.com/prometheus/procfs@v0.0.0-20181204211112-1dc9a6cbc91a",
        "pkg:golang/golang.org/x/net@v0.0.0-20191014212845-da9a3fd4c582"
      ]
    },
    {
      "ref": "pkg:golang/github.com/prometheus/client_model@v0.0.0-20180712105110-5c3871d89910"
    },
    {
      "ref": "pkg:golang/github.com/prometheus/common@v0.0.0-20181126121408-4724e9255275"
    },
    {
      "ref": "pkg:golang/github.com/prometheus/procfs@v0.0.0-20181204211112-1dc9a6cbc91a"
    },
    {
      "ref": "pkg:golang/github.com/rdegges/go-ipify@v0.0.0-20150526035502-2d94a6a86c40"
    },
    {
      "ref": "pkg:golang/github.com/robfig/cron/v3@v3.0.1"
    },
    {
      "ref": "pkg:golang/github.com/rogpeppe/go-charset@v0.0.0-20180617210344-2471d30d28b4"
    },
    {
      "ref": "pkg:golang/github.com/shuheiktgw/go-travis@v0.1.10-0.20190502100712-2d0b3e9898f0"
    },
    {
      "ref": "pkg:golang/github.com/simplepush/simplepush-go@v0.0.0-20170307205831-8980e96b7b02"
    },
    {
      "ref": "pkg:golang/github.com/sirupsen/logrus@v1.4.1",
      "dependsOn": [
        "pkg:golang/github.com/davecgh/go-spew@v1.1.1",
        "pkg:golang/github.com/konsorten/go-windows-terminal-sequences@v1.0.2",
        "pkg:golang/github.com/pmezard/go-difflib@v1.0.0",
        "pkg:golang/github.com/stretchr/objx@v0.2.0",
        "pkg:golang/github.com/stretchr/testify@v1.4.0",
        "pkg:golang/golang.org/x/sys@v0.0.0-20191120155948-bd437916bb0e"
      ]
    },
    {
      "ref": "pkg:golang/github.com/sromku/go-gitter@v0.0.0-20170828210750-70f7030a94a6"
    },
    {
      "ref": "pkg:golang/github.com/ssor/bom@v0.0.0-20170718123548-6386211fdfcf"
    },
    {
      "ref": "pkg:golang/github.com/stretchr/objx@v0.2.0",
      "dependsOn": [
        "pkg:golang/github.com/davecgh/go-spew@v1.1.1",
        "pkg:golang/github.com/stretchr/testify@v1.4.0"
      ]
    },
    {
      "ref": "pkg:golang/github.com/stretchr/testify@v1.4.0",
      "dependsOn": [
        "pkg:golang/github.com/davecgh/go-spew@v1.1.1",
        "pkg:golang/github.com/pmezard/go-difflib@v1.0.0",
        "pkg:golang/github.com/stretchr/objx@v0.2.0",
        "pkg:golang/gopkg.in/yaml.v2@v2.3.0"
      ]
    },
    {
      "ref": "pkg:golang/github.com/technoweenie/multipartstreamer@v1.0.1"
    },
    {
      "ref": "pkg:golang/github.com/tomnomnom/linkheader@v0.0.0-20180905144013-02ca5825eb80"
    },
    {
      "ref": "pkg:golang/github.com/trivago/tgo@v1.0.1"
    },
    {
      "ref": "pkg:golang/github.com/wcharczuk/go-chart/v2@v2.1.0",
      "dependsOn": [
        "pkg:golang/github.com/golang/freetype@v0.0.0-20170609003504-e2365dfdc4a0",
        "pkg:golang/golang.org/x/image@v0.0.0-20200927104501-e162460cd6b5"
      ]
    },
    {
      "ref": "pkg:golang/github.com/xrash/smetrics@v0.0.0-20200730060457-89a2a8a1fb0b"
    },
    {
      "ref": "pkg:golang/golang.org/x/crypto@v0.0.0-20190426145343-a29dc8fdc734",
      "dependsOn": [
        "pkg:golang/golang.org/x/net@v0.0.0-20191014212845-da9a3fd4c582",
        "pkg:golang/golang.org/x/sys@v0.0.0-20191120155948-bd437916bb0e"
      ]
    },
    {
      "ref": "pkg:golang/golang.org/x/image@v0.0.0-20200927104501-e162460cd6b5",
      "dependsOn": [
        "pkg:golang/golang.org/x/text@v0.3.2"
      ]
    },
    {
      "ref": "pkg:golang/golang.org/x/net@v0.0.0-20191014212845-da9a3fd4c582",
      "dependsOn": [
        "pkg:golang/golang.org/x/crypto@v0.0.0-20190426145343-a29dc8fdc734",
        "pkg:golang/golang.org/x/sys@v0.0.0-20191120155948-bd437916bb0e",
        "pkg:golang/golang.org/x/text@v0.3.2"
      ]
    },
    {
      "ref": "pkg:golang/golang.org/x/oauth2@v0.0.0-20190402181905-9f3314589c9a",
      "dependsOn": [
        "pkg:golang/golang.org/x/net@v0.0.0-20191014212845-da9a3fd4c582",
        "pkg:golang/google.golang.org/appengine@v1.5.0"
      ]
    },
    {
      "ref": "pkg:golang/golang.org/x/sys@v0.0.0-20191120155948-bd437916bb0e"
    },
    {
      "ref": "pkg:golang/golang.org/x/text@v0.3.2"
    },
    {
      "ref": "pkg:golang/golang.org/x/time@v0.0.0-20190921001708-c4c64cad1fd0"
    },
    {
      "ref": "pkg:golang/google.golang.org/appengine@v1.5.0",
      "dependsOn": [
        "pkg:golang/github.com/golang/protobuf@v1.3.1",
        "pkg:golang/golang.org/x/net@v0.0.0-20191014212845-da9a3fd4c582",
        "pkg:golang/golang.org/x/text@v0.3.2"
      ]
    },
    {
      "ref": "pkg:golang/gopkg.in/alexcesaro/quotedprintable.v3@v3.0.0-20150716171945-2caba252f4dc"
    },
    {
      "ref": "pkg:golang/gopkg.in/yaml.v2@v2.3.0"
    },
    {
      "ref": "pkg:golang/jaytaylor.com/html2text@v0.0.0-20200412013138-3577fbdbcff7"
    },
    {
      "ref": "pkg:golang/layeh.com/gumble@v0.0.0-20180508205105-1ea1159c4956"
    },
    {
      "ref": "pkg:golang/github.com/muesli/beehive@v0.0.0-20211213200442-d636b697737d",
      "dependsOn": [
        "pkg:golang/github.com/ChimeraCoder/anaconda@v2.0.0",
        "pkg:golang/github.com/ChimeraCoder/tokenbucket@v0.0.0-20131201223612-c5a927568de7",
        "pkg:golang/github.com/CleverbotIO/go-cleverbot.io@v0.0.0-20170417080108-d24926702e8d",
        "pkg:golang/github.com/MariaTerzieva/gotumblr@v0.0.0-20170505145609-93ca5e50a3fd",
        "pkg:golang/github.com/Profpatsch/GoOse@v0.0.0-20181012194242-da5de31b9bd2",
        "pkg:golang/github.com/PuerkitoBio/goquery@v1.5.0",
        "pkg:golang/github.com/akashshinde/go_cricket@v0.0.0-20170322162016-01a06b2c3f22",
        "pkg:golang/github.com/andygrunwald/go-jira@v1.13.0",
        "pkg:golang/github.com/araddon/dateparse@v0.0.0-20190426192744-0d74ffceef83",
        "pkg:golang/github.com/asaskevich/EventBus@v0.0.0-20180315140547-d46933a94f05",
        "pkg:golang/github.com/azr/backoff@v0.0.0-20160115115103-53511d3c7330",
        "pkg:golang/github.com/briandowns/openweathermap@v0.0.0-20180804155945-5f41b7c9d92d",
        "pkg:golang/github.com/bwmarrin/discordgo@v0.23.1",
        "pkg:golang/github.com/carlosdp/twiliogo@v0.0.0-20161027183705-b26045ebb9d1",
        "pkg:golang/github.com/cloudflare/cloudflare-go@v0.10.6",
        "pkg:golang/github.com/coreos/go-systemd@v0.0.0-20190719114852-fd7a80b32e1f",
        "pkg:golang/github.com/deckarep/gosx-notifier@v0.0.0-20180201035817-e127226297fb",
        "pkg:golang/github.com/dustin/go-jsonpointer@v0.0.0-20160814072949-ba0abeacc3dc",
        "pkg:golang/github.com/dustin/gojson@v0.0.0-20160307161227-2e71ec9dd5ad",
        "pkg:golang/github.com/emicklei/go-restful@v2.9.3",
        "pkg:golang/github.com/fatih/set@v0.2.1",
        "pkg:golang/github.com/flashmob/go-guerrilla@v1.6.1",
        "pkg:golang/github.com/fluffle/goirc@v1.0.1",
        "pkg:golang/github.com/fsnotify/fsnotify@v1.4.7",
        "pkg:golang/github.com/garyburd/go-oauth@v0.0.0-20180319155456-bca2e7f09a17",
        "pkg:golang/github.com/gempir/go-twitch-irc/v2@v2.2.2",
        "pkg:golang/github.com/gigawattio/window@v0.0.0-20180317192513-0f5467e35573",
        "pkg:golang/github.com/glaxx/go_pastebin@v0.0.0-20170619211819-7e72d56770d0",
        "pkg:golang/github.com/go-ini/ini@v1.42.0",
        "pkg:golang/github.com/go-mail/mail@v2.3.1",
        "pkg:golang/github.com/go-redis/redis@v6.15.6",
        "pkg:golang/github.com/go-telegram-bot-api/telegram-bot-api@v1.0.1-0.20200319042609-5e339ed016b0",
        "pkg:golang/github.com/golang/mock@v1.2.0",
        "pkg:golang/github.com/golang/protobuf@v1.3.1",
        "pkg:golang/github.com/google/go-github@v17.0.0",
        "pkg:golang/github.com/google/go-querystring@v1.0.0",
        "pkg:golang/github.com/guelfey/go.dbus@v0.0.0-20131113121618-f6a3a2366cc3",
        "pkg:golang/github.com/horrendus/go-mixcloud@v0.0.0-20190427074402-c2164c9e194c",
        "pkg:golang/github.com/huandu/facebook@v2.3.1",
        "pkg:golang/github.com/jacobsa/go-serial@v0.0.0-20180131005756-15cf729a72d4",
        "pkg:golang/github.com/jayeshsolanki93/devgorant@v0.0.0-20160810172004-69fb03e5c3b1",
        "pkg:golang/github.com/jaytaylor/html2text@v0.0.0-20190408195923-01ec452cbe43",
        "pkg:golang/github.com/jpillora/backoff@v1.0.0",
        "pkg:golang/github.com/json-iterator/go@v1.1.6",
        "pkg:golang/github.com/kelvins/sunrisesunset@v0.0.0-20170601204625-14f1915ad4b4",
        "pkg:golang/github.com/konsorten/go-windows-terminal-sequences@v1.0.2",
        "pkg:golang/github.com/kr/pretty@v0.1.0",
        "pkg:golang/github.com/kurrik/oauth1a@v0.0.0-20151019171716-cb1b80e32dd4",
        "pkg:golang/github.com/lucasb-eyer/go-colorful@v1.0.3",
        "pkg:golang/github.com/mattn/go-colorable@v0.1.1",
        "pkg:golang/github.com/mattn/go-isatty@v0.0.7",
        "pkg:golang/github.com/mattn/go-mastodon@v0.0.3",
        "pkg:golang/github.com/mattn/go-xmpp@v0.0.0-20190124093244-6093f50721ed",
        "pkg:golang/github.com/minio/minio-go@v6.0.14",
        "pkg:golang/github.com/modern-go/concurrent@v0.0.0-20180306012644-bacd9c7ef1dd",
        "pkg:golang/github.com/modern-go/reflect2@v1.0.1",
        "pkg:golang/github.com/mreiferson/go-httpclient@v0.0.0-20160630210159-31f0106b4474",
        "pkg:golang/github.com/mrexodia/wray@v0.0.0-20160318003008-78a2c1f284ff",
        "pkg:golang/github.com/muesli/gamut@v0.2.0",
        "pkg:golang/github.com/muesli/go-app-paths@v0.2.1",
        "pkg:golang/github.com/muesli/go-pkg-rss@v0.0.0-20180307042412-3bef0f3126ec",
        "pkg:golang/github.com/muesli/go-pkg-xmlx@v0.0.0-20151201012946-76f54ee73233",
        "pkg:golang/github.com/muesli/go.hue@v0.0.0-20140802040715-8aefcc693caf",
        "pkg:golang/github.com/muesli/goefa@v0.0.0-20180507204150-08d8ee2555d2",
        "pkg:golang/github.com/muesli/gominatim@v0.1.1-0.20200501135808-f6af22631c72",
        "pkg:golang/github.com/muesli/smolder@v0.0.0-20190505085143-9c21fc7135ee",
        "pkg:golang/github.com/nicklaw5/helix@v0.5.7",
        "pkg:golang/github.com/nlopes/slack@v0.6.0",
        "pkg:golang/github.com/nu7hatch/gouuid@v0.0.0-20131221200532-179d4d0c4d8d",
        "pkg:golang/github.com/odwrtw/transmission@v0.0.0-20170515140915-08885b3058e7",
        "pkg:golang/github.com/prometheus/client_golang@v0.9.2",
        "pkg:golang/github.com/rdegges/go-ipify@v0.0.0-20150526035502-2d94a6a86c40",
        "pkg:golang/github.com/robfig/cron/v3@v3.0.1",
        "pkg:golang/github.com/rogpeppe/go-charset@v0.0.0-20180617210344-2471d30d28b4",
        "pkg:golang/github.com/shuheiktgw/go-travis@v0.1.10-0.20190502100712-2d0b3e9898f0",
        "pkg:golang/github.com/simplepush/simplepush-go@v0.0.0-20170307205831-8980e96b7b02",
        "pkg:golang/github.com/sirupsen/logrus@v1.4.1",
        "pkg:golang/github.com/sromku/go-gitter@v0.0.0-20170828210750-70f7030a94a6",
        "pkg:golang/github.com/ssor/bom@v0.0.0-20170718123548-6386211fdfcf",
        "pkg:golang/github.com/stretchr/objx@v0.2.0",
        "pkg:golang/github.com/tomnomnom/linkheader@v0.0.0-20180905144013-02ca5825eb80",
        "pkg:golang/golang.org/x/crypto@v0.0.0-20190426145343-a29dc8fdc734",
        "pkg:golang/golang.org/x/oauth2@v0.0.0-20190402181905-9f3314589c9a",
        "pkg:golang/golang.org/x/text@v0.3.2",
        "pkg:golang/google.golang.org/appengine@v1.5.0",
        "pkg:golang/gopkg.in/alexcesaro/quotedprintable.v3@v3.0.0-20150716171945-2caba252f4dc",
        "pkg:golang/gopkg.in/yaml.v2@v2.3.0",
        "pkg:golang/jaytaylor.com/html2text@v0.0.0-20200412013138-3577fbdbcff7",
        "pkg:golang/layeh.com/gumble@v0.0.0-20180508205105-1ea1159c4956"
      ]
    }
  ]
}
