{
  "bomFormat": "CycloneDX",
  "specVersion": "1.3",
  "serialNumber": "urn:uuid:a2c79d09-8d33-4ffd-b206-06d421171248",
  "version": 1,
  "metadata": {
    "timestamp": "2022-06-06T19:32:47Z",
    "tools": [
      {
        "vendor": "AppThreat",
        "name": "cdxgen",
        "version": "3.0.10"
      },
      {
        "vendor": "Fortress Information Security",
        "name": "Github Extractor",
        "version": "1.15.1"
      }
    ],
    "authors": [
      {
        "name": "Team AppThreat",
        "email": "cloud@appthreat.com"
      },
      {
        "name": "Fortress Information Security",
        "email": "sales@fortressinfosec.com",
        "phone": "1-407-573-6800"
      }
    ],
    "component": {
      "type": "application",
      "name": "rust",
      "version": "libloading",
      "group": "nagisa",
      "externalReferences": [
        {
          "url": "https://github.com/nagisa/rust.git",
          "type": "distribution"
        },
        {
          "type": "website",
          "url": "http://www.rust-lang.org",
          "comment": "As set via `homepage` in Github API"
        }
      ]
    }
  },
  "components": [
    {
      "type": "library",
      "bom-ref": "pkg:crates/libloading@1",
      "group": "",
      "name": "libloading",
      "version": "1",
      "description": "",
      "purl": "pkg:crates/libloading@1"
    }
  ],
  "externalReferences": [
    {
      "url": "/project/src",
      "type": "other",
      "comment": "Base path"
    },
    {
      "url": "/project/src/Cargo.toml",
      "type": "other",
      "comment": "Package file"
    }
  ]
}
