{
  "bomFormat": "CycloneDX",
  "specVersion": "1.3",
  "version": 1,
  "metadata": {
    "tools": [
      {
        "vendor": "CycloneDX",
        "name": "cyclonedx-gomod",
        "version": "v0.0.0-unset",
        "hashes": [
          {
            "alg": "MD5",
            "content": "a35776fc9417e8071d3f1dcfa2f1dd19"
          },
          {
            "alg": "SHA-1",
            "content": "a19a8eed713eff5a2092e5283c201a146f19421d"
          },
          {
            "alg": "SHA-256",
            "content": "17b3b980b9a5d0f48ad52043dee5b31aff3ae6599a36bc94224dc7b6a46759ef"
          },
          {
            "alg": "SHA-512",
            "content": "9d4f06aab20cede94a1aedf11a300ae9de98871235c68c72e421cd6d45495910861b39e743ee0eceb11bbdcd2c9acc3312c19064cfe90177243fb43127fcfa46"
          }
        ]
      },
      {
        "vendor": "AppThreat",
        "name": "cdxgen",
        "version": "3.0.10"
      },
      {
        "vendor": "Fortress Information Security",
        "name": "Github Extractor",
        "version": "1.15.1"
      }
    ],
    "authors": [
      {
        "name": "Fortress Information Security",
        "email": "sales@fortressinfosec.com",
        "phone": "1-407-573-6800"
      }
    ],
    "timestamp": "2022-06-01T21:00:00Z",
    "component": {
      "type": "application",
      "name": "merlin",
      "version": "v1.4.1",
      "group": "Ne0nd0g",
      "externalReferences": [
        {
          "url": "https://github.com/Ne0nd0g/merlin.git",
          "type": "distribution"
        },
        {
          "type": "website",
          "url": "null",
          "comment": "As set via `homepage` in Github API"
        }
      ]
    }
  },
  "components": [
    {
      "type": "library",
      "bom-ref": "pkg:golang/github.com/Binject/debug@v0.0.0-20201228082058-60012895f187",
      "name": "github.com/Binject/debug",
      "version": "v0.0.0-20201228082058-60012895f187",
      "scope": "required",
      "hashes": [
        {
          "alg": "SHA-256",
          "content": "d57f63613ec7ab57e13c8bfa6b96ebdaf89039569ea74f3bf17b2fe2ee1597e2"
        }
      ],
      "purl": "pkg:golang/github.com/Binject/debug@v0.0.0-20201228082058-60012895f187",
      "externalReferences": [
        {
          "url": "https://github.com/Binject/debug",
          "type": "vcs"
        }
      ]
    },
    {
      "type": "library",
      "bom-ref": "pkg:golang/github.com/Binject/go-donut@v0.0.0-20201215224200-d947cf4d090d",
      "name": "github.com/Binject/go-donut",
      "version": "v0.0.0-20201215224200-d947cf4d090d",
      "scope": "required",
      "hashes": [
        {
          "alg": "SHA-256",
          "content": "a759db5195644e76b9256d235299a75da2dcf5e9c5dc2c1c462b18c14b8d8b3e"
        }
      ],
      "purl": "pkg:golang/github.com/Binject/go-donut@v0.0.0-20201215224200-d947cf4d090d",
      "externalReferences": [
        {
          "url": "https://github.com/Binject/go-donut",
          "type": "vcs"
        }
      ]
    },
    {
      "type": "library",
      "bom-ref": "pkg:golang/github.com/cheekybits/genny@v1.0.0",
      "name": "github.com/cheekybits/genny",
      "version": "v1.0.0",
      "scope": "required",
      "hashes": [
        {
          "alg": "SHA-256",
          "content": "b8619ae277a2fa3db4ace49e0de3f939fd765d59bb4c651de1d240f510e2b5f1"
        }
      ],
      "purl": "pkg:golang/github.com/cheekybits/genny@v1.0.0",
      "externalReferences": [
        {
          "url": "https://github.com/cheekybits/genny",
          "type": "vcs"
        }
      ]
    },
    {
      "type": "library",
      "bom-ref": "pkg:golang/github.com/chzyer/readline@v0.0.0-20180603132655-2972be24d48e",
      "name": "github.com/chzyer/readline",
      "version": "v0.0.0-20180603132655-2972be24d48e",
      "scope": "required",
      "hashes": [
        {
          "alg": "SHA-256",
          "content": "7d8e41392a72642a91a393a10ae0be5cdfabfdb04299ebae26d8f3f9b08d21ff"
        }
      ],
      "purl": "pkg:golang/github.com/chzyer/readline@v0.0.0-20180603132655-2972be24d48e",
      "externalReferences": [
        {
          "url": "https://github.com/chzyer/readline",
          "type": "vcs"
        }
      ]
    },
    {
      "type": "library",
      "bom-ref": "pkg:golang/github.com/cretz/gopaque@v0.1.0",
      "name": "github.com/cretz/gopaque",
      "version": "v0.1.0",
      "scope": "required",
      "hashes": [
        {
          "alg": "SHA-256",
          "content": "ac2f9ca0eecbcd79ecb721bb166c0ad170fba15f77b60f4467e165db264e7ada"
        }
      ],
      "purl": "pkg:golang/github.com/cretz/gopaque@v0.1.0",
      "externalReferences": [
        {
          "url": "https://github.com/cretz/gopaque",
          "type": "vcs"
        }
      ]
    },
    {
      "type": "library",
      "bom-ref": "pkg:golang/github.com/fatih/color@v1.7.0",
      "name": "github.com/fatih/color",
      "version": "v1.7.0",
      "scope": "required",
      "hashes": [
        {
          "alg": "SHA-256",
          "content": "0e4583e284b60fc2c61a04d0e88bf02495d22f9569d9f7dc420e7c9c5577f18b"
        }
      ],
      "purl": "pkg:golang/github.com/fatih/color@v1.7.0",
      "externalReferences": [
        {
          "url": "https://github.com/fatih/color",
          "type": "vcs"
        }
      ]
    },
    {
      "type": "library",
      "bom-ref": "pkg:golang/github.com/fsnotify/fsnotify@v1.4.9",
      "name": "github.com/fsnotify/fsnotify",
      "version": "v1.4.9",
      "scope": "required",
      "hashes": [
        {
          "alg": "SHA-256",
          "content": "86c9acd50caed23827c0d5c8c5afbf57f3c3b14e827cb7fa08d3bc1fb216a12e"
        }
      ],
      "purl": "pkg:golang/github.com/fsnotify/fsnotify@v1.4.9",
      "externalReferences": [
        {
          "url": "https://github.com/fsnotify/fsnotify",
          "type": "vcs"
        }
      ]
    },
    {
      "type": "library",
      "bom-ref": "pkg:golang/github.com/go-task/slim-sprig@v0.0.0-20210107165309-348f09dbbbc0",
      "name": "github.com/go-task/slim-sprig",
      "version": "v0.0.0-20210107165309-348f09dbbbc0",
      "scope": "required",
      "hashes": [
        {
          "alg": "SHA-256",
          "content": "a75d38927e3a43c59dbc7ba7209f5d0328cf56dac13e14abdca4f6c94b2de372"
        }
      ],
      "purl": "pkg:golang/github.com/go-task/slim-sprig@v0.0.0-20210107165309-348f09dbbbc0",
      "externalReferences": [
        {
          "url": "https://github.com/go-task/slim-sprig",
          "type": "vcs"
        }
      ]
    },
    {
      "type": "library",
      "bom-ref": "pkg:golang/github.com/google/uuid@v1.2.0",
      "name": "github.com/google/uuid",
      "version": "v1.2.0",
      "scope": "required",
      "hashes": [
        {
          "alg": "SHA-256",
          "content": "a8962d5e72515a6a5eee6ff75e5ca1aec2eb11446a1d1336931ce8c57ab2503b"
        }
      ],
      "purl": "pkg:golang/github.com/google/uuid@v1.2.0",
      "externalReferences": [
        {
          "url": "https://github.com/google/uuid",
          "type": "vcs"
        }
      ]
    },
    {
      "type": "library",
      "bom-ref": "pkg:golang/github.com/lucas-clemente/quic-go@v0.27.0",
      "name": "github.com/lucas-clemente/quic-go",
      "version": "v0.27.0",
      "scope": "required",
      "hashes": [
        {
          "alg": "SHA-256",
          "content": "bfa598f3babdcc3e1d28049b1bc872fcba73015373110cf0f2c1087a5a09b1ce"
        }
      ],
      "purl": "pkg:golang/github.com/lucas-clemente/quic-go@v0.27.0",
      "externalReferences": [
        {
          "url": "https://github.com/lucas-clemente/quic-go",
          "type": "vcs"
        }
      ]
    },
    {
      "type": "library",
      "bom-ref": "pkg:golang/github.com/marten-seemann/qpack@v0.2.1",
      "name": "github.com/marten-seemann/qpack",
      "version": "v0.2.1",
      "scope": "required",
      "hashes": [
        {
          "alg": "SHA-256",
          "content": "8ef4ec4ff1e90a7d9464974ff94501e7715f51481e3b21b92b59ecd0e24e195b"
        }
      ],
      "purl": "pkg:golang/github.com/marten-seemann/qpack@v0.2.1",
      "externalReferences": [
        {
          "url": "https://github.com/marten-seemann/qpack",
          "type": "vcs"
        }
      ]
    },
    {
      "type": "library",
      "bom-ref": "pkg:golang/github.com/marten-seemann/qtls-go1-16@v0.1.5",
      "name": "github.com/marten-seemann/qtls-go1-16",
      "version": "v0.1.5",
      "scope": "required",
      "hashes": [
        {
          "alg": "SHA-256",
          "content": "a3d26b60f3dca3f36e91dfc7a4e1cc1d9a010d742aa0db540a69f2f7cff5baa4"
        }
      ],
      "purl": "pkg:golang/github.com/marten-seemann/qtls-go1-16@v0.1.5",
      "externalReferences": [
        {
          "url": "https://github.com/marten-seemann/qtls-go1-16",
          "type": "vcs"
        }
      ]
    },
    {
      "type": "library",
      "bom-ref": "pkg:golang/github.com/marten-seemann/qtls-go1-17@v0.1.1",
      "name": "github.com/marten-seemann/qtls-go1-17",
      "version": "v0.1.1",
      "scope": "required",
      "hashes": [
        {
          "alg": "SHA-256",
          "content": "0d08c73eaf9a3b351e87dfe58b1006ba79faac8390c960a13d2238fa1816ee37"
        }
      ],
      "purl": "pkg:golang/github.com/marten-seemann/qtls-go1-17@v0.1.1",
      "externalReferences": [
        {
          "url": "https://github.com/marten-seemann/qtls-go1-17",
          "type": "vcs"
        }
      ]
    },
    {
      "type": "library",
      "bom-ref": "pkg:golang/github.com/marten-seemann/qtls-go1-18@v0.1.1",
      "name": "github.com/marten-seemann/qtls-go1-18",
      "version": "v0.1.1",
      "scope": "required",
      "hashes": [
        {
          "alg": "SHA-256",
          "content": "aa9ee9ed75d414bedfa41bd24b5b160feb92a8fbf33502b8dc31fefea1248f46"
        }
      ],
      "purl": "pkg:golang/github.com/marten-seemann/qtls-go1-18@v0.1.1",
      "externalReferences": [
        {
          "url": "https://github.com/marten-seemann/qtls-go1-18",
          "type": "vcs"
        }
      ]
    },
    {
      "type": "library",
      "bom-ref": "pkg:golang/github.com/mattn/go-colorable@v0.1.2",
      "name": "github.com/mattn/go-colorable",
      "version": "v0.1.2",
      "scope": "required",
      "hashes": [
        {
          "alg": "SHA-256",
          "content": "fdb0bdc968a465700bf6e25dba56d27f254d211de7dedad797ebfcfb5b31f265"
        }
      ],
      "purl": "pkg:golang/github.com/mattn/go-colorable@v0.1.2",
      "externalReferences": [
        {
          "url": "https://github.com/mattn/go-colorable",
          "type": "vcs"
        }
      ]
    },
    {
      "type": "library",
      "bom-ref": "pkg:golang/github.com/mattn/go-isatty@v0.0.8",
      "name": "github.com/mattn/go-isatty",
      "version": "v0.0.8",
      "scope": "required",
      "hashes": [
        {
          "alg": "SHA-256",
          "content": "1cbb44c49fae5361ce67ec08d13b790ed503af1f32854a83729edf604457e021"
        }
      ],
      "purl": "pkg:golang/github.com/mattn/go-isatty@v0.0.8",
      "externalReferences": [
        {
          "url": "https://github.com/mattn/go-isatty",
          "type": "vcs"
        }
      ]
    },
    {
      "type": "library",
      "bom-ref": "pkg:golang/github.com/mattn/go-runewidth@v0.0.4",
      "name": "github.com/mattn/go-runewidth",
      "version": "v0.0.4",
      "scope": "required",
      "hashes": [
        {
          "alg": "SHA-256",
          "content": "d81bdf2a6ce86fa06677862c2f4cf280ea9f7459caec647840bd3a0e8e3fa7b6"
        }
      ],
      "purl": "pkg:golang/github.com/mattn/go-runewidth@v0.0.4",
      "externalReferences": [
        {
          "url": "https://github.com/mattn/go-runewidth",
          "type": "vcs"
        }
      ]
    },
    {
      "type": "library",
      "bom-ref": "pkg:golang/github.com/mattn/go-shellwords@v1.0.5",
      "name": "github.com/mattn/go-shellwords",
      "version": "v1.0.5",
      "scope": "required",
      "hashes": [
        {
          "alg": "SHA-256",
          "content": "2618454c83ac961e59b0fae96b759d83c6c5d162376f8e0431b96653dc08b177"
        }
      ],
      "purl": "pkg:golang/github.com/mattn/go-shellwords@v1.0.5",
      "externalReferences": [
        {
          "url": "https://github.com/mattn/go-shellwords",
          "type": "vcs"
        }
      ]
    },
    {
      "type": "library",
      "bom-ref": "pkg:golang/github.com/nxadm/tail@v1.4.8",
      "name": "github.com/nxadm/tail",
      "version": "v1.4.8",
      "scope": "required",
      "hashes": [
        {
          "alg": "SHA-256",
          "content": "9cfafae6bb7a63924548a40eeea4e85ebee978f803e86c22c34e6591bc804131"
        }
      ],
      "purl": "pkg:golang/github.com/nxadm/tail@v1.4.8",
      "externalReferences": [
        {
          "url": "https://github.com/nxadm/tail",
          "type": "vcs"
        }
      ]
    },
    {
      "type": "library",
      "bom-ref": "pkg:golang/github.com/olekukonko/tablewriter@v0.0.1",
      "name": "github.com/olekukonko/tablewriter",
      "version": "v0.0.1",
      "scope": "required",
      "hashes": [
        {
          "alg": "SHA-256",
          "content": "6f78949dfd6ffa9a4988e7cd5f8cb1c6a7d628c40f651e72a21f2eac24c55fcf"
        }
      ],
      "purl": "pkg:golang/github.com/olekukonko/tablewriter@v0.0.1",
      "externalReferences": [
        {
          "url": "https://github.com/olekukonko/tablewriter",
          "type": "vcs"
        }
      ]
    },
    {
      "type": "library",
      "bom-ref": "pkg:golang/github.com/onsi/ginkgo@v1.16.4",
      "name": "github.com/onsi/ginkgo",
      "version": "v1.16.4",
      "scope": "required",
      "hashes": [
        {
          "alg": "SHA-256",
          "content": "dbd246aebe685419b9ba50967adebdcd09335a2a555c8a25eb281051efc4ccd7"
        }
      ],
      "purl": "pkg:golang/github.com/onsi/ginkgo@v1.16.4",
      "externalReferences": [
        {
          "url": "https://github.com/onsi/ginkgo",
          "type": "vcs"
        }
      ]
    },
    {
      "type": "library",
      "bom-ref": "pkg:golang/github.com/satori/go.uuid@v1.2.0",
      "name": "github.com/satori/go.uuid",
      "version": "v1.2.0",
      "scope": "required",
      "hashes": [
        {
          "alg": "SHA-256",
          "content": "d2e617f5db19db20fbab646d2d1b4f49d1835b38de3374db3093fdbad800d30c"
        }
      ],
      "purl": "pkg:golang/github.com/satori/go.uuid@v1.2.0",
      "externalReferences": [
        {
          "url": "https://github.com/satori/go.uuid",
          "type": "vcs"
        }
      ]
    },
    {
      "type": "library",
      "bom-ref": "pkg:golang/go.dedis.ch/fixbuf@v1.0.3",
      "name": "go.dedis.ch/fixbuf",
      "version": "v1.0.3",
      "scope": "required",
      "hashes": [
        {
          "alg": "SHA-256",
          "content": "846715f4277fce753196eb09eb8780944c52fb97090c8c93c841bea2dbb9c10b"
        }
      ],
      "purl": "pkg:golang/go.dedis.ch/fixbuf@v1.0.3"
    },
    {
      "type": "library",
      "bom-ref": "pkg:golang/go.dedis.ch/kyber/v3@v3.0.12",
      "name": "go.dedis.ch/kyber/v3",
      "version": "v3.0.12",
      "scope": "required",
      "hashes": [
        {
          "alg": "SHA-256",
          "content": "d7977ad44c81701a05212f7b912d9cfd5cf8a37151f002e7676724f49fde6d83"
        }
      ],
      "purl": "pkg:golang/go.dedis.ch/kyber/v3@v3.0.12"
    },
    {
      "type": "library",
      "bom-ref": "pkg:golang/golang.org/x/crypto@v0.0.0-20200709230013-948cd5f35899",
      "name": "golang.org/x/crypto",
      "version": "v0.0.0-20200709230013-948cd5f35899",
      "scope": "required",
      "hashes": [
        {
          "alg": "SHA-256",
          "content": "0d986e4992ec1a514be029a103c05c440d269ed87203f9d9d3402a094a3bbc78"
        }
      ],
      "purl": "pkg:golang/golang.org/x/crypto@v0.0.0-20200709230013-948cd5f35899"
    },
    {
      "type": "library",
      "bom-ref": "pkg:golang/golang.org/x/mod@v0.4.2",
      "name": "golang.org/x/mod",
      "version": "v0.4.2",
      "scope": "required",
      "hashes": [
        {
          "alg": "SHA-256",
          "content": "1b3f7ab0858adce6a556ffc8fea37280fe36cf2a0aa77c69b5154259114406fa"
        }
      ],
      "purl": "pkg:golang/golang.org/x/mod@v0.4.2"
    },
    {
      "type": "library",
      "bom-ref": "pkg:golang/golang.org/x/net@v0.0.0-20210726213435-c6fcb2dbf985",
      "name": "golang.org/x/net",
      "version": "v0.0.0-20210726213435-c6fcb2dbf985",
      "scope": "required",
      "hashes": [
        {
          "alg": "SHA-256",
          "content": "e02488ea8a3b70e8c929a8e2744963b3d87eb8fd2b45904f3cf85c09b8f99b0f"
        }
      ],
      "purl": "pkg:golang/golang.org/x/net@v0.0.0-20210726213435-c6fcb2dbf985"
    },
    {
      "type": "library",
      "bom-ref": "pkg:golang/golang.org/x/sync@v0.0.0-20210220032951-036812b2e83c",
      "name": "golang.org/x/sync",
      "version": "v0.0.0-20210220032951-036812b2e83c",
      "scope": "required",
      "hashes": [
        {
          "alg": "SHA-256",
          "content": "e4ab25198c05a6484687e435e9bc0c3f770ea27b47f0539ea7bb4657ce98ed24"
        }
      ],
      "purl": "pkg:golang/golang.org/x/sync@v0.0.0-20210220032951-036812b2e83c"
    },
    {
      "type": "library",
      "bom-ref": "pkg:golang/golang.org/x/sys@v0.0.0-20210630005230-0f9fa26af87c",
      "name": "golang.org/x/sys",
      "version": "v0.0.0-20210630005230-0f9fa26af87c",
      "scope": "required",
      "hashes": [
        {
          "alg": "SHA-256",
          "content": "1758d958616161f8740a2e79b08a482ed28a2bca778b6fe4ad3af41f5ae0ef82"
        }
      ],
      "purl": "pkg:golang/golang.org/x/sys@v0.0.0-20210630005230-0f9fa26af87c"
    },
    {
      "type": "library",
      "bom-ref": "pkg:golang/golang.org/x/text@v0.3.6",
      "name": "golang.org/x/text",
      "version": "v0.3.6",
      "scope": "required",
      "hashes": [
        {
          "alg": "SHA-256",
          "content": "691631371bfa886425c956999a4e998181036be260d7c0f179b3d2adde9b8353"
        }
      ],
      "purl": "pkg:golang/golang.org/x/text@v0.3.6"
    },
    {
      "type": "library",
      "bom-ref": "pkg:golang/golang.org/x/tools@v0.1.1",
      "name": "golang.org/x/tools",
      "version": "v0.1.1",
      "scope": "required",
      "hashes": [
        {
          "alg": "SHA-256",
          "content": "c068907a5fe15b436712425493c95bce45f6805254e8f1717f5bf93a509fb8eb"
        }
      ],
      "purl": "pkg:golang/golang.org/x/tools@v0.1.1"
    },
    {
      "type": "library",
      "bom-ref": "pkg:golang/golang.org/x/xerrors@v0.0.0-20200804184101-5ec99f83aff1",
      "name": "golang.org/x/xerrors",
      "version": "v0.0.0-20200804184101-5ec99f83aff1",
      "scope": "required",
      "hashes": [
        {
          "alg": "SHA-256",
          "content": "828d5b2bf0ff045655d88f1c21077534a119fb4a304931b57c34dc8b822a15c1"
        }
      ],
      "purl": "pkg:golang/golang.org/x/xerrors@v0.0.0-20200804184101-5ec99f83aff1"
    },
    {
      "type": "library",
      "bom-ref": "pkg:golang/gopkg.in/square/go-jose.v2@v2.3.1",
      "name": "gopkg.in/square/go-jose.v2",
      "version": "v2.3.1",
      "scope": "required",
      "hashes": [
        {
          "alg": "SHA-256",
          "content": "48ae4a7a035798a9aa137e36618376a8f1c49d461ea0c8975e5d69a14948fa8e"
        }
      ],
      "purl": "pkg:golang/gopkg.in/square/go-jose.v2@v2.3.1",
      "externalReferences": [
        {
          "url": "https://github.com/square/go-jose",
          "type": "vcs"
        }
      ]
    },
    {
      "type": "library",
      "bom-ref": "pkg:golang/gopkg.in/tomb.v1@v1.0.0-20141024135613-dd632973f1e7",
      "name": "gopkg.in/tomb.v1",
      "version": "v1.0.0-20141024135613-dd632973f1e7",
      "scope": "required",
      "hashes": [
        {
          "alg": "SHA-256",
          "content": "b9118975c88e1da108af37b65bc43700a91ea4b4e1da13aba13edafbb7337dd4"
        }
      ],
      "purl": "pkg:golang/gopkg.in/tomb.v1@v1.0.0-20141024135613-dd632973f1e7",
      "externalReferences": [
        {
          "url": "https://github.com/go-tomb/tomb",
          "type": "vcs"
        }
      ]
    },
    {
      "type": "library",
      "bom-ref": "pkg:golang/github.com/Ne0nd0g/merlin",
      "group": "github.com/Ne0nd0g",
      "name": "merlin",
      "version": "",
      "description": "",
      "scope": "required",
      "purl": "pkg:golang/github.com/Ne0nd0g/merlin"
    }
  ],
  "dependencies": [
    {
      "ref": "pkg:golang/github.com/Binject/debug@v0.0.0-20201228082058-60012895f187"
    },
    {
      "ref": "pkg:golang/github.com/Binject/go-donut@v0.0.0-20201215224200-d947cf4d090d"
    },
    {
      "ref": "pkg:golang/github.com/cheekybits/genny@v1.0.0"
    },
    {
      "ref": "pkg:golang/github.com/chzyer/readline@v0.0.0-20180603132655-2972be24d48e"
    },
    {
      "ref": "pkg:golang/github.com/cretz/gopaque@v0.1.0",
      "dependsOn": [
        "pkg:golang/go.dedis.ch/kyber/v3@v3.0.12",
        "pkg:golang/golang.org/x/crypto@v0.0.0-20200709230013-948cd5f35899",
        "pkg:golang/golang.org/x/sys@v0.0.0-20210630005230-0f9fa26af87c"
      ]
    },
    {
      "ref": "pkg:golang/github.com/fatih/color@v1.7.0"
    },
    {
      "ref": "pkg:golang/github.com/fsnotify/fsnotify@v1.4.9",
      "dependsOn": [
        "pkg:golang/golang.org/x/sys@v0.0.0-20210630005230-0f9fa26af87c"
      ]
    },
    {
      "ref": "pkg:golang/github.com/go-task/slim-sprig@v0.0.0-20210107165309-348f09dbbbc0"
    },
    {
      "ref": "pkg:golang/github.com/google/uuid@v1.2.0"
    },
    {
      "ref": "pkg:golang/github.com/lucas-clemente/quic-go@v0.27.0",
      "dependsOn": [
        "pkg:golang/github.com/cheekybits/genny@v1.0.0",
        "pkg:golang/github.com/marten-seemann/qpack@v0.2.1",
        "pkg:golang/github.com/marten-seemann/qtls-go1-16@v0.1.5",
        "pkg:golang/github.com/marten-seemann/qtls-go1-17@v0.1.1",
        "pkg:golang/github.com/marten-seemann/qtls-go1-18@v0.1.1",
        "pkg:golang/github.com/onsi/ginkgo@v1.16.4",
        "pkg:golang/golang.org/x/crypto@v0.0.0-20200709230013-948cd5f35899",
        "pkg:golang/golang.org/x/net@v0.0.0-20210726213435-c6fcb2dbf985",
        "pkg:golang/golang.org/x/sync@v0.0.0-20210220032951-036812b2e83c",
        "pkg:golang/golang.org/x/sys@v0.0.0-20210630005230-0f9fa26af87c"
      ]
    },
    {
      "ref": "pkg:golang/github.com/marten-seemann/qpack@v0.2.1",
      "dependsOn": [
        "pkg:golang/github.com/onsi/ginkgo@v1.16.4",
        "pkg:golang/golang.org/x/net@v0.0.0-20210726213435-c6fcb2dbf985"
      ]
    },
    {
      "ref": "pkg:golang/github.com/marten-seemann/qtls-go1-16@v0.1.5",
      "dependsOn": [
        "pkg:golang/golang.org/x/crypto@v0.0.0-20200709230013-948cd5f35899",
        "pkg:golang/golang.org/x/sys@v0.0.0-20210630005230-0f9fa26af87c"
      ]
    },
    {
      "ref": "pkg:golang/github.com/marten-seemann/qtls-go1-17@v0.1.1",
      "dependsOn": [
        "pkg:golang/golang.org/x/crypto@v0.0.0-20200709230013-948cd5f35899",
        "pkg:golang/golang.org/x/sys@v0.0.0-20210630005230-0f9fa26af87c"
      ]
    },
    {
      "ref": "pkg:golang/github.com/marten-seemann/qtls-go1-18@v0.1.1",
      "dependsOn": [
        "pkg:golang/golang.org/x/crypto@v0.0.0-20200709230013-948cd5f35899",
        "pkg:golang/golang.org/x/sys@v0.0.0-20210630005230-0f9fa26af87c"
      ]
    },
    {
      "ref": "pkg:golang/github.com/mattn/go-colorable@v0.1.2",
      "dependsOn": [
        "pkg:golang/github.com/mattn/go-isatty@v0.0.8"
      ]
    },
    {
      "ref": "pkg:golang/github.com/mattn/go-isatty@v0.0.8",
      "dependsOn": [
        "pkg:golang/golang.org/x/sys@v0.0.0-20210630005230-0f9fa26af87c"
      ]
    },
    {
      "ref": "pkg:golang/github.com/mattn/go-runewidth@v0.0.4"
    },
    {
      "ref": "pkg:golang/github.com/mattn/go-shellwords@v1.0.5"
    },
    {
      "ref": "pkg:golang/github.com/nxadm/tail@v1.4.8",
      "dependsOn": [
        "pkg:golang/github.com/fsnotify/fsnotify@v1.4.9",
        "pkg:golang/gopkg.in/tomb.v1@v1.0.0-20141024135613-dd632973f1e7"
      ]
    },
    {
      "ref": "pkg:golang/github.com/olekukonko/tablewriter@v0.0.1"
    },
    {
      "ref": "pkg:golang/github.com/onsi/ginkgo@v1.16.4",
      "dependsOn": [
        "pkg:golang/github.com/go-task/slim-sprig@v0.0.0-20210107165309-348f09dbbbc0",
        "pkg:golang/github.com/nxadm/tail@v1.4.8",
        "pkg:golang/golang.org/x/sys@v0.0.0-20210630005230-0f9fa26af87c",
        "pkg:golang/golang.org/x/tools@v0.1.1"
      ]
    },
    {
      "ref": "pkg:golang/github.com/satori/go.uuid@v1.2.0"
    },
    {
      "ref": "pkg:golang/go.dedis.ch/fixbuf@v1.0.3"
    },
    {
      "ref": "pkg:golang/go.dedis.ch/kyber/v3@v3.0.12",
      "dependsOn": [
        "pkg:golang/go.dedis.ch/fixbuf@v1.0.3",
        "pkg:golang/golang.org/x/crypto@v0.0.0-20200709230013-948cd5f35899",
        "pkg:golang/golang.org/x/sys@v0.0.0-20210630005230-0f9fa26af87c"
      ]
    },
    {
      "ref": "pkg:golang/golang.org/x/crypto@v0.0.0-20200709230013-948cd5f35899",
      "dependsOn": [
        "pkg:golang/golang.org/x/net@v0.0.0-20210726213435-c6fcb2dbf985",
        "pkg:golang/golang.org/x/sys@v0.0.0-20210630005230-0f9fa26af87c"
      ]
    },
    {
      "ref": "pkg:golang/golang.org/x/mod@v0.4.2",
      "dependsOn": [
        "pkg:golang/golang.org/x/crypto@v0.0.0-20200709230013-948cd5f35899",
        "pkg:golang/golang.org/x/tools@v0.1.1",
        "pkg:golang/golang.org/x/xerrors@v0.0.0-20200804184101-5ec99f83aff1"
      ]
    },
    {
      "ref": "pkg:golang/golang.org/x/net@v0.0.0-20210726213435-c6fcb2dbf985",
      "dependsOn": [
        "pkg:golang/golang.org/x/sys@v0.0.0-20210630005230-0f9fa26af87c",
        "pkg:golang/golang.org/x/text@v0.3.6"
      ]
    },
    {
      "ref": "pkg:golang/golang.org/x/sync@v0.0.0-20210220032951-036812b2e83c"
    },
    {
      "ref": "pkg:golang/golang.org/x/sys@v0.0.0-20210630005230-0f9fa26af87c"
    },
    {
      "ref": "pkg:golang/golang.org/x/text@v0.3.6",
      "dependsOn": [
        "pkg:golang/golang.org/x/tools@v0.1.1"
      ]
    },
    {
      "ref": "pkg:golang/golang.org/x/tools@v0.1.1",
      "dependsOn": [
        "pkg:golang/golang.org/x/mod@v0.4.2",
        "pkg:golang/golang.org/x/net@v0.0.0-20210726213435-c6fcb2dbf985",
        "pkg:golang/golang.org/x/sync@v0.0.0-20210220032951-036812b2e83c",
        "pkg:golang/golang.org/x/sys@v0.0.0-20210630005230-0f9fa26af87c",
        "pkg:golang/golang.org/x/xerrors@v0.0.0-20200804184101-5ec99f83aff1"
      ]
    },
    {
      "ref": "pkg:golang/golang.org/x/xerrors@v0.0.0-20200804184101-5ec99f83aff1"
    },
    {
      "ref": "pkg:golang/gopkg.in/square/go-jose.v2@v2.3.1"
    },
    {
      "ref": "pkg:golang/gopkg.in/tomb.v1@v1.0.0-20141024135613-dd632973f1e7"
    },
    {
      "ref": "pkg:golang/github.com/Ne0nd0g/merlin@v0.0.0-20220412192051-0a3cbf83753b",
      "dependsOn": [
        "pkg:golang/github.com/Binject/debug@v0.0.0-20201228082058-60012895f187",
        "pkg:golang/github.com/Binject/go-donut@v0.0.0-20201215224200-d947cf4d090d",
        "pkg:golang/github.com/chzyer/readline@v0.0.0-20180603132655-2972be24d48e",
        "pkg:golang/github.com/cretz/gopaque@v0.1.0",
        "pkg:golang/github.com/fatih/color@v1.7.0",
        "pkg:golang/github.com/google/uuid@v1.2.0",
        "pkg:golang/github.com/lucas-clemente/quic-go@v0.27.0",
        "pkg:golang/github.com/mattn/go-colorable@v0.1.2",
        "pkg:golang/github.com/mattn/go-runewidth@v0.0.4",
        "pkg:golang/github.com/mattn/go-shellwords@v1.0.5",
        "pkg:golang/github.com/olekukonko/tablewriter@v0.0.1",
        "pkg:golang/github.com/satori/go.uuid@v1.2.0",
        "pkg:golang/go.dedis.ch/kyber/v3@v3.0.12",
        "pkg:golang/golang.org/x/crypto@v0.0.0-20200709230013-948cd5f35899",
        "pkg:golang/golang.org/x/net@v0.0.0-20210726213435-c6fcb2dbf985",
        "pkg:golang/golang.org/x/sync@v0.0.0-20210220032951-036812b2e83c",
        "pkg:golang/golang.org/x/sys@v0.0.0-20210630005230-0f9fa26af87c",
        "pkg:golang/gopkg.in/square/go-jose.v2@v2.3.1"
      ]
    }
  ]
}
