{
  "bomFormat": "CycloneDX",
  "specVersion": "1.3",
  "version": 1,
  "metadata": {
    "tools": [
      {
        "vendor": "CycloneDX",
        "name": "Node.js module",
        "version": "3.0.3"
      },
      {
        "vendor": "cyclonedx",
        "name": "cyclonedx-php-composer",
        "version": "dev-master"
      },
      {
        "vendor": "AppThreat",
        "name": "cdxgen",
        "version": "3.0.10"
      },
      {
        "vendor": "Fortress Information Security",
        "name": "Github Extractor",
        "version": "1.15.1"
      }
    ],
    "authors": [
      {
        "name": "Fortress Information Security",
        "email": "sales@fortressinfosec.com",
        "phone": "1-407-573-6800"
      }
    ],
    "timestamp": "2022-06-01T21:00:00Z",
    "component": {
      "type": "application",
      "name": "tracy",
      "version": "v2.9.3",
      "group": "nette",
      "externalReferences": [
        {
          "url": "https://github.com/nette/tracy.git",
          "type": "distribution"
        },
        {
          "type": "website",
          "url": "https://tracy.nette.org",
          "comment": "As set via `homepage` in Github API"
        }
      ]
    }
  },
  "components": [
    {
      "type": "library",
      "bom-ref": "pkg:composer/cyclonedx/cyclonedx-library@dev-master",
      "group": "cyclonedx",
      "name": "cyclonedx-library",
      "version": "dev-master",
      "description": "Work with CycloneDX Software Bill-of-Materials (SBOM)",
      "licenses": [
        {
          "license": {
            "id": "Apache-2.0"
          }
        }
      ],
      "purl": "pkg:composer/cyclonedx/cyclonedx-library@dev-master",
      "externalReferences": [
        {
          "url": "https://github.com/CycloneDX/cyclonedx-php-library.git",
          "type": "distribution",
          "comment": "As detected by composer's `getSourceUrls()` (type=git & reference=b80df0d2ce140dad374b8887054ce1b86828f40b)"
        },
        {
          "url": "https://api.github.com/repos/CycloneDX/cyclonedx-php-library/zipball/b80df0d2ce140dad374b8887054ce1b86828f40b",
          "type": "distribution",
          "comment": "As detected by composer's `getDistUrls()` (type=zip & reference=b80df0d2ce140dad374b8887054ce1b86828f40b & sha1=UNDEFINED)"
        },
        {
          "url": "https://github.com/CycloneDX/cyclonedx-php-library/",
          "type": "website",
          "comment": "As set via `homepage` in composer package definition."
        },
        {
          "url": "https://github.com/CycloneDX/cyclonedx-php-library/issues",
          "type": "issue-tracker",
          "comment": "As set via `support.issues` in composer package definition."
        },
        {
          "url": "https://github.com/CycloneDX/cyclonedx-php-library/tree/master",
          "type": "distribution",
          "comment": "As set via `support.source` in composer package definition."
        }
      ]
    },
    {
      "type": "application",
      "bom-ref": "pkg:composer/cyclonedx/cyclonedx-php-composer@dev-master",
      "group": "cyclonedx",
      "name": "cyclonedx-php-composer",
      "version": "dev-master",
      "description": "Creates CycloneDX Software Bill-of-Materials (SBOM) from PHP Composer projects",
      "licenses": [
        {
          "license": {
            "id": "Apache-2.0"
          }
        }
      ],
      "purl": "pkg:composer/cyclonedx/cyclonedx-php-composer@dev-master",
      "externalReferences": [
        {
          "url": "https://github.com/CycloneDX/cyclonedx-php-composer.git",
          "type": "distribution",
          "comment": "As detected by composer's `getSourceUrls()` (type=git & reference=6bcb650503f21be764997a0d5c4d82f651a42d10)"
        },
        {
          "url": "https://api.github.com/repos/CycloneDX/cyclonedx-php-composer/zipball/6bcb650503f21be764997a0d5c4d82f651a42d10",
          "type": "distribution",
          "comment": "As detected by composer's `getDistUrls()` (type=zip & reference=6bcb650503f21be764997a0d5c4d82f651a42d10 & sha1=UNDEFINED)"
        },
        {
          "url": "https://github.com/CycloneDX/cyclonedx-php-composer/",
          "type": "website",
          "comment": "As set via `homepage` in composer package definition."
        },
        {
          "url": "https://github.com/CycloneDX/cyclonedx-php-composer/issues",
          "type": "issue-tracker",
          "comment": "As set via `support.issues` in composer package definition."
        },
        {
          "url": "https://github.com/CycloneDX/cyclonedx-php-composer/tree/master",
          "type": "distribution",
          "comment": "As set via `support.source` in composer package definition."
        }
      ]
    },
    {
      "type": "library",
      "bom-ref": "pkg:composer/latte/latte@v2.11.x-dev",
      "group": "latte",
      "name": "latte",
      "version": "v2.11.x-dev",
      "description": "☕ Latte: the intuitive and fast template engine for those who want the most secure PHP sites. Introduces context-sensitive escaping.",
      "licenses": [
        {
          "license": {
            "id": "BSD-3-Clause"
          }
        }
      ],
      "purl": "pkg:composer/latte/latte@v2.11.x-dev",
      "externalReferences": [
        {
          "url": "https://github.com/nette/latte.git",
          "type": "distribution",
          "comment": "As detected by composer's `getSourceUrls()` (type=git & reference=11075c9522cf2a9fd2e91e918bca19d8ca0ab8e5)"
        },
        {
          "url": "https://api.github.com/repos/nette/latte/zipball/11075c9522cf2a9fd2e91e918bca19d8ca0ab8e5",
          "type": "distribution",
          "comment": "As detected by composer's `getDistUrls()` (type=zip & reference=11075c9522cf2a9fd2e91e918bca19d8ca0ab8e5 & sha1=UNDEFINED)"
        },
        {
          "url": "https://latte.nette.org",
          "type": "website",
          "comment": "As set via `homepage` in composer package definition."
        },
        {
          "url": "https://github.com/nette/latte/issues",
          "type": "issue-tracker",
          "comment": "As set via `support.issues` in composer package definition."
        },
        {
          "url": "https://github.com/nette/latte/tree/v2.11",
          "type": "distribution",
          "comment": "As set via `support.source` in composer package definition."
        }
      ]
    },
    {
      "type": "library",
      "bom-ref": "pkg:composer/nette/di@v3.1.x-dev",
      "group": "nette",
      "name": "di",
      "version": "v3.1.x-dev",
      "description": "💎 Nette Dependency Injection Container: Flexible, compiled and full-featured DIC with perfectly usable autowiring and support for all new PHP features.",
      "licenses": [
        {
          "license": {
            "id": "BSD-3-Clause"
          }
        }
      ],
      "purl": "pkg:composer/nette/di@v3.1.x-dev",
      "externalReferences": [
        {
          "url": "https://github.com/nette/di.git",
          "type": "distribution",
          "comment": "As detected by composer's `getSourceUrls()` (type=git & reference=8ba7d09c4029f4313979b1f21ec440ad8b7f28d1)"
        },
        {
          "url": "https://api.github.com/repos/nette/di/zipball/8ba7d09c4029f4313979b1f21ec440ad8b7f28d1",
          "type": "distribution",
          "comment": "As detected by composer's `getDistUrls()` (type=zip & reference=8ba7d09c4029f4313979b1f21ec440ad8b7f28d1 & sha1=UNDEFINED)"
        },
        {
          "url": "https://nette.org",
          "type": "website",
          "comment": "As set via `homepage` in composer package definition."
        },
        {
          "url": "https://github.com/nette/di/issues",
          "type": "issue-tracker",
          "comment": "As set via `support.issues` in composer package definition."
        },
        {
          "url": "https://github.com/nette/di/tree/v3.1",
          "type": "distribution",
          "comment": "As set via `support.source` in composer package definition."
        }
      ]
    },
    {
      "type": "library",
      "bom-ref": "pkg:composer/nette/finder@v2.6.x-dev",
      "group": "nette",
      "name": "finder",
      "version": "v2.6.x-dev",
      "description": "🔍 Nette Finder: find files and directories with an intuitive API.",
      "licenses": [
        {
          "license": {
            "id": "BSD-3-Clause"
          }
        }
      ],
      "purl": "pkg:composer/nette/finder@v2.6.x-dev",
      "externalReferences": [
        {
          "url": "https://github.com/nette/finder.git",
          "type": "distribution",
          "comment": "As detected by composer's `getSourceUrls()` (type=git & reference=2071d25db90e7e2a483b18e463466d13dc78f2a1)"
        },
        {
          "url": "https://api.github.com/repos/nette/finder/zipball/2071d25db90e7e2a483b18e463466d13dc78f2a1",
          "type": "distribution",
          "comment": "As detected by composer's `getDistUrls()` (type=zip & reference=2071d25db90e7e2a483b18e463466d13dc78f2a1 & sha1=UNDEFINED)"
        },
        {
          "url": "https://nette.org",
          "type": "website",
          "comment": "As set via `homepage` in composer package definition."
        },
        {
          "url": "https://github.com/nette/finder/issues",
          "type": "issue-tracker",
          "comment": "As set via `support.issues` in composer package definition."
        },
        {
          "url": "https://github.com/nette/finder/tree/v2.6",
          "type": "distribution",
          "comment": "As set via `support.source` in composer package definition."
        }
      ]
    },
    {
      "type": "library",
      "bom-ref": "pkg:composer/nette/mail@v3.1.x-dev",
      "group": "nette",
      "name": "mail",
      "version": "v3.1.x-dev",
      "description": "📧 Nette Mail: handy email creation and transfer library for PHP with both text and MIME-compliant support.",
      "licenses": [
        {
          "license": {
            "id": "BSD-3-Clause"
          }
        }
      ],
      "purl": "pkg:composer/nette/mail@v3.1.x-dev",
      "externalReferences": [
        {
          "url": "https://github.com/nette/mail.git",
          "type": "distribution",
          "comment": "As detected by composer's `getSourceUrls()` (type=git & reference=31be3c759e95c01e1bc1b4d5620d70ffbdc04f5b)"
        },
        {
          "url": "https://api.github.com/repos/nette/mail/zipball/31be3c759e95c01e1bc1b4d5620d70ffbdc04f5b",
          "type": "distribution",
          "comment": "As detected by composer's `getDistUrls()` (type=zip & reference=31be3c759e95c01e1bc1b4d5620d70ffbdc04f5b & sha1=UNDEFINED)"
        },
        {
          "url": "https://nette.org",
          "type": "website",
          "comment": "As set via `homepage` in composer package definition."
        },
        {
          "url": "https://github.com/nette/mail/issues",
          "type": "issue-tracker",
          "comment": "As set via `support.issues` in composer package definition."
        },
        {
          "url": "https://github.com/nette/mail/tree/v3.1",
          "type": "distribution",
          "comment": "As set via `support.source` in composer package definition."
        }
      ]
    },
    {
      "type": "library",
      "bom-ref": "pkg:composer/nette/neon@dev-master",
      "group": "nette",
      "name": "neon",
      "version": "dev-master",
      "description": "🍸 Nette NEON: encodes and decodes NEON file format.",
      "licenses": [
        {
          "license": {
            "id": "BSD-3-Clause"
          }
        }
      ],
      "purl": "pkg:composer/nette/neon@dev-master",
      "externalReferences": [
        {
          "url": "https://github.com/nette/neon.git",
          "type": "distribution",
          "comment": "As detected by composer's `getSourceUrls()` (type=git & reference=739f10c50b1cd027d452dd452682527a39c668a8)"
        },
        {
          "url": "https://api.github.com/repos/nette/neon/zipball/739f10c50b1cd027d452dd452682527a39c668a8",
          "type": "distribution",
          "comment": "As detected by composer's `getDistUrls()` (type=zip & reference=739f10c50b1cd027d452dd452682527a39c668a8 & sha1=UNDEFINED)"
        },
        {
          "url": "https://ne-on.org",
          "type": "website",
          "comment": "As set via `homepage` in composer package definition."
        },
        {
          "url": "https://github.com/nette/neon/issues",
          "type": "issue-tracker",
          "comment": "As set via `support.issues` in composer package definition."
        },
        {
          "url": "https://github.com/nette/neon/tree/master",
          "type": "distribution",
          "comment": "As set via `support.source` in composer package definition."
        }
      ]
    },
    {
      "type": "library",
      "bom-ref": "pkg:composer/nette/php-generator@dev-master",
      "group": "nette",
      "name": "php-generator",
      "version": "dev-master",
      "description": "🐘 Nette PHP Generator: generates neat PHP code for you. Supports new PHP 8.1 features.",
      "licenses": [
        {
          "license": {
            "id": "BSD-3-Clause"
          }
        }
      ],
      "purl": "pkg:composer/nette/php-generator@dev-master",
      "externalReferences": [
        {
          "url": "https://github.com/nette/php-generator.git",
          "type": "distribution",
          "comment": "As detected by composer's `getSourceUrls()` (type=git & reference=f4376ef22004b29060254626e585beed295c4689)"
        },
        {
          "url": "https://api.github.com/repos/nette/php-generator/zipball/f4376ef22004b29060254626e585beed295c4689",
          "type": "distribution",
          "comment": "As detected by composer's `getDistUrls()` (type=zip & reference=f4376ef22004b29060254626e585beed295c4689 & sha1=UNDEFINED)"
        },
        {
          "url": "https://nette.org",
          "type": "website",
          "comment": "As set via `homepage` in composer package definition."
        },
        {
          "url": "https://github.com/nette/php-generator/issues",
          "type": "issue-tracker",
          "comment": "As set via `support.issues` in composer package definition."
        },
        {
          "url": "https://github.com/nette/php-generator/tree/master",
          "type": "distribution",
          "comment": "As set via `support.source` in composer package definition."
        }
      ]
    },
    {
      "type": "library",
      "bom-ref": "pkg:composer/nette/robot-loader@v3.4.x-dev",
      "group": "nette",
      "name": "robot-loader",
      "version": "v3.4.x-dev",
      "description": "🍀 Nette RobotLoader: high performance and comfortable autoloader that will search and autoload classes within your application.",
      "licenses": [
        {
          "license": {
            "id": "BSD-3-Clause"
          }
        }
      ],
      "purl": "pkg:composer/nette/robot-loader@v3.4.x-dev",
      "externalReferences": [
        {
          "url": "https://github.com/nette/robot-loader.git",
          "type": "distribution",
          "comment": "As detected by composer's `getSourceUrls()` (type=git & reference=0354992a767dcb615883c310a7f215fa82413da9)"
        },
        {
          "url": "https://api.github.com/repos/nette/robot-loader/zipball/0354992a767dcb615883c310a7f215fa82413da9",
          "type": "distribution",
          "comment": "As detected by composer's `getDistUrls()` (type=zip & reference=0354992a767dcb615883c310a7f215fa82413da9 & sha1=UNDEFINED)"
        },
        {
          "url": "https://nette.org",
          "type": "website",
          "comment": "As set via `homepage` in composer package definition."
        },
        {
          "url": "https://github.com/nette/robot-loader/issues",
          "type": "issue-tracker",
          "comment": "As set via `support.issues` in composer package definition."
        },
        {
          "url": "https://github.com/nette/robot-loader/tree/v3.4",
          "type": "distribution",
          "comment": "As set via `support.source` in composer package definition."
        }
      ]
    },
    {
      "type": "library",
      "bom-ref": "pkg:composer/nette/schema@v1.2.x-dev",
      "group": "nette",
      "name": "schema",
      "version": "v1.2.x-dev",
      "description": "📐 Nette Schema: validating data structures against a given Schema.",
      "licenses": [
        {
          "license": {
            "id": "BSD-3-Clause"
          }
        }
      ],
      "purl": "pkg:composer/nette/schema@v1.2.x-dev",
      "externalReferences": [
        {
          "url": "https://github.com/nette/schema.git",
          "type": "distribution",
          "comment": "As detected by composer's `getSourceUrls()` (type=git & reference=664c2cdf2660346639ef4f9223d44e44e9b91d1a)"
        },
        {
          "url": "https://api.github.com/repos/nette/schema/zipball/664c2cdf2660346639ef4f9223d44e44e9b91d1a",
          "type": "distribution",
          "comment": "As detected by composer's `getDistUrls()` (type=zip & reference=664c2cdf2660346639ef4f9223d44e44e9b91d1a & sha1=UNDEFINED)"
        },
        {
          "url": "https://nette.org",
          "type": "website",
          "comment": "As set via `homepage` in composer package definition."
        },
        {
          "url": "https://github.com/nette/schema/issues",
          "type": "issue-tracker",
          "comment": "As set via `support.issues` in composer package definition."
        },
        {
          "url": "https://github.com/nette/schema/tree/v1.2",
          "type": "distribution",
          "comment": "As set via `support.source` in composer package definition."
        }
      ]
    },
    {
      "type": "library",
      "bom-ref": "pkg:composer/nette/tester@dev-master",
      "group": "nette",
      "name": "tester",
      "version": "dev-master",
      "description": "Nette Tester: enjoyable unit testing in PHP with code coverage reporter. 🍏🍏🍎🍏",
      "licenses": [
        {
          "license": {
            "id": "BSD-3-Clause"
          }
        }
      ],
      "purl": "pkg:composer/nette/tester@dev-master",
      "externalReferences": [
        {
          "url": "https://github.com/nette/tester.git",
          "type": "distribution",
          "comment": "As detected by composer's `getSourceUrls()` (type=git & reference=fd9d510bfcc20acfc0e0cfa35fdb5109478b63d4)"
        },
        {
          "url": "https://api.github.com/repos/nette/tester/zipball/fd9d510bfcc20acfc0e0cfa35fdb5109478b63d4",
          "type": "distribution",
          "comment": "As detected by composer's `getDistUrls()` (type=zip & reference=fd9d510bfcc20acfc0e0cfa35fdb5109478b63d4 & sha1=UNDEFINED)"
        },
        {
          "url": "https://tester.nette.org",
          "type": "website",
          "comment": "As set via `homepage` in composer package definition."
        },
        {
          "url": "https://github.com/nette/tester/issues",
          "type": "issue-tracker",
          "comment": "As set via `support.issues` in composer package definition."
        },
        {
          "url": "https://github.com/nette/tester/tree/master",
          "type": "distribution",
          "comment": "As set via `support.source` in composer package definition."
        }
      ]
    },
    {
      "type": "library",
      "bom-ref": "pkg:composer/nette/utils@v3.2.x-dev",
      "group": "nette",
      "name": "utils",
      "version": "v3.2.x-dev",
      "description": "🛠 Nette Utils: lightweight utilities for string & array manipulation, image handling, safe JSON encoding/decoding, validation, slug or strong password generating etc.",
      "licenses": [
        {
          "license": {
            "id": "BSD-3-Clause"
          }
        }
      ],
      "purl": "pkg:composer/nette/utils@v3.2.x-dev",
      "externalReferences": [
        {
          "url": "https://github.com/nette/utils.git",
          "type": "distribution",
          "comment": "As detected by composer's `getSourceUrls()` (type=git & reference=535bbc7f34aa4733d3c0b48f6ab43ebf4af5ab73)"
        },
        {
          "url": "https://api.github.com/repos/nette/utils/zipball/535bbc7f34aa4733d3c0b48f6ab43ebf4af5ab73",
          "type": "distribution",
          "comment": "As detected by composer's `getDistUrls()` (type=zip & reference=535bbc7f34aa4733d3c0b48f6ab43ebf4af5ab73 & sha1=UNDEFINED)"
        },
        {
          "url": "https://nette.org",
          "type": "website",
          "comment": "As set via `homepage` in composer package definition."
        },
        {
          "url": "https://github.com/nette/utils/issues",
          "type": "issue-tracker",
          "comment": "As set via `support.issues` in composer package definition."
        },
        {
          "url": "https://github.com/nette/utils/tree/v3.2",
          "type": "distribution",
          "comment": "As set via `support.source` in composer package definition."
        }
      ]
    },
    {
      "type": "library",
      "bom-ref": "pkg:composer/package-url/packageurl-php@1.0.4",
      "group": "package-url",
      "name": "packageurl-php",
      "version": "1.0.4",
      "description": "A parser and builder based on the package url spec.",
      "licenses": [
        {
          "license": {
            "id": "MIT"
          }
        }
      ],
      "purl": "pkg:composer/package-url/packageurl-php@1.0.4",
      "externalReferences": [
        {
          "url": "https://github.com/package-url/packageurl-php.git",
          "type": "distribution",
          "comment": "As detected by composer's `getSourceUrls()` (type=git & reference=c45953babed516d27a0cf6c1a2d9f7e883ce214f)"
        },
        {
          "url": "https://api.github.com/repos/package-url/packageurl-php/zipball/c45953babed516d27a0cf6c1a2d9f7e883ce214f",
          "type": "distribution",
          "comment": "As detected by composer's `getDistUrls()` (type=zip & reference=c45953babed516d27a0cf6c1a2d9f7e883ce214f & sha1=UNDEFINED)"
        },
        {
          "url": "https://github.com/package-url/packageurl-php",
          "type": "website",
          "comment": "As set via `homepage` in composer package definition."
        },
        {
          "url": "https://github.com/package-url/packageurl-php/issues",
          "type": "issue-tracker",
          "comment": "As set via `support.issues` in composer package definition."
        },
        {
          "url": "https://github.com/package-url/packageurl-php/tree/1.0.4",
          "type": "distribution",
          "comment": "As set via `support.source` in composer package definition."
        }
      ]
    },
    {
      "type": "library",
      "bom-ref": "pkg:composer/phplang/scope-exit@1.0.0",
      "group": "phplang",
      "name": "scope-exit",
      "version": "1.0.0",
      "description": "Emulation of SCOPE_EXIT construct from C++",
      "licenses": [
        {
          "license": {
            "name": "BSD"
          }
        }
      ],
      "purl": "pkg:composer/phplang/scope-exit@1.0.0",
      "externalReferences": [
        {
          "url": "https://github.com/phplang/scope-exit.git",
          "type": "distribution",
          "comment": "As detected by composer's `getSourceUrls()` (type=git & reference=239b73abe89f9414aa85a7ca075ec9445629192b)"
        },
        {
          "url": "https://api.github.com/repos/phplang/scope-exit/zipball/239b73abe89f9414aa85a7ca075ec9445629192b",
          "type": "distribution",
          "comment": "As detected by composer's `getDistUrls()` (type=zip & reference=239b73abe89f9414aa85a7ca075ec9445629192b & sha1=UNDEFINED)"
        },
        {
          "url": "https://github.com/phplang/scope-exit",
          "type": "website",
          "comment": "As set via `homepage` in composer package definition."
        },
        {
          "url": "https://github.com/phplang/scope-exit/issues",
          "type": "issue-tracker",
          "comment": "As set via `support.issues` in composer package definition."
        },
        {
          "url": "https://github.com/phplang/scope-exit/tree/master",
          "type": "distribution",
          "comment": "As set via `support.source` in composer package definition."
        }
      ]
    },
    {
      "type": "library",
      "bom-ref": "pkg:composer/phpstan/phpstan@1.7.x-dev",
      "group": "phpstan",
      "name": "phpstan",
      "version": "1.7.x-dev",
      "description": "PHPStan - PHP Static Analysis Tool",
      "licenses": [
        {
          "license": {
            "id": "MIT"
          }
        }
      ],
      "purl": "pkg:composer/phpstan/phpstan@1.7.x-dev",
      "externalReferences": [
        {
          "url": "https://github.com/phpstan/phpstan.git",
          "type": "distribution",
          "comment": "As detected by composer's `getSourceUrls()` (type=git & reference=095f6c6b757c62a73711740c376dde9df0be1c33)"
        },
        {
          "url": "https://api.github.com/repos/phpstan/phpstan/zipball/095f6c6b757c62a73711740c376dde9df0be1c33",
          "type": "distribution",
          "comment": "As detected by composer's `getDistUrls()` (type=zip & reference=095f6c6b757c62a73711740c376dde9df0be1c33 & sha1=UNDEFINED)"
        },
        {
          "url": "https://github.com/phpstan/phpstan/issues",
          "type": "issue-tracker",
          "comment": "As set via `support.issues` in composer package definition."
        },
        {
          "url": "https://github.com/phpstan/phpstan/tree/1.7.x",
          "type": "distribution",
          "comment": "As set via `support.source` in composer package definition."
        },
        {
          "url": "https://github.com/ondrejmirtes",
          "type": "other",
          "comment": "As set via `funding` in composer package definition. (type=github)"
        },
        {
          "url": "https://github.com/phpstan",
          "type": "other",
          "comment": "As set via `funding` in composer package definition. (type=github)"
        },
        {
          "url": "https://www.patreon.com/phpstan",
          "type": "other",
          "comment": "As set via `funding` in composer package definition. (type=patreon)"
        },
        {
          "url": "https://tidelift.com/funding/github/packagist/phpstan/phpstan",
          "type": "other",
          "comment": "As set via `funding` in composer package definition. (type=tidelift)"
        }
      ]
    },
    {
      "type": "library",
      "bom-ref": "pkg:composer/psr/log@dev-master",
      "group": "psr",
      "name": "log",
      "version": "dev-master",
      "description": "Common interface for logging libraries",
      "licenses": [
        {
          "license": {
            "id": "MIT"
          }
        }
      ],
      "purl": "pkg:composer/psr/log@dev-master",
      "externalReferences": [
        {
          "url": "https://github.com/php-fig/log.git",
          "type": "distribution",
          "comment": "As detected by composer's `getSourceUrls()` (type=git & reference=fe5ea303b0887d5caefd3d431c3e61ad47037001)"
        },
        {
          "url": "https://api.github.com/repos/php-fig/log/zipball/fe5ea303b0887d5caefd3d431c3e61ad47037001",
          "type": "distribution",
          "comment": "As detected by composer's `getDistUrls()` (type=zip & reference=fe5ea303b0887d5caefd3d431c3e61ad47037001 & sha1=UNDEFINED)"
        },
        {
          "url": "https://github.com/php-fig/log",
          "type": "website",
          "comment": "As set via `homepage` in composer package definition."
        },
        {
          "url": "https://github.com/php-fig/log/tree/3.0.0",
          "type": "distribution",
          "comment": "As set via `support.source` in composer package definition."
        }
      ]
    },
    {
      "type": "library",
      "bom-ref": "pkg:composer/swaggest/json-diff@3.8.3",
      "group": "swaggest",
      "name": "json-diff",
      "version": "3.8.3",
      "description": "JSON diff/rearrange/patch/pointer library for PHP",
      "licenses": [
        {
          "license": {
            "id": "MIT"
          }
        }
      ],
      "purl": "pkg:composer/swaggest/json-diff@3.8.3",
      "externalReferences": [
        {
          "url": "https://github.com/swaggest/json-diff.git",
          "type": "distribution",
          "comment": "As detected by composer's `getSourceUrls()` (type=git & reference=bb3e3b4e9d842bb2e48f31ea568d0459968d1d42)"
        },
        {
          "url": "https://api.github.com/repos/swaggest/json-diff/zipball/bb3e3b4e9d842bb2e48f31ea568d0459968d1d42",
          "type": "distribution",
          "comment": "As detected by composer's `getDistUrls()` (type=zip & reference=bb3e3b4e9d842bb2e48f31ea568d0459968d1d42 & sha1=UNDEFINED)"
        },
        {
          "url": "https://github.com/swaggest/json-diff/issues",
          "type": "issue-tracker",
          "comment": "As set via `support.issues` in composer package definition."
        },
        {
          "url": "https://github.com/swaggest/json-diff/tree/v3.8.3",
          "type": "distribution",
          "comment": "As set via `support.source` in composer package definition."
        }
      ]
    },
    {
      "type": "library",
      "bom-ref": "pkg:composer/swaggest/json-schema@0.12.39",
      "group": "swaggest",
      "name": "json-schema",
      "version": "0.12.39",
      "description": "High definition PHP structures with JSON-schema based validation",
      "licenses": [
        {
          "license": {
            "id": "MIT"
          }
        }
      ],
      "purl": "pkg:composer/swaggest/json-schema@0.12.39",
      "externalReferences": [
        {
          "url": "https://github.com/swaggest/php-json-schema.git",
          "type": "distribution",
          "comment": "As detected by composer's `getSourceUrls()` (type=git & reference=193ba39cce1ffa2d55ddd5445315e945a63298a2)"
        },
        {
          "url": "https://api.github.com/repos/swaggest/php-json-schema/zipball/193ba39cce1ffa2d55ddd5445315e945a63298a2",
          "type": "distribution",
          "comment": "As detected by composer's `getDistUrls()` (type=zip & reference=193ba39cce1ffa2d55ddd5445315e945a63298a2 & sha1=UNDEFINED)"
        },
        {
          "url": "mailto:vearutop@gmail.com",
          "type": "other",
          "comment": "As set via `support.email` in composer package definition."
        },
        {
          "url": "https://github.com/swaggest/php-json-schema/issues",
          "type": "issue-tracker",
          "comment": "As set via `support.issues` in composer package definition."
        },
        {
          "url": "https://github.com/swaggest/php-json-schema/tree/v0.12.39",
          "type": "distribution",
          "comment": "As set via `support.source` in composer package definition."
        }
      ]
    },
    {
      "type": "library",
      "bom-ref": "pkg:composer/symfony/polyfill-mbstring@1.25.0",
      "group": "symfony",
      "name": "polyfill-mbstring",
      "version": "1.25.0",
      "description": "Symfony polyfill for the Mbstring extension",
      "licenses": [
        {
          "license": {
            "id": "MIT"
          }
        }
      ],
      "purl": "pkg:composer/symfony/polyfill-mbstring@1.25.0",
      "externalReferences": [
        {
          "url": "https://github.com/symfony/polyfill-mbstring.git",
          "type": "distribution",
          "comment": "As detected by composer's `getSourceUrls()` (type=git & reference=0abb51d2f102e00a4eefcf46ba7fec406d245825)"
        },
        {
          "url": "https://api.github.com/repos/symfony/polyfill-mbstring/zipball/0abb51d2f102e00a4eefcf46ba7fec406d245825",
          "type": "distribution",
          "comment": "As detected by composer's `getDistUrls()` (type=zip & reference=0abb51d2f102e00a4eefcf46ba7fec406d245825 & sha1=UNDEFINED)"
        },
        {
          "url": "https://symfony.com",
          "type": "website",
          "comment": "As set via `homepage` in composer package definition."
        },
        {
          "url": "https://github.com/symfony/polyfill-mbstring/tree/v1.25.0",
          "type": "distribution",
          "comment": "As set via `support.source` in composer package definition."
        },
        {
          "url": "https://symfony.com/sponsor",
          "type": "other",
          "comment": "As set via `funding` in composer package definition. (type=custom)"
        },
        {
          "url": "https://github.com/fabpot",
          "type": "other",
          "comment": "As set via `funding` in composer package definition. (type=github)"
        },
        {
          "url": "https://tidelift.com/funding/github/packagist/symfony/symfony",
          "type": "other",
          "comment": "As set via `funding` in composer package definition. (type=tidelift)"
        }
      ]
    },
    {
      "type": "library",
      "bom-ref": "pkg:composer/symfony/polyfill-mbstring@1.19.0",
      "group": "symfony",
      "name": "polyfill-mbstring",
      "version": "1.19.0",
      "description": "Symfony polyfill for the Mbstring extension",
      "licenses": [
        {
          "license": {
            "id": "MIT",
            "url": "https://opensource.org/licenses/MIT"
          }
        }
      ],
      "purl": "pkg:composer/symfony/polyfill-mbstring@1.19.0",
      "externalReferences": [
        {
          "url": "https://github.com/symfony/polyfill-mbstring.git",
          "type": "vcs"
        }
      ]
    }
  ],
  "dependencies": [
    {
      "ref": "pkg:composer/cyclonedx/cyclonedx-library@dev-master",
      "dependsOn": [
        "pkg:composer/package-url/packageurl-php@1.0.4",
        "pkg:composer/swaggest/json-schema@0.12.39"
      ]
    },
    {
      "ref": "pkg:composer/cyclonedx/cyclonedx-php-composer@dev-master",
      "dependsOn": [
        "pkg:composer/cyclonedx/cyclonedx-library@dev-master",
        "pkg:composer/package-url/packageurl-php@1.0.4"
      ]
    },
    {
      "ref": "pkg:composer/latte/latte@v2.11.x-dev"
    },
    {
      "ref": "pkg:composer/nette/di@v3.1.x-dev",
      "dependsOn": [
        "pkg:composer/nette/neon@dev-master",
        "pkg:composer/nette/php-generator@dev-master",
        "pkg:composer/nette/robot-loader@v3.4.x-dev",
        "pkg:composer/nette/schema@v1.2.x-dev",
        "pkg:composer/nette/utils@v3.2.x-dev"
      ]
    },
    {
      "ref": "pkg:composer/nette/finder@v2.6.x-dev",
      "dependsOn": [
        "pkg:composer/nette/utils@v3.2.x-dev"
      ]
    },
    {
      "ref": "pkg:composer/nette/mail@v3.1.x-dev",
      "dependsOn": [
        "pkg:composer/nette/utils@v3.2.x-dev"
      ]
    },
    {
      "ref": "pkg:composer/nette/neon@dev-master"
    },
    {
      "ref": "pkg:composer/nette/php-generator@dev-master",
      "dependsOn": [
        "pkg:composer/nette/utils@v3.2.x-dev"
      ]
    },
    {
      "ref": "pkg:composer/nette/robot-loader@v3.4.x-dev",
      "dependsOn": [
        "pkg:composer/nette/finder@v2.6.x-dev",
        "pkg:composer/nette/utils@v3.2.x-dev"
      ]
    },
    {
      "ref": "pkg:composer/nette/schema@v1.2.x-dev",
      "dependsOn": [
        "pkg:composer/nette/utils@v3.2.x-dev"
      ]
    },
    {
      "ref": "pkg:composer/nette/tester@dev-master"
    },
    {
      "ref": "pkg:composer/nette/utils@v3.2.x-dev"
    },
    {
      "ref": "pkg:composer/package-url/packageurl-php@1.0.4"
    },
    {
      "ref": "pkg:composer/phplang/scope-exit@1.0.0"
    },
    {
      "ref": "pkg:composer/phpstan/phpstan@1.7.x-dev"
    },
    {
      "ref": "pkg:composer/psr/log@dev-master"
    },
    {
      "ref": "pkg:composer/swaggest/json-diff@3.8.3"
    },
    {
      "ref": "pkg:composer/swaggest/json-schema@0.12.39",
      "dependsOn": [
        "pkg:composer/phplang/scope-exit@1.0.0",
        "pkg:composer/swaggest/json-diff@3.8.3",
        "pkg:composer/symfony/polyfill-mbstring@1.25.0"
      ]
    },
    {
      "ref": "pkg:composer/symfony/polyfill-mbstring@1.25.0"
    },
    {
      "ref": "pkg:composer/tracy/tracy@3.0.x-dev",
      "dependsOn": [
        "pkg:composer/nette/utils@v3.2.x-dev",
        "pkg:composer/nette/di@v3.1.x-dev",
        "pkg:composer/nette/mail@v3.1.x-dev",
        "pkg:composer/nette/tester@dev-master",
        "pkg:composer/latte/latte@v2.11.x-dev",
        "pkg:composer/psr/log@dev-master",
        "pkg:composer/phpstan/phpstan@1.7.x-dev",
        "pkg:composer/cyclonedx/cyclonedx-php-composer@dev-master"
      ]
    }
  ]
}
