{
  "bomFormat": "CycloneDX",
  "specVersion": "1.3",
  "version": 1,
  "metadata": {
    "tools": [
      {
        "vendor": "CycloneDX",
        "name": "Node.js module",
        "version": "3.0.3"
      },
      {
        "vendor": "AppThreat",
        "name": "cdxgen",
        "version": "3.0.10"
      },
      {
        "vendor": "Fortress Information Security",
        "name": "Github Extractor",
        "version": "1.15.1"
      }
    ],
    "authors": [
      {
        "name": "Fortress Information Security",
        "email": "sales@fortressinfosec.com",
        "phone": "1-407-573-6800"
      }
    ],
    "timestamp": "2022-06-01T21:00:00Z",
    "component": {
      "type": "application",
      "name": "node-oauth2-server",
      "version": "v3.1.1",
      "group": "oauthjs",
      "externalReferences": [
        {
          "url": "https://github.com/oauthjs/node-oauth2-server.git",
          "type": "distribution"
        },
        {
          "type": "website",
          "url": "https://npmjs.org/package/oauth2-server",
          "comment": "As set via `homepage` in Github API"
        }
      ]
    }
  },
  "components": [
    {
      "type": "library",
      "bom-ref": "pkg:npm/basic-auth@2.0.1",
      "name": "basic-auth",
      "version": "2.0.1",
      "description": "node.js basic auth parser",
      "hashes": [
        {
          "alg": "SHA-512",
          "content": "345f9ea6e11d9d4615946ba16b16dbabe76f26db702e7198f988b195794c1392a94395b70a75c0e5c5539de63748f6cf0d191c8cc6e27ebc261587029603997a"
        }
      ],
      "licenses": [
        {
          "license": {
            "id": "MIT"
          }
        }
      ],
      "purl": "pkg:npm/basic-auth@2.0.1",
      "externalReferences": [
        {
          "url": "https://github.com/jshttp/basic-auth#readme",
          "type": "website"
        },
        {
          "url": "https://github.com/jshttp/basic-auth/issues",
          "type": "issue-tracker"
        },
        {
          "url": "git+https://github.com/jshttp/basic-auth.git",
          "type": "vcs"
        }
      ]
    },
    {
      "type": "library",
      "bom-ref": "pkg:npm/safe-buffer@5.1.2",
      "name": "safe-buffer",
      "version": "5.1.2",
      "description": "Safer Node.js Buffer API",
      "hashes": [
        {
          "alg": "SHA-512",
          "content": "19dd94641243917958ec66c9c5fb04f3f9ef2a45045351b7f1cd6c88de903fa6bd3d3f4c98707c1a7a6c71298c252a05f0b388aedf2e77fc0fb688f2b381bafa"
        }
      ],
      "licenses": [
        {
          "license": {
            "id": "MIT"
          }
        }
      ],
      "purl": "pkg:npm/safe-buffer@5.1.2",
      "externalReferences": [
        {
          "url": "https://github.com/feross/safe-buffer",
          "type": "website"
        },
        {
          "url": "https://github.com/feross/safe-buffer/issues",
          "type": "issue-tracker"
        },
        {
          "url": "git://github.com/feross/safe-buffer.git",
          "type": "vcs"
        }
      ]
    },
    {
      "type": "library",
      "bom-ref": "pkg:npm/bluebird@3.7.2",
      "name": "bluebird",
      "version": "3.7.2",
      "description": "Full featured Promises/A+ implementation with exceptionally good performance",
      "hashes": [
        {
          "alg": "SHA-512",
          "content": "5e9363e860d0cdd7d6fabd969e7ef189201ded33378f39311970464ed58ab925efd71515f9acf1026f2375664dd3a413424fb63765c1f6344392f6e6426711b6"
        }
      ],
      "licenses": [
        {
          "license": {
            "id": "MIT"
          }
        }
      ],
      "purl": "pkg:npm/bluebird@3.7.2",
      "externalReferences": [
        {
          "url": "https://github.com/petkaantonov/bluebird",
          "type": "website"
        },
        {
          "url": "http://github.com/petkaantonov/bluebird/issues",
          "type": "issue-tracker"
        },
        {
          "url": "git://github.com/petkaantonov/bluebird.git",
          "type": "vcs"
        }
      ]
    },
    {
      "type": "library",
      "bom-ref": "pkg:npm/lodash@4.17.21",
      "name": "lodash",
      "version": "4.17.21",
      "description": "Lodash modular utilities.",
      "hashes": [
        {
          "alg": "SHA-512",
          "content": "bf690311ee7b95e713ba568322e3533f2dd1cb880b189e99d4edef13592b81764daec43e2c54c61d5c558dc5cfb35ecb85b65519e74026ff17675b6f8f916f4a"
        }
      ],
      "licenses": [
        {
          "license": {
            "id": "MIT"
          }
        }
      ],
      "purl": "pkg:npm/lodash@4.17.21",
      "externalReferences": [
        {
          "url": "https://lodash.com/",
          "type": "website"
        },
        {
          "url": "https://github.com/lodash/lodash/issues",
          "type": "issue-tracker"
        },
        {
          "url": "git+https://github.com/lodash/lodash.git",
          "type": "vcs"
        }
      ]
    },
    {
      "type": "library",
      "bom-ref": "pkg:npm/promisify-any@2.0.1",
      "name": "promisify-any",
      "version": "2.0.1",
      "description": "Promisify any of: callback function, sync function, generator function, promise-returning function",
      "hashes": [
        {
          "alg": "SHA-1",
          "content": "403e00a8813f175242ab50fe33a69f8eece47305"
        }
      ],
      "purl": "pkg:npm/promisify-any@2.0.1",
      "externalReferences": [
        {
          "url": "https://github.com/overlookmotel/promisify-any#readme",
          "type": "website"
        },
        {
          "url": "https://github.com/overlookmotel/promisify-any/issues",
          "type": "issue-tracker"
        },
        {
          "url": "git+https://github.com/overlookmotel/promisify-any.git",
          "type": "vcs"
        }
      ]
    },
    {
      "type": "library",
      "bom-ref": "pkg:npm/bluebird@2.11.0",
      "name": "bluebird",
      "version": "2.11.0",
      "description": "Full featured Promises/A+ implementation with exceptionally good performance",
      "hashes": [
        {
          "alg": "SHA-1",
          "content": "534b9033c022c9579c56ba3b3e5a5caafbb650e1"
        }
      ],
      "licenses": [
        {
          "license": {
            "id": "MIT"
          }
        }
      ],
      "purl": "pkg:npm/bluebird@2.11.0",
      "externalReferences": [
        {
          "url": "https://github.com/petkaantonov/bluebird",
          "type": "website"
        },
        {
          "url": "http://github.com/petkaantonov/bluebird/issues",
          "type": "issue-tracker"
        },
        {
          "url": "git://github.com/petkaantonov/bluebird.git",
          "type": "vcs"
        }
      ]
    },
    {
      "type": "library",
      "bom-ref": "pkg:npm/co-bluebird@1.1.0",
      "name": "co-bluebird",
      "version": "1.1.0",
      "description": "co with bluebird promises",
      "hashes": [
        {
          "alg": "SHA-1",
          "content": "c8b9f3a9320a7ed30987dcca1a5c3cff59655c7c"
        }
      ],
      "purl": "pkg:npm/co-bluebird@1.1.0",
      "externalReferences": [
        {
          "url": "https://github.com/overlookmotel/co-bluebird#readme",
          "type": "website"
        },
        {
          "url": "https://github.com/overlookmotel/co-bluebird/issues",
          "type": "issue-tracker"
        },
        {
          "url": "git+https://github.com/overlookmotel/co-bluebird.git",
          "type": "vcs"
        }
      ]
    },
    {
      "type": "library",
      "bom-ref": "pkg:npm/co-use@1.1.0",
      "name": "co-use",
      "version": "1.1.0",
      "description": "co using your choice of promise implementation",
      "hashes": [
        {
          "alg": "SHA-1",
          "content": "c6bb3cdf10cb735ecaa9daeeda46d725c94a4e62"
        }
      ],
      "purl": "pkg:npm/co-use@1.1.0",
      "externalReferences": [
        {
          "url": "https://github.com/overlookmotel/co-use#readme",
          "type": "website"
        },
        {
          "url": "https://github.com/overlookmotel/co-use/issues",
          "type": "issue-tracker"
        },
        {
          "url": "git+https://github.com/overlookmotel/co-use.git",
          "type": "vcs"
        }
      ]
    },
    {
      "type": "library",
      "bom-ref": "pkg:npm/is-generator@1.0.3",
      "name": "is-generator",
      "version": "1.0.3",
      "description": "Check whether a value is a generator or generator function",
      "hashes": [
        {
          "alg": "SHA-1",
          "content": "c14c21057ed36e328db80347966c693f886389f3"
        }
      ],
      "licenses": [
        {
          "license": {
            "id": "MIT"
          }
        }
      ],
      "purl": "pkg:npm/is-generator@1.0.3",
      "externalReferences": [
        {
          "url": "https://github.com/blakeembrey/is-generator",
          "type": "website"
        },
        {
          "url": "https://github.com/blakeembrey/is-generator/issues",
          "type": "issue-tracker"
        },
        {
          "url": "git://github.com/blakeembrey/is-generator.git",
          "type": "vcs"
        }
      ]
    },
    {
      "type": "library",
      "bom-ref": "pkg:npm/statuses@1.5.0",
      "name": "statuses",
      "version": "1.5.0",
      "description": "HTTP status utility",
      "hashes": [
        {
          "alg": "SHA-1",
          "content": "161c7dac177659fd9811f43771fa99381478628c"
        }
      ],
      "licenses": [
        {
          "license": {
            "id": "MIT"
          }
        }
      ],
      "purl": "pkg:npm/statuses@1.5.0",
      "externalReferences": [
        {
          "url": "https://github.com/jshttp/statuses#readme",
          "type": "website"
        },
        {
          "url": "https://github.com/jshttp/statuses/issues",
          "type": "issue-tracker"
        },
        {
          "url": "git+https://github.com/jshttp/statuses.git",
          "type": "vcs"
        }
      ]
    },
    {
      "type": "library",
      "bom-ref": "pkg:npm/type-is@1.6.18",
      "name": "type-is",
      "version": "1.6.18",
      "description": "Infer the content-type of a request.",
      "hashes": [
        {
          "alg": "SHA-512",
          "content": "4e444aafdb144f1107f0c75fb8248fed58b3272cd134c8e3d89d9da3626bdcaca6e7df0955d124b2eccf4029e514f5b8932f50fa203e99af411a6d3a5d0072f2"
        }
      ],
      "licenses": [
        {
          "license": {
            "id": "MIT"
          }
        }
      ],
      "purl": "pkg:npm/type-is@1.6.18",
      "externalReferences": [
        {
          "url": "https://github.com/jshttp/type-is#readme",
          "type": "website"
        },
        {
          "url": "https://github.com/jshttp/type-is/issues",
          "type": "issue-tracker"
        },
        {
          "url": "git+https://github.com/jshttp/type-is.git",
          "type": "vcs"
        }
      ]
    },
    {
      "type": "library",
      "bom-ref": "pkg:npm/media-typer@0.3.0",
      "name": "media-typer",
      "version": "0.3.0",
      "description": "Simple RFC 6838 media type parser and formatter",
      "hashes": [
        {
          "alg": "SHA-1",
          "content": "8710d7af0aa626f8fffa1ce00168545263255748"
        }
      ],
      "licenses": [
        {
          "license": {
            "id": "MIT"
          }
        }
      ],
      "purl": "pkg:npm/media-typer@0.3.0",
      "externalReferences": [
        {
          "url": "https://github.com/jshttp/media-typer#readme",
          "type": "website"
        },
        {
          "url": "https://github.com/jshttp/media-typer/issues",
          "type": "issue-tracker"
        },
        {
          "url": "git+https://github.com/jshttp/media-typer.git",
          "type": "vcs"
        }
      ]
    },
    {
      "type": "library",
      "bom-ref": "pkg:npm/mime-types@2.1.27",
      "name": "mime-types",
      "version": "2.1.27",
      "description": "The ultimate javascript content-type utility.",
      "hashes": [
        {
          "alg": "SHA-512",
          "content": "24886a9c26ac23dc83f92b2692ab870714d212e65d417e41b909d2d9573ba6e41043ef3288fe40639b9686976fe182f854ce5cea296289858f809fe72502e9ef"
        }
      ],
      "licenses": [
        {
          "license": {
            "id": "MIT"
          }
        }
      ],
      "purl": "pkg:npm/mime-types@2.1.27",
      "externalReferences": [
        {
          "url": "https://github.com/jshttp/mime-types#readme",
          "type": "website"
        },
        {
          "url": "https://github.com/jshttp/mime-types/issues",
          "type": "issue-tracker"
        },
        {
          "url": "git+https://github.com/jshttp/mime-types.git",
          "type": "vcs"
        }
      ]
    },
    {
      "type": "library",
      "bom-ref": "pkg:npm/mime-db@1.44.0",
      "name": "mime-db",
      "version": "1.44.0",
      "description": "Media Type Database",
      "hashes": [
        {
          "alg": "SHA-512",
          "content": "fcd3937cbaec3c155e1fb62d14f82c556bdeb8bfb84a38d8c5a435c6d33528c163ec77719419717b234bce1c89571eebe2b64624067fea590a0a2b5273f366a6"
        }
      ],
      "licenses": [
        {
          "license": {
            "id": "MIT"
          }
        }
      ],
      "purl": "pkg:npm/mime-db@1.44.0",
      "externalReferences": [
        {
          "url": "https://github.com/jshttp/mime-db#readme",
          "type": "website"
        },
        {
          "url": "https://github.com/jshttp/mime-db/issues",
          "type": "issue-tracker"
        },
        {
          "url": "git+https://github.com/jshttp/mime-db.git",
          "type": "vcs"
        }
      ]
    },
    {
      "type": "library",
      "bom-ref": "pkg:npm/%40sinonjs/commons@1.8.0",
      "group": "@sinonjs",
      "name": "commons",
      "version": "1.8.0",
      "description": "Simple functions shared among the sinon end user libraries",
      "hashes": [
        {
          "alg": "SHA-512",
          "content": "c048f9e0f7ec6798c64b0317ebc1bc65715ac1c4a0950497a827ed597dde73c30353341d1e070abf0f7b6b01db63479f4042f988a50e026995b686209ab486e1"
        }
      ],
      "licenses": [
        {
          "license": {
            "id": "BSD-3-Clause"
          }
        }
      ],
      "purl": "pkg:npm/%40sinonjs/commons@1.8.0",
      "externalReferences": [
        {
          "url": "https://github.com/sinonjs/commons#readme",
          "type": "website"
        },
        {
          "url": "https://github.com/sinonjs/commons/issues",
          "type": "issue-tracker"
        },
        {
          "url": "git+https://github.com/sinonjs/commons.git",
          "type": "vcs"
        }
      ]
    },
    {
      "type": "library",
      "bom-ref": "pkg:npm/type-detect@4.0.8",
      "name": "type-detect",
      "version": "4.0.8",
      "description": "Improved typeof detection for node.js and the browser.",
      "hashes": [
        {
          "alg": "SHA-512",
          "content": "d1faff9881f57653bec7b4e570ccbe6c80ea28fb30ffbd2d5727875bbf3b828423866a9a65ed74bb02ee8ee6caf6af4b83a162868d4a50a0d8cf467b93b839fe"
        }
      ],
      "licenses": [
        {
          "license": {
            "id": "MIT"
          }
        }
      ],
      "purl": "pkg:npm/type-detect@4.0.8",
      "externalReferences": [
        {
          "url": "https://github.com/chaijs/type-detect#readme",
          "type": "website"
        },
        {
          "url": "https://github.com/chaijs/type-detect/issues",
          "type": "issue-tracker"
        },
        {
          "url": "git+ssh://git@github.com/chaijs/type-detect.git",
          "type": "vcs"
        }
      ]
    },
    {
      "type": "library",
      "bom-ref": "pkg:npm/%40sinonjs/samsam@3.3.3",
      "group": "@sinonjs",
      "name": "samsam",
      "version": "3.3.3",
      "description": "Value identification and comparison functions",
      "hashes": [
        {
          "alg": "SHA-512",
          "content": "6ca08c299bd6223603d012c69cdaf156ec3876458262c2ea14e516c3c560285ffee58fa613b2df1d63c86280d7a301feddaf4bb160cca34b803fc603a2c3ef1d"
        }
      ],
      "licenses": [
        {
          "license": {
            "id": "BSD-3-Clause"
          }
        }
      ],
      "purl": "pkg:npm/%40sinonjs/samsam@3.3.3",
      "externalReferences": [
        {
          "url": "http://sinonjs.github.io/samsam/",
          "type": "website"
        },
        {
          "url": "https://github.com/sinonjs/samsam/issues",
          "type": "issue-tracker"
        },
        {
          "url": "git+https://github.com/sinonjs/samsam.git",
          "type": "vcs"
        }
      ]
    },
    {
      "type": "library",
      "bom-ref": "pkg:npm/array-from@2.1.1",
      "name": "array-from",
      "version": "2.1.1",
      "description": "A ponyfill for the ES 2015 (ES6) `Array.from()`.",
      "hashes": [
        {
          "alg": "SHA-1",
          "content": "cfe9d8c26628b9dc5aecc62a9f5d8f1f352c1195"
        }
      ],
      "licenses": [
        {
          "license": {
            "id": "MIT"
          }
        }
      ],
      "purl": "pkg:npm/array-from@2.1.1",
      "externalReferences": [
        {
          "url": "https://github.com/studio-b12/array-from#readme",
          "type": "website"
        },
        {
          "url": "https://github.com/studio-b12/array-from/issues",
          "type": "issue-tracker"
        },
        {
          "url": "git+ssh://git@github.com/studio-b12/array-from.git",
          "type": "vcs"
        }
      ]
    },
    {
      "type": "library",
      "bom-ref": "pkg:npm/%40sinonjs/text-encoding@0.7.1",
      "group": "@sinonjs",
      "name": "text-encoding",
      "version": "0.7.1",
      "description": "Polyfill for the Encoding Living Standard's API.",
      "hashes": [
        {
          "alg": "SHA-512",
          "content": "fa24db9edc362193dbfda9d50dbca9cdf41af9acbae0c5b4668f1a27c8193d630c2bafceb9b3156fa9543cc6a0aa338f9e6b5ab979c50800959773bba208dea9"
        }
      ],
      "licenses": [
        {
          "license": {
            "name": "(Unlicense OR Apache-2.0)"
          }
        }
      ],
      "purl": "pkg:npm/%40sinonjs/text-encoding@0.7.1",
      "externalReferences": [
        {
          "url": "https://github.com/inexorabletash/text-encoding",
          "type": "website"
        },
        {
          "url": "https://github.com/inexorabletash/text-encoding/issues",
          "type": "issue-tracker"
        },
        {
          "url": "git+https://github.com/inexorabletash/text-encoding.git",
          "type": "vcs"
        }
      ]
    },
    {
      "type": "library",
      "bom-ref": "pkg:npm/%40sinonjs/formatio@3.2.2",
      "group": "@sinonjs",
      "name": "formatio",
      "version": "3.2.2",
      "description": "Human-readable object formatting",
      "hashes": [
        {
          "alg": "SHA-512",
          "content": "07c484b2077c800ac12cc0face9470de3b90d85552b2675deea95ebf20eacd2f564c2b6f179e7f8002fe87a82e7bc66f3d871d88f76fb9e33faa6ffff57cf24d"
        }
      ],
      "licenses": [
        {
          "license": {
            "id": "BSD-3-Clause"
          }
        }
      ],
      "purl": "pkg:npm/%40sinonjs/formatio@3.2.2",
      "externalReferences": [
        {
          "url": "https://sinonjs.github.io/formatio/",
          "type": "website"
        },
        {
          "url": "https://github.com/sinonjs/formatio/issues",
          "type": "issue-tracker"
        },
        {
          "url": "git+https://github.com/sinonjs/formatio.git",
          "type": "vcs"
        }
      ]
    },
    {
      "type": "library",
      "bom-ref": "pkg:npm/balanced-match@1.0.0",
      "name": "balanced-match",
      "version": "1.0.0",
      "description": "Match balanced character pairs, like \"{\" and \"}\"",
      "hashes": [
        {
          "alg": "SHA-1",
          "content": "89b4d199ab2bee49de164ea02b89ce462d71b767"
        }
      ],
      "licenses": [
        {
          "license": {
            "id": "MIT"
          }
        }
      ],
      "purl": "pkg:npm/balanced-match@1.0.0",
      "externalReferences": [
        {
          "url": "https://github.com/juliangruber/balanced-match",
          "type": "website"
        },
        {
          "url": "https://github.com/juliangruber/balanced-match/issues",
          "type": "issue-tracker"
        },
        {
          "url": "git://github.com/juliangruber/balanced-match.git",
          "type": "vcs"
        }
      ]
    },
    {
      "type": "library",
      "bom-ref": "pkg:npm/brace-expansion@1.1.11",
      "name": "brace-expansion",
      "version": "1.1.11",
      "description": "Brace expansion as known from sh/bash",
      "hashes": [
        {
          "alg": "SHA-512",
          "content": "882b8f1c3160ac75fb1f6bc423fe71a73d3bcd21c1d344e9ba0aa1998b5598c3bae75f260ae44ca0e60595d101974835f3bb9fa3375a1e058a71815beb5a8688"
        }
      ],
      "licenses": [
        {
          "license": {
            "id": "MIT"
          }
        }
      ],
      "purl": "pkg:npm/brace-expansion@1.1.11",
      "externalReferences": [
        {
          "url": "https://github.com/juliangruber/brace-expansion",
          "type": "website"
        },
        {
          "url": "https://github.com/juliangruber/brace-expansion/issues",
          "type": "issue-tracker"
        },
        {
          "url": "git://github.com/juliangruber/brace-expansion.git",
          "type": "vcs"
        }
      ]
    },
    {
      "type": "library",
      "bom-ref": "pkg:npm/concat-map@0.0.1",
      "name": "concat-map",
      "version": "0.0.1",
      "description": "concatenative mapdashery",
      "hashes": [
        {
          "alg": "SHA-1",
          "content": "d8a96bd77fd68df7793a73036a3ba0d5405d477b"
        }
      ],
      "licenses": [
        {
          "license": {
            "id": "MIT"
          }
        }
      ],
      "purl": "pkg:npm/concat-map@0.0.1",
      "externalReferences": [
        {
          "url": "https://github.com/substack/node-concat-map#readme",
          "type": "website"
        },
        {
          "url": "https://github.com/substack/node-concat-map/issues",
          "type": "issue-tracker"
        },
        {
          "url": "git://github.com/substack/node-concat-map.git",
          "type": "vcs"
        }
      ]
    },
    {
      "type": "library",
      "bom-ref": "pkg:npm/browser-stdout@1.3.1",
      "name": "browser-stdout",
      "version": "1.3.1",
      "description": "`process.stdout` in your browser.",
      "hashes": [
        {
          "alg": "SHA-512",
          "content": "aa1015235f80bf65fba9e94e7c0218c1738da2877a5e5644fdf5da052996fd3e52ccb0260a0ce2f9e89613b7d4bdb1da78d0501f5dd47ed8e95f1b1f2e432983"
        }
      ],
      "licenses": [
        {
          "license": {
            "id": "ISC"
          }
        }
      ],
      "purl": "pkg:npm/browser-stdout@1.3.1",
      "externalReferences": [
        {
          "url": "https://github.com/kumavis/browser-stdout#readme",
          "type": "website"
        },
        {
          "url": "https://github.com/kumavis/browser-stdout/issues",
          "type": "issue-tracker"
        },
        {
          "url": "git+ssh://git@github.com/kumavis/browser-stdout.git",
          "type": "vcs"
        }
      ]
    },
    {
      "type": "library",
      "bom-ref": "pkg:npm/cli@1.0.1",
      "name": "cli",
      "version": "1.0.1",
      "description": "A tool for rapidly building command line apps",
      "hashes": [
        {
          "alg": "SHA-1",
          "content": "22817534f24bfa4950c34d532d48ecbc621b8c14"
        }
      ],
      "licenses": [
        {
          "license": {
            "id": "MIT"
          }
        }
      ],
      "purl": "pkg:npm/cli@1.0.1",
      "externalReferences": [
        {
          "url": "http://github.com/node-js-libs/cli",
          "type": "website"
        },
        {
          "url": "http://github.com/node-js-libs/cli/issues",
          "type": "issue-tracker"
        },
        {
          "url": "git+ssh://git@github.com/node-js-libs/cli.git",
          "type": "vcs"
        }
      ]
    },
    {
      "type": "library",
      "bom-ref": "pkg:npm/exit@0.1.2",
      "name": "exit",
      "version": "0.1.2",
      "description": "A replacement for process.exit that ensures stdio are fully drained before exiting.",
      "hashes": [
        {
          "alg": "SHA-1",
          "content": "0632638f8d877cc82107d30a0fff1a17cba1cd0c"
        }
      ],
      "purl": "pkg:npm/exit@0.1.2",
      "externalReferences": [
        {
          "url": "https://github.com/cowboy/node-exit",
          "type": "website"
        },
        {
          "url": "https://github.com/cowboy/node-exit/issues",
          "type": "issue-tracker"
        },
        {
          "url": "git://github.com/cowboy/node-exit.git",
          "type": "vcs"
        }
      ]
    },
    {
      "type": "library",
      "bom-ref": "pkg:npm/glob@7.1.7",
      "name": "glob",
      "version": "7.1.7",
      "description": "a little globber",
      "hashes": [
        {
          "alg": "SHA-512",
          "content": "3af0fd10dccf2db7a010d9d83f95147c9222ad3838f97c0c5866907d04d8d097a7c4dbef20a3f7537fed01048f22efe51f15d84999a95e55077aa00874acc12d"
        }
      ],
      "licenses": [
        {
          "license": {
            "id": "ISC"
          }
        }
      ],
      "purl": "pkg:npm/glob@7.1.7",
      "externalReferences": [
        {
          "url": "https://github.com/isaacs/node-glob#readme",
          "type": "website"
        },
        {
          "url": "https://github.com/isaacs/node-glob/issues",
          "type": "issue-tracker"
        },
        {
          "url": "git://github.com/isaacs/node-glob.git",
          "type": "vcs"
        }
      ]
    },
    {
      "type": "library",
      "bom-ref": "pkg:npm/fs.realpath@1.0.0",
      "name": "fs.realpath",
      "version": "1.0.0",
      "description": "Use node's fs.realpath, but fall back to the JS implementation if the native one fails",
      "hashes": [
        {
          "alg": "SHA-1",
          "content": "1504ad2523158caa40db4a2787cb01411994ea4f"
        }
      ],
      "licenses": [
        {
          "license": {
            "id": "ISC"
          }
        }
      ],
      "purl": "pkg:npm/fs.realpath@1.0.0",
      "externalReferences": [
        {
          "url": "https://github.com/isaacs/fs.realpath#readme",
          "type": "website"
        },
        {
          "url": "https://github.com/isaacs/fs.realpath/issues",
          "type": "issue-tracker"
        },
        {
          "url": "git+https://github.com/isaacs/fs.realpath.git",
          "type": "vcs"
        }
      ]
    },
    {
      "type": "library",
      "bom-ref": "pkg:npm/inflight@1.0.6",
      "name": "inflight",
      "version": "1.0.6",
      "description": "Add callbacks to requests in flight to avoid async duplication",
      "hashes": [
        {
          "alg": "SHA-1",
          "content": "49bd6331d7d02d0c09bc910a1075ba8165b56df9"
        }
      ],
      "licenses": [
        {
          "license": {
            "id": "ISC"
          }
        }
      ],
      "purl": "pkg:npm/inflight@1.0.6",
      "externalReferences": [
        {
          "url": "https://github.com/isaacs/inflight",
          "type": "website"
        },
        {
          "url": "https://github.com/isaacs/inflight/issues",
          "type": "issue-tracker"
        },
        {
          "url": "git+https://github.com/npm/inflight.git",
          "type": "vcs"
        }
      ]
    },
    {
      "type": "library",
      "bom-ref": "pkg:npm/once@1.4.0",
      "name": "once",
      "version": "1.4.0",
      "description": "Run a function exactly one time",
      "hashes": [
        {
          "alg": "SHA-1",
          "content": "583b1aa775961d4b113ac17d9c50baef9dd76bd1"
        }
      ],
      "licenses": [
        {
          "license": {
            "id": "ISC"
          }
        }
      ],
      "purl": "pkg:npm/once@1.4.0",
      "externalReferences": [
        {
          "url": "https://github.com/isaacs/once#readme",
          "type": "website"
        },
        {
          "url": "https://github.com/isaacs/once/issues",
          "type": "issue-tracker"
        },
        {
          "url": "git://github.com/isaacs/once.git",
          "type": "vcs"
        }
      ]
    },
    {
      "type": "library",
      "bom-ref": "pkg:npm/wrappy@1.0.2",
      "name": "wrappy",
      "version": "1.0.2",
      "description": "Callback wrapping utility",
      "hashes": [
        {
          "alg": "SHA-1",
          "content": "b5243d8f3ec1aa35f1364605bc0d1036e30ab69f"
        }
      ],
      "licenses": [
        {
          "license": {
            "id": "ISC"
          }
        }
      ],
      "purl": "pkg:npm/wrappy@1.0.2",
      "externalReferences": [
        {
          "url": "https://github.com/npm/wrappy",
          "type": "website"
        },
        {
          "url": "https://github.com/npm/wrappy/issues",
          "type": "issue-tracker"
        },
        {
          "url": "git+https://github.com/npm/wrappy.git",
          "type": "vcs"
        }
      ]
    },
    {
      "type": "library",
      "bom-ref": "pkg:npm/inherits@2.0.4",
      "name": "inherits",
      "version": "2.0.4",
      "description": "Browser-friendly inheritance fully compatible with standard node.js inherits()",
      "hashes": [
        {
          "alg": "SHA-512",
          "content": "93fbc6697e3f6256b75b3c8c0af4d039761e207bea38ab67a8176ecd31e9ce9419cc0b2428c859d8af849c189233dcc64a820578ca572b16b8758799210a9ec1"
        }
      ],
      "licenses": [
        {
          "license": {
            "id": "ISC"
          }
        }
      ],
      "purl": "pkg:npm/inherits@2.0.4",
      "externalReferences": [
        {
          "url": "https://github.com/isaacs/inherits#readme",
          "type": "website"
        },
        {
          "url": "https://github.com/isaacs/inherits/issues",
          "type": "issue-tracker"
        },
        {
          "url": "git://github.com/isaacs/inherits.git",
          "type": "vcs"
        }
      ]
    },
    {
      "type": "library",
      "bom-ref": "pkg:npm/minimatch@3.0.4",
      "name": "minimatch",
      "version": "3.0.4",
      "description": "a glob matcher in javascript",
      "hashes": [
        {
          "alg": "SHA-512",
          "content": "c891d5404872a8f2d44e0b7d07cdcf5eee96debc7832fbc7bd252f4e8a20a70a060ce510fb20eb4741d1a2dfb23827423bbbb8857de959fb7a91604172a87450"
        }
      ],
      "licenses": [
        {
          "license": {
            "id": "ISC"
          }
        }
      ],
      "purl": "pkg:npm/minimatch@3.0.4",
      "externalReferences": [
        {
          "url": "https://github.com/isaacs/minimatch#readme",
          "type": "website"
        },
        {
          "url": "https://github.com/isaacs/minimatch/issues",
          "type": "issue-tracker"
        },
        {
          "url": "git://github.com/isaacs/minimatch.git",
          "type": "vcs"
        }
      ]
    },
    {
      "type": "library",
      "bom-ref": "pkg:npm/path-is-absolute@1.0.1",
      "name": "path-is-absolute",
      "version": "1.0.1",
      "description": "Node.js 0.12 path.isAbsolute() ponyfill",
      "hashes": [
        {
          "alg": "SHA-1",
          "content": "174b9268735534ffbc7ace6bf53a5a9e1b5c5f5f"
        }
      ],
      "licenses": [
        {
          "license": {
            "id": "MIT"
          }
        }
      ],
      "purl": "pkg:npm/path-is-absolute@1.0.1",
      "externalReferences": [
        {
          "url": "https://github.com/sindresorhus/path-is-absolute#readme",
          "type": "website"
        },
        {
          "url": "https://github.com/sindresorhus/path-is-absolute/issues",
          "type": "issue-tracker"
        },
        {
          "url": "git+https://github.com/sindresorhus/path-is-absolute.git",
          "type": "vcs"
        }
      ]
    },
    {
      "type": "library",
      "bom-ref": "pkg:npm/commander@2.15.1",
      "name": "commander",
      "version": "2.15.1",
      "description": "the complete solution for node.js command-line programs",
      "hashes": [
        {
          "alg": "SHA-512",
          "content": "5657d3f45dd5d2ffa3af8cb13dce6083db3adbf7c8556b1dd81936883e37e6e9b536518c61d542abe3237179e162ada270d3a2cc7af590afb94c8e87d07cb46a"
        }
      ],
      "licenses": [
        {
          "license": {
            "id": "MIT"
          }
        }
      ],
      "purl": "pkg:npm/commander@2.15.1",
      "externalReferences": [
        {
          "url": "https://github.com/tj/commander.js#readme",
          "type": "website"
        },
        {
          "url": "https://github.com/tj/commander.js/issues",
          "type": "issue-tracker"
        },
        {
          "url": "git+https://github.com/tj/commander.js.git",
          "type": "vcs"
        }
      ]
    },
    {
      "type": "library",
      "bom-ref": "pkg:npm/console-browserify@1.1.0",
      "name": "console-browserify",
      "version": "1.1.0",
      "description": "Emulate console for all the browsers",
      "hashes": [
        {
          "alg": "SHA-1",
          "content": "f0241c45730a9fc6323b206dbf38edc741d0bb10"
        }
      ],
      "purl": "pkg:npm/console-browserify@1.1.0",
      "externalReferences": [
        {
          "url": "https://github.com/Raynos/console-browserify",
          "type": "website"
        },
        {
          "url": "https://github.com/Raynos/console-browserify/issues",
          "type": "issue-tracker"
        },
        {
          "url": "git://github.com/Raynos/console-browserify.git",
          "type": "vcs"
        }
      ]
    },
    {
      "type": "library",
      "bom-ref": "pkg:npm/date-now@0.1.4",
      "name": "date-now",
      "version": "0.1.4",
      "description": "A requirable version of Date.now()",
      "hashes": [
        {
          "alg": "SHA-1",
          "content": "eaf439fd4d4848ad74e5cc7dbef200672b9e345b"
        }
      ],
      "purl": "pkg:npm/date-now@0.1.4",
      "externalReferences": [
        {
          "url": "https://github.com/Colingo/date-now",
          "type": "website"
        },
        {
          "url": "https://github.com/Colingo/date-now/issues",
          "type": "issue-tracker"
        },
        {
          "url": "git://github.com/Colingo/date-now.git",
          "type": "vcs"
        }
      ]
    },
    {
      "type": "library",
      "bom-ref": "pkg:npm/core-util-is@1.0.2",
      "name": "core-util-is",
      "version": "1.0.2",
      "description": "The `util.is*` functions introduced in Node v0.12.",
      "hashes": [
        {
          "alg": "SHA-1",
          "content": "b5fd54220aa2bc5ab57aab7140c940754503c1a7"
        }
      ],
      "licenses": [
        {
          "license": {
            "id": "MIT"
          }
        }
      ],
      "purl": "pkg:npm/core-util-is@1.0.2",
      "externalReferences": [
        {
          "url": "https://github.com/isaacs/core-util-is#readme",
          "type": "website"
        },
        {
          "url": "https://github.com/isaacs/core-util-is/issues",
          "type": "issue-tracker"
        },
        {
          "url": "git://github.com/isaacs/core-util-is.git",
          "type": "vcs"
        }
      ]
    },
    {
      "type": "library",
      "bom-ref": "pkg:npm/debug@3.1.0",
      "name": "debug",
      "version": "3.1.0",
      "description": "small debugging utility",
      "hashes": [
        {
          "alg": "SHA-512",
          "content": "397f17a8feffd5af5caa4c58c36c97b2cd797f6e8d2960690d741dd3fb8afca3ea7508716cf6bdf78867ce3704d95a90a43b257f9e7bdb770a3d43864a6318de"
        }
      ],
      "licenses": [
        {
          "license": {
            "id": "MIT"
          }
        }
      ],
      "purl": "pkg:npm/debug@3.1.0",
      "externalReferences": [
        {
          "url": "https://github.com/visionmedia/debug#readme",
          "type": "website"
        },
        {
          "url": "https://github.com/visionmedia/debug/issues",
          "type": "issue-tracker"
        },
        {
          "url": "git://github.com/visionmedia/debug.git",
          "type": "vcs"
        }
      ]
    },
    {
      "type": "library",
      "bom-ref": "pkg:npm/ms@2.0.0",
      "name": "ms",
      "version": "2.0.0",
      "description": "Tiny milisecond conversion utility",
      "hashes": [
        {
          "alg": "SHA-1",
          "content": "5608aeadfc00be6c2901df5f9861788de0d597c8"
        }
      ],
      "licenses": [
        {
          "license": {
            "id": "MIT"
          }
        }
      ],
      "purl": "pkg:npm/ms@2.0.0",
      "externalReferences": [
        {
          "url": "https://github.com/zeit/ms#readme",
          "type": "website"
        },
        {
          "url": "https://github.com/zeit/ms/issues",
          "type": "issue-tracker"
        },
        {
          "url": "git+https://github.com/zeit/ms.git",
          "type": "vcs"
        }
      ]
    },
    {
      "type": "library",
      "bom-ref": "pkg:npm/diff@3.5.0",
      "name": "diff",
      "version": "3.5.0",
      "description": "A javascript text diff implementation.",
      "hashes": [
        {
          "alg": "SHA-512",
          "content": "038eaab4581dfa0ee90d98a7a67c22449b716c2d61a607f4bb33f7886f3db1c1e4d00502ec0d531b17f93a288e52ffc931947c18eb7c84bf74d215746cecb9c4"
        }
      ],
      "licenses": [
        {
          "license": {
            "id": "BSD-3-Clause"
          }
        }
      ],
      "purl": "pkg:npm/diff@3.5.0",
      "externalReferences": [
        {
          "url": "https://github.com/kpdecker/jsdiff#readme",
          "type": "website"
        },
        {
          "url": "http://github.com/kpdecker/jsdiff/issues",
          "type": "issue-tracker"
        },
        {
          "url": "git://github.com/kpdecker/jsdiff.git",
          "type": "vcs"
        }
      ]
    },
    {
      "type": "library",
      "bom-ref": "pkg:npm/domelementtype@1.3.1",
      "name": "domelementtype",
      "version": "1.3.1",
      "description": "all the types of nodes in htmlparser2's dom",
      "hashes": [
        {
          "alg": "SHA-512",
          "content": "052281f934a9329148fc73b108daf53bc68c39367c853de9337190d30fe65919a48440d2149924cb3cf85d0b01578e010a1c0692b0df3328d50f4780d9a155df"
        }
      ],
      "licenses": [
        {
          "license": {
            "id": "BSD-2-Clause"
          }
        }
      ],
      "purl": "pkg:npm/domelementtype@1.3.1",
      "externalReferences": [
        {
          "url": "https://github.com/fb55/domelementtype#readme",
          "type": "website"
        },
        {
          "url": "https://github.com/fb55/domelementtype/issues",
          "type": "issue-tracker"
        },
        {
          "url": "git://github.com/fb55/domelementtype.git",
          "type": "vcs"
        }
      ]
    },
    {
      "type": "library",
      "bom-ref": "pkg:npm/domhandler@2.3.0",
      "name": "domhandler",
      "version": "2.3.0",
      "description": "handler for htmlparser2 that turns pages into a dom",
      "hashes": [
        {
          "alg": "SHA-1",
          "content": "2de59a0822d5027fabff6f032c2b25a2a8abe738"
        }
      ],
      "purl": "pkg:npm/domhandler@2.3.0",
      "externalReferences": [
        {
          "url": "https://github.com/fb55/DomHandler#readme",
          "type": "website"
        },
        {
          "url": "https://github.com/fb55/DomHandler/issues",
          "type": "issue-tracker"
        },
        {
          "url": "git://github.com/fb55/DomHandler.git",
          "type": "vcs"
        }
      ]
    },
    {
      "type": "library",
      "bom-ref": "pkg:npm/domutils@1.5.1",
      "name": "domutils",
      "version": "1.5.1",
      "description": "utilities for working with htmlparser2's dom",
      "hashes": [
        {
          "alg": "SHA-1",
          "content": "dcd8488a26f563d61079e48c9f7b7e32373682cf"
        }
      ],
      "purl": "pkg:npm/domutils@1.5.1",
      "externalReferences": [
        {
          "url": "https://github.com/FB55/domutils#readme",
          "type": "website"
        },
        {
          "url": "https://github.com/FB55/domutils/issues",
          "type": "issue-tracker"
        },
        {
          "url": "git://github.com/FB55/domutils.git",
          "type": "vcs"
        }
      ]
    },
    {
      "type": "library",
      "bom-ref": "pkg:npm/dom-serializer@0.2.2",
      "name": "dom-serializer",
      "version": "0.2.2",
      "description": "render dom nodes to string",
      "hashes": [
        {
          "alg": "SHA-512",
          "content": "dbfc4f6f7391b10e369c76224ae9d79038cf2c16848ffc53c143b807b5c26504d193b101b5338f6b2821d74600021d8e23542ba7a3567e9021cecc23d3276df6"
        }
      ],
      "licenses": [
        {
          "license": {
            "id": "MIT"
          }
        }
      ],
      "purl": "pkg:npm/dom-serializer@0.2.2",
      "externalReferences": [
        {
          "url": "https://github.com/cheeriojs/dom-renderer#readme",
          "type": "website"
        },
        {
          "url": "https://github.com/cheeriojs/dom-renderer/issues",
          "type": "issue-tracker"
        },
        {
          "url": "git://github.com/cheeriojs/dom-renderer.git",
          "type": "vcs"
        }
      ]
    },
    {
      "type": "library",
      "bom-ref": "pkg:npm/domelementtype@2.2.0",
      "name": "domelementtype",
      "version": "2.2.0",
      "description": "all the types of nodes in htmlparser2's dom",
      "hashes": [
        {
          "alg": "SHA-512",
          "content": "0ed04ca3cda9bf5745b54987cabe3c6de8aeabbf764b1a21afef079bdce8c649583df6ba9f46770728e3d8857b6e6af6232a82967a844217e01c9279405d11e4"
        }
      ],
      "licenses": [
        {
          "license": {
            "id": "BSD-2-Clause"
          }
        }
      ],
      "purl": "pkg:npm/domelementtype@2.2.0",
      "externalReferences": [
        {
          "url": "https://github.com/fb55/domelementtype#readme",
          "type": "website"
        },
        {
          "url": "https://github.com/fb55/domelementtype/issues",
          "type": "issue-tracker"
        },
        {
          "url": "git://github.com/fb55/domelementtype.git",
          "type": "vcs"
        }
      ]
    },
    {
      "type": "library",
      "bom-ref": "pkg:npm/entities@2.2.0",
      "name": "entities",
      "version": "2.2.0",
      "description": "Encode & decode XML and HTML entities with ease",
      "hashes": [
        {
          "alg": "SHA-512",
          "content": "a7dda27f9373eb5f48d30f9a909acb647d0c5f43dbe435f7f573b0413b5749d41039a607d374b5b88429e2684e66d017af1ab85623baed84e22c1a36eb7f28f4"
        }
      ],
      "licenses": [
        {
          "license": {
            "id": "BSD-2-Clause"
          }
        }
      ],
      "purl": "pkg:npm/entities@2.2.0",
      "externalReferences": [
        {
          "url": "https://github.com/fb55/entities#readme",
          "type": "website"
        },
        {
          "url": "https://github.com/fb55/entities/issues",
          "type": "issue-tracker"
        },
        {
          "url": "git://github.com/fb55/entities.git",
          "type": "vcs"
        }
      ]
    },
    {
      "type": "library",
      "bom-ref": "pkg:npm/entities@1.0.0",
      "name": "entities",
      "version": "1.0.0",
      "description": "Encode & decode XML/HTML entities with ease",
      "hashes": [
        {
          "alg": "SHA-1",
          "content": "b2987aa3821347fcde642b24fdfc9e4fb712bf26"
        }
      ],
      "licenses": [
        {
          "license": {
            "name": "BSD-like"
          }
        }
      ],
      "purl": "pkg:npm/entities@1.0.0",
      "externalReferences": [
        {
          "url": "https://github.com/fb55/node-entities#readme",
          "type": "website"
        },
        {
          "url": "https://github.com/fb55/node-entities/issues",
          "type": "issue-tracker"
        },
        {
          "url": "git://github.com/fb55/node-entities.git",
          "type": "vcs"
        }
      ]
    },
    {
      "type": "library",
      "bom-ref": "pkg:npm/escape-string-regexp@1.0.5",
      "name": "escape-string-regexp",
      "version": "1.0.5",
      "description": "Escape RegExp special characters",
      "hashes": [
        {
          "alg": "SHA-1",
          "content": "1b61c0562190a8dff6ae3bb2cf0200ca130b86d4"
        }
      ],
      "licenses": [
        {
          "license": {
            "id": "MIT"
          }
        }
      ],
      "purl": "pkg:npm/escape-string-regexp@1.0.5",
      "externalReferences": [
        {
          "url": "https://github.com/sindresorhus/escape-string-regexp#readme",
          "type": "website"
        },
        {
          "url": "https://github.com/sindresorhus/escape-string-regexp/issues",
          "type": "issue-tracker"
        },
        {
          "url": "git+https://github.com/sindresorhus/escape-string-regexp.git",
          "type": "vcs"
        }
      ]
    },
    {
      "type": "library",
      "bom-ref": "pkg:npm/has-flag@3.0.0",
      "name": "has-flag",
      "version": "3.0.0",
      "description": "Check if argv has a specific flag",
      "hashes": [
        {
          "alg": "SHA-1",
          "content": "b5d454dc2199ae225699f3467e5a07f3b955bafd"
        }
      ],
      "licenses": [
        {
          "license": {
            "id": "MIT"
          }
        }
      ],
      "purl": "pkg:npm/has-flag@3.0.0",
      "externalReferences": [
        {
          "url": "https://github.com/sindresorhus/has-flag#readme",
          "type": "website"
        },
        {
          "url": "https://github.com/sindresorhus/has-flag/issues",
          "type": "issue-tracker"
        },
        {
          "url": "git+https://github.com/sindresorhus/has-flag.git",
          "type": "vcs"
        }
      ]
    },
    {
      "type": "library",
      "bom-ref": "pkg:npm/growl@1.10.5",
      "name": "growl",
      "version": "1.10.5",
      "description": "Growl unobtrusive notifications",
      "hashes": [
        {
          "alg": "SHA-512",
          "content": "a81af83ae10b9213de9d6ea0a0a5578afe3b512ddc95bdff21bb9617d28d2848a3032f68787c54f488338ef2611e453385a8fbace503efe6065aa5232e9e6848"
        }
      ],
      "licenses": [
        {
          "license": {
            "id": "MIT"
          }
        }
      ],
      "purl": "pkg:npm/growl@1.10.5",
      "externalReferences": [
        {
          "url": "https://github.com/tj/node-growl#readme",
          "type": "website"
        },
        {
          "url": "https://github.com/tj/node-growl/issues",
          "type": "issue-tracker"
        },
        {
          "url": "git://github.com/tj/node-growl.git",
          "type": "vcs"
        }
      ]
    },
    {
      "type": "library",
      "bom-ref": "pkg:npm/htmlparser2@3.8.3",
      "name": "htmlparser2",
      "version": "3.8.3",
      "description": "Fast & forgiving HTML/XML/RSS parser",
      "hashes": [
        {
          "alg": "SHA-1",
          "content": "996c28b191516a8be86501a7d79757e5c70c1068"
        }
      ],
      "licenses": [
        {
          "license": {
            "id": "MIT"
          }
        }
      ],
      "purl": "pkg:npm/htmlparser2@3.8.3",
      "externalReferences": [
        {
          "url": "https://github.com/fb55/htmlparser2#readme",
          "type": "website"
        },
        {
          "url": "http://github.com/fb55/htmlparser2/issues",
          "type": "issue-tracker"
        },
        {
          "url": "git://github.com/fb55/htmlparser2.git",
          "type": "vcs"
        }
      ]
    },
    {
      "type": "library",
      "bom-ref": "pkg:npm/readable-stream@1.1.14",
      "name": "readable-stream",
      "version": "1.1.14",
      "description": "Streams3, a user-land copy of the stream library from Node.js v0.11.x",
      "hashes": [
        {
          "alg": "SHA-1",
          "content": "7cf4c54ef648e3813084c636dd2079e166c081d9"
        }
      ],
      "licenses": [
        {
          "license": {
            "id": "MIT"
          }
        }
      ],
      "purl": "pkg:npm/readable-stream@1.1.14",
      "externalReferences": [
        {
          "url": "https://github.com/isaacs/readable-stream#readme",
          "type": "website"
        },
        {
          "url": "https://github.com/isaacs/readable-stream/issues",
          "type": "issue-tracker"
        },
        {
          "url": "git://github.com/isaacs/readable-stream.git",
          "type": "vcs"
        }
      ]
    },
    {
      "type": "library",
      "bom-ref": "pkg:npm/isarray@0.0.1",
      "name": "isarray",
      "version": "0.0.1",
      "description": "Array#isArray for older browsers",
      "hashes": [
        {
          "alg": "SHA-1",
          "content": "8a18acfca9a8f4177e09abfc6038939b05d1eedf"
        }
      ],
      "licenses": [
        {
          "license": {
            "id": "MIT"
          }
        }
      ],
      "purl": "pkg:npm/isarray@0.0.1",
      "externalReferences": [
        {
          "url": "https://github.com/juliangruber/isarray",
          "type": "website"
        },
        {
          "url": "https://github.com/juliangruber/isarray/issues",
          "type": "issue-tracker"
        },
        {
          "url": "git://github.com/juliangruber/isarray.git",
          "type": "vcs"
        }
      ]
    },
    {
      "type": "library",
      "bom-ref": "pkg:npm/string_decoder@0.10.31",
      "name": "string_decoder",
      "version": "0.10.31",
      "description": "The string_decoder module from Node core",
      "hashes": [
        {
          "alg": "SHA-1",
          "content": "62e203bc41766c6c28c9fc84301dab1c5310fa94"
        }
      ],
      "licenses": [
        {
          "license": {
            "id": "MIT"
          }
        }
      ],
      "purl": "pkg:npm/string_decoder@0.10.31",
      "externalReferences": [
        {
          "url": "https://github.com/rvagg/string_decoder",
          "type": "website"
        },
        {
          "url": "https://github.com/rvagg/string_decoder/issues",
          "type": "issue-tracker"
        },
        {
          "url": "git://github.com/rvagg/string_decoder.git",
          "type": "vcs"
        }
      ]
    },
    {
      "type": "library",
      "bom-ref": "pkg:npm/just-extend@4.1.0",
      "name": "just-extend",
      "version": "4.1.0",
      "description": "extend an object",
      "hashes": [
        {
          "alg": "SHA-512",
          "content": "02972368e7554c9ef2e2bd3cc48e7022aa6fc12e3c4343c11b80c944e704907d5ff0c74088d172171cf7c682f42d6015c23af03d865d5471f18511dcc7fb862c"
        }
      ],
      "licenses": [
        {
          "license": {
            "id": "MIT"
          }
        }
      ],
      "purl": "pkg:npm/just-extend@4.1.0",
      "externalReferences": [
        {
          "url": "https://github.com/angus-c/just#readme",
          "type": "website"
        },
        {
          "url": "https://github.com/angus-c/just/issues",
          "type": "issue-tracker"
        },
        {
          "url": "git+https://github.com/angus-c/just.git",
          "type": "vcs"
        }
      ]
    },
    {
      "type": "library",
      "bom-ref": "pkg:npm/lolex@4.2.0",
      "name": "lolex",
      "version": "4.2.0",
      "description": "Fake JavaScript timers",
      "hashes": [
        {
          "alg": "SHA-512",
          "content": "80a3b9b84c425ef4a6eb36c5e7ad84bccfab7759100e707d01905b8905737f5666743a71512be99c069538ff3737fdf59912bc325f3f544f0332fb00650fbbc2"
        }
      ],
      "licenses": [
        {
          "license": {
            "id": "BSD-3-Clause"
          }
        }
      ],
      "purl": "pkg:npm/lolex@4.2.0",
      "externalReferences": [
        {
          "url": "http://github.com/sinonjs/lolex",
          "type": "website"
        },
        {
          "url": "http://github.com/sinonjs/lolex/issues",
          "type": "issue-tracker"
        },
        {
          "url": "git+ssh://git@github.com/sinonjs/lolex.git",
          "type": "vcs"
        }
      ]
    },
    {
      "type": "library",
      "bom-ref": "pkg:npm/minimist@0.0.8",
      "name": "minimist",
      "version": "0.0.8",
      "description": "parse argument options",
      "hashes": [
        {
          "alg": "SHA-1",
          "content": "857fcabfc3397d2625b8228262e86aa7a011b05d"
        }
      ],
      "licenses": [
        {
          "license": {
            "id": "MIT"
          }
        }
      ],
      "purl": "pkg:npm/minimist@0.0.8",
      "externalReferences": [
        {
          "url": "https://github.com/substack/minimist",
          "type": "website"
        },
        {
          "url": "https://github.com/substack/minimist/issues",
          "type": "issue-tracker"
        },
        {
          "url": "git://github.com/substack/minimist.git",
          "type": "vcs"
        }
      ]
    },
    {
      "type": "library",
      "bom-ref": "pkg:npm/path-to-regexp@1.8.0",
      "name": "path-to-regexp",
      "version": "1.8.0",
      "description": "Express style path to RegExp utility",
      "hashes": [
        {
          "alg": "SHA-512",
          "content": "9f8dc946195429402589b10984f7a2af59dc5080f5e909c48cda70ccd74edcb9b8cb0ac1a41679a0b0f423a6ebf5ebebd58f494eac11b4087b24ba0ecc041d54"
        }
      ],
      "licenses": [
        {
          "license": {
            "id": "MIT"
          }
        }
      ],
      "purl": "pkg:npm/path-to-regexp@1.8.0",
      "externalReferences": [
        {
          "url": "https://github.com/pillarjs/path-to-regexp#readme",
          "type": "website"
        },
        {
          "url": "https://github.com/pillarjs/path-to-regexp/issues",
          "type": "issue-tracker"
        },
        {
          "url": "git+https://github.com/pillarjs/path-to-regexp.git",
          "type": "vcs"
        }
      ]
    },
    {
      "type": "library",
      "bom-ref": "pkg:npm/should@13.2.3",
      "name": "should",
      "version": "13.2.3",
      "description": "test framework agnostic BDD-style assertions",
      "hashes": [
        {
          "alg": "SHA-512",
          "content": "8202deb0bb6edb1a7e67123ecac25398d8e1d94d13b02fab43fa5f103f5b5196780ca79f3f6ec3fbb6095554ef2ac9a32e9222f6301aee2b700c69030e6b7519"
        }
      ],
      "licenses": [
        {
          "license": {
            "id": "MIT"
          }
        }
      ],
      "purl": "pkg:npm/should@13.2.3",
      "externalReferences": [
        {
          "url": "https://github.com/shouldjs/should.js",
          "type": "website"
        },
        {
          "url": "https://github.com/shouldjs/should.js/issues",
          "type": "issue-tracker"
        },
        {
          "url": "git+https://github.com/shouldjs/should.js.git",
          "type": "vcs"
        }
      ]
    },
    {
      "type": "library",
      "bom-ref": "pkg:npm/should-equal@2.0.0",
      "name": "should-equal",
      "version": "2.0.0",
      "description": "Deep comparison of 2 instances for should.js",
      "hashes": [
        {
          "alg": "SHA-512",
          "content": "64fdfa4ccacaf5eb84b9641806283d5b9e563c2eeea37eeacc01266e31f3e207f2b97ac452017c714bd054efb0f9ddce31f3ef491409db69529bc310278dcb4c"
        }
      ],
      "licenses": [
        {
          "license": {
            "id": "MIT"
          }
        }
      ],
      "purl": "pkg:npm/should-equal@2.0.0",
      "externalReferences": [
        {
          "url": "https://github.com/shouldjs/equal",
          "type": "website"
        },
        {
          "url": "https://github.com/shouldjs/equal/issues",
          "type": "issue-tracker"
        },
        {
          "url": "git+https://github.com/shouldjs/equal.git",
          "type": "vcs"
        }
      ]
    },
    {
      "type": "library",
      "bom-ref": "pkg:npm/should-type@1.4.0",
      "name": "should-type",
      "version": "1.4.0",
      "description": "Simple module to get instance type. Like a bit more advanced version of typeof",
      "hashes": [
        {
          "alg": "SHA-1",
          "content": "0756d8ce846dfd09843a6947719dfa0d4cff5cf3"
        }
      ],
      "licenses": [
        {
          "license": {
            "id": "MIT"
          }
        }
      ],
      "purl": "pkg:npm/should-type@1.4.0",
      "externalReferences": [
        {
          "url": "https://github.com/shouldjs/type",
          "type": "website"
        },
        {
          "url": "https://github.com/shouldjs/type/issues",
          "type": "issue-tracker"
        },
        {
          "url": "git+https://github.com/shouldjs/type.git",
          "type": "vcs"
        }
      ]
    },
    {
      "type": "library",
      "bom-ref": "pkg:npm/should-format@3.0.3",
      "name": "should-format",
      "version": "3.0.3",
      "description": "Formatting of objects for should.js",
      "hashes": [
        {
          "alg": "SHA-1",
          "content": "9bfc8f74fa39205c53d38c34d717303e277124f1"
        }
      ],
      "licenses": [
        {
          "license": {
            "id": "MIT"
          }
        }
      ],
      "purl": "pkg:npm/should-format@3.0.3",
      "externalReferences": [
        {
          "url": "https://github.com/shouldjs/format#readme",
          "type": "website"
        },
        {
          "url": "https://github.com/shouldjs/format/issues",
          "type": "issue-tracker"
        },
        {
          "url": "git://github.com/shouldjs/format.git",
          "type": "vcs"
        }
      ]
    },
    {
      "type": "library",
      "bom-ref": "pkg:npm/should-type-adaptors@1.1.0",
      "name": "should-type-adaptors",
      "version": "1.1.0",
      "description": "Small utility functions to use the same traversing etc code on different types",
      "hashes": [
        {
          "alg": "SHA-512",
          "content": "240e217682e737e91e6c4a7656cf1e05ef60eeecb4cdb468f9131c53412c372f91fa4d38f4a8be379b53e496a0b2dda0ec40236be7ae16ea171426bcbc89257c"
        }
      ],
      "licenses": [
        {
          "license": {
            "id": "MIT"
          }
        }
      ],
      "purl": "pkg:npm/should-type-adaptors@1.1.0",
      "externalReferences": [
        {
          "url": "https://github.com/shouldjs/type-adaptors#readme",
          "type": "website"
        },
        {
          "url": "https://github.com/shouldjs/type-adaptors/issues",
          "type": "issue-tracker"
        },
        {
          "url": "git+https://github.com/shouldjs/type-adaptors.git",
          "type": "vcs"
        }
      ]
    },
    {
      "type": "library",
      "bom-ref": "pkg:npm/should-util@1.0.1",
      "name": "should-util",
      "version": "1.0.1",
      "description": "Utility functions",
      "hashes": [
        {
          "alg": "SHA-512",
          "content": "a1717cb5fc71e5c0e4f2bda462a964509cd9a4306a558fc82365a1bd4d27f58dd762f01846679a7f53efbc8bd380f9efe0a27e112e4cd0fc83ab9269f98832da"
        }
      ],
      "licenses": [
        {
          "license": {
            "id": "MIT"
          }
        }
      ],
      "purl": "pkg:npm/should-util@1.0.1",
      "externalReferences": [
        {
          "url": "https://github.com/shouldjs/util#readme",
          "type": "website"
        },
        {
          "url": "https://github.com/shouldjs/util/issues",
          "type": "issue-tracker"
        },
        {
          "url": "git+https://github.com/shouldjs/util.git",
          "type": "vcs"
        }
      ]
    },
    {
      "type": "library",
      "bom-ref": "pkg:npm/supports-color@5.4.0",
      "name": "supports-color",
      "version": "5.4.0",
      "description": "Detect whether a terminal supports color",
      "hashes": [
        {
          "alg": "SHA-512",
          "content": "ce36978251799e75a9b2ae3bd234afe8ff43c0fbe02e4b9aa5899f0e6dc958e9b4be4353545dad23852b376afa8c7d6a33fb9cfd6b71618d6162803674e2a3e7"
        }
      ],
      "licenses": [
        {
          "license": {
            "id": "MIT"
          }
        }
      ],
      "purl": "pkg:npm/supports-color@5.4.0",
      "externalReferences": [
        {
          "url": "https://github.com/chalk/supports-color#readme",
          "type": "website"
        },
        {
          "url": "https://github.com/chalk/supports-color/issues",
          "type": "issue-tracker"
        },
        {
          "url": "git+https://github.com/chalk/supports-color.git",
          "type": "vcs"
        }
      ]
    },
    {
      "type": "library",
      "bom-ref": "pkg:npm/he@1.1.1",
      "name": "he",
      "version": "1.1.1",
      "description": "A robust HTML entities encoder/decoder with full Unicode support.",
      "hashes": [
        {
          "alg": "SHA-1",
          "content": "93410fd21b009735151f8868c2f271f3427e23fd"
        }
      ],
      "licenses": [
        {
          "license": {
            "id": "MIT"
          }
        }
      ],
      "purl": "pkg:npm/he@1.1.1",
      "externalReferences": [
        {
          "url": "https://mths.be/he",
          "type": "website"
        },
        {
          "url": "https://github.com/mathiasbynens/he/issues",
          "type": "issue-tracker"
        },
        {
          "url": "git+https://github.com/mathiasbynens/he.git",
          "type": "vcs"
        }
      ]
    },
    {
      "type": "library",
      "bom-ref": "pkg:npm/mkdirp@0.5.1",
      "name": "mkdirp",
      "version": "0.5.1",
      "description": "Recursively mkdir, like `mkdir -p`",
      "hashes": [
        {
          "alg": "SHA-1",
          "content": "30057438eac6cf7f8c4767f38648d6697d75c903"
        }
      ],
      "licenses": [
        {
          "license": {
            "id": "MIT"
          }
        }
      ],
      "purl": "pkg:npm/mkdirp@0.5.1",
      "externalReferences": [
        {
          "url": "https://github.com/substack/node-mkdirp#readme",
          "type": "website"
        },
        {
          "url": "https://github.com/substack/node-mkdirp/issues",
          "type": "issue-tracker"
        },
        {
          "url": "git+https://github.com/substack/node-mkdirp.git",
          "type": "vcs"
        }
      ]
    },
    {
      "type": "library",
      "bom-ref": "pkg:npm/shelljs@0.3.0",
      "name": "shelljs",
      "version": "0.3.0",
      "description": "Portable Unix shell commands for Node.js",
      "hashes": [
        {
          "alg": "SHA-1",
          "content": "3596e6307a781544f591f37da618360f31db57b1"
        }
      ],
      "licenses": [
        {
          "license": {
            "name": "BSD*"
          }
        }
      ],
      "purl": "pkg:npm/shelljs@0.3.0",
      "externalReferences": [
        {
          "url": "http://github.com/arturadib/shelljs",
          "type": "website"
        },
        {
          "url": "https://github.com/arturadib/shelljs/issues",
          "type": "issue-tracker"
        },
        {
          "url": "git://github.com/arturadib/shelljs.git",
          "type": "vcs"
        }
      ]
    },
    {
      "type": "library",
      "bom-ref": "pkg:npm/strip-json-comments@1.0.4",
      "name": "strip-json-comments",
      "version": "1.0.4",
      "description": "Strip comments from JSON. Lets you use comments in your JSON files!",
      "hashes": [
        {
          "alg": "SHA-1",
          "content": "1e15fbcac97d3ee99bf2d73b4c656b082bbafb91"
        }
      ],
      "licenses": [
        {
          "license": {
            "id": "MIT"
          }
        }
      ],
      "purl": "pkg:npm/strip-json-comments@1.0.4",
      "externalReferences": [
        {
          "url": "https://github.com/sindresorhus/strip-json-comments#readme",
          "type": "website"
        },
        {
          "url": "https://github.com/sindresorhus/strip-json-comments/issues",
          "type": "issue-tracker"
        },
        {
          "url": "git+https://github.com/sindresorhus/strip-json-comments.git",
          "type": "vcs"
        }
      ]
    },
    {
      "type": "library",
      "bom-ref": "pkg:npm/nise@1.5.3",
      "name": "nise",
      "version": "1.5.3",
      "description": "Fake XHR and server",
      "hashes": [
        {
          "alg": "SHA-512",
          "content": "6266da73ff78c5e22b31fe7d44404f3afd2d86bf8225514c86b940916fe08c2204e7c04641d0a3d31eca4426f7cb3f866b6473dc4f575d2bd4cb2c6aaa18d001"
        }
      ],
      "licenses": [
        {
          "license": {
            "id": "BSD-3-Clause"
          }
        }
      ],
      "purl": "pkg:npm/nise@1.5.3",
      "externalReferences": [
        {
          "url": "https://github.com/sinonjs/nise#readme",
          "type": "website"
        },
        {
          "url": "https://github.com/sinonjs/nise/issues",
          "type": "issue-tracker"
        },
        {
          "url": "git+ssh://git@github.com/sinonjs/nise.git",
          "type": "vcs"
        }
      ]
    },
    {
      "type": "library",
      "bom-ref": "pkg:npm/lolex@5.1.2",
      "name": "lolex",
      "version": "5.1.2",
      "description": "Fake JavaScript timers",
      "hashes": [
        {
          "alg": "SHA-512",
          "content": "8788668c0bc74e677edb9252c2bb5322ec1b29dc20e4dcd955130b9fdb1a8a3e1265a7a90ab4c2c4faf7e47ff76e3c1f309b4dfaddc25fcebbd94224825cf6f0"
        }
      ],
      "licenses": [
        {
          "license": {
            "id": "BSD-3-Clause"
          }
        }
      ],
      "purl": "pkg:npm/lolex@5.1.2",
      "externalReferences": [
        {
          "url": "http://github.com/sinonjs/lolex",
          "type": "website"
        },
        {
          "url": "http://github.com/sinonjs/lolex/issues",
          "type": "issue-tracker"
        },
        {
          "url": "git+ssh://git@github.com/sinonjs/lolex.git",
          "type": "vcs"
        }
      ]
    },
    {
      "type": "library",
      "bom-ref": "pkg:npm/sinon@7.5.0",
      "name": "sinon",
      "version": "7.5.0",
      "description": "JavaScript test spies, stubs and mocks.",
      "hashes": [
        {
          "alg": "SHA-1",
          "content": "e9488ea466070ea908fd44a3d6478fd4923c67ec"
        }
      ],
      "licenses": [
        {
          "license": {
            "id": "BSD-3-Clause"
          }
        }
      ],
      "purl": "pkg:npm/sinon@7.5.0",
      "externalReferences": [
        {
          "url": "https://sinonjs.org/",
          "type": "website"
        },
        {
          "url": "http://github.com/sinonjs/sinon/issues",
          "type": "issue-tracker"
        },
        {
          "url": "git+ssh://git@github.com/sinonjs/sinon.git",
          "type": "vcs"
        }
      ]
    },
    {
      "type": "library",
      "bom-ref": "pkg:npm/supports-color@5.5.0",
      "name": "supports-color",
      "version": "5.5.0",
      "description": "Detect whether a terminal supports color",
      "hashes": [
        {
          "alg": "SHA-1",
          "content": "e2e69a44ac8772f78a1ec0b35b689df6530efc8f"
        }
      ],
      "licenses": [
        {
          "license": {
            "id": "MIT"
          }
        }
      ],
      "purl": "pkg:npm/supports-color@5.5.0",
      "externalReferences": [
        {
          "url": "https://github.com/chalk/supports-color#readme",
          "type": "website"
        },
        {
          "url": "https://github.com/chalk/supports-color/issues",
          "type": "issue-tracker"
        },
        {
          "url": "git+https://github.com/chalk/supports-color.git",
          "type": "vcs"
        }
      ]
    },
    {
      "type": "library",
      "bom-ref": "pkg:npm/mocha@5.2.0",
      "name": "mocha",
      "version": "5.2.0",
      "description": "simple, flexible, fun test framework",
      "hashes": [
        {
          "alg": "SHA-1",
          "content": "6d8ae508f59167f940f2b5b3c4a612ae50c90ae6"
        }
      ],
      "licenses": [
        {
          "license": {
            "id": "MIT"
          }
        }
      ],
      "purl": "pkg:npm/mocha@5.2.0",
      "externalReferences": [
        {
          "url": "https://mochajs.org",
          "type": "website"
        },
        {
          "url": "https://github.com/mochajs/mocha/issues",
          "type": "issue-tracker"
        },
        {
          "url": "git+https://github.com/mochajs/mocha.git",
          "type": "vcs"
        }
      ]
    },
    {
      "type": "library",
      "bom-ref": "pkg:npm/glob@7.1.2",
      "name": "glob",
      "version": "7.1.2",
      "description": "a little globber",
      "hashes": [
        {
          "alg": "SHA-1",
          "content": "c19c9df9a028702d678612384a6552404c636d15"
        }
      ],
      "licenses": [
        {
          "license": {
            "id": "ISC"
          }
        }
      ],
      "purl": "pkg:npm/glob@7.1.2",
      "externalReferences": [
        {
          "url": "https://github.com/isaacs/node-glob#readme",
          "type": "website"
        },
        {
          "url": "https://github.com/isaacs/node-glob/issues",
          "type": "issue-tracker"
        },
        {
          "url": "git://github.com/isaacs/node-glob.git",
          "type": "vcs"
        }
      ]
    },
    {
      "type": "library",
      "bom-ref": "pkg:npm/jshint@2.13.0",
      "name": "jshint",
      "version": "2.13.0",
      "description": "Static analysis tool for JavaScript",
      "hashes": [
        {
          "alg": "SHA-512",
          "content": "35dfa677dc087b27c32be446adb381cf02ce3524dd8a118cb7219853fb7bcd870dd848146b88ae63754ada8c6d3d8ad6e727138f5f220be51b84d4f17b80baea"
        }
      ],
      "licenses": [
        {
          "license": {
            "id": "MIT"
          }
        }
      ],
      "purl": "pkg:npm/jshint@2.13.0",
      "externalReferences": [
        {
          "url": "http://jshint.com/",
          "type": "website"
        },
        {
          "url": "https://github.com/jshint/jshint/issues",
          "type": "issue-tracker"
        },
        {
          "url": "git+https://github.com/jshint/jshint.git",
          "type": "vcs"
        }
      ]
    },
    {
      "type": "library",
      "bom-ref": "pkg:npm/sinonjs/commons@1.8.0",
      "group": "sinonjs",
      "name": "commons",
      "version": "1.8.0",
      "description": "",
      "scope": "optional",
      "hashes": [
        {
          "alg": "SHA-512",
          "content": "c048f9e0f7ec6798c64b0317ebc1bc65715ac1c4a0950497a827ed597dde73c30353341d1e070abf0f7b6b01db63479f4042f988a50e026995b686209ab486e1"
        }
      ],
      "purl": "pkg:npm/sinonjs/commons@1.8.0"
    },
    {
      "type": "library",
      "bom-ref": "pkg:npm/sinonjs/formatio@3.2.2",
      "group": "sinonjs",
      "name": "formatio",
      "version": "3.2.2",
      "description": "",
      "scope": "optional",
      "hashes": [
        {
          "alg": "SHA-512",
          "content": "07c484b2077c800ac12cc0face9470de3b90d85552b2675deea95ebf20eacd2f564c2b6f179e7f8002fe87a82e7bc66f3d871d88f76fb9e33faa6ffff57cf24d"
        }
      ],
      "purl": "pkg:npm/sinonjs/formatio@3.2.2"
    },
    {
      "type": "library",
      "bom-ref": "pkg:npm/sinonjs/samsam@3.3.3",
      "group": "sinonjs",
      "name": "samsam",
      "version": "3.3.3",
      "description": "",
      "scope": "optional",
      "hashes": [
        {
          "alg": "SHA-512",
          "content": "6ca08c299bd6223603d012c69cdaf156ec3876458262c2ea14e516c3c560285ffee58fa613b2df1d63c86280d7a301feddaf4bb160cca34b803fc603a2c3ef1d"
        }
      ],
      "purl": "pkg:npm/sinonjs/samsam@3.3.3"
    },
    {
      "type": "library",
      "bom-ref": "pkg:npm/sinonjs/text-encoding@0.7.1",
      "group": "sinonjs",
      "name": "text-encoding",
      "version": "0.7.1",
      "description": "",
      "scope": "optional",
      "hashes": [
        {
          "alg": "SHA-512",
          "content": "fa24db9edc362193dbfda9d50dbca9cdf41af9acbae0c5b4668f1a27c8193d630c2bafceb9b3156fa9543cc6a0aa338f9e6b5ab979c50800959773bba208dea9"
        }
      ],
      "purl": "pkg:npm/sinonjs/text-encoding@0.7.1"
    }
  ]
}
