{
  "bomFormat": "CycloneDX",
  "specVersion": "1.3",
  "version": 2,
  "metadata": {
    "tools": [
      {
        "vendor": "AppThreat",
        "name": "cdxgen",
        "version": "3.0.10"
      },
      {
        "vendor": "Fortress Information Security",
        "name": "Github Extractor",
        "version": "1.15.1"
      }
    ],
    "authors": [
      {
        "name": "Fortress Information Security",
        "email": "sales@fortressinfosec.com",
        "phone": "1-407-573-6800"
      }
    ],
    "timestamp": "2022-07-26T23:35:49Z",
    "component": {
      "type": "application",
      "name": "OpenNMT-py",
      "version": "2.2.0",
      "group": "OpenNMT",
      "externalReferences": [
        {
          "url": "https://github.com/OpenNMT/OpenNMT-py.git",
          "type": "distribution"
        },
        {
          "type": "website",
          "url": "https://opennmt.net/",
          "comment": "As set via `homepage` in Github API"
        }
      ]
    }
  },
  "components": [
    {
      "type": "library",
      "publisher": "Python Packaging Authority",
      "name": "setuptools",
      "version": "62.1.0",
      "description": "Easily download, build, install, upgrade, and uninstall Python packages",
      "hashes": [
        {
          "alg": "MD5",
          "content": "101d2e2bf9b7682ab90d9a7bd487bdbe"
        },
        {
          "alg": "SHA-256",
          "content": "26ead7d1f93efc0f8c804d9fafafbe4a44b179580a7105754b245155f9af05a8"
        }
      ],
      "purl": "pkg:pypi/setuptools@62.1.0",
      "modified": false
    },
    {
      "type": "library",
      "publisher": "Thomas Waldmann",
      "name": "argparse",
      "version": "1.4.0",
      "description": "Python command-line parsing library",
      "hashes": [
        {
          "alg": "MD5",
          "content": "c37216a954c8669054e2b2c54853dd49"
        },
        {
          "alg": "SHA-256",
          "content": "c31647edb69fd3d465a847ea3157d37bed1f95f19760b11a47aa91c04b666314"
        }
      ],
      "licenses": [
        {
          "license": {
            "name": "Python Software Foundation License"
          }
        }
      ],
      "purl": "pkg:pypi/argparse@1.4.0",
      "modified": false
    },
    {
      "type": "library",
      "name": "io",
      "version": "0.0.1",
      "purl": "pkg:pypi/io@0.0.1",
      "modified": false
    },
    {
      "type": "library",
      "publisher": "Benjamin Heinzerling, Anders Johannsen",
      "name": "pyrouge",
      "version": "0.1.3",
      "description": "A Python wrapper for the ROUGE summarization evaluation package.",
      "licenses": [
        {
          "license": {
            "name": "LICENSE.txt"
          }
        }
      ],
      "purl": "pkg:pypi/pyrouge@0.1.3",
      "modified": false
    },
    {
      "type": "library",
      "publisher": "PyTorch Team",
      "name": "torch",
      "version": "1.11.0",
      "description": "Tensors and Dynamic neural networks in Python with strong GPU acceleration",
      "hashes": [
        {
          "alg": "MD5",
          "content": "d88113ea2a0597fd611880e93a508fe0"
        },
        {
          "alg": "SHA-256",
          "content": "0e48af66ad755f0f9c5f2664028a414f57c49d6adc37e77e06fe0004da4edb61"
        }
      ],
      "licenses": [
        {
          "license": {
            "name": "BSD-3"
          }
        }
      ],
      "purl": "pkg:pypi/torch@1.11.0",
      "modified": false
    },
    {
      "type": "library",
      "publisher": "Benjamin Peterson",
      "name": "six",
      "version": "1.16.0",
      "description": "Python 2 and 3 compatibility utilities",
      "hashes": [
        {
          "alg": "MD5",
          "content": "529d7fd7e14612ccde86417b4402d6f3"
        },
        {
          "alg": "SHA-256",
          "content": "8abb2f1d86890a2dfb989f9a77cfcfd3e47c2a354b01111771326f8aa26e0254"
        }
      ],
      "licenses": [
        {
          "license": {
            "name": "MIT"
          }
        }
      ],
      "purl": "pkg:pypi/six@1.16.0",
      "modified": false
    },
    {
      "type": "library",
      "name": "configargparse",
      "version": "1.5.3",
      "description": "A drop-in replacement for argparse that allows options to also be set via config files and/or environment variables.",
      "hashes": [
        {
          "alg": "MD5",
          "content": "5af874808943a76d489797ff97f82fcf"
        },
        {
          "alg": "SHA-256",
          "content": "18f6535a2db9f6e02bd5626cc7455eac3e96b9ab3d969d366f9aafd5c5c00fe7"
        }
      ],
      "licenses": [
        {
          "license": {
            "name": "MIT"
          }
        }
      ],
      "purl": "pkg:pypi/configargparse@1.5.3",
      "modified": false
    },
    {
      "type": "library",
      "publisher": "Vinay Sajip",
      "name": "logging",
      "version": "0.4.9.6",
      "description": "A logging module for Python",
      "hashes": [
        {
          "alg": "MD5",
          "content": "dc0a7ebc8b8970263911e11e7b7e1ca8"
        },
        {
          "alg": "SHA-256",
          "content": "26f6b50773f085042d301085bd1bf5d9f3735704db9f37c1ce6d8b85c38f2417"
        }
      ],
      "licenses": [
        {
          "license": {
            "name": "Copyright (C) 2001-2005 by Vinay Sajip. All Rights Reserved. See LICENSE for license."
          }
        }
      ],
      "purl": "pkg:pypi/logging@0.4.9.6",
      "modified": false
    },
    {
      "type": "library",
      "publisher": "Travis E. Oliphant et al.",
      "name": "numpy",
      "version": "1.22.3",
      "description": "NumPy is the fundamental package for array computing with Python.",
      "hashes": [
        {
          "alg": "MD5",
          "content": "99d2dfb943327b108b2c3b923bd42000"
        },
        {
          "alg": "SHA-256",
          "content": "c34ea7e9d13a70bf2ab64a2532fe149a9aced424cd05a2c4ba662fd989e3e45f"
        }
      ],
      "licenses": [
        {
          "license": {
            "name": "BSD"
          }
        }
      ],
      "purl": "pkg:pypi/numpy@1.22.3",
      "modified": false
    },
    {
      "type": "library",
      "publisher": "PyTorch core devs and James Bradbury",
      "name": "torchtext",
      "version": "0.12.0",
      "description": "Text utilities and datasets for PyTorch",
      "hashes": [
        {
          "alg": "MD5",
          "content": "ea9786a2d2a6c6ee19265129e2713fb0"
        },
        {
          "alg": "SHA-256",
          "content": "59912472689e5734ccdd134a0352e46bb36cecd3d59b323e097474f4c4e4bf9a"
        }
      ],
      "licenses": [
        {
          "license": {
            "name": "BSD"
          }
        }
      ],
      "purl": "pkg:pypi/torchtext@0.12.0",
      "modified": false
    },
    {
      "type": "library",
      "publisher": "Christian Heimes",
      "name": "multiprocessing",
      "version": "2.6.2.1",
      "description": "Backport of the multiprocessing package to Python 2.4 and 2.5",
      "hashes": [
        {
          "alg": "MD5",
          "content": "5cc484396c040102116ccc2355379c72"
        },
        {
          "alg": "SHA-256",
          "content": "ef3b81ad85d7de252e5491b1daac028e17f9741cbe3625032e6eaa4ad4c79900"
        }
      ],
      "licenses": [
        {
          "license": {
            "name": "BSD Licence"
          }
        }
      ],
      "purl": "pkg:pypi/multiprocessing@2.6.2.1",
      "modified": false
    },
    {
      "type": "library",
      "publisher": "Dima Dorfman",
      "name": "functools",
      "version": "0.5",
      "description": "Fast tools for functional programming",
      "hashes": [
        {
          "alg": "MD5",
          "content": "91111c28ee685a2f89f1a41e6f0ce8ea"
        },
        {
          "alg": "SHA-256",
          "content": "596ed8999dee419c0749a41bfdd82e4697e80ea27ee01c716003ef55be9a54c5"
        }
      ],
      "licenses": [
        {
          "license": {
            "name": "BSD"
          }
        }
      ],
      "purl": "pkg:pypi/functools@0.5",
      "modified": false
    },
    {
      "type": "library",
      "publisher": "Seiya Tokui",
      "name": "cupy",
      "version": "10.4.0",
      "description": "CuPy: NumPy & SciPy for GPU",
      "hashes": [
        {
          "alg": "MD5",
          "content": "77bd5d1bc18d850c20143faa435494f9"
        },
        {
          "alg": "SHA-256",
          "content": "c6bae0b885daa3f9de1fe471a20cef97c4fbd8fd9d0385e5e80e10c60135ae39"
        }
      ],
      "licenses": [
        {
          "license": {
            "name": "MIT License"
          }
        }
      ],
      "purl": "pkg:pypi/cupy@10.4.0",
      "modified": false
    },
    {
      "type": "library",
      "publisher": "Sean Lee",
      "name": "pynvrtc",
      "version": "9.2",
      "description": "Python bindings to NVRTC",
      "hashes": [
        {
          "alg": "MD5",
          "content": "b087f703e124747e81d44e49a596e7e1"
        },
        {
          "alg": "SHA-256",
          "content": "f6dfe7b268ed82f8b8f88a9aa033bd78b8e3c4f717819935c1110c26c8367629"
        }
      ],
      "licenses": [
        {
          "license": {
            "name": "MIT"
          }
        }
      ],
      "purl": "pkg:pypi/pynvrtc@9.2",
      "modified": false
    },
    {
      "type": "library",
      "publisher": "Taku Kudo",
      "name": "sentencepiece",
      "version": "0.1.96",
      "description": "SentencePiece python wrapper",
      "hashes": [
        {
          "alg": "MD5",
          "content": "126a845f18ea73b2d3345c0f360ed81f"
        },
        {
          "alg": "SHA-256",
          "content": "48c6d13b3bfff08060c138248e85df60f6fad11135ad7a8fc2ef6005aacca839"
        }
      ],
      "licenses": [
        {
          "license": {
            "name": "Apache"
          }
        }
      ],
      "purl": "pkg:pypi/sentencepiece@0.1.96",
      "modified": false
    },
    {
      "type": "library",
      "publisher": "Rico Sennrich",
      "name": "subword_nmt",
      "version": "0.3.8",
      "description": "Unsupervised Word Segmentation for Neural Machine Translation and Text Generation",
      "hashes": [
        {
          "alg": "MD5",
          "content": "dabf557fd35873e795795067f0d4b348"
        },
        {
          "alg": "SHA-256",
          "content": "d22526b557752f35ac15e8ea384ea7773e50a51d966b8752d023d16cb87eac36"
        }
      ],
      "licenses": [
        {
          "license": {
            "name": "MIT"
          }
        }
      ],
      "purl": "pkg:pypi/subword-nmt@0.3.8",
      "modified": false
    },
    {
      "type": "library",
      "publisher": "OpenNMT",
      "name": "pyonmttok",
      "version": "1.31.0",
      "description": "Fast and customizable text tokenization library with BPE and SentencePiece support",
      "hashes": [
        {
          "alg": "MD5",
          "content": "aa10e428bdfc2bea898ab82cf48f8dc2"
        },
        {
          "alg": "SHA-256",
          "content": "f8e2813a6fd4865e2cae07b63215ce30eeb3cc6943cb09e6b5284c6130e5b59e"
        }
      ],
      "licenses": [
        {
          "license": {
            "name": "MIT"
          }
        }
      ],
      "purl": "pkg:pypi/pyonmttok@1.31.0",
      "modified": false
    },
    {
      "type": "library",
      "publisher": "Guido van Rossum, Jukka Lehtosalo, Łukasz Langa, Ivan Levkivskyi",
      "name": "typing",
      "version": "3.10.0.0",
      "description": "Type Hints for Python",
      "hashes": [
        {
          "alg": "MD5",
          "content": "cf38139027dc160e3ecd8e5ccf151da9"
        },
        {
          "alg": "SHA-256",
          "content": "12fbdfbe7d6cca1a42e485229afcb0b0c8259258cfb919b8a5e2a5c953742f89"
        }
      ],
      "licenses": [
        {
          "license": {
            "name": "PSF"
          }
        }
      ],
      "purl": "pkg:pypi/typing@3.10.0.0",
      "modified": false
    },
    {
      "type": "library",
      "publisher": "Brett Cannon",
      "name": "importlib",
      "version": "1.0.4",
      "description": "Backport of importlib.import_module() from Python 2.7",
      "hashes": [
        {
          "alg": "MD5",
          "content": "5f9a0803bca7ba95f670d1464984296f"
        },
        {
          "alg": "SHA-256",
          "content": "b6ee7066fea66e35f8d0acee24d98006de1a0a8a94a8ce6efe73a9a23c8d9826"
        }
      ],
      "purl": "pkg:pypi/importlib@1.0.4",
      "modified": false
    },
    {
      "type": "library",
      "publisher": "Armin Ronacher",
      "name": "flask",
      "version": "2.1.2",
      "description": "A simple framework for building complex web applications.",
      "hashes": [
        {
          "alg": "MD5",
          "content": "07aede47b441c019aeebbeaed6a76215"
        },
        {
          "alg": "SHA-256",
          "content": "fad5b446feb0d6db6aec0c3184d16a8c1f6c3e464b511649c8918a9be100b4fe"
        }
      ],
      "licenses": [
        {
          "license": {
            "name": "BSD-3-Clause"
          }
        }
      ],
      "purl": "pkg:pypi/flask@2.1.2",
      "modified": false
    },
    {
      "type": "library",
      "publisher": "Zope Foundation and Contributors",
      "name": "waitress",
      "version": "2.1.1",
      "description": "Waitress WSGI server",
      "hashes": [
        {
          "alg": "MD5",
          "content": "4b5e6cc7f1f3bf5f1e8b932d1d6db771"
        },
        {
          "alg": "SHA-256",
          "content": "c549f5b2b4afd44d9d97d7cec79f3ef581e25d832827f415dc175327af674aa8"
        }
      ],
      "licenses": [
        {
          "license": {
            "name": "ZPL 2.1"
          }
        }
      ],
      "purl": "pkg:pypi/waitress@2.1.1",
      "modified": false
    },
    {
      "type": "library",
      "publisher": "OpenNMT",
      "name": "ctranslate2",
      "version": "2.16.0",
      "description": "Fast inference engine for Transformer models",
      "hashes": [
        {
          "alg": "MD5",
          "content": "ee08e57e95f875982be151c8da308b4c"
        },
        {
          "alg": "SHA-256",
          "content": "dc2f757ed3e2f54fbf7faeab7b2c1cf0c4f887eb30d27a1050bee43845904834"
        }
      ],
      "licenses": [
        {
          "license": {
            "name": "MIT"
          }
        }
      ],
      "purl": "pkg:pypi/ctranslate2@2.16.0",
      "modified": false
    },
    {
      "type": "library",
      "publisher": "hankcs",
      "name": "pyhanlp",
      "version": "0.1.84",
      "description": "Python wrapper for HanLP: Han Language Processing",
      "hashes": [
        {
          "alg": "MD5",
          "content": "841e8097b49ca2b99e62fa2da8a6c7ee"
        },
        {
          "alg": "SHA-256",
          "content": "1047b2b6515c9844648c48f45b1f1cdb9a413067bea55587717a52c2944ad616"
        }
      ],
      "licenses": [
        {
          "license": {
            "name": "Apache License 2.0"
          }
        }
      ],
      "purl": "pkg:pypi/pyhanlp@0.1.84",
      "modified": false
    },
    {
      "type": "library",
      "publisher": "isnowfy",
      "name": "snownlp",
      "version": "0.12.3",
      "description": "Python library for processing Chinese text",
      "hashes": [
        {
          "alg": "MD5",
          "content": "ee40b87664006532a8912f6e8666d132"
        },
        {
          "alg": "SHA-256",
          "content": "c92accd025b70dd16706a10690f556ac9204bb6189f7dc68ece5c207c9bc27d8"
        }
      ],
      "purl": "pkg:pypi/snownlp@0.12.3",
      "modified": false
    },
    {
      "type": "library",
      "publisher": "Lanco",
      "name": "pkuseg",
      "version": "0.0.25",
      "description": "A small package for Chinese word segmentation",
      "hashes": [
        {
          "alg": "MD5",
          "content": "67456d60384c5185f9b028111e048c0d"
        },
        {
          "alg": "SHA-256",
          "content": "d0276d3458d5e58feed787aa826658c96900250470081b55a9dff38fcc38eab6"
        }
      ],
      "purl": "pkg:pypi/pkuseg@0.0.25",
      "modified": false
    },
    {
      "type": "library",
      "publisher": "Ben Finney",
      "name": "enum",
      "version": "0.4.7",
      "description": "Robust enumerated type support in Python.",
      "hashes": [
        {
          "alg": "MD5",
          "content": "e7d170e3f84435b77058de625c96ef58"
        },
        {
          "alg": "SHA-256",
          "content": "8c7cf3587eda51008bcc1eed99ea2c331ccd265c231dbaa95ec5258d3dc03100"
        }
      ],
      "licenses": [
        {
          "license": {
            "name": "GPL-3.0+"
          }
        }
      ],
      "purl": "pkg:pypi/enum@0.4.7",
      "modified": false
    },
    {
      "type": "library",
      "publisher": "Stephan Klein",
      "name": "signal",
      "version": "0.1",
      "description": "Send SMS messages via ADB and your Android phone. Comes with a CLI.",
      "licenses": [
        {
          "license": {
            "name": "MIT"
          }
        }
      ],
      "purl": "pkg:pypi/signal@0.1",
      "modified": false
    },
    {
      "type": "library",
      "publisher": "Zope Foundation and Contributors",
      "name": "datetime",
      "version": "4.4",
      "description": "This package provides a DateTime data type, as known from Zope. Unless you need to communicate with Zope APIs, you're probably better off using Python's built-in datetime module.",
      "hashes": [
        {
          "alg": "MD5",
          "content": "ad1e82d858ed7c8cd2ea437b4cb695ed"
        },
        {
          "alg": "SHA-256",
          "content": "4fcca115ddb466a1104df08d5c2a2f5805d14ca317800e1bfcea8f3d69f66e57"
        }
      ],
      "licenses": [
        {
          "license": {
            "name": "ZPL 2.1"
          }
        }
      ],
      "purl": "pkg:pypi/datetime@4.4",
      "modified": false
    },
    {
      "type": "library",
      "publisher": "Chris Davies",
      "name": "apex",
      "version": "0.9.10dev",
      "description": "Pyramid toolkit to add Velruse, Flash Messages,CSRF, ReCaptcha and Sessions",
      "hashes": [
        {
          "alg": "MD5",
          "content": "8c838c69a1e84c9e8c1feebb8d8e2952"
        },
        {
          "alg": "SHA-256",
          "content": "48aa6d9e805e661e609161bd52e0d02d89a9a32f32dc29cde6c950df58129119"
        }
      ],
      "licenses": [
        {
          "license": {
            "name": "MIT"
          }
        }
      ],
      "purl": "pkg:pypi/apex@0.9.10dev",
      "modified": false
    },
    {
      "type": "library",
      "publisher": "Michael Foord",
      "name": "unittest",
      "version": "0.0",
      "hashes": [
        {
          "alg": "MD5",
          "content": "2a416384f814604ed854d40f352f1191"
        },
        {
          "alg": "SHA-256",
          "content": "1b492484bea7f68abda5fcc61412e77b6a105e5842355d630f8b75f01add3555"
        }
      ],
      "purl": "pkg:pypi/unittest@0.0",
      "modified": false
    },
    {
      "type": "library",
      "publisher": "Dave Snider, Read the Docs, Inc. & contributors",
      "name": "sphinx_rtd_theme",
      "version": "1.0.0",
      "description": "Read the Docs theme for Sphinx",
      "hashes": [
        {
          "alg": "MD5",
          "content": "98a94c3e7ff439b17bbf3ed5882fc99e"
        },
        {
          "alg": "SHA-256",
          "content": "4d35a56f4508cfee4c4fb604373ede6feae2a306731d533f409ef5c3496fdbd8"
        }
      ],
      "licenses": [
        {
          "license": {
            "name": "MIT"
          }
        }
      ],
      "purl": "pkg:pypi/sphinx-rtd-theme@1.0.0",
      "modified": false
    },
    {
      "type": "library",
      "name": "recommonmark",
      "version": "0.7.1",
      "description": "A docutils-compatibility bridge to CommonMark, enabling you to write CommonMark inside of Docutils & Sphinx projects.",
      "hashes": [
        {
          "alg": "MD5",
          "content": "ae65c083a1f49cc8f89aa37e19e5d005"
        },
        {
          "alg": "SHA-256",
          "content": "1b1db69af0231efce3fa21b94ff627ea33dee7079a01dd0a7f8482c3da148b3f"
        }
      ],
      "licenses": [
        {
          "license": {
            "name": "MIT"
          }
        }
      ],
      "purl": "pkg:pypi/recommonmark@0.7.1",
      "modified": false
    },
    {
      "type": "library",
      "bom-ref": "pkg:pypi/docutils@0.16",
      "group": "",
      "name": "docutils",
      "version": "0.16",
      "description": "Docutils -- Python Documentation Utilities",
      "hashes": [
        {
          "alg": "SHA-256",
          "content": "0c5b78adfbf7762415433f5515cd5c9e762339e23369dbe8000d84a4bf4ab3af"
        }
      ],
      "licenses": [
        {
          "license": {
            "name": "public domain, Python, 2-Clause BSD, GPL 3 (see COPYING.txt)"
          }
        }
      ],
      "purl": "pkg:pypi/docutils@0.16",
      "externalReferences": [
        {
          "url": "http://docutils.sourceforge.net/",
          "type": "website"
        }
      ]
    },
    {
      "type": "library",
      "bom-ref": "pkg:pypi/sphinx@2.4.0",
      "group": "",
      "name": "sphinx",
      "version": "2.4.0",
      "description": "Python documentation generator",
      "hashes": [
        {
          "alg": "SHA-256",
          "content": "b3feeed2da588adabd0db5329a309f27317e98382122721511e901833d092028"
        }
      ],
      "licenses": [
        {
          "license": {
            "id": "0BSD",
            "url": "https://opensource.org/licenses/0BSD"
          }
        }
      ],
      "purl": "pkg:pypi/sphinx@2.4.0",
      "externalReferences": [
        {
          "url": "https://www.sphinx-doc.org/",
          "type": "website"
        }
      ]
    },
    {
      "type": "library",
      "bom-ref": "pkg:pypi/sphinxcontrib.bibtex@1.0.0",
      "group": "",
      "name": "sphinxcontrib.bibtex",
      "version": "1.0.0",
      "description": "Sphinx extension for BibTeX style citations.",
      "hashes": [
        {
          "alg": "SHA-256",
          "content": "bebc2cba91e838f808c49dbf5735812525a11221a9b134fa4cc366990f85c864"
        }
      ],
      "licenses": [
        {
          "license": {
            "id": "0BSD",
            "url": "https://opensource.org/licenses/0BSD"
          }
        }
      ],
      "purl": "pkg:pypi/sphinxcontrib.bibtex@1.0.0",
      "externalReferences": [
        {
          "url": "https://github.com/mcmtroffaes/sphinxcontrib-bibtex",
          "type": "vcs"
        }
      ]
    },
    {
      "type": "library",
      "bom-ref": "pkg:pypi/sphinxcontrib.mermaid@0.5.0",
      "group": "",
      "name": "sphinxcontrib.mermaid",
      "version": "0.5.0",
      "description": "Mermaid diagrams in yours Sphinx powered docs",
      "hashes": [
        {
          "alg": "SHA-256",
          "content": "80a4754d71c3f66a5b4ccb320868eb12f5eb0f2d25102e77886ce7ce327ec827"
        }
      ],
      "licenses": [
        {
          "license": {
            "id": "0BSD",
            "url": "https://opensource.org/licenses/0BSD"
          }
        }
      ],
      "purl": "pkg:pypi/sphinxcontrib.mermaid@0.5.0",
      "externalReferences": [
        {
          "url": "https://github.com/mgaitan/sphinxcontrib-mermaid",
          "type": "vcs"
        }
      ]
    },
    {
      "type": "library",
      "bom-ref": "pkg:pypi/sphinx-rtd-theme@0.4.0",
      "group": "",
      "name": "sphinx-rtd-theme",
      "version": "0.4.0",
      "description": "Read the Docs theme for Sphinx",
      "hashes": [
        {
          "alg": "SHA-256",
          "content": "aa3e190392e963551432de7df24b8a5fbe5b71a2f4fcd9d5b75808b52ad999e5"
        }
      ],
      "licenses": [
        {
          "license": {
            "id": "MIT",
            "url": "https://opensource.org/licenses/MIT"
          }
        }
      ],
      "purl": "pkg:pypi/sphinx-rtd-theme@0.4.0",
      "externalReferences": [
        {
          "url": "https://github.com/readthedocs/sphinx_rtd_theme",
          "type": "vcs"
        }
      ]
    },
    {
      "type": "library",
      "bom-ref": "pkg:pypi/recommonmark@0.6.0",
      "group": "",
      "name": "recommonmark",
      "version": "0.6.0",
      "description": "A docutils-compatibility bridge to CommonMark, enabling you to write CommonMark inside of Docutils & Sphinx projects.",
      "hashes": [
        {
          "alg": "SHA-256",
          "content": "2ec4207a574289355d5b6ae4ae4abb29043346ca12cdd5f07d374dc5987d2852"
        }
      ],
      "licenses": [
        {
          "license": {
            "id": "MIT",
            "url": "https://opensource.org/licenses/MIT"
          }
        }
      ],
      "purl": "pkg:pypi/recommonmark@0.6.0",
      "externalReferences": [
        {
          "url": "https://github.com/rtfd/recommonmark",
          "type": "vcs"
        }
      ]
    },
    {
      "type": "library",
      "bom-ref": "pkg:pypi/sphinx-argparse@0.2.0",
      "group": "",
      "name": "sphinx-argparse",
      "version": "0.2.0",
      "description": "A sphinx extension that automatically documents argparse commands and options",
      "hashes": [
        {
          "alg": "SHA-256",
          "content": "6d08e4b3bfef23c4165c18ecdcd54b2d9529f8ae552759f7bafa0c6e29c017a8"
        }
      ],
      "licenses": [
        {
          "license": {
            "id": "MIT",
            "url": "https://opensource.org/licenses/MIT"
          }
        }
      ],
      "purl": "pkg:pypi/sphinx-argparse@0.2.0"
    },
    {
      "type": "library",
      "bom-ref": "pkg:pypi/sphinx-markdown_tables@0.0.12",
      "group": "",
      "name": "sphinx_markdown_tables",
      "version": "0.0.12",
      "description": "A Sphinx extension for rendering tables written in markdown",
      "hashes": [
        {
          "alg": "SHA-256",
          "content": "ecfc7fd2e02c339fcf12eb9cbcf59fedeb5ff54b6fe666df6e0791a03ece9b05"
        }
      ],
      "purl": "pkg:pypi/sphinx-markdown_tables@0.0.12",
      "externalReferences": [
        {
          "url": "https://github.com/ryanfox/sphinx-markdown-tables",
          "type": "vcs"
        }
      ]
    }
  ]
}
