{
  "bomFormat": "CycloneDX",
  "specVersion": "1.3",
  "version": 1,
  "metadata": {
    "tools": [
      {
        "vendor": "CycloneDX",
        "name": "cyclonedx-gomod",
        "version": "v0.0.0-unset",
        "hashes": [
          {
            "alg": "MD5",
            "content": "a35776fc9417e8071d3f1dcfa2f1dd19"
          },
          {
            "alg": "SHA-1",
            "content": "a19a8eed713eff5a2092e5283c201a146f19421d"
          },
          {
            "alg": "SHA-256",
            "content": "17b3b980b9a5d0f48ad52043dee5b31aff3ae6599a36bc94224dc7b6a46759ef"
          },
          {
            "alg": "SHA-512",
            "content": "9d4f06aab20cede94a1aedf11a300ae9de98871235c68c72e421cd6d45495910861b39e743ee0eceb11bbdcd2c9acc3312c19064cfe90177243fb43127fcfa46"
          }
        ]
      },
      {
        "vendor": "AppThreat",
        "name": "cdxgen",
        "version": "3.0.10"
      },
      {
        "vendor": "Fortress Information Security",
        "name": "Github Extractor",
        "version": "1.15.1"
      }
    ],
    "authors": [
      {
        "name": "Fortress Information Security",
        "email": "sales@fortressinfosec.com",
        "phone": "1-407-573-6800"
      }
    ],
    "timestamp": "2022-06-01T21:00:00Z",
    "component": {
      "type": "application",
      "name": "opentelemetry-go",
      "version": "v1.7.0",
      "group": "open-telemetry",
      "externalReferences": [
        {
          "url": "https://github.com/open-telemetry/opentelemetry-go.git",
          "type": "distribution"
        },
        {
          "type": "website",
          "url": "https://opentelemetry.io/",
          "comment": "As set via `homepage` in Github API"
        }
      ]
    }
  },
  "components": [
    {
      "type": "library",
      "bom-ref": "pkg:golang/github.com/go-logr/logr@v1.2.3",
      "name": "github.com/go-logr/logr",
      "version": "v1.2.3",
      "scope": "required",
      "hashes": [
        {
          "alg": "SHA-256",
          "content": "d839ed5701e4568a6f1025514a52f93d2a3d786f9c0240c2b9c90bb9b37eaead"
        }
      ],
      "purl": "pkg:golang/github.com/go-logr/logr@v1.2.3",
      "externalReferences": [
        {
          "url": "https://github.com/go-logr/logr",
          "type": "vcs"
        }
      ]
    },
    {
      "type": "library",
      "bom-ref": "pkg:golang/github.com/go-logr/stdr@v1.2.2",
      "name": "github.com/go-logr/stdr",
      "version": "v1.2.2",
      "scope": "required",
      "hashes": [
        {
          "alg": "SHA-256",
          "content": "8525b11e8a93816d92daa19cd0b4c0239eb7299e582984614f730529931b8da8"
        }
      ],
      "purl": "pkg:golang/github.com/go-logr/stdr@v1.2.2",
      "externalReferences": [
        {
          "url": "https://github.com/go-logr/stdr",
          "type": "vcs"
        }
      ]
    },
    {
      "type": "library",
      "bom-ref": "pkg:golang/go.opentelemetry.io/otel/trace@v0.0.0-20220510111738-2a02a55c375b",
      "name": "go.opentelemetry.io/otel/trace",
      "version": "v0.0.0-20220510111738-2a02a55c375b",
      "scope": "required",
      "hashes": [
        {
          "alg": "SHA-256",
          "content": "75d5957919e7366acd5a92bde25c05250144bc1772ea6310f95b8b8e3b07c4ad"
        }
      ],
      "purl": "pkg:golang/go.opentelemetry.io/otel/trace@v0.0.0-20220510111738-2a02a55c375b"
    },
    {
      "type": "library",
      "bom-ref": "pkg:golang/go.opentelemetry.io/otel",
      "group": "go.opentelemetry.io",
      "name": "otel",
      "version": "",
      "description": "",
      "scope": "required",
      "purl": "pkg:golang/go.opentelemetry.io/otel"
    },
    {
      "type": "library",
      "bom-ref": "pkg:golang/go.opentelemetry.io/otel/trace@v1.7.0",
      "group": "go.opentelemetry.io/otel",
      "name": "trace",
      "version": "v1.7.0",
      "description": "",
      "scope": "required",
      "hashes": [
        {
          "alg": "SHA-256",
          "content": "7f32d207d9ea476797cf13d76f6256f48284f927325c0e3ccb21384cdbe81ea5"
        }
      ],
      "purl": "pkg:golang/go.opentelemetry.io/otel/trace@v1.7.0"
    }
  ],
  "dependencies": [
    {
      "ref": "pkg:golang/github.com/go-logr/logr@v1.2.3"
    },
    {
      "ref": "pkg:golang/github.com/go-logr/stdr@v1.2.2",
      "dependsOn": [
        "pkg:golang/github.com/go-logr/logr@v1.2.3"
      ]
    },
    {
      "ref": "pkg:golang/go.opentelemetry.io/otel/trace@v0.0.0-20220510111738-2a02a55c375b",
      "dependsOn": [
        "pkg:golang/go.opentelemetry.io/otel"
      ]
    },
    {
      "ref": "pkg:golang/go.opentelemetry.io/otel@v0.0.0-20220510111738-2a02a55c375b",
      "dependsOn": [
        "pkg:golang/github.com/go-logr/logr@v1.2.3",
        "pkg:golang/github.com/go-logr/stdr@v1.2.2",
        "pkg:golang/go.opentelemetry.io/otel/trace@v0.0.0-20220510111738-2a02a55c375b"
      ]
    }
  ]
}
