{
  "bomFormat": "CycloneDX",
  "specVersion": "1.3",
  "version": 1,
  "metadata": {
    "tools": [
      {
        "vendor": "AppThreat",
        "name": "cdxgen",
        "version": "3.0.10"
      },
      {
        "vendor": "Fortress Information Security",
        "name": "Github Extractor",
        "version": "1.15.1"
      }
    ],
    "authors": [
      {
        "name": "Fortress Information Security",
        "email": "sales@fortressinfosec.com",
        "phone": "1-407-573-6800"
      }
    ],
    "timestamp": "2022-06-01T21:00:00Z",
    "component": {
      "type": "application",
      "name": "osquery",
      "version": "5.3.0",
      "group": "osquery",
      "externalReferences": [
        {
          "url": "https://github.com/osquery/osquery.git",
          "type": "distribution"
        },
        {
          "type": "website",
          "url": "https://osquery.io",
          "comment": "As set via `homepage` in Github API"
        }
      ]
    }
  },
  "components": [
    {
      "type": "library",
      "publisher": "Antoine Pitrou",
      "name": "pathlib",
      "version": "1.0.1",
      "description": "Object-oriented filesystem paths",
      "hashes": [
        {
          "alg": "MD5",
          "content": "f26b13acf298a15cdb46a3dffc8eb0de"
        },
        {
          "alg": "SHA-256",
          "content": "f35f95ab8b0f59e6d354090350b44a80a80635d22efdedfa84c7ad1cf0a74147"
        }
      ],
      "licenses": [
        {
          "license": {
            "name": "MIT License"
          }
        }
      ],
      "purl": "pkg:pypi/pathlib@1.0.1",
      "modified": false
    },
    {
      "type": "library",
      "publisher": "Yijun Yu",
      "name": "ast",
      "version": "0.0.2",
      "description": "Conversion between protobuf3 and srcML.",
      "hashes": [
        {
          "alg": "MD5",
          "content": "866a45bda3dc0b19f8da494f6a548a8d"
        },
        {
          "alg": "SHA-256",
          "content": "04cf2827c4048d18635ca8f85357a4285d140424ac26028be0dc585f824e07cd"
        }
      ],
      "licenses": [
        {
          "license": {
            "name": "MIT"
          }
        }
      ],
      "purl": "pkg:pypi/ast@0.0.2",
      "modified": false
    },
    {
      "type": "library",
      "publisher": "Vinay Sajip",
      "name": "logging",
      "version": "0.4.9.6",
      "description": "A logging module for Python",
      "hashes": [
        {
          "alg": "MD5",
          "content": "dc0a7ebc8b8970263911e11e7b7e1ca8"
        },
        {
          "alg": "SHA-256",
          "content": "26f6b50773f085042d301085bd1bf5d9f3735704db9f37c1ce6d8b85c38f2417"
        }
      ],
      "licenses": [
        {
          "license": {
            "name": "Copyright (C) 2001-2005 by Vinay Sajip. All Rights Reserved. See LICENSE for license."
          }
        }
      ],
      "purl": "pkg:pypi/logging@0.4.9.6",
      "modified": false
    },
    {
      "type": "library",
      "publisher": "Ka-Ping Yee",
      "name": "uuid",
      "version": "1.30",
      "description": "UUID object and generation functions (Python 2.3 or higher)",
      "hashes": [
        {
          "alg": "MD5",
          "content": "639b310f1fe6800e4bf8aa1dd9333117"
        },
        {
          "alg": "SHA-256",
          "content": "1f87cc004ac5120466f36c5beae48b4c48cc411968eed0eaecd3da82aa96193f"
        }
      ],
      "purl": "pkg:pypi/uuid@1.30",
      "modified": false
    },
    {
      "type": "library",
      "name": "hashlib",
      "version": "20081119",
      "description": "Secure hash and message digest algorithm library",
      "hashes": [
        {
          "alg": "MD5",
          "content": "46e59db6d5cac34b3344ef0c30d0897f"
        },
        {
          "alg": "SHA-256",
          "content": "419de2fd10ae71ed9c6adcb55903f116abd1d8acc8c814dfd5f839b4d5013e38"
        }
      ],
      "purl": "pkg:pypi/hashlib@20081119",
      "modified": false
    },
    {
      "type": "library",
      "publisher": "Haak Saxberg",
      "name": "utils",
      "version": "1.0.1",
      "description": "A grab-bag of utility functions and objects",
      "hashes": [
        {
          "alg": "MD5",
          "content": "96dfa21b1739f63ca1bf073ee9d9be18"
        },
        {
          "alg": "SHA-256",
          "content": "ff04549b95deb2fd7a82ddaea077e2f41209079e2482df231c358770b27b72a7"
        }
      ],
      "purl": "pkg:pypi/utils@1.0.1",
      "modified": false
    },
    {
      "type": "library",
      "publisher": "Michael Foord",
      "name": "unittest",
      "version": "0.0",
      "hashes": [
        {
          "alg": "MD5",
          "content": "2a416384f814604ed854d40f352f1191"
        },
        {
          "alg": "SHA-256",
          "content": "1b492484bea7f68abda5fcc61412e77b6a105e5842355d630f8b75f01add3555"
        }
      ],
      "purl": "pkg:pypi/unittest@0.0",
      "modified": false
    },
    {
      "type": "library",
      "publisher": "Genialis d.o.o.",
      "name": "genapi",
      "version": "0.0.8",
      "description": "A Python API for the Genesis platform.",
      "hashes": [
        {
          "alg": "MD5",
          "content": "dbed68dc200198c8cf32a38abaf0fae6"
        },
        {
          "alg": "SHA-256",
          "content": "1f8d15a91075a486f1eff2e6a7c077883007ea96347d3226c79156f4a25256a0"
        }
      ],
      "licenses": [
        {
          "license": {
            "name": "Proprietary software"
          }
        }
      ],
      "purl": "pkg:pypi/genapi@0.0.8",
      "modified": false
    },
    {
      "type": "library",
      "publisher": "See long_description for details",
      "name": "ssl",
      "version": "1.16",
      "description": "SSL wrapper for socket objects (2.3, 2.4, 2.5 compatible)",
      "hashes": [
        {
          "alg": "MD5",
          "content": "fb12d335d56f3c8c7c1fefc1c06c4bfb"
        },
        {
          "alg": "SHA-256",
          "content": "ac21156fee6aee9eb8d765bbb16f5f49492d81ff4b22f7b8fc001d2251120930"
        }
      ],
      "licenses": [
        {
          "license": {
            "name": "Python (MIT-like)"
          }
        }
      ],
      "purl": "pkg:pypi/ssl@1.16",
      "modified": false
    },
    {
      "type": "library",
      "publisher": "Franck Cuny",
      "name": "http",
      "version": "0.02",
      "description": "HTTP library for Python",
      "hashes": [
        {
          "alg": "MD5",
          "content": "9e4684a411a9cf371cbd0bc8658a803a"
        },
        {
          "alg": "SHA-256",
          "content": "071bc409f687535b6e31a94bced6a7773905abad8d2f236b406202b7283f682c"
        }
      ],
      "licenses": [
        {
          "license": {
            "name": "MIT"
          }
        }
      ],
      "purl": "pkg:pypi/http@0.02",
      "modified": false
    },
    {
      "type": "library",
      "publisher": "Stephan Klein",
      "name": "signal",
      "version": "0.1",
      "description": "Send SMS messages via ADB and your Android phone. Comes with a CLI.",
      "licenses": [
        {
          "license": {
            "name": "MIT"
          }
        }
      ],
      "purl": "pkg:pypi/signal@0.1",
      "modified": false
    },
    {
      "type": "library",
      "publisher": "Giampaolo Rodola",
      "name": "psutil",
      "version": "5.9.0",
      "description": "Cross-platform lib for process and system monitoring in Python.",
      "hashes": [
        {
          "alg": "MD5",
          "content": "75d0c4cf515a5acd882fd30e87f6d13f"
        },
        {
          "alg": "SHA-256",
          "content": "7d190ee2eaef7831163f254dc58f6d2e2a22e27382b936aab51c835fc080c3d3"
        }
      ],
      "licenses": [
        {
          "license": {
            "name": "BSD"
          }
        }
      ],
      "purl": "pkg:pypi/psutil@5.9.0",
      "modified": false
    },
    {
      "type": "library",
      "name": "docker",
      "version": "5.0.3",
      "description": "A Python library for the Docker Engine API.",
      "hashes": [
        {
          "alg": "MD5",
          "content": "09d415649b96158c55eeced07b86bc84"
        },
        {
          "alg": "SHA-256",
          "content": "7a79bb439e3df59d0a72621775d600bc8bc8b422d285824cb37103eab91d1ce0"
        }
      ],
      "licenses": [
        {
          "license": {
            "name": "Apache License 2.0"
          }
        }
      ],
      "purl": "pkg:pypi/docker@5.0.3",
      "modified": false
    },
    {
      "type": "library",
      "publisher": "Kenneth Reitz",
      "name": "requests",
      "version": "2.27.1",
      "description": "Python HTTP for Humans.",
      "hashes": [
        {
          "alg": "MD5",
          "content": "435db0f122c83decd27524f690e89650"
        },
        {
          "alg": "SHA-256",
          "content": "f22fa1e554c9ddfd16e6e41ac79759e17be9e492b3587efa038054674760e72d"
        }
      ],
      "licenses": [
        {
          "license": {
            "name": "Apache 2.0"
          }
        }
      ],
      "purl": "pkg:pypi/requests@2.27.1",
      "modified": false
    },
    {
      "type": "library",
      "publisher": "Patrick Ng",
      "name": "timeout_decorator",
      "version": "0.5.0",
      "description": "Timeout decorator",
      "hashes": [
        {
          "alg": "MD5",
          "content": "8545649e70b3ca43bcff11f08a996c3e"
        },
        {
          "alg": "SHA-256",
          "content": "6a2f2f58db1c5b24a2cc79de6345760377ad8bdc13813f5265f6c3e63d16b3d7"
        }
      ],
      "purl": "pkg:pypi/timeout-decorator@0.5.0",
      "modified": false
    },
    {
      "type": "library",
      "bom-ref": "pkg:pypi/mkdocs@1.2.3",
      "group": "",
      "name": "mkdocs",
      "version": "1.2.3",
      "description": "Project documentation with Markdown.",
      "hashes": [
        {
          "alg": "SHA-256",
          "content": "a1fa8c2d0c1305d7fc2b9d9f607c71778572a8b110fb26642aa00296c9e6d072"
        }
      ],
      "licenses": [
        {
          "license": {
            "id": "0BSD",
            "url": "https://opensource.org/licenses/0BSD"
          }
        }
      ],
      "purl": "pkg:pypi/mkdocs@1.2.3",
      "externalReferences": [
        {
          "url": "https://www.mkdocs.org",
          "type": "website"
        }
      ]
    },
    {
      "type": "library",
      "bom-ref": "pkg:pypi/jinja2@3.0.3",
      "group": "",
      "name": "jinja2",
      "version": "3.0.3",
      "description": "A very fast and expressive template engine.",
      "hashes": [
        {
          "alg": "SHA-256",
          "content": "077ce6014f7b40d03b47d1f1ca4b0fc8328a692bd284016f806ed0eaca390ad8"
        }
      ],
      "licenses": [
        {
          "license": {
            "id": "BSD-3-Clause",
            "url": "https://opensource.org/licenses/BSD-3-Clause"
          }
        }
      ],
      "purl": "pkg:pypi/jinja2@3.0.3",
      "externalReferences": [
        {
          "url": "https://palletsprojects.com/p/jinja/",
          "type": "website"
        }
      ]
    }
  ]
}
