{
  "bomFormat": "CycloneDX",
  "specVersion": "1.3",
  "version": 1,
  "metadata": {
    "tools": [
      {
        "vendor": "CycloneDX",
        "name": "cyclonedx-gomod",
        "version": "v0.0.0-unset",
        "hashes": [
          {
            "alg": "MD5",
            "content": "a35776fc9417e8071d3f1dcfa2f1dd19"
          },
          {
            "alg": "SHA-1",
            "content": "a19a8eed713eff5a2092e5283c201a146f19421d"
          },
          {
            "alg": "SHA-256",
            "content": "17b3b980b9a5d0f48ad52043dee5b31aff3ae6599a36bc94224dc7b6a46759ef"
          },
          {
            "alg": "SHA-512",
            "content": "9d4f06aab20cede94a1aedf11a300ae9de98871235c68c72e421cd6d45495910861b39e743ee0eceb11bbdcd2c9acc3312c19064cfe90177243fb43127fcfa46"
          }
        ]
      },
      {
        "vendor": "AppThreat",
        "name": "cdxgen",
        "version": "3.0.10"
      },
      {
        "vendor": "Fortress Information Security",
        "name": "Github Extractor",
        "version": "1.15.1"
      }
    ],
    "authors": [
      {
        "name": "Fortress Information Security",
        "email": "sales@fortressinfosec.com",
        "phone": "1-407-573-6800"
      }
    ],
    "timestamp": "2022-06-01T21:00:00Z",
    "component": {
      "type": "application",
      "name": "gobgp",
      "version": "v3.3.0",
      "group": "osrg",
      "externalReferences": [
        {
          "url": "https://github.com/osrg/gobgp.git",
          "type": "distribution"
        },
        {
          "type": "website",
          "url": "https://osrg.github.io/gobgp/",
          "comment": "As set via `homepage` in Github API"
        }
      ]
    }
  },
  "components": [
    {
      "type": "library",
      "bom-ref": "pkg:golang/github.com/BurntSushi/toml@v1.0.0",
      "name": "github.com/BurntSushi/toml",
      "version": "v1.0.0",
      "scope": "required",
      "hashes": [
        {
          "alg": "SHA-256",
          "content": "76d0d6adea6c54f7d6f47ff8cbb743805736301512789865683b4ad770b11655"
        }
      ],
      "purl": "pkg:golang/github.com/BurntSushi/toml@v1.0.0",
      "externalReferences": [
        {
          "url": "https://github.com/BurntSushi/toml",
          "type": "vcs"
        }
      ]
    },
    {
      "type": "library",
      "bom-ref": "pkg:golang/github.com/coreos/go-systemd/v22@v22.3.2",
      "name": "github.com/coreos/go-systemd/v22",
      "version": "v22.3.2",
      "scope": "required",
      "hashes": [
        {
          "alg": "SHA-256",
          "content": "0fdfdb424e6f95740567a2b0baeeb36a25c9f684cf7baf3ef80cc025cd43cd22"
        }
      ],
      "purl": "pkg:golang/github.com/coreos/go-systemd/v22@v22.3.2",
      "externalReferences": [
        {
          "url": "https://github.com/coreos/go-systemd",
          "type": "vcs"
        }
      ]
    },
    {
      "type": "library",
      "bom-ref": "pkg:golang/github.com/dgryski/go-farm@v0.0.0-20200201041132-a6ae2369ad13",
      "name": "github.com/dgryski/go-farm",
      "version": "v0.0.0-20200201041132-a6ae2369ad13",
      "scope": "required",
      "hashes": [
        {
          "alg": "SHA-256",
          "content": "7c08dcf66eb6f94595fd600528b362e994b4ebbe5e1140bdcb7025c126d0bb56"
        }
      ],
      "purl": "pkg:golang/github.com/dgryski/go-farm@v0.0.0-20200201041132-a6ae2369ad13",
      "externalReferences": [
        {
          "url": "https://github.com/dgryski/go-farm",
          "type": "vcs"
        }
      ]
    },
    {
      "type": "library",
      "bom-ref": "pkg:golang/github.com/eapache/channels@v1.1.0",
      "name": "github.com/eapache/channels",
      "version": "v1.1.0",
      "scope": "required",
      "hashes": [
        {
          "alg": "SHA-256",
          "content": "175b5a1dc9fbfc5d22f0362a297267ca125c569a7692015c35e3f15ed9f2bb89"
        }
      ],
      "purl": "pkg:golang/github.com/eapache/channels@v1.1.0",
      "externalReferences": [
        {
          "url": "https://github.com/eapache/channels",
          "type": "vcs"
        }
      ]
    },
    {
      "type": "library",
      "bom-ref": "pkg:golang/github.com/eapache/queue@v1.1.0",
      "name": "github.com/eapache/queue",
      "version": "v1.1.0",
      "scope": "required",
      "hashes": [
        {
          "alg": "SHA-256",
          "content": "60e12eeca35ceb59ed89095c11e508a034c9da8f264339e836f5218a282922a7"
        }
      ],
      "purl": "pkg:golang/github.com/eapache/queue@v1.1.0",
      "externalReferences": [
        {
          "url": "https://github.com/eapache/queue",
          "type": "vcs"
        }
      ]
    },
    {
      "type": "library",
      "bom-ref": "pkg:golang/github.com/fsnotify/fsnotify@v1.5.1",
      "name": "github.com/fsnotify/fsnotify",
      "version": "v1.5.1",
      "scope": "required",
      "hashes": [
        {
          "alg": "SHA-256",
          "content": "9997105075505105a83d75edb9ff72b845cab9d915dacc75134e9469d296a602"
        }
      ],
      "purl": "pkg:golang/github.com/fsnotify/fsnotify@v1.5.1",
      "externalReferences": [
        {
          "url": "https://github.com/fsnotify/fsnotify",
          "type": "vcs"
        }
      ]
    },
    {
      "type": "library",
      "bom-ref": "pkg:golang/github.com/golang/protobuf@v1.5.2",
      "name": "github.com/golang/protobuf",
      "version": "v1.5.2",
      "scope": "required",
      "hashes": [
        {
          "alg": "SHA-256",
          "content": "44e3ca04d15f4203943227c7c8ff8a61bbe98db76814db3e68aec35e58e2d13c"
        }
      ],
      "purl": "pkg:golang/github.com/golang/protobuf@v1.5.2",
      "externalReferences": [
        {
          "url": "https://github.com/golang/protobuf",
          "type": "vcs"
        }
      ]
    },
    {
      "type": "library",
      "bom-ref": "pkg:golang/github.com/google/uuid@v1.3.0",
      "name": "github.com/google/uuid",
      "version": "v1.3.0",
      "scope": "required",
      "hashes": [
        {
          "alg": "SHA-256",
          "content": "b7a2625e09b05cc8c4b3c56eb172099360571ec9fec31f0165d4daa19e5fbbb2"
        }
      ],
      "purl": "pkg:golang/github.com/google/uuid@v1.3.0",
      "externalReferences": [
        {
          "url": "https://github.com/google/uuid",
          "type": "vcs"
        }
      ]
    },
    {
      "type": "library",
      "bom-ref": "pkg:golang/github.com/hashicorp/hcl@v1.0.0",
      "name": "github.com/hashicorp/hcl",
      "version": "v1.0.0",
      "scope": "required",
      "hashes": [
        {
          "alg": "SHA-256",
          "content": "d009e5ce3a62e2f11ab1378d167da62c98134b0b74fbab1fb224c6f2a7161b1e"
        }
      ],
      "purl": "pkg:golang/github.com/hashicorp/hcl@v1.0.0",
      "externalReferences": [
        {
          "url": "https://github.com/hashicorp/hcl",
          "type": "vcs"
        }
      ]
    },
    {
      "type": "library",
      "bom-ref": "pkg:golang/github.com/inconshreveable/mousetrap@v1.0.0",
      "name": "github.com/inconshreveable/mousetrap",
      "version": "v1.0.0",
      "scope": "required",
      "hashes": [
        {
          "alg": "SHA-256",
          "content": "67cb6ee6cada2d709721c011c41a7ff1c6ef97055aed9d4d1e0f5710a86d4af3"
        }
      ],
      "purl": "pkg:golang/github.com/inconshreveable/mousetrap@v1.0.0",
      "externalReferences": [
        {
          "url": "https://github.com/inconshreveable/mousetrap",
          "type": "vcs"
        }
      ]
    },
    {
      "type": "library",
      "bom-ref": "pkg:golang/github.com/jessevdk/go-flags@v1.5.0",
      "name": "github.com/jessevdk/go-flags",
      "version": "v1.5.0",
      "scope": "required",
      "hashes": [
        {
          "alg": "SHA-256",
          "content": "d63298bdbc448df525d1f9aa4c239fa27bec9071d73230724932d6e32f4b16f7"
        }
      ],
      "purl": "pkg:golang/github.com/jessevdk/go-flags@v1.5.0",
      "externalReferences": [
        {
          "url": "https://github.com/jessevdk/go-flags",
          "type": "vcs"
        }
      ]
    },
    {
      "type": "library",
      "bom-ref": "pkg:golang/github.com/k-sone/critbitgo@v1.4.0",
      "name": "github.com/k-sone/critbitgo",
      "version": "v1.4.0",
      "scope": "required",
      "hashes": [
        {
          "alg": "SHA-256",
          "content": "97bd5c4f20467a1e97e404e1e8589b830dfeaed353f34040d2e34d5a090fadb1"
        }
      ],
      "purl": "pkg:golang/github.com/k-sone/critbitgo@v1.4.0",
      "externalReferences": [
        {
          "url": "https://github.com/k-sone/critbitgo",
          "type": "vcs"
        }
      ]
    },
    {
      "type": "library",
      "bom-ref": "pkg:golang/github.com/kr/pretty@v0.3.0",
      "name": "github.com/kr/pretty",
      "version": "v0.3.0",
      "scope": "required",
      "hashes": [
        {
          "alg": "SHA-256",
          "content": "5a0365eddc0da4467a8c9f64d6c9eae2966c83b0ce10df213fd5f0d13b23c24d"
        }
      ],
      "purl": "pkg:golang/github.com/kr/pretty@v0.3.0",
      "externalReferences": [
        {
          "url": "https://github.com/kr/pretty",
          "type": "vcs"
        }
      ]
    },
    {
      "type": "library",
      "bom-ref": "pkg:golang/github.com/kr/text@v0.2.0",
      "name": "github.com/kr/text",
      "version": "v0.2.0",
      "scope": "required",
      "hashes": [
        {
          "alg": "SHA-256",
          "content": "e4dc7461ad19a98db2815dfae90cedbab1c8d7726af79029715689061a52f806"
        }
      ],
      "purl": "pkg:golang/github.com/kr/text@v0.2.0",
      "externalReferences": [
        {
          "url": "https://github.com/kr/text",
          "type": "vcs"
        }
      ]
    },
    {
      "type": "library",
      "bom-ref": "pkg:golang/github.com/magiconair/properties@v1.8.5",
      "name": "github.com/magiconair/properties",
      "version": "v1.8.5",
      "scope": "required",
      "hashes": [
        {
          "alg": "SHA-256",
          "content": "6fa909b3e1263c53181a4a30f46894c82c8ebc8c187ad609ddf49a59a93f1a5b"
        }
      ],
      "purl": "pkg:golang/github.com/magiconair/properties@v1.8.5",
      "externalReferences": [
        {
          "url": "https://github.com/magiconair/properties",
          "type": "vcs"
        }
      ]
    },
    {
      "type": "library",
      "bom-ref": "pkg:golang/github.com/mitchellh/mapstructure@v1.4.3",
      "name": "github.com/mitchellh/mapstructure",
      "version": "v1.4.3",
      "scope": "required",
      "hashes": [
        {
          "alg": "SHA-256",
          "content": "395a300d20a5970fd88dd2e46a6dffb26ef012d3b2e7d77c9dd1a009cca3f1cb"
        }
      ],
      "purl": "pkg:golang/github.com/mitchellh/mapstructure@v1.4.3",
      "externalReferences": [
        {
          "url": "https://github.com/mitchellh/mapstructure",
          "type": "vcs"
        }
      ]
    },
    {
      "type": "library",
      "bom-ref": "pkg:golang/github.com/pelletier/go-toml@v1.9.4",
      "name": "github.com/pelletier/go-toml",
      "version": "v1.9.4",
      "scope": "required",
      "hashes": [
        {
          "alg": "SHA-256",
          "content": "b6310d17a31f64083c7b8666653796696893daf5edb283bafa2b8e8c58440b03"
        }
      ],
      "purl": "pkg:golang/github.com/pelletier/go-toml@v1.9.4",
      "externalReferences": [
        {
          "url": "https://github.com/pelletier/go-toml",
          "type": "vcs"
        }
      ]
    },
    {
      "type": "library",
      "bom-ref": "pkg:golang/github.com/rogpeppe/go-internal@v1.6.1",
      "name": "github.com/rogpeppe/go-internal",
      "version": "v1.6.1",
      "scope": "required",
      "hashes": [
        {
          "alg": "SHA-256",
          "content": "fc589557c752fdef98a85d89bcedf25d115b04b4c8b920e4b82eda04e02f2fe9"
        }
      ],
      "purl": "pkg:golang/github.com/rogpeppe/go-internal@v1.6.1",
      "externalReferences": [
        {
          "url": "https://github.com/rogpeppe/go-internal",
          "type": "vcs"
        }
      ]
    },
    {
      "type": "library",
      "bom-ref": "pkg:golang/github.com/sirupsen/logrus@v1.8.1",
      "name": "github.com/sirupsen/logrus",
      "version": "v1.8.1",
      "scope": "required",
      "hashes": [
        {
          "alg": "SHA-256",
          "content": "7492ae1e0aa4d4d35096aa00e814e533559ff43387dcd063432bb487df806591"
        }
      ],
      "purl": "pkg:golang/github.com/sirupsen/logrus@v1.8.1",
      "externalReferences": [
        {
          "url": "https://github.com/sirupsen/logrus",
          "type": "vcs"
        }
      ]
    },
    {
      "type": "library",
      "bom-ref": "pkg:golang/github.com/spf13/afero@v1.6.0",
      "name": "github.com/spf13/afero",
      "version": "v1.6.0",
      "scope": "required",
      "hashes": [
        {
          "alg": "SHA-256",
          "content": "c686b1dac2760d3f12f31036a5a3c58c309270235e5ac83be551b40cb46b7a26"
        }
      ],
      "purl": "pkg:golang/github.com/spf13/afero@v1.6.0",
      "externalReferences": [
        {
          "url": "https://github.com/spf13/afero",
          "type": "vcs"
        }
      ]
    },
    {
      "type": "library",
      "bom-ref": "pkg:golang/github.com/spf13/cast@v1.4.1",
      "name": "github.com/spf13/cast",
      "version": "v1.4.1",
      "scope": "required",
      "hashes": [
        {
          "alg": "SHA-256",
          "content": "b348737be274d7de997c4313b3cd0ded4945b74043b90ed0f890e71e231629d0"
        }
      ],
      "purl": "pkg:golang/github.com/spf13/cast@v1.4.1",
      "externalReferences": [
        {
          "url": "https://github.com/spf13/cast",
          "type": "vcs"
        }
      ]
    },
    {
      "type": "library",
      "bom-ref": "pkg:golang/github.com/spf13/cobra@v1.4.0",
      "name": "github.com/spf13/cobra",
      "version": "v1.4.0",
      "scope": "required",
      "hashes": [
        {
          "alg": "SHA-256",
          "content": "cbec09a71eb8c5c80ed55f91727c16d0b107c532918b66433d20635a7ae0f3c4"
        }
      ],
      "purl": "pkg:golang/github.com/spf13/cobra@v1.4.0",
      "externalReferences": [
        {
          "url": "https://github.com/spf13/cobra",
          "type": "vcs"
        }
      ]
    },
    {
      "type": "library",
      "bom-ref": "pkg:golang/github.com/spf13/jwalterweatherman@v1.1.0",
      "name": "github.com/spf13/jwalterweatherman",
      "version": "v1.1.0",
      "scope": "required",
      "hashes": [
        {
          "alg": "SHA-256",
          "content": "b9eeafa02e5b47917c6312394baee3f62e7cd8553842fa366e6aa7a8c6000c59"
        }
      ],
      "purl": "pkg:golang/github.com/spf13/jwalterweatherman@v1.1.0",
      "externalReferences": [
        {
          "url": "https://github.com/spf13/jwalterweatherman",
          "type": "vcs"
        }
      ]
    },
    {
      "type": "library",
      "bom-ref": "pkg:golang/github.com/spf13/pflag@v1.0.5",
      "name": "github.com/spf13/pflag",
      "version": "v1.0.5",
      "scope": "required",
      "hashes": [
        {
          "alg": "SHA-256",
          "content": "8b2f951543823f56bef3216da3f76b836089e6ed3246807b7d9c370cabff2570"
        }
      ],
      "purl": "pkg:golang/github.com/spf13/pflag@v1.0.5",
      "externalReferences": [
        {
          "url": "https://github.com/spf13/pflag",
          "type": "vcs"
        }
      ]
    },
    {
      "type": "library",
      "bom-ref": "pkg:golang/github.com/spf13/viper@v1.10.1",
      "name": "github.com/spf13/viper",
      "version": "v1.10.1",
      "scope": "required",
      "hashes": [
        {
          "alg": "SHA-256",
          "content": "9ee259b98a46ee04e3fd7aa253083c6c0d1ca75f8cda60b727883996e51804a9"
        }
      ],
      "purl": "pkg:golang/github.com/spf13/viper@v1.10.1",
      "externalReferences": [
        {
          "url": "https://github.com/spf13/viper",
          "type": "vcs"
        }
      ]
    },
    {
      "type": "library",
      "bom-ref": "pkg:golang/github.com/subosito/gotenv@v1.2.0",
      "name": "github.com/subosito/gotenv",
      "version": "v1.2.0",
      "scope": "required",
      "hashes": [
        {
          "alg": "SHA-256",
          "content": "4a5af547d1f102510a79f82ae639fd53e0e711394851ae877e01338f483977bb"
        }
      ],
      "purl": "pkg:golang/github.com/subosito/gotenv@v1.2.0",
      "externalReferences": [
        {
          "url": "https://github.com/subosito/gotenv",
          "type": "vcs"
        }
      ]
    },
    {
      "type": "library",
      "bom-ref": "pkg:golang/github.com/vishvananda/netlink@v1.1.1-0.20210330154013-f5de75959ad5",
      "name": "github.com/vishvananda/netlink",
      "version": "v1.1.1-0.20210330154013-f5de75959ad5",
      "scope": "required",
      "hashes": [
        {
          "alg": "SHA-256",
          "content": "f9407604903ce76524187e361fe39e7baf5d8e6c52dc03739766ff26d4f56220"
        }
      ],
      "purl": "pkg:golang/github.com/vishvananda/netlink@v1.1.1-0.20210330154013-f5de75959ad5",
      "externalReferences": [
        {
          "url": "https://github.com/vishvananda/netlink",
          "type": "vcs"
        }
      ]
    },
    {
      "type": "library",
      "bom-ref": "pkg:golang/github.com/vishvananda/netns@v0.0.0-20200728191858-db3c7e526aae",
      "name": "github.com/vishvananda/netns",
      "version": "v0.0.0-20200728191858-db3c7e526aae",
      "scope": "required",
      "hashes": [
        {
          "alg": "SHA-256",
          "content": "e21c010547d00857b70b29b466d2b2abb2f5e9e654b582acf816870cdea6027b"
        }
      ],
      "purl": "pkg:golang/github.com/vishvananda/netns@v0.0.0-20200728191858-db3c7e526aae",
      "externalReferences": [
        {
          "url": "https://github.com/vishvananda/netns",
          "type": "vcs"
        }
      ]
    },
    {
      "type": "library",
      "bom-ref": "pkg:golang/golang.org/x/net@v0.0.0-20220225172249-27dd8689420f",
      "name": "golang.org/x/net",
      "version": "v0.0.0-20220225172249-27dd8689420f",
      "scope": "required",
      "hashes": [
        {
          "alg": "SHA-256",
          "content": "a00e17463d2ab52b7c628d599acd02525b13dca1baf55d9419058f071ba30e67"
        }
      ],
      "purl": "pkg:golang/golang.org/x/net@v0.0.0-20220225172249-27dd8689420f"
    },
    {
      "type": "library",
      "bom-ref": "pkg:golang/golang.org/x/sys@v0.0.0-20211216021012-1d35b9e2eb4e",
      "name": "golang.org/x/sys",
      "version": "v0.0.0-20211216021012-1d35b9e2eb4e",
      "scope": "required",
      "hashes": [
        {
          "alg": "SHA-256",
          "content": "7cb392939434d1e7e44af026fb8c5ca170fe45198b9a6ba53e7e48dd8f45d843"
        }
      ],
      "purl": "pkg:golang/golang.org/x/sys@v0.0.0-20211216021012-1d35b9e2eb4e"
    },
    {
      "type": "library",
      "bom-ref": "pkg:golang/golang.org/x/text@v0.3.7",
      "name": "golang.org/x/text",
      "version": "v0.3.7",
      "scope": "required",
      "hashes": [
        {
          "alg": "SHA-256",
          "content": "a25a70bcfd8a69c5b5656bec47bb90868c9362f280ba97d0ad118114cdf9d869"
        }
      ],
      "purl": "pkg:golang/golang.org/x/text@v0.3.7"
    },
    {
      "type": "library",
      "bom-ref": "pkg:golang/google.golang.org/genproto@v0.0.0-20211208223120-3a66f561d7aa",
      "name": "google.golang.org/genproto",
      "version": "v0.0.0-20211208223120-3a66f561d7aa",
      "scope": "required",
      "hashes": [
        {
          "alg": "SHA-256",
          "content": "23461c2b3d08ece02175da3bc9af24327be9ae1716334e393e690174c3bdccdd"
        }
      ],
      "purl": "pkg:golang/google.golang.org/genproto@v0.0.0-20211208223120-3a66f561d7aa"
    },
    {
      "type": "library",
      "bom-ref": "pkg:golang/google.golang.org/grpc@v1.45.0",
      "name": "google.golang.org/grpc",
      "version": "v1.45.0",
      "scope": "required",
      "hashes": [
        {
          "alg": "SHA-256",
          "content": "344a6052a57767e66392a32cc4c835d48683ad7638458e8242e91218ad2e2353"
        }
      ],
      "purl": "pkg:golang/google.golang.org/grpc@v1.45.0"
    },
    {
      "type": "library",
      "bom-ref": "pkg:golang/google.golang.org/protobuf@v1.27.1",
      "name": "google.golang.org/protobuf",
      "version": "v1.27.1",
      "scope": "required",
      "hashes": [
        {
          "alg": "SHA-256",
          "content": "4a7a9b9c3c3557b46265c5cfc793047aa3efdacefd2fd8bb0495251bff91bab4"
        }
      ],
      "purl": "pkg:golang/google.golang.org/protobuf@v1.27.1"
    },
    {
      "type": "library",
      "bom-ref": "pkg:golang/gopkg.in/ini.v1@v1.66.2",
      "name": "gopkg.in/ini.v1",
      "version": "v1.66.2",
      "scope": "required",
      "hashes": [
        {
          "alg": "SHA-256",
          "content": "5df47574e62e6f2b4acb84a1cdcd8b1ebac6854d250c27c3186d722cf9a982c2"
        }
      ],
      "purl": "pkg:golang/gopkg.in/ini.v1@v1.66.2",
      "externalReferences": [
        {
          "url": "https://github.com/go-ini/ini",
          "type": "vcs"
        }
      ]
    },
    {
      "type": "library",
      "bom-ref": "pkg:golang/gopkg.in/yaml.v2@v2.4.0",
      "name": "gopkg.in/yaml.v2",
      "version": "v2.4.0",
      "scope": "required",
      "hashes": [
        {
          "alg": "SHA-256",
          "content": "0fcc60c04098ec262fc7e6369f8b01cfddc99fd251bf1762cb2a3c0937ee29a6"
        }
      ],
      "purl": "pkg:golang/gopkg.in/yaml.v2@v2.4.0",
      "externalReferences": [
        {
          "url": "https://github.com/go-yaml/yaml",
          "type": "vcs"
        }
      ]
    },
    {
      "type": "library",
      "publisher": "Martin Bjorklund",
      "name": "pyang",
      "version": "2.5.3",
      "description": "A YANG (RFC 6020/7950) validator and converter",
      "hashes": [
        {
          "alg": "MD5",
          "content": "0dd49a09566bfe25eaa61483ac7dd5e7"
        },
        {
          "alg": "SHA-256",
          "content": "22da1d2bf24958af1fe78bf3cea29709931b8df6c8f7957713e44eac6a1be590"
        }
      ],
      "licenses": [
        {
          "license": {
            "name": "BSD"
          }
        }
      ],
      "purl": "pkg:pypi/pyang@2.5.3",
      "modified": false
    },
    {
      "type": "library",
      "publisher": "Mario Vilas",
      "name": "google",
      "version": "3.0.0",
      "description": "Python bindings to the Google search engine.",
      "hashes": [
        {
          "alg": "MD5",
          "content": "30c719790d3e7e57e9482d108eda355c"
        },
        {
          "alg": "SHA-256",
          "content": "889cf695f84e4ae2c55fbc0cfdaf4c1e729417fa52ab1db0485202ba173e4935"
        }
      ],
      "purl": "pkg:pypi/google@3.0.0",
      "modified": false
    },
    {
      "type": "library",
      "publisher": "Michael Foord",
      "name": "unittest",
      "version": "0.0",
      "hashes": [
        {
          "alg": "MD5",
          "content": "2a416384f814604ed854d40f352f1191"
        },
        {
          "alg": "SHA-256",
          "content": "1b492484bea7f68abda5fcc61412e77b6a105e5842355d630f8b75f01add3555"
        }
      ],
      "purl": "pkg:pypi/unittest@0.0",
      "modified": false
    },
    {
      "type": "library",
      "publisher": "Jason Pellerin",
      "name": "nose",
      "version": "1.3.7",
      "description": "nose extends unittest to make testing easier",
      "hashes": [
        {
          "alg": "MD5",
          "content": "3135984cc9cfcbe5d9c46e166d6743b0"
        },
        {
          "alg": "SHA-256",
          "content": "9ff7c6cc443f8c51994b34a667bbcf45afd6d945be7477b52e97516fd17c53ac"
        }
      ],
      "licenses": [
        {
          "license": {
            "name": "GNU LGPL"
          }
        }
      ],
      "purl": "pkg:pypi/nose@1.3.7",
      "modified": false
    },
    {
      "type": "library",
      "publisher": "Keith Horwood",
      "name": "lib",
      "version": "4.0.0",
      "description": "Autocode standard library Python bindings",
      "hashes": [
        {
          "alg": "MD5",
          "content": "eaffba56dbe2fe4e80691dcae8768670"
        },
        {
          "alg": "SHA-256",
          "content": "d0a9e03b27d2b94c403f43c1af39366500032d587dcd45ffdf707131cbdf58c6"
        }
      ],
      "licenses": [
        {
          "license": {
            "name": "MIT"
          }
        }
      ],
      "purl": "pkg:pypi/lib@4.0.0",
      "modified": false
    },
    {
      "type": "library",
      "publisher": "Vinay Sajip",
      "name": "logging",
      "version": "0.4.9.6",
      "description": "A logging module for Python",
      "hashes": [
        {
          "alg": "MD5",
          "content": "dc0a7ebc8b8970263911e11e7b7e1ca8"
        },
        {
          "alg": "SHA-256",
          "content": "26f6b50773f085042d301085bd1bf5d9f3735704db9f37c1ce6d8b85c38f2417"
        }
      ],
      "licenses": [
        {
          "license": {
            "name": "Copyright (C) 2001-2005 by Vinay Sajip. All Rights Reserved. See LICENSE for license."
          }
        }
      ],
      "purl": "pkg:pypi/logging@0.4.9.6",
      "modified": false
    },
    {
      "type": "library",
      "publisher": "Armin Ronacher",
      "name": "flask",
      "version": "2.1.2",
      "description": "A simple framework for building complex web applications.",
      "hashes": [
        {
          "alg": "MD5",
          "content": "07aede47b441c019aeebbeaed6a76215"
        },
        {
          "alg": "SHA-256",
          "content": "fad5b446feb0d6db6aec0c3184d16a8c1f6c3e464b511649c8918a9be100b4fe"
        }
      ],
      "licenses": [
        {
          "license": {
            "name": "BSD-3-Clause"
          }
        }
      ],
      "purl": "pkg:pypi/flask@2.1.2",
      "modified": false
    },
    {
      "type": "library",
      "publisher": "SmartBGP project team",
      "name": "yabgp",
      "version": "0.8.2",
      "description": "Yet Another Border Gateway Protocol Python Implementation",
      "hashes": [
        {
          "alg": "MD5",
          "content": "6f47dcbf960a15072611d762004a4605"
        },
        {
          "alg": "SHA-256",
          "content": "aadcb9a1afedb9414ba41889634f6a0409f94c9289b66b9a89115c8c0f335bc1"
        }
      ],
      "licenses": [
        {
          "license": {
            "name": "Apache License 2.0"
          }
        }
      ],
      "purl": "pkg:pypi/yabgp@0.8.2",
      "modified": false
    },
    {
      "type": "library",
      "publisher": "Jeff Forcier",
      "name": "invoke",
      "version": "1.7.0",
      "description": "Pythonic task execution",
      "hashes": [
        {
          "alg": "MD5",
          "content": "2b36f39ced22fa06216f736a5e702455"
        },
        {
          "alg": "SHA-256",
          "content": "a5159fc63dba6ca2a87a1e33d282b99cea69711b03c64a35bb4e1c53c6c4afa0"
        }
      ],
      "licenses": [
        {
          "license": {
            "name": "BSD"
          }
        }
      ],
      "purl": "pkg:pypi/invoke@1.7.0",
      "modified": false
    },
    {
      "type": "library",
      "publisher": "dslackw",
      "name": "colored",
      "version": "1.4.3",
      "description": "Simple library for color and formatting to terminal",
      "hashes": [
        {
          "alg": "MD5",
          "content": "6430386361211470cb27b8612647b4d4"
        },
        {
          "alg": "SHA-256",
          "content": "b7b48b9f40e8a65bbb54813d5d79dd008dc8b8c5638d5bbfd30fc5a82e6def7a"
        }
      ],
      "purl": "pkg:pypi/colored@1.4.3",
      "modified": false
    },
    {
      "type": "library",
      "publisher": "David P. D. Moss, Stefan Nordhausen et al",
      "name": "netaddr",
      "version": "0.8.0",
      "description": "A network address manipulation library for Python",
      "hashes": [
        {
          "alg": "MD5",
          "content": "38d40334dccad71981633375a653571c"
        },
        {
          "alg": "SHA-256",
          "content": "9666d0232c32d2656e5e5f8d735f58fd6c7457ce52fc21c98d45f2af78f990ac"
        }
      ],
      "licenses": [
        {
          "license": {
            "name": "BSD License"
          }
        }
      ],
      "purl": "pkg:pypi/netaddr@0.8.0",
      "modified": false
    },
    {
      "type": "library",
      "publisher": "Jeff Forcier",
      "name": "fabric",
      "version": "2.7.0",
      "description": "High level SSH command execution",
      "hashes": [
        {
          "alg": "MD5",
          "content": "9ac45043b2d233213d8570fe46fe0681"
        },
        {
          "alg": "SHA-256",
          "content": "e8bfe851719a88be24f40ad7e96ac5bf023ce1af650b561d7641ed1eaed55fe5"
        }
      ],
      "licenses": [
        {
          "license": {
            "name": "BSD"
          }
        }
      ],
      "purl": "pkg:pypi/fabric@2.7.0",
      "modified": false
    },
    {
      "type": "library",
      "publisher": "William Pearson",
      "name": "toml",
      "version": "0.10.2",
      "description": "Python Library for Tom's Obvious, Minimal Language",
      "hashes": [
        {
          "alg": "MD5",
          "content": "dc26cd71b80d6757139f38156a43c545"
        },
        {
          "alg": "SHA-256",
          "content": "806143ae5bfb6a3c6e736a764057db0e6a0e05e338b5630894a5f779cabb4f9b"
        }
      ],
      "licenses": [
        {
          "license": {
            "name": "MIT"
          }
        }
      ],
      "purl": "pkg:pypi/toml@0.10.2",
      "modified": false
    },
    {
      "type": "library",
      "bom-ref": "pkg:golang/github.com/osrg/gobgp/v3",
      "group": "github.com/osrg/gobgp",
      "name": "v3",
      "version": "",
      "description": "",
      "scope": "optional",
      "purl": "pkg:golang/github.com/osrg/gobgp/v3"
    }
  ],
  "dependencies": [
    {
      "ref": "pkg:golang/github.com/BurntSushi/toml@v1.0.0"
    },
    {
      "ref": "pkg:golang/github.com/coreos/go-systemd/v22@v22.3.2"
    },
    {
      "ref": "pkg:golang/github.com/dgryski/go-farm@v0.0.0-20200201041132-a6ae2369ad13"
    },
    {
      "ref": "pkg:golang/github.com/eapache/channels@v1.1.0"
    },
    {
      "ref": "pkg:golang/github.com/eapache/queue@v1.1.0"
    },
    {
      "ref": "pkg:golang/github.com/fsnotify/fsnotify@v1.5.1",
      "dependsOn": [
        "pkg:golang/golang.org/x/sys@v0.0.0-20211216021012-1d35b9e2eb4e"
      ]
    },
    {
      "ref": "pkg:golang/github.com/golang/protobuf@v1.5.2",
      "dependsOn": [
        "pkg:golang/google.golang.org/protobuf@v1.27.1"
      ]
    },
    {
      "ref": "pkg:golang/github.com/google/uuid@v1.3.0"
    },
    {
      "ref": "pkg:golang/github.com/hashicorp/hcl@v1.0.0"
    },
    {
      "ref": "pkg:golang/github.com/inconshreveable/mousetrap@v1.0.0"
    },
    {
      "ref": "pkg:golang/github.com/jessevdk/go-flags@v1.5.0",
      "dependsOn": [
        "pkg:golang/golang.org/x/sys@v0.0.0-20211216021012-1d35b9e2eb4e"
      ]
    },
    {
      "ref": "pkg:golang/github.com/k-sone/critbitgo@v1.4.0"
    },
    {
      "ref": "pkg:golang/github.com/kr/pretty@v0.3.0",
      "dependsOn": [
        "pkg:golang/github.com/kr/text@v0.2.0",
        "pkg:golang/github.com/rogpeppe/go-internal@v1.6.1"
      ]
    },
    {
      "ref": "pkg:golang/github.com/kr/text@v0.2.0"
    },
    {
      "ref": "pkg:golang/github.com/magiconair/properties@v1.8.5"
    },
    {
      "ref": "pkg:golang/github.com/mitchellh/mapstructure@v1.4.3"
    },
    {
      "ref": "pkg:golang/github.com/pelletier/go-toml@v1.9.4"
    },
    {
      "ref": "pkg:golang/github.com/rogpeppe/go-internal@v1.6.1"
    },
    {
      "ref": "pkg:golang/github.com/sirupsen/logrus@v1.8.1",
      "dependsOn": [
        "pkg:golang/golang.org/x/sys@v0.0.0-20211216021012-1d35b9e2eb4e"
      ]
    },
    {
      "ref": "pkg:golang/github.com/spf13/afero@v1.6.0",
      "dependsOn": [
        "pkg:golang/golang.org/x/text@v0.3.7"
      ]
    },
    {
      "ref": "pkg:golang/github.com/spf13/cast@v1.4.1"
    },
    {
      "ref": "pkg:golang/github.com/spf13/cobra@v1.4.0",
      "dependsOn": [
        "pkg:golang/github.com/inconshreveable/mousetrap@v1.0.0",
        "pkg:golang/github.com/spf13/pflag@v1.0.5",
        "pkg:golang/gopkg.in/yaml.v2@v2.4.0"
      ]
    },
    {
      "ref": "pkg:golang/github.com/spf13/jwalterweatherman@v1.1.0"
    },
    {
      "ref": "pkg:golang/github.com/spf13/pflag@v1.0.5"
    },
    {
      "ref": "pkg:golang/github.com/spf13/viper@v1.10.1",
      "dependsOn": [
        "pkg:golang/github.com/fsnotify/fsnotify@v1.5.1",
        "pkg:golang/github.com/golang/protobuf@v1.5.2",
        "pkg:golang/github.com/hashicorp/hcl@v1.0.0",
        "pkg:golang/github.com/magiconair/properties@v1.8.5",
        "pkg:golang/github.com/mitchellh/mapstructure@v1.4.3",
        "pkg:golang/github.com/pelletier/go-toml@v1.9.4",
        "pkg:golang/github.com/spf13/afero@v1.6.0",
        "pkg:golang/github.com/spf13/cast@v1.4.1",
        "pkg:golang/github.com/spf13/jwalterweatherman@v1.1.0",
        "pkg:golang/github.com/spf13/pflag@v1.0.5",
        "pkg:golang/github.com/subosito/gotenv@v1.2.0",
        "pkg:golang/golang.org/x/net@v0.0.0-20220225172249-27dd8689420f",
        "pkg:golang/golang.org/x/sys@v0.0.0-20211216021012-1d35b9e2eb4e",
        "pkg:golang/golang.org/x/text@v0.3.7",
        "pkg:golang/google.golang.org/genproto@v0.0.0-20211208223120-3a66f561d7aa",
        "pkg:golang/google.golang.org/grpc@v1.45.0",
        "pkg:golang/google.golang.org/protobuf@v1.27.1",
        "pkg:golang/gopkg.in/ini.v1@v1.66.2",
        "pkg:golang/gopkg.in/yaml.v2@v2.4.0"
      ]
    },
    {
      "ref": "pkg:golang/github.com/subosito/gotenv@v1.2.0"
    },
    {
      "ref": "pkg:golang/github.com/vishvananda/netlink@v1.1.1-0.20210330154013-f5de75959ad5",
      "dependsOn": [
        "pkg:golang/github.com/vishvananda/netns@v0.0.0-20200728191858-db3c7e526aae",
        "pkg:golang/golang.org/x/sys@v0.0.0-20211216021012-1d35b9e2eb4e"
      ]
    },
    {
      "ref": "pkg:golang/github.com/vishvananda/netns@v0.0.0-20200728191858-db3c7e526aae",
      "dependsOn": [
        "pkg:golang/golang.org/x/sys@v0.0.0-20211216021012-1d35b9e2eb4e"
      ]
    },
    {
      "ref": "pkg:golang/golang.org/x/net@v0.0.0-20220225172249-27dd8689420f",
      "dependsOn": [
        "pkg:golang/golang.org/x/sys@v0.0.0-20211216021012-1d35b9e2eb4e",
        "pkg:golang/golang.org/x/text@v0.3.7"
      ]
    },
    {
      "ref": "pkg:golang/golang.org/x/sys@v0.0.0-20211216021012-1d35b9e2eb4e"
    },
    {
      "ref": "pkg:golang/golang.org/x/text@v0.3.7"
    },
    {
      "ref": "pkg:golang/google.golang.org/genproto@v0.0.0-20211208223120-3a66f561d7aa",
      "dependsOn": [
        "pkg:golang/github.com/golang/protobuf@v1.5.2",
        "pkg:golang/golang.org/x/net@v0.0.0-20220225172249-27dd8689420f",
        "pkg:golang/golang.org/x/sys@v0.0.0-20211216021012-1d35b9e2eb4e",
        "pkg:golang/golang.org/x/text@v0.3.7",
        "pkg:golang/google.golang.org/grpc@v1.45.0",
        "pkg:golang/google.golang.org/protobuf@v1.27.1"
      ]
    },
    {
      "ref": "pkg:golang/google.golang.org/grpc@v1.45.0",
      "dependsOn": [
        "pkg:golang/github.com/golang/protobuf@v1.5.2",
        "pkg:golang/github.com/google/uuid@v1.3.0",
        "pkg:golang/golang.org/x/net@v0.0.0-20220225172249-27dd8689420f",
        "pkg:golang/golang.org/x/sys@v0.0.0-20211216021012-1d35b9e2eb4e",
        "pkg:golang/google.golang.org/genproto@v0.0.0-20211208223120-3a66f561d7aa",
        "pkg:golang/google.golang.org/protobuf@v1.27.1"
      ]
    },
    {
      "ref": "pkg:golang/google.golang.org/protobuf@v1.27.1",
      "dependsOn": [
        "pkg:golang/github.com/golang/protobuf@v1.5.2"
      ]
    },
    {
      "ref": "pkg:golang/gopkg.in/ini.v1@v1.66.2"
    },
    {
      "ref": "pkg:golang/gopkg.in/yaml.v2@v2.4.0"
    },
    {
      "ref": "pkg:golang/github.com/osrg/gobgp/v3@v0.0.0-20220504081444-b68cebc5aa84",
      "dependsOn": [
        "pkg:golang/github.com/BurntSushi/toml@v1.0.0",
        "pkg:golang/github.com/coreos/go-systemd/v22@v22.3.2",
        "pkg:golang/github.com/dgryski/go-farm@v0.0.0-20200201041132-a6ae2369ad13",
        "pkg:golang/github.com/eapache/channels@v1.1.0",
        "pkg:golang/github.com/eapache/queue@v1.1.0",
        "pkg:golang/github.com/google/uuid@v1.3.0",
        "pkg:golang/github.com/jessevdk/go-flags@v1.5.0",
        "pkg:golang/github.com/k-sone/critbitgo@v1.4.0",
        "pkg:golang/github.com/kr/pretty@v0.3.0",
        "pkg:golang/github.com/sirupsen/logrus@v1.8.1",
        "pkg:golang/github.com/spf13/cobra@v1.4.0",
        "pkg:golang/github.com/spf13/viper@v1.10.1",
        "pkg:golang/github.com/vishvananda/netlink@v1.1.1-0.20210330154013-f5de75959ad5",
        "pkg:golang/golang.org/x/net@v0.0.0-20220225172249-27dd8689420f",
        "pkg:golang/golang.org/x/text@v0.3.7",
        "pkg:golang/google.golang.org/grpc@v1.45.0",
        "pkg:golang/google.golang.org/protobuf@v1.27.1"
      ]
    }
  ]
}
