{
  "bomFormat": "CycloneDX",
  "specVersion": "1.3",
  "version": 1,
  "metadata": {
    "tools": [
      {
        "vendor": "AppThreat",
        "name": "cdxgen",
        "version": "3.0.10"
      },
      {
        "vendor": "Fortress Information Security",
        "name": "Github Extractor",
        "version": "1.15.1"
      }
    ],
    "authors": [
      {
        "name": "Fortress Information Security",
        "email": "sales@fortressinfosec.com",
        "phone": "1-407-573-6800"
      }
    ],
    "timestamp": "2022-06-01T21:00:00Z",
    "component": {
      "type": "application",
      "name": "pants",
      "version": "release_2.13.0.dev5",
      "group": "pantsbuild",
      "externalReferences": [
        {
          "url": "https://github.com/pantsbuild/pants.git",
          "type": "distribution"
        },
        {
          "type": "website",
          "url": "https://www.pantsbuild.org",
          "comment": "As set via `homepage` in Github API"
        }
      ]
    }
  },
  "components": [
    {
      "type": "library",
      "publisher": "Holger Krekel, Bruno Oliveira, Ronny Pfannschmidt, Floris Bruynooghe, Brianna Laugher, Florian Bruhin and others",
      "name": "pytest",
      "version": "7.1.2",
      "description": "pytest: simple powerful testing with Python",
      "hashes": [
        {
          "alg": "MD5",
          "content": "6f5a9e12007a2529cb00d3b5a8af33a1"
        },
        {
          "alg": "SHA-256",
          "content": "13d0e3ccfc2b6e26be000cb6568c832ba67ba32e719443bfe725814d3c42433c"
        }
      ],
      "licenses": [
        {
          "license": {
            "name": "MIT"
          }
        }
      ],
      "purl": "pkg:pypi/pytest@7.1.2",
      "modified": false
    },
    {
      "type": "library",
      "publisher": "ecdavis",
      "name": "pants",
      "version": "1.0.1",
      "description": "An asynchronous networking library for Python.",
      "hashes": [
        {
          "alg": "MD5",
          "content": "14033ed0829ba3d0abe3ccbb6f9cb491"
        },
        {
          "alg": "SHA-256",
          "content": "a9108a2b514d9b59c361b31d96ad4580c7976a6ada19ae3972a40ed21c38d76d"
        }
      ],
      "purl": "pkg:pypi/pants@1.0.1",
      "modified": false
    },
    {
      "type": "library",
      "publisher": "Vinay Sajip",
      "name": "logging",
      "version": "0.4.9.6",
      "description": "A logging module for Python",
      "hashes": [
        {
          "alg": "MD5",
          "content": "dc0a7ebc8b8970263911e11e7b7e1ca8"
        },
        {
          "alg": "SHA-256",
          "content": "26f6b50773f085042d301085bd1bf5d9f3735704db9f37c1ce6d8b85c38f2417"
        }
      ],
      "licenses": [
        {
          "license": {
            "name": "Copyright (C) 2001-2005 by Vinay Sajip. All Rights Reserved. See LICENSE for license."
          }
        }
      ],
      "purl": "pkg:pypi/logging@0.4.9.6",
      "modified": false
    },
    {
      "type": "library",
      "publisher": "Eric V. Smith",
      "name": "dataclasses",
      "version": "0.8",
      "description": "A backport of the dataclasses module for Python 3.6",
      "hashes": [
        {
          "alg": "MD5",
          "content": "0d6e5bb7adcc8fb0de3ef1ace1b32999"
        },
        {
          "alg": "SHA-256",
          "content": "0201d89fa866f68c8ebd9d08ee6ff50c0b255f8ec63a71c16fda7af82bb887bf"
        }
      ],
      "licenses": [
        {
          "license": {
            "name": "Apache"
          }
        }
      ],
      "purl": "pkg:pypi/dataclasses@0.8",
      "modified": false
    },
    {
      "type": "library",
      "publisher": "Krishnamohan",
      "name": "colors",
      "version": "0.1",
      "description": "A module for coloring words or characters in console mode",
      "licenses": [
        {
          "license": {
            "name": "GPL"
          }
        }
      ],
      "purl": "pkg:pypi/colors@0.1",
      "modified": false
    },
    {
      "type": "library",
      "publisher": "Python Packaging Authority",
      "name": "setuptools",
      "version": "62.1.0",
      "description": "Easily download, build, install, upgrade, and uninstall Python packages",
      "hashes": [
        {
          "alg": "MD5",
          "content": "101d2e2bf9b7682ab90d9a7bd487bdbe"
        },
        {
          "alg": "SHA-256",
          "content": "26ead7d1f93efc0f8c804d9fafafbe4a44b179580a7105754b245155f9af05a8"
        }
      ],
      "purl": "pkg:pypi/setuptools@62.1.0",
      "modified": false
    },
    {
      "type": "library",
      "publisher": "Christian Heimes",
      "name": "multiprocessing",
      "version": "2.6.2.1",
      "description": "Backport of the multiprocessing package to Python 2.4 and 2.5",
      "hashes": [
        {
          "alg": "MD5",
          "content": "5cc484396c040102116ccc2355379c72"
        },
        {
          "alg": "SHA-256",
          "content": "ef3b81ad85d7de252e5491b1daac028e17f9741cbe3625032e6eaa4ad4c79900"
        }
      ],
      "licenses": [
        {
          "license": {
            "name": "BSD Licence"
          }
        }
      ],
      "purl": "pkg:pypi/multiprocessing@2.6.2.1",
      "modified": false
    },
    {
      "type": "library",
      "publisher": "Donald Stufft and individual contributors",
      "name": "packaging",
      "version": "21.3",
      "description": "Core utilities for Python packages",
      "hashes": [
        {
          "alg": "MD5",
          "content": "670a7057642064a747bd8274b24eb3f9"
        },
        {
          "alg": "SHA-256",
          "content": "ef103e05f519cdc783ae24ea4e2e0f508a9c99b2d4969652eed6a2e1ea5bd522"
        }
      ],
      "licenses": [
        {
          "license": {
            "name": "BSD-2-Clause or Apache-2.0"
          }
        }
      ],
      "purl": "pkg:pypi/packaging@21.3",
      "modified": false
    },
    {
      "type": "library",
      "publisher": "Yijun Yu",
      "name": "ast",
      "version": "0.0.2",
      "description": "Conversion between protobuf3 and srcML.",
      "hashes": [
        {
          "alg": "MD5",
          "content": "866a45bda3dc0b19f8da494f6a548a8d"
        },
        {
          "alg": "SHA-256",
          "content": "04cf2827c4048d18635ca8f85357a4285d140424ac26028be0dc585f824e07cd"
        }
      ],
      "licenses": [
        {
          "license": {
            "name": "MIT"
          }
        }
      ],
      "purl": "pkg:pypi/ast@0.0.2",
      "modified": false
    },
    {
      "type": "library",
      "publisher": "Antoine Pitrou",
      "name": "pathlib",
      "version": "1.0.1",
      "description": "Object-oriented filesystem paths",
      "hashes": [
        {
          "alg": "MD5",
          "content": "f26b13acf298a15cdb46a3dffc8eb0de"
        },
        {
          "alg": "SHA-256",
          "content": "f35f95ab8b0f59e6d354090350b44a80a80635d22efdedfa84c7ad1cf0a74147"
        }
      ],
      "licenses": [
        {
          "license": {
            "name": "MIT License"
          }
        }
      ],
      "purl": "pkg:pypi/pathlib@1.0.1",
      "modified": false
    },
    {
      "type": "library",
      "publisher": "Thomas Waldmann",
      "name": "argparse",
      "version": "1.4.0",
      "description": "Python command-line parsing library",
      "hashes": [
        {
          "alg": "MD5",
          "content": "c37216a954c8669054e2b2c54853dd49"
        },
        {
          "alg": "SHA-256",
          "content": "c31647edb69fd3d465a847ea3157d37bed1f95f19760b11a47aa91c04b666314"
        }
      ],
      "licenses": [
        {
          "license": {
            "name": "Python Software Foundation License"
          }
        }
      ],
      "purl": "pkg:pypi/argparse@1.4.0",
      "modified": false
    },
    {
      "type": "library",
      "name": "io",
      "version": "0.0.1",
      "purl": "pkg:pypi/io@0.0.1",
      "modified": false
    },
    {
      "type": "library",
      "publisher": "Mariano Sorgente",
      "name": "token",
      "version": "1.8.6",
      "description": "Token client to REST Apis",
      "hashes": [
        {
          "alg": "MD5",
          "content": "8b0c88a3bb336a58ae0928ea5e7cffb9"
        },
        {
          "alg": "SHA-256",
          "content": "81c73f207cd1405b2b9f38345a7ccc52ae644e6773a87b0b697888c309c66397"
        }
      ],
      "purl": "pkg:pypi/token@1.8.6",
      "modified": false
    },
    {
      "type": "library",
      "publisher": "Dima Dorfman",
      "name": "functools",
      "version": "0.5",
      "description": "Fast tools for functional programming",
      "hashes": [
        {
          "alg": "MD5",
          "content": "91111c28ee685a2f89f1a41e6f0ce8ea"
        },
        {
          "alg": "SHA-256",
          "content": "596ed8999dee419c0749a41bfdd82e4697e80ea27ee01c716003ef55be9a54c5"
        }
      ],
      "licenses": [
        {
          "license": {
            "name": "BSD"
          }
        }
      ],
      "purl": "pkg:pypi/functools@0.5",
      "modified": false
    },
    {
      "type": "library",
      "publisher": "Ben Finney",
      "name": "enum",
      "version": "0.4.7",
      "description": "Robust enumerated type support in Python.",
      "hashes": [
        {
          "alg": "MD5",
          "content": "e7d170e3f84435b77058de625c96ef58"
        },
        {
          "alg": "SHA-256",
          "content": "8c7cf3587eda51008bcc1eed99ea2c331ccd265c231dbaa95ec5258d3dc03100"
        }
      ],
      "licenses": [
        {
          "license": {
            "name": "GPL-3.0+"
          }
        }
      ],
      "purl": "pkg:pypi/enum@0.4.7",
      "modified": false
    },
    {
      "type": "library",
      "publisher": "Kenneth Reitz",
      "name": "requests",
      "version": "2.27.1",
      "description": "Python HTTP for Humans.",
      "hashes": [
        {
          "alg": "MD5",
          "content": "435db0f122c83decd27524f690e89650"
        },
        {
          "alg": "SHA-256",
          "content": "f22fa1e554c9ddfd16e6e41ac79759e17be9e492b3587efa038054674760e72d"
        }
      ],
      "licenses": [
        {
          "license": {
            "name": "Apache 2.0"
          }
        }
      ],
      "purl": "pkg:pypi/requests@2.27.1",
      "modified": false
    },
    {
      "type": "library",
      "publisher": "The PEX developers",
      "name": "pex",
      "version": "2.1.85",
      "description": "The PEX packaging toolchain.",
      "hashes": [
        {
          "alg": "MD5",
          "content": "b592e7b7cf3fc89edca4615e024462b9"
        },
        {
          "alg": "SHA-256",
          "content": "8e8d9cb0be8dbcfd83ca2b4cefb6808f69f89d0d067c0c24b6f776b6cc51c65d"
        }
      ],
      "purl": "pkg:pypi/pex@2.1.85",
      "modified": false
    },
    {
      "type": "library",
      "publisher": "noah morrison",
      "name": "chevron",
      "version": "0.14.0",
      "description": "Mustache templating language renderer",
      "hashes": [
        {
          "alg": "MD5",
          "content": "0d0866d1bf57265bdb22619ca071a4e7"
        },
        {
          "alg": "SHA-256",
          "content": "fbf996a709f8da2e745ef763f482ce2d311aa817d287593a5b990d6d6e4f0443"
        }
      ],
      "licenses": [
        {
          "license": {
            "name": "MIT"
          }
        }
      ],
      "purl": "pkg:pypi/chevron@0.14.0",
      "modified": false
    },
    {
      "type": "library",
      "publisher": "Richard Jones",
      "name": "html",
      "version": "1.16",
      "description": "simple, elegant HTML, XHTML and XML generation",
      "hashes": [
        {
          "alg": "MD5",
          "content": "39b9db7cdcc84607828be021172d441f"
        },
        {
          "alg": "SHA-256",
          "content": "ebc768f23b54a71350d731a75f2ef3a4a4dbdad9ae68d58b527664b66088e456"
        }
      ],
      "purl": "pkg:pypi/html@1.16",
      "modified": false
    },
    {
      "type": "library",
      "publisher": "Zope Foundation and Contributors",
      "name": "datetime",
      "version": "4.4",
      "description": "This package provides a DateTime data type, as known from Zope. Unless you need to communicate with Zope APIs, you're probably better off using Python's built-in datetime module.",
      "hashes": [
        {
          "alg": "MD5",
          "content": "ad1e82d858ed7c8cd2ea437b4cb695ed"
        },
        {
          "alg": "SHA-256",
          "content": "4fcca115ddb466a1104df08d5c2a2f5805d14ca317800e1bfcea8f3d69f66e57"
        }
      ],
      "licenses": [
        {
          "license": {
            "name": "ZPL 2.1"
          }
        }
      ],
      "purl": "pkg:pypi/datetime@4.4",
      "modified": false
    },
    {
      "type": "library",
      "name": "hashlib",
      "version": "20081119",
      "description": "Secure hash and message digest algorithm library",
      "hashes": [
        {
          "alg": "MD5",
          "content": "46e59db6d5cac34b3344ef0c30d0897f"
        },
        {
          "alg": "SHA-256",
          "content": "419de2fd10ae71ed9c6adcb55903f116abd1d8acc8c814dfd5f839b4d5013e38"
        }
      ],
      "purl": "pkg:pypi/hashlib@20081119",
      "modified": false
    },
    {
      "type": "library",
      "publisher": "Łukasz Langa",
      "name": "configparser",
      "version": "5.2.0",
      "description": "Updated configparser from Python 3.8 for Python 2.6+.",
      "hashes": [
        {
          "alg": "MD5",
          "content": "69bab6f43cd4375830a54a53a50129fa"
        },
        {
          "alg": "SHA-256",
          "content": "e8b39238fb6f0153a069aa253d349467c3c4737934f253ef6abac5fe0eca1e5d"
        }
      ],
      "purl": "pkg:pypi/configparser@5.2.0",
      "modified": false
    },
    {
      "type": "library",
      "publisher": "William Pearson",
      "name": "toml",
      "version": "0.10.2",
      "description": "Python Library for Tom's Obvious, Minimal Language",
      "hashes": [
        {
          "alg": "MD5",
          "content": "dc26cd71b80d6757139f38156a43c545"
        },
        {
          "alg": "SHA-256",
          "content": "806143ae5bfb6a3c6e736a764057db0e6a0e05e338b5630894a5f779cabb4f9b"
        }
      ],
      "licenses": [
        {
          "license": {
            "name": "MIT"
          }
        }
      ],
      "purl": "pkg:pypi/toml@0.10.2",
      "modified": false
    },
    {
      "type": "library",
      "publisher": "Michael Foord",
      "name": "unittest",
      "version": "0.0",
      "hashes": [
        {
          "alg": "MD5",
          "content": "2a416384f814604ed854d40f352f1191"
        },
        {
          "alg": "SHA-256",
          "content": "1b492484bea7f68abda5fcc61412e77b6a105e5842355d630f8b75f01add3555"
        }
      ],
      "purl": "pkg:pypi/unittest@0.0",
      "modified": false
    },
    {
      "type": "library",
      "publisher": "Ka-Ping Yee",
      "name": "uuid",
      "version": "1.30",
      "description": "UUID object and generation functions (Python 2.3 or higher)",
      "hashes": [
        {
          "alg": "MD5",
          "content": "639b310f1fe6800e4bf8aa1dd9333117"
        },
        {
          "alg": "SHA-256",
          "content": "1f87cc004ac5120466f36c5beae48b4c48cc411968eed0eaecd3da82aa96193f"
        }
      ],
      "purl": "pkg:pypi/uuid@1.30",
      "modified": false
    },
    {
      "type": "library",
      "publisher": "Bugout.dev",
      "name": "humbug",
      "version": "0.2.7",
      "description": "Humbug: Do you build developer tools? Humbug helps you know your users.",
      "hashes": [
        {
          "alg": "MD5",
          "content": "ca694a43d6e93ffd1dc6d86a550084d2"
        },
        {
          "alg": "SHA-256",
          "content": "dec2871ce3ba9c9c176be837ea6c53d6001d1c15c7102620a8f58998fa01519c"
        }
      ],
      "purl": "pkg:pypi/humbug@0.2.7",
      "modified": false
    },
    {
      "type": "library",
      "publisher": "Steve Pulec",
      "name": "freezegun",
      "version": "1.2.1",
      "description": "Let your Python tests travel through time",
      "hashes": [
        {
          "alg": "MD5",
          "content": "c93debd7b0d707cd24f3556a4bb3294e"
        },
        {
          "alg": "SHA-256",
          "content": "15103a67dfa868ad809a8f508146e396be2995172d25f927e48ce51c0bf5cb09"
        }
      ],
      "licenses": [
        {
          "license": {
            "name": "Apache 2.0"
          }
        }
      ],
      "purl": "pkg:pypi/freezegun@1.2.1",
      "modified": false
    },
    {
      "type": "library",
      "publisher": "Stephan Klein",
      "name": "signal",
      "version": "0.1",
      "description": "Send SMS messages via ADB and your Android phone. Comes with a CLI.",
      "licenses": [
        {
          "license": {
            "name": "MIT"
          }
        }
      ],
      "purl": "pkg:pypi/signal@0.1",
      "modified": false
    },
    {
      "type": "library",
      "publisher": "Giampaolo Rodola",
      "name": "psutil",
      "version": "5.9.0",
      "description": "Cross-platform lib for process and system monitoring in Python.",
      "hashes": [
        {
          "alg": "MD5",
          "content": "75d0c4cf515a5acd882fd30e87f6d13f"
        },
        {
          "alg": "SHA-256",
          "content": "7d190ee2eaef7831163f254dc58f6d2e2a22e27382b936aab51c835fc080c3d3"
        }
      ],
      "licenses": [
        {
          "license": {
            "name": "BSD"
          }
        }
      ],
      "purl": "pkg:pypi/psutil@5.9.0",
      "modified": false
    },
    {
      "type": "library",
      "publisher": "Joshua Harlow",
      "name": "fasteners",
      "version": "0.17.3",
      "description": "A python package that provides useful locks",
      "hashes": [
        {
          "alg": "MD5",
          "content": "f20de667e11721e6ec8d8b4ed5bea636"
        },
        {
          "alg": "SHA-256",
          "content": "cae0772df265923e71435cc5057840138f4e8b6302f888a567d06ed8e1cbca03"
        }
      ],
      "licenses": [
        {
          "license": {
            "name": "ASL 2.0"
          }
        }
      ],
      "purl": "pkg:pypi/fasteners@0.17.3",
      "modified": false
    },
    {
      "type": "library",
      "publisher": "Daniele Varrazzo",
      "name": "setproctitle",
      "version": "1.2.3",
      "description": "A Python module to customize the process title",
      "hashes": [
        {
          "alg": "MD5",
          "content": "d221731a2b17278abc472438a52d8353"
        },
        {
          "alg": "SHA-256",
          "content": "97accd117392b1e57e09888792750c403d7729b7e4b193005178b3736b325ea0"
        }
      ],
      "licenses": [
        {
          "license": {
            "name": "BSD"
          }
        }
      ],
      "purl": "pkg:pypi/setproctitle@1.2.3",
      "modified": false
    },
    {
      "type": "library",
      "publisher": "Franck Cuny",
      "name": "http",
      "version": "0.02",
      "description": "HTTP library for Python",
      "hashes": [
        {
          "alg": "MD5",
          "content": "9e4684a411a9cf371cbd0bc8658a803a"
        },
        {
          "alg": "SHA-256",
          "content": "071bc409f687535b6e31a94bced6a7773905abad8d2f236b406202b7283f682c"
        }
      ],
      "licenses": [
        {
          "license": {
            "name": "MIT"
          }
        }
      ],
      "purl": "pkg:pypi/http@0.02",
      "modified": false
    },
    {
      "type": "library",
      "publisher": "Brett Cannon",
      "name": "importlib",
      "version": "1.0.4",
      "description": "Backport of importlib.import_module() from Python 2.7",
      "hashes": [
        {
          "alg": "MD5",
          "content": "5f9a0803bca7ba95f670d1464984296f"
        },
        {
          "alg": "SHA-256",
          "content": "b6ee7066fea66e35f8d0acee24d98006de1a0a8a94a8ce6efe73a9a23c8d9826"
        }
      ],
      "purl": "pkg:pypi/importlib@1.0.4",
      "modified": false
    },
    {
      "type": "library",
      "publisher": "Joshua Cannon",
      "name": "mypy_typing_asserts",
      "version": "0.1.1",
      "description": "Adds the ability to _assert_ types when typechecking to mypy",
      "hashes": [
        {
          "alg": "MD5",
          "content": "d922cdd1ce7af889f56956b8f55e4777"
        },
        {
          "alg": "SHA-256",
          "content": "917da6d572f187f72d6dfb4b1108c50a3d8edd8e5ccd1a0f0c576fe0a4819cda"
        }
      ],
      "purl": "pkg:pypi/mypy-typing-asserts@0.1.1",
      "modified": false
    },
    {
      "type": "library",
      "publisher": "Dave Cole",
      "name": "csv",
      "version": "1.0",
      "description": "Fast CSV Parser for Python",
      "licenses": [
        {
          "license": {
            "name": "BSD"
          }
        }
      ],
      "purl": "pkg:pypi/csv@1.0",
      "modified": false
    },
    {
      "type": "library",
      "publisher": "Anthony Sottile",
      "name": "dockerfile",
      "version": "3.2.0",
      "description": "Parse a dockerfile into a high-level representation using the official go parser.",
      "hashes": [
        {
          "alg": "MD5",
          "content": "ae697cd9b0dcdf12604f266869f86048"
        },
        {
          "alg": "SHA-256",
          "content": "a3ff90c92f05b5bceee4742d15899b3967cda025eec14a852811d089caf3478e"
        }
      ],
      "licenses": [
        {
          "license": {
            "name": "MIT"
          }
        }
      ],
      "purl": "pkg:pypi/dockerfile@3.2.0",
      "modified": false
    },
    {
      "type": "library",
      "publisher": "Rodrigo Tobar, Ivan Sagalaev",
      "name": "ijson",
      "version": "3.1.4",
      "description": "Iterative JSON parser with standard Python iterator interfaces",
      "hashes": [
        {
          "alg": "MD5",
          "content": "f21abbbe622fad6ea2ac953e84598f74"
        },
        {
          "alg": "SHA-256",
          "content": "3d10eee52428f43f7da28763bb79f3d90bbbeea1accb15de01e40a00885b6e89"
        }
      ],
      "licenses": [
        {
          "license": {
            "name": "BSD"
          }
        }
      ],
      "purl": "pkg:pypi/ijson@3.1.4",
      "modified": false
    },
    {
      "type": "library",
      "publisher": "See long_description for details",
      "name": "ssl",
      "version": "1.16",
      "description": "SSL wrapper for socket objects (2.3, 2.4, 2.5 compatible)",
      "hashes": [
        {
          "alg": "MD5",
          "content": "fb12d335d56f3c8c7c1fefc1c06c4bfb"
        },
        {
          "alg": "SHA-256",
          "content": "ac21156fee6aee9eb8d765bbb16f5f49492d81ff4b22f7b8fc001d2251120930"
        }
      ],
      "licenses": [
        {
          "license": {
            "name": "Python (MIT-like)"
          }
        }
      ],
      "purl": "pkg:pypi/ssl@1.16",
      "modified": false
    },
    {
      "type": "library",
      "bom-ref": "pkg:pypi/ansicolors@1.1.8",
      "group": "",
      "name": "ansicolors",
      "version": "1.1.8",
      "description": "ANSI colors for Python",
      "hashes": [
        {
          "alg": "SHA-256",
          "content": "00d2dde5a675579325902536738dd27e4fac1fd68f773fe36c21044eb559e187"
        }
      ],
      "licenses": [
        {
          "license": {
            "id": "ISC",
            "url": "https://opensource.org/licenses/ISC"
          }
        }
      ],
      "purl": "pkg:pypi/ansicolors@1.1.8",
      "externalReferences": [
        {
          "url": "http://github.com/jonathaneunice/colors/",
          "type": "vcs"
        }
      ]
    },
    {
      "type": "library",
      "bom-ref": "pkg:pypi/fasteners@0.16.3",
      "group": "",
      "name": "fasteners",
      "version": "0.16.3",
      "description": "A python package that provides useful locks",
      "hashes": [
        {
          "alg": "SHA-256",
          "content": "8408e52656455977053871990bd25824d85803b9417aa348f10ba29ef0c751f7"
        }
      ],
      "licenses": [
        {
          "license": {
            "name": "ASL 2.0"
          }
        }
      ],
      "purl": "pkg:pypi/fasteners@0.16.3",
      "externalReferences": [
        {
          "url": "https://github.com/harlowja/fasteners",
          "type": "vcs"
        }
      ]
    },
    {
      "type": "library",
      "bom-ref": "pkg:pypi/freezegun@1.1.0",
      "group": "",
      "name": "freezegun",
      "version": "1.1.0",
      "description": "Let your Python tests travel through time",
      "hashes": [
        {
          "alg": "SHA-256",
          "content": "2ae695f7eb96c62529f03a038461afe3c692db3465e215355e1bb4b0ab408712"
        }
      ],
      "licenses": [
        {
          "license": {
            "id": "Apache-2.0",
            "url": "https://opensource.org/licenses/Apache-2.0"
          }
        }
      ],
      "purl": "pkg:pypi/freezegun@1.1.0",
      "externalReferences": [
        {
          "url": "https://github.com/spulec/freezegun",
          "type": "vcs"
        }
      ]
    },
    {
      "type": "library",
      "bom-ref": "pkg:pypi/pex@2.1.84",
      "group": "",
      "name": "pex",
      "version": "2.1.84",
      "description": "The PEX packaging toolchain.",
      "hashes": [
        {
          "alg": "SHA-256",
          "content": "7785d2d79633906c692db272d7299530505403415256a9c5c892883a4c057aa4"
        }
      ],
      "purl": "pkg:pypi/pex@2.1.84",
      "externalReferences": [
        {
          "url": "https://github.com/pantsbuild/pex",
          "type": "vcs"
        }
      ]
    },
    {
      "type": "library",
      "bom-ref": "pkg:pypi/python-lsp-jsonrpc@1.0.0",
      "group": "",
      "name": "python-lsp-jsonrpc",
      "version": "1.0.0",
      "description": "JSON RPC 2.0 server library",
      "hashes": [
        {
          "alg": "SHA-256",
          "content": "079b143be64b0a378bdb21dff5e28a8c1393fe7e8a654ef068322d754e545fc7"
        }
      ],
      "purl": "pkg:pypi/python-lsp-jsonrpc@1.0.0",
      "externalReferences": [
        {
          "url": "https://github.com/python-lsp/python-lsp-jsonrpc",
          "type": "vcs"
        }
      ]
    },
    {
      "type": "library",
      "bom-ref": "pkg:pypi/pyyaml@6.0",
      "group": "",
      "name": "PyYAML",
      "version": "6.0",
      "description": "YAML parser and emitter for Python",
      "hashes": [
        {
          "alg": "SHA-256",
          "content": "d4db7c7aef085872ef65a8fd7d6d09a14ae91f691dec3e87ee5ee0539d516f53"
        }
      ],
      "licenses": [
        {
          "license": {
            "id": "MIT",
            "url": "https://opensource.org/licenses/MIT"
          }
        }
      ],
      "purl": "pkg:pypi/pyyaml@6.0",
      "externalReferences": [
        {
          "url": "https://pyyaml.org/",
          "type": "website"
        }
      ]
    },
    {
      "type": "library",
      "bom-ref": "pkg:pypi/requests@2.25.1",
      "group": "",
      "name": "requests",
      "version": "2.25.1",
      "description": "Python HTTP for Humans.",
      "hashes": [
        {
          "alg": "SHA-256",
          "content": "c210084e36a42ae6b9219e00e48287def368a26d03a048ddad7bfee44f75871e"
        }
      ],
      "licenses": [
        {
          "license": {
            "id": "Apache-2.0",
            "url": "https://opensource.org/licenses/Apache-2.0"
          }
        }
      ],
      "purl": "pkg:pypi/requests@2.25.1",
      "externalReferences": [
        {
          "url": "https://requests.readthedocs.io",
          "type": "website"
        }
      ]
    },
    {
      "type": "library",
      "bom-ref": "pkg:pypi/setproctitle@1.2.2",
      "group": "",
      "name": "setproctitle",
      "version": "1.2.2",
      "description": "A Python module to customize the process title",
      "hashes": [
        {
          "alg": "SHA-256",
          "content": "9106bcbacae534b6f82955b176723f1b2ca6514518aab44dffec05a583f8dca8"
        }
      ],
      "licenses": [
        {
          "license": {
            "id": "0BSD",
            "url": "https://opensource.org/licenses/0BSD"
          }
        }
      ],
      "purl": "pkg:pypi/setproctitle@1.2.2",
      "externalReferences": [
        {
          "url": "https://github.com/dvarrazzo/py-setproctitle",
          "type": "vcs"
        }
      ]
    },
    {
      "type": "library",
      "bom-ref": "pkg:pypi/types-freezegun@1.1.6",
      "group": "",
      "name": "types-freezegun",
      "version": "1.1.6",
      "description": "Typing stubs for freezegun",
      "hashes": [
        {
          "alg": "SHA-256",
          "content": "eaa4ccac7f4ff92762b6e5d34c3c4e41a7763b6d09a8595e0224ff1f24c9d4e1"
        }
      ],
      "licenses": [
        {
          "license": {
            "name": "Apache-2.0 license"
          }
        }
      ],
      "purl": "pkg:pypi/types-freezegun@1.1.6",
      "externalReferences": [
        {
          "url": "https://github.com/python/typeshed",
          "type": "vcs"
        }
      ]
    },
    {
      "type": "library",
      "bom-ref": "pkg:pypi/types-pyyaml@6.0.3",
      "group": "",
      "name": "types-PyYAML",
      "version": "6.0.3",
      "description": "Typing stubs for PyYAML",
      "hashes": [
        {
          "alg": "SHA-256",
          "content": "8b50294b55a9db89498cdc5a65b1b4545112b6cd1cf4465bd693d828b0282a17"
        }
      ],
      "licenses": [
        {
          "license": {
            "name": "Apache-2.0 license"
          }
        }
      ],
      "purl": "pkg:pypi/types-pyyaml@6.0.3",
      "externalReferences": [
        {
          "url": "https://github.com/python/typeshed",
          "type": "vcs"
        }
      ]
    },
    {
      "type": "library",
      "bom-ref": "pkg:pypi/types-requests@2.27.5",
      "group": "",
      "name": "types-requests",
      "version": "2.27.5",
      "description": "Typing stubs for requests",
      "hashes": [
        {
          "alg": "SHA-256",
          "content": "9c9390b18b222956155af6678570f452edafa3bb94bd5a4efe67da1105aa128c"
        }
      ],
      "licenses": [
        {
          "license": {
            "name": "Apache-2.0 license"
          }
        }
      ],
      "purl": "pkg:pypi/types-requests@2.27.5",
      "externalReferences": [
        {
          "url": "https://github.com/python/typeshed",
          "type": "vcs"
        }
      ]
    },
    {
      "type": "library",
      "bom-ref": "pkg:pypi/types-setuptools@57.4.7",
      "group": "",
      "name": "types-setuptools",
      "version": "57.4.7",
      "description": "Typing stubs for setuptools",
      "hashes": [
        {
          "alg": "SHA-256",
          "content": "ffda504687ea02d4b7751c0d1df517fbbcdc276836d90849e4f1a5f1ccd79f01"
        }
      ],
      "licenses": [
        {
          "license": {
            "name": "Apache-2.0 license"
          }
        }
      ],
      "purl": "pkg:pypi/types-setuptools@57.4.7",
      "externalReferences": [
        {
          "url": "https://github.com/python/typeshed",
          "type": "vcs"
        }
      ]
    },
    {
      "type": "library",
      "bom-ref": "pkg:pypi/types-toml@0.10.3",
      "group": "",
      "name": "types-toml",
      "version": "0.10.3",
      "description": "Typing stubs for toml",
      "hashes": [
        {
          "alg": "SHA-256",
          "content": "988457744d9774d194e3539388772e3a685d8057b7c4a89407afeb0a6cbd1b14"
        }
      ],
      "licenses": [
        {
          "license": {
            "name": "Apache-2.0 license"
          }
        }
      ],
      "purl": "pkg:pypi/types-toml@0.10.3",
      "externalReferences": [
        {
          "url": "https://github.com/python/typeshed",
          "type": "vcs"
        }
      ]
    },
    {
      "type": "library",
      "bom-ref": "pkg:pypi/typing-extensions@4.0.1",
      "group": "",
      "name": "typing-extensions",
      "version": "4.0.1",
      "description": "Backported and Experimental Type Hints for Python 3.7+",
      "hashes": [
        {
          "alg": "SHA-256",
          "content": "7f001e5ac290a0c0401508864c7ec868be4e701886d5b573a9528ed3973d9d3b"
        }
      ],
      "purl": "pkg:pypi/typing-extensions@4.0.1"
    }
  ]
}
