{
  "bomFormat": "CycloneDX",
  "specVersion": "1.3",
  "version": 1,
  "metadata": {
    "tools": [
      {
        "vendor": "cyclonedx",
        "name": "cyclonedx-php-composer",
        "version": "3.10.0"
      },
      {
        "vendor": "AppThreat",
        "name": "cdxgen",
        "version": "3.0.10"
      },
      {
        "vendor": "Fortress Information Security",
        "name": "Github Extractor",
        "version": "1.15.1"
      }
    ],
    "authors": [
      {
        "name": "Fortress Information Security",
        "email": "sales@fortressinfosec.com",
        "phone": "1-407-573-6800"
      }
    ],
    "timestamp": "2022-06-01T21:00:00Z",
    "component": {
      "type": "application",
      "name": "patternlab-php",
      "version": "v2.0.0",
      "group": "pattern-lab",
      "externalReferences": [
        {
          "url": "https://github.com/pattern-lab/patternlab-php.git",
          "type": "distribution"
        },
        {
          "type": "website",
          "url": "http://patternlab.io",
          "comment": "As set via `homepage` in Github API"
        }
      ]
    }
  },
  "components": [
    {
      "type": "library",
      "bom-ref": "pkg:composer/alchemy/zippy@0.3.5",
      "group": "alchemy",
      "name": "zippy",
      "version": "0.3.5",
      "description": "Zippy, the archive manager companion",
      "licenses": [
        {
          "license": {
            "id": "MIT"
          }
        }
      ],
      "purl": "pkg:composer/alchemy/zippy@0.3.5",
      "externalReferences": [
        {
          "url": "https://github.com/alchemy-fr/Zippy.git",
          "type": "distribution",
          "comment": "As detected by composer's `getSourceUrls()` (type=git & reference=92c773f7bbe47fdb30c61dbaea3dcbf4dd13a40a)"
        },
        {
          "url": "https://api.github.com/repos/alchemy-fr/Zippy/zipball/92c773f7bbe47fdb30c61dbaea3dcbf4dd13a40a",
          "type": "distribution",
          "comment": "As detected by composer's `getDistUrls()` (type=zip & reference=92c773f7bbe47fdb30c61dbaea3dcbf4dd13a40a & sha1=UNDEFINED)"
        },
        {
          "url": "https://github.com/alchemy-fr/Zippy/issues",
          "type": "issue-tracker",
          "comment": "As set via `support.issues` in composer package definition."
        },
        {
          "url": "https://github.com/alchemy-fr/Zippy/tree/master",
          "type": "distribution",
          "comment": "As set via `support.source` in composer package definition."
        }
      ]
    },
    {
      "type": "library",
      "bom-ref": "pkg:composer/doctrine/collections@1.4.0",
      "group": "doctrine",
      "name": "collections",
      "version": "1.4.0",
      "description": "Collections Abstraction library",
      "licenses": [
        {
          "license": {
            "id": "MIT"
          }
        }
      ],
      "purl": "pkg:composer/doctrine/collections@1.4.0",
      "externalReferences": [
        {
          "url": "https://github.com/doctrine/collections.git",
          "type": "distribution",
          "comment": "As detected by composer's `getSourceUrls()` (type=git & reference=1a4fb7e902202c33cce8c55989b945612943c2ba)"
        },
        {
          "url": "https://api.github.com/repos/doctrine/collections/zipball/1a4fb7e902202c33cce8c55989b945612943c2ba",
          "type": "distribution",
          "comment": "As detected by composer's `getDistUrls()` (type=zip & reference=1a4fb7e902202c33cce8c55989b945612943c2ba & sha1=UNDEFINED)"
        },
        {
          "url": "http://www.doctrine-project.org",
          "type": "website",
          "comment": "As set via `homepage` in composer package definition."
        },
        {
          "url": "https://github.com/doctrine/collections/issues",
          "type": "issue-tracker",
          "comment": "As set via `support.issues` in composer package definition."
        },
        {
          "url": "https://github.com/doctrine/collections/tree/master",
          "type": "distribution",
          "comment": "As set via `support.source` in composer package definition."
        }
      ]
    },
    {
      "type": "library",
      "bom-ref": "pkg:composer/kevinlebrun/colors.php@1.0.3",
      "group": "kevinlebrun",
      "name": "colors.php",
      "version": "1.0.3",
      "description": "Colors for PHP CLI scripts",
      "licenses": [
        {
          "license": {
            "id": "MIT"
          }
        }
      ],
      "purl": "pkg:composer/kevinlebrun/colors.php@1.0.3",
      "externalReferences": [
        {
          "url": "https://github.com/kevinlebrun/colors.php.git",
          "type": "distribution",
          "comment": "As detected by composer's `getSourceUrls()` (type=git & reference=cdda5eee41314b87cd5a8bb91b1ffc7c0210e673)"
        },
        {
          "url": "https://api.github.com/repos/kevinlebrun/colors.php/zipball/cdda5eee41314b87cd5a8bb91b1ffc7c0210e673",
          "type": "distribution",
          "comment": "As detected by composer's `getDistUrls()` (type=zip & reference=cdda5eee41314b87cd5a8bb91b1ffc7c0210e673 & sha1=UNDEFINED)"
        },
        {
          "url": "https://github.com/kevinlebrun/colors.php",
          "type": "website",
          "comment": "As set via `homepage` in composer package definition."
        },
        {
          "url": "https://github.com/kevinlebrun/colors.php/issues",
          "type": "issue-tracker",
          "comment": "As set via `support.issues` in composer package definition."
        },
        {
          "url": "https://github.com/kevinlebrun/colors.php/tree/master",
          "type": "distribution",
          "comment": "As set via `support.source` in composer package definition."
        }
      ]
    },
    {
      "type": "library",
      "bom-ref": "pkg:composer/michelf/php-markdown@1.9.1",
      "group": "michelf",
      "name": "php-markdown",
      "version": "1.9.1",
      "description": "PHP Markdown",
      "licenses": [
        {
          "license": {
            "id": "BSD-3-Clause"
          }
        }
      ],
      "purl": "pkg:composer/michelf/php-markdown@1.9.1",
      "externalReferences": [
        {
          "url": "https://github.com/michelf/php-markdown.git",
          "type": "distribution",
          "comment": "As detected by composer's `getSourceUrls()` (type=git & reference=5024d623c1a057dcd2d076d25b7d270a1d0d55f3)"
        },
        {
          "url": "https://api.github.com/repos/michelf/php-markdown/zipball/5024d623c1a057dcd2d076d25b7d270a1d0d55f3",
          "type": "distribution",
          "comment": "As detected by composer's `getDistUrls()` (type=zip & reference=5024d623c1a057dcd2d076d25b7d270a1d0d55f3 & sha1=UNDEFINED)"
        },
        {
          "url": "https://michelf.ca/projects/php-markdown/",
          "type": "website",
          "comment": "As set via `homepage` in composer package definition."
        },
        {
          "url": "https://github.com/michelf/php-markdown/issues",
          "type": "issue-tracker",
          "comment": "As set via `support.issues` in composer package definition."
        },
        {
          "url": "https://github.com/michelf/php-markdown/tree/1.9.1",
          "type": "distribution",
          "comment": "As set via `support.source` in composer package definition."
        }
      ]
    },
    {
      "type": "library",
      "bom-ref": "pkg:composer/mustache/mustache@2.14.1",
      "group": "mustache",
      "name": "mustache",
      "version": "2.14.1",
      "description": "A Mustache implementation in PHP.",
      "licenses": [
        {
          "license": {
            "id": "MIT"
          }
        }
      ],
      "purl": "pkg:composer/mustache/mustache@2.14.1",
      "externalReferences": [
        {
          "url": "https://github.com/bobthecow/mustache.php.git",
          "type": "distribution",
          "comment": "As detected by composer's `getSourceUrls()` (type=git & reference=579ffa5c96e1d292c060b3dd62811ff01ad8c24e)"
        },
        {
          "url": "https://api.github.com/repos/bobthecow/mustache.php/zipball/579ffa5c96e1d292c060b3dd62811ff01ad8c24e",
          "type": "distribution",
          "comment": "As detected by composer's `getDistUrls()` (type=zip & reference=579ffa5c96e1d292c060b3dd62811ff01ad8c24e & sha1=UNDEFINED)"
        },
        {
          "url": "https://github.com/bobthecow/mustache.php",
          "type": "website",
          "comment": "As set via `homepage` in composer package definition."
        },
        {
          "url": "https://github.com/bobthecow/mustache.php/issues",
          "type": "issue-tracker",
          "comment": "As set via `support.issues` in composer package definition."
        },
        {
          "url": "https://github.com/bobthecow/mustache.php/tree/v2.14.1",
          "type": "distribution",
          "comment": "As set via `support.source` in composer package definition."
        }
      ]
    },
    {
      "type": "library",
      "bom-ref": "pkg:composer/pattern-lab/core@2.9.0",
      "group": "pattern-lab",
      "name": "core",
      "version": "2.9.0",
      "description": "The core functionality for Pattern Lab.",
      "licenses": [
        {
          "license": {
            "id": "MIT"
          }
        }
      ],
      "purl": "pkg:composer/pattern-lab/core@2.9.0",
      "externalReferences": [
        {
          "url": "https://github.com/pattern-lab/patternlab-php-core.git",
          "type": "distribution",
          "comment": "As detected by composer's `getSourceUrls()` (type=git & reference=009399c5cb175f1d5a1fafc7b07abc1f2d13a0a3)"
        },
        {
          "url": "https://api.github.com/repos/pattern-lab/patternlab-php-core/zipball/009399c5cb175f1d5a1fafc7b07abc1f2d13a0a3",
          "type": "distribution",
          "comment": "As detected by composer's `getDistUrls()` (type=zip & reference=009399c5cb175f1d5a1fafc7b07abc1f2d13a0a3 & sha1=UNDEFINED)"
        },
        {
          "url": "http://patternlab.io",
          "type": "website",
          "comment": "As set via `homepage` in composer package definition."
        },
        {
          "url": "https://github.com/pattern-lab/patternlab-php-core/issues",
          "type": "issue-tracker",
          "comment": "As set via `support.issues` in composer package definition."
        },
        {
          "url": "https://github.com/pattern-lab/patternlab-php-core/releases",
          "type": "distribution",
          "comment": "As set via `support.source` in composer package definition."
        },
        {
          "url": "http://patternlab.io/docs/",
          "type": "documentation",
          "comment": "As set via `support.wiki` in composer package definition."
        }
      ]
    },
    {
      "type": "library",
      "bom-ref": "pkg:composer/pattern-lab/patternengine-mustache@2.1.0",
      "group": "pattern-lab",
      "name": "patternengine-mustache",
      "version": "2.1.0",
      "description": "Mustache-based PatternEngine for Pattern Lab.",
      "licenses": [
        {
          "license": {
            "id": "MIT"
          }
        }
      ],
      "purl": "pkg:composer/pattern-lab/patternengine-mustache@2.1.0",
      "externalReferences": [
        {
          "url": "https://github.com/pattern-lab/patternengine-php-mustache.git",
          "type": "distribution",
          "comment": "As detected by composer's `getSourceUrls()` (type=git & reference=efb9ac15e0f77a26aec60e677710730e721f9f3e)"
        },
        {
          "url": "https://api.github.com/repos/pattern-lab/patternengine-php-mustache/zipball/efb9ac15e0f77a26aec60e677710730e721f9f3e",
          "type": "distribution",
          "comment": "As detected by composer's `getDistUrls()` (type=zip & reference=efb9ac15e0f77a26aec60e677710730e721f9f3e & sha1=UNDEFINED)"
        },
        {
          "url": "http://patternlab.io",
          "type": "website",
          "comment": "As set via `homepage` in composer package definition."
        },
        {
          "url": "https://github.com/pattern-lab/patternengine-php-mustache/issues",
          "type": "issue-tracker",
          "comment": "As set via `support.issues` in composer package definition."
        },
        {
          "url": "https://github.com/pattern-lab/patternengine-php-mustache/releases",
          "type": "distribution",
          "comment": "As set via `support.source` in composer package definition."
        },
        {
          "url": "http://patternlab.io/docs/",
          "type": "documentation",
          "comment": "As set via `support.wiki` in composer package definition."
        }
      ]
    },
    {
      "type": "library",
      "bom-ref": "pkg:composer/pattern-lab/plugin-reload@2.0.1",
      "group": "pattern-lab",
      "name": "plugin-reload",
      "version": "2.0.1",
      "description": "Automatic Browser Reload Support for Pattern Lab",
      "licenses": [
        {
          "license": {
            "id": "MIT"
          }
        }
      ],
      "purl": "pkg:composer/pattern-lab/plugin-reload@2.0.1",
      "externalReferences": [
        {
          "url": "https://github.com/pattern-lab/plugin-php-reload.git",
          "type": "distribution",
          "comment": "As detected by composer's `getSourceUrls()` (type=git & reference=d7e19f0cdfd0d15e8e16a3858140da64e8ade84b)"
        },
        {
          "url": "https://api.github.com/repos/pattern-lab/plugin-php-reload/zipball/d7e19f0cdfd0d15e8e16a3858140da64e8ade84b",
          "type": "distribution",
          "comment": "As detected by composer's `getDistUrls()` (type=zip & reference=d7e19f0cdfd0d15e8e16a3858140da64e8ade84b & sha1=UNDEFINED)"
        },
        {
          "url": "http://patternlab.io",
          "type": "website",
          "comment": "As set via `homepage` in composer package definition."
        },
        {
          "url": "https://github.com/pattern-lab/plugin-php-reload/issues",
          "type": "issue-tracker",
          "comment": "As set via `support.issues` in composer package definition."
        },
        {
          "url": "https://github.com/pattern-lab/plugin-php-reload/releases",
          "type": "distribution",
          "comment": "As set via `support.source` in composer package definition."
        },
        {
          "url": "http://patternlab.io/docs/",
          "type": "documentation",
          "comment": "As set via `support.wiki` in composer package definition."
        }
      ]
    },
    {
      "type": "library",
      "bom-ref": "pkg:composer/pattern-lab/styleguidekit-assets-default@3.5.2",
      "group": "pattern-lab",
      "name": "styleguidekit-assets-default",
      "version": "3.5.2",
      "description": "The assets for the default StyleguideKit for Pattern Lab. Contains styles and mark-up for Pattern Lab's front-end.",
      "licenses": [
        {
          "license": {
            "id": "MIT"
          }
        }
      ],
      "purl": "pkg:composer/pattern-lab/styleguidekit-assets-default@3.5.2",
      "externalReferences": [
        {
          "url": "https://github.com/pattern-lab/styleguidekit-assets-default.git",
          "type": "distribution",
          "comment": "As detected by composer's `getSourceUrls()` (type=git & reference=7c1b51195c17a19cc3e87890b8fb3d8c27f33870)"
        },
        {
          "url": "https://api.github.com/repos/pattern-lab/styleguidekit-assets-default/zipball/7c1b51195c17a19cc3e87890b8fb3d8c27f33870",
          "type": "distribution",
          "comment": "As detected by composer's `getDistUrls()` (type=zip & reference=7c1b51195c17a19cc3e87890b8fb3d8c27f33870 & sha1=UNDEFINED)"
        },
        {
          "url": "http://patternlab.io",
          "type": "website",
          "comment": "As set via `homepage` in composer package definition."
        },
        {
          "url": "https://github.com/pattern-lab/styleguidekit-assets-default/issues",
          "type": "issue-tracker",
          "comment": "As set via `support.issues` in composer package definition."
        },
        {
          "url": "https://github.com/pattern-lab/styleguidekit-assets-default/releases",
          "type": "distribution",
          "comment": "As set via `support.source` in composer package definition."
        },
        {
          "url": "http://patternlab.io/docs/",
          "type": "documentation",
          "comment": "As set via `support.wiki` in composer package definition."
        }
      ]
    },
    {
      "type": "library",
      "bom-ref": "pkg:composer/pattern-lab/styleguidekit-mustache-default@3.1.0",
      "group": "pattern-lab",
      "name": "styleguidekit-mustache-default",
      "version": "3.1.0",
      "description": "The default Mustache-based StyleguideKit for Pattern Lab. Contains styles and mark-up for Pattern Lab's front-end.",
      "licenses": [
        {
          "license": {
            "id": "MIT"
          }
        }
      ],
      "purl": "pkg:composer/pattern-lab/styleguidekit-mustache-default@3.1.0",
      "externalReferences": [
        {
          "url": "https://github.com/pattern-lab/styleguidekit-mustache-default.git",
          "type": "distribution",
          "comment": "As detected by composer's `getSourceUrls()` (type=git & reference=b981b0e955b77261bd34c18aa8adead32d948237)"
        },
        {
          "url": "https://api.github.com/repos/pattern-lab/styleguidekit-mustache-default/zipball/b981b0e955b77261bd34c18aa8adead32d948237",
          "type": "distribution",
          "comment": "As detected by composer's `getDistUrls()` (type=zip & reference=b981b0e955b77261bd34c18aa8adead32d948237 & sha1=UNDEFINED)"
        },
        {
          "url": "http://patternlab.io",
          "type": "website",
          "comment": "As set via `homepage` in composer package definition."
        },
        {
          "url": "https://github.com/pattern-lab/styleguidekit-mustache-default/issues",
          "type": "issue-tracker",
          "comment": "As set via `support.issues` in composer package definition."
        },
        {
          "url": "https://github.com/pattern-lab/styleguidekit-mustache-default/releases",
          "type": "distribution",
          "comment": "As set via `support.source` in composer package definition."
        },
        {
          "url": "http://patternlab.io/docs/",
          "type": "documentation",
          "comment": "As set via `support.wiki` in composer package definition."
        }
      ]
    },
    {
      "type": "library",
      "bom-ref": "pkg:composer/seld/jsonlint@1.9.0",
      "group": "seld",
      "name": "jsonlint",
      "version": "1.9.0",
      "description": "JSON Linter",
      "licenses": [
        {
          "license": {
            "id": "MIT"
          }
        }
      ],
      "purl": "pkg:composer/seld/jsonlint@1.9.0",
      "externalReferences": [
        {
          "url": "https://github.com/Seldaek/jsonlint.git",
          "type": "distribution",
          "comment": "As detected by composer's `getSourceUrls()` (type=git & reference=4211420d25eba80712bff236a98960ef68b866b7)"
        },
        {
          "url": "https://api.github.com/repos/Seldaek/jsonlint/zipball/4211420d25eba80712bff236a98960ef68b866b7",
          "type": "distribution",
          "comment": "As detected by composer's `getDistUrls()` (type=zip & reference=4211420d25eba80712bff236a98960ef68b866b7 & sha1=UNDEFINED)"
        },
        {
          "url": "https://github.com/Seldaek/jsonlint/issues",
          "type": "issue-tracker",
          "comment": "As set via `support.issues` in composer package definition."
        },
        {
          "url": "https://github.com/Seldaek/jsonlint/tree/1.9.0",
          "type": "distribution",
          "comment": "As set via `support.source` in composer package definition."
        },
        {
          "url": "https://github.com/Seldaek",
          "type": "other",
          "comment": "As set via `funding` in composer package definition. (type=github)"
        },
        {
          "url": "https://tidelift.com/funding/github/packagist/seld/jsonlint",
          "type": "other",
          "comment": "As set via `funding` in composer package definition. (type=tidelift)"
        }
      ]
    },
    {
      "type": "library",
      "bom-ref": "pkg:composer/shudrum/array-finder@1.1.0",
      "group": "shudrum",
      "name": "array-finder",
      "version": "1.1.0",
      "description": "ArrayFinder component",
      "licenses": [
        {
          "license": {
            "id": "MIT"
          }
        }
      ],
      "purl": "pkg:composer/shudrum/array-finder@1.1.0",
      "externalReferences": [
        {
          "url": "https://github.com/Shudrum/ArrayFinder.git",
          "type": "distribution",
          "comment": "As detected by composer's `getSourceUrls()` (type=git & reference=42380f01017371b7a1e8e02b0bf12cb534e454d7)"
        },
        {
          "url": "https://api.github.com/repos/Shudrum/ArrayFinder/zipball/42380f01017371b7a1e8e02b0bf12cb534e454d7",
          "type": "distribution",
          "comment": "As detected by composer's `getDistUrls()` (type=zip & reference=42380f01017371b7a1e8e02b0bf12cb534e454d7 & sha1=UNDEFINED)"
        },
        {
          "url": "https://github.com/Shudrum/ArrayFinder",
          "type": "website",
          "comment": "As set via `homepage` in composer package definition."
        },
        {
          "url": "https://github.com/Shudrum/ArrayFinder/issues",
          "type": "issue-tracker",
          "comment": "As set via `support.issues` in composer package definition."
        },
        {
          "url": "https://github.com/Shudrum/ArrayFinder/tree/master",
          "type": "distribution",
          "comment": "As set via `support.source` in composer package definition."
        }
      ]
    },
    {
      "type": "library",
      "bom-ref": "pkg:composer/symfony/event-dispatcher@3.4.47",
      "group": "symfony",
      "name": "event-dispatcher",
      "version": "3.4.47",
      "description": "Symfony EventDispatcher Component",
      "licenses": [
        {
          "license": {
            "id": "MIT"
          }
        }
      ],
      "purl": "pkg:composer/symfony/event-dispatcher@3.4.47",
      "externalReferences": [
        {
          "url": "https://github.com/symfony/event-dispatcher.git",
          "type": "distribution",
          "comment": "As detected by composer's `getSourceUrls()` (type=git & reference=31fde73757b6bad247c54597beef974919ec6860)"
        },
        {
          "url": "https://api.github.com/repos/symfony/event-dispatcher/zipball/31fde73757b6bad247c54597beef974919ec6860",
          "type": "distribution",
          "comment": "As detected by composer's `getDistUrls()` (type=zip & reference=31fde73757b6bad247c54597beef974919ec6860 & sha1=UNDEFINED)"
        },
        {
          "url": "https://symfony.com",
          "type": "website",
          "comment": "As set via `homepage` in composer package definition."
        },
        {
          "url": "https://github.com/symfony/event-dispatcher/tree/v3.4.47",
          "type": "distribution",
          "comment": "As set via `support.source` in composer package definition."
        },
        {
          "url": "https://symfony.com/sponsor",
          "type": "other",
          "comment": "As set via `funding` in composer package definition. (type=custom)"
        },
        {
          "url": "https://github.com/fabpot",
          "type": "other",
          "comment": "As set via `funding` in composer package definition. (type=github)"
        },
        {
          "url": "https://tidelift.com/funding/github/packagist/symfony/symfony",
          "type": "other",
          "comment": "As set via `funding` in composer package definition. (type=tidelift)"
        }
      ]
    },
    {
      "type": "library",
      "bom-ref": "pkg:composer/symfony/filesystem@3.4.47",
      "group": "symfony",
      "name": "filesystem",
      "version": "3.4.47",
      "description": "Symfony Filesystem Component",
      "licenses": [
        {
          "license": {
            "id": "MIT"
          }
        }
      ],
      "purl": "pkg:composer/symfony/filesystem@3.4.47",
      "externalReferences": [
        {
          "url": "https://github.com/symfony/filesystem.git",
          "type": "distribution",
          "comment": "As detected by composer's `getSourceUrls()` (type=git & reference=e58d7841cddfed6e846829040dca2cca0ebbbbb3)"
        },
        {
          "url": "https://api.github.com/repos/symfony/filesystem/zipball/e58d7841cddfed6e846829040dca2cca0ebbbbb3",
          "type": "distribution",
          "comment": "As detected by composer's `getDistUrls()` (type=zip & reference=e58d7841cddfed6e846829040dca2cca0ebbbbb3 & sha1=UNDEFINED)"
        },
        {
          "url": "https://symfony.com",
          "type": "website",
          "comment": "As set via `homepage` in composer package definition."
        },
        {
          "url": "https://github.com/symfony/filesystem/tree/v3.4.47",
          "type": "distribution",
          "comment": "As set via `support.source` in composer package definition."
        },
        {
          "url": "https://symfony.com/sponsor",
          "type": "other",
          "comment": "As set via `funding` in composer package definition. (type=custom)"
        },
        {
          "url": "https://github.com/fabpot",
          "type": "other",
          "comment": "As set via `funding` in composer package definition. (type=github)"
        },
        {
          "url": "https://tidelift.com/funding/github/packagist/symfony/symfony",
          "type": "other",
          "comment": "As set via `funding` in composer package definition. (type=tidelift)"
        }
      ]
    },
    {
      "type": "library",
      "bom-ref": "pkg:composer/symfony/finder@3.4.47",
      "group": "symfony",
      "name": "finder",
      "version": "3.4.47",
      "description": "Symfony Finder Component",
      "licenses": [
        {
          "license": {
            "id": "MIT"
          }
        }
      ],
      "purl": "pkg:composer/symfony/finder@3.4.47",
      "externalReferences": [
        {
          "url": "https://github.com/symfony/finder.git",
          "type": "distribution",
          "comment": "As detected by composer's `getSourceUrls()` (type=git & reference=b6b6ad3db3edb1b4b1c1896b1975fb684994de6e)"
        },
        {
          "url": "https://api.github.com/repos/symfony/finder/zipball/b6b6ad3db3edb1b4b1c1896b1975fb684994de6e",
          "type": "distribution",
          "comment": "As detected by composer's `getDistUrls()` (type=zip & reference=b6b6ad3db3edb1b4b1c1896b1975fb684994de6e & sha1=UNDEFINED)"
        },
        {
          "url": "https://symfony.com",
          "type": "website",
          "comment": "As set via `homepage` in composer package definition."
        },
        {
          "url": "https://github.com/symfony/finder/tree/v3.4.47",
          "type": "distribution",
          "comment": "As set via `support.source` in composer package definition."
        },
        {
          "url": "https://symfony.com/sponsor",
          "type": "other",
          "comment": "As set via `funding` in composer package definition. (type=custom)"
        },
        {
          "url": "https://github.com/fabpot",
          "type": "other",
          "comment": "As set via `funding` in composer package definition. (type=github)"
        },
        {
          "url": "https://tidelift.com/funding/github/packagist/symfony/symfony",
          "type": "other",
          "comment": "As set via `funding` in composer package definition. (type=tidelift)"
        }
      ]
    },
    {
      "type": "library",
      "bom-ref": "pkg:composer/symfony/polyfill-ctype@1.25.0",
      "group": "symfony",
      "name": "polyfill-ctype",
      "version": "1.25.0",
      "description": "Symfony polyfill for ctype functions",
      "licenses": [
        {
          "license": {
            "id": "MIT"
          }
        }
      ],
      "purl": "pkg:composer/symfony/polyfill-ctype@1.25.0",
      "externalReferences": [
        {
          "url": "https://github.com/symfony/polyfill-ctype.git",
          "type": "distribution",
          "comment": "As detected by composer's `getSourceUrls()` (type=git & reference=30885182c981ab175d4d034db0f6f469898070ab)"
        },
        {
          "url": "https://api.github.com/repos/symfony/polyfill-ctype/zipball/30885182c981ab175d4d034db0f6f469898070ab",
          "type": "distribution",
          "comment": "As detected by composer's `getDistUrls()` (type=zip & reference=30885182c981ab175d4d034db0f6f469898070ab & sha1=UNDEFINED)"
        },
        {
          "url": "https://symfony.com",
          "type": "website",
          "comment": "As set via `homepage` in composer package definition."
        },
        {
          "url": "https://github.com/symfony/polyfill-ctype/tree/v1.25.0",
          "type": "distribution",
          "comment": "As set via `support.source` in composer package definition."
        },
        {
          "url": "https://symfony.com/sponsor",
          "type": "other",
          "comment": "As set via `funding` in composer package definition. (type=custom)"
        },
        {
          "url": "https://github.com/fabpot",
          "type": "other",
          "comment": "As set via `funding` in composer package definition. (type=github)"
        },
        {
          "url": "https://tidelift.com/funding/github/packagist/symfony/symfony",
          "type": "other",
          "comment": "As set via `funding` in composer package definition. (type=tidelift)"
        }
      ]
    },
    {
      "type": "library",
      "bom-ref": "pkg:composer/symfony/process@3.4.47",
      "group": "symfony",
      "name": "process",
      "version": "3.4.47",
      "description": "Symfony Process Component",
      "licenses": [
        {
          "license": {
            "id": "MIT"
          }
        }
      ],
      "purl": "pkg:composer/symfony/process@3.4.47",
      "externalReferences": [
        {
          "url": "https://github.com/symfony/process.git",
          "type": "distribution",
          "comment": "As detected by composer's `getSourceUrls()` (type=git & reference=b8648cf1d5af12a44a51d07ef9bf980921f15fca)"
        },
        {
          "url": "https://api.github.com/repos/symfony/process/zipball/b8648cf1d5af12a44a51d07ef9bf980921f15fca",
          "type": "distribution",
          "comment": "As detected by composer's `getDistUrls()` (type=zip & reference=b8648cf1d5af12a44a51d07ef9bf980921f15fca & sha1=UNDEFINED)"
        },
        {
          "url": "https://symfony.com",
          "type": "website",
          "comment": "As set via `homepage` in composer package definition."
        },
        {
          "url": "https://github.com/symfony/process/tree/v3.4.47",
          "type": "distribution",
          "comment": "As set via `support.source` in composer package definition."
        },
        {
          "url": "https://symfony.com/sponsor",
          "type": "other",
          "comment": "As set via `funding` in composer package definition. (type=custom)"
        },
        {
          "url": "https://github.com/fabpot",
          "type": "other",
          "comment": "As set via `funding` in composer package definition. (type=github)"
        },
        {
          "url": "https://tidelift.com/funding/github/packagist/symfony/symfony",
          "type": "other",
          "comment": "As set via `funding` in composer package definition. (type=tidelift)"
        }
      ]
    },
    {
      "type": "library",
      "bom-ref": "pkg:composer/symfony/yaml@3.4.47",
      "group": "symfony",
      "name": "yaml",
      "version": "3.4.47",
      "description": "Symfony Yaml Component",
      "licenses": [
        {
          "license": {
            "id": "MIT"
          }
        }
      ],
      "purl": "pkg:composer/symfony/yaml@3.4.47",
      "externalReferences": [
        {
          "url": "https://github.com/symfony/yaml.git",
          "type": "distribution",
          "comment": "As detected by composer's `getSourceUrls()` (type=git & reference=88289caa3c166321883f67fe5130188ebbb47094)"
        },
        {
          "url": "https://api.github.com/repos/symfony/yaml/zipball/88289caa3c166321883f67fe5130188ebbb47094",
          "type": "distribution",
          "comment": "As detected by composer's `getDistUrls()` (type=zip & reference=88289caa3c166321883f67fe5130188ebbb47094 & sha1=UNDEFINED)"
        },
        {
          "url": "https://symfony.com",
          "type": "website",
          "comment": "As set via `homepage` in composer package definition."
        },
        {
          "url": "https://github.com/symfony/yaml/tree/v3.4.47",
          "type": "distribution",
          "comment": "As set via `support.source` in composer package definition."
        },
        {
          "url": "https://symfony.com/sponsor",
          "type": "other",
          "comment": "As set via `funding` in composer package definition. (type=custom)"
        },
        {
          "url": "https://github.com/fabpot",
          "type": "other",
          "comment": "As set via `funding` in composer package definition. (type=github)"
        },
        {
          "url": "https://tidelift.com/funding/github/packagist/symfony/symfony",
          "type": "other",
          "comment": "As set via `funding` in composer package definition. (type=tidelift)"
        }
      ]
    },
    {
      "type": "library",
      "bom-ref": "pkg:composer/wrench/wrench@2.0.11",
      "group": "wrench",
      "name": "wrench",
      "version": "2.0.11",
      "description": "PHP WebSocket client/server library",
      "licenses": [
        {
          "license": {
            "id": "WTFPL"
          }
        }
      ],
      "purl": "pkg:composer/wrench/wrench@2.0.11",
      "externalReferences": [
        {
          "url": "https://github.com/varspool/Wrench.git",
          "type": "distribution",
          "comment": "As detected by composer's `getSourceUrls()` (type=git & reference=db89efbece7e8b7649e3bdd01f8133d2812163f1)"
        },
        {
          "url": "https://api.github.com/repos/varspool/Wrench/zipball/db89efbece7e8b7649e3bdd01f8133d2812163f1",
          "type": "distribution",
          "comment": "As detected by composer's `getDistUrls()` (type=zip & reference=db89efbece7e8b7649e3bdd01f8133d2812163f1 & sha1=UNDEFINED)"
        },
        {
          "url": "http://github.com/varspool/Wrench",
          "type": "website",
          "comment": "As set via `homepage` in composer package definition."
        },
        {
          "url": "https://github.com/varspool/Wrench/issues",
          "type": "issue-tracker",
          "comment": "As set via `support.issues` in composer package definition."
        },
        {
          "url": "https://github.com/varspool/Wrench/tree/v2.0.11",
          "type": "distribution",
          "comment": "As set via `support.source` in composer package definition."
        }
      ]
    },
    {
      "type": "library",
      "bom-ref": "pkg:composer/cyclonedx/cyclonedx-library@1.5.0",
      "group": "cyclonedx",
      "name": "cyclonedx-library",
      "version": "1.5.0",
      "description": "Work with CycloneDX Software Bill-of-Materials (SBOM)",
      "licenses": [
        {
          "license": {
            "id": "Apache-2.0"
          }
        }
      ],
      "purl": "pkg:composer/cyclonedx/cyclonedx-library@1.5.0",
      "externalReferences": [
        {
          "url": "https://github.com/CycloneDX/cyclonedx-php-library.git",
          "type": "distribution",
          "comment": "As detected by composer's `getSourceUrls()` (type=git & reference=f41632e1d47001700ef93fa899e6dc49779aa784)"
        },
        {
          "url": "https://api.github.com/repos/CycloneDX/cyclonedx-php-library/zipball/f41632e1d47001700ef93fa899e6dc49779aa784",
          "type": "distribution",
          "comment": "As detected by composer's `getDistUrls()` (type=zip & reference=f41632e1d47001700ef93fa899e6dc49779aa784 & sha1=UNDEFINED)"
        },
        {
          "url": "https://github.com/CycloneDX/cyclonedx-php-library/",
          "type": "website",
          "comment": "As set via `homepage` in composer package definition."
        },
        {
          "url": "https://github.com/CycloneDX/cyclonedx-php-library/issues",
          "type": "issue-tracker",
          "comment": "As set via `support.issues` in composer package definition."
        },
        {
          "url": "https://github.com/CycloneDX/cyclonedx-php-library/tree/v1.5.0",
          "type": "distribution",
          "comment": "As set via `support.source` in composer package definition."
        }
      ]
    },
    {
      "type": "application",
      "bom-ref": "pkg:composer/cyclonedx/cyclonedx-php-composer@3.10.0",
      "group": "cyclonedx",
      "name": "cyclonedx-php-composer",
      "version": "3.10.0",
      "description": "Creates CycloneDX Software Bill-of-Materials (SBOM) from PHP Composer projects",
      "licenses": [
        {
          "license": {
            "id": "Apache-2.0"
          }
        }
      ],
      "purl": "pkg:composer/cyclonedx/cyclonedx-php-composer@3.10.0",
      "externalReferences": [
        {
          "url": "https://github.com/CycloneDX/cyclonedx-php-composer.git",
          "type": "distribution",
          "comment": "As detected by composer's `getSourceUrls()` (type=git & reference=341792df609deab6131ffa65f2f3b273f2e6128a)"
        },
        {
          "url": "https://api.github.com/repos/CycloneDX/cyclonedx-php-composer/zipball/341792df609deab6131ffa65f2f3b273f2e6128a",
          "type": "distribution",
          "comment": "As detected by composer's `getDistUrls()` (type=zip & reference=341792df609deab6131ffa65f2f3b273f2e6128a & sha1=UNDEFINED)"
        },
        {
          "url": "https://github.com/CycloneDX/cyclonedx-php-composer/",
          "type": "website",
          "comment": "As set via `homepage` in composer package definition."
        },
        {
          "url": "https://github.com/CycloneDX/cyclonedx-php-composer/issues",
          "type": "issue-tracker",
          "comment": "As set via `support.issues` in composer package definition."
        },
        {
          "url": "https://github.com/CycloneDX/cyclonedx-php-composer/tree/v3.10.0",
          "type": "distribution",
          "comment": "As set via `support.source` in composer package definition."
        }
      ]
    },
    {
      "type": "library",
      "bom-ref": "pkg:composer/package-url/packageurl-php@1.0.4",
      "group": "package-url",
      "name": "packageurl-php",
      "version": "1.0.4",
      "description": "A parser and builder based on the package url spec.",
      "licenses": [
        {
          "license": {
            "id": "MIT"
          }
        }
      ],
      "purl": "pkg:composer/package-url/packageurl-php@1.0.4",
      "externalReferences": [
        {
          "url": "https://github.com/package-url/packageurl-php.git",
          "type": "distribution",
          "comment": "As detected by composer's `getSourceUrls()` (type=git & reference=c45953babed516d27a0cf6c1a2d9f7e883ce214f)"
        },
        {
          "url": "https://api.github.com/repos/package-url/packageurl-php/zipball/c45953babed516d27a0cf6c1a2d9f7e883ce214f",
          "type": "distribution",
          "comment": "As detected by composer's `getDistUrls()` (type=zip & reference=c45953babed516d27a0cf6c1a2d9f7e883ce214f & sha1=UNDEFINED)"
        },
        {
          "url": "https://github.com/package-url/packageurl-php",
          "type": "website",
          "comment": "As set via `homepage` in composer package definition."
        },
        {
          "url": "https://github.com/package-url/packageurl-php/issues",
          "type": "issue-tracker",
          "comment": "As set via `support.issues` in composer package definition."
        },
        {
          "url": "https://github.com/package-url/packageurl-php/tree/1.0.4",
          "type": "distribution",
          "comment": "As set via `support.source` in composer package definition."
        }
      ]
    },
    {
      "type": "library",
      "bom-ref": "pkg:composer/phplang/scope-exit@1.0.0",
      "group": "phplang",
      "name": "scope-exit",
      "version": "1.0.0",
      "description": "Emulation of SCOPE_EXIT construct from C++",
      "licenses": [
        {
          "license": {
            "name": "BSD"
          }
        }
      ],
      "purl": "pkg:composer/phplang/scope-exit@1.0.0",
      "externalReferences": [
        {
          "url": "https://github.com/phplang/scope-exit.git",
          "type": "distribution",
          "comment": "As detected by composer's `getSourceUrls()` (type=git & reference=239b73abe89f9414aa85a7ca075ec9445629192b)"
        },
        {
          "url": "https://api.github.com/repos/phplang/scope-exit/zipball/239b73abe89f9414aa85a7ca075ec9445629192b",
          "type": "distribution",
          "comment": "As detected by composer's `getDistUrls()` (type=zip & reference=239b73abe89f9414aa85a7ca075ec9445629192b & sha1=UNDEFINED)"
        },
        {
          "url": "https://github.com/phplang/scope-exit",
          "type": "website",
          "comment": "As set via `homepage` in composer package definition."
        },
        {
          "url": "https://github.com/phplang/scope-exit/issues",
          "type": "issue-tracker",
          "comment": "As set via `support.issues` in composer package definition."
        },
        {
          "url": "https://github.com/phplang/scope-exit/tree/master",
          "type": "distribution",
          "comment": "As set via `support.source` in composer package definition."
        }
      ]
    },
    {
      "type": "library",
      "bom-ref": "pkg:composer/swaggest/json-diff@3.8.3",
      "group": "swaggest",
      "name": "json-diff",
      "version": "3.8.3",
      "description": "JSON diff/rearrange/patch/pointer library for PHP",
      "licenses": [
        {
          "license": {
            "id": "MIT"
          }
        }
      ],
      "purl": "pkg:composer/swaggest/json-diff@3.8.3",
      "externalReferences": [
        {
          "url": "https://github.com/swaggest/json-diff.git",
          "type": "distribution",
          "comment": "As detected by composer's `getSourceUrls()` (type=git & reference=bb3e3b4e9d842bb2e48f31ea568d0459968d1d42)"
        },
        {
          "url": "https://api.github.com/repos/swaggest/json-diff/zipball/bb3e3b4e9d842bb2e48f31ea568d0459968d1d42",
          "type": "distribution",
          "comment": "As detected by composer's `getDistUrls()` (type=zip & reference=bb3e3b4e9d842bb2e48f31ea568d0459968d1d42 & sha1=UNDEFINED)"
        },
        {
          "url": "https://github.com/swaggest/json-diff/issues",
          "type": "issue-tracker",
          "comment": "As set via `support.issues` in composer package definition."
        },
        {
          "url": "https://github.com/swaggest/json-diff/tree/v3.8.3",
          "type": "distribution",
          "comment": "As set via `support.source` in composer package definition."
        }
      ]
    },
    {
      "type": "library",
      "bom-ref": "pkg:composer/swaggest/json-schema@0.12.39",
      "group": "swaggest",
      "name": "json-schema",
      "version": "0.12.39",
      "description": "High definition PHP structures with JSON-schema based validation",
      "licenses": [
        {
          "license": {
            "id": "MIT"
          }
        }
      ],
      "purl": "pkg:composer/swaggest/json-schema@0.12.39",
      "externalReferences": [
        {
          "url": "https://github.com/swaggest/php-json-schema.git",
          "type": "distribution",
          "comment": "As detected by composer's `getSourceUrls()` (type=git & reference=193ba39cce1ffa2d55ddd5445315e945a63298a2)"
        },
        {
          "url": "https://api.github.com/repos/swaggest/php-json-schema/zipball/193ba39cce1ffa2d55ddd5445315e945a63298a2",
          "type": "distribution",
          "comment": "As detected by composer's `getDistUrls()` (type=zip & reference=193ba39cce1ffa2d55ddd5445315e945a63298a2 & sha1=UNDEFINED)"
        },
        {
          "url": "mailto:vearutop@gmail.com",
          "type": "other",
          "comment": "As set via `support.email` in composer package definition."
        },
        {
          "url": "https://github.com/swaggest/php-json-schema/issues",
          "type": "issue-tracker",
          "comment": "As set via `support.issues` in composer package definition."
        },
        {
          "url": "https://github.com/swaggest/php-json-schema/tree/v0.12.39",
          "type": "distribution",
          "comment": "As set via `support.source` in composer package definition."
        }
      ]
    },
    {
      "type": "library",
      "bom-ref": "pkg:composer/symfony/polyfill-mbstring@1.25.0",
      "group": "symfony",
      "name": "polyfill-mbstring",
      "version": "1.25.0",
      "description": "Symfony polyfill for the Mbstring extension",
      "licenses": [
        {
          "license": {
            "id": "MIT"
          }
        }
      ],
      "purl": "pkg:composer/symfony/polyfill-mbstring@1.25.0",
      "externalReferences": [
        {
          "url": "https://github.com/symfony/polyfill-mbstring.git",
          "type": "distribution",
          "comment": "As detected by composer's `getSourceUrls()` (type=git & reference=0abb51d2f102e00a4eefcf46ba7fec406d245825)"
        },
        {
          "url": "https://api.github.com/repos/symfony/polyfill-mbstring/zipball/0abb51d2f102e00a4eefcf46ba7fec406d245825",
          "type": "distribution",
          "comment": "As detected by composer's `getDistUrls()` (type=zip & reference=0abb51d2f102e00a4eefcf46ba7fec406d245825 & sha1=UNDEFINED)"
        },
        {
          "url": "https://symfony.com",
          "type": "website",
          "comment": "As set via `homepage` in composer package definition."
        },
        {
          "url": "https://github.com/symfony/polyfill-mbstring/tree/v1.25.0",
          "type": "distribution",
          "comment": "As set via `support.source` in composer package definition."
        },
        {
          "url": "https://symfony.com/sponsor",
          "type": "other",
          "comment": "As set via `funding` in composer package definition. (type=custom)"
        },
        {
          "url": "https://github.com/fabpot",
          "type": "other",
          "comment": "As set via `funding` in composer package definition. (type=github)"
        },
        {
          "url": "https://tidelift.com/funding/github/packagist/symfony/symfony",
          "type": "other",
          "comment": "As set via `funding` in composer package definition. (type=tidelift)"
        }
      ]
    },
    {
      "type": "library",
      "bom-ref": "pkg:pypi/sphinxcontrib-phpdomain@0.8.0",
      "group": "",
      "name": "sphinxcontrib-phpdomain",
      "version": "0.8.0",
      "description": "Sphinx extension to enable documenting PHP code",
      "hashes": [
        {
          "alg": "SHA-256",
          "content": "84b1164b726a70c704ff658bbd451cc7ce6aa2c9e074729b79ff0bd93aadc8a4"
        }
      ],
      "licenses": [
        {
          "license": {
            "id": "0BSD",
            "url": "https://opensource.org/licenses/0BSD"
          }
        }
      ],
      "purl": "pkg:pypi/sphinxcontrib-phpdomain@0.8.0",
      "externalReferences": [
        {
          "url": "https://github.com/markstory/sphinxcontrib-phpdomain",
          "type": "vcs"
        }
      ]
    }
  ],
  "dependencies": [
    {
      "ref": "pkg:composer/alchemy/zippy@0.3.5",
      "dependsOn": [
        "pkg:composer/doctrine/collections@1.4.0",
        "pkg:composer/symfony/filesystem@3.4.47",
        "pkg:composer/symfony/process@3.4.47"
      ]
    },
    {
      "ref": "pkg:composer/doctrine/collections@1.4.0"
    },
    {
      "ref": "pkg:composer/kevinlebrun/colors.php@1.0.3"
    },
    {
      "ref": "pkg:composer/michelf/php-markdown@1.9.1"
    },
    {
      "ref": "pkg:composer/mustache/mustache@2.14.1"
    },
    {
      "ref": "pkg:composer/pattern-lab/core@2.9.0",
      "dependsOn": [
        "pkg:composer/alchemy/zippy@0.3.5",
        "pkg:composer/doctrine/collections@1.4.0",
        "pkg:composer/kevinlebrun/colors.php@1.0.3",
        "pkg:composer/michelf/php-markdown@1.9.1",
        "pkg:composer/seld/jsonlint@1.9.0",
        "pkg:composer/shudrum/array-finder@1.1.0",
        "pkg:composer/symfony/event-dispatcher@3.4.47",
        "pkg:composer/symfony/filesystem@3.4.47",
        "pkg:composer/symfony/finder@3.4.47",
        "pkg:composer/symfony/process@3.4.47",
        "pkg:composer/symfony/yaml@3.4.47"
      ]
    },
    {
      "ref": "pkg:composer/pattern-lab/patternengine-mustache@2.1.0",
      "dependsOn": [
        "pkg:composer/mustache/mustache@2.14.1",
        "pkg:composer/pattern-lab/core@2.9.0"
      ]
    },
    {
      "ref": "pkg:composer/pattern-lab/plugin-reload@2.0.1",
      "dependsOn": [
        "pkg:composer/pattern-lab/core@2.9.0",
        "pkg:composer/wrench/wrench@2.0.11"
      ]
    },
    {
      "ref": "pkg:composer/pattern-lab/styleguidekit-assets-default@3.5.2"
    },
    {
      "ref": "pkg:composer/pattern-lab/styleguidekit-mustache-default@3.1.0",
      "dependsOn": [
        "pkg:composer/pattern-lab/core@2.9.0",
        "pkg:composer/pattern-lab/patternengine-mustache@2.1.0",
        "pkg:composer/pattern-lab/styleguidekit-assets-default@3.5.2"
      ]
    },
    {
      "ref": "pkg:composer/seld/jsonlint@1.9.0"
    },
    {
      "ref": "pkg:composer/shudrum/array-finder@1.1.0"
    },
    {
      "ref": "pkg:composer/symfony/event-dispatcher@3.4.47"
    },
    {
      "ref": "pkg:composer/symfony/filesystem@3.4.47",
      "dependsOn": [
        "pkg:composer/symfony/polyfill-ctype@1.25.0"
      ]
    },
    {
      "ref": "pkg:composer/symfony/finder@3.4.47"
    },
    {
      "ref": "pkg:composer/symfony/polyfill-ctype@1.25.0"
    },
    {
      "ref": "pkg:composer/symfony/process@3.4.47"
    },
    {
      "ref": "pkg:composer/symfony/yaml@3.4.47",
      "dependsOn": [
        "pkg:composer/symfony/polyfill-ctype@1.25.0"
      ]
    },
    {
      "ref": "pkg:composer/wrench/wrench@2.0.11"
    },
    {
      "ref": "pkg:composer/cyclonedx/cyclonedx-library@1.5.0",
      "dependsOn": [
        "pkg:composer/package-url/packageurl-php@1.0.4",
        "pkg:composer/swaggest/json-schema@0.12.39"
      ]
    },
    {
      "ref": "pkg:composer/cyclonedx/cyclonedx-php-composer@3.10.0",
      "dependsOn": [
        "pkg:composer/cyclonedx/cyclonedx-library@1.5.0",
        "pkg:composer/package-url/packageurl-php@1.0.4"
      ]
    },
    {
      "ref": "pkg:composer/package-url/packageurl-php@1.0.4"
    },
    {
      "ref": "pkg:composer/phplang/scope-exit@1.0.0"
    },
    {
      "ref": "pkg:composer/swaggest/json-diff@3.8.3"
    },
    {
      "ref": "pkg:composer/swaggest/json-schema@0.12.39",
      "dependsOn": [
        "pkg:composer/phplang/scope-exit@1.0.0",
        "pkg:composer/swaggest/json-diff@3.8.3",
        "pkg:composer/symfony/polyfill-mbstring@1.25.0"
      ]
    },
    {
      "ref": "pkg:composer/symfony/polyfill-mbstring@1.25.0"
    },
    {
      "ref": "pkg:composer/pattern-lab/edition-mustache-standard@dev-master",
      "dependsOn": [
        "pkg:composer/pattern-lab/core@2.9.0",
        "pkg:composer/pattern-lab/patternengine-mustache@2.1.0",
        "pkg:composer/pattern-lab/styleguidekit-mustache-default@3.1.0",
        "pkg:composer/pattern-lab/plugin-reload@2.0.1",
        "pkg:composer/cyclonedx/cyclonedx-php-composer@3.10.0"
      ]
    }
  ]
}
