{
  "bomFormat": "CycloneDX",
  "specVersion": "1.3",
  "version": 1,
  "metadata": {
    "tools": [
      {
        "vendor": "CycloneDX",
        "name": "Node.js module",
        "version": "3.0.3"
      },
      {
        "vendor": "CycloneDX",
        "name": "Node.js module",
        "version": "3.0.3"
      },
      {
        "vendor": "CycloneDX",
        "name": "Node.js module",
        "version": "3.0.3"
      },
      {
        "vendor": "Fortress Information Security",
        "name": "GitHub Extractor",
        "version": "1.15.1"
      }
    ],
    "authors": [
      {
        "name": "Fortress Information Security",
        "email": "sales@fortressinfosec.com",
        "phone": "1-407-573-6800"
      }
    ],
    "timestamp": "2022-06-30T13:56:00Z",
    "component": {
      "type": "application",
      "name": "porcupine",
      "version": "v2.1",
      "group": "Picovoice",
      "externalReferences": [
        {
          "url": "https://github.com/Picovoice/porcupine.git",
          "type": "distribution"
        }
      ]
    }
  },
  "components": [
    {
      "type": "library",
      "publisher": "Python Packaging Authority",
      "name": "setuptools",
      "version": "62.6.0",
      "description": "Easily download, build, install, upgrade, and uninstall Python packages",
      "hashes": [
        {
          "alg": "MD5",
          "content": "24a5e9a34b00dcbcbec8bb19c6eca86c"
        },
        {
          "alg": "SHA-256",
          "content": "c1848f654aea2e3526d17fc3ce6aeaa5e7e24e66e645b5be2171f3f6b4e5a178"
        }
      ],
      "purl": "pkg:pypi/setuptools@62.6.0",
      "modified": false
    },
    {
      "type": "library",
      "publisher": "Thomas Waldmann",
      "name": "argparse",
      "version": "1.4.0",
      "description": "Python command-line parsing library",
      "hashes": [
        {
          "alg": "MD5",
          "content": "c37216a954c8669054e2b2c54853dd49"
        },
        {
          "alg": "SHA-256",
          "content": "c31647edb69fd3d465a847ea3157d37bed1f95f19760b11a47aa91c04b666314"
        }
      ],
      "licenses": [
        {
          "license": {
            "name": "Python Software Foundation License"
          }
        }
      ],
      "purl": "pkg:pypi/argparse@1.4.0",
      "modified": false
    },
    {
      "type": "library",
      "publisher": "Picovoice",
      "name": "pvporcupine",
      "version": "2.1.4",
      "description": "Porcupine wake word engine.",
      "hashes": [
        {
          "alg": "MD5",
          "content": "9a576e46af7dbaecb93fb39e4a81d8ed"
        },
        {
          "alg": "SHA-256",
          "content": "79f5864d89d78bf8ee9b4360db4644bac46c5e4af7ae14c0ee200895f1e28e76"
        }
      ],
      "purl": "pkg:pypi/pvporcupine@2.1.4",
      "modified": false
    },
    {
      "type": "library",
      "publisher": "Picovoice",
      "name": "pvrecorder",
      "version": "1.1.0",
      "description": "Recorder library for Picovoice.",
      "hashes": [
        {
          "alg": "MD5",
          "content": "3308ebfa721c87be5589864afb5deb54"
        },
        {
          "alg": "SHA-256",
          "content": "30e7804e38a0bdf0f71dd0b2fa652928120571b9961d791142b766e2ca3675d0"
        }
      ],
      "purl": "pkg:pypi/pvrecorder@1.1.0",
      "modified": false
    },
    {
      "type": "library",
      "publisher": "Ben Nuttall",
      "name": "gpiozero",
      "version": "1.6.2",
      "description": "A simple interface to GPIO devices with Raspberry Pi.",
      "hashes": [
        {
          "alg": "MD5",
          "content": "591345f627648d5e4b0b36d7acb6149a"
        },
        {
          "alg": "SHA-256",
          "content": "9af00b90d4fa775aa1fc023363e4aa5539844a5b0c461be5ced5cfabba364d99"
        }
      ],
      "licenses": [
        {
          "license": {
            "name": "BSD-3-Clause"
          }
        }
      ],
      "purl": "pkg:pypi/gpiozero@1.6.2",
      "modified": false
    },
    {
      "type": "library",
      "publisher": "Volker Thoms",
      "name": "spidev",
      "version": "3.5",
      "description": "Python bindings for Linux SPI access through spidev",
      "hashes": [
        {
          "alg": "MD5",
          "content": "7007e4fff2750025e233d8dfe46be670"
        },
        {
          "alg": "SHA-256",
          "content": "8a7f5c289f161ea2ac4697fa8a10918232c990678dd0053084b3c43b1363910d"
        }
      ],
      "licenses": [
        {
          "license": {
            "name": "MIT"
          }
        }
      ],
      "purl": "pkg:pypi/spidev@3.5",
      "modified": false
    },
    {
      "type": "library",
      "publisher": "P Henderson and M J Henderson",
      "name": "wave",
      "version": "0.0.2",
      "description": "Whole Architecture Verification",
      "hashes": [
        {
          "alg": "MD5",
          "content": "227bafdba903889ae50ef86085f98f16"
        },
        {
          "alg": "SHA-256",
          "content": "5187f49497287d218cc83d4cd1e5299dc31485ab3ed32abbaa9e95d8f73c4095"
        }
      ],
      "purl": "pkg:pypi/wave@0.0.2",
      "modified": false
    },
    {
      "type": "library",
      "publisher": "Zope Foundation and Contributors",
      "name": "datetime",
      "version": "4.4",
      "description": "This package provides a DateTime data type, as known from Zope. Unless you need to communicate with Zope APIs, you're probably better off using Python's built-in datetime module.",
      "hashes": [
        {
          "alg": "MD5",
          "content": "ad1e82d858ed7c8cd2ea437b4cb695ed"
        },
        {
          "alg": "SHA-256",
          "content": "4fcca115ddb466a1104df08d5c2a2f5805d14ca317800e1bfcea8f3d69f66e57"
        }
      ],
      "licenses": [
        {
          "license": {
            "name": "ZPL 2.1"
          }
        }
      ],
      "purl": "pkg:pypi/datetime@4.4",
      "modified": false
    },
    {
      "type": "library",
      "publisher": "Vinay Sajip",
      "name": "logging",
      "version": "0.4.9.6",
      "description": "A logging module for Python",
      "hashes": [
        {
          "alg": "MD5",
          "content": "dc0a7ebc8b8970263911e11e7b7e1ca8"
        },
        {
          "alg": "SHA-256",
          "content": "26f6b50773f085042d301085bd1bf5d9f3735704db9f37c1ce6d8b85c38f2417"
        }
      ],
      "licenses": [
        {
          "license": {
            "name": "Copyright (C) 2001-2005 by Vinay Sajip. All Rights Reserved. See LICENSE for license."
          }
        }
      ],
      "purl": "pkg:pypi/logging@0.4.9.6",
      "modified": false
    },
    {
      "type": "library",
      "publisher": "Michael Foord",
      "name": "unittest",
      "version": "0.0",
      "hashes": [
        {
          "alg": "MD5",
          "content": "2a416384f814604ed854d40f352f1191"
        },
        {
          "alg": "SHA-256",
          "content": "1b492484bea7f68abda5fcc61412e77b6a105e5842355d630f8b75f01add3555"
        }
      ],
      "purl": "pkg:pypi/unittest@0.0",
      "modified": false
    },
    {
      "type": "library",
      "publisher": "David Wolever",
      "name": "parameterized",
      "version": "0.8.1",
      "description": "Parameterized testing with any Python test framework",
      "hashes": [
        {
          "alg": "MD5",
          "content": "c4969d09c87200cf06cd6e969e216057"
        },
        {
          "alg": "SHA-256",
          "content": "9cbb0b69a03e8695d68b3399a8a5825200976536fe1cb79db60ed6a4c8c9efe9"
        }
      ],
      "licenses": [
        {
          "license": {
            "name": "FreeBSD"
          }
        }
      ],
      "purl": "pkg:pypi/parameterized@0.8.1",
      "modified": false
    },
    {
      "type": "library",
      "publisher": "Thomas Heller",
      "name": "ctypes",
      "version": "1.0.2",
      "description": "create and manipulate C data types in Python, call functions in shared libraries",
      "licenses": [
        {
          "license": {
            "name": "MIT License"
          }
        }
      ],
      "purl": "pkg:pypi/ctypes@1.0.2",
      "modified": false
    },
    {
      "type": "library",
      "publisher": "Ben Finney",
      "name": "enum",
      "version": "0.4.7",
      "description": "Robust enumerated type support in Python.",
      "hashes": [
        {
          "alg": "MD5",
          "content": "e7d170e3f84435b77058de625c96ef58"
        },
        {
          "alg": "SHA-256",
          "content": "8c7cf3587eda51008bcc1eed99ea2c331ccd265c231dbaa95ec5258d3dc03100"
        }
      ],
      "licenses": [
        {
          "license": {
            "name": "GPL-3.0+"
          }
        }
      ],
      "purl": "pkg:pypi/enum@0.4.7",
      "modified": false
    },
    {
      "type": "library",
      "publisher": "Franck Cuny",
      "name": "http",
      "version": "0.02",
      "description": "HTTP library for Python",
      "hashes": [
        {
          "alg": "MD5",
          "content": "9e4684a411a9cf371cbd0bc8658a803a"
        },
        {
          "alg": "SHA-256",
          "content": "071bc409f687535b6e31a94bced6a7773905abad8d2f236b406202b7283f682c"
        }
      ],
      "licenses": [
        {
          "license": {
            "name": "MIT"
          }
        }
      ],
      "purl": "pkg:pypi/http@0.02",
      "modified": false
    },
    {
      "type": "library",
      "name": "selenium",
      "version": "4.3.0",
      "hashes": [
        {
          "alg": "MD5",
          "content": "580acb376feda1d57cb8a50a180607b4"
        },
        {
          "alg": "SHA-256",
          "content": "f67402b8f973aaa98d9c55b8f9aa63532009cd1859b2222a8b9800354942d8bc"
        }
      ],
      "licenses": [
        {
          "license": {
            "name": "Apache 2.0"
          }
        }
      ],
      "purl": "pkg:pypi/selenium@4.3.0",
      "modified": false
    },
    {
      "type": "library",
      "publisher": "Sergey Pirogov",
      "name": "webdriver_manager",
      "version": "3.7.1",
      "description": "Library provides the way to automatically manage drivers for different browsers",
      "hashes": [
        {
          "alg": "MD5",
          "content": "d50e64296e487e5022ce83ff81e7ff77"
        },
        {
          "alg": "SHA-256",
          "content": "d0ccec0af85cf48a196309fd55c6d2d32858cfde6ff8c818cd77f3a3c1b8c958"
        }
      ],
      "purl": "pkg:pypi/webdriver-manager@3.7.1",
      "modified": false
    }
  ]
}
