{
  "bomFormat": "CycloneDX",
  "specVersion": "1.3",
  "version": 1,
  "metadata": {
    "tools": [
      {
        "vendor": "CycloneDX",
        "name": "CycloneDX module for .NET",
        "version": "1.6.1.0"
      },
      {
        "vendor": "CycloneDX",
        "name": "Node.js module",
        "version": "3.0.3"
      },
      {
        "vendor": "AppThreat",
        "name": "cdxgen",
        "version": "3.0.10"
      },
      {
        "vendor": "Fortress Information Security",
        "name": "Github Extractor",
        "version": "1.15.1"
      }
    ],
    "authors": [
      {
        "name": "Fortress Information Security",
        "email": "sales@fortressinfosec.com",
        "phone": "1-407-573-6800"
      }
    ],
    "timestamp": "2022-06-01T21:00:00Z",
    "component": {
      "type": "application",
      "name": "ALVR",
      "version": "v2.3.1",
      "group": "polygraphene",
      "externalReferences": [
        {
          "url": "https://github.com/polygraphene/ALVR.git",
          "type": "distribution"
        },
        {
          "type": "website",
          "url": "null",
          "comment": "As set via `homepage` in Github API"
        }
      ]
    }
  },
  "components": [
    {
      "type": "library",
      "name": "DynamicJson",
      "version": "1.2.0.0",
      "purl": "pkg:nuget/DynamicJson@1.2.0.0"
    },
    {
      "type": "library",
      "name": "MetroFramework",
      "version": "1.2.0.3",
      "purl": "pkg:nuget/MetroFramework@1.2.0.3"
    },
    {
      "type": "library",
      "name": "MetroFramework.Design",
      "version": "1.2.0.3",
      "purl": "pkg:nuget/MetroFramework.Design@1.2.0.3"
    },
    {
      "type": "library",
      "name": "MetroFramework.Fonts",
      "version": "1.2.0.3",
      "purl": "pkg:nuget/MetroFramework.Fonts@1.2.0.3"
    },
    {
      "type": "library",
      "name": "MetroFramework.RunTime",
      "version": "1.2.0.3",
      "purl": "pkg:nuget/MetroFramework.RunTime@1.2.0.3"
    },
    {
      "type": "library",
      "bom-ref": "pkg:nuget/directxtk_desktop_2015@2018.4.23.1",
      "group": "",
      "name": "directxtk_desktop_2015",
      "version": "2018.4.23.1",
      "description": "",
      "purl": "pkg:nuget/directxtk_desktop_2015@2018.4.23.1"
    },
    {
      "type": "library",
      "bom-ref": "pkg:nuget/directxtk_desktop_2015@2018.6.1.2",
      "group": "",
      "name": "directxtk_desktop_2015",
      "version": "2018.6.1.2",
      "description": "",
      "purl": "pkg:nuget/directxtk_desktop_2015@2018.6.1.2"
    }
  ]
}
