{
  "bomFormat": "CycloneDX",
  "specVersion": "1.3",
  "version": 2,
  "metadata": {
    "tools": [
      {
        "vendor": "AppThreat",
        "name": "cdxgen",
        "version": "3.0.10"
      },
      {
        "vendor": "Fortress Information Security",
        "name": "Github Extractor",
        "version": "1.15.1"
      }
    ],
    "authors": [
      {
        "name": "Fortress Information Security",
        "email": "sales@fortressinfosec.com",
        "phone": "1-407-573-6800"
      }
    ],
    "timestamp": "2022-07-26T23:34:06Z",
    "component": {
      "type": "application",
      "name": "fairseq",
      "version": "v0.12.1",
      "group": "pytorch",
      "externalReferences": [
        {
          "url": "https://github.com/pytorch/fairseq.git",
          "type": "distribution"
        },
        {
          "type": "website",
          "url": "null",
          "comment": "As set via `homepage` in Github API"
        }
      ]
    }
  },
  "components": [
    {
      "type": "library",
      "publisher": "Thomas Waldmann",
      "name": "argparse",
      "version": "1.4.0",
      "description": "Python command-line parsing library",
      "hashes": [
        {
          "alg": "MD5",
          "content": "c37216a954c8669054e2b2c54853dd49"
        },
        {
          "alg": "SHA-256",
          "content": "c31647edb69fd3d465a847ea3157d37bed1f95f19760b11a47aa91c04b666314"
        }
      ],
      "licenses": [
        {
          "license": {
            "name": "Python Software Foundation License"
          }
        }
      ],
      "purl": "pkg:pypi/argparse@1.4.0",
      "modified": false
    },
    {
      "type": "library",
      "publisher": "Vinay Sajip",
      "name": "logging",
      "version": "0.4.9.6",
      "description": "A logging module for Python",
      "hashes": [
        {
          "alg": "MD5",
          "content": "dc0a7ebc8b8970263911e11e7b7e1ca8"
        },
        {
          "alg": "SHA-256",
          "content": "26f6b50773f085042d301085bd1bf5d9f3735704db9f37c1ce6d8b85c38f2417"
        }
      ],
      "licenses": [
        {
          "license": {
            "name": "Copyright (C) 2001-2005 by Vinay Sajip. All Rights Reserved. See LICENSE for license."
          }
        }
      ],
      "purl": "pkg:pypi/logging@0.4.9.6",
      "modified": false
    },
    {
      "type": "library",
      "publisher": "Guido van Rossum, Jukka Lehtosalo, Łukasz Langa, Ivan Levkivskyi",
      "name": "typing",
      "version": "3.10.0.0",
      "description": "Type Hints for Python",
      "hashes": [
        {
          "alg": "MD5",
          "content": "cf38139027dc160e3ecd8e5ccf151da9"
        },
        {
          "alg": "SHA-256",
          "content": "12fbdfbe7d6cca1a42e485229afcb0b0c8259258cfb919b8a5e2a5c953742f89"
        }
      ],
      "licenses": [
        {
          "license": {
            "name": "PSF"
          }
        }
      ],
      "purl": "pkg:pypi/typing@3.10.0.0",
      "modified": false
    },
    {
      "type": "library",
      "publisher": "The Pandas Development Team",
      "name": "pandas",
      "version": "1.4.2",
      "description": "Powerful data structures for data analysis, time series, and statistics",
      "hashes": [
        {
          "alg": "MD5",
          "content": "d03e1ba43fac967c83ca8223248cc32f"
        },
        {
          "alg": "SHA-256",
          "content": "09d8be7dd9e1c4c98224c4dfe8abd60d145d934e9fc1f5f411266308ae683e6a"
        }
      ],
      "licenses": [
        {
          "license": {
            "name": "BSD-3-Clause"
          }
        }
      ],
      "purl": "pkg:pypi/pandas@1.4.2",
      "modified": false
    },
    {
      "type": "library",
      "publisher": "See COPYRIGHT file",
      "name": "pypapi",
      "version": "0.8",
      "description": "PyPaPi - Python and Qt Application Framework (PyQt and SQLAlchemy)",
      "hashes": [
        {
          "alg": "MD5",
          "content": "72284fece806d9be4896c04bf039d6df"
        },
        {
          "alg": "SHA-256",
          "content": "2450b7a948af43bf5ba90ea6aa0fe5eb0c869b012681a48ded3409243f85ba2e"
        }
      ],
      "licenses": [
        {
          "license": {
            "name": "GPL"
          }
        }
      ],
      "purl": "pkg:pypi/pypapi@0.8",
      "modified": false
    },
    {
      "type": "library",
      "publisher": "Fabian Pedregosa",
      "name": "memory_profiler",
      "version": "0.60.0",
      "description": "A module for monitoring memory usage of a python program",
      "hashes": [
        {
          "alg": "MD5",
          "content": "c4d29b47885c32581f5bcefb44d2ca8e"
        },
        {
          "alg": "SHA-256",
          "content": "6a12869511d6cebcb29b71ba26985675a58e16e06b3c523b49f67c5497a33d1c"
        }
      ],
      "licenses": [
        {
          "license": {
            "name": "BSD"
          }
        }
      ],
      "purl": "pkg:pypi/memory-profiler@0.60.0",
      "modified": false
    },
    {
      "type": "library",
      "publisher": "Yijun Yu",
      "name": "ast",
      "version": "0.0.2",
      "description": "Conversion between protobuf3 and srcML.",
      "hashes": [
        {
          "alg": "MD5",
          "content": "866a45bda3dc0b19f8da494f6a548a8d"
        },
        {
          "alg": "SHA-256",
          "content": "04cf2827c4048d18635ca8f85357a4285d140424ac26028be0dc585f824e07cd"
        }
      ],
      "licenses": [
        {
          "license": {
            "name": "MIT"
          }
        }
      ],
      "purl": "pkg:pypi/ast@0.0.2",
      "modified": false
    },
    {
      "type": "library",
      "publisher": "Christian Heimes",
      "name": "multiprocessing",
      "version": "2.6.2.1",
      "description": "Backport of the multiprocessing package to Python 2.4 and 2.5",
      "hashes": [
        {
          "alg": "MD5",
          "content": "5cc484396c040102116ccc2355379c72"
        },
        {
          "alg": "SHA-256",
          "content": "ef3b81ad85d7de252e5491b1daac028e17f9741cbe3625032e6eaa4ad4c79900"
        }
      ],
      "licenses": [
        {
          "license": {
            "name": "BSD Licence"
          }
        }
      ],
      "purl": "pkg:pypi/multiprocessing@2.6.2.1",
      "modified": false
    },
    {
      "type": "library",
      "publisher": "anatoly techtonik <techtonik@gmail.com>",
      "name": "wget",
      "version": "3.2",
      "description": "pure python download utility",
      "hashes": [
        {
          "alg": "MD5",
          "content": "fb7a04ee59a56bd8db974146df1d7a8b"
        },
        {
          "alg": "SHA-256",
          "content": "35e630eca2aa50ce998b9b1a127bb26b30dfee573702782aa982f875e3f16061"
        }
      ],
      "licenses": [
        {
          "license": {
            "name": "Public Domain"
          }
        }
      ],
      "purl": "pkg:pypi/wget@3.2",
      "modified": false
    },
    {
      "type": "library",
      "publisher": "Dave Cole",
      "name": "csv",
      "version": "1.0",
      "description": "Fast CSV Parser for Python",
      "licenses": [
        {
          "license": {
            "name": "BSD"
          }
        }
      ],
      "purl": "pkg:pypi/csv@1.0",
      "modified": false
    },
    {
      "type": "library",
      "publisher": "Benjamin Peterson",
      "name": "six",
      "version": "1.16.0",
      "description": "Python 2 and 3 compatibility utilities",
      "hashes": [
        {
          "alg": "MD5",
          "content": "529d7fd7e14612ccde86417b4402d6f3"
        },
        {
          "alg": "SHA-256",
          "content": "8abb2f1d86890a2dfb989f9a77cfcfd3e47c2a354b01111771326f8aa26e0254"
        }
      ],
      "licenses": [
        {
          "license": {
            "name": "MIT"
          }
        }
      ],
      "purl": "pkg:pypi/six@1.16.0",
      "modified": false
    },
    {
      "type": "library",
      "name": "io",
      "version": "0.0.1",
      "purl": "pkg:pypi/io@0.0.1",
      "modified": false
    },
    {
      "type": "library",
      "publisher": "Onur Celebi",
      "name": "fasttext",
      "version": "0.9.2",
      "description": "fasttext Python bindings",
      "hashes": [
        {
          "alg": "MD5",
          "content": "a7b468fa4ca6474dead051536d7e1e7c"
        },
        {
          "alg": "SHA-256",
          "content": "665556f1f6dcb4fcbe25fa8ebcd4f71b18fa96a090de09d88d97a60cbd29dcb5"
        }
      ],
      "licenses": [
        {
          "license": {
            "name": "MIT"
          }
        }
      ],
      "purl": "pkg:pypi/fasttext@0.9.2",
      "modified": false
    },
    {
      "type": "library",
      "publisher": "Eric V. Smith",
      "name": "dataclasses",
      "version": "0.8",
      "description": "A backport of the dataclasses module for Python 3.6",
      "hashes": [
        {
          "alg": "MD5",
          "content": "0d6e5bb7adcc8fb0de3ef1ace1b32999"
        },
        {
          "alg": "SHA-256",
          "content": "0201d89fa866f68c8ebd9d08ee6ff50c0b255f8ec63a71c16fda7af82bb887bf"
        }
      ],
      "licenses": [
        {
          "license": {
            "name": "Apache"
          }
        }
      ],
      "purl": "pkg:pypi/dataclasses@0.8",
      "modified": false
    },
    {
      "type": "library",
      "publisher": "Omry Yadan",
      "name": "omegaconf",
      "version": "2.1.2",
      "description": "A flexible configuration library",
      "hashes": [
        {
          "alg": "MD5",
          "content": "b6f25bf78ce8097aa7d40746ff26898c"
        },
        {
          "alg": "SHA-256",
          "content": "2ae9cbbc1105991da5301b7a0ac8b960958c311239bb2dfd4e3f5e60d2a51029"
        }
      ],
      "purl": "pkg:pypi/omegaconf@2.1.2",
      "modified": false
    },
    {
      "type": "library",
      "name": "hashlib",
      "version": "20081119",
      "description": "Secure hash and message digest algorithm library",
      "hashes": [
        {
          "alg": "MD5",
          "content": "46e59db6d5cac34b3344ef0c30d0897f"
        },
        {
          "alg": "SHA-256",
          "content": "419de2fd10ae71ed9c6adcb55903f116abd1d8acc8c814dfd5f839b4d5013e38"
        }
      ],
      "purl": "pkg:pypi/hashlib@20081119",
      "modified": false
    },
    {
      "type": "library",
      "publisher": "Ben Finney",
      "name": "enum",
      "version": "0.4.7",
      "description": "Robust enumerated type support in Python.",
      "hashes": [
        {
          "alg": "MD5",
          "content": "e7d170e3f84435b77058de625c96ef58"
        },
        {
          "alg": "SHA-256",
          "content": "8c7cf3587eda51008bcc1eed99ea2c331ccd265c231dbaa95ec5258d3dc03100"
        }
      ],
      "licenses": [
        {
          "license": {
            "name": "GPL-3.0+"
          }
        }
      ],
      "purl": "pkg:pypi/enum@0.4.7",
      "modified": false
    },
    {
      "type": "library",
      "publisher": "Andrew Collette",
      "name": "h5py",
      "version": "3.6.0",
      "description": "Read and write HDF5 files from Python",
      "hashes": [
        {
          "alg": "MD5",
          "content": "5e5714151e127c50b6fc6aaec86fded6"
        },
        {
          "alg": "SHA-256",
          "content": "9fd8a14236fdd092a20c0bdf25c3aba3777718d266fabb0fdded4fcf252d1630"
        }
      ],
      "licenses": [
        {
          "license": {
            "name": "BSD"
          }
        }
      ],
      "purl": "pkg:pypi/h5py@3.6.0",
      "modified": false
    },
    {
      "type": "library",
      "name": "kenlm",
      "version": "0.0.0",
      "hashes": [
        {
          "alg": "MD5",
          "content": "cdbe6a8c742739c0e72eae72559ce220"
        },
        {
          "alg": "SHA-256",
          "content": "0c3f227fa79b15545e5fe147654714ddf41787ebf19261d9cbf1c1c3333421ad"
        }
      ],
      "purl": "pkg:pypi/kenlm@0.0.0",
      "modified": false
    },
    {
      "type": "library",
      "publisher": "Michael Siebert",
      "name": "npy_append_array",
      "version": "0.9.13",
      "description": "Create Numpy NPY files that are larger than the main memory",
      "hashes": [
        {
          "alg": "MD5",
          "content": "533c6c561ce39e8c8be56f4a9c3ef56c"
        },
        {
          "alg": "SHA-256",
          "content": "55a27f6c1d5a774db07fcba3eec9f6f5d500ad4cf9a56988a794af535c9f0d57"
        }
      ],
      "licenses": [
        {
          "license": {
            "name": "MIT"
          }
        }
      ],
      "purl": "pkg:pypi/npy-append-array@0.9.13",
      "modified": false
    },
    {
      "type": "library",
      "publisher": "Karel Vesely",
      "name": "kaldi_io",
      "version": "0.9.4",
      "description": "Glue code connecting Kaldi data and Python.",
      "hashes": [
        {
          "alg": "MD5",
          "content": "c8f1d683d4b9b480c3b8bd8c9e2ca077"
        },
        {
          "alg": "SHA-256",
          "content": "56c6fd9d19d940d392e26f2d2a013720016b1b6e2e94ebd8ba4bd59a3584d812"
        }
      ],
      "purl": "pkg:pypi/kaldi-io@0.9.4",
      "modified": false
    },
    {
      "type": "library",
      "publisher": "Gael Varoquaux",
      "name": "joblib",
      "version": "1.1.0",
      "description": "Lightweight pipelining with Python functions",
      "hashes": [
        {
          "alg": "MD5",
          "content": "18c6d42934f9e1a83d02b88952f65073"
        },
        {
          "alg": "SHA-256",
          "content": "f21f109b3c7ff9d95f8387f752d0d9c34a02aa2f7060c2135f465da0e5160ff6"
        }
      ],
      "licenses": [
        {
          "license": {
            "name": "BSD"
          }
        }
      ],
      "purl": "pkg:pypi/joblib@1.1.0",
      "modified": false
    },
    {
      "type": "library",
      "publisher": "Timothy Crosley",
      "name": "examples",
      "version": "1.0.2",
      "description": "Tests and Documentation Done by Example.",
      "hashes": [
        {
          "alg": "MD5",
          "content": "00d16ee7c341f366ea36e0afe52492b5"
        },
        {
          "alg": "SHA-256",
          "content": "372fefd15d5a17bda3b003cf26edbc2d29632bc63f29c816b55ed33dcccb3e65"
        }
      ],
      "licenses": [
        {
          "license": {
            "name": "MIT"
          }
        }
      ],
      "purl": "pkg:pypi/examples@1.0.2",
      "modified": false
    },
    {
      "type": "library",
      "publisher": "Nilton Volpato",
      "name": "progressbar",
      "version": "2.5",
      "description": "Text progress bar library for Python.",
      "hashes": [
        {
          "alg": "MD5",
          "content": "4aaf51533764d520c89b366a45ada248"
        },
        {
          "alg": "SHA-256",
          "content": "5d81cb529da2e223b53962afd6c8ca0f05c6670e40309a7219eacc36af9b6c63"
        }
      ],
      "licenses": [
        {
          "license": {
            "name": "LICENSE.txt"
          }
        }
      ],
      "purl": "pkg:pypi/progressbar@2.5",
      "modified": false
    },
    {
      "type": "library",
      "publisher": "Tomaz Solc",
      "name": "unidecode",
      "version": "1.3.4",
      "description": "ASCII transliterations of Unicode text",
      "hashes": [
        {
          "alg": "MD5",
          "content": "437c72205fb41ee2387bde63c06f8db8"
        },
        {
          "alg": "SHA-256",
          "content": "afa04efcdd818a93237574791be9b2817d7077c25a068b00f8cff7baa4e59257"
        }
      ],
      "licenses": [
        {
          "license": {
            "name": "GPL"
          }
        }
      ],
      "purl": "pkg:pypi/unidecode@1.3.4",
      "modified": false
    },
    {
      "type": "library",
      "publisher": "Paul Dyson",
      "name": "inflect",
      "version": "5.6.0",
      "description": "Correctly generate plurals, singular nouns, ordinals, indefinite articles; convert numbers to words",
      "hashes": [
        {
          "alg": "MD5",
          "content": "f1b48d1d16e27e31193168b3230116a3"
        },
        {
          "alg": "SHA-256",
          "content": "967d6db69932bac9f1977b8f2dd131a59147f4b56134cfc74a3f44e5adb65223"
        }
      ],
      "purl": "pkg:pypi/inflect@5.6.0",
      "modified": false
    },
    {
      "type": "library",
      "name": "sklearn",
      "version": "0.0",
      "description": "A set of python modules for machine learning and data mining",
      "hashes": [
        {
          "alg": "MD5",
          "content": "2f838446781e075ca99dfab2643a3199"
        },
        {
          "alg": "SHA-256",
          "content": "e23001573aa194b834122d2b9562459bf5ae494a2d59ca6b8aa22c85a44c0e31"
        }
      ],
      "purl": "pkg:pypi/sklearn@0.0",
      "modified": false
    },
    {
      "type": "library",
      "publisher": "PyTorch Core Team",
      "name": "torchvision",
      "version": "0.12.0",
      "description": "image and video datasets and models for torch deep learning",
      "hashes": [
        {
          "alg": "MD5",
          "content": "e4458886f57f6221343c4bc4121d4526"
        },
        {
          "alg": "SHA-256",
          "content": "edab05f7ba9f648c00435b384ffdbd7bde79a3b8ea893813fb50f6ccf28b1e76"
        }
      ],
      "licenses": [
        {
          "license": {
            "name": "BSD"
          }
        }
      ],
      "purl": "pkg:pypi/torchvision@0.12.0",
      "modified": false
    },
    {
      "type": "library",
      "publisher": "SkeyJIA",
      "name": "ffmpeg",
      "version": "1.4",
      "description": "ffmpeg python package url [https://github.com/jiashaokun/ffmpeg]",
      "hashes": [
        {
          "alg": "MD5",
          "content": "68c742dc35debb2ed94d7fd813bcd38b"
        },
        {
          "alg": "SHA-256",
          "content": "6931692c890ff21d39938433c2189747815dca0c60ddc7f9bb97f199dba0b5b9"
        }
      ],
      "licenses": [
        {
          "license": {
            "name": "MIT Licence"
          }
        }
      ],
      "purl": "pkg:pypi/ffmpeg@1.4",
      "modified": false
    },
    {
      "type": "library",
      "publisher": "Mike Boers",
      "name": "av",
      "version": "9.2.0",
      "description": "Pythonic bindings for FFmpeg's libraries.",
      "hashes": [
        {
          "alg": "MD5",
          "content": "c8f4fb59767cb578d4a7212120c0f2ae"
        },
        {
          "alg": "SHA-256",
          "content": "7a5dc26b9df656bed5e1bdeaf8bcc4ff4a2e009ee90b3b3024a86cf8476b2cbf"
        }
      ],
      "licenses": [
        {
          "license": {
            "name": "BSD"
          }
        }
      ],
      "purl": "pkg:pypi/av@9.2.0",
      "modified": false
    },
    {
      "type": "library",
      "publisher": "Yuxuan Dong",
      "name": "dp",
      "version": "1.00",
      "description": "Automatically transform recursive functions to dynamic programming",
      "hashes": [
        {
          "alg": "MD5",
          "content": "f3952938e8063a1fc693318dac65e9cd"
        },
        {
          "alg": "SHA-256",
          "content": "77eb01be83fe81139f1eb7871b93300b27f372b283146b7410d6195b4db19900"
        }
      ],
      "purl": "pkg:pypi/dp@1.00",
      "modified": false
    },
    {
      "type": "library",
      "publisher": "Michael Foord",
      "name": "unittest",
      "version": "0.0",
      "hashes": [
        {
          "alg": "MD5",
          "content": "2a416384f814604ed854d40f352f1191"
        },
        {
          "alg": "SHA-256",
          "content": "1b492484bea7f68abda5fcc61412e77b6a105e5842355d630f8b75f01add3555"
        }
      ],
      "purl": "pkg:pypi/unittest@0.0",
      "modified": false
    },
    {
      "type": "library",
      "publisher": "David R. MacIver and Zac Hatfield-Dodds",
      "name": "hypothesis",
      "version": "6.46.2",
      "description": "A library for property-based testing",
      "hashes": [
        {
          "alg": "MD5",
          "content": "90e30a14eb200ecf49ba80c694cb59ad"
        },
        {
          "alg": "SHA-256",
          "content": "37ca37f61939d0a92c18b5e17ab8088dccc5fc077c913d6619bbe1d233dfca1e"
        }
      ],
      "licenses": [
        {
          "license": {
            "name": "MPL-2.0"
          }
        }
      ],
      "purl": "pkg:pypi/hypothesis@6.46.2",
      "modified": false
    },
    {
      "type": "library",
      "publisher": "Soham Chatterjee",
      "name": "indicnlp",
      "version": "0.0.1",
      "description": "Resources for working on Indian Language NLP",
      "hashes": [
        {
          "alg": "MD5",
          "content": "3c905b474094600d6269768dd6135883"
        },
        {
          "alg": "SHA-256",
          "content": "1718a8f32d64b25fb47b50aa13313ef730b162315dce9f3a0f3c657f416cb13b"
        }
      ],
      "purl": "pkg:pypi/indicnlp@0.0.1",
      "modified": false
    },
    {
      "type": "library",
      "publisher": "PyThaiNLP",
      "name": "pythainlp",
      "version": "3.0.5",
      "description": "Thai Natural Language Processing library",
      "hashes": [
        {
          "alg": "MD5",
          "content": "feb7f06525d11acf3f4613bd52fe0ff7"
        },
        {
          "alg": "SHA-256",
          "content": "2a23a2047f60fac127efe3dcd9ac3a1a7de09f1b0370684dad249eafa5029576"
        }
      ],
      "licenses": [
        {
          "license": {
            "name": "Apache Software License 2.0"
          }
        }
      ],
      "purl": "pkg:pypi/pythainlp@3.0.5",
      "modified": false
    },
    {
      "type": "library",
      "publisher": "Sergey Astanin",
      "name": "tabulate",
      "version": "0.8.9",
      "description": "Pretty-print tabular data",
      "hashes": [
        {
          "alg": "MD5",
          "content": "1a2ab1fba64a6c181c0c0924601c0851"
        },
        {
          "alg": "SHA-256",
          "content": "d7c013fe7abbc5e491394e10fa845f8f32fe54f8dc60c6622c6cf482d25d47e4"
        }
      ],
      "licenses": [
        {
          "license": {
            "name": "MIT"
          }
        }
      ],
      "purl": "pkg:pypi/tabulate@0.8.9",
      "modified": false
    },
    {
      "type": "library",
      "publisher": "P Henderson and M J Henderson",
      "name": "wave",
      "version": "0.0.2",
      "description": "Whole Architecture Verification",
      "hashes": [
        {
          "alg": "MD5",
          "content": "227bafdba903889ae50ef86085f98f16"
        },
        {
          "alg": "SHA-256",
          "content": "5187f49497287d218cc83d4cd1e5299dc31485ab3ed32abbaa9e95d8f73c4095"
        }
      ],
      "purl": "pkg:pypi/wave@0.0.2",
      "modified": false
    },
    {
      "type": "library",
      "publisher": "Ivan Herman, Sergio Fernández, Carlos Tejo Alonso, Alexey Zakhlestin",
      "name": "SPARQLWrapper",
      "version": "2.0.0",
      "description": "SPARQL Endpoint interface to Python",
      "hashes": [
        {
          "alg": "MD5",
          "content": "1dc0667553289e75b02b06e2ed9138e0"
        },
        {
          "alg": "SHA-256",
          "content": "c99a7204fff676ee28e6acef327dc1ff8451c6f7217dcd8d49e8872f324a8a20"
        }
      ],
      "licenses": [
        {
          "license": {
            "name": "W3C SOFTWARE NOTICE AND LICENSE"
          }
        }
      ],
      "purl": "pkg:pypi/sparqlwrapper@2.0.0",
      "modified": false
    },
    {
      "type": "library",
      "publisher": "Amazon Web Services",
      "name": "boto3",
      "version": "1.22.8",
      "description": "The AWS SDK for Python",
      "hashes": [
        {
          "alg": "MD5",
          "content": "63228ba15eb07d3c5d680faf96acab5d"
        },
        {
          "alg": "SHA-256",
          "content": "a6925fe88cc9cd6aab35ea950cdb1678a88210ece5271bb64c1593a46ed6de6c"
        }
      ],
      "licenses": [
        {
          "license": {
            "name": "Apache License 2.0"
          }
        }
      ],
      "purl": "pkg:pypi/boto3@1.22.8",
      "modified": false
    },
    {
      "type": "library",
      "publisher": "Amazon Web Services",
      "name": "botocore",
      "version": "1.25.8",
      "description": "Low-level, data-driven core of boto 3.",
      "hashes": [
        {
          "alg": "MD5",
          "content": "a4cecefed30974f1bc5876404b7c0d6b"
        },
        {
          "alg": "SHA-256",
          "content": "5b342da3487e5669801f5589cc15e379fc9f7803a426584d08a6329575644da3"
        }
      ],
      "licenses": [
        {
          "license": {
            "name": "Apache License 2.0"
          }
        }
      ],
      "purl": "pkg:pypi/botocore@1.25.8",
      "modified": false
    },
    {
      "type": "library",
      "publisher": "Ka-Ping Yee",
      "name": "uuid",
      "version": "1.30",
      "description": "UUID object and generation functions (Python 2.3 or higher)",
      "hashes": [
        {
          "alg": "MD5",
          "content": "639b310f1fe6800e4bf8aa1dd9333117"
        },
        {
          "alg": "SHA-256",
          "content": "1f87cc004ac5120466f36c5beae48b4c48cc411968eed0eaecd3da82aa96193f"
        }
      ],
      "purl": "pkg:pypi/uuid@1.30",
      "modified": false
    },
    {
      "type": "library",
      "publisher": "Zope Foundation and Contributors",
      "name": "datetime",
      "version": "4.4",
      "description": "This package provides a DateTime data type, as known from Zope. Unless you need to communicate with Zope APIs, you're probably better off using Python's built-in datetime module.",
      "hashes": [
        {
          "alg": "MD5",
          "content": "ad1e82d858ed7c8cd2ea437b4cb695ed"
        },
        {
          "alg": "SHA-256",
          "content": "4fcca115ddb466a1104df08d5c2a2f5805d14ca317800e1bfcea8f3d69f66e57"
        }
      ],
      "licenses": [
        {
          "license": {
            "name": "ZPL 2.1"
          }
        }
      ],
      "purl": "pkg:pypi/datetime@4.4",
      "modified": false
    },
    {
      "type": "library",
      "publisher": "Jean Pimentel",
      "name": "numbers",
      "version": "0.1",
      "description": "interesting numbers!",
      "purl": "pkg:pypi/numbers@0.1",
      "modified": false
    },
    {
      "type": "library",
      "publisher": "Ilan Schnell",
      "name": "bitarray",
      "version": "2.5.0",
      "description": "efficient arrays of booleans -- C extension",
      "hashes": [
        {
          "alg": "MD5",
          "content": "88e870b21252483ed8960421b60a14f0"
        },
        {
          "alg": "SHA-256",
          "content": "13522064ff58b44df34980ff6d911c7185380e9c91d58c5ac0a7131508df00b2"
        }
      ],
      "licenses": [
        {
          "license": {
            "name": "PSF"
          }
        }
      ],
      "purl": "pkg:pypi/bitarray@2.5.0",
      "modified": false
    },
    {
      "type": "library",
      "publisher": "Stephan Klein",
      "name": "signal",
      "version": "0.1",
      "description": "Send SMS messages via ADB and your Android phone. Comes with a CLI.",
      "licenses": [
        {
          "license": {
            "name": "MIT"
          }
        }
      ],
      "purl": "pkg:pypi/signal@0.1",
      "modified": false
    },
    {
      "type": "library",
      "name": "aml",
      "version": "0.0.0",
      "hashes": [
        {
          "alg": "MD5",
          "content": "6dae916658b18b9814e8fc7ad6a7ab32"
        },
        {
          "alg": "SHA-256",
          "content": "331fabd111b5e1b8e2084a1aeb4444e2a27a7d70e488cccc8f38025b86e6a041"
        }
      ],
      "purl": "pkg:pypi/aml@0.0.0",
      "modified": false
    },
    {
      "type": "library",
      "publisher": "Thomas Heller",
      "name": "ctypes",
      "version": "1.0.2",
      "description": "create and manipulate C data types in Python, call functions in shared libraries",
      "licenses": [
        {
          "license": {
            "name": "MIT License"
          }
        }
      ],
      "purl": "pkg:pypi/ctypes@1.0.2",
      "modified": false
    },
    {
      "type": "library",
      "publisher": "Bernard Yue",
      "name": "hanziconv",
      "version": "0.3.2",
      "description": "Hanzi Converter for Traditional and Simplified Chinese",
      "hashes": [
        {
          "alg": "MD5",
          "content": "7520ac493f4e1d16e6192e715330d3be"
        },
        {
          "alg": "SHA-256",
          "content": "208866da6ae305bca19eb98702b65c93bb3a803b496e4287ca740d68892fc4c4"
        }
      ],
      "licenses": [
        {
          "license": {
            "name": "Apache 2.0"
          }
        }
      ],
      "purl": "pkg:pypi/hanziconv@0.3.2",
      "modified": false
    },
    {
      "type": "library",
      "publisher": "Kyubyong Park",
      "name": "g2pc",
      "version": "0.9.9.3",
      "description": "g2pC: A Context-aware g2p module for Chinese",
      "hashes": [
        {
          "alg": "MD5",
          "content": "dd22d3f0f7dac9919bcbf40b7cd6556a"
        },
        {
          "alg": "SHA-256",
          "content": "395f9237b4c3d0cace7fca63f9b3693e5071d7e894cf7e0ea2a38d6f8017b30a"
        }
      ],
      "licenses": [
        {
          "license": {
            "name": "Apache License 2.0"
          }
        }
      ],
      "purl": "pkg:pypi/g2pc@0.9.9.3",
      "modified": false
    },
    {
      "type": "library",
      "publisher": "Holger Krekel, Bruno Oliveira, Ronny Pfannschmidt, Floris Bruynooghe, Brianna Laugher, Florian Bruhin and others",
      "name": "pytest",
      "version": "7.1.2",
      "description": "pytest: simple powerful testing with Python",
      "hashes": [
        {
          "alg": "MD5",
          "content": "6f5a9e12007a2529cb00d3b5a8af33a1"
        },
        {
          "alg": "SHA-256",
          "content": "13d0e3ccfc2b6e26be000cb6568c832ba67ba32e719443bfe725814d3c42433c"
        }
      ],
      "licenses": [
        {
          "license": {
            "name": "MIT"
          }
        }
      ],
      "purl": "pkg:pypi/pytest@7.1.2",
      "modified": false
    },
    {
      "type": "library",
      "bom-ref": "pkg:pypi/sphinx<2.0",
      "group": "",
      "name": "sphinx<2.0",
      "version": "0.0.0",
      "description": "",
      "purl": "pkg:pypi/sphinx<2.0"
    },
    {
      "type": "library",
      "bom-ref": "pkg:pypi/sphinx-argparse@0.3.1",
      "group": "",
      "name": "sphinx-argparse",
      "version": "0.3.1",
      "description": "A sphinx extension that automatically documents argparse commands and options",
      "hashes": [
        {
          "alg": "SHA-256",
          "content": "295ccae425874630b6a3b47254854027345d786bab2c3ffd5e9a0407bc6856b2"
        }
      ],
      "licenses": [
        {
          "license": {
            "id": "MIT",
            "url": "https://opensource.org/licenses/MIT"
          }
        }
      ],
      "purl": "pkg:pypi/sphinx-argparse@0.3.1"
    }
  ]
}
