{
  "bomFormat": "CycloneDX",
  "specVersion": "1.3",
  "version": 1,
  "components": [
    {
      "type": "library",
      "publisher": "snare",
      "name": "ee",
      "version": "0.4",
      "description": "A wrapper for dd",
      "hashes": [
        {
          "alg": "MD5",
          "content": "b3a32b68c724cc3c1f56e63daa0376f3"
        },
        {
          "alg": "SHA-256",
          "content": "8547dff1374f225fb5f345efaeccea532264061804f6373fb2a3c270a519c066"
        }
      ],
      "licenses": [
        {
          "license": {
            "name": "Buy snare a beer"
          }
        }
      ],
      "purl": "pkg:pypi/ee@0.4",
      "modified": false
    },
    {
      "type": "library",
      "name": "hashlib",
      "version": "20081119",
      "description": "Secure hash and message digest algorithm library",
      "hashes": [
        {
          "alg": "MD5",
          "content": "46e59db6d5cac34b3344ef0c30d0897f"
        },
        {
          "alg": "SHA-256",
          "content": "419de2fd10ae71ed9c6adcb55903f116abd1d8acc8c814dfd5f839b4d5013e38"
        }
      ],
      "purl": "pkg:pypi/hashlib@20081119",
      "modified": false
    },
    {
      "type": "library",
      "publisher": "Zope Foundation and Contributors",
      "name": "datetime",
      "version": "4.4",
      "description": "This package provides a DateTime data type, as known from Zope. Unless you need to communicate with Zope APIs, you're probably better off using Python's built-in datetime module.",
      "hashes": [
        {
          "alg": "MD5",
          "content": "ad1e82d858ed7c8cd2ea437b4cb695ed"
        },
        {
          "alg": "SHA-256",
          "content": "4fcca115ddb466a1104df08d5c2a2f5805d14ca317800e1bfcea8f3d69f66e57"
        }
      ],
      "licenses": [
        {
          "license": {
            "name": "ZPL 2.1"
          }
        }
      ],
      "purl": "pkg:pypi/datetime@4.4",
      "modified": false
    }
  ],
  "metadata": {
    "tools": [
      {
        "vendor": "Fortress Information Security",
        "name": "Github Extractor",
        "version": "1.15.1"
      }
    ],
    "authors": [
      {
        "name": "Fortress Information Security",
        "email": "sales@fortressinfosec.com",
        "phone": "1-407-573-6800"
      }
    ],
    "timestamp": "2022-06-01T21:00:00Z",
    "component": {
      "type": "application",
      "name": "rgee",
      "version": "v.1.1.3",
      "group": "r-spatial",
      "externalReferences": [
        {
          "url": "https://github.com/r-spatial/rgee.git",
          "type": "distribution"
        },
        {
          "type": "website",
          "url": "https://r-spatial.github.io/rgee/",
          "comment": "As set via `homepage` in Github API"
        }
      ]
    }
  }
}
