{
  "bomFormat": "CycloneDX",
  "specVersion": "1.3",
  "version": 1,
  "components": [
    {
      "type": "library",
      "publisher": "Kenneth Reitz",
      "name": "requests",
      "version": "2.27.1",
      "description": "Python HTTP for Humans.",
      "hashes": [
        {
          "alg": "MD5",
          "content": "435db0f122c83decd27524f690e89650"
        },
        {
          "alg": "SHA-256",
          "content": "f22fa1e554c9ddfd16e6e41ac79759e17be9e492b3587efa038054674760e72d"
        }
      ],
      "licenses": [
        {
          "license": {
            "name": "Apache 2.0"
          }
        }
      ],
      "purl": "pkg:pypi/requests@2.27.1",
      "modified": false
    },
    {
      "type": "library",
      "publisher": "Florian Mounier",
      "name": "cutter",
      "version": "0.5.0",
      "description": "Python list cutter tool",
      "hashes": [
        {
          "alg": "MD5",
          "content": "ef548e361386a2ea80c66cb4f35e3a6a"
        },
        {
          "alg": "SHA-256",
          "content": "c386e12283f5293fac0e7919729655a0edf9a85ce12fd4ff6105d2a283461f2a"
        }
      ],
      "purl": "pkg:pypi/cutter@0.5.0",
      "modified": false
    },
    {
      "type": "library",
      "publisher": "Qt for Python Team",
      "name": "PySide2",
      "version": "5.15.2.1",
      "description": "Python bindings for the Qt cross-platform application and UI framework",
      "hashes": [
        {
          "alg": "MD5",
          "content": "d30c9ae54a1f0796ddc569e6e4614c4e"
        },
        {
          "alg": "SHA-256",
          "content": "af6b263fe63ba6dea7eaebae80aa7b291491fe66f4f0057c0aafe780cc83da9d"
        }
      ],
      "licenses": [
        {
          "license": {
            "name": "LGPL"
          }
        }
      ],
      "purl": "pkg:pypi/pyside2@5.15.2.1",
      "modified": false
    },
    {
      "type": "library",
      "publisher": "Brett Cannon",
      "name": "importlib",
      "version": "1.0.4",
      "description": "Backport of importlib.import_module() from Python 2.7",
      "hashes": [
        {
          "alg": "MD5",
          "content": "5f9a0803bca7ba95f670d1464984296f"
        },
        {
          "alg": "SHA-256",
          "content": "b6ee7066fea66e35f8d0acee24d98006de1a0a8a94a8ce6efe73a9a23c8d9826"
        }
      ],
      "purl": "pkg:pypi/importlib@1.0.4",
      "modified": false
    }
  ],
  "metadata": {
    "tools": [
      {
        "vendor": "Fortress Information Security",
        "name": "Github Extractor",
        "version": "1.15.1"
      }
    ],
    "authors": [
      {
        "name": "Fortress Information Security",
        "email": "sales@fortressinfosec.com",
        "phone": "1-407-573-6800"
      }
    ],
    "timestamp": "2022-06-01T21:00:00Z",
    "component": {
      "type": "application",
      "name": "cutter",
      "version": "v2.0.5",
      "group": "rizinorg",
      "externalReferences": [
        {
          "url": "https://github.com/rizinorg/cutter.git",
          "type": "distribution"
        },
        {
          "type": "website",
          "url": "https://cutter.re",
          "comment": "As set via `homepage` in Github API"
        }
      ]
    }
  }
}
