{
  "bomFormat": "CycloneDX",
  "specVersion": "1.3",
  "serialNumber": "urn:uuid:36a32d56-b9e1-4788-acbe-cbe07a05760b",
  "version": 1,
  "metadata": {
    "timestamp": "2022-05-31T17:19:15Z",
    "tools": [
      {
        "vendor": "AppThreat",
        "name": "cdxgen",
        "version": "3.0.10"
      },
      {
        "vendor": "Fortress Information Security",
        "name": "Github Extractor",
        "version": "1.15.1"
      }
    ],
    "authors": [
      {
        "name": "Team AppThreat",
        "email": "cloud@appthreat.com"
      },
      {
        "name": "Fortress Information Security",
        "email": "sales@fortressinfosec.com",
        "phone": "1-407-573-6800"
      }
    ],
    "component": {
      "type": "application",
      "name": "bundler",
      "version": "v2.1.4",
      "group": "rubygems",
      "externalReferences": [
        {
          "url": "https://github.com/rubygems/bundler.git",
          "type": "distribution"
        },
        {
          "type": "website",
          "url": "https://bundler.io",
          "comment": "As set via `homepage` in Github API"
        }
      ]
    }
  },
  "components": [
    {
      "type": "library",
      "bom-ref": "pkg:rubygems/demo@1.0",
      "group": "",
      "name": "demo",
      "version": "1.0",
      "description": "",
      "purl": "pkg:rubygems/demo@1.0"
    },
    {
      "type": "library",
      "bom-ref": "pkg:rubygems/remote:@https://rubygems.org/",
      "group": "",
      "name": "remote:",
      "version": "https://rubygems.org/",
      "description": "",
      "purl": "pkg:rubygems/remote:@https://rubygems.org/"
    },
    {
      "type": "library",
      "bom-ref": "pkg:rubygems/jruby-jars@9.2.9.0",
      "group": "",
      "name": "jruby-jars",
      "version": "9.2.9.0",
      "description": "",
      "purl": "pkg:rubygems/jruby-jars@9.2.9.0"
    },
    {
      "type": "library",
      "bom-ref": "pkg:rubygems/jruby-rack@1.1.21",
      "group": "",
      "name": "jruby-rack",
      "version": "1.1.21",
      "description": "",
      "purl": "pkg:rubygems/jruby-rack@1.1.21"
    },
    {
      "type": "library",
      "bom-ref": "pkg:rubygems/rake@13.0.1",
      "group": "",
      "name": "rake",
      "version": "13.0.1",
      "description": "",
      "purl": "pkg:rubygems/rake@13.0.1"
    },
    {
      "type": "library",
      "bom-ref": "pkg:rubygems/rubyzip@1.3.0",
      "group": "",
      "name": "rubyzip",
      "version": "1.3.0",
      "description": "",
      "purl": "pkg:rubygems/rubyzip@1.3.0"
    },
    {
      "type": "library",
      "bom-ref": "pkg:rubygems/warbler@2.0.5",
      "group": "",
      "name": "warbler",
      "version": "2.0.5",
      "description": "",
      "purl": "pkg:rubygems/warbler@2.0.5"
    }
  ],
  "externalReferences": [
    {
      "url": "/project/src",
      "type": "other",
      "comment": "Base path"
    },
    {
      "url": "/project/src/spec/realworld/fixtures/warbler/Gemfile.lock",
      "type": "other",
      "comment": "Package file"
    }
  ]
}
