{
  "bomFormat": "CycloneDX",
  "specVersion": "1.3",
  "serialNumber": "urn:uuid:cf660363-3bfe-4611-a500-98997d4c1146",
  "version": 1,
  "metadata": {
    "timestamp": "2022-06-06T20:05:56Z",
    "tools": [
      {
        "vendor": "AppThreat",
        "name": "cdxgen",
        "version": "3.0.10"
      },
      {
        "vendor": "Fortress Information Security",
        "name": "Github Extractor",
        "version": "1.15.1"
      }
    ],
    "authors": [
      {
        "name": "Team AppThreat",
        "email": "cloud@appthreat.com"
      },
      {
        "name": "Fortress Information Security",
        "email": "sales@fortressinfosec.com",
        "phone": "1-407-573-6800"
      }
    ],
    "component": {
      "type": "application",
      "name": "futures-rs",
      "version": "0.3.21",
      "group": "rust-lang",
      "externalReferences": [
        {
          "url": "https://github.com/rust-lang/futures-rs.git",
          "type": "distribution"
        },
        {
          "type": "website",
          "url": "https://rust-lang.github.io/futures-rs/",
          "comment": "As set via `homepage` in Github API"
        }
      ]
    }
  },
  "components": [
    {
      "type": "library",
      "bom-ref": "pkg:crates/futures-example-functional@0.1.0",
      "group": "",
      "name": "futures-example-functional",
      "version": "0.1.0",
      "description": "",
      "purl": "pkg:crates/futures-example-functional@0.1.0"
    },
    {
      "type": "library",
      "bom-ref": "pkg:crates/futures-example-imperative@0.1.0",
      "group": "",
      "name": "futures-example-imperative",
      "version": "0.1.0",
      "description": "",
      "purl": "pkg:crates/futures-example-imperative@0.1.0"
    },
    {
      "type": "library",
      "bom-ref": "pkg:crates/futures-channel@0.4.0-alpha.0",
      "group": "",
      "name": "futures-channel",
      "version": "0.4.0-alpha.0",
      "description": "",
      "purl": "pkg:crates/futures-channel@0.4.0-alpha.0"
    },
    {
      "type": "library",
      "bom-ref": "pkg:crates/all-features@true",
      "group": "",
      "name": "all-features",
      "version": "true",
      "description": "",
      "purl": "pkg:crates/all-features@true"
    },
    {
      "type": "library",
      "bom-ref": "pkg:crates/rustdoc-args@[--cfg, docsrs]",
      "group": "",
      "name": "rustdoc-args",
      "version": "[--cfg, docsrs]",
      "description": "",
      "purl": "pkg:crates/rustdoc-args@[--cfg, docsrs]"
    },
    {
      "type": "library",
      "bom-ref": "pkg:crates/futures-core@1.0.0-alpha.0",
      "group": "",
      "name": "futures-core",
      "version": "1.0.0-alpha.0",
      "description": "",
      "purl": "pkg:crates/futures-core@1.0.0-alpha.0"
    },
    {
      "type": "library",
      "bom-ref": "pkg:crates/futures-executor@0.4.0-alpha.0",
      "group": "",
      "name": "futures-executor",
      "version": "0.4.0-alpha.0",
      "description": "",
      "purl": "pkg:crates/futures-executor@0.4.0-alpha.0"
    },
    {
      "type": "library",
      "bom-ref": "pkg:crates/num_cpus@1.8.0",
      "group": "",
      "name": "num_cpus",
      "version": "1.8.0",
      "description": "",
      "purl": "pkg:crates/num_cpus@1.8.0"
    },
    {
      "type": "library",
      "bom-ref": "pkg:crates/futures-io@0.3.21",
      "group": "",
      "name": "futures-io",
      "version": "0.3.21",
      "description": "",
      "purl": "pkg:crates/futures-io@0.3.21"
    },
    {
      "type": "library",
      "bom-ref": "pkg:crates/futures-macro@0.4.0-alpha.0",
      "group": "",
      "name": "futures-macro",
      "version": "0.4.0-alpha.0",
      "description": "",
      "purl": "pkg:crates/futures-macro@0.4.0-alpha.0"
    },
    {
      "type": "library",
      "bom-ref": "pkg:crates/proc-macro2@1.0",
      "group": "",
      "name": "proc-macro2",
      "version": "1.0",
      "description": "",
      "purl": "pkg:crates/proc-macro2@1.0"
    },
    {
      "type": "library",
      "bom-ref": "pkg:crates/quote@1.0",
      "group": "",
      "name": "quote",
      "version": "1.0",
      "description": "",
      "purl": "pkg:crates/quote@1.0"
    },
    {
      "type": "library",
      "bom-ref": "pkg:crates/syn@1.0.56",
      "group": "",
      "name": "syn",
      "version": "1.0.56",
      "description": "",
      "purl": "pkg:crates/syn@1.0.56"
    },
    {
      "type": "library",
      "bom-ref": "pkg:crates/futures-sink@0.4.0-alpha.0",
      "group": "",
      "name": "futures-sink",
      "version": "0.4.0-alpha.0",
      "description": "",
      "purl": "pkg:crates/futures-sink@0.4.0-alpha.0"
    },
    {
      "type": "library",
      "bom-ref": "pkg:crates/futures-task@0.4.0-alpha.0",
      "group": "",
      "name": "futures-task",
      "version": "0.4.0-alpha.0",
      "description": "",
      "purl": "pkg:crates/futures-task@0.4.0-alpha.0"
    },
    {
      "type": "library",
      "bom-ref": "pkg:crates/futures-test@0.4.0-alpha.0",
      "group": "",
      "name": "futures-test",
      "version": "0.4.0-alpha.0",
      "description": "",
      "purl": "pkg:crates/futures-test@0.4.0-alpha.0"
    },
    {
      "type": "library",
      "bom-ref": "pkg:crates/futures-core@=1.0.0-alpha.0",
      "group": "",
      "name": "futures-core",
      "version": "=1.0.0-alpha.0",
      "description": "",
      "purl": "pkg:crates/futures-core@=1.0.0-alpha.0"
    },
    {
      "type": "library",
      "bom-ref": "pkg:crates/futures-task@=0.4.0-alpha.0",
      "group": "",
      "name": "futures-task",
      "version": "=0.4.0-alpha.0",
      "description": "",
      "purl": "pkg:crates/futures-task@=0.4.0-alpha.0"
    },
    {
      "type": "library",
      "bom-ref": "pkg:crates/futures-util@=0.4.0-alpha.0",
      "group": "",
      "name": "futures-util",
      "version": "=0.4.0-alpha.0",
      "description": "",
      "purl": "pkg:crates/futures-util@=0.4.0-alpha.0"
    },
    {
      "type": "library",
      "bom-ref": "pkg:crates/futures-executor@=0.4.0-alpha.0",
      "group": "",
      "name": "futures-executor",
      "version": "=0.4.0-alpha.0",
      "description": "",
      "purl": "pkg:crates/futures-executor@=0.4.0-alpha.0"
    },
    {
      "type": "library",
      "bom-ref": "pkg:crates/futures-sink@=0.4.0-alpha.0",
      "group": "",
      "name": "futures-sink",
      "version": "=0.4.0-alpha.0",
      "description": "",
      "purl": "pkg:crates/futures-sink@=0.4.0-alpha.0"
    },
    {
      "type": "library",
      "bom-ref": "pkg:crates/futures-macro@=0.4.0-alpha.0",
      "group": "",
      "name": "futures-macro",
      "version": "=0.4.0-alpha.0",
      "description": "",
      "purl": "pkg:crates/futures-macro@=0.4.0-alpha.0"
    },
    {
      "type": "library",
      "bom-ref": "pkg:crates/pin-utils@0.1.0",
      "group": "",
      "name": "pin-utils",
      "version": "0.1.0",
      "description": "",
      "purl": "pkg:crates/pin-utils@0.1.0"
    },
    {
      "type": "library",
      "bom-ref": "pkg:crates/pin-project@1.0.1",
      "group": "",
      "name": "pin-project",
      "version": "1.0.1",
      "description": "",
      "purl": "pkg:crates/pin-project@1.0.1"
    },
    {
      "type": "library",
      "bom-ref": "pkg:crates/default@[std]",
      "group": "",
      "name": "default",
      "version": "[std]",
      "description": "",
      "purl": "pkg:crates/default@[std]"
    },
    {
      "type": "library",
      "bom-ref": "pkg:crates/std@[futures-core/std, futures-task/std, futures-io/std, futures-util/std, futures-util/io, futures-executor/std]",
      "group": "",
      "name": "std",
      "version": "[futures-core/std, futures-task/std, futures-io/std, futures-util/std, futures-util/io, futures-executor/std]",
      "description": "",
      "purl": "pkg:crates/std@[futures-core/std, futures-task/std, futures-io/std, futures-util/std, futures-util/io, futures-executor/std]"
    },
    {
      "type": "library",
      "bom-ref": "pkg:crates/futures-util@0.4.0-alpha.0",
      "group": "",
      "name": "futures-util",
      "version": "0.4.0-alpha.0",
      "description": "",
      "purl": "pkg:crates/futures-util@0.4.0-alpha.0"
    },
    {
      "type": "library",
      "bom-ref": "pkg:crates/slab@0.4.2",
      "group": "",
      "name": "slab",
      "version": "0.4.2",
      "description": "",
      "purl": "pkg:crates/slab@0.4.2"
    },
    {
      "type": "library",
      "bom-ref": "pkg:crates/memchr@2.2",
      "group": "",
      "name": "memchr",
      "version": "2.2",
      "description": "",
      "purl": "pkg:crates/memchr@2.2"
    },
    {
      "type": "library",
      "bom-ref": "pkg:crates/futures_01@0.1.25",
      "group": "",
      "name": "futures_01",
      "version": "0.1.25",
      "description": "",
      "purl": "pkg:crates/futures_01@0.1.25"
    },
    {
      "type": "library",
      "bom-ref": "pkg:crates/tokio-io@0.1.9",
      "group": "",
      "name": "tokio-io",
      "version": "0.1.9",
      "description": "",
      "purl": "pkg:crates/tokio-io@0.1.9"
    },
    {
      "type": "library",
      "bom-ref": "pkg:crates/pin-project-lite@0.2.6",
      "group": "",
      "name": "pin-project-lite",
      "version": "0.2.6",
      "description": "",
      "purl": "pkg:crates/pin-project-lite@0.2.6"
    },
    {
      "type": "library",
      "bom-ref": "pkg:crates/tokio@0.1.11",
      "group": "",
      "name": "tokio",
      "version": "0.1.11",
      "description": "",
      "purl": "pkg:crates/tokio@0.1.11"
    },
    {
      "type": "library",
      "bom-ref": "pkg:crates/futures@0.4.0-alpha.0",
      "group": "",
      "name": "futures",
      "version": "0.4.0-alpha.0",
      "description": "",
      "purl": "pkg:crates/futures@0.4.0-alpha.0"
    },
    {
      "type": "library",
      "bom-ref": "pkg:crates/assert_matches@1.3.0",
      "group": "",
      "name": "assert_matches",
      "version": "1.3.0",
      "description": "",
      "purl": "pkg:crates/assert_matches@1.3.0"
    },
    {
      "type": "library",
      "bom-ref": "pkg:crates/static_assertions@1",
      "group": "",
      "name": "static_assertions",
      "version": "1",
      "description": "",
      "purl": "pkg:crates/static_assertions@1"
    },
    {
      "type": "library",
      "bom-ref": "pkg:crates/default@[std, async-await, executor]",
      "group": "",
      "name": "default",
      "version": "[std, async-await, executor]",
      "description": "",
      "purl": "pkg:crates/default@[std, async-await, executor]"
    },
    {
      "type": "library",
      "bom-ref": "pkg:crates/std@[alloc, futures-core/std, futures-task/std, futures-io/std, futures-sink/std, futures-util/std, futures-util/io, futures-util/channel]",
      "group": "",
      "name": "std",
      "version": "[alloc, futures-core/std, futures-task/std, futures-io/std, futures-sink/std, futures-util/std, futures-util/io, futures-util/channel]",
      "description": "",
      "purl": "pkg:crates/std@[alloc, futures-core/std, futures-task/std, futures-io/std, futures-sink/std, futures-util/std, futures-util/io, futures-util/channel]"
    },
    {
      "type": "library",
      "bom-ref": "pkg:crates/alloc@[futures-core/alloc, futures-task/alloc, futures-sink/alloc, futures-channel/alloc, futures-util/alloc]",
      "group": "",
      "name": "alloc",
      "version": "[futures-core/alloc, futures-task/alloc, futures-sink/alloc, futures-channel/alloc, futures-util/alloc]",
      "description": "",
      "purl": "pkg:crates/alloc@[futures-core/alloc, futures-task/alloc, futures-sink/alloc, futures-channel/alloc, futures-util/alloc]"
    },
    {
      "type": "library",
      "bom-ref": "pkg:crates/async-await@[futures-util/async-await, futures-util/async-await-macro]",
      "group": "",
      "name": "async-await",
      "version": "[futures-util/async-await, futures-util/async-await-macro]",
      "description": "",
      "purl": "pkg:crates/async-await@[futures-util/async-await, futures-util/async-await-macro]"
    },
    {
      "type": "library",
      "bom-ref": "pkg:crates/compat@[std, futures-util/compat]",
      "group": "",
      "name": "compat",
      "version": "[std, futures-util/compat]",
      "description": "",
      "purl": "pkg:crates/compat@[std, futures-util/compat]"
    },
    {
      "type": "library",
      "bom-ref": "pkg:crates/io-compat@[compat, futures-util/io-compat]",
      "group": "",
      "name": "io-compat",
      "version": "[compat, futures-util/io-compat]",
      "description": "",
      "purl": "pkg:crates/io-compat@[compat, futures-util/io-compat]"
    },
    {
      "type": "library",
      "bom-ref": "pkg:crates/executor@[std, futures-executor/std]",
      "group": "",
      "name": "executor",
      "version": "[std, futures-executor/std]",
      "description": "",
      "purl": "pkg:crates/executor@[std, futures-executor/std]"
    },
    {
      "type": "library",
      "bom-ref": "pkg:crates/thread-pool@[executor, futures-executor/thread-pool]",
      "group": "",
      "name": "thread-pool",
      "version": "[executor, futures-executor/thread-pool]",
      "description": "",
      "purl": "pkg:crates/thread-pool@[executor, futures-executor/thread-pool]"
    },
    {
      "type": "library",
      "bom-ref": "pkg:crates/unstable@[futures-io/unstable, futures-util/unstable]",
      "group": "",
      "name": "unstable",
      "version": "[futures-io/unstable, futures-util/unstable]",
      "description": "",
      "purl": "pkg:crates/unstable@[futures-io/unstable, futures-util/unstable]"
    },
    {
      "type": "library",
      "bom-ref": "pkg:crates/bilock@[futures-util/bilock]",
      "group": "",
      "name": "bilock",
      "version": "[futures-util/bilock]",
      "description": "",
      "purl": "pkg:crates/bilock@[futures-util/bilock]"
    },
    {
      "type": "library",
      "bom-ref": "pkg:crates/write-all-vectored@[futures-util/write-all-vectored]",
      "group": "",
      "name": "write-all-vectored",
      "version": "[futures-util/write-all-vectored]",
      "description": "",
      "purl": "pkg:crates/write-all-vectored@[futures-util/write-all-vectored]"
    },
    {
      "type": "library",
      "bom-ref": "pkg:crates/features@[std, async-await, compat, io-compat, executor, thread-pool]",
      "group": "",
      "name": "features",
      "version": "[std, async-await, compat, io-compat, executor, thread-pool]",
      "description": "",
      "purl": "pkg:crates/features@[std, async-await, compat, io-compat, executor, thread-pool]"
    },
    {
      "type": "library",
      "bom-ref": "pkg:crates/macro-reexport@0.1.0",
      "group": "",
      "name": "macro-reexport",
      "version": "0.1.0",
      "description": "",
      "purl": "pkg:crates/macro-reexport@0.1.0"
    },
    {
      "type": "library",
      "bom-ref": "pkg:crates/macro-tests@0.1.0",
      "group": "",
      "name": "macro-tests",
      "version": "0.1.0",
      "description": "",
      "purl": "pkg:crates/macro-tests@0.1.0"
    },
    {
      "type": "library",
      "bom-ref": "pkg:crates/no-std@0.1.0",
      "group": "",
      "name": "no-std",
      "version": "0.1.0",
      "description": "",
      "purl": "pkg:crates/no-std@0.1.0"
    }
  ],
  "externalReferences": [
    {
      "url": "/project/src",
      "type": "other",
      "comment": "Base path"
    },
    {
      "url": "/project/src/Cargo.toml, /project/src/examples/functional/Cargo.toml, /project/src/examples/imperative/Cargo.toml, /project/src/futures-channel/Cargo.toml, /project/src/futures-core/Cargo.toml, /project/src/futures-executor/Cargo.toml, /project/src/futures-io/Cargo.toml, /project/src/futures-macro/Cargo.toml, /project/src/futures-sink/Cargo.toml, /project/src/futures-task/Cargo.toml, /project/src/futures-test/Cargo.toml, /project/src/futures-util/Cargo.toml, /project/src/futures/Cargo.toml, /project/src/futures/tests/macro-reexport/Cargo.toml, /project/src/futures/tests/macro-tests/Cargo.toml, /project/src/futures/tests/no-std/Cargo.toml",
      "type": "other",
      "comment": "Package file"
    }
  ]
}
