{
  "bomFormat": "CycloneDX",
  "specVersion": "1.3",
  "serialNumber": "urn:uuid:0525fd6d-2547-4891-a26e-956beed6c2aa",
  "version": 1,
  "metadata": {
    "timestamp": "2022-06-06T19:07:43Z",
    "tools": [
      {
        "vendor": "AppThreat",
        "name": "cdxgen",
        "version": "3.0.10"
      },
      {
        "vendor": "Fortress Information Security",
        "name": "Github Extractor",
        "version": "1.15.1"
      }
    ],
    "authors": [
      {
        "name": "Team AppThreat",
        "email": "cloud@appthreat.com"
      },
      {
        "name": "Fortress Information Security",
        "email": "sales@fortressinfosec.com",
        "phone": "1-407-573-6800"
      }
    ],
    "component": {
      "type": "application",
      "name": "rust-rocksdb",
      "version": "v0.18.0",
      "group": "rust-rocksdb",
      "externalReferences": [
        {
          "url": "https://github.com/rust-rocksdb/rust-rocksdb.git",
          "type": "distribution"
        },
        {
          "type": "website",
          "url": "null",
          "comment": "As set via `homepage` in Github API"
        }
      ]
    }
  },
  "components": [
    {
      "type": "library",
      "bom-ref": "pkg:crates/rocksdb@0.18.0",
      "group": "",
      "name": "rocksdb",
      "version": "0.18.0",
      "description": "",
      "purl": "pkg:crates/rocksdb@0.18.0"
    },
    {
      "type": "library",
      "bom-ref": "pkg:crates/libc@0.2",
      "group": "",
      "name": "libc",
      "version": "0.2",
      "description": "",
      "purl": "pkg:crates/libc@0.2"
    },
    {
      "type": "library",
      "bom-ref": "pkg:crates/serde@1",
      "group": "",
      "name": "serde",
      "version": "1",
      "description": "",
      "purl": "pkg:crates/serde@1"
    },
    {
      "type": "library",
      "bom-ref": "pkg:crates/trybuild@1.0",
      "group": "",
      "name": "trybuild",
      "version": "1.0",
      "description": "",
      "purl": "pkg:crates/trybuild@1.0"
    },
    {
      "type": "library",
      "bom-ref": "pkg:crates/tempfile@3.1",
      "group": "",
      "name": "tempfile",
      "version": "3.1",
      "description": "",
      "purl": "pkg:crates/tempfile@3.1"
    },
    {
      "type": "library",
      "bom-ref": "pkg:crates/pretty_assertions@1.0",
      "group": "",
      "name": "pretty_assertions",
      "version": "1.0",
      "description": "",
      "purl": "pkg:crates/pretty_assertions@1.0"
    },
    {
      "type": "library",
      "bom-ref": "pkg:crates/bincode@1.3",
      "group": "",
      "name": "bincode",
      "version": "1.3",
      "description": "",
      "purl": "pkg:crates/bincode@1.3"
    },
    {
      "type": "library",
      "bom-ref": "pkg:crates/librocksdb-sys@0.7.0+7.1.2",
      "group": "",
      "name": "librocksdb-sys",
      "version": "0.7.0+7.1.2",
      "description": "",
      "purl": "pkg:crates/librocksdb-sys@0.7.0+7.1.2"
    },
    {
      "type": "library",
      "bom-ref": "pkg:crates/tikv-jemalloc-sys@0.4",
      "group": "",
      "name": "tikv-jemalloc-sys",
      "version": "0.4",
      "description": "",
      "purl": "pkg:crates/tikv-jemalloc-sys@0.4"
    },
    {
      "type": "library",
      "bom-ref": "pkg:crates/zstd-sys@1.6",
      "group": "",
      "name": "zstd-sys",
      "version": "1.6",
      "description": "",
      "purl": "pkg:crates/zstd-sys@1.6"
    },
    {
      "type": "library",
      "bom-ref": "pkg:crates/libz-sys@1.1",
      "group": "",
      "name": "libz-sys",
      "version": "1.1",
      "description": "",
      "purl": "pkg:crates/libz-sys@1.1"
    },
    {
      "type": "library",
      "bom-ref": "pkg:crates/bzip2-sys@0.1",
      "group": "",
      "name": "bzip2-sys",
      "version": "0.1",
      "description": "",
      "purl": "pkg:crates/bzip2-sys@0.1"
    },
    {
      "type": "library",
      "bom-ref": "pkg:crates/const-cstr@0.3",
      "group": "",
      "name": "const-cstr",
      "version": "0.3",
      "description": "",
      "purl": "pkg:crates/const-cstr@0.3"
    },
    {
      "type": "library",
      "bom-ref": "pkg:crates/uuid@1.0",
      "group": "",
      "name": "uuid",
      "version": "1.0",
      "description": "",
      "purl": "pkg:crates/uuid@1.0"
    }
  ],
  "externalReferences": [
    {
      "url": "/project/src",
      "type": "other",
      "comment": "Base path"
    },
    {
      "url": "/project/src/Cargo.toml, /project/src/librocksdb-sys/Cargo.toml",
      "type": "other",
      "comment": "Package file"
    }
  ]
}
