{
  "bomFormat": "CycloneDX",
  "specVersion": "1.3",
  "version": 1,
  "metadata": {
    "tools": [
      {
        "vendor": "AppThreat",
        "name": "cdxgen",
        "version": "3.0.10"
      },
      {
        "vendor": "Fortress Information Security",
        "name": "Github Extractor",
        "version": "1.15.1"
      }
    ],
    "authors": [
      {
        "name": "Fortress Information Security",
        "email": "sales@fortressinfosec.com",
        "phone": "1-407-573-6800"
      }
    ],
    "timestamp": "2022-06-01T21:00:00Z",
    "component": {
      "type": "application",
      "name": "linfa",
      "version": "0.6.0",
      "group": "rust-ml",
      "externalReferences": [
        {
          "url": "https://github.com/rust-ml/linfa.git",
          "type": "distribution"
        },
        {
          "type": "website",
          "url": "null",
          "comment": "As set via `homepage` in Github API"
        }
      ]
    }
  },
  "components": [
    {
      "type": "library",
      "publisher": "John D. Hunter, Michael Droettboom",
      "name": "matplotlib",
      "version": "3.5.2",
      "description": "Python plotting package",
      "hashes": [
        {
          "alg": "MD5",
          "content": "36ccc2efc47ed886836b2c7c3d3b9b3a"
        },
        {
          "alg": "SHA-256",
          "content": "24173c23d1bcbaed5bf47b8785d27933a1ac26a5d772200a0f3e0e38f471b001"
        }
      ],
      "licenses": [
        {
          "license": {
            "name": "PSF"
          }
        }
      ],
      "purl": "pkg:pypi/matplotlib@3.5.2",
      "modified": false
    },
    {
      "type": "library",
      "publisher": "Travis E. Oliphant et al.",
      "name": "numpy",
      "version": "1.22.4",
      "description": "NumPy is the fundamental package for array computing with Python.",
      "hashes": [
        {
          "alg": "MD5",
          "content": "ab803b24ea557452e828adba1b986af3"
        },
        {
          "alg": "SHA-256",
          "content": "0791fbd1e43bf74b3502133207e378901272f3c156c4df4954cad833b1380207"
        }
      ],
      "licenses": [
        {
          "license": {
            "name": "BSD"
          }
        }
      ],
      "purl": "pkg:pypi/numpy@1.22.4",
      "modified": false
    },
    {
      "type": "library",
      "bom-ref": "pkg:crates/linfa-bayes@0.5.0",
      "group": "",
      "name": "linfa-bayes",
      "version": "0.5.0",
      "description": "",
      "purl": "pkg:crates/linfa-bayes@0.5.0"
    },
    {
      "type": "library",
      "bom-ref": "pkg:crates/ndarray@0.15 ",
      "group": "",
      "name": "ndarray",
      "version": "0.15 ",
      "description": "",
      "purl": "pkg:crates/ndarray@0.15 "
    },
    {
      "type": "library",
      "bom-ref": "pkg:crates/ndarray-stats@0.5",
      "group": "",
      "name": "ndarray-stats",
      "version": "0.5",
      "description": "",
      "purl": "pkg:crates/ndarray-stats@0.5"
    },
    {
      "type": "library",
      "bom-ref": "pkg:crates/thiserror@1.0",
      "group": "",
      "name": "thiserror",
      "version": "1.0",
      "description": "",
      "purl": "pkg:crates/thiserror@1.0"
    },
    {
      "type": "library",
      "bom-ref": "pkg:crates/linfa@0.5.0",
      "group": "",
      "name": "linfa",
      "version": "0.5.0",
      "description": "",
      "purl": "pkg:crates/linfa@0.5.0"
    },
    {
      "type": "library",
      "bom-ref": "pkg:crates/approx@0.4",
      "group": "",
      "name": "approx",
      "version": "0.4",
      "description": "",
      "purl": "pkg:crates/approx@0.4"
    },
    {
      "type": "library",
      "bom-ref": "pkg:crates/linfa-datasets@0.5.0",
      "group": "",
      "name": "linfa-datasets",
      "version": "0.5.0",
      "description": "",
      "purl": "pkg:crates/linfa-datasets@0.5.0"
    },
    {
      "type": "library",
      "bom-ref": "pkg:crates/linfa-clustering@1.0",
      "group": "",
      "name": "linfa-clustering",
      "version": "1.0",
      "description": "",
      "purl": "pkg:crates/linfa-clustering@1.0"
    },
    {
      "type": "library",
      "bom-ref": "pkg:crates/ndarray@0.15",
      "group": "",
      "name": "ndarray",
      "version": "0.15",
      "description": "",
      "purl": "pkg:crates/ndarray@0.15"
    },
    {
      "type": "library",
      "bom-ref": "pkg:crates/ndarray-linalg@0.14",
      "group": "",
      "name": "ndarray-linalg",
      "version": "0.14",
      "description": "",
      "purl": "pkg:crates/ndarray-linalg@0.14"
    },
    {
      "type": "library",
      "bom-ref": "pkg:crates/ndarray-rand@0.14",
      "group": "",
      "name": "ndarray-rand",
      "version": "0.14",
      "description": "",
      "purl": "pkg:crates/ndarray-rand@0.14"
    },
    {
      "type": "library",
      "bom-ref": "pkg:crates/num-traits@0.2",
      "group": "",
      "name": "num-traits",
      "version": "0.2",
      "description": "",
      "purl": "pkg:crates/num-traits@0.2"
    },
    {
      "type": "library",
      "bom-ref": "pkg:crates/rand_xoshiro@0.6",
      "group": "",
      "name": "rand_xoshiro",
      "version": "0.6",
      "description": "",
      "purl": "pkg:crates/rand_xoshiro@0.6"
    },
    {
      "type": "library",
      "bom-ref": "pkg:crates/space@0.12",
      "group": "",
      "name": "space",
      "version": "0.12",
      "description": "",
      "purl": "pkg:crates/space@0.12"
    },
    {
      "type": "library",
      "bom-ref": "pkg:crates/partitions@0.2.4",
      "group": "",
      "name": "partitions",
      "version": "0.2.4",
      "description": "",
      "purl": "pkg:crates/partitions@0.2.4"
    },
    {
      "type": "library",
      "bom-ref": "pkg:crates/linfa-nn@0.5.0",
      "group": "",
      "name": "linfa-nn",
      "version": "0.5.0",
      "description": "",
      "purl": "pkg:crates/linfa-nn@0.5.0"
    },
    {
      "type": "library",
      "bom-ref": "pkg:crates/noisy_float@0.2.0",
      "group": "",
      "name": "noisy_float",
      "version": "0.2.0",
      "description": "",
      "purl": "pkg:crates/noisy_float@0.2.0"
    },
    {
      "type": "library",
      "bom-ref": "pkg:crates/ndarray-npy@0.8",
      "group": "",
      "name": "ndarray-npy",
      "version": "0.8",
      "description": "",
      "purl": "pkg:crates/ndarray-npy@0.8"
    },
    {
      "type": "library",
      "bom-ref": "pkg:crates/criterion@0.3.5",
      "group": "",
      "name": "criterion",
      "version": "0.3.5",
      "description": "",
      "purl": "pkg:crates/criterion@0.3.5"
    },
    {
      "type": "library",
      "bom-ref": "pkg:crates/serde_json@1",
      "group": "",
      "name": "serde_json",
      "version": "1",
      "description": "",
      "purl": "pkg:crates/serde_json@1"
    },
    {
      "type": "library",
      "bom-ref": "pkg:crates/lax@0.2.0",
      "group": "",
      "name": "lax",
      "version": "0.2.0",
      "description": "",
      "purl": "pkg:crates/lax@0.2.0"
    },
    {
      "type": "library",
      "bom-ref": "pkg:crates/name@k_means",
      "group": "",
      "name": "name",
      "version": "k_means",
      "description": "",
      "purl": "pkg:crates/name@k_means"
    },
    {
      "type": "library",
      "bom-ref": "pkg:crates/harness@false",
      "group": "",
      "name": "harness",
      "version": "false",
      "description": "",
      "purl": "pkg:crates/harness@false"
    },
    {
      "type": "library",
      "bom-ref": "pkg:crates/name@dbscan",
      "group": "",
      "name": "name",
      "version": "dbscan",
      "description": "",
      "purl": "pkg:crates/name@dbscan"
    },
    {
      "type": "library",
      "bom-ref": "pkg:crates/name@appx_dbscan",
      "group": "",
      "name": "name",
      "version": "appx_dbscan",
      "description": "",
      "purl": "pkg:crates/name@appx_dbscan"
    },
    {
      "type": "library",
      "bom-ref": "pkg:crates/name@gaussian_mixture",
      "group": "",
      "name": "name",
      "version": "gaussian_mixture",
      "description": "",
      "purl": "pkg:crates/name@gaussian_mixture"
    },
    {
      "type": "library",
      "bom-ref": "pkg:crates/linfa-elasticnet@1.0",
      "group": "",
      "name": "linfa-elasticnet",
      "version": "1.0",
      "description": "",
      "purl": "pkg:crates/linfa-elasticnet@1.0"
    },
    {
      "type": "library",
      "bom-ref": "pkg:crates/linfa-ftrl@0.5.0",
      "group": "",
      "name": "linfa-ftrl",
      "version": "0.5.0",
      "description": "",
      "purl": "pkg:crates/linfa-ftrl@0.5.0"
    },
    {
      "type": "library",
      "bom-ref": "pkg:crates/ndarray@0.15.4",
      "group": "",
      "name": "ndarray",
      "version": "0.15.4",
      "description": "",
      "purl": "pkg:crates/ndarray@0.15.4"
    },
    {
      "type": "library",
      "bom-ref": "pkg:crates/ndarray-rand@0.14.0",
      "group": "",
      "name": "ndarray-rand",
      "version": "0.14.0",
      "description": "",
      "purl": "pkg:crates/ndarray-rand@0.14.0"
    },
    {
      "type": "library",
      "bom-ref": "pkg:crates/argmin@0.4.7",
      "group": "",
      "name": "argmin",
      "version": "0.4.7",
      "description": "",
      "purl": "pkg:crates/argmin@0.4.7"
    },
    {
      "type": "library",
      "bom-ref": "pkg:crates/rand@0.8.5",
      "group": "",
      "name": "rand",
      "version": "0.8.5",
      "description": "",
      "purl": "pkg:crates/rand@0.8.5"
    },
    {
      "type": "library",
      "bom-ref": "pkg:crates/rand_xoshiro@0.6.0",
      "group": "",
      "name": "rand_xoshiro",
      "version": "0.6.0",
      "description": "",
      "purl": "pkg:crates/rand_xoshiro@0.6.0"
    },
    {
      "type": "library",
      "bom-ref": "pkg:crates/criterion@0.3",
      "group": "",
      "name": "criterion",
      "version": "0.3",
      "description": "",
      "purl": "pkg:crates/criterion@0.3"
    },
    {
      "type": "library",
      "bom-ref": "pkg:crates/name@ftrl",
      "group": "",
      "name": "name",
      "version": "ftrl",
      "description": "",
      "purl": "pkg:crates/name@ftrl"
    },
    {
      "type": "library",
      "bom-ref": "pkg:crates/linfa-hierarchical@0.5.0",
      "group": "",
      "name": "linfa-hierarchical",
      "version": "0.5.0",
      "description": "",
      "purl": "pkg:crates/linfa-hierarchical@0.5.0"
    },
    {
      "type": "library",
      "bom-ref": "pkg:crates/ndarray@0.15 }",
      "group": "",
      "name": "ndarray",
      "version": "0.15 }",
      "description": "",
      "purl": "pkg:crates/ndarray@0.15 }"
    },
    {
      "type": "library",
      "bom-ref": "pkg:crates/kodama@0.2",
      "group": "",
      "name": "kodama",
      "version": "0.2",
      "description": "",
      "purl": "pkg:crates/kodama@0.2"
    },
    {
      "type": "library",
      "bom-ref": "pkg:crates/thiserror@=1.0.25",
      "group": "",
      "name": "thiserror",
      "version": "=1.0.25",
      "description": "",
      "purl": "pkg:crates/thiserror@=1.0.25"
    },
    {
      "type": "library",
      "bom-ref": "pkg:crates/linfa-kernel@0.5.0",
      "group": "",
      "name": "linfa-kernel",
      "version": "0.5.0",
      "description": "",
      "purl": "pkg:crates/linfa-kernel@0.5.0"
    },
    {
      "type": "library",
      "bom-ref": "pkg:crates/rand@0.8",
      "group": "",
      "name": "rand",
      "version": "0.8",
      "description": "",
      "purl": "pkg:crates/rand@0.8"
    },
    {
      "type": "library",
      "bom-ref": "pkg:crates/linfa-ica@1.0",
      "group": "",
      "name": "linfa-ica",
      "version": "1.0",
      "description": "",
      "purl": "pkg:crates/linfa-ica@1.0"
    },
    {
      "type": "library",
      "bom-ref": "pkg:crates/paste@1.0",
      "group": "",
      "name": "paste",
      "version": "1.0",
      "description": "",
      "purl": "pkg:crates/paste@1.0"
    },
    {
      "type": "library",
      "bom-ref": "pkg:crates/linfa-kernel@1.0",
      "group": "",
      "name": "linfa-kernel",
      "version": "1.0",
      "description": "",
      "purl": "pkg:crates/linfa-kernel@1.0"
    },
    {
      "type": "library",
      "bom-ref": "pkg:crates/sprs@{ version=0.11.0, default-features",
      "group": "",
      "name": "sprs",
      "version": "{ version=0.11.0, default-features",
      "description": "",
      "purl": "pkg:crates/sprs@{ version=0.11.0, default-features"
    },
    {
      "type": "library",
      "bom-ref": "pkg:crates/linfa-linear@0.5.0",
      "group": "",
      "name": "linfa-linear",
      "version": "0.5.0",
      "description": "",
      "purl": "pkg:crates/linfa-linear@0.5.0"
    },
    {
      "type": "library",
      "bom-ref": "pkg:crates/argmin@0.4.6",
      "group": "",
      "name": "argmin",
      "version": "0.4.6",
      "description": "",
      "purl": "pkg:crates/argmin@0.4.6"
    },
    {
      "type": "library",
      "bom-ref": "pkg:crates/serde@1.0",
      "group": "",
      "name": "serde",
      "version": "1.0",
      "description": "",
      "purl": "pkg:crates/serde@1.0"
    },
    {
      "type": "library",
      "bom-ref": "pkg:crates/linfa-logistic@0.5.0",
      "group": "",
      "name": "linfa-logistic",
      "version": "0.5.0",
      "description": "",
      "purl": "pkg:crates/linfa-logistic@0.5.0"
    },
    {
      "type": "library",
      "bom-ref": "pkg:crates/ndarray-stats@0.5.0",
      "group": "",
      "name": "ndarray-stats",
      "version": "0.5.0",
      "description": "",
      "purl": "pkg:crates/ndarray-stats@0.5.0"
    },
    {
      "type": "library",
      "bom-ref": "pkg:crates/linfa-nn@1.0",
      "group": "",
      "name": "linfa-nn",
      "version": "1.0",
      "description": "",
      "purl": "pkg:crates/linfa-nn@1.0"
    },
    {
      "type": "library",
      "bom-ref": "pkg:crates/num-traits@0.2.0",
      "group": "",
      "name": "num-traits",
      "version": "0.2.0",
      "description": "",
      "purl": "pkg:crates/num-traits@0.2.0"
    },
    {
      "type": "library",
      "bom-ref": "pkg:crates/order-stat@0.1.3",
      "group": "",
      "name": "order-stat",
      "version": "0.1.3",
      "description": "",
      "purl": "pkg:crates/order-stat@0.1.3"
    },
    {
      "type": "library",
      "bom-ref": "pkg:crates/kdtree@0.6.0",
      "group": "",
      "name": "kdtree",
      "version": "0.6.0",
      "description": "",
      "purl": "pkg:crates/kdtree@0.6.0"
    },
    {
      "type": "library",
      "bom-ref": "pkg:crates/name@nn",
      "group": "",
      "name": "name",
      "version": "nn",
      "description": "",
      "purl": "pkg:crates/name@nn"
    },
    {
      "type": "library",
      "bom-ref": "pkg:crates/linfa-pls@1.0",
      "group": "",
      "name": "linfa-pls",
      "version": "1.0",
      "description": "",
      "purl": "pkg:crates/linfa-pls@1.0"
    },
    {
      "type": "library",
      "bom-ref": "pkg:crates/linfa-preprocessing@0.5.0",
      "group": "",
      "name": "linfa-preprocessing",
      "version": "0.5.0",
      "description": "",
      "purl": "pkg:crates/linfa-preprocessing@0.5.0"
    },
    {
      "type": "library",
      "bom-ref": "pkg:crates/ndarray-linalg@0.14 }",
      "group": "",
      "name": "ndarray-linalg",
      "version": "0.14 }",
      "description": "",
      "purl": "pkg:crates/ndarray-linalg@0.14 }"
    },
    {
      "type": "library",
      "bom-ref": "pkg:crates/approx@0.4 }",
      "group": "",
      "name": "approx",
      "version": "0.4 }",
      "description": "",
      "purl": "pkg:crates/approx@0.4 }"
    },
    {
      "type": "library",
      "bom-ref": "pkg:crates/ndarray-rand@0.14 }",
      "group": "",
      "name": "ndarray-rand",
      "version": "0.14 }",
      "description": "",
      "purl": "pkg:crates/ndarray-rand@0.14 }"
    },
    {
      "type": "library",
      "bom-ref": "pkg:crates/unicode-normalization@0.1.8",
      "group": "",
      "name": "unicode-normalization",
      "version": "0.1.8",
      "description": "",
      "purl": "pkg:crates/unicode-normalization@0.1.8"
    },
    {
      "type": "library",
      "bom-ref": "pkg:crates/regex@1.4.5",
      "group": "",
      "name": "regex",
      "version": "1.4.5",
      "description": "",
      "purl": "pkg:crates/regex@1.4.5"
    },
    {
      "type": "library",
      "bom-ref": "pkg:crates/encoding@0.2",
      "group": "",
      "name": "encoding",
      "version": "0.2",
      "description": "",
      "purl": "pkg:crates/encoding@0.2"
    },
    {
      "type": "library",
      "bom-ref": "pkg:crates/sprs@ { version=0.11.0, default-features",
      "group": "",
      "name": "sprs",
      "version": " { version=0.11.0, default-features",
      "description": "",
      "purl": "pkg:crates/sprs@ { version=0.11.0, default-features"
    },
    {
      "type": "library",
      "bom-ref": "pkg:crates/iai@0.1 ",
      "group": "",
      "name": "iai",
      "version": "0.1 ",
      "description": "",
      "purl": "pkg:crates/iai@0.1 "
    },
    {
      "type": "library",
      "bom-ref": "pkg:crates/curl@0.4.35",
      "group": "",
      "name": "curl",
      "version": "0.4.35",
      "description": "",
      "purl": "pkg:crates/curl@0.4.35"
    },
    {
      "type": "library",
      "bom-ref": "pkg:crates/flate2@1.0.20",
      "group": "",
      "name": "flate2",
      "version": "1.0.20",
      "description": "",
      "purl": "pkg:crates/flate2@1.0.20"
    },
    {
      "type": "library",
      "bom-ref": "pkg:crates/tar@0.4.33",
      "group": "",
      "name": "tar",
      "version": "0.4.33",
      "description": "",
      "purl": "pkg:crates/tar@0.4.33"
    },
    {
      "type": "library",
      "bom-ref": "pkg:crates/name@vectorizer_bench",
      "group": "",
      "name": "name",
      "version": "vectorizer_bench",
      "description": "",
      "purl": "pkg:crates/name@vectorizer_bench"
    },
    {
      "type": "library",
      "bom-ref": "pkg:crates/name@linear_scaler_bench",
      "group": "",
      "name": "name",
      "version": "linear_scaler_bench",
      "description": "",
      "purl": "pkg:crates/name@linear_scaler_bench"
    },
    {
      "type": "library",
      "bom-ref": "pkg:crates/name@whitening_bench",
      "group": "",
      "name": "name",
      "version": "whitening_bench",
      "description": "",
      "purl": "pkg:crates/name@whitening_bench"
    },
    {
      "type": "library",
      "bom-ref": "pkg:crates/linfa-reduction@1.0",
      "group": "",
      "name": "linfa-reduction",
      "version": "1.0",
      "description": "",
      "purl": "pkg:crates/linfa-reduction@1.0"
    },
    {
      "type": "library",
      "bom-ref": "pkg:crates/linfa-svm@1.0",
      "group": "",
      "name": "linfa-svm",
      "version": "1.0",
      "description": "",
      "purl": "pkg:crates/linfa-svm@1.0"
    },
    {
      "type": "library",
      "bom-ref": "pkg:crates/linfa-trees@1.0",
      "group": "",
      "name": "linfa-trees",
      "version": "1.0",
      "description": "",
      "purl": "pkg:crates/linfa-trees@1.0"
    },
    {
      "type": "library",
      "bom-ref": "pkg:crates/name@decision_tree",
      "group": "",
      "name": "name",
      "version": "decision_tree",
      "description": "",
      "purl": "pkg:crates/name@decision_tree"
    },
    {
      "type": "library",
      "bom-ref": "pkg:crates/linfa-tsne@0.5.0",
      "group": "",
      "name": "linfa-tsne",
      "version": "0.5.0",
      "description": "",
      "purl": "pkg:crates/linfa-tsne@0.5.0"
    },
    {
      "type": "library",
      "bom-ref": "pkg:crates/bhtsne@0.4.0",
      "group": "",
      "name": "bhtsne",
      "version": "0.4.0",
      "description": "",
      "purl": "pkg:crates/bhtsne@0.4.0"
    },
    {
      "type": "library",
      "bom-ref": "pkg:crates/pdqselect@=0.1.0",
      "group": "",
      "name": "pdqselect",
      "version": "=0.1.0",
      "description": "",
      "purl": "pkg:crates/pdqselect@=0.1.0"
    },
    {
      "type": "library",
      "bom-ref": "pkg:crates/linfa-reduction@0.5.0",
      "group": "",
      "name": "linfa-reduction",
      "version": "0.5.0",
      "description": "",
      "purl": "pkg:crates/linfa-reduction@0.5.0"
    },
    {
      "type": "library",
      "bom-ref": "pkg:crates/[target.cfg(not(target_family@windows)).dev-dependencies]",
      "group": "",
      "name": "[target.cfg(not(target_family",
      "version": "windows)).dev-dependencies]",
      "description": "",
      "purl": "pkg:crates/[target.cfg(not(target_family@windows)).dev-dependencies]"
    },
    {
      "type": "library",
      "bom-ref": "pkg:crates/mnist@0.5",
      "group": "",
      "name": "mnist",
      "version": "0.5",
      "description": "",
      "purl": "pkg:crates/mnist@0.5"
    },
    {
      "type": "library",
      "bom-ref": "pkg:crates/anyhow@<=1.0.48 }",
      "group": "",
      "name": "anyhow",
      "version": "<=1.0.48 }",
      "description": "",
      "purl": "pkg:crates/anyhow@<=1.0.48 }"
    },
    {
      "type": "library",
      "bom-ref": "pkg:crates/package@serde",
      "group": "",
      "name": "package",
      "version": "serde",
      "description": "",
      "purl": "pkg:crates/package@serde"
    },
    {
      "type": "library",
      "bom-ref": "pkg:crates/optional@true",
      "group": "",
      "name": "optional",
      "version": "true",
      "description": "",
      "purl": "pkg:crates/optional@true"
    },
    {
      "type": "library",
      "bom-ref": "pkg:crates/default-features@false",
      "group": "",
      "name": "default-features",
      "version": "false",
      "description": "",
      "purl": "pkg:crates/default-features@false"
    },
    {
      "type": "library",
      "bom-ref": "pkg:crates/features@[std, derive]",
      "group": "",
      "name": "features",
      "version": "[std, derive]",
      "description": "",
      "purl": "pkg:crates/features@[std, derive]"
    },
    {
      "type": "library",
      "bom-ref": "pkg:crates/members@[",
      "group": "",
      "name": "members",
      "version": "[",
      "description": "",
      "purl": "pkg:crates/members@["
    },
    {
      "type": "library",
      "bom-ref": "pkg:crates/opt-level@3",
      "group": "",
      "name": "opt-level",
      "version": "3",
      "description": "",
      "purl": "pkg:crates/opt-level@3"
    },
    {
      "type": "library",
      "bom-ref": "pkg:crates/ndarray-csv@=0.5.1",
      "group": "",
      "name": "ndarray-csv",
      "version": "=0.5.1",
      "description": "",
      "purl": "pkg:crates/ndarray-csv@=0.5.1"
    },
    {
      "type": "library",
      "bom-ref": "pkg:crates/csv@1.1",
      "group": "",
      "name": "csv",
      "version": "1.1",
      "description": "",
      "purl": "pkg:crates/csv@1.1"
    },
    {
      "type": "library",
      "bom-ref": "pkg:crates/flate2@1.0",
      "group": "",
      "name": "flate2",
      "version": "1.0",
      "description": "",
      "purl": "pkg:crates/flate2@1.0"
    },
    {
      "type": "library",
      "bom-ref": "pkg:crates/default@[]",
      "group": "",
      "name": "default",
      "version": "[]",
      "description": "",
      "purl": "pkg:crates/default@[]"
    },
    {
      "type": "library",
      "bom-ref": "pkg:crates/diabetes@[]",
      "group": "",
      "name": "diabetes",
      "version": "[]",
      "description": "",
      "purl": "pkg:crates/diabetes@[]"
    },
    {
      "type": "library",
      "bom-ref": "pkg:crates/iris@[]",
      "group": "",
      "name": "iris",
      "version": "[]",
      "description": "",
      "purl": "pkg:crates/iris@[]"
    },
    {
      "type": "library",
      "bom-ref": "pkg:crates/winequality@[]",
      "group": "",
      "name": "winequality",
      "version": "[]",
      "description": "",
      "purl": "pkg:crates/winequality@[]"
    },
    {
      "type": "library",
      "bom-ref": "pkg:crates/linnerud@[]",
      "group": "",
      "name": "linnerud",
      "version": "[]",
      "description": "",
      "purl": "pkg:crates/linnerud@[]"
    },
    {
      "type": "library",
      "bom-ref": "pkg:crates/generate@[ndarray-rand]",
      "group": "",
      "name": "generate",
      "version": "[ndarray-rand]",
      "description": "",
      "purl": "pkg:crates/generate@[ndarray-rand]"
    }
  ]
}
