{
  "bomFormat": "CycloneDX",
  "specVersion": "1.3",
  "version": 1,
  "metadata": {
    "tools": [
      {
        "vendor": "cyclonedx",
        "name": "cyclonedx-php-composer",
        "version": "3.10.0"
      },
      {
        "vendor": "CycloneDX",
        "name": "Node.js module",
        "version": "3.0.3"
      },
      {
        "vendor": "AppThreat",
        "name": "cdxgen",
        "version": "3.0.10"
      },
      {
        "vendor": "Fortress Information Security",
        "name": "Github Extractor",
        "version": "1.15.1"
      }
    ],
    "authors": [
      {
        "name": "Fortress Information Security",
        "email": "sales@fortressinfosec.com",
        "phone": "1-407-573-6800"
      }
    ],
    "timestamp": "2022-06-01T21:00:00Z",
    "component": {
      "type": "application",
      "name": "Baikal",
      "version": "0.9.2",
      "group": "sabre-io",
      "externalReferences": [
        {
          "url": "https://github.com/sabre-io/Baikal.git",
          "type": "distribution"
        },
        {
          "type": "website",
          "url": "https://sabre.io/baikal/",
          "comment": "As set via `homepage` in Github API"
        }
      ]
    }
  },
  "components": [
    {
      "type": "library",
      "bom-ref": "pkg:composer/psr/log@1.1.4",
      "group": "psr",
      "name": "log",
      "version": "1.1.4",
      "description": "Common interface for logging libraries",
      "licenses": [
        {
          "license": {
            "id": "MIT"
          }
        }
      ],
      "purl": "pkg:composer/psr/log@1.1.4",
      "externalReferences": [
        {
          "url": "https://github.com/php-fig/log.git",
          "type": "distribution",
          "comment": "As detected by composer's `getSourceUrls()` (type=git & reference=d49695b909c3b7628b6289db5479a1c204601f11)"
        },
        {
          "url": "https://api.github.com/repos/php-fig/log/zipball/d49695b909c3b7628b6289db5479a1c204601f11",
          "type": "distribution",
          "comment": "As detected by composer's `getDistUrls()` (type=zip & reference=d49695b909c3b7628b6289db5479a1c204601f11 & sha1=UNDEFINED)"
        },
        {
          "url": "https://github.com/php-fig/log",
          "type": "website",
          "comment": "As set via `homepage` in composer package definition."
        },
        {
          "url": "https://github.com/php-fig/log/tree/1.1.4",
          "type": "distribution",
          "comment": "As set via `support.source` in composer package definition."
        }
      ]
    },
    {
      "type": "library",
      "bom-ref": "pkg:composer/sabre/dav@4.3.1",
      "group": "sabre",
      "name": "dav",
      "version": "4.3.1",
      "description": "WebDAV Framework for PHP",
      "licenses": [
        {
          "license": {
            "id": "BSD-3-Clause"
          }
        }
      ],
      "purl": "pkg:composer/sabre/dav@4.3.1",
      "externalReferences": [
        {
          "url": "https://github.com/sabre-io/dav.git",
          "type": "distribution",
          "comment": "As detected by composer's `getSourceUrls()` (type=git & reference=130abb7017f56e0d99b04eb94b041e000a8e9b39)"
        },
        {
          "url": "https://api.github.com/repos/sabre-io/dav/zipball/130abb7017f56e0d99b04eb94b041e000a8e9b39",
          "type": "distribution",
          "comment": "As detected by composer's `getDistUrls()` (type=zip & reference=130abb7017f56e0d99b04eb94b041e000a8e9b39 & sha1=UNDEFINED)"
        },
        {
          "url": "http://sabre.io/",
          "type": "website",
          "comment": "As set via `homepage` in composer package definition."
        },
        {
          "url": "https://groups.google.com/group/sabredav-discuss",
          "type": "support",
          "comment": "As set via `support.forum` in composer package definition."
        },
        {
          "url": "https://github.com/sabre-io/dav/issues",
          "type": "issue-tracker",
          "comment": "As set via `support.issues` in composer package definition."
        },
        {
          "url": "https://github.com/fruux/sabre-dav",
          "type": "distribution",
          "comment": "As set via `support.source` in composer package definition."
        }
      ]
    },
    {
      "type": "library",
      "bom-ref": "pkg:composer/sabre/event@5.1.4",
      "group": "sabre",
      "name": "event",
      "version": "5.1.4",
      "description": "sabre/event is a library for lightweight event-based programming",
      "licenses": [
        {
          "license": {
            "id": "BSD-3-Clause"
          }
        }
      ],
      "purl": "pkg:composer/sabre/event@5.1.4",
      "externalReferences": [
        {
          "url": "https://github.com/sabre-io/event.git",
          "type": "distribution",
          "comment": "As detected by composer's `getSourceUrls()` (type=git & reference=d7da22897125d34d7eddf7977758191c06a74497)"
        },
        {
          "url": "https://api.github.com/repos/sabre-io/event/zipball/d7da22897125d34d7eddf7977758191c06a74497",
          "type": "distribution",
          "comment": "As detected by composer's `getDistUrls()` (type=zip & reference=d7da22897125d34d7eddf7977758191c06a74497 & sha1=UNDEFINED)"
        },
        {
          "url": "http://sabre.io/event/",
          "type": "website",
          "comment": "As set via `homepage` in composer package definition."
        },
        {
          "url": "https://groups.google.com/group/sabredav-discuss",
          "type": "support",
          "comment": "As set via `support.forum` in composer package definition."
        },
        {
          "url": "https://github.com/sabre-io/event/issues",
          "type": "issue-tracker",
          "comment": "As set via `support.issues` in composer package definition."
        },
        {
          "url": "https://github.com/fruux/sabre-event",
          "type": "distribution",
          "comment": "As set via `support.source` in composer package definition."
        }
      ]
    },
    {
      "type": "library",
      "bom-ref": "pkg:composer/sabre/http@5.1.3",
      "group": "sabre",
      "name": "http",
      "version": "5.1.3",
      "description": "The sabre/http library provides utilities for dealing with http requests and responses. ",
      "licenses": [
        {
          "license": {
            "id": "BSD-3-Clause"
          }
        }
      ],
      "purl": "pkg:composer/sabre/http@5.1.3",
      "externalReferences": [
        {
          "url": "https://github.com/sabre-io/http.git",
          "type": "distribution",
          "comment": "As detected by composer's `getSourceUrls()` (type=git & reference=315f592adfcba8aeb73c2fd64285205747acbbd7)"
        },
        {
          "url": "https://api.github.com/repos/sabre-io/http/zipball/315f592adfcba8aeb73c2fd64285205747acbbd7",
          "type": "distribution",
          "comment": "As detected by composer's `getDistUrls()` (type=zip & reference=315f592adfcba8aeb73c2fd64285205747acbbd7 & sha1=UNDEFINED)"
        },
        {
          "url": "https://github.com/fruux/sabre-http",
          "type": "website",
          "comment": "As set via `homepage` in composer package definition."
        },
        {
          "url": "https://groups.google.com/group/sabredav-discuss",
          "type": "support",
          "comment": "As set via `support.forum` in composer package definition."
        },
        {
          "url": "https://github.com/sabre-io/http/issues",
          "type": "issue-tracker",
          "comment": "As set via `support.issues` in composer package definition."
        },
        {
          "url": "https://github.com/fruux/sabre-http",
          "type": "distribution",
          "comment": "As set via `support.source` in composer package definition."
        }
      ]
    },
    {
      "type": "library",
      "bom-ref": "pkg:composer/sabre/uri@2.2.2",
      "group": "sabre",
      "name": "uri",
      "version": "2.2.2",
      "description": "Functions for making sense out of URIs.",
      "licenses": [
        {
          "license": {
            "id": "BSD-3-Clause"
          }
        }
      ],
      "purl": "pkg:composer/sabre/uri@2.2.2",
      "externalReferences": [
        {
          "url": "https://github.com/sabre-io/uri.git",
          "type": "distribution",
          "comment": "As detected by composer's `getSourceUrls()` (type=git & reference=7cb0f489578afad5006e85cd60f18ff33f2d440d)"
        },
        {
          "url": "https://api.github.com/repos/sabre-io/uri/zipball/7cb0f489578afad5006e85cd60f18ff33f2d440d",
          "type": "distribution",
          "comment": "As detected by composer's `getDistUrls()` (type=zip & reference=7cb0f489578afad5006e85cd60f18ff33f2d440d & sha1=UNDEFINED)"
        },
        {
          "url": "http://sabre.io/uri/",
          "type": "website",
          "comment": "As set via `homepage` in composer package definition."
        },
        {
          "url": "https://groups.google.com/group/sabredav-discuss",
          "type": "support",
          "comment": "As set via `support.forum` in composer package definition."
        },
        {
          "url": "https://github.com/sabre-io/uri/issues",
          "type": "issue-tracker",
          "comment": "As set via `support.issues` in composer package definition."
        },
        {
          "url": "https://github.com/fruux/sabre-uri",
          "type": "distribution",
          "comment": "As set via `support.source` in composer package definition."
        }
      ]
    },
    {
      "type": "library",
      "bom-ref": "pkg:composer/sabre/vobject@4.4.1",
      "group": "sabre",
      "name": "vobject",
      "version": "4.4.1",
      "description": "The VObject library for PHP allows you to easily parse and manipulate iCalendar and vCard objects",
      "licenses": [
        {
          "license": {
            "id": "BSD-3-Clause"
          }
        }
      ],
      "purl": "pkg:composer/sabre/vobject@4.4.1",
      "externalReferences": [
        {
          "url": "https://github.com/sabre-io/vobject.git",
          "type": "distribution",
          "comment": "As detected by composer's `getSourceUrls()` (type=git & reference=06feff370141fd3118609f808e86d9315864bf14)"
        },
        {
          "url": "https://api.github.com/repos/sabre-io/vobject/zipball/06feff370141fd3118609f808e86d9315864bf14",
          "type": "distribution",
          "comment": "As detected by composer's `getDistUrls()` (type=zip & reference=06feff370141fd3118609f808e86d9315864bf14 & sha1=UNDEFINED)"
        },
        {
          "url": "http://sabre.io/vobject/",
          "type": "website",
          "comment": "As set via `homepage` in composer package definition."
        },
        {
          "url": "https://groups.google.com/group/sabredav-discuss",
          "type": "support",
          "comment": "As set via `support.forum` in composer package definition."
        },
        {
          "url": "https://github.com/sabre-io/vobject/issues",
          "type": "issue-tracker",
          "comment": "As set via `support.issues` in composer package definition."
        },
        {
          "url": "https://github.com/fruux/sabre-vobject",
          "type": "distribution",
          "comment": "As set via `support.source` in composer package definition."
        }
      ]
    },
    {
      "type": "library",
      "bom-ref": "pkg:composer/sabre/xml@2.2.5",
      "group": "sabre",
      "name": "xml",
      "version": "2.2.5",
      "description": "sabre/xml is an XML library that you may not hate.",
      "licenses": [
        {
          "license": {
            "id": "BSD-3-Clause"
          }
        }
      ],
      "purl": "pkg:composer/sabre/xml@2.2.5",
      "externalReferences": [
        {
          "url": "https://github.com/sabre-io/xml.git",
          "type": "distribution",
          "comment": "As detected by composer's `getSourceUrls()` (type=git & reference=a6af111850e7536d200d9637c34885cd3c77a86c)"
        },
        {
          "url": "https://api.github.com/repos/sabre-io/xml/zipball/a6af111850e7536d200d9637c34885cd3c77a86c",
          "type": "distribution",
          "comment": "As detected by composer's `getDistUrls()` (type=zip & reference=a6af111850e7536d200d9637c34885cd3c77a86c & sha1=UNDEFINED)"
        },
        {
          "url": "https://sabre.io/xml/",
          "type": "website",
          "comment": "As set via `homepage` in composer package definition."
        },
        {
          "url": "https://groups.google.com/group/sabredav-discuss",
          "type": "support",
          "comment": "As set via `support.forum` in composer package definition."
        },
        {
          "url": "https://github.com/sabre-io/xml/issues",
          "type": "issue-tracker",
          "comment": "As set via `support.issues` in composer package definition."
        },
        {
          "url": "https://github.com/fruux/sabre-xml",
          "type": "distribution",
          "comment": "As set via `support.source` in composer package definition."
        }
      ]
    },
    {
      "type": "library",
      "bom-ref": "pkg:composer/symfony/polyfill-ctype@1.25.0",
      "group": "symfony",
      "name": "polyfill-ctype",
      "version": "1.25.0",
      "description": "Symfony polyfill for ctype functions",
      "licenses": [
        {
          "license": {
            "id": "MIT"
          }
        }
      ],
      "purl": "pkg:composer/symfony/polyfill-ctype@1.25.0",
      "externalReferences": [
        {
          "url": "https://github.com/symfony/polyfill-ctype.git",
          "type": "distribution",
          "comment": "As detected by composer's `getSourceUrls()` (type=git & reference=30885182c981ab175d4d034db0f6f469898070ab)"
        },
        {
          "url": "https://api.github.com/repos/symfony/polyfill-ctype/zipball/30885182c981ab175d4d034db0f6f469898070ab",
          "type": "distribution",
          "comment": "As detected by composer's `getDistUrls()` (type=zip & reference=30885182c981ab175d4d034db0f6f469898070ab & sha1=UNDEFINED)"
        },
        {
          "url": "https://symfony.com",
          "type": "website",
          "comment": "As set via `homepage` in composer package definition."
        },
        {
          "url": "https://github.com/symfony/polyfill-ctype/tree/v1.25.0",
          "type": "distribution",
          "comment": "As set via `support.source` in composer package definition."
        },
        {
          "url": "https://symfony.com/sponsor",
          "type": "other",
          "comment": "As set via `funding` in composer package definition. (type=custom)"
        },
        {
          "url": "https://github.com/fabpot",
          "type": "other",
          "comment": "As set via `funding` in composer package definition. (type=github)"
        },
        {
          "url": "https://tidelift.com/funding/github/packagist/symfony/symfony",
          "type": "other",
          "comment": "As set via `funding` in composer package definition. (type=tidelift)"
        }
      ]
    },
    {
      "type": "library",
      "bom-ref": "pkg:composer/symfony/polyfill-mbstring@1.25.0",
      "group": "symfony",
      "name": "polyfill-mbstring",
      "version": "1.25.0",
      "description": "Symfony polyfill for the Mbstring extension",
      "licenses": [
        {
          "license": {
            "id": "MIT"
          }
        }
      ],
      "purl": "pkg:composer/symfony/polyfill-mbstring@1.25.0",
      "externalReferences": [
        {
          "url": "https://github.com/symfony/polyfill-mbstring.git",
          "type": "distribution",
          "comment": "As detected by composer's `getSourceUrls()` (type=git & reference=0abb51d2f102e00a4eefcf46ba7fec406d245825)"
        },
        {
          "url": "https://api.github.com/repos/symfony/polyfill-mbstring/zipball/0abb51d2f102e00a4eefcf46ba7fec406d245825",
          "type": "distribution",
          "comment": "As detected by composer's `getDistUrls()` (type=zip & reference=0abb51d2f102e00a4eefcf46ba7fec406d245825 & sha1=UNDEFINED)"
        },
        {
          "url": "https://symfony.com",
          "type": "website",
          "comment": "As set via `homepage` in composer package definition."
        },
        {
          "url": "https://github.com/symfony/polyfill-mbstring/tree/v1.25.0",
          "type": "distribution",
          "comment": "As set via `support.source` in composer package definition."
        },
        {
          "url": "https://symfony.com/sponsor",
          "type": "other",
          "comment": "As set via `funding` in composer package definition. (type=custom)"
        },
        {
          "url": "https://github.com/fabpot",
          "type": "other",
          "comment": "As set via `funding` in composer package definition. (type=github)"
        },
        {
          "url": "https://tidelift.com/funding/github/packagist/symfony/symfony",
          "type": "other",
          "comment": "As set via `funding` in composer package definition. (type=tidelift)"
        }
      ]
    },
    {
      "type": "library",
      "bom-ref": "pkg:composer/symfony/polyfill-php72@1.25.0",
      "group": "symfony",
      "name": "polyfill-php72",
      "version": "1.25.0",
      "description": "Symfony polyfill backporting some PHP 7.2+ features to lower PHP versions",
      "licenses": [
        {
          "license": {
            "id": "MIT"
          }
        }
      ],
      "purl": "pkg:composer/symfony/polyfill-php72@1.25.0",
      "externalReferences": [
        {
          "url": "https://github.com/symfony/polyfill-php72.git",
          "type": "distribution",
          "comment": "As detected by composer's `getSourceUrls()` (type=git & reference=9a142215a36a3888e30d0a9eeea9766764e96976)"
        },
        {
          "url": "https://api.github.com/repos/symfony/polyfill-php72/zipball/9a142215a36a3888e30d0a9eeea9766764e96976",
          "type": "distribution",
          "comment": "As detected by composer's `getDistUrls()` (type=zip & reference=9a142215a36a3888e30d0a9eeea9766764e96976 & sha1=UNDEFINED)"
        },
        {
          "url": "https://symfony.com",
          "type": "website",
          "comment": "As set via `homepage` in composer package definition."
        },
        {
          "url": "https://github.com/symfony/polyfill-php72/tree/v1.25.0",
          "type": "distribution",
          "comment": "As set via `support.source` in composer package definition."
        },
        {
          "url": "https://symfony.com/sponsor",
          "type": "other",
          "comment": "As set via `funding` in composer package definition. (type=custom)"
        },
        {
          "url": "https://github.com/fabpot",
          "type": "other",
          "comment": "As set via `funding` in composer package definition. (type=github)"
        },
        {
          "url": "https://tidelift.com/funding/github/packagist/symfony/symfony",
          "type": "other",
          "comment": "As set via `funding` in composer package definition. (type=tidelift)"
        }
      ]
    },
    {
      "type": "library",
      "bom-ref": "pkg:composer/symfony/yaml@3.4.47",
      "group": "symfony",
      "name": "yaml",
      "version": "3.4.47",
      "description": "Symfony Yaml Component",
      "licenses": [
        {
          "license": {
            "id": "MIT"
          }
        }
      ],
      "purl": "pkg:composer/symfony/yaml@3.4.47",
      "externalReferences": [
        {
          "url": "https://github.com/symfony/yaml.git",
          "type": "distribution",
          "comment": "As detected by composer's `getSourceUrls()` (type=git & reference=88289caa3c166321883f67fe5130188ebbb47094)"
        },
        {
          "url": "https://api.github.com/repos/symfony/yaml/zipball/88289caa3c166321883f67fe5130188ebbb47094",
          "type": "distribution",
          "comment": "As detected by composer's `getDistUrls()` (type=zip & reference=88289caa3c166321883f67fe5130188ebbb47094 & sha1=UNDEFINED)"
        },
        {
          "url": "https://symfony.com",
          "type": "website",
          "comment": "As set via `homepage` in composer package definition."
        },
        {
          "url": "https://github.com/symfony/yaml/tree/v3.4.47",
          "type": "distribution",
          "comment": "As set via `support.source` in composer package definition."
        },
        {
          "url": "https://symfony.com/sponsor",
          "type": "other",
          "comment": "As set via `funding` in composer package definition. (type=custom)"
        },
        {
          "url": "https://github.com/fabpot",
          "type": "other",
          "comment": "As set via `funding` in composer package definition. (type=github)"
        },
        {
          "url": "https://tidelift.com/funding/github/packagist/symfony/symfony",
          "type": "other",
          "comment": "As set via `funding` in composer package definition. (type=tidelift)"
        }
      ]
    },
    {
      "type": "library",
      "bom-ref": "pkg:composer/twig/twig@2.14.13",
      "group": "twig",
      "name": "twig",
      "version": "2.14.13",
      "description": "Twig, the flexible, fast, and secure template language for PHP",
      "licenses": [
        {
          "license": {
            "id": "BSD-3-Clause"
          }
        }
      ],
      "purl": "pkg:composer/twig/twig@2.14.13",
      "externalReferences": [
        {
          "url": "https://github.com/twigphp/Twig.git",
          "type": "distribution",
          "comment": "As detected by composer's `getSourceUrls()` (type=git & reference=66856cd0459df3dc97d32077a98454dc2a0ee75a)"
        },
        {
          "url": "https://api.github.com/repos/twigphp/Twig/zipball/66856cd0459df3dc97d32077a98454dc2a0ee75a",
          "type": "distribution",
          "comment": "As detected by composer's `getDistUrls()` (type=zip & reference=66856cd0459df3dc97d32077a98454dc2a0ee75a & sha1=UNDEFINED)"
        },
        {
          "url": "https://twig.symfony.com",
          "type": "website",
          "comment": "As set via `homepage` in composer package definition."
        },
        {
          "url": "https://github.com/twigphp/Twig/issues",
          "type": "issue-tracker",
          "comment": "As set via `support.issues` in composer package definition."
        },
        {
          "url": "https://github.com/twigphp/Twig/tree/v2.14.13",
          "type": "distribution",
          "comment": "As set via `support.source` in composer package definition."
        },
        {
          "url": "https://github.com/fabpot",
          "type": "other",
          "comment": "As set via `funding` in composer package definition. (type=github)"
        },
        {
          "url": "https://tidelift.com/funding/github/packagist/twig/twig",
          "type": "other",
          "comment": "As set via `funding` in composer package definition. (type=tidelift)"
        }
      ]
    },
    {
      "type": "library",
      "bom-ref": "pkg:composer/composer/pcre@1.0.1",
      "group": "composer",
      "name": "pcre",
      "version": "1.0.1",
      "description": "PCRE wrapping library that offers type-safe preg_* replacements.",
      "licenses": [
        {
          "license": {
            "id": "MIT"
          }
        }
      ],
      "purl": "pkg:composer/composer/pcre@1.0.1",
      "externalReferences": [
        {
          "url": "https://github.com/composer/pcre.git",
          "type": "distribution",
          "comment": "As detected by composer's `getSourceUrls()` (type=git & reference=67a32d7d6f9f560b726ab25a061b38ff3a80c560)"
        },
        {
          "url": "https://api.github.com/repos/composer/pcre/zipball/67a32d7d6f9f560b726ab25a061b38ff3a80c560",
          "type": "distribution",
          "comment": "As detected by composer's `getDistUrls()` (type=zip & reference=67a32d7d6f9f560b726ab25a061b38ff3a80c560 & sha1=UNDEFINED)"
        },
        {
          "url": "https://github.com/composer/pcre/issues",
          "type": "issue-tracker",
          "comment": "As set via `support.issues` in composer package definition."
        },
        {
          "url": "https://github.com/composer/pcre/tree/1.0.1",
          "type": "distribution",
          "comment": "As set via `support.source` in composer package definition."
        },
        {
          "url": "https://packagist.com",
          "type": "other",
          "comment": "As set via `funding` in composer package definition. (type=custom)"
        },
        {
          "url": "https://github.com/composer",
          "type": "other",
          "comment": "As set via `funding` in composer package definition. (type=github)"
        },
        {
          "url": "https://tidelift.com/funding/github/packagist/composer/composer",
          "type": "other",
          "comment": "As set via `funding` in composer package definition. (type=tidelift)"
        }
      ]
    },
    {
      "type": "library",
      "bom-ref": "pkg:composer/composer/semver@3.3.2",
      "group": "composer",
      "name": "semver",
      "version": "3.3.2",
      "description": "Semver library that offers utilities, version constraint parsing and validation.",
      "licenses": [
        {
          "license": {
            "id": "MIT"
          }
        }
      ],
      "purl": "pkg:composer/composer/semver@3.3.2",
      "externalReferences": [
        {
          "url": "https://github.com/composer/semver.git",
          "type": "distribution",
          "comment": "As detected by composer's `getSourceUrls()` (type=git & reference=3953f23262f2bff1919fc82183ad9acb13ff62c9)"
        },
        {
          "url": "https://api.github.com/repos/composer/semver/zipball/3953f23262f2bff1919fc82183ad9acb13ff62c9",
          "type": "distribution",
          "comment": "As detected by composer's `getDistUrls()` (type=zip & reference=3953f23262f2bff1919fc82183ad9acb13ff62c9 & sha1=UNDEFINED)"
        },
        {
          "url": "irc://irc.freenode.org/composer",
          "type": "chat",
          "comment": "As set via `support.irc` in composer package definition."
        },
        {
          "url": "https://github.com/composer/semver/issues",
          "type": "issue-tracker",
          "comment": "As set via `support.issues` in composer package definition."
        },
        {
          "url": "https://github.com/composer/semver/tree/3.3.2",
          "type": "distribution",
          "comment": "As set via `support.source` in composer package definition."
        },
        {
          "url": "https://packagist.com",
          "type": "other",
          "comment": "As set via `funding` in composer package definition. (type=custom)"
        },
        {
          "url": "https://github.com/composer",
          "type": "other",
          "comment": "As set via `funding` in composer package definition. (type=github)"
        },
        {
          "url": "https://tidelift.com/funding/github/packagist/composer/composer",
          "type": "other",
          "comment": "As set via `funding` in composer package definition. (type=tidelift)"
        }
      ]
    },
    {
      "type": "library",
      "bom-ref": "pkg:composer/composer/xdebug-handler@2.0.5",
      "group": "composer",
      "name": "xdebug-handler",
      "version": "2.0.5",
      "description": "Restarts a process without Xdebug.",
      "licenses": [
        {
          "license": {
            "id": "MIT"
          }
        }
      ],
      "purl": "pkg:composer/composer/xdebug-handler@2.0.5",
      "externalReferences": [
        {
          "url": "https://github.com/composer/xdebug-handler.git",
          "type": "distribution",
          "comment": "As detected by composer's `getSourceUrls()` (type=git & reference=9e36aeed4616366d2b690bdce11f71e9178c579a)"
        },
        {
          "url": "https://api.github.com/repos/composer/xdebug-handler/zipball/9e36aeed4616366d2b690bdce11f71e9178c579a",
          "type": "distribution",
          "comment": "As detected by composer's `getDistUrls()` (type=zip & reference=9e36aeed4616366d2b690bdce11f71e9178c579a & sha1=UNDEFINED)"
        },
        {
          "url": "irc://irc.freenode.org/composer",
          "type": "chat",
          "comment": "As set via `support.irc` in composer package definition."
        },
        {
          "url": "https://github.com/composer/xdebug-handler/issues",
          "type": "issue-tracker",
          "comment": "As set via `support.issues` in composer package definition."
        },
        {
          "url": "https://github.com/composer/xdebug-handler/tree/2.0.5",
          "type": "distribution",
          "comment": "As set via `support.source` in composer package definition."
        },
        {
          "url": "https://packagist.com",
          "type": "other",
          "comment": "As set via `funding` in composer package definition. (type=custom)"
        },
        {
          "url": "https://github.com/composer",
          "type": "other",
          "comment": "As set via `funding` in composer package definition. (type=github)"
        },
        {
          "url": "https://tidelift.com/funding/github/packagist/composer/composer",
          "type": "other",
          "comment": "As set via `funding` in composer package definition. (type=tidelift)"
        }
      ]
    },
    {
      "type": "library",
      "bom-ref": "pkg:composer/cyclonedx/cyclonedx-library@1.5.0",
      "group": "cyclonedx",
      "name": "cyclonedx-library",
      "version": "1.5.0",
      "description": "Work with CycloneDX Software Bill-of-Materials (SBOM)",
      "licenses": [
        {
          "license": {
            "id": "Apache-2.0"
          }
        }
      ],
      "purl": "pkg:composer/cyclonedx/cyclonedx-library@1.5.0",
      "externalReferences": [
        {
          "url": "https://github.com/CycloneDX/cyclonedx-php-library.git",
          "type": "distribution",
          "comment": "As detected by composer's `getSourceUrls()` (type=git & reference=f41632e1d47001700ef93fa899e6dc49779aa784)"
        },
        {
          "url": "https://api.github.com/repos/CycloneDX/cyclonedx-php-library/zipball/f41632e1d47001700ef93fa899e6dc49779aa784",
          "type": "distribution",
          "comment": "As detected by composer's `getDistUrls()` (type=zip & reference=f41632e1d47001700ef93fa899e6dc49779aa784 & sha1=UNDEFINED)"
        },
        {
          "url": "https://github.com/CycloneDX/cyclonedx-php-library/",
          "type": "website",
          "comment": "As set via `homepage` in composer package definition."
        },
        {
          "url": "https://github.com/CycloneDX/cyclonedx-php-library/issues",
          "type": "issue-tracker",
          "comment": "As set via `support.issues` in composer package definition."
        },
        {
          "url": "https://github.com/CycloneDX/cyclonedx-php-library/tree/v1.5.0",
          "type": "distribution",
          "comment": "As set via `support.source` in composer package definition."
        }
      ]
    },
    {
      "type": "application",
      "bom-ref": "pkg:composer/cyclonedx/cyclonedx-php-composer@3.10.0",
      "group": "cyclonedx",
      "name": "cyclonedx-php-composer",
      "version": "3.10.0",
      "description": "Creates CycloneDX Software Bill-of-Materials (SBOM) from PHP Composer projects",
      "licenses": [
        {
          "license": {
            "id": "Apache-2.0"
          }
        }
      ],
      "purl": "pkg:composer/cyclonedx/cyclonedx-php-composer@3.10.0",
      "externalReferences": [
        {
          "url": "https://github.com/CycloneDX/cyclonedx-php-composer.git",
          "type": "distribution",
          "comment": "As detected by composer's `getSourceUrls()` (type=git & reference=341792df609deab6131ffa65f2f3b273f2e6128a)"
        },
        {
          "url": "https://api.github.com/repos/CycloneDX/cyclonedx-php-composer/zipball/341792df609deab6131ffa65f2f3b273f2e6128a",
          "type": "distribution",
          "comment": "As detected by composer's `getDistUrls()` (type=zip & reference=341792df609deab6131ffa65f2f3b273f2e6128a & sha1=UNDEFINED)"
        },
        {
          "url": "https://github.com/CycloneDX/cyclonedx-php-composer/",
          "type": "website",
          "comment": "As set via `homepage` in composer package definition."
        },
        {
          "url": "https://github.com/CycloneDX/cyclonedx-php-composer/issues",
          "type": "issue-tracker",
          "comment": "As set via `support.issues` in composer package definition."
        },
        {
          "url": "https://github.com/CycloneDX/cyclonedx-php-composer/tree/v3.10.0",
          "type": "distribution",
          "comment": "As set via `support.source` in composer package definition."
        }
      ]
    },
    {
      "type": "library",
      "bom-ref": "pkg:composer/doctrine/annotations@1.13.2",
      "group": "doctrine",
      "name": "annotations",
      "version": "1.13.2",
      "description": "Docblock Annotations Parser",
      "licenses": [
        {
          "license": {
            "id": "MIT"
          }
        }
      ],
      "purl": "pkg:composer/doctrine/annotations@1.13.2",
      "externalReferences": [
        {
          "url": "https://github.com/doctrine/annotations.git",
          "type": "distribution",
          "comment": "As detected by composer's `getSourceUrls()` (type=git & reference=5b668aef16090008790395c02c893b1ba13f7e08)"
        },
        {
          "url": "https://api.github.com/repos/doctrine/annotations/zipball/5b668aef16090008790395c02c893b1ba13f7e08",
          "type": "distribution",
          "comment": "As detected by composer's `getDistUrls()` (type=zip & reference=5b668aef16090008790395c02c893b1ba13f7e08 & sha1=UNDEFINED)"
        },
        {
          "url": "https://www.doctrine-project.org/projects/annotations.html",
          "type": "website",
          "comment": "As set via `homepage` in composer package definition."
        },
        {
          "url": "https://github.com/doctrine/annotations/issues",
          "type": "issue-tracker",
          "comment": "As set via `support.issues` in composer package definition."
        },
        {
          "url": "https://github.com/doctrine/annotations/tree/1.13.2",
          "type": "distribution",
          "comment": "As set via `support.source` in composer package definition."
        }
      ]
    },
    {
      "type": "library",
      "bom-ref": "pkg:composer/doctrine/lexer@1.2.3",
      "group": "doctrine",
      "name": "lexer",
      "version": "1.2.3",
      "description": "PHP Doctrine Lexer parser library that can be used in Top-Down, Recursive Descent Parsers.",
      "licenses": [
        {
          "license": {
            "id": "MIT"
          }
        }
      ],
      "purl": "pkg:composer/doctrine/lexer@1.2.3",
      "externalReferences": [
        {
          "url": "https://github.com/doctrine/lexer.git",
          "type": "distribution",
          "comment": "As detected by composer's `getSourceUrls()` (type=git & reference=c268e882d4dbdd85e36e4ad69e02dc284f89d229)"
        },
        {
          "url": "https://api.github.com/repos/doctrine/lexer/zipball/c268e882d4dbdd85e36e4ad69e02dc284f89d229",
          "type": "distribution",
          "comment": "As detected by composer's `getDistUrls()` (type=zip & reference=c268e882d4dbdd85e36e4ad69e02dc284f89d229 & sha1=UNDEFINED)"
        },
        {
          "url": "https://www.doctrine-project.org/projects/lexer.html",
          "type": "website",
          "comment": "As set via `homepage` in composer package definition."
        },
        {
          "url": "https://github.com/doctrine/lexer/issues",
          "type": "issue-tracker",
          "comment": "As set via `support.issues` in composer package definition."
        },
        {
          "url": "https://github.com/doctrine/lexer/tree/1.2.3",
          "type": "distribution",
          "comment": "As set via `support.source` in composer package definition."
        },
        {
          "url": "https://www.doctrine-project.org/sponsorship.html",
          "type": "other",
          "comment": "As set via `funding` in composer package definition. (type=custom)"
        },
        {
          "url": "https://www.patreon.com/phpdoctrine",
          "type": "other",
          "comment": "As set via `funding` in composer package definition. (type=patreon)"
        },
        {
          "url": "https://tidelift.com/funding/github/packagist/doctrine%2Flexer",
          "type": "other",
          "comment": "As set via `funding` in composer package definition. (type=tidelift)"
        }
      ]
    },
    {
      "type": "library",
      "bom-ref": "pkg:composer/friendsofphp/php-cs-fixer@3.3.2",
      "group": "friendsofphp",
      "name": "php-cs-fixer",
      "version": "3.3.2",
      "description": "A tool to automatically fix PHP code style",
      "licenses": [
        {
          "license": {
            "id": "MIT"
          }
        }
      ],
      "purl": "pkg:composer/friendsofphp/php-cs-fixer@3.3.2",
      "externalReferences": [
        {
          "url": "https://github.com/FriendsOfPHP/PHP-CS-Fixer.git",
          "type": "distribution",
          "comment": "As detected by composer's `getSourceUrls()` (type=git & reference=06bdbdfcd619183dd7a1a6948360f8af73b9ecec)"
        },
        {
          "url": "https://api.github.com/repos/FriendsOfPHP/PHP-CS-Fixer/zipball/06bdbdfcd619183dd7a1a6948360f8af73b9ecec",
          "type": "distribution",
          "comment": "As detected by composer's `getDistUrls()` (type=zip & reference=06bdbdfcd619183dd7a1a6948360f8af73b9ecec & sha1=UNDEFINED)"
        },
        {
          "url": "https://github.com/FriendsOfPHP/PHP-CS-Fixer/issues",
          "type": "issue-tracker",
          "comment": "As set via `support.issues` in composer package definition."
        },
        {
          "url": "https://github.com/FriendsOfPHP/PHP-CS-Fixer/tree/v3.3.2",
          "type": "distribution",
          "comment": "As set via `support.source` in composer package definition."
        },
        {
          "url": "https://github.com/keradus",
          "type": "other",
          "comment": "As set via `funding` in composer package definition. (type=github)"
        }
      ]
    },
    {
      "type": "library",
      "bom-ref": "pkg:composer/package-url/packageurl-php@1.0.4",
      "group": "package-url",
      "name": "packageurl-php",
      "version": "1.0.4",
      "description": "A parser and builder based on the package url spec.",
      "licenses": [
        {
          "license": {
            "id": "MIT"
          }
        }
      ],
      "purl": "pkg:composer/package-url/packageurl-php@1.0.4",
      "externalReferences": [
        {
          "url": "https://github.com/package-url/packageurl-php.git",
          "type": "distribution",
          "comment": "As detected by composer's `getSourceUrls()` (type=git & reference=c45953babed516d27a0cf6c1a2d9f7e883ce214f)"
        },
        {
          "url": "https://api.github.com/repos/package-url/packageurl-php/zipball/c45953babed516d27a0cf6c1a2d9f7e883ce214f",
          "type": "distribution",
          "comment": "As detected by composer's `getDistUrls()` (type=zip & reference=c45953babed516d27a0cf6c1a2d9f7e883ce214f & sha1=UNDEFINED)"
        },
        {
          "url": "https://github.com/package-url/packageurl-php",
          "type": "website",
          "comment": "As set via `homepage` in composer package definition."
        },
        {
          "url": "https://github.com/package-url/packageurl-php/issues",
          "type": "issue-tracker",
          "comment": "As set via `support.issues` in composer package definition."
        },
        {
          "url": "https://github.com/package-url/packageurl-php/tree/1.0.4",
          "type": "distribution",
          "comment": "As set via `support.source` in composer package definition."
        }
      ]
    },
    {
      "type": "library",
      "bom-ref": "pkg:composer/php-cs-fixer/diff@2.0.2",
      "group": "php-cs-fixer",
      "name": "diff",
      "version": "2.0.2",
      "description": "sebastian/diff v3 backport support for PHP 5.6+",
      "licenses": [
        {
          "license": {
            "id": "BSD-3-Clause"
          }
        }
      ],
      "purl": "pkg:composer/php-cs-fixer/diff@2.0.2",
      "externalReferences": [
        {
          "url": "https://github.com/PHP-CS-Fixer/diff.git",
          "type": "distribution",
          "comment": "As detected by composer's `getSourceUrls()` (type=git & reference=29dc0d507e838c4580d018bd8b5cb412474f7ec3)"
        },
        {
          "url": "https://api.github.com/repos/PHP-CS-Fixer/diff/zipball/29dc0d507e838c4580d018bd8b5cb412474f7ec3",
          "type": "distribution",
          "comment": "As detected by composer's `getDistUrls()` (type=zip & reference=29dc0d507e838c4580d018bd8b5cb412474f7ec3 & sha1=UNDEFINED)"
        },
        {
          "url": "https://github.com/PHP-CS-Fixer",
          "type": "website",
          "comment": "As set via `homepage` in composer package definition."
        },
        {
          "url": "https://github.com/PHP-CS-Fixer/diff/issues",
          "type": "issue-tracker",
          "comment": "As set via `support.issues` in composer package definition."
        },
        {
          "url": "https://github.com/PHP-CS-Fixer/diff/tree/v2.0.2",
          "type": "distribution",
          "comment": "As set via `support.source` in composer package definition."
        }
      ]
    },
    {
      "type": "library",
      "bom-ref": "pkg:composer/phplang/scope-exit@1.0.0",
      "group": "phplang",
      "name": "scope-exit",
      "version": "1.0.0",
      "description": "Emulation of SCOPE_EXIT construct from C++",
      "licenses": [
        {
          "license": {
            "name": "BSD"
          }
        }
      ],
      "purl": "pkg:composer/phplang/scope-exit@1.0.0",
      "externalReferences": [
        {
          "url": "https://github.com/phplang/scope-exit.git",
          "type": "distribution",
          "comment": "As detected by composer's `getSourceUrls()` (type=git & reference=239b73abe89f9414aa85a7ca075ec9445629192b)"
        },
        {
          "url": "https://api.github.com/repos/phplang/scope-exit/zipball/239b73abe89f9414aa85a7ca075ec9445629192b",
          "type": "distribution",
          "comment": "As detected by composer's `getDistUrls()` (type=zip & reference=239b73abe89f9414aa85a7ca075ec9445629192b & sha1=UNDEFINED)"
        },
        {
          "url": "https://github.com/phplang/scope-exit",
          "type": "website",
          "comment": "As set via `homepage` in composer package definition."
        },
        {
          "url": "https://github.com/phplang/scope-exit/issues",
          "type": "issue-tracker",
          "comment": "As set via `support.issues` in composer package definition."
        },
        {
          "url": "https://github.com/phplang/scope-exit/tree/master",
          "type": "distribution",
          "comment": "As set via `support.source` in composer package definition."
        }
      ]
    },
    {
      "type": "library",
      "bom-ref": "pkg:composer/phpstan/phpstan@1.6.7",
      "group": "phpstan",
      "name": "phpstan",
      "version": "1.6.7",
      "description": "PHPStan - PHP Static Analysis Tool",
      "licenses": [
        {
          "license": {
            "id": "MIT"
          }
        }
      ],
      "purl": "pkg:composer/phpstan/phpstan@1.6.7",
      "externalReferences": [
        {
          "url": "https://github.com/phpstan/phpstan.git",
          "type": "distribution",
          "comment": "As detected by composer's `getSourceUrls()` (type=git & reference=d41c39cb2e487663bce9bbd97c660e244b73abad)"
        },
        {
          "url": "https://api.github.com/repos/phpstan/phpstan/zipball/d41c39cb2e487663bce9bbd97c660e244b73abad",
          "type": "distribution",
          "comment": "As detected by composer's `getDistUrls()` (type=zip & reference=d41c39cb2e487663bce9bbd97c660e244b73abad & sha1=UNDEFINED)"
        },
        {
          "url": "https://github.com/phpstan/phpstan/issues",
          "type": "issue-tracker",
          "comment": "As set via `support.issues` in composer package definition."
        },
        {
          "url": "https://github.com/phpstan/phpstan/tree/1.6.7",
          "type": "distribution",
          "comment": "As set via `support.source` in composer package definition."
        },
        {
          "url": "https://github.com/ondrejmirtes",
          "type": "other",
          "comment": "As set via `funding` in composer package definition. (type=github)"
        },
        {
          "url": "https://github.com/phpstan",
          "type": "other",
          "comment": "As set via `funding` in composer package definition. (type=github)"
        },
        {
          "url": "https://www.patreon.com/phpstan",
          "type": "other",
          "comment": "As set via `funding` in composer package definition. (type=patreon)"
        },
        {
          "url": "https://tidelift.com/funding/github/packagist/phpstan/phpstan",
          "type": "other",
          "comment": "As set via `funding` in composer package definition. (type=tidelift)"
        }
      ]
    },
    {
      "type": "library",
      "bom-ref": "pkg:composer/psr/cache@3.0.0",
      "group": "psr",
      "name": "cache",
      "version": "3.0.0",
      "description": "Common interface for caching libraries",
      "licenses": [
        {
          "license": {
            "id": "MIT"
          }
        }
      ],
      "purl": "pkg:composer/psr/cache@3.0.0",
      "externalReferences": [
        {
          "url": "https://github.com/php-fig/cache.git",
          "type": "distribution",
          "comment": "As detected by composer's `getSourceUrls()` (type=git & reference=aa5030cfa5405eccfdcb1083ce040c2cb8d253bf)"
        },
        {
          "url": "https://api.github.com/repos/php-fig/cache/zipball/aa5030cfa5405eccfdcb1083ce040c2cb8d253bf",
          "type": "distribution",
          "comment": "As detected by composer's `getDistUrls()` (type=zip & reference=aa5030cfa5405eccfdcb1083ce040c2cb8d253bf & sha1=UNDEFINED)"
        },
        {
          "url": "https://github.com/php-fig/cache/tree/3.0.0",
          "type": "distribution",
          "comment": "As set via `support.source` in composer package definition."
        }
      ]
    },
    {
      "type": "library",
      "bom-ref": "pkg:composer/psr/container@2.0.2",
      "group": "psr",
      "name": "container",
      "version": "2.0.2",
      "description": "Common Container Interface (PHP FIG PSR-11)",
      "licenses": [
        {
          "license": {
            "id": "MIT"
          }
        }
      ],
      "purl": "pkg:composer/psr/container@2.0.2",
      "externalReferences": [
        {
          "url": "https://github.com/php-fig/container.git",
          "type": "distribution",
          "comment": "As detected by composer's `getSourceUrls()` (type=git & reference=c71ecc56dfe541dbd90c5360474fbc405f8d5963)"
        },
        {
          "url": "https://api.github.com/repos/php-fig/container/zipball/c71ecc56dfe541dbd90c5360474fbc405f8d5963",
          "type": "distribution",
          "comment": "As detected by composer's `getDistUrls()` (type=zip & reference=c71ecc56dfe541dbd90c5360474fbc405f8d5963 & sha1=UNDEFINED)"
        },
        {
          "url": "https://github.com/php-fig/container",
          "type": "website",
          "comment": "As set via `homepage` in composer package definition."
        },
        {
          "url": "https://github.com/php-fig/container/issues",
          "type": "issue-tracker",
          "comment": "As set via `support.issues` in composer package definition."
        },
        {
          "url": "https://github.com/php-fig/container/tree/2.0.2",
          "type": "distribution",
          "comment": "As set via `support.source` in composer package definition."
        }
      ]
    },
    {
      "type": "library",
      "bom-ref": "pkg:composer/psr/event-dispatcher@1.0.0",
      "group": "psr",
      "name": "event-dispatcher",
      "version": "1.0.0",
      "description": "Standard interfaces for event handling.",
      "licenses": [
        {
          "license": {
            "id": "MIT"
          }
        }
      ],
      "purl": "pkg:composer/psr/event-dispatcher@1.0.0",
      "externalReferences": [
        {
          "url": "https://github.com/php-fig/event-dispatcher.git",
          "type": "distribution",
          "comment": "As detected by composer's `getSourceUrls()` (type=git & reference=dbefd12671e8a14ec7f180cab83036ed26714bb0)"
        },
        {
          "url": "https://api.github.com/repos/php-fig/event-dispatcher/zipball/dbefd12671e8a14ec7f180cab83036ed26714bb0",
          "type": "distribution",
          "comment": "As detected by composer's `getDistUrls()` (type=zip & reference=dbefd12671e8a14ec7f180cab83036ed26714bb0 & sha1=UNDEFINED)"
        },
        {
          "url": "https://github.com/php-fig/event-dispatcher/issues",
          "type": "issue-tracker",
          "comment": "As set via `support.issues` in composer package definition."
        },
        {
          "url": "https://github.com/php-fig/event-dispatcher/tree/1.0.0",
          "type": "distribution",
          "comment": "As set via `support.source` in composer package definition."
        }
      ]
    },
    {
      "type": "library",
      "bom-ref": "pkg:composer/swaggest/json-diff@3.8.3",
      "group": "swaggest",
      "name": "json-diff",
      "version": "3.8.3",
      "description": "JSON diff/rearrange/patch/pointer library for PHP",
      "licenses": [
        {
          "license": {
            "id": "MIT"
          }
        }
      ],
      "purl": "pkg:composer/swaggest/json-diff@3.8.3",
      "externalReferences": [
        {
          "url": "https://github.com/swaggest/json-diff.git",
          "type": "distribution",
          "comment": "As detected by composer's `getSourceUrls()` (type=git & reference=bb3e3b4e9d842bb2e48f31ea568d0459968d1d42)"
        },
        {
          "url": "https://api.github.com/repos/swaggest/json-diff/zipball/bb3e3b4e9d842bb2e48f31ea568d0459968d1d42",
          "type": "distribution",
          "comment": "As detected by composer's `getDistUrls()` (type=zip & reference=bb3e3b4e9d842bb2e48f31ea568d0459968d1d42 & sha1=UNDEFINED)"
        },
        {
          "url": "https://github.com/swaggest/json-diff/issues",
          "type": "issue-tracker",
          "comment": "As set via `support.issues` in composer package definition."
        },
        {
          "url": "https://github.com/swaggest/json-diff/tree/v3.8.3",
          "type": "distribution",
          "comment": "As set via `support.source` in composer package definition."
        }
      ]
    },
    {
      "type": "library",
      "bom-ref": "pkg:composer/swaggest/json-schema@0.12.39",
      "group": "swaggest",
      "name": "json-schema",
      "version": "0.12.39",
      "description": "High definition PHP structures with JSON-schema based validation",
      "licenses": [
        {
          "license": {
            "id": "MIT"
          }
        }
      ],
      "purl": "pkg:composer/swaggest/json-schema@0.12.39",
      "externalReferences": [
        {
          "url": "https://github.com/swaggest/php-json-schema.git",
          "type": "distribution",
          "comment": "As detected by composer's `getSourceUrls()` (type=git & reference=193ba39cce1ffa2d55ddd5445315e945a63298a2)"
        },
        {
          "url": "https://api.github.com/repos/swaggest/php-json-schema/zipball/193ba39cce1ffa2d55ddd5445315e945a63298a2",
          "type": "distribution",
          "comment": "As detected by composer's `getDistUrls()` (type=zip & reference=193ba39cce1ffa2d55ddd5445315e945a63298a2 & sha1=UNDEFINED)"
        },
        {
          "url": "mailto:vearutop@gmail.com",
          "type": "other",
          "comment": "As set via `support.email` in composer package definition."
        },
        {
          "url": "https://github.com/swaggest/php-json-schema/issues",
          "type": "issue-tracker",
          "comment": "As set via `support.issues` in composer package definition."
        },
        {
          "url": "https://github.com/swaggest/php-json-schema/tree/v0.12.39",
          "type": "distribution",
          "comment": "As set via `support.source` in composer package definition."
        }
      ]
    },
    {
      "type": "library",
      "bom-ref": "pkg:composer/symfony/console@5.4.8",
      "group": "symfony",
      "name": "console",
      "version": "5.4.8",
      "description": "Eases the creation of beautiful and testable command line interfaces",
      "licenses": [
        {
          "license": {
            "id": "MIT"
          }
        }
      ],
      "purl": "pkg:composer/symfony/console@5.4.8",
      "externalReferences": [
        {
          "url": "https://github.com/symfony/console.git",
          "type": "distribution",
          "comment": "As detected by composer's `getSourceUrls()` (type=git & reference=ffe3aed36c4d60da2cf1b0a1cee6b8f2e5fa881b)"
        },
        {
          "url": "https://api.github.com/repos/symfony/console/zipball/ffe3aed36c4d60da2cf1b0a1cee6b8f2e5fa881b",
          "type": "distribution",
          "comment": "As detected by composer's `getDistUrls()` (type=zip & reference=ffe3aed36c4d60da2cf1b0a1cee6b8f2e5fa881b & sha1=UNDEFINED)"
        },
        {
          "url": "https://symfony.com",
          "type": "website",
          "comment": "As set via `homepage` in composer package definition."
        },
        {
          "url": "https://github.com/symfony/console/tree/v5.4.8",
          "type": "distribution",
          "comment": "As set via `support.source` in composer package definition."
        },
        {
          "url": "https://symfony.com/sponsor",
          "type": "other",
          "comment": "As set via `funding` in composer package definition. (type=custom)"
        },
        {
          "url": "https://github.com/fabpot",
          "type": "other",
          "comment": "As set via `funding` in composer package definition. (type=github)"
        },
        {
          "url": "https://tidelift.com/funding/github/packagist/symfony/symfony",
          "type": "other",
          "comment": "As set via `funding` in composer package definition. (type=tidelift)"
        }
      ]
    },
    {
      "type": "library",
      "bom-ref": "pkg:composer/symfony/deprecation-contracts@3.0.1",
      "group": "symfony",
      "name": "deprecation-contracts",
      "version": "3.0.1",
      "description": "A generic function and convention to trigger deprecation notices",
      "licenses": [
        {
          "license": {
            "id": "MIT"
          }
        }
      ],
      "purl": "pkg:composer/symfony/deprecation-contracts@3.0.1",
      "externalReferences": [
        {
          "url": "https://github.com/symfony/deprecation-contracts.git",
          "type": "distribution",
          "comment": "As detected by composer's `getSourceUrls()` (type=git & reference=26954b3d62a6c5fd0ea8a2a00c0353a14978d05c)"
        },
        {
          "url": "https://api.github.com/repos/symfony/deprecation-contracts/zipball/26954b3d62a6c5fd0ea8a2a00c0353a14978d05c",
          "type": "distribution",
          "comment": "As detected by composer's `getDistUrls()` (type=zip & reference=26954b3d62a6c5fd0ea8a2a00c0353a14978d05c & sha1=UNDEFINED)"
        },
        {
          "url": "https://symfony.com",
          "type": "website",
          "comment": "As set via `homepage` in composer package definition."
        },
        {
          "url": "https://github.com/symfony/deprecation-contracts/tree/v3.0.1",
          "type": "distribution",
          "comment": "As set via `support.source` in composer package definition."
        },
        {
          "url": "https://symfony.com/sponsor",
          "type": "other",
          "comment": "As set via `funding` in composer package definition. (type=custom)"
        },
        {
          "url": "https://github.com/fabpot",
          "type": "other",
          "comment": "As set via `funding` in composer package definition. (type=github)"
        },
        {
          "url": "https://tidelift.com/funding/github/packagist/symfony/symfony",
          "type": "other",
          "comment": "As set via `funding` in composer package definition. (type=tidelift)"
        }
      ]
    },
    {
      "type": "library",
      "bom-ref": "pkg:composer/symfony/event-dispatcher@5.4.3",
      "group": "symfony",
      "name": "event-dispatcher",
      "version": "5.4.3",
      "description": "Provides tools that allow your application components to communicate with each other by dispatching events and listening to them",
      "licenses": [
        {
          "license": {
            "id": "MIT"
          }
        }
      ],
      "purl": "pkg:composer/symfony/event-dispatcher@5.4.3",
      "externalReferences": [
        {
          "url": "https://github.com/symfony/event-dispatcher.git",
          "type": "distribution",
          "comment": "As detected by composer's `getSourceUrls()` (type=git & reference=dec8a9f58d20df252b9cd89f1c6c1530f747685d)"
        },
        {
          "url": "https://api.github.com/repos/symfony/event-dispatcher/zipball/dec8a9f58d20df252b9cd89f1c6c1530f747685d",
          "type": "distribution",
          "comment": "As detected by composer's `getDistUrls()` (type=zip & reference=dec8a9f58d20df252b9cd89f1c6c1530f747685d & sha1=UNDEFINED)"
        },
        {
          "url": "https://symfony.com",
          "type": "website",
          "comment": "As set via `homepage` in composer package definition."
        },
        {
          "url": "https://github.com/symfony/event-dispatcher/tree/v5.4.3",
          "type": "distribution",
          "comment": "As set via `support.source` in composer package definition."
        },
        {
          "url": "https://symfony.com/sponsor",
          "type": "other",
          "comment": "As set via `funding` in composer package definition. (type=custom)"
        },
        {
          "url": "https://github.com/fabpot",
          "type": "other",
          "comment": "As set via `funding` in composer package definition. (type=github)"
        },
        {
          "url": "https://tidelift.com/funding/github/packagist/symfony/symfony",
          "type": "other",
          "comment": "As set via `funding` in composer package definition. (type=tidelift)"
        }
      ]
    },
    {
      "type": "library",
      "bom-ref": "pkg:composer/symfony/event-dispatcher-contracts@3.0.1",
      "group": "symfony",
      "name": "event-dispatcher-contracts",
      "version": "3.0.1",
      "description": "Generic abstractions related to dispatching event",
      "licenses": [
        {
          "license": {
            "id": "MIT"
          }
        }
      ],
      "purl": "pkg:composer/symfony/event-dispatcher-contracts@3.0.1",
      "externalReferences": [
        {
          "url": "https://github.com/symfony/event-dispatcher-contracts.git",
          "type": "distribution",
          "comment": "As detected by composer's `getSourceUrls()` (type=git & reference=7bc61cc2db649b4637d331240c5346dcc7708051)"
        },
        {
          "url": "https://api.github.com/repos/symfony/event-dispatcher-contracts/zipball/7bc61cc2db649b4637d331240c5346dcc7708051",
          "type": "distribution",
          "comment": "As detected by composer's `getDistUrls()` (type=zip & reference=7bc61cc2db649b4637d331240c5346dcc7708051 & sha1=UNDEFINED)"
        },
        {
          "url": "https://symfony.com",
          "type": "website",
          "comment": "As set via `homepage` in composer package definition."
        },
        {
          "url": "https://github.com/symfony/event-dispatcher-contracts/tree/v3.0.1",
          "type": "distribution",
          "comment": "As set via `support.source` in composer package definition."
        },
        {
          "url": "https://symfony.com/sponsor",
          "type": "other",
          "comment": "As set via `funding` in composer package definition. (type=custom)"
        },
        {
          "url": "https://github.com/fabpot",
          "type": "other",
          "comment": "As set via `funding` in composer package definition. (type=github)"
        },
        {
          "url": "https://tidelift.com/funding/github/packagist/symfony/symfony",
          "type": "other",
          "comment": "As set via `funding` in composer package definition. (type=tidelift)"
        }
      ]
    },
    {
      "type": "library",
      "bom-ref": "pkg:composer/symfony/filesystem@5.4.7",
      "group": "symfony",
      "name": "filesystem",
      "version": "5.4.7",
      "description": "Provides basic utilities for the filesystem",
      "licenses": [
        {
          "license": {
            "id": "MIT"
          }
        }
      ],
      "purl": "pkg:composer/symfony/filesystem@5.4.7",
      "externalReferences": [
        {
          "url": "https://github.com/symfony/filesystem.git",
          "type": "distribution",
          "comment": "As detected by composer's `getSourceUrls()` (type=git & reference=3a4442138d80c9f7b600fb297534ac718b61d37f)"
        },
        {
          "url": "https://api.github.com/repos/symfony/filesystem/zipball/3a4442138d80c9f7b600fb297534ac718b61d37f",
          "type": "distribution",
          "comment": "As detected by composer's `getDistUrls()` (type=zip & reference=3a4442138d80c9f7b600fb297534ac718b61d37f & sha1=UNDEFINED)"
        },
        {
          "url": "https://symfony.com",
          "type": "website",
          "comment": "As set via `homepage` in composer package definition."
        },
        {
          "url": "https://github.com/symfony/filesystem/tree/v5.4.7",
          "type": "distribution",
          "comment": "As set via `support.source` in composer package definition."
        },
        {
          "url": "https://symfony.com/sponsor",
          "type": "other",
          "comment": "As set via `funding` in composer package definition. (type=custom)"
        },
        {
          "url": "https://github.com/fabpot",
          "type": "other",
          "comment": "As set via `funding` in composer package definition. (type=github)"
        },
        {
          "url": "https://tidelift.com/funding/github/packagist/symfony/symfony",
          "type": "other",
          "comment": "As set via `funding` in composer package definition. (type=tidelift)"
        }
      ]
    },
    {
      "type": "library",
      "bom-ref": "pkg:composer/symfony/finder@5.4.8",
      "group": "symfony",
      "name": "finder",
      "version": "5.4.8",
      "description": "Finds files and directories via an intuitive fluent interface",
      "licenses": [
        {
          "license": {
            "id": "MIT"
          }
        }
      ],
      "purl": "pkg:composer/symfony/finder@5.4.8",
      "externalReferences": [
        {
          "url": "https://github.com/symfony/finder.git",
          "type": "distribution",
          "comment": "As detected by composer's `getSourceUrls()` (type=git & reference=9b630f3427f3ebe7cd346c277a1408b00249dad9)"
        },
        {
          "url": "https://api.github.com/repos/symfony/finder/zipball/9b630f3427f3ebe7cd346c277a1408b00249dad9",
          "type": "distribution",
          "comment": "As detected by composer's `getDistUrls()` (type=zip & reference=9b630f3427f3ebe7cd346c277a1408b00249dad9 & sha1=UNDEFINED)"
        },
        {
          "url": "https://symfony.com",
          "type": "website",
          "comment": "As set via `homepage` in composer package definition."
        },
        {
          "url": "https://github.com/symfony/finder/tree/v5.4.8",
          "type": "distribution",
          "comment": "As set via `support.source` in composer package definition."
        },
        {
          "url": "https://symfony.com/sponsor",
          "type": "other",
          "comment": "As set via `funding` in composer package definition. (type=custom)"
        },
        {
          "url": "https://github.com/fabpot",
          "type": "other",
          "comment": "As set via `funding` in composer package definition. (type=github)"
        },
        {
          "url": "https://tidelift.com/funding/github/packagist/symfony/symfony",
          "type": "other",
          "comment": "As set via `funding` in composer package definition. (type=tidelift)"
        }
      ]
    },
    {
      "type": "library",
      "bom-ref": "pkg:composer/symfony/options-resolver@5.4.3",
      "group": "symfony",
      "name": "options-resolver",
      "version": "5.4.3",
      "description": "Provides an improved replacement for the array_replace PHP function",
      "licenses": [
        {
          "license": {
            "id": "MIT"
          }
        }
      ],
      "purl": "pkg:composer/symfony/options-resolver@5.4.3",
      "externalReferences": [
        {
          "url": "https://github.com/symfony/options-resolver.git",
          "type": "distribution",
          "comment": "As detected by composer's `getSourceUrls()` (type=git & reference=cc1147cb11af1b43f503ac18f31aa3bec213aba8)"
        },
        {
          "url": "https://api.github.com/repos/symfony/options-resolver/zipball/cc1147cb11af1b43f503ac18f31aa3bec213aba8",
          "type": "distribution",
          "comment": "As detected by composer's `getDistUrls()` (type=zip & reference=cc1147cb11af1b43f503ac18f31aa3bec213aba8 & sha1=UNDEFINED)"
        },
        {
          "url": "https://symfony.com",
          "type": "website",
          "comment": "As set via `homepage` in composer package definition."
        },
        {
          "url": "https://github.com/symfony/options-resolver/tree/v5.4.3",
          "type": "distribution",
          "comment": "As set via `support.source` in composer package definition."
        },
        {
          "url": "https://symfony.com/sponsor",
          "type": "other",
          "comment": "As set via `funding` in composer package definition. (type=custom)"
        },
        {
          "url": "https://github.com/fabpot",
          "type": "other",
          "comment": "As set via `funding` in composer package definition. (type=github)"
        },
        {
          "url": "https://tidelift.com/funding/github/packagist/symfony/symfony",
          "type": "other",
          "comment": "As set via `funding` in composer package definition. (type=tidelift)"
        }
      ]
    },
    {
      "type": "library",
      "bom-ref": "pkg:composer/symfony/polyfill-intl-grapheme@1.25.0",
      "group": "symfony",
      "name": "polyfill-intl-grapheme",
      "version": "1.25.0",
      "description": "Symfony polyfill for intl's grapheme_* functions",
      "licenses": [
        {
          "license": {
            "id": "MIT"
          }
        }
      ],
      "purl": "pkg:composer/symfony/polyfill-intl-grapheme@1.25.0",
      "externalReferences": [
        {
          "url": "https://github.com/symfony/polyfill-intl-grapheme.git",
          "type": "distribution",
          "comment": "As detected by composer's `getSourceUrls()` (type=git & reference=81b86b50cf841a64252b439e738e97f4a34e2783)"
        },
        {
          "url": "https://api.github.com/repos/symfony/polyfill-intl-grapheme/zipball/81b86b50cf841a64252b439e738e97f4a34e2783",
          "type": "distribution",
          "comment": "As detected by composer's `getDistUrls()` (type=zip & reference=81b86b50cf841a64252b439e738e97f4a34e2783 & sha1=UNDEFINED)"
        },
        {
          "url": "https://symfony.com",
          "type": "website",
          "comment": "As set via `homepage` in composer package definition."
        },
        {
          "url": "https://github.com/symfony/polyfill-intl-grapheme/tree/v1.25.0",
          "type": "distribution",
          "comment": "As set via `support.source` in composer package definition."
        },
        {
          "url": "https://symfony.com/sponsor",
          "type": "other",
          "comment": "As set via `funding` in composer package definition. (type=custom)"
        },
        {
          "url": "https://github.com/fabpot",
          "type": "other",
          "comment": "As set via `funding` in composer package definition. (type=github)"
        },
        {
          "url": "https://tidelift.com/funding/github/packagist/symfony/symfony",
          "type": "other",
          "comment": "As set via `funding` in composer package definition. (type=tidelift)"
        }
      ]
    },
    {
      "type": "library",
      "bom-ref": "pkg:composer/symfony/polyfill-intl-normalizer@1.25.0",
      "group": "symfony",
      "name": "polyfill-intl-normalizer",
      "version": "1.25.0",
      "description": "Symfony polyfill for intl's Normalizer class and related functions",
      "licenses": [
        {
          "license": {
            "id": "MIT"
          }
        }
      ],
      "purl": "pkg:composer/symfony/polyfill-intl-normalizer@1.25.0",
      "externalReferences": [
        {
          "url": "https://github.com/symfony/polyfill-intl-normalizer.git",
          "type": "distribution",
          "comment": "As detected by composer's `getSourceUrls()` (type=git & reference=8590a5f561694770bdcd3f9b5c69dde6945028e8)"
        },
        {
          "url": "https://api.github.com/repos/symfony/polyfill-intl-normalizer/zipball/8590a5f561694770bdcd3f9b5c69dde6945028e8",
          "type": "distribution",
          "comment": "As detected by composer's `getDistUrls()` (type=zip & reference=8590a5f561694770bdcd3f9b5c69dde6945028e8 & sha1=UNDEFINED)"
        },
        {
          "url": "https://symfony.com",
          "type": "website",
          "comment": "As set via `homepage` in composer package definition."
        },
        {
          "url": "https://github.com/symfony/polyfill-intl-normalizer/tree/v1.25.0",
          "type": "distribution",
          "comment": "As set via `support.source` in composer package definition."
        },
        {
          "url": "https://symfony.com/sponsor",
          "type": "other",
          "comment": "As set via `funding` in composer package definition. (type=custom)"
        },
        {
          "url": "https://github.com/fabpot",
          "type": "other",
          "comment": "As set via `funding` in composer package definition. (type=github)"
        },
        {
          "url": "https://tidelift.com/funding/github/packagist/symfony/symfony",
          "type": "other",
          "comment": "As set via `funding` in composer package definition. (type=tidelift)"
        }
      ]
    },
    {
      "type": "library",
      "bom-ref": "pkg:composer/symfony/polyfill-php73@1.25.0",
      "group": "symfony",
      "name": "polyfill-php73",
      "version": "1.25.0",
      "description": "Symfony polyfill backporting some PHP 7.3+ features to lower PHP versions",
      "licenses": [
        {
          "license": {
            "id": "MIT"
          }
        }
      ],
      "purl": "pkg:composer/symfony/polyfill-php73@1.25.0",
      "externalReferences": [
        {
          "url": "https://github.com/symfony/polyfill-php73.git",
          "type": "distribution",
          "comment": "As detected by composer's `getSourceUrls()` (type=git & reference=cc5db0e22b3cb4111010e48785a97f670b350ca5)"
        },
        {
          "url": "https://api.github.com/repos/symfony/polyfill-php73/zipball/cc5db0e22b3cb4111010e48785a97f670b350ca5",
          "type": "distribution",
          "comment": "As detected by composer's `getDistUrls()` (type=zip & reference=cc5db0e22b3cb4111010e48785a97f670b350ca5 & sha1=UNDEFINED)"
        },
        {
          "url": "https://symfony.com",
          "type": "website",
          "comment": "As set via `homepage` in composer package definition."
        },
        {
          "url": "https://github.com/symfony/polyfill-php73/tree/v1.25.0",
          "type": "distribution",
          "comment": "As set via `support.source` in composer package definition."
        },
        {
          "url": "https://symfony.com/sponsor",
          "type": "other",
          "comment": "As set via `funding` in composer package definition. (type=custom)"
        },
        {
          "url": "https://github.com/fabpot",
          "type": "other",
          "comment": "As set via `funding` in composer package definition. (type=github)"
        },
        {
          "url": "https://tidelift.com/funding/github/packagist/symfony/symfony",
          "type": "other",
          "comment": "As set via `funding` in composer package definition. (type=tidelift)"
        }
      ]
    },
    {
      "type": "library",
      "bom-ref": "pkg:composer/symfony/polyfill-php80@1.25.0",
      "group": "symfony",
      "name": "polyfill-php80",
      "version": "1.25.0",
      "description": "Symfony polyfill backporting some PHP 8.0+ features to lower PHP versions",
      "licenses": [
        {
          "license": {
            "id": "MIT"
          }
        }
      ],
      "purl": "pkg:composer/symfony/polyfill-php80@1.25.0",
      "externalReferences": [
        {
          "url": "https://github.com/symfony/polyfill-php80.git",
          "type": "distribution",
          "comment": "As detected by composer's `getSourceUrls()` (type=git & reference=4407588e0d3f1f52efb65fbe92babe41f37fe50c)"
        },
        {
          "url": "https://api.github.com/repos/symfony/polyfill-php80/zipball/4407588e0d3f1f52efb65fbe92babe41f37fe50c",
          "type": "distribution",
          "comment": "As detected by composer's `getDistUrls()` (type=zip & reference=4407588e0d3f1f52efb65fbe92babe41f37fe50c & sha1=UNDEFINED)"
        },
        {
          "url": "https://symfony.com",
          "type": "website",
          "comment": "As set via `homepage` in composer package definition."
        },
        {
          "url": "https://github.com/symfony/polyfill-php80/tree/v1.25.0",
          "type": "distribution",
          "comment": "As set via `support.source` in composer package definition."
        },
        {
          "url": "https://symfony.com/sponsor",
          "type": "other",
          "comment": "As set via `funding` in composer package definition. (type=custom)"
        },
        {
          "url": "https://github.com/fabpot",
          "type": "other",
          "comment": "As set via `funding` in composer package definition. (type=github)"
        },
        {
          "url": "https://tidelift.com/funding/github/packagist/symfony/symfony",
          "type": "other",
          "comment": "As set via `funding` in composer package definition. (type=tidelift)"
        }
      ]
    },
    {
      "type": "library",
      "bom-ref": "pkg:composer/symfony/polyfill-php81@1.25.0",
      "group": "symfony",
      "name": "polyfill-php81",
      "version": "1.25.0",
      "description": "Symfony polyfill backporting some PHP 8.1+ features to lower PHP versions",
      "licenses": [
        {
          "license": {
            "id": "MIT"
          }
        }
      ],
      "purl": "pkg:composer/symfony/polyfill-php81@1.25.0",
      "externalReferences": [
        {
          "url": "https://github.com/symfony/polyfill-php81.git",
          "type": "distribution",
          "comment": "As detected by composer's `getSourceUrls()` (type=git & reference=5de4ba2d41b15f9bd0e19b2ab9674135813ec98f)"
        },
        {
          "url": "https://api.github.com/repos/symfony/polyfill-php81/zipball/5de4ba2d41b15f9bd0e19b2ab9674135813ec98f",
          "type": "distribution",
          "comment": "As detected by composer's `getDistUrls()` (type=zip & reference=5de4ba2d41b15f9bd0e19b2ab9674135813ec98f & sha1=UNDEFINED)"
        },
        {
          "url": "https://symfony.com",
          "type": "website",
          "comment": "As set via `homepage` in composer package definition."
        },
        {
          "url": "https://github.com/symfony/polyfill-php81/tree/v1.25.0",
          "type": "distribution",
          "comment": "As set via `support.source` in composer package definition."
        },
        {
          "url": "https://symfony.com/sponsor",
          "type": "other",
          "comment": "As set via `funding` in composer package definition. (type=custom)"
        },
        {
          "url": "https://github.com/fabpot",
          "type": "other",
          "comment": "As set via `funding` in composer package definition. (type=github)"
        },
        {
          "url": "https://tidelift.com/funding/github/packagist/symfony/symfony",
          "type": "other",
          "comment": "As set via `funding` in composer package definition. (type=tidelift)"
        }
      ]
    },
    {
      "type": "library",
      "bom-ref": "pkg:composer/symfony/process@5.4.8",
      "group": "symfony",
      "name": "process",
      "version": "5.4.8",
      "description": "Executes commands in sub-processes",
      "licenses": [
        {
          "license": {
            "id": "MIT"
          }
        }
      ],
      "purl": "pkg:composer/symfony/process@5.4.8",
      "externalReferences": [
        {
          "url": "https://github.com/symfony/process.git",
          "type": "distribution",
          "comment": "As detected by composer's `getSourceUrls()` (type=git & reference=597f3fff8e3e91836bb0bd38f5718b56ddbde2f3)"
        },
        {
          "url": "https://api.github.com/repos/symfony/process/zipball/597f3fff8e3e91836bb0bd38f5718b56ddbde2f3",
          "type": "distribution",
          "comment": "As detected by composer's `getDistUrls()` (type=zip & reference=597f3fff8e3e91836bb0bd38f5718b56ddbde2f3 & sha1=UNDEFINED)"
        },
        {
          "url": "https://symfony.com",
          "type": "website",
          "comment": "As set via `homepage` in composer package definition."
        },
        {
          "url": "https://github.com/symfony/process/tree/v5.4.8",
          "type": "distribution",
          "comment": "As set via `support.source` in composer package definition."
        },
        {
          "url": "https://symfony.com/sponsor",
          "type": "other",
          "comment": "As set via `funding` in composer package definition. (type=custom)"
        },
        {
          "url": "https://github.com/fabpot",
          "type": "other",
          "comment": "As set via `funding` in composer package definition. (type=github)"
        },
        {
          "url": "https://tidelift.com/funding/github/packagist/symfony/symfony",
          "type": "other",
          "comment": "As set via `funding` in composer package definition. (type=tidelift)"
        }
      ]
    },
    {
      "type": "library",
      "bom-ref": "pkg:composer/symfony/service-contracts@3.0.1",
      "group": "symfony",
      "name": "service-contracts",
      "version": "3.0.1",
      "description": "Generic abstractions related to writing services",
      "licenses": [
        {
          "license": {
            "id": "MIT"
          }
        }
      ],
      "purl": "pkg:composer/symfony/service-contracts@3.0.1",
      "externalReferences": [
        {
          "url": "https://github.com/symfony/service-contracts.git",
          "type": "distribution",
          "comment": "As detected by composer's `getSourceUrls()` (type=git & reference=e517458f278c2131ca9f262f8fbaf01410f2c65c)"
        },
        {
          "url": "https://api.github.com/repos/symfony/service-contracts/zipball/e517458f278c2131ca9f262f8fbaf01410f2c65c",
          "type": "distribution",
          "comment": "As detected by composer's `getDistUrls()` (type=zip & reference=e517458f278c2131ca9f262f8fbaf01410f2c65c & sha1=UNDEFINED)"
        },
        {
          "url": "https://symfony.com",
          "type": "website",
          "comment": "As set via `homepage` in composer package definition."
        },
        {
          "url": "https://github.com/symfony/service-contracts/tree/v3.0.1",
          "type": "distribution",
          "comment": "As set via `support.source` in composer package definition."
        },
        {
          "url": "https://symfony.com/sponsor",
          "type": "other",
          "comment": "As set via `funding` in composer package definition. (type=custom)"
        },
        {
          "url": "https://github.com/fabpot",
          "type": "other",
          "comment": "As set via `funding` in composer package definition. (type=github)"
        },
        {
          "url": "https://tidelift.com/funding/github/packagist/symfony/symfony",
          "type": "other",
          "comment": "As set via `funding` in composer package definition. (type=tidelift)"
        }
      ]
    },
    {
      "type": "library",
      "bom-ref": "pkg:composer/symfony/stopwatch@5.4.5",
      "group": "symfony",
      "name": "stopwatch",
      "version": "5.4.5",
      "description": "Provides a way to profile code",
      "licenses": [
        {
          "license": {
            "id": "MIT"
          }
        }
      ],
      "purl": "pkg:composer/symfony/stopwatch@5.4.5",
      "externalReferences": [
        {
          "url": "https://github.com/symfony/stopwatch.git",
          "type": "distribution",
          "comment": "As detected by composer's `getSourceUrls()` (type=git & reference=4d04b5c24f3c9a1a168a131f6cbe297155bc0d30)"
        },
        {
          "url": "https://api.github.com/repos/symfony/stopwatch/zipball/4d04b5c24f3c9a1a168a131f6cbe297155bc0d30",
          "type": "distribution",
          "comment": "As detected by composer's `getDistUrls()` (type=zip & reference=4d04b5c24f3c9a1a168a131f6cbe297155bc0d30 & sha1=UNDEFINED)"
        },
        {
          "url": "https://symfony.com",
          "type": "website",
          "comment": "As set via `homepage` in composer package definition."
        },
        {
          "url": "https://github.com/symfony/stopwatch/tree/v5.4.5",
          "type": "distribution",
          "comment": "As set via `support.source` in composer package definition."
        },
        {
          "url": "https://symfony.com/sponsor",
          "type": "other",
          "comment": "As set via `funding` in composer package definition. (type=custom)"
        },
        {
          "url": "https://github.com/fabpot",
          "type": "other",
          "comment": "As set via `funding` in composer package definition. (type=github)"
        },
        {
          "url": "https://tidelift.com/funding/github/packagist/symfony/symfony",
          "type": "other",
          "comment": "As set via `funding` in composer package definition. (type=tidelift)"
        }
      ]
    },
    {
      "type": "library",
      "bom-ref": "pkg:composer/symfony/string@6.0.8",
      "group": "symfony",
      "name": "string",
      "version": "6.0.8",
      "description": "Provides an object-oriented API to strings and deals with bytes, UTF-8 code points and grapheme clusters in a unified way",
      "licenses": [
        {
          "license": {
            "id": "MIT"
          }
        }
      ],
      "purl": "pkg:composer/symfony/string@6.0.8",
      "externalReferences": [
        {
          "url": "https://github.com/symfony/string.git",
          "type": "distribution",
          "comment": "As detected by composer's `getSourceUrls()` (type=git & reference=ac0aa5c2282e0de624c175b68d13f2c8f2e2649d)"
        },
        {
          "url": "https://api.github.com/repos/symfony/string/zipball/ac0aa5c2282e0de624c175b68d13f2c8f2e2649d",
          "type": "distribution",
          "comment": "As detected by composer's `getDistUrls()` (type=zip & reference=ac0aa5c2282e0de624c175b68d13f2c8f2e2649d & sha1=UNDEFINED)"
        },
        {
          "url": "https://symfony.com",
          "type": "website",
          "comment": "As set via `homepage` in composer package definition."
        },
        {
          "url": "https://github.com/symfony/string/tree/v6.0.8",
          "type": "distribution",
          "comment": "As set via `support.source` in composer package definition."
        },
        {
          "url": "https://symfony.com/sponsor",
          "type": "other",
          "comment": "As set via `funding` in composer package definition. (type=custom)"
        },
        {
          "url": "https://github.com/fabpot",
          "type": "other",
          "comment": "As set via `funding` in composer package definition. (type=github)"
        },
        {
          "url": "https://tidelift.com/funding/github/packagist/symfony/symfony",
          "type": "other",
          "comment": "As set via `funding` in composer package definition. (type=tidelift)"
        }
      ]
    },
    {
      "type": "library",
      "bom-ref": "pkg:composer/symfony/polyfill-mbstring@1.19.0",
      "group": "symfony",
      "name": "polyfill-mbstring",
      "version": "1.19.0",
      "description": "Symfony polyfill for the Mbstring extension",
      "licenses": [
        {
          "license": {
            "id": "MIT",
            "url": "https://opensource.org/licenses/MIT"
          }
        }
      ],
      "purl": "pkg:composer/symfony/polyfill-mbstring@1.19.0",
      "externalReferences": [
        {
          "url": "https://github.com/symfony/polyfill-mbstring.git",
          "type": "vcs"
        }
      ]
    }
  ],
  "dependencies": [
    {
      "ref": "pkg:composer/psr/log@1.1.4"
    },
    {
      "ref": "pkg:composer/sabre/dav@4.3.1",
      "dependsOn": [
        "pkg:composer/psr/log@1.1.4",
        "pkg:composer/sabre/event@5.1.4",
        "pkg:composer/sabre/http@5.1.3",
        "pkg:composer/sabre/uri@2.2.2",
        "pkg:composer/sabre/vobject@4.4.1",
        "pkg:composer/sabre/xml@2.2.5"
      ]
    },
    {
      "ref": "pkg:composer/sabre/event@5.1.4"
    },
    {
      "ref": "pkg:composer/sabre/http@5.1.3",
      "dependsOn": [
        "pkg:composer/sabre/event@5.1.4",
        "pkg:composer/sabre/uri@2.2.2"
      ]
    },
    {
      "ref": "pkg:composer/sabre/uri@2.2.2"
    },
    {
      "ref": "pkg:composer/sabre/vobject@4.4.1",
      "dependsOn": [
        "pkg:composer/sabre/xml@2.2.5"
      ]
    },
    {
      "ref": "pkg:composer/sabre/xml@2.2.5",
      "dependsOn": [
        "pkg:composer/sabre/uri@2.2.2"
      ]
    },
    {
      "ref": "pkg:composer/symfony/polyfill-ctype@1.25.0"
    },
    {
      "ref": "pkg:composer/symfony/polyfill-mbstring@1.25.0"
    },
    {
      "ref": "pkg:composer/symfony/polyfill-php72@1.25.0"
    },
    {
      "ref": "pkg:composer/symfony/yaml@3.4.47",
      "dependsOn": [
        "pkg:composer/symfony/polyfill-ctype@1.25.0"
      ]
    },
    {
      "ref": "pkg:composer/twig/twig@2.14.13",
      "dependsOn": [
        "pkg:composer/symfony/polyfill-ctype@1.25.0",
        "pkg:composer/symfony/polyfill-mbstring@1.25.0",
        "pkg:composer/symfony/polyfill-php72@1.25.0"
      ]
    },
    {
      "ref": "pkg:composer/composer/pcre@1.0.1"
    },
    {
      "ref": "pkg:composer/composer/semver@3.3.2"
    },
    {
      "ref": "pkg:composer/composer/xdebug-handler@2.0.5",
      "dependsOn": [
        "pkg:composer/composer/pcre@1.0.1",
        "pkg:composer/psr/log@1.1.4"
      ]
    },
    {
      "ref": "pkg:composer/cyclonedx/cyclonedx-library@1.5.0",
      "dependsOn": [
        "pkg:composer/package-url/packageurl-php@1.0.4",
        "pkg:composer/swaggest/json-schema@0.12.39"
      ]
    },
    {
      "ref": "pkg:composer/cyclonedx/cyclonedx-php-composer@3.10.0",
      "dependsOn": [
        "pkg:composer/cyclonedx/cyclonedx-library@1.5.0",
        "pkg:composer/package-url/packageurl-php@1.0.4"
      ]
    },
    {
      "ref": "pkg:composer/doctrine/annotations@1.13.2",
      "dependsOn": [
        "pkg:composer/doctrine/lexer@1.2.3",
        "pkg:composer/psr/cache@3.0.0"
      ]
    },
    {
      "ref": "pkg:composer/doctrine/lexer@1.2.3"
    },
    {
      "ref": "pkg:composer/friendsofphp/php-cs-fixer@3.3.2",
      "dependsOn": [
        "pkg:composer/composer/semver@3.3.2",
        "pkg:composer/composer/xdebug-handler@2.0.5",
        "pkg:composer/doctrine/annotations@1.13.2",
        "pkg:composer/php-cs-fixer/diff@2.0.2",
        "pkg:composer/symfony/console@5.4.8",
        "pkg:composer/symfony/event-dispatcher@5.4.3",
        "pkg:composer/symfony/filesystem@5.4.7",
        "pkg:composer/symfony/finder@5.4.8",
        "pkg:composer/symfony/options-resolver@5.4.3",
        "pkg:composer/symfony/polyfill-mbstring@1.25.0",
        "pkg:composer/symfony/polyfill-php72@1.25.0",
        "pkg:composer/symfony/polyfill-php80@1.25.0",
        "pkg:composer/symfony/polyfill-php81@1.25.0",
        "pkg:composer/symfony/process@5.4.8",
        "pkg:composer/symfony/stopwatch@5.4.5"
      ]
    },
    {
      "ref": "pkg:composer/package-url/packageurl-php@1.0.4"
    },
    {
      "ref": "pkg:composer/php-cs-fixer/diff@2.0.2"
    },
    {
      "ref": "pkg:composer/phplang/scope-exit@1.0.0"
    },
    {
      "ref": "pkg:composer/phpstan/phpstan@1.6.7"
    },
    {
      "ref": "pkg:composer/psr/cache@3.0.0"
    },
    {
      "ref": "pkg:composer/psr/container@2.0.2"
    },
    {
      "ref": "pkg:composer/psr/event-dispatcher@1.0.0"
    },
    {
      "ref": "pkg:composer/swaggest/json-diff@3.8.3"
    },
    {
      "ref": "pkg:composer/swaggest/json-schema@0.12.39",
      "dependsOn": [
        "pkg:composer/phplang/scope-exit@1.0.0",
        "pkg:composer/swaggest/json-diff@3.8.3",
        "pkg:composer/symfony/polyfill-mbstring@1.25.0"
      ]
    },
    {
      "ref": "pkg:composer/symfony/console@5.4.8",
      "dependsOn": [
        "pkg:composer/symfony/deprecation-contracts@3.0.1",
        "pkg:composer/symfony/polyfill-mbstring@1.25.0",
        "pkg:composer/symfony/polyfill-php73@1.25.0",
        "pkg:composer/symfony/polyfill-php80@1.25.0",
        "pkg:composer/symfony/service-contracts@3.0.1",
        "pkg:composer/symfony/string@6.0.8"
      ]
    },
    {
      "ref": "pkg:composer/symfony/deprecation-contracts@3.0.1"
    },
    {
      "ref": "pkg:composer/symfony/event-dispatcher@5.4.3",
      "dependsOn": [
        "pkg:composer/symfony/deprecation-contracts@3.0.1",
        "pkg:composer/symfony/event-dispatcher-contracts@3.0.1",
        "pkg:composer/symfony/polyfill-php80@1.25.0"
      ]
    },
    {
      "ref": "pkg:composer/symfony/event-dispatcher-contracts@3.0.1",
      "dependsOn": [
        "pkg:composer/psr/event-dispatcher@1.0.0"
      ]
    },
    {
      "ref": "pkg:composer/symfony/filesystem@5.4.7",
      "dependsOn": [
        "pkg:composer/symfony/polyfill-ctype@1.25.0",
        "pkg:composer/symfony/polyfill-mbstring@1.25.0",
        "pkg:composer/symfony/polyfill-php80@1.25.0"
      ]
    },
    {
      "ref": "pkg:composer/symfony/finder@5.4.8",
      "dependsOn": [
        "pkg:composer/symfony/deprecation-contracts@3.0.1",
        "pkg:composer/symfony/polyfill-php80@1.25.0"
      ]
    },
    {
      "ref": "pkg:composer/symfony/options-resolver@5.4.3",
      "dependsOn": [
        "pkg:composer/symfony/deprecation-contracts@3.0.1",
        "pkg:composer/symfony/polyfill-php73@1.25.0",
        "pkg:composer/symfony/polyfill-php80@1.25.0"
      ]
    },
    {
      "ref": "pkg:composer/symfony/polyfill-intl-grapheme@1.25.0"
    },
    {
      "ref": "pkg:composer/symfony/polyfill-intl-normalizer@1.25.0"
    },
    {
      "ref": "pkg:composer/symfony/polyfill-php73@1.25.0"
    },
    {
      "ref": "pkg:composer/symfony/polyfill-php80@1.25.0"
    },
    {
      "ref": "pkg:composer/symfony/polyfill-php81@1.25.0"
    },
    {
      "ref": "pkg:composer/symfony/process@5.4.8",
      "dependsOn": [
        "pkg:composer/symfony/polyfill-php80@1.25.0"
      ]
    },
    {
      "ref": "pkg:composer/symfony/service-contracts@3.0.1",
      "dependsOn": [
        "pkg:composer/psr/container@2.0.2"
      ]
    },
    {
      "ref": "pkg:composer/symfony/stopwatch@5.4.5",
      "dependsOn": [
        "pkg:composer/symfony/service-contracts@3.0.1"
      ]
    },
    {
      "ref": "pkg:composer/symfony/string@6.0.8",
      "dependsOn": [
        "pkg:composer/symfony/polyfill-ctype@1.25.0",
        "pkg:composer/symfony/polyfill-intl-grapheme@1.25.0",
        "pkg:composer/symfony/polyfill-intl-normalizer@1.25.0",
        "pkg:composer/symfony/polyfill-mbstring@1.25.0"
      ]
    },
    {
      "ref": "pkg:composer/fruux/baikal@dev-master",
      "dependsOn": [
        "pkg:composer/sabre/dav@4.3.1",
        "pkg:composer/twig/twig@2.14.13",
        "pkg:composer/symfony/yaml@3.4.47",
        "pkg:composer/psr/log@1.1.4",
        "pkg:composer/friendsofphp/php-cs-fixer@3.3.2",
        "pkg:composer/phpstan/phpstan@1.6.7",
        "pkg:composer/cyclonedx/cyclonedx-php-composer@3.10.0"
      ]
    }
  ]
}
