{
  "bomFormat": "CycloneDX",
  "specVersion": "1.3",
  "version": 1,
  "metadata": {
    "tools": [
      {
        "vendor": "AppThreat",
        "name": "cdxgen",
        "version": "3.0.10"
      },
      {
        "vendor": "Fortress Information Security",
        "name": "Github Extractor",
        "version": "1.15.1"
      }
    ],
    "authors": [
      {
        "name": "Fortress Information Security",
        "email": "sales@fortressinfosec.com",
        "phone": "1-407-573-6800"
      }
    ],
    "timestamp": "2022-06-01T21:00:00Z",
    "component": {
      "type": "application",
      "name": "rust-url",
      "version": "data_url_v0.1.1",
      "group": "servo",
      "externalReferences": [
        {
          "url": "https://github.com/servo/rust-url.git",
          "type": "distribution"
        },
        {
          "type": "website",
          "url": "https://docs.rs/url/",
          "comment": "As set via `homepage` in Github API"
        }
      ]
    }
  },
  "components": [
    {
      "type": "library",
      "bom-ref": "pkg:crates/wpt@0.1.1",
      "group": "",
      "name": "wpt",
      "version": "0.1.1",
      "description": "",
      "purl": "pkg:crates/wpt@0.1.1"
    },
    {
      "type": "library",
      "bom-ref": "pkg:crates/form_urlencoded@1.0.1",
      "group": "",
      "name": "form_urlencoded",
      "version": "1.0.1",
      "description": "",
      "purl": "pkg:crates/form_urlencoded@1.0.1"
    },
    {
      "type": "library",
      "bom-ref": "pkg:crates/percent-encoding@2.1.0",
      "group": "",
      "name": "percent-encoding",
      "version": "2.1.0",
      "description": "",
      "purl": "pkg:crates/percent-encoding@2.1.0"
    },
    {
      "type": "library",
      "bom-ref": "pkg:crates/unit@0.2.3",
      "group": "",
      "name": "unit",
      "version": "0.2.3",
      "description": "",
      "purl": "pkg:crates/unit@0.2.3"
    },
    {
      "type": "library",
      "bom-ref": "pkg:crates/unicode-bidi@0.3",
      "group": "",
      "name": "unicode-bidi",
      "version": "0.3",
      "description": "",
      "purl": "pkg:crates/unicode-bidi@0.3"
    },
    {
      "type": "library",
      "bom-ref": "pkg:crates/unicode-normalization@0.1.17",
      "group": "",
      "name": "unicode-normalization",
      "version": "0.1.17",
      "description": "",
      "purl": "pkg:crates/unicode-normalization@0.1.17"
    },
    {
      "type": "library",
      "bom-ref": "pkg:crates/name@all",
      "group": "",
      "name": "name",
      "version": "all",
      "description": "",
      "purl": "pkg:crates/name@all"
    },
    {
      "type": "library",
      "bom-ref": "pkg:crates/harness@false",
      "group": "",
      "name": "harness",
      "version": "false",
      "description": "",
      "purl": "pkg:crates/harness@false"
    },
    {
      "type": "library",
      "bom-ref": "pkg:crates/url@2.2.2",
      "group": "",
      "name": "url",
      "version": "2.2.2",
      "description": "",
      "purl": "pkg:crates/url@2.2.2"
    },
    {
      "type": "library",
      "bom-ref": "pkg:crates/form_urlencoded@1.0.0",
      "group": "",
      "name": "form_urlencoded",
      "version": "1.0.0",
      "description": "",
      "purl": "pkg:crates/form_urlencoded@1.0.0"
    },
    {
      "type": "library",
      "bom-ref": "pkg:crates/idna@0.2.0",
      "group": "",
      "name": "idna",
      "version": "0.2.0",
      "description": "",
      "purl": "pkg:crates/idna@0.2.0"
    },
    {
      "type": "library",
      "bom-ref": "pkg:crates/default@[idna]",
      "group": "",
      "name": "default",
      "version": "[idna]",
      "description": "",
      "purl": "pkg:crates/default@[idna]"
    },
    {
      "type": "library",
      "bom-ref": "pkg:crates/name@parse_url",
      "group": "",
      "name": "name",
      "version": "parse_url",
      "description": "",
      "purl": "pkg:crates/name@parse_url"
    },
    {
      "type": "library",
      "bom-ref": "pkg:crates/url-fuzz@0.0.1",
      "group": "",
      "name": "url-fuzz",
      "version": "0.0.1",
      "description": "",
      "purl": "pkg:crates/url-fuzz@0.0.1"
    },
    {
      "type": "library",
      "bom-ref": "pkg:crates/libfuzzer-sys@0.4.0",
      "group": "",
      "name": "libfuzzer-sys",
      "version": "0.4.0",
      "description": "",
      "purl": "pkg:crates/libfuzzer-sys@0.4.0"
    },
    {
      "type": "library",
      "bom-ref": "pkg:crates/name@parse",
      "group": "",
      "name": "name",
      "version": "parse",
      "description": "",
      "purl": "pkg:crates/name@parse"
    },
    {
      "type": "library",
      "bom-ref": "pkg:crates/members@[.]",
      "group": "",
      "name": "members",
      "version": "[.]",
      "description": "",
      "purl": "pkg:crates/members@[.]"
    }
  ]
}
