{
  "bomFormat": "CycloneDX",
  "specVersion": "1.3",
  "serialNumber": "urn:uuid:d267db7a-9147-41c8-be22-73024d851e1f",
  "version": 1,
  "metadata": {
    "timestamp": "2022-07-02T06:38:40Z",
    "tools": [
      {
        "vendor": "CycloneDX",
        "name": "CycloneDX Maven plugin",
        "version": "2.4.0",
        "hashes": [
          {
            "alg": "MD5",
            "content": "c631909bd8238ee6e8eb5467ba034a66"
          },
          {
            "alg": "SHA-1",
            "content": "71f4ec8229f0f7c9636725e2b7983e57e3d78c20"
          },
          {
            "alg": "SHA-256",
            "content": "0ac1fb7781822a2fedce31e20b3d7aff9406cc4094e1c66fbbd08819082fb758"
          },
          {
            "alg": "SHA-384",
            "content": "2b9d24f89e3634615fb27f248eb014209cb4612a9179092ad1144562583e1c5d00630e53d13dbddeff62af7331bcf30a"
          },
          {
            "alg": "SHA-512",
            "content": "73bbf13502533583b39e519b84c5a29047ad0bd83a75316da8d4ae2118391b6b517197088db5164c26cc3c67879f546877d9127d8766f15fb4071ba5a098b3ad"
          },
          {
            "alg": "SHA3-256",
            "content": "487c089dcc16c734b8a782b28e64ea49ce139e5b5938bc35aba39b0a343d7421"
          },
          {
            "alg": "SHA3-384",
            "content": "a9d1cf6e72152717fb426b0f2da64f3f4448abe36e942668f65d8a350d9be055997b4201eb77a2162458d4166ba5466c"
          },
          {
            "alg": "SHA3-512",
            "content": "c3f8cce2eb9d952fed23f59113e2e9397b77f691a8a125b7bed1fff41a224775b33c032b868ffa02cb2651a225bab2cdb57939c3e866980c6ee76b9cb1db11f8"
          }
        ]
      },
      {
        "vendor": "Fortress Information Security",
        "name": "GitHub Extractor",
        "version": "1.15.1"
      }
    ],
    "component": {
      "type": "library",
      "bom-ref": "pkg:maven/org.sorm-framework/sorm@0.3.22-SNAPSHOT",
      "group": "org.sorm-framework",
      "name": "sorm",
      "version": "0.3.22-SNAPSHOT",
      "licenses": [
        {
          "license": {
            "name": "MIT/X11",
            "url": "http://www.github.com/sorm/sorm/LICENSE"
          }
        }
      ],
      "purl": "pkg:maven/org.sorm-framework/sorm@0.3.22-SNAPSHOT",
      "externalReferences": [
        {
          "url": "https://github.com/sorm/sorm.git",
          "type": "distribution"
        }
      ]
    },
    "authors": [
      {
        "name": "Fortress Information Security",
        "email": "sales@fortressinfosec.com",
        "phone": "1-407-573-6800"
      }
    ]
  },
  "components": [
    {
      "type": "library",
      "bom-ref": "pkg:maven/com.mchange/c3p0@0.9.2-pre5?type=jar",
      "group": "com.mchange",
      "name": "c3p0",
      "version": "0.9.2-pre5",
      "description": "a JDBC Connection pooling / Statement caching library",
      "scope": "optional",
      "hashes": [
        {
          "alg": "MD5",
          "content": "d36fa914a4b557cdc451d7516ee395ef"
        },
        {
          "alg": "SHA-1",
          "content": "c58c5f4e89ab7aa1e8fa8f4627ee8be7f9628ca1"
        },
        {
          "alg": "SHA-256",
          "content": "4578feb58e1f3de50a406bc65d534d6a5f9a57f491d009f5fd4fac4ad28b2802"
        },
        {
          "alg": "SHA-384",
          "content": "22056b21913d671b5b29e9fadb942cf4919bd798b6a9384189a202e277fb8e571c94a0f3da33d30d983dc0d566fc7aa3"
        },
        {
          "alg": "SHA-512",
          "content": "070eb5f4f7e58afde59651817420733565801c7984835742a446831a370496fc85681b9d887dcee03baecf3d10e7582b3aa94c91e8f1cbebb07bed904002b3d9"
        },
        {
          "alg": "SHA3-256",
          "content": "d2f52e66dd9a46c719b88a40b8148fd4e68b3840a238d69a10a95dfbc11be877"
        },
        {
          "alg": "SHA3-384",
          "content": "d4d3c5e268d042c80b3757413b742d517459ee466d1d1c2e65c453ec9b42932ca7bea7d0a3f258f9582c5c155911494c"
        },
        {
          "alg": "SHA3-512",
          "content": "27d778b941fc344eb1e8418679963e7be04352740464a9312de67f731696467420acf3228fcf6089367fe9dfef23826c25aa5f90a46bb1639125025840919377"
        }
      ],
      "licenses": [
        {
          "license": {
            "name": "GNU Lesser General Public License, Version 2.1",
            "url": "http://www.gnu.org/licenses/lgpl-2.1.html"
          }
        }
      ],
      "purl": "pkg:maven/com.mchange/c3p0@0.9.2-pre5?type=jar"
    },
    {
      "type": "library",
      "bom-ref": "pkg:maven/com.mchange/mchange-commons-java@0.2.3?type=jar",
      "group": "com.mchange",
      "name": "mchange-commons-java",
      "version": "0.2.3",
      "description": "a library of arguably useful Java utilities.",
      "hashes": [
        {
          "alg": "MD5",
          "content": "de1326e104111a0a8a0f9614f46b3572"
        },
        {
          "alg": "SHA-1",
          "content": "59d16a85deae8a6ccdb3fee961d234313ba6f9f5"
        },
        {
          "alg": "SHA-256",
          "content": "ab007646ee2435ea43eb1b5a4f3f34cada00da0a326e75bfe063f850852e8d45"
        },
        {
          "alg": "SHA-384",
          "content": "6b2f6e362272401d2a3f275c246818ab23e7fe6f1b0ac20f4192292f50a5efdbfee63fa18c6e795ec9ff5b8bbfb3f8b9"
        },
        {
          "alg": "SHA-512",
          "content": "7b5eb9b7e6239657ddad9ee46b697314d853683bdbd1de3a9fcaca054d17f30aea3c9c0439b10ab767437cf69220ee37c1c4e7ac46706662e42eb63add5f07d1"
        },
        {
          "alg": "SHA3-256",
          "content": "0b4f0c7cb334fa6f0d764b10ec72549beeb307fe82da427817dddb8ac6fe2db6"
        },
        {
          "alg": "SHA3-384",
          "content": "73febab3ddac8e0f3af6c09606f838a604d41e1a4ab63fbf0fb736f763a97530f85866c7cd5d2321e61c0b73313a67e7"
        },
        {
          "alg": "SHA3-512",
          "content": "69faaa50590931adb6623e4dfb2d032600e5885c6b9f1a518d302847e72b1dbac3a3aba44cb90d75bc04ed7489b38d397ceaa5c2c4fc4c1892b7951ed56976c9"
        }
      ],
      "licenses": [
        {
          "license": {
            "name": "GNU Lesser General Public License, Version 2.1",
            "url": "http://www.gnu.org/licenses/lgpl-2.1.html"
          }
        }
      ],
      "purl": "pkg:maven/com.mchange/mchange-commons-java@0.2.3?type=jar"
    },
    {
      "type": "library",
      "bom-ref": "pkg:maven/com.github.nikita-volkov/embrace@0.1.5?type=jar",
      "group": "com.github.nikita-volkov",
      "name": "embrace",
      "version": "0.1.5",
      "description": "A tiny extension library embracing braceless coding style in Scala",
      "scope": "optional",
      "hashes": [
        {
          "alg": "MD5",
          "content": "a935bbf8dbf05ad67c07fb8eb572c7ed"
        },
        {
          "alg": "SHA-1",
          "content": "d5b94a2da21163929bcc34be9bc055b478f2a6b0"
        },
        {
          "alg": "SHA-256",
          "content": "eedb5af59ed796fedbecee9ca7f3c94d72b50e7b08135eb27ca50d3deb698643"
        },
        {
          "alg": "SHA-384",
          "content": "4ff055e73876a1367224ec03062873df99661e7f425412996b4e2fe9fc4f0c84be8f24f224cb36996466d96d916f5e17"
        },
        {
          "alg": "SHA-512",
          "content": "da110712ef9aa5e255149164e7df090e5731c568456c18875441dbb0fe4eadf9614a77375034126045f91a72843ba42bea14b35546b63917a3a14f4eb031bc16"
        },
        {
          "alg": "SHA3-256",
          "content": "3634ae5c56dae695472e726166fefa0fa7d27a8fbccfd409469b19fe6cbf8d16"
        },
        {
          "alg": "SHA3-384",
          "content": "ffe2e222754b57b333644dc8641883c278a6619acd0c1eea0c2cbc44aa5f884cd7c91b710f35cc84769c3fa800b0ed9b"
        },
        {
          "alg": "SHA3-512",
          "content": "8f8d1f20be70b8deadb5d0a39ac0438f42d1bc8a6fd7cfedfc3f5cf82039daad83ab4f11233f7054d4663360d381cdbcc492b4785d40ce7dc5af120c82236077"
        }
      ],
      "licenses": [
        {
          "license": {
            "name": "MIT/X11",
            "url": "http://www.github.com/nikita-volkov/embrace/LICENSE"
          }
        }
      ],
      "purl": "pkg:maven/com.github.nikita-volkov/embrace@0.1.5?type=jar",
      "externalReferences": [
        {
          "url": "https://oss.sonatype.org/service/local/staging/deploy/maven2/",
          "type": "distribution"
        },
        {
          "url": "http://svn.sonatype.org/spice/tags/oss-parent-7",
          "type": "vcs"
        }
      ]
    },
    {
      "type": "library",
      "bom-ref": "pkg:maven/com.github.nikita-volkov/sext@0.2.6?type=jar",
      "group": "com.github.nikita-volkov",
      "name": "sext",
      "version": "0.2.6",
      "description": "A small extensions library for Scala",
      "scope": "optional",
      "hashes": [
        {
          "alg": "MD5",
          "content": "bc2d51858f53c3f810b2edd3c1a2380e"
        },
        {
          "alg": "SHA-1",
          "content": "8c912e20b94e570390ff953664684bec88a3150c"
        },
        {
          "alg": "SHA-256",
          "content": "a5de0faa10c17b41f701608ac0cf5cca017a8696068dcc71a058b3be8a6200eb"
        },
        {
          "alg": "SHA-384",
          "content": "80773bd1980812e617c918b4008ce57c20894f730717e06b0113c60d0f878cd5019b96d9ba2f5331a8a87a0e05efc486"
        },
        {
          "alg": "SHA-512",
          "content": "c46be2607ed55e50347e96069d55aca6b24923b1bd7ec6837b9a8c4095739f9f74e608e8a00de806bcda3690ca40490b3969a78659f10069e95de5de10f0725c"
        },
        {
          "alg": "SHA3-256",
          "content": "d8a749a7ffd9faa21d3f56e80afc1d0c9f2bb1f45f20329bf10ac27cc8a6af85"
        },
        {
          "alg": "SHA3-384",
          "content": "095340848fa7e379f452863dac7e853c57212379243b7e707bbd8115d3b3a7b053eaace36b4f3cd2f475c15cd13f4070"
        },
        {
          "alg": "SHA3-512",
          "content": "3186ddbb8ee8a4fa3d591e3ae138dee9693f3d9bd95adacbf378c7678300c86dd8fa70495f6a624cec4fbff70fc099f93eb1713415ef21b953cf00f77b378af9"
        }
      ],
      "licenses": [
        {
          "license": {
            "name": "MIT/X11",
            "url": "http://www.github.com/nikita-volkov/sext/LICENSE"
          }
        }
      ],
      "purl": "pkg:maven/com.github.nikita-volkov/sext@0.2.6?type=jar",
      "externalReferences": [
        {
          "url": "https://oss.sonatype.org/service/local/staging/deploy/maven2/",
          "type": "distribution"
        },
        {
          "url": "http://svn.sonatype.org/spice/tags/oss-parent-7",
          "type": "vcs"
        }
      ]
    },
    {
      "type": "library",
      "bom-ref": "pkg:maven/joda-time/joda-time@2.1?type=jar",
      "publisher": "Joda.org",
      "group": "joda-time",
      "name": "joda-time",
      "version": "2.1",
      "description": "Date and time library to replace JDK date handling",
      "scope": "optional",
      "hashes": [
        {
          "alg": "MD5",
          "content": "3da033b9318e910a4e3d718a6b1f5b58"
        },
        {
          "alg": "SHA-1",
          "content": "8f79e353ef77da6710e1f10d34fc3698eaaacbca"
        },
        {
          "alg": "SHA-256",
          "content": "5bce965a5e1dc1add255f1791a18521a7a5ecf36e436acb7ce2e5eda9d1a8e10"
        },
        {
          "alg": "SHA-384",
          "content": "c686400cea7e19896ee92c785a18004b836a005142a7592a313931145e79eef5a1c6a41daa5a1f6014af9ab81bdb765d"
        },
        {
          "alg": "SHA-512",
          "content": "baf3b4c4067dfa12b9cdb1b666e5ab3aa0e3d3124a00d03a3e00d07d7c0466182a2d0979b20427d3f3d4940388315a7773487932b040b0060c448b2c9fac69e7"
        },
        {
          "alg": "SHA3-256",
          "content": "fa66eeb0b8b9a3224c99553785353a5301deb0151e89d5c85a0e0c1236ebfc80"
        },
        {
          "alg": "SHA3-384",
          "content": "ee0b728b4a5056f781ee0b2b937d2d0449a29a267fc150b16babb3d03c4a0abde40b5b154ce0fcbce3194878eb571c7f"
        },
        {
          "alg": "SHA3-512",
          "content": "d68668e5f8f14a22163de2b7b1cb6dd9d86c176a272d6a87377c169225d38e8b723b27803a5df9af38d438428490a5daeff092371130cf0d0b5772d20622194b"
        }
      ],
      "licenses": [
        {
          "license": {
            "id": "Apache-2.0"
          }
        }
      ],
      "purl": "pkg:maven/joda-time/joda-time@2.1?type=jar",
      "externalReferences": [
        {
          "url": "http://www.joda.org",
          "type": "website"
        },
        {
          "url": "http://oss.sonatype.org/content/repositories/joda-releases",
          "type": "distribution"
        },
        {
          "url": "https://sourceforge.net/tracker/?group_id=97367&atid=617889",
          "type": "issue-tracker"
        },
        {
          "url": "http://sourceforge.net/mailarchive/forum.php?forum_name=joda-interest",
          "type": "mailing-list"
        },
        {
          "url": "https://github.com/JodaOrg/joda-time",
          "type": "vcs"
        }
      ]
    },
    {
      "type": "library",
      "bom-ref": "pkg:maven/org.joda/joda-convert@1.2?type=jar",
      "publisher": "Joda.org",
      "group": "org.joda",
      "name": "joda-convert",
      "version": "1.2",
      "description": "Library to convert Objects to and from String",
      "scope": "optional",
      "hashes": [
        {
          "alg": "MD5",
          "content": "b0da47d5736aa6c16c0da7fd4fcfb8ba"
        },
        {
          "alg": "SHA-1",
          "content": "35ec554f0cd00c956cc69051514d9488b1374dec"
        },
        {
          "alg": "SHA-256",
          "content": "5703e1a2ac1969fe90f87076c1f1136822bf31d8948252159c86e6d0535c81a8"
        },
        {
          "alg": "SHA-384",
          "content": "2ed6182fa37488c8ca73cfe5a8c490bab5318b359e843fcb95f7a4ed467081d66a9021e7358e4863f9da72fcc0905683"
        },
        {
          "alg": "SHA-512",
          "content": "d21e43b4756a7b876043072707d755214f3c875a3d83fe6843e5424e2f31bac7a7a4968f2835dd80e501bc61f5edb7271f00b14dbc86b5c2c87fb428497f05e7"
        },
        {
          "alg": "SHA3-256",
          "content": "7c85dc98654899184d17da5c7919a45335197e2622e33db10c6e94c5e880f24a"
        },
        {
          "alg": "SHA3-384",
          "content": "3b2a90b89c19208ceab4c6eee538bb181a81d5217bf661c496bc1817aff19e0312612366c283ffd56846d120326568e8"
        },
        {
          "alg": "SHA3-512",
          "content": "d663e26af684bad0ee1ab0d42fbec2609ad8a9064b06f3cbc4f9b3223d71622d53cefef0903d2a51149cac07a9a76de144cdf161fefbc70308f99667fa4d9f84"
        }
      ],
      "licenses": [
        {
          "license": {
            "id": "Apache-2.0"
          }
        }
      ],
      "purl": "pkg:maven/org.joda/joda-convert@1.2?type=jar",
      "externalReferences": [
        {
          "url": "http://www.joda.org",
          "type": "website"
        },
        {
          "url": "http://oss.sonatype.org/content/repositories/joda-releases",
          "type": "distribution"
        },
        {
          "url": "https://sourceforge.net/tracker/?group_id=344317&atid=1440693",
          "type": "issue-tracker"
        },
        {
          "url": "http://sourceforge.net/mailarchive/forum.php?forum_name=joda-convert-interest",
          "type": "mailing-list"
        },
        {
          "url": "https://github.com/JodaOrg/joda-convert",
          "type": "vcs"
        }
      ]
    },
    {
      "type": "library",
      "bom-ref": "pkg:maven/com.google.guava/guava@13.0.1?type=jar",
      "group": "com.google.guava",
      "name": "guava",
      "version": "13.0.1",
      "description": "Guava is a suite of core and expanded libraries that include\n    utility classes, google's collections, io classes, and much\n    much more.\n\n    Guava has only one code dependency - javax.annotation,\n    per the JSR-305 spec.",
      "scope": "optional",
      "hashes": [
        {
          "alg": "MD5",
          "content": "539a72e3c7b7bd1b12b9cf7a567fb28a"
        },
        {
          "alg": "SHA-1",
          "content": "0d6f22b1e60a2f1ef99e22c9f5fde270b2088365"
        },
        {
          "alg": "SHA-256",
          "content": "feb4b5b2e79a63b72ec47a693b1cf35cf1cea1f60a2bb2615bf21f74c7a60bb0"
        },
        {
          "alg": "SHA-384",
          "content": "480bb82d5f2fe37f0c390b004521c8ff5fd0eebec09e41e79784a65510c828fc5ef97ed5a61f7f7e4cefb02ecba2fe21"
        },
        {
          "alg": "SHA-512",
          "content": "4278f14f60c4a0975d9df5504db7dced0ec7d49023969a5ceb965535a12ccb8e7cea71643078a9511f297a2a785191827bf3da64ed6d961cdb6cb1bacc734d25"
        },
        {
          "alg": "SHA3-256",
          "content": "a07663bdf40170afe969ac21a1b75a00408c21bca3969c0c1d2158a2130f859d"
        },
        {
          "alg": "SHA3-384",
          "content": "a491790ef07161687831006290f88ceca069eeaea9faaafb8cedbfd3403fd604a86b752c55ba332e85e509bdd12dd652"
        },
        {
          "alg": "SHA3-512",
          "content": "d0527a279d090c61a476ce2be8cef6108457a94ffce73dbd3499b3e84f585ca409503ceffaadaeff380e207b10009eb5dd924ab4848efe9c33357e34ac2a85db"
        }
      ],
      "licenses": [
        {
          "license": {
            "id": "Apache-2.0"
          }
        }
      ],
      "purl": "pkg:maven/com.google.guava/guava@13.0.1?type=jar",
      "externalReferences": [
        {
          "url": "http://code.google.com/p/guava-libraries/issues",
          "type": "issue-tracker"
        },
        {
          "url": "http://code.google.com/p/guava-libraries/source/browse",
          "type": "vcs"
        },
        {
          "url": "https://oss.sonatype.org/service/local/staging/deploy/maven2/",
          "type": "distribution"
        }
      ]
    },
    {
      "type": "library",
      "bom-ref": "pkg:maven/com.typesafe.scala-logging/scala-logging_2.11@3.9.5?type=jar",
      "publisher": "com.typesafe.scala-logging",
      "group": "com.typesafe.scala-logging",
      "name": "scala-logging_2.11",
      "version": "3.9.5",
      "description": "scala-logging",
      "scope": "optional",
      "hashes": [
        {
          "alg": "MD5",
          "content": "decafec48e259c91588e2f170733376f"
        },
        {
          "alg": "SHA-1",
          "content": "99b6d84f324131b88994d1b8a9c78ec58aa381a0"
        },
        {
          "alg": "SHA-256",
          "content": "581ec40ad5d9abd1d9633601971a40221ea07772366c6428c16b1331c1014fef"
        },
        {
          "alg": "SHA-384",
          "content": "e2c57d2a6c738228537a870c4a09a583655ce23394e21adf04e77a5d3d3ae6f0c85eda763cc34859fcfbd3db33487bac"
        },
        {
          "alg": "SHA-512",
          "content": "b7d19995b29801c3a8792c37fd4d66150a4ee858b1547c5a5c9b26b76c8cbb885e78c98f034410f71a7443039390e32044a611ebf50f007554ca34b1beed6e45"
        },
        {
          "alg": "SHA3-256",
          "content": "04ba55407776a3999310b535acea9b1724155fd4a85893c1c2c2b4d06eddafff"
        },
        {
          "alg": "SHA3-384",
          "content": "7951b28b12a5b1e246ca9b5e4b9d140f3ecf5e86a3c0e5d658656c43391963f7305fde31715d3bf6fe3b75819c01a847"
        },
        {
          "alg": "SHA3-512",
          "content": "35548ebc163fb330647c7e3c11a361f00576d3e548a947cad6aa9ede65615109b6150a4b5e9f6f07517ce96b23282f2a0f9b50d133e83fcf4603c41562d79ab4"
        }
      ],
      "licenses": [
        {
          "license": {
            "id": "Apache-2.0"
          }
        }
      ],
      "purl": "pkg:maven/com.typesafe.scala-logging/scala-logging_2.11@3.9.5?type=jar",
      "externalReferences": [
        {
          "url": "https://github.com/lightbend/scala-logging",
          "type": "website"
        },
        {
          "url": "https://github.com/lightbend/scala-logging",
          "type": "vcs"
        }
      ]
    },
    {
      "type": "library",
      "bom-ref": "pkg:maven/org.slf4j/slf4j-api@1.7.36?type=jar",
      "publisher": "QOS.ch",
      "group": "org.slf4j",
      "name": "slf4j-api",
      "version": "1.7.36",
      "description": "The slf4j API",
      "hashes": [
        {
          "alg": "MD5",
          "content": "872da51f5de7f3923da4de871d57fd85"
        },
        {
          "alg": "SHA-1",
          "content": "6c62681a2f655b49963a5983b8b0950a6120ae14"
        },
        {
          "alg": "SHA-256",
          "content": "d3ef575e3e4979678dc01bf1dcce51021493b4d11fb7f1be8ad982877c16a1c0"
        },
        {
          "alg": "SHA-384",
          "content": "2b14ad035877087157e379d3277dcdcd79e58d6bdb147c47d29e377d75ce53ad42cafbf22f5fb7827c7e946ff4876b9a"
        },
        {
          "alg": "SHA-512",
          "content": "f9b033fc019a44f98b16048da7e2b59edd4a6a527ba60e358f65ab88e0afae03a9340f1b3e8a543d49fa542290f499c5594259affa1ff3e6e7bf3b428d4c610b"
        },
        {
          "alg": "SHA3-256",
          "content": "ba2608179fcf46e2291a90b9cbb4aa30d718e481f59c350cc21c73b88d826881"
        },
        {
          "alg": "SHA3-384",
          "content": "3bc3110dafb8d5be16a39f3b2671a466463cd99eb39610c0e4719a7bf2d928f2ea213c734887c6926a07c4cca7769e4b"
        },
        {
          "alg": "SHA3-512",
          "content": "14c4edcd19702ef607d78826839d8a6d3a39157df54b89a801d3d3cbbe1307131a77671b041c761122730fb1387888c5ec2e46bdd80e1cb07f8f144676441824"
        }
      ],
      "licenses": [
        {
          "license": {
            "id": "MIT",
            "url": "https://opensource.org/licenses/MIT"
          }
        }
      ],
      "purl": "pkg:maven/org.slf4j/slf4j-api@1.7.36?type=jar",
      "externalReferences": [
        {
          "url": "http://www.qos.ch",
          "type": "website"
        },
        {
          "url": "https://oss.sonatype.org/service/local/staging/deploy/maven2/",
          "type": "distribution"
        },
        {
          "url": "https://github.com/qos-ch/slf4j",
          "type": "vcs"
        }
      ]
    },
    {
      "type": "library",
      "bom-ref": "pkg:maven/org.scala-lang.modules/scala-xml_2.11@1.0.2?type=jar",
      "publisher": "org.scala-lang.modules",
      "group": "org.scala-lang.modules",
      "name": "scala-xml_2.11",
      "version": "1.0.2",
      "description": "scala-xml",
      "hashes": [
        {
          "alg": "MD5",
          "content": "fd944bde9e0013af0092e1d3a2a774e9"
        },
        {
          "alg": "SHA-1",
          "content": "820fbca7e524b530fdadc594c39d49a21ea0337e"
        },
        {
          "alg": "SHA-256",
          "content": "13c0d8d442bde14b73af3ed60e8d53452f9e1ad62ffbe3d944cb918df652db6f"
        },
        {
          "alg": "SHA-384",
          "content": "0e97ba72b466c92e98d235d1a882ccc23d366932a949b526fc5d68e64552edb2ce1b4007c586c6eb30d3323e96e71bf6"
        },
        {
          "alg": "SHA-512",
          "content": "08492318a0012baf35686df6c246bf05cbde6df394401d7d40e262dabe8361ad949e2b146b3b95cd3fb6861e875aecd2174cad7988fe7fbc58da03938162bce1"
        },
        {
          "alg": "SHA3-256",
          "content": "dc83f2e16bda57685069feb0b21aefc113f7fe440f674651f97d96e16d8a0438"
        },
        {
          "alg": "SHA3-384",
          "content": "9ab6a859b714dd21d00135a82ad350f2997f952b7a701512460a2a95d83779022e810704f4f54bd005601b6cfb4a87b9"
        },
        {
          "alg": "SHA3-512",
          "content": "25820b47f87e13abd400f13b8e401472e8ead2b9fca7b4233d1ae4ec16ccdc48714715128f0ac4751549e89f0e986f63e7e286cd36c1202911b6981a1be7db11"
        }
      ],
      "licenses": [
        {
          "license": {
            "id": "BSD-3-Clause"
          }
        }
      ],
      "purl": "pkg:maven/org.scala-lang.modules/scala-xml_2.11@1.0.2?type=jar",
      "externalReferences": [
        {
          "url": "http://www.scala-lang.org/",
          "type": "website"
        },
        {
          "url": "https://issues.scala-lang.org/",
          "type": "issue-tracker"
        },
        {
          "url": "https://github.com/scala/scala-xml",
          "type": "vcs"
        }
      ]
    },
    {
      "type": "library",
      "bom-ref": "pkg:maven/org.scala-lang/scala-reflect@2.11.12?type=jar",
      "publisher": "LAMP/EPFL",
      "group": "org.scala-lang",
      "name": "scala-reflect",
      "version": "2.11.12",
      "description": "Compiler for the Scala Programming Language",
      "scope": "optional",
      "hashes": [
        {
          "alg": "MD5",
          "content": "9df7074f889f4670e01ff1dc631520c9"
        },
        {
          "alg": "SHA-1",
          "content": "2bb23c13c527566d9828107ca4108be2a2c06f01"
        },
        {
          "alg": "SHA-256",
          "content": "6ba385b450a6311a15c918cf8688b9af9327c6104f0ecbd35933cfcd3095fe04"
        },
        {
          "alg": "SHA-384",
          "content": "2672ae373b88050cb91e2fe28116fcb35c70fe76d95b047bac263ccfd7f848a1396bcdc6734fb1f3db5666268d16cfb5"
        },
        {
          "alg": "SHA-512",
          "content": "5827bd07ad781d2bc641b482857e925ab8a052d202e54855daf225e1a61b8fbcc6820c2bd1c5c9586e655b7cf8372e942a2f0362a5707a2c52430d3909cf61ec"
        },
        {
          "alg": "SHA3-256",
          "content": "29c57bc749bf71ee1731e2da4afa34c4552963abcc12a39fbcb934d3d8ab8291"
        },
        {
          "alg": "SHA3-384",
          "content": "6a1337d34d12e908330d40d90d8aafc822c398af411fb4f5a001d62b1efaebf8b5506ca033b16e2a4d6d1217e9afb7ff"
        },
        {
          "alg": "SHA3-512",
          "content": "069b3fd8350bb15a7927ec8b2237215c8c76ab10a1a3918b6adce1f6bcf4b55be82dd9e767209ea013d7fdb1dd56fa1f8e825122015936801da63b9a78fad542"
        }
      ],
      "licenses": [
        {
          "license": {
            "id": "BSD-3-Clause"
          }
        }
      ],
      "purl": "pkg:maven/org.scala-lang/scala-reflect@2.11.12?type=jar",
      "externalReferences": [
        {
          "url": "http://lamp.epfl.ch/",
          "type": "website"
        },
        {
          "url": "https://issues.scala-lang.org/",
          "type": "issue-tracker"
        },
        {
          "url": "https://github.com/scala/scala.git",
          "type": "vcs"
        }
      ]
    },
    {
      "type": "library",
      "bom-ref": "pkg:maven/org.scala-lang/scala-library@2.11.12?type=jar",
      "publisher": "LAMP/EPFL",
      "group": "org.scala-lang",
      "name": "scala-library",
      "version": "2.11.12",
      "description": "Standard library for the Scala Programming Language",
      "scope": "optional",
      "hashes": [
        {
          "alg": "MD5",
          "content": "57c9d7745f84b5e590fd47cb745cb298"
        },
        {
          "alg": "SHA-1",
          "content": "bf5534e6fec3d665bd6419c952a929a8bdd4b591"
        },
        {
          "alg": "SHA-256",
          "content": "0b3d6fd42958ee98715ba2ec5fe221f4ca1e694d7c981b0ae0cd68e97baf6dce"
        },
        {
          "alg": "SHA-384",
          "content": "387da0e6c632c9ee93d2c9f2f3577ec3d26969d0cfe02f9f3f4dfce46cc51e6e2299486d6244b658d96706214aa6f4db"
        },
        {
          "alg": "SHA-512",
          "content": "56fb3778da727b0dcc65d770ee274e7766d9a059f725ace69a787abfb37f55511e7e7dfdec7155f0b1d949b2b4adb5914b3bea1810c37b187bf281ca59a07298"
        },
        {
          "alg": "SHA3-256",
          "content": "3653a82ce3387735185515287109c155a67942041835fef15bd2f39d6215db6a"
        },
        {
          "alg": "SHA3-384",
          "content": "10de6473e42dfdc993f868ae99c81c3643a224b6d4b0f9a9cc903be570076a2b9a925a782f83da57cfbbb8d1b435ea9a"
        },
        {
          "alg": "SHA3-512",
          "content": "725c79546e15b7885da793a0040df61dffdedf743eaeebbd57546b7ed9f237495047f13b2a976ea6eded3e378627a2f0c74fd61490ac78d27d725903c79c1762"
        }
      ],
      "licenses": [
        {
          "license": {
            "id": "BSD-3-Clause"
          }
        }
      ],
      "purl": "pkg:maven/org.scala-lang/scala-library@2.11.12?type=jar",
      "externalReferences": [
        {
          "url": "http://lamp.epfl.ch/",
          "type": "website"
        },
        {
          "url": "https://issues.scala-lang.org/",
          "type": "issue-tracker"
        },
        {
          "url": "https://github.com/scala/scala.git",
          "type": "vcs"
        }
      ]
    },
    {
      "type": "library",
      "bom-ref": "pkg:maven/org.scala-lang/scala-compiler@2.11.12?type=jar",
      "publisher": "LAMP/EPFL",
      "group": "org.scala-lang",
      "name": "scala-compiler",
      "version": "2.11.12",
      "description": "Compiler for the Scala Programming Language",
      "scope": "optional",
      "hashes": [
        {
          "alg": "MD5",
          "content": "a014622503fb7c4326ee84ce7a01c490"
        },
        {
          "alg": "SHA-1",
          "content": "a1b5e58fd80cb1edc1413e904a346bfdb3a88333"
        },
        {
          "alg": "SHA-256",
          "content": "3e892546b72ab547cb77de4d840bcfd05c853e73390fed7370a8f19acb0735a0"
        },
        {
          "alg": "SHA-384",
          "content": "eeb065ddddff9b0e7092d431ac64a16c96072b31f335e847e60b236a7fdb68d052eac25ac72690dbfae306bdcdd7a6bf"
        },
        {
          "alg": "SHA-512",
          "content": "a31002072e126dcfe1a71903704db29ef7198252b2584c92615211c6153096c13f1268ebf0152a1e19acd2ec10db4efa4f6fd6fd4e51327d784183444f1e3ec3"
        },
        {
          "alg": "SHA3-256",
          "content": "a00759a14d739a1c50966ac54563aab67c3ae9cba18b3ad3fce8ad789d7ae02e"
        },
        {
          "alg": "SHA3-384",
          "content": "340a44acbcdd16121854e1018156b1b1ee92578963303f2743c6d1ba29897bfe76b9a20beecbf01c89d5538a0709d116"
        },
        {
          "alg": "SHA3-512",
          "content": "59e3279823c6951fe3da7b2c7decb68697f1725d35bc12bca151501b7dd411fd8baec94b35aa164f59f25ba3454be6f7ebfc5daacc7227cfe6215511a611f696"
        }
      ],
      "licenses": [
        {
          "license": {
            "id": "BSD-3-Clause"
          }
        }
      ],
      "purl": "pkg:maven/org.scala-lang/scala-compiler@2.11.12?type=jar",
      "externalReferences": [
        {
          "url": "http://lamp.epfl.ch/",
          "type": "website"
        },
        {
          "url": "https://issues.scala-lang.org/",
          "type": "issue-tracker"
        },
        {
          "url": "https://github.com/scala/scala.git",
          "type": "vcs"
        }
      ]
    },
    {
      "type": "library",
      "bom-ref": "pkg:maven/org.scala-lang.modules/scala-parser-combinators_2.11@1.0.4?type=jar",
      "publisher": "org.scala-lang.modules",
      "group": "org.scala-lang.modules",
      "name": "scala-parser-combinators_2.11",
      "version": "1.0.4",
      "description": "scala-parser-combinators",
      "hashes": [
        {
          "alg": "MD5",
          "content": "ff946f94319accb11847381d3c436837"
        },
        {
          "alg": "SHA-1",
          "content": "7369d653bcfa95d321994660477a4d7e81d7f490"
        },
        {
          "alg": "SHA-256",
          "content": "0dfaafce29a9a245b0a9180ec2c1073d2bd8f0330f03a9f1f6a74d1bc83f62d6"
        },
        {
          "alg": "SHA-384",
          "content": "c451d9ae82d1ff5a65d6c72a323a4f91583af3c4ebd5c9c378e4631f801a538b5ffb2890057b4e3aee7b29adbcd2fd8e"
        },
        {
          "alg": "SHA-512",
          "content": "05ad9a0aeee83c29dc20e701911a236eec5ec62e112be69fe4bdf4db58ec89ccbe59255fefacf70622fb9edbea8c600ff034463e34cd8c4c735b8c1d6a844a4e"
        },
        {
          "alg": "SHA3-256",
          "content": "1ecd87510f6621181333c9552d34683fe0a6f77d8da14f52e2d2e720f0ae591c"
        },
        {
          "alg": "SHA3-384",
          "content": "188d62919a35f4e22cda3290e40ea00e67ea7b338da5184bd5929ff8c2e127e0c170db7e6b42da8a51d1d0396fa50112"
        },
        {
          "alg": "SHA3-512",
          "content": "424489166e81fe8d8761b7a3150b2b6b99e4169932f4c90febb972d80c459cab2720979c3ed044c5e1cd761e4e0f81afb13b6b08251bfd04374c58e32a9e6da8"
        }
      ],
      "licenses": [
        {
          "license": {
            "id": "BSD-3-Clause"
          }
        }
      ],
      "purl": "pkg:maven/org.scala-lang.modules/scala-parser-combinators_2.11@1.0.4?type=jar",
      "externalReferences": [
        {
          "url": "http://www.scala-lang.org/",
          "type": "website"
        },
        {
          "url": "https://issues.scala-lang.org/",
          "type": "issue-tracker"
        },
        {
          "url": "https://github.com/scala/scala-parser-combinators",
          "type": "vcs"
        }
      ]
    }
  ],
  "dependencies": [
    {
      "ref": "pkg:maven/com.mchange/c3p0@0.9.2-pre5?type=jar",
      "dependsOn": [
        "pkg:maven/com.mchange/mchange-commons-java@0.2.3?type=jar"
      ]
    },
    {
      "ref": "pkg:maven/com.mchange/mchange-commons-java@0.2.3?type=jar"
    },
    {
      "ref": "pkg:maven/com.github.nikita-volkov/embrace@0.1.5?type=jar"
    },
    {
      "ref": "pkg:maven/com.github.nikita-volkov/sext@0.2.6?type=jar"
    },
    {
      "ref": "pkg:maven/joda-time/joda-time@2.1?type=jar"
    },
    {
      "ref": "pkg:maven/org.joda/joda-convert@1.2?type=jar"
    },
    {
      "ref": "pkg:maven/com.google.guava/guava@13.0.1?type=jar"
    },
    {
      "ref": "pkg:maven/com.typesafe.scala-logging/scala-logging_2.11@3.9.5?type=jar",
      "dependsOn": [
        "pkg:maven/org.slf4j/slf4j-api@1.7.36?type=jar"
      ]
    },
    {
      "ref": "pkg:maven/org.slf4j/slf4j-api@1.7.36?type=jar"
    },
    {
      "ref": "pkg:maven/org.scala-lang/scala-reflect@2.11.12?type=jar"
    },
    {
      "ref": "pkg:maven/org.scala-lang/scala-library@2.11.12?type=jar"
    },
    {
      "ref": "pkg:maven/org.scala-lang/scala-compiler@2.11.12?type=jar",
      "dependsOn": [
        "pkg:maven/org.scala-lang.modules/scala-parser-combinators_2.11@1.0.4?type=jar"
      ]
    },
    {
      "ref": "pkg:maven/org.scala-lang.modules/scala-parser-combinators_2.11@1.0.4?type=jar"
    }
  ]
}
