{
  "bomFormat": "CycloneDX",
  "specVersion": "1.3",
  "version": 1,
  "components": [
    {
      "type": "library",
      "publisher": "Dave Cole",
      "name": "csv",
      "version": "1.0",
      "description": "Fast CSV Parser for Python",
      "licenses": [
        {
          "license": {
            "name": "BSD"
          }
        }
      ],
      "purl": "pkg:pypi/csv@1.0",
      "modified": false
    },
    {
      "type": "library",
      "publisher": "Stefano Crosta",
      "name": "statistics",
      "version": "1.0.3.5",
      "description": "A Python 2.* port of 3.4 Statistics Module",
      "hashes": [
        {
          "alg": "MD5",
          "content": "d6d97f3a1a7b3192cff99e0f2b5956c3"
        },
        {
          "alg": "SHA-256",
          "content": "2dc379b80b07bf2ddd5488cad06b2b9531da4dd31edb04dc9ec0dc226486c138"
        }
      ],
      "licenses": [
        {
          "license": {
            "name": "Apache License 2.0"
          }
        }
      ],
      "purl": "pkg:pypi/statistics@1.0.3.5",
      "modified": false
    },
    {
      "type": "library",
      "publisher": "Thomas Waldmann",
      "name": "argparse",
      "version": "1.4.0",
      "description": "Python command-line parsing library",
      "hashes": [
        {
          "alg": "MD5",
          "content": "c37216a954c8669054e2b2c54853dd49"
        },
        {
          "alg": "SHA-256",
          "content": "c31647edb69fd3d465a847ea3157d37bed1f95f19760b11a47aa91c04b666314"
        }
      ],
      "licenses": [
        {
          "license": {
            "name": "Python Software Foundation License"
          }
        }
      ],
      "purl": "pkg:pypi/argparse@1.4.0",
      "modified": false
    },
    {
      "type": "library",
      "publisher": "Aric Hagberg",
      "name": "networkx",
      "version": "2.8.1",
      "description": "Python package for creating and manipulating graphs and networks",
      "hashes": [
        {
          "alg": "MD5",
          "content": "230f04bad1927b46752bd41b06b4a03e"
        },
        {
          "alg": "SHA-256",
          "content": "07b89bb42483d385ae31f110b3da873b98639ae00b7dbc05bf0da706e2d10459"
        }
      ],
      "purl": "pkg:pypi/networkx@2.8.1",
      "modified": false
    },
    {
      "type": "library",
      "publisher": "Kenneth Reitz",
      "name": "requests",
      "version": "2.27.1",
      "description": "Python HTTP for Humans.",
      "hashes": [
        {
          "alg": "MD5",
          "content": "435db0f122c83decd27524f690e89650"
        },
        {
          "alg": "SHA-256",
          "content": "f22fa1e554c9ddfd16e6e41ac79759e17be9e492b3587efa038054674760e72d"
        }
      ],
      "licenses": [
        {
          "license": {
            "name": "Apache 2.0"
          }
        }
      ],
      "purl": "pkg:pypi/requests@2.27.1",
      "modified": false
    }
  ],
  "metadata": {
    "tools": [
      {
        "vendor": "Fortress Information Security",
        "name": "Github Extractor",
        "version": "1.15.1"
      }
    ],
    "authors": [
      {
        "name": "Fortress Information Security",
        "email": "sales@fortressinfosec.com",
        "phone": "1-407-573-6800"
      }
    ],
    "timestamp": "2022-06-01T21:00:00Z",
    "component": {
      "type": "application",
      "name": "stellar-core",
      "version": "v19.1.0",
      "group": "stellar",
      "externalReferences": [
        {
          "url": "https://github.com/stellar/stellar-core.git",
          "type": "distribution"
        },
        {
          "type": "website",
          "url": "https://www.stellar.org",
          "comment": "As set via `homepage` in Github API"
        }
      ]
    }
  }
}
