{
  "bomFormat": "CycloneDX",
  "specVersion": "1.3",
  "version": 1,
  "metadata": {
    "tools": [
      {
        "vendor": "cyclonedx",
        "name": "cyclonedx-php-composer",
        "version": "3.10.0"
      },
      {
        "vendor": "AppThreat",
        "name": "cdxgen",
        "version": "3.0.10"
      },
      {
        "vendor": "Fortress Information Security",
        "name": "Github Extractor",
        "version": "1.15.1"
      }
    ],
    "authors": [
      {
        "name": "Fortress Information Security",
        "email": "sales@fortressinfosec.com",
        "phone": "1-407-573-6800"
      }
    ],
    "timestamp": "2022-06-01T21:00:00Z",
    "component": {
      "type": "application",
      "name": "StofDoctrineExtensionsBundle",
      "version": "v1.7.0",
      "group": "stof",
      "externalReferences": [
        {
          "url": "https://github.com/stof/StofDoctrineExtensionsBundle.git",
          "type": "distribution"
        },
        {
          "type": "website",
          "url": "https://symfony.com/bundles/StofDoctrineExtensionsBundle/current/index.html",
          "comment": "As set via `homepage` in Github API"
        }
      ]
    }
  },
  "components": [
    {
      "type": "library",
      "bom-ref": "pkg:composer/behat/transliterator@1.5.0",
      "group": "behat",
      "name": "transliterator",
      "version": "1.5.0",
      "description": "String transliterator",
      "licenses": [
        {
          "license": {
            "id": "Artistic-1.0"
          }
        }
      ],
      "purl": "pkg:composer/behat/transliterator@1.5.0",
      "externalReferences": [
        {
          "url": "https://github.com/Behat/Transliterator.git",
          "type": "distribution",
          "comment": "As detected by composer's `getSourceUrls()` (type=git & reference=baac5873bac3749887d28ab68e2f74db3a4408af)"
        },
        {
          "url": "https://api.github.com/repos/Behat/Transliterator/zipball/baac5873bac3749887d28ab68e2f74db3a4408af",
          "type": "distribution",
          "comment": "As detected by composer's `getDistUrls()` (type=zip & reference=baac5873bac3749887d28ab68e2f74db3a4408af & sha1=UNDEFINED)"
        },
        {
          "url": "https://github.com/Behat/Transliterator/issues",
          "type": "issue-tracker",
          "comment": "As set via `support.issues` in composer package definition."
        },
        {
          "url": "https://github.com/Behat/Transliterator/tree/v1.5.0",
          "type": "distribution",
          "comment": "As set via `support.source` in composer package definition."
        }
      ]
    },
    {
      "type": "library",
      "bom-ref": "pkg:composer/doctrine/annotations@1.13.2",
      "group": "doctrine",
      "name": "annotations",
      "version": "1.13.2",
      "description": "Docblock Annotations Parser",
      "licenses": [
        {
          "license": {
            "id": "MIT"
          }
        }
      ],
      "purl": "pkg:composer/doctrine/annotations@1.13.2",
      "externalReferences": [
        {
          "url": "https://github.com/doctrine/annotations.git",
          "type": "distribution",
          "comment": "As detected by composer's `getSourceUrls()` (type=git & reference=5b668aef16090008790395c02c893b1ba13f7e08)"
        },
        {
          "url": "https://api.github.com/repos/doctrine/annotations/zipball/5b668aef16090008790395c02c893b1ba13f7e08",
          "type": "distribution",
          "comment": "As detected by composer's `getDistUrls()` (type=zip & reference=5b668aef16090008790395c02c893b1ba13f7e08 & sha1=UNDEFINED)"
        },
        {
          "url": "https://www.doctrine-project.org/projects/annotations.html",
          "type": "website",
          "comment": "As set via `homepage` in composer package definition."
        },
        {
          "url": "https://github.com/doctrine/annotations/issues",
          "type": "issue-tracker",
          "comment": "As set via `support.issues` in composer package definition."
        },
        {
          "url": "https://github.com/doctrine/annotations/tree/1.13.2",
          "type": "distribution",
          "comment": "As set via `support.source` in composer package definition."
        }
      ]
    },
    {
      "type": "library",
      "bom-ref": "pkg:composer/doctrine/cache@2.1.1",
      "group": "doctrine",
      "name": "cache",
      "version": "2.1.1",
      "description": "PHP Doctrine Cache library is a popular cache implementation that supports many different drivers such as redis, memcache, apc, mongodb and others.",
      "licenses": [
        {
          "license": {
            "id": "MIT"
          }
        }
      ],
      "purl": "pkg:composer/doctrine/cache@2.1.1",
      "externalReferences": [
        {
          "url": "https://github.com/doctrine/cache.git",
          "type": "distribution",
          "comment": "As detected by composer's `getSourceUrls()` (type=git & reference=331b4d5dbaeab3827976273e9356b3b453c300ce)"
        },
        {
          "url": "https://api.github.com/repos/doctrine/cache/zipball/331b4d5dbaeab3827976273e9356b3b453c300ce",
          "type": "distribution",
          "comment": "As detected by composer's `getDistUrls()` (type=zip & reference=331b4d5dbaeab3827976273e9356b3b453c300ce & sha1=UNDEFINED)"
        },
        {
          "url": "https://www.doctrine-project.org/projects/cache.html",
          "type": "website",
          "comment": "As set via `homepage` in composer package definition."
        },
        {
          "url": "https://github.com/doctrine/cache/issues",
          "type": "issue-tracker",
          "comment": "As set via `support.issues` in composer package definition."
        },
        {
          "url": "https://github.com/doctrine/cache/tree/2.1.1",
          "type": "distribution",
          "comment": "As set via `support.source` in composer package definition."
        },
        {
          "url": "https://www.doctrine-project.org/sponsorship.html",
          "type": "other",
          "comment": "As set via `funding` in composer package definition. (type=custom)"
        },
        {
          "url": "https://www.patreon.com/phpdoctrine",
          "type": "other",
          "comment": "As set via `funding` in composer package definition. (type=patreon)"
        },
        {
          "url": "https://tidelift.com/funding/github/packagist/doctrine%2Fcache",
          "type": "other",
          "comment": "As set via `funding` in composer package definition. (type=tidelift)"
        }
      ]
    },
    {
      "type": "library",
      "bom-ref": "pkg:composer/doctrine/collections@1.6.8",
      "group": "doctrine",
      "name": "collections",
      "version": "1.6.8",
      "description": "PHP Doctrine Collections library that adds additional functionality on top of PHP arrays.",
      "licenses": [
        {
          "license": {
            "id": "MIT"
          }
        }
      ],
      "purl": "pkg:composer/doctrine/collections@1.6.8",
      "externalReferences": [
        {
          "url": "https://github.com/doctrine/collections.git",
          "type": "distribution",
          "comment": "As detected by composer's `getSourceUrls()` (type=git & reference=1958a744696c6bb3bb0d28db2611dc11610e78af)"
        },
        {
          "url": "https://api.github.com/repos/doctrine/collections/zipball/1958a744696c6bb3bb0d28db2611dc11610e78af",
          "type": "distribution",
          "comment": "As detected by composer's `getDistUrls()` (type=zip & reference=1958a744696c6bb3bb0d28db2611dc11610e78af & sha1=UNDEFINED)"
        },
        {
          "url": "https://www.doctrine-project.org/projects/collections.html",
          "type": "website",
          "comment": "As set via `homepage` in composer package definition."
        },
        {
          "url": "https://github.com/doctrine/collections/issues",
          "type": "issue-tracker",
          "comment": "As set via `support.issues` in composer package definition."
        },
        {
          "url": "https://github.com/doctrine/collections/tree/1.6.8",
          "type": "distribution",
          "comment": "As set via `support.source` in composer package definition."
        }
      ]
    },
    {
      "type": "library",
      "bom-ref": "pkg:composer/doctrine/common@3.3.0",
      "group": "doctrine",
      "name": "common",
      "version": "3.3.0",
      "description": "PHP Doctrine Common project is a library that provides additional functionality that other Doctrine projects depend on such as better reflection support, proxies and much more.",
      "licenses": [
        {
          "license": {
            "id": "MIT"
          }
        }
      ],
      "purl": "pkg:composer/doctrine/common@3.3.0",
      "externalReferences": [
        {
          "url": "https://github.com/doctrine/common.git",
          "type": "distribution",
          "comment": "As detected by composer's `getSourceUrls()` (type=git & reference=c824e95d4c83b7102d8bc60595445a6f7d540f96)"
        },
        {
          "url": "https://api.github.com/repos/doctrine/common/zipball/c824e95d4c83b7102d8bc60595445a6f7d540f96",
          "type": "distribution",
          "comment": "As detected by composer's `getDistUrls()` (type=zip & reference=c824e95d4c83b7102d8bc60595445a6f7d540f96 & sha1=UNDEFINED)"
        },
        {
          "url": "https://www.doctrine-project.org/projects/common.html",
          "type": "website",
          "comment": "As set via `homepage` in composer package definition."
        },
        {
          "url": "https://github.com/doctrine/common/issues",
          "type": "issue-tracker",
          "comment": "As set via `support.issues` in composer package definition."
        },
        {
          "url": "https://github.com/doctrine/common/tree/3.3.0",
          "type": "distribution",
          "comment": "As set via `support.source` in composer package definition."
        },
        {
          "url": "https://www.doctrine-project.org/sponsorship.html",
          "type": "other",
          "comment": "As set via `funding` in composer package definition. (type=custom)"
        },
        {
          "url": "https://www.patreon.com/phpdoctrine",
          "type": "other",
          "comment": "As set via `funding` in composer package definition. (type=patreon)"
        },
        {
          "url": "https://tidelift.com/funding/github/packagist/doctrine%2Fcommon",
          "type": "other",
          "comment": "As set via `funding` in composer package definition. (type=tidelift)"
        }
      ]
    },
    {
      "type": "library",
      "bom-ref": "pkg:composer/doctrine/deprecations@1.0.0",
      "group": "doctrine",
      "name": "deprecations",
      "version": "1.0.0",
      "description": "A small layer on top of trigger_error(E_USER_DEPRECATED) or PSR-3 logging with options to disable all deprecations or selectively for packages.",
      "licenses": [
        {
          "license": {
            "id": "MIT"
          }
        }
      ],
      "purl": "pkg:composer/doctrine/deprecations@1.0.0",
      "externalReferences": [
        {
          "url": "https://github.com/doctrine/deprecations.git",
          "type": "distribution",
          "comment": "As detected by composer's `getSourceUrls()` (type=git & reference=0e2a4f1f8cdfc7a92ec3b01c9334898c806b30de)"
        },
        {
          "url": "https://api.github.com/repos/doctrine/deprecations/zipball/0e2a4f1f8cdfc7a92ec3b01c9334898c806b30de",
          "type": "distribution",
          "comment": "As detected by composer's `getDistUrls()` (type=zip & reference=0e2a4f1f8cdfc7a92ec3b01c9334898c806b30de & sha1=UNDEFINED)"
        },
        {
          "url": "https://www.doctrine-project.org/",
          "type": "website",
          "comment": "As set via `homepage` in composer package definition."
        },
        {
          "url": "https://github.com/doctrine/deprecations/issues",
          "type": "issue-tracker",
          "comment": "As set via `support.issues` in composer package definition."
        },
        {
          "url": "https://github.com/doctrine/deprecations/tree/v1.0.0",
          "type": "distribution",
          "comment": "As set via `support.source` in composer package definition."
        }
      ]
    },
    {
      "type": "library",
      "bom-ref": "pkg:composer/doctrine/event-manager@1.1.1",
      "group": "doctrine",
      "name": "event-manager",
      "version": "1.1.1",
      "description": "The Doctrine Event Manager is a simple PHP event system that was built to be used with the various Doctrine projects.",
      "licenses": [
        {
          "license": {
            "id": "MIT"
          }
        }
      ],
      "purl": "pkg:composer/doctrine/event-manager@1.1.1",
      "externalReferences": [
        {
          "url": "https://github.com/doctrine/event-manager.git",
          "type": "distribution",
          "comment": "As detected by composer's `getSourceUrls()` (type=git & reference=41370af6a30faa9dc0368c4a6814d596e81aba7f)"
        },
        {
          "url": "https://api.github.com/repos/doctrine/event-manager/zipball/41370af6a30faa9dc0368c4a6814d596e81aba7f",
          "type": "distribution",
          "comment": "As detected by composer's `getDistUrls()` (type=zip & reference=41370af6a30faa9dc0368c4a6814d596e81aba7f & sha1=UNDEFINED)"
        },
        {
          "url": "https://www.doctrine-project.org/projects/event-manager.html",
          "type": "website",
          "comment": "As set via `homepage` in composer package definition."
        },
        {
          "url": "https://github.com/doctrine/event-manager/issues",
          "type": "issue-tracker",
          "comment": "As set via `support.issues` in composer package definition."
        },
        {
          "url": "https://github.com/doctrine/event-manager/tree/1.1.x",
          "type": "distribution",
          "comment": "As set via `support.source` in composer package definition."
        },
        {
          "url": "https://www.doctrine-project.org/sponsorship.html",
          "type": "other",
          "comment": "As set via `funding` in composer package definition. (type=custom)"
        },
        {
          "url": "https://www.patreon.com/phpdoctrine",
          "type": "other",
          "comment": "As set via `funding` in composer package definition. (type=patreon)"
        },
        {
          "url": "https://tidelift.com/funding/github/packagist/doctrine%2Fevent-manager",
          "type": "other",
          "comment": "As set via `funding` in composer package definition. (type=tidelift)"
        }
      ]
    },
    {
      "type": "library",
      "bom-ref": "pkg:composer/doctrine/lexer@1.2.3",
      "group": "doctrine",
      "name": "lexer",
      "version": "1.2.3",
      "description": "PHP Doctrine Lexer parser library that can be used in Top-Down, Recursive Descent Parsers.",
      "licenses": [
        {
          "license": {
            "id": "MIT"
          }
        }
      ],
      "purl": "pkg:composer/doctrine/lexer@1.2.3",
      "externalReferences": [
        {
          "url": "https://github.com/doctrine/lexer.git",
          "type": "distribution",
          "comment": "As detected by composer's `getSourceUrls()` (type=git & reference=c268e882d4dbdd85e36e4ad69e02dc284f89d229)"
        },
        {
          "url": "https://api.github.com/repos/doctrine/lexer/zipball/c268e882d4dbdd85e36e4ad69e02dc284f89d229",
          "type": "distribution",
          "comment": "As detected by composer's `getDistUrls()` (type=zip & reference=c268e882d4dbdd85e36e4ad69e02dc284f89d229 & sha1=UNDEFINED)"
        },
        {
          "url": "https://www.doctrine-project.org/projects/lexer.html",
          "type": "website",
          "comment": "As set via `homepage` in composer package definition."
        },
        {
          "url": "https://github.com/doctrine/lexer/issues",
          "type": "issue-tracker",
          "comment": "As set via `support.issues` in composer package definition."
        },
        {
          "url": "https://github.com/doctrine/lexer/tree/1.2.3",
          "type": "distribution",
          "comment": "As set via `support.source` in composer package definition."
        },
        {
          "url": "https://www.doctrine-project.org/sponsorship.html",
          "type": "other",
          "comment": "As set via `funding` in composer package definition. (type=custom)"
        },
        {
          "url": "https://www.patreon.com/phpdoctrine",
          "type": "other",
          "comment": "As set via `funding` in composer package definition. (type=patreon)"
        },
        {
          "url": "https://tidelift.com/funding/github/packagist/doctrine%2Flexer",
          "type": "other",
          "comment": "As set via `funding` in composer package definition. (type=tidelift)"
        }
      ]
    },
    {
      "type": "library",
      "bom-ref": "pkg:composer/doctrine/persistence@2.5.3",
      "group": "doctrine",
      "name": "persistence",
      "version": "2.5.3",
      "description": "The Doctrine Persistence project is a set of shared interfaces and functionality that the different Doctrine object mappers share.",
      "licenses": [
        {
          "license": {
            "id": "MIT"
          }
        }
      ],
      "purl": "pkg:composer/doctrine/persistence@2.5.3",
      "externalReferences": [
        {
          "url": "https://github.com/doctrine/persistence.git",
          "type": "distribution",
          "comment": "As detected by composer's `getSourceUrls()` (type=git & reference=d7edf274b6d35ad82328e223439cc2bb2f92bd9e)"
        },
        {
          "url": "https://api.github.com/repos/doctrine/persistence/zipball/d7edf274b6d35ad82328e223439cc2bb2f92bd9e",
          "type": "distribution",
          "comment": "As detected by composer's `getDistUrls()` (type=zip & reference=d7edf274b6d35ad82328e223439cc2bb2f92bd9e & sha1=UNDEFINED)"
        },
        {
          "url": "https://doctrine-project.org/projects/persistence.html",
          "type": "website",
          "comment": "As set via `homepage` in composer package definition."
        },
        {
          "url": "https://github.com/doctrine/persistence/issues",
          "type": "issue-tracker",
          "comment": "As set via `support.issues` in composer package definition."
        },
        {
          "url": "https://github.com/doctrine/persistence/tree/2.5.3",
          "type": "distribution",
          "comment": "As set via `support.source` in composer package definition."
        },
        {
          "url": "https://www.doctrine-project.org/sponsorship.html",
          "type": "other",
          "comment": "As set via `funding` in composer package definition. (type=custom)"
        },
        {
          "url": "https://www.patreon.com/phpdoctrine",
          "type": "other",
          "comment": "As set via `funding` in composer package definition. (type=patreon)"
        },
        {
          "url": "https://tidelift.com/funding/github/packagist/doctrine%2Fpersistence",
          "type": "other",
          "comment": "As set via `funding` in composer package definition. (type=tidelift)"
        }
      ]
    },
    {
      "type": "library",
      "bom-ref": "pkg:composer/gedmo/doctrine-extensions@3.6.0",
      "group": "gedmo",
      "name": "doctrine-extensions",
      "version": "3.6.0",
      "description": "Doctrine2 behavioral extensions",
      "licenses": [
        {
          "license": {
            "id": "MIT"
          }
        }
      ],
      "purl": "pkg:composer/gedmo/doctrine-extensions@3.6.0",
      "externalReferences": [
        {
          "url": "https://github.com/doctrine-extensions/DoctrineExtensions.git",
          "type": "distribution",
          "comment": "As detected by composer's `getSourceUrls()` (type=git & reference=20e682c5c376faa4c88421453707741e1dd1f131)"
        },
        {
          "url": "https://api.github.com/repos/doctrine-extensions/DoctrineExtensions/zipball/20e682c5c376faa4c88421453707741e1dd1f131",
          "type": "distribution",
          "comment": "As detected by composer's `getDistUrls()` (type=zip & reference=20e682c5c376faa4c88421453707741e1dd1f131 & sha1=UNDEFINED)"
        },
        {
          "url": "http://gediminasm.org/",
          "type": "website",
          "comment": "As set via `homepage` in composer package definition."
        },
        {
          "url": "mailto:gediminas.morkevicius@gmail.com",
          "type": "other",
          "comment": "As set via `support.email` in composer package definition."
        },
        {
          "url": "https://github.com/doctrine-extensions/DoctrineExtensions/issues",
          "type": "issue-tracker",
          "comment": "As set via `support.issues` in composer package definition."
        },
        {
          "url": "https://github.com/doctrine-extensions/DoctrineExtensions/tree/v3.6.0",
          "type": "distribution",
          "comment": "As set via `support.source` in composer package definition."
        },
        {
          "url": "https://github.com/Atlantic18/DoctrineExtensions/tree/main/doc",
          "type": "documentation",
          "comment": "As set via `support.wiki` in composer package definition."
        }
      ]
    },
    {
      "type": "library",
      "bom-ref": "pkg:composer/psr/cache@3.0.0",
      "group": "psr",
      "name": "cache",
      "version": "3.0.0",
      "description": "Common interface for caching libraries",
      "licenses": [
        {
          "license": {
            "id": "MIT"
          }
        }
      ],
      "purl": "pkg:composer/psr/cache@3.0.0",
      "externalReferences": [
        {
          "url": "https://github.com/php-fig/cache.git",
          "type": "distribution",
          "comment": "As detected by composer's `getSourceUrls()` (type=git & reference=aa5030cfa5405eccfdcb1083ce040c2cb8d253bf)"
        },
        {
          "url": "https://api.github.com/repos/php-fig/cache/zipball/aa5030cfa5405eccfdcb1083ce040c2cb8d253bf",
          "type": "distribution",
          "comment": "As detected by composer's `getDistUrls()` (type=zip & reference=aa5030cfa5405eccfdcb1083ce040c2cb8d253bf & sha1=UNDEFINED)"
        },
        {
          "url": "https://github.com/php-fig/cache/tree/3.0.0",
          "type": "distribution",
          "comment": "As set via `support.source` in composer package definition."
        }
      ]
    },
    {
      "type": "library",
      "bom-ref": "pkg:composer/psr/container@2.0.2",
      "group": "psr",
      "name": "container",
      "version": "2.0.2",
      "description": "Common Container Interface (PHP FIG PSR-11)",
      "licenses": [
        {
          "license": {
            "id": "MIT"
          }
        }
      ],
      "purl": "pkg:composer/psr/container@2.0.2",
      "externalReferences": [
        {
          "url": "https://github.com/php-fig/container.git",
          "type": "distribution",
          "comment": "As detected by composer's `getSourceUrls()` (type=git & reference=c71ecc56dfe541dbd90c5360474fbc405f8d5963)"
        },
        {
          "url": "https://api.github.com/repos/php-fig/container/zipball/c71ecc56dfe541dbd90c5360474fbc405f8d5963",
          "type": "distribution",
          "comment": "As detected by composer's `getDistUrls()` (type=zip & reference=c71ecc56dfe541dbd90c5360474fbc405f8d5963 & sha1=UNDEFINED)"
        },
        {
          "url": "https://github.com/php-fig/container",
          "type": "website",
          "comment": "As set via `homepage` in composer package definition."
        },
        {
          "url": "https://github.com/php-fig/container/issues",
          "type": "issue-tracker",
          "comment": "As set via `support.issues` in composer package definition."
        },
        {
          "url": "https://github.com/php-fig/container/tree/2.0.2",
          "type": "distribution",
          "comment": "As set via `support.source` in composer package definition."
        }
      ]
    },
    {
      "type": "library",
      "bom-ref": "pkg:composer/psr/event-dispatcher@1.0.0",
      "group": "psr",
      "name": "event-dispatcher",
      "version": "1.0.0",
      "description": "Standard interfaces for event handling.",
      "licenses": [
        {
          "license": {
            "id": "MIT"
          }
        }
      ],
      "purl": "pkg:composer/psr/event-dispatcher@1.0.0",
      "externalReferences": [
        {
          "url": "https://github.com/php-fig/event-dispatcher.git",
          "type": "distribution",
          "comment": "As detected by composer's `getSourceUrls()` (type=git & reference=dbefd12671e8a14ec7f180cab83036ed26714bb0)"
        },
        {
          "url": "https://api.github.com/repos/php-fig/event-dispatcher/zipball/dbefd12671e8a14ec7f180cab83036ed26714bb0",
          "type": "distribution",
          "comment": "As detected by composer's `getDistUrls()` (type=zip & reference=dbefd12671e8a14ec7f180cab83036ed26714bb0 & sha1=UNDEFINED)"
        },
        {
          "url": "https://github.com/php-fig/event-dispatcher/issues",
          "type": "issue-tracker",
          "comment": "As set via `support.issues` in composer package definition."
        },
        {
          "url": "https://github.com/php-fig/event-dispatcher/tree/1.0.0",
          "type": "distribution",
          "comment": "As set via `support.source` in composer package definition."
        }
      ]
    },
    {
      "type": "library",
      "bom-ref": "pkg:composer/psr/log@3.0.0",
      "group": "psr",
      "name": "log",
      "version": "3.0.0",
      "description": "Common interface for logging libraries",
      "licenses": [
        {
          "license": {
            "id": "MIT"
          }
        }
      ],
      "purl": "pkg:composer/psr/log@3.0.0",
      "externalReferences": [
        {
          "url": "https://github.com/php-fig/log.git",
          "type": "distribution",
          "comment": "As detected by composer's `getSourceUrls()` (type=git & reference=fe5ea303b0887d5caefd3d431c3e61ad47037001)"
        },
        {
          "url": "https://api.github.com/repos/php-fig/log/zipball/fe5ea303b0887d5caefd3d431c3e61ad47037001",
          "type": "distribution",
          "comment": "As detected by composer's `getDistUrls()` (type=zip & reference=fe5ea303b0887d5caefd3d431c3e61ad47037001 & sha1=UNDEFINED)"
        },
        {
          "url": "https://github.com/php-fig/log",
          "type": "website",
          "comment": "As set via `homepage` in composer package definition."
        },
        {
          "url": "https://github.com/php-fig/log/tree/3.0.0",
          "type": "distribution",
          "comment": "As set via `support.source` in composer package definition."
        }
      ]
    },
    {
      "type": "library",
      "bom-ref": "pkg:composer/symfony/cache@6.0.8",
      "group": "symfony",
      "name": "cache",
      "version": "6.0.8",
      "description": "Provides an extended PSR-6, PSR-16 (and tags) implementation",
      "licenses": [
        {
          "license": {
            "id": "MIT"
          }
        }
      ],
      "purl": "pkg:composer/symfony/cache@6.0.8",
      "externalReferences": [
        {
          "url": "https://github.com/symfony/cache.git",
          "type": "distribution",
          "comment": "As detected by composer's `getSourceUrls()` (type=git & reference=e9a4e9229f078d93f2c492ea30c3f010373312b7)"
        },
        {
          "url": "https://api.github.com/repos/symfony/cache/zipball/e9a4e9229f078d93f2c492ea30c3f010373312b7",
          "type": "distribution",
          "comment": "As detected by composer's `getDistUrls()` (type=zip & reference=e9a4e9229f078d93f2c492ea30c3f010373312b7 & sha1=UNDEFINED)"
        },
        {
          "url": "https://symfony.com",
          "type": "website",
          "comment": "As set via `homepage` in composer package definition."
        },
        {
          "url": "https://github.com/symfony/cache/tree/v6.0.8",
          "type": "distribution",
          "comment": "As set via `support.source` in composer package definition."
        },
        {
          "url": "https://symfony.com/sponsor",
          "type": "other",
          "comment": "As set via `funding` in composer package definition. (type=custom)"
        },
        {
          "url": "https://github.com/fabpot",
          "type": "other",
          "comment": "As set via `funding` in composer package definition. (type=github)"
        },
        {
          "url": "https://tidelift.com/funding/github/packagist/symfony/symfony",
          "type": "other",
          "comment": "As set via `funding` in composer package definition. (type=tidelift)"
        }
      ]
    },
    {
      "type": "library",
      "bom-ref": "pkg:composer/symfony/cache-contracts@3.0.1",
      "group": "symfony",
      "name": "cache-contracts",
      "version": "3.0.1",
      "description": "Generic abstractions related to caching",
      "licenses": [
        {
          "license": {
            "id": "MIT"
          }
        }
      ],
      "purl": "pkg:composer/symfony/cache-contracts@3.0.1",
      "externalReferences": [
        {
          "url": "https://github.com/symfony/cache-contracts.git",
          "type": "distribution",
          "comment": "As detected by composer's `getSourceUrls()` (type=git & reference=1c0a181c9ee221afe4fa55b2d13fc63c5ae14348)"
        },
        {
          "url": "https://api.github.com/repos/symfony/cache-contracts/zipball/1c0a181c9ee221afe4fa55b2d13fc63c5ae14348",
          "type": "distribution",
          "comment": "As detected by composer's `getDistUrls()` (type=zip & reference=1c0a181c9ee221afe4fa55b2d13fc63c5ae14348 & sha1=UNDEFINED)"
        },
        {
          "url": "https://symfony.com",
          "type": "website",
          "comment": "As set via `homepage` in composer package definition."
        },
        {
          "url": "https://github.com/symfony/cache-contracts/tree/v3.0.1",
          "type": "distribution",
          "comment": "As set via `support.source` in composer package definition."
        },
        {
          "url": "https://symfony.com/sponsor",
          "type": "other",
          "comment": "As set via `funding` in composer package definition. (type=custom)"
        },
        {
          "url": "https://github.com/fabpot",
          "type": "other",
          "comment": "As set via `funding` in composer package definition. (type=github)"
        },
        {
          "url": "https://tidelift.com/funding/github/packagist/symfony/symfony",
          "type": "other",
          "comment": "As set via `funding` in composer package definition. (type=tidelift)"
        }
      ]
    },
    {
      "type": "library",
      "bom-ref": "pkg:composer/symfony/config@6.0.8",
      "group": "symfony",
      "name": "config",
      "version": "6.0.8",
      "description": "Helps you find, load, combine, autofill and validate configuration values of any kind",
      "licenses": [
        {
          "license": {
            "id": "MIT"
          }
        }
      ],
      "purl": "pkg:composer/symfony/config@6.0.8",
      "externalReferences": [
        {
          "url": "https://github.com/symfony/config.git",
          "type": "distribution",
          "comment": "As detected by composer's `getSourceUrls()` (type=git & reference=6ac50d559aa64c8e7b5b17640c46241e4accb487)"
        },
        {
          "url": "https://api.github.com/repos/symfony/config/zipball/6ac50d559aa64c8e7b5b17640c46241e4accb487",
          "type": "distribution",
          "comment": "As detected by composer's `getDistUrls()` (type=zip & reference=6ac50d559aa64c8e7b5b17640c46241e4accb487 & sha1=UNDEFINED)"
        },
        {
          "url": "https://symfony.com",
          "type": "website",
          "comment": "As set via `homepage` in composer package definition."
        },
        {
          "url": "https://github.com/symfony/config/tree/v6.0.8",
          "type": "distribution",
          "comment": "As set via `support.source` in composer package definition."
        },
        {
          "url": "https://symfony.com/sponsor",
          "type": "other",
          "comment": "As set via `funding` in composer package definition. (type=custom)"
        },
        {
          "url": "https://github.com/fabpot",
          "type": "other",
          "comment": "As set via `funding` in composer package definition. (type=github)"
        },
        {
          "url": "https://tidelift.com/funding/github/packagist/symfony/symfony",
          "type": "other",
          "comment": "As set via `funding` in composer package definition. (type=tidelift)"
        }
      ]
    },
    {
      "type": "library",
      "bom-ref": "pkg:composer/symfony/dependency-injection@6.0.8",
      "group": "symfony",
      "name": "dependency-injection",
      "version": "6.0.8",
      "description": "Allows you to standardize and centralize the way objects are constructed in your application",
      "licenses": [
        {
          "license": {
            "id": "MIT"
          }
        }
      ],
      "purl": "pkg:composer/symfony/dependency-injection@6.0.8",
      "externalReferences": [
        {
          "url": "https://github.com/symfony/dependency-injection.git",
          "type": "distribution",
          "comment": "As detected by composer's `getSourceUrls()` (type=git & reference=571041cd7e765664cc527b461ee41be3013aa08e)"
        },
        {
          "url": "https://api.github.com/repos/symfony/dependency-injection/zipball/571041cd7e765664cc527b461ee41be3013aa08e",
          "type": "distribution",
          "comment": "As detected by composer's `getDistUrls()` (type=zip & reference=571041cd7e765664cc527b461ee41be3013aa08e & sha1=UNDEFINED)"
        },
        {
          "url": "https://symfony.com",
          "type": "website",
          "comment": "As set via `homepage` in composer package definition."
        },
        {
          "url": "https://github.com/symfony/dependency-injection/tree/v6.0.8",
          "type": "distribution",
          "comment": "As set via `support.source` in composer package definition."
        },
        {
          "url": "https://symfony.com/sponsor",
          "type": "other",
          "comment": "As set via `funding` in composer package definition. (type=custom)"
        },
        {
          "url": "https://github.com/fabpot",
          "type": "other",
          "comment": "As set via `funding` in composer package definition. (type=github)"
        },
        {
          "url": "https://tidelift.com/funding/github/packagist/symfony/symfony",
          "type": "other",
          "comment": "As set via `funding` in composer package definition. (type=tidelift)"
        }
      ]
    },
    {
      "type": "library",
      "bom-ref": "pkg:composer/symfony/deprecation-contracts@3.0.1",
      "group": "symfony",
      "name": "deprecation-contracts",
      "version": "3.0.1",
      "description": "A generic function and convention to trigger deprecation notices",
      "licenses": [
        {
          "license": {
            "id": "MIT"
          }
        }
      ],
      "purl": "pkg:composer/symfony/deprecation-contracts@3.0.1",
      "externalReferences": [
        {
          "url": "https://github.com/symfony/deprecation-contracts.git",
          "type": "distribution",
          "comment": "As detected by composer's `getSourceUrls()` (type=git & reference=26954b3d62a6c5fd0ea8a2a00c0353a14978d05c)"
        },
        {
          "url": "https://api.github.com/repos/symfony/deprecation-contracts/zipball/26954b3d62a6c5fd0ea8a2a00c0353a14978d05c",
          "type": "distribution",
          "comment": "As detected by composer's `getDistUrls()` (type=zip & reference=26954b3d62a6c5fd0ea8a2a00c0353a14978d05c & sha1=UNDEFINED)"
        },
        {
          "url": "https://symfony.com",
          "type": "website",
          "comment": "As set via `homepage` in composer package definition."
        },
        {
          "url": "https://github.com/symfony/deprecation-contracts/tree/v3.0.1",
          "type": "distribution",
          "comment": "As set via `support.source` in composer package definition."
        },
        {
          "url": "https://symfony.com/sponsor",
          "type": "other",
          "comment": "As set via `funding` in composer package definition. (type=custom)"
        },
        {
          "url": "https://github.com/fabpot",
          "type": "other",
          "comment": "As set via `funding` in composer package definition. (type=github)"
        },
        {
          "url": "https://tidelift.com/funding/github/packagist/symfony/symfony",
          "type": "other",
          "comment": "As set via `funding` in composer package definition. (type=tidelift)"
        }
      ]
    },
    {
      "type": "library",
      "bom-ref": "pkg:composer/symfony/error-handler@6.0.8",
      "group": "symfony",
      "name": "error-handler",
      "version": "6.0.8",
      "description": "Provides tools to manage errors and ease debugging PHP code",
      "licenses": [
        {
          "license": {
            "id": "MIT"
          }
        }
      ],
      "purl": "pkg:composer/symfony/error-handler@6.0.8",
      "externalReferences": [
        {
          "url": "https://github.com/symfony/error-handler.git",
          "type": "distribution",
          "comment": "As detected by composer's `getSourceUrls()` (type=git & reference=5e2795163acbd13b3cd46835c9f8f6c5d0a3a280)"
        },
        {
          "url": "https://api.github.com/repos/symfony/error-handler/zipball/5e2795163acbd13b3cd46835c9f8f6c5d0a3a280",
          "type": "distribution",
          "comment": "As detected by composer's `getDistUrls()` (type=zip & reference=5e2795163acbd13b3cd46835c9f8f6c5d0a3a280 & sha1=UNDEFINED)"
        },
        {
          "url": "https://symfony.com",
          "type": "website",
          "comment": "As set via `homepage` in composer package definition."
        },
        {
          "url": "https://github.com/symfony/error-handler/tree/v6.0.8",
          "type": "distribution",
          "comment": "As set via `support.source` in composer package definition."
        },
        {
          "url": "https://symfony.com/sponsor",
          "type": "other",
          "comment": "As set via `funding` in composer package definition. (type=custom)"
        },
        {
          "url": "https://github.com/fabpot",
          "type": "other",
          "comment": "As set via `funding` in composer package definition. (type=github)"
        },
        {
          "url": "https://tidelift.com/funding/github/packagist/symfony/symfony",
          "type": "other",
          "comment": "As set via `funding` in composer package definition. (type=tidelift)"
        }
      ]
    },
    {
      "type": "library",
      "bom-ref": "pkg:composer/symfony/event-dispatcher@6.0.3",
      "group": "symfony",
      "name": "event-dispatcher",
      "version": "6.0.3",
      "description": "Provides tools that allow your application components to communicate with each other by dispatching events and listening to them",
      "licenses": [
        {
          "license": {
            "id": "MIT"
          }
        }
      ],
      "purl": "pkg:composer/symfony/event-dispatcher@6.0.3",
      "externalReferences": [
        {
          "url": "https://github.com/symfony/event-dispatcher.git",
          "type": "distribution",
          "comment": "As detected by composer's `getSourceUrls()` (type=git & reference=6472ea2dd415e925b90ca82be64b8bc6157f3934)"
        },
        {
          "url": "https://api.github.com/repos/symfony/event-dispatcher/zipball/6472ea2dd415e925b90ca82be64b8bc6157f3934",
          "type": "distribution",
          "comment": "As detected by composer's `getDistUrls()` (type=zip & reference=6472ea2dd415e925b90ca82be64b8bc6157f3934 & sha1=UNDEFINED)"
        },
        {
          "url": "https://symfony.com",
          "type": "website",
          "comment": "As set via `homepage` in composer package definition."
        },
        {
          "url": "https://github.com/symfony/event-dispatcher/tree/v6.0.3",
          "type": "distribution",
          "comment": "As set via `support.source` in composer package definition."
        },
        {
          "url": "https://symfony.com/sponsor",
          "type": "other",
          "comment": "As set via `funding` in composer package definition. (type=custom)"
        },
        {
          "url": "https://github.com/fabpot",
          "type": "other",
          "comment": "As set via `funding` in composer package definition. (type=github)"
        },
        {
          "url": "https://tidelift.com/funding/github/packagist/symfony/symfony",
          "type": "other",
          "comment": "As set via `funding` in composer package definition. (type=tidelift)"
        }
      ]
    },
    {
      "type": "library",
      "bom-ref": "pkg:composer/symfony/event-dispatcher-contracts@3.0.1",
      "group": "symfony",
      "name": "event-dispatcher-contracts",
      "version": "3.0.1",
      "description": "Generic abstractions related to dispatching event",
      "licenses": [
        {
          "license": {
            "id": "MIT"
          }
        }
      ],
      "purl": "pkg:composer/symfony/event-dispatcher-contracts@3.0.1",
      "externalReferences": [
        {
          "url": "https://github.com/symfony/event-dispatcher-contracts.git",
          "type": "distribution",
          "comment": "As detected by composer's `getSourceUrls()` (type=git & reference=7bc61cc2db649b4637d331240c5346dcc7708051)"
        },
        {
          "url": "https://api.github.com/repos/symfony/event-dispatcher-contracts/zipball/7bc61cc2db649b4637d331240c5346dcc7708051",
          "type": "distribution",
          "comment": "As detected by composer's `getDistUrls()` (type=zip & reference=7bc61cc2db649b4637d331240c5346dcc7708051 & sha1=UNDEFINED)"
        },
        {
          "url": "https://symfony.com",
          "type": "website",
          "comment": "As set via `homepage` in composer package definition."
        },
        {
          "url": "https://github.com/symfony/event-dispatcher-contracts/tree/v3.0.1",
          "type": "distribution",
          "comment": "As set via `support.source` in composer package definition."
        },
        {
          "url": "https://symfony.com/sponsor",
          "type": "other",
          "comment": "As set via `funding` in composer package definition. (type=custom)"
        },
        {
          "url": "https://github.com/fabpot",
          "type": "other",
          "comment": "As set via `funding` in composer package definition. (type=github)"
        },
        {
          "url": "https://tidelift.com/funding/github/packagist/symfony/symfony",
          "type": "other",
          "comment": "As set via `funding` in composer package definition. (type=tidelift)"
        }
      ]
    },
    {
      "type": "library",
      "bom-ref": "pkg:composer/symfony/filesystem@6.0.7",
      "group": "symfony",
      "name": "filesystem",
      "version": "6.0.7",
      "description": "Provides basic utilities for the filesystem",
      "licenses": [
        {
          "license": {
            "id": "MIT"
          }
        }
      ],
      "purl": "pkg:composer/symfony/filesystem@6.0.7",
      "externalReferences": [
        {
          "url": "https://github.com/symfony/filesystem.git",
          "type": "distribution",
          "comment": "As detected by composer's `getSourceUrls()` (type=git & reference=6c9e4c41f2c51dfde3db298594ed9cba55dbf5ff)"
        },
        {
          "url": "https://api.github.com/repos/symfony/filesystem/zipball/6c9e4c41f2c51dfde3db298594ed9cba55dbf5ff",
          "type": "distribution",
          "comment": "As detected by composer's `getDistUrls()` (type=zip & reference=6c9e4c41f2c51dfde3db298594ed9cba55dbf5ff & sha1=UNDEFINED)"
        },
        {
          "url": "https://symfony.com",
          "type": "website",
          "comment": "As set via `homepage` in composer package definition."
        },
        {
          "url": "https://github.com/symfony/filesystem/tree/v6.0.7",
          "type": "distribution",
          "comment": "As set via `support.source` in composer package definition."
        },
        {
          "url": "https://symfony.com/sponsor",
          "type": "other",
          "comment": "As set via `funding` in composer package definition. (type=custom)"
        },
        {
          "url": "https://github.com/fabpot",
          "type": "other",
          "comment": "As set via `funding` in composer package definition. (type=github)"
        },
        {
          "url": "https://tidelift.com/funding/github/packagist/symfony/symfony",
          "type": "other",
          "comment": "As set via `funding` in composer package definition. (type=tidelift)"
        }
      ]
    },
    {
      "type": "library",
      "bom-ref": "pkg:composer/symfony/http-foundation@6.0.8",
      "group": "symfony",
      "name": "http-foundation",
      "version": "6.0.8",
      "description": "Defines an object-oriented layer for the HTTP specification",
      "licenses": [
        {
          "license": {
            "id": "MIT"
          }
        }
      ],
      "purl": "pkg:composer/symfony/http-foundation@6.0.8",
      "externalReferences": [
        {
          "url": "https://github.com/symfony/http-foundation.git",
          "type": "distribution",
          "comment": "As detected by composer's `getSourceUrls()` (type=git & reference=c9c86b02d7ef6f44f3154acc7de42831518afe7c)"
        },
        {
          "url": "https://api.github.com/repos/symfony/http-foundation/zipball/c9c86b02d7ef6f44f3154acc7de42831518afe7c",
          "type": "distribution",
          "comment": "As detected by composer's `getDistUrls()` (type=zip & reference=c9c86b02d7ef6f44f3154acc7de42831518afe7c & sha1=UNDEFINED)"
        },
        {
          "url": "https://symfony.com",
          "type": "website",
          "comment": "As set via `homepage` in composer package definition."
        },
        {
          "url": "https://github.com/symfony/http-foundation/tree/v6.0.8",
          "type": "distribution",
          "comment": "As set via `support.source` in composer package definition."
        },
        {
          "url": "https://symfony.com/sponsor",
          "type": "other",
          "comment": "As set via `funding` in composer package definition. (type=custom)"
        },
        {
          "url": "https://github.com/fabpot",
          "type": "other",
          "comment": "As set via `funding` in composer package definition. (type=github)"
        },
        {
          "url": "https://tidelift.com/funding/github/packagist/symfony/symfony",
          "type": "other",
          "comment": "As set via `funding` in composer package definition. (type=tidelift)"
        }
      ]
    },
    {
      "type": "library",
      "bom-ref": "pkg:composer/symfony/http-kernel@6.0.8",
      "group": "symfony",
      "name": "http-kernel",
      "version": "6.0.8",
      "description": "Provides a structured process for converting a Request into a Response",
      "licenses": [
        {
          "license": {
            "id": "MIT"
          }
        }
      ],
      "purl": "pkg:composer/symfony/http-kernel@6.0.8",
      "externalReferences": [
        {
          "url": "https://github.com/symfony/http-kernel.git",
          "type": "distribution",
          "comment": "As detected by composer's `getSourceUrls()` (type=git & reference=7aaf1cdc9cc2ad47e926f624efcb679883a39ca7)"
        },
        {
          "url": "https://api.github.com/repos/symfony/http-kernel/zipball/7aaf1cdc9cc2ad47e926f624efcb679883a39ca7",
          "type": "distribution",
          "comment": "As detected by composer's `getDistUrls()` (type=zip & reference=7aaf1cdc9cc2ad47e926f624efcb679883a39ca7 & sha1=UNDEFINED)"
        },
        {
          "url": "https://symfony.com",
          "type": "website",
          "comment": "As set via `homepage` in composer package definition."
        },
        {
          "url": "https://github.com/symfony/http-kernel/tree/v6.0.8",
          "type": "distribution",
          "comment": "As set via `support.source` in composer package definition."
        },
        {
          "url": "https://symfony.com/sponsor",
          "type": "other",
          "comment": "As set via `funding` in composer package definition. (type=custom)"
        },
        {
          "url": "https://github.com/fabpot",
          "type": "other",
          "comment": "As set via `funding` in composer package definition. (type=github)"
        },
        {
          "url": "https://tidelift.com/funding/github/packagist/symfony/symfony",
          "type": "other",
          "comment": "As set via `funding` in composer package definition. (type=tidelift)"
        }
      ]
    },
    {
      "type": "library",
      "bom-ref": "pkg:composer/symfony/polyfill-ctype@1.25.0",
      "group": "symfony",
      "name": "polyfill-ctype",
      "version": "1.25.0",
      "description": "Symfony polyfill for ctype functions",
      "licenses": [
        {
          "license": {
            "id": "MIT"
          }
        }
      ],
      "purl": "pkg:composer/symfony/polyfill-ctype@1.25.0",
      "externalReferences": [
        {
          "url": "https://github.com/symfony/polyfill-ctype.git",
          "type": "distribution",
          "comment": "As detected by composer's `getSourceUrls()` (type=git & reference=30885182c981ab175d4d034db0f6f469898070ab)"
        },
        {
          "url": "https://api.github.com/repos/symfony/polyfill-ctype/zipball/30885182c981ab175d4d034db0f6f469898070ab",
          "type": "distribution",
          "comment": "As detected by composer's `getDistUrls()` (type=zip & reference=30885182c981ab175d4d034db0f6f469898070ab & sha1=UNDEFINED)"
        },
        {
          "url": "https://symfony.com",
          "type": "website",
          "comment": "As set via `homepage` in composer package definition."
        },
        {
          "url": "https://github.com/symfony/polyfill-ctype/tree/v1.25.0",
          "type": "distribution",
          "comment": "As set via `support.source` in composer package definition."
        },
        {
          "url": "https://symfony.com/sponsor",
          "type": "other",
          "comment": "As set via `funding` in composer package definition. (type=custom)"
        },
        {
          "url": "https://github.com/fabpot",
          "type": "other",
          "comment": "As set via `funding` in composer package definition. (type=github)"
        },
        {
          "url": "https://tidelift.com/funding/github/packagist/symfony/symfony",
          "type": "other",
          "comment": "As set via `funding` in composer package definition. (type=tidelift)"
        }
      ]
    },
    {
      "type": "library",
      "bom-ref": "pkg:composer/symfony/polyfill-mbstring@1.25.0",
      "group": "symfony",
      "name": "polyfill-mbstring",
      "version": "1.25.0",
      "description": "Symfony polyfill for the Mbstring extension",
      "licenses": [
        {
          "license": {
            "id": "MIT"
          }
        }
      ],
      "purl": "pkg:composer/symfony/polyfill-mbstring@1.25.0",
      "externalReferences": [
        {
          "url": "https://github.com/symfony/polyfill-mbstring.git",
          "type": "distribution",
          "comment": "As detected by composer's `getSourceUrls()` (type=git & reference=0abb51d2f102e00a4eefcf46ba7fec406d245825)"
        },
        {
          "url": "https://api.github.com/repos/symfony/polyfill-mbstring/zipball/0abb51d2f102e00a4eefcf46ba7fec406d245825",
          "type": "distribution",
          "comment": "As detected by composer's `getDistUrls()` (type=zip & reference=0abb51d2f102e00a4eefcf46ba7fec406d245825 & sha1=UNDEFINED)"
        },
        {
          "url": "https://symfony.com",
          "type": "website",
          "comment": "As set via `homepage` in composer package definition."
        },
        {
          "url": "https://github.com/symfony/polyfill-mbstring/tree/v1.25.0",
          "type": "distribution",
          "comment": "As set via `support.source` in composer package definition."
        },
        {
          "url": "https://symfony.com/sponsor",
          "type": "other",
          "comment": "As set via `funding` in composer package definition. (type=custom)"
        },
        {
          "url": "https://github.com/fabpot",
          "type": "other",
          "comment": "As set via `funding` in composer package definition. (type=github)"
        },
        {
          "url": "https://tidelift.com/funding/github/packagist/symfony/symfony",
          "type": "other",
          "comment": "As set via `funding` in composer package definition. (type=tidelift)"
        }
      ]
    },
    {
      "type": "library",
      "bom-ref": "pkg:composer/symfony/polyfill-php81@1.25.0",
      "group": "symfony",
      "name": "polyfill-php81",
      "version": "1.25.0",
      "description": "Symfony polyfill backporting some PHP 8.1+ features to lower PHP versions",
      "licenses": [
        {
          "license": {
            "id": "MIT"
          }
        }
      ],
      "purl": "pkg:composer/symfony/polyfill-php81@1.25.0",
      "externalReferences": [
        {
          "url": "https://github.com/symfony/polyfill-php81.git",
          "type": "distribution",
          "comment": "As detected by composer's `getSourceUrls()` (type=git & reference=5de4ba2d41b15f9bd0e19b2ab9674135813ec98f)"
        },
        {
          "url": "https://api.github.com/repos/symfony/polyfill-php81/zipball/5de4ba2d41b15f9bd0e19b2ab9674135813ec98f",
          "type": "distribution",
          "comment": "As detected by composer's `getDistUrls()` (type=zip & reference=5de4ba2d41b15f9bd0e19b2ab9674135813ec98f & sha1=UNDEFINED)"
        },
        {
          "url": "https://symfony.com",
          "type": "website",
          "comment": "As set via `homepage` in composer package definition."
        },
        {
          "url": "https://github.com/symfony/polyfill-php81/tree/v1.25.0",
          "type": "distribution",
          "comment": "As set via `support.source` in composer package definition."
        },
        {
          "url": "https://symfony.com/sponsor",
          "type": "other",
          "comment": "As set via `funding` in composer package definition. (type=custom)"
        },
        {
          "url": "https://github.com/fabpot",
          "type": "other",
          "comment": "As set via `funding` in composer package definition. (type=github)"
        },
        {
          "url": "https://tidelift.com/funding/github/packagist/symfony/symfony",
          "type": "other",
          "comment": "As set via `funding` in composer package definition. (type=tidelift)"
        }
      ]
    },
    {
      "type": "library",
      "bom-ref": "pkg:composer/symfony/service-contracts@3.0.1",
      "group": "symfony",
      "name": "service-contracts",
      "version": "3.0.1",
      "description": "Generic abstractions related to writing services",
      "licenses": [
        {
          "license": {
            "id": "MIT"
          }
        }
      ],
      "purl": "pkg:composer/symfony/service-contracts@3.0.1",
      "externalReferences": [
        {
          "url": "https://github.com/symfony/service-contracts.git",
          "type": "distribution",
          "comment": "As detected by composer's `getSourceUrls()` (type=git & reference=e517458f278c2131ca9f262f8fbaf01410f2c65c)"
        },
        {
          "url": "https://api.github.com/repos/symfony/service-contracts/zipball/e517458f278c2131ca9f262f8fbaf01410f2c65c",
          "type": "distribution",
          "comment": "As detected by composer's `getDistUrls()` (type=zip & reference=e517458f278c2131ca9f262f8fbaf01410f2c65c & sha1=UNDEFINED)"
        },
        {
          "url": "https://symfony.com",
          "type": "website",
          "comment": "As set via `homepage` in composer package definition."
        },
        {
          "url": "https://github.com/symfony/service-contracts/tree/v3.0.1",
          "type": "distribution",
          "comment": "As set via `support.source` in composer package definition."
        },
        {
          "url": "https://symfony.com/sponsor",
          "type": "other",
          "comment": "As set via `funding` in composer package definition. (type=custom)"
        },
        {
          "url": "https://github.com/fabpot",
          "type": "other",
          "comment": "As set via `funding` in composer package definition. (type=github)"
        },
        {
          "url": "https://tidelift.com/funding/github/packagist/symfony/symfony",
          "type": "other",
          "comment": "As set via `funding` in composer package definition. (type=tidelift)"
        }
      ]
    },
    {
      "type": "library",
      "bom-ref": "pkg:composer/symfony/var-dumper@6.0.8",
      "group": "symfony",
      "name": "var-dumper",
      "version": "6.0.8",
      "description": "Provides mechanisms for walking through any arbitrary PHP variable",
      "licenses": [
        {
          "license": {
            "id": "MIT"
          }
        }
      ],
      "purl": "pkg:composer/symfony/var-dumper@6.0.8",
      "externalReferences": [
        {
          "url": "https://github.com/symfony/var-dumper.git",
          "type": "distribution",
          "comment": "As detected by composer's `getSourceUrls()` (type=git & reference=fa61dfb4bd3068df2492013dc65f3190e9f550c0)"
        },
        {
          "url": "https://api.github.com/repos/symfony/var-dumper/zipball/fa61dfb4bd3068df2492013dc65f3190e9f550c0",
          "type": "distribution",
          "comment": "As detected by composer's `getDistUrls()` (type=zip & reference=fa61dfb4bd3068df2492013dc65f3190e9f550c0 & sha1=UNDEFINED)"
        },
        {
          "url": "https://symfony.com",
          "type": "website",
          "comment": "As set via `homepage` in composer package definition."
        },
        {
          "url": "https://github.com/symfony/var-dumper/tree/v6.0.8",
          "type": "distribution",
          "comment": "As set via `support.source` in composer package definition."
        },
        {
          "url": "https://symfony.com/sponsor",
          "type": "other",
          "comment": "As set via `funding` in composer package definition. (type=custom)"
        },
        {
          "url": "https://github.com/fabpot",
          "type": "other",
          "comment": "As set via `funding` in composer package definition. (type=github)"
        },
        {
          "url": "https://tidelift.com/funding/github/packagist/symfony/symfony",
          "type": "other",
          "comment": "As set via `funding` in composer package definition. (type=tidelift)"
        }
      ]
    },
    {
      "type": "library",
      "bom-ref": "pkg:composer/symfony/var-exporter@6.0.8",
      "group": "symfony",
      "name": "var-exporter",
      "version": "6.0.8",
      "description": "Allows exporting any serializable PHP data structure to plain PHP code",
      "licenses": [
        {
          "license": {
            "id": "MIT"
          }
        }
      ],
      "purl": "pkg:composer/symfony/var-exporter@6.0.8",
      "externalReferences": [
        {
          "url": "https://github.com/symfony/var-exporter.git",
          "type": "distribution",
          "comment": "As detected by composer's `getSourceUrls()` (type=git & reference=74b272979a490747c6775b0228d06cf246306a99)"
        },
        {
          "url": "https://api.github.com/repos/symfony/var-exporter/zipball/74b272979a490747c6775b0228d06cf246306a99",
          "type": "distribution",
          "comment": "As detected by composer's `getDistUrls()` (type=zip & reference=74b272979a490747c6775b0228d06cf246306a99 & sha1=UNDEFINED)"
        },
        {
          "url": "https://symfony.com",
          "type": "website",
          "comment": "As set via `homepage` in composer package definition."
        },
        {
          "url": "https://github.com/symfony/var-exporter/tree/v6.0.8",
          "type": "distribution",
          "comment": "As set via `support.source` in composer package definition."
        },
        {
          "url": "https://symfony.com/sponsor",
          "type": "other",
          "comment": "As set via `funding` in composer package definition. (type=custom)"
        },
        {
          "url": "https://github.com/fabpot",
          "type": "other",
          "comment": "As set via `funding` in composer package definition. (type=github)"
        },
        {
          "url": "https://tidelift.com/funding/github/packagist/symfony/symfony",
          "type": "other",
          "comment": "As set via `funding` in composer package definition. (type=tidelift)"
        }
      ]
    },
    {
      "type": "library",
      "bom-ref": "pkg:composer/cyclonedx/cyclonedx-library@1.5.0",
      "group": "cyclonedx",
      "name": "cyclonedx-library",
      "version": "1.5.0",
      "description": "Work with CycloneDX Software Bill-of-Materials (SBOM)",
      "licenses": [
        {
          "license": {
            "id": "Apache-2.0"
          }
        }
      ],
      "purl": "pkg:composer/cyclonedx/cyclonedx-library@1.5.0",
      "externalReferences": [
        {
          "url": "https://github.com/CycloneDX/cyclonedx-php-library.git",
          "type": "distribution",
          "comment": "As detected by composer's `getSourceUrls()` (type=git & reference=f41632e1d47001700ef93fa899e6dc49779aa784)"
        },
        {
          "url": "https://api.github.com/repos/CycloneDX/cyclonedx-php-library/zipball/f41632e1d47001700ef93fa899e6dc49779aa784",
          "type": "distribution",
          "comment": "As detected by composer's `getDistUrls()` (type=zip & reference=f41632e1d47001700ef93fa899e6dc49779aa784 & sha1=UNDEFINED)"
        },
        {
          "url": "https://github.com/CycloneDX/cyclonedx-php-library/",
          "type": "website",
          "comment": "As set via `homepage` in composer package definition."
        },
        {
          "url": "https://github.com/CycloneDX/cyclonedx-php-library/issues",
          "type": "issue-tracker",
          "comment": "As set via `support.issues` in composer package definition."
        },
        {
          "url": "https://github.com/CycloneDX/cyclonedx-php-library/tree/v1.5.0",
          "type": "distribution",
          "comment": "As set via `support.source` in composer package definition."
        }
      ]
    },
    {
      "type": "application",
      "bom-ref": "pkg:composer/cyclonedx/cyclonedx-php-composer@3.10.0",
      "group": "cyclonedx",
      "name": "cyclonedx-php-composer",
      "version": "3.10.0",
      "description": "Creates CycloneDX Software Bill-of-Materials (SBOM) from PHP Composer projects",
      "licenses": [
        {
          "license": {
            "id": "Apache-2.0"
          }
        }
      ],
      "purl": "pkg:composer/cyclonedx/cyclonedx-php-composer@3.10.0",
      "externalReferences": [
        {
          "url": "https://github.com/CycloneDX/cyclonedx-php-composer.git",
          "type": "distribution",
          "comment": "As detected by composer's `getSourceUrls()` (type=git & reference=341792df609deab6131ffa65f2f3b273f2e6128a)"
        },
        {
          "url": "https://api.github.com/repos/CycloneDX/cyclonedx-php-composer/zipball/341792df609deab6131ffa65f2f3b273f2e6128a",
          "type": "distribution",
          "comment": "As detected by composer's `getDistUrls()` (type=zip & reference=341792df609deab6131ffa65f2f3b273f2e6128a & sha1=UNDEFINED)"
        },
        {
          "url": "https://github.com/CycloneDX/cyclonedx-php-composer/",
          "type": "website",
          "comment": "As set via `homepage` in composer package definition."
        },
        {
          "url": "https://github.com/CycloneDX/cyclonedx-php-composer/issues",
          "type": "issue-tracker",
          "comment": "As set via `support.issues` in composer package definition."
        },
        {
          "url": "https://github.com/CycloneDX/cyclonedx-php-composer/tree/v3.10.0",
          "type": "distribution",
          "comment": "As set via `support.source` in composer package definition."
        }
      ]
    },
    {
      "type": "library",
      "bom-ref": "pkg:composer/package-url/packageurl-php@1.0.4",
      "group": "package-url",
      "name": "packageurl-php",
      "version": "1.0.4",
      "description": "A parser and builder based on the package url spec.",
      "licenses": [
        {
          "license": {
            "id": "MIT"
          }
        }
      ],
      "purl": "pkg:composer/package-url/packageurl-php@1.0.4",
      "externalReferences": [
        {
          "url": "https://github.com/package-url/packageurl-php.git",
          "type": "distribution",
          "comment": "As detected by composer's `getSourceUrls()` (type=git & reference=c45953babed516d27a0cf6c1a2d9f7e883ce214f)"
        },
        {
          "url": "https://api.github.com/repos/package-url/packageurl-php/zipball/c45953babed516d27a0cf6c1a2d9f7e883ce214f",
          "type": "distribution",
          "comment": "As detected by composer's `getDistUrls()` (type=zip & reference=c45953babed516d27a0cf6c1a2d9f7e883ce214f & sha1=UNDEFINED)"
        },
        {
          "url": "https://github.com/package-url/packageurl-php",
          "type": "website",
          "comment": "As set via `homepage` in composer package definition."
        },
        {
          "url": "https://github.com/package-url/packageurl-php/issues",
          "type": "issue-tracker",
          "comment": "As set via `support.issues` in composer package definition."
        },
        {
          "url": "https://github.com/package-url/packageurl-php/tree/1.0.4",
          "type": "distribution",
          "comment": "As set via `support.source` in composer package definition."
        }
      ]
    },
    {
      "type": "library",
      "bom-ref": "pkg:composer/phplang/scope-exit@1.0.0",
      "group": "phplang",
      "name": "scope-exit",
      "version": "1.0.0",
      "description": "Emulation of SCOPE_EXIT construct from C++",
      "licenses": [
        {
          "license": {
            "name": "BSD"
          }
        }
      ],
      "purl": "pkg:composer/phplang/scope-exit@1.0.0",
      "externalReferences": [
        {
          "url": "https://github.com/phplang/scope-exit.git",
          "type": "distribution",
          "comment": "As detected by composer's `getSourceUrls()` (type=git & reference=239b73abe89f9414aa85a7ca075ec9445629192b)"
        },
        {
          "url": "https://api.github.com/repos/phplang/scope-exit/zipball/239b73abe89f9414aa85a7ca075ec9445629192b",
          "type": "distribution",
          "comment": "As detected by composer's `getDistUrls()` (type=zip & reference=239b73abe89f9414aa85a7ca075ec9445629192b & sha1=UNDEFINED)"
        },
        {
          "url": "https://github.com/phplang/scope-exit",
          "type": "website",
          "comment": "As set via `homepage` in composer package definition."
        },
        {
          "url": "https://github.com/phplang/scope-exit/issues",
          "type": "issue-tracker",
          "comment": "As set via `support.issues` in composer package definition."
        },
        {
          "url": "https://github.com/phplang/scope-exit/tree/master",
          "type": "distribution",
          "comment": "As set via `support.source` in composer package definition."
        }
      ]
    },
    {
      "type": "library",
      "bom-ref": "pkg:composer/swaggest/json-diff@3.8.3",
      "group": "swaggest",
      "name": "json-diff",
      "version": "3.8.3",
      "description": "JSON diff/rearrange/patch/pointer library for PHP",
      "licenses": [
        {
          "license": {
            "id": "MIT"
          }
        }
      ],
      "purl": "pkg:composer/swaggest/json-diff@3.8.3",
      "externalReferences": [
        {
          "url": "https://github.com/swaggest/json-diff.git",
          "type": "distribution",
          "comment": "As detected by composer's `getSourceUrls()` (type=git & reference=bb3e3b4e9d842bb2e48f31ea568d0459968d1d42)"
        },
        {
          "url": "https://api.github.com/repos/swaggest/json-diff/zipball/bb3e3b4e9d842bb2e48f31ea568d0459968d1d42",
          "type": "distribution",
          "comment": "As detected by composer's `getDistUrls()` (type=zip & reference=bb3e3b4e9d842bb2e48f31ea568d0459968d1d42 & sha1=UNDEFINED)"
        },
        {
          "url": "https://github.com/swaggest/json-diff/issues",
          "type": "issue-tracker",
          "comment": "As set via `support.issues` in composer package definition."
        },
        {
          "url": "https://github.com/swaggest/json-diff/tree/v3.8.3",
          "type": "distribution",
          "comment": "As set via `support.source` in composer package definition."
        }
      ]
    },
    {
      "type": "library",
      "bom-ref": "pkg:composer/swaggest/json-schema@0.12.39",
      "group": "swaggest",
      "name": "json-schema",
      "version": "0.12.39",
      "description": "High definition PHP structures with JSON-schema based validation",
      "licenses": [
        {
          "license": {
            "id": "MIT"
          }
        }
      ],
      "purl": "pkg:composer/swaggest/json-schema@0.12.39",
      "externalReferences": [
        {
          "url": "https://github.com/swaggest/php-json-schema.git",
          "type": "distribution",
          "comment": "As detected by composer's `getSourceUrls()` (type=git & reference=193ba39cce1ffa2d55ddd5445315e945a63298a2)"
        },
        {
          "url": "https://api.github.com/repos/swaggest/php-json-schema/zipball/193ba39cce1ffa2d55ddd5445315e945a63298a2",
          "type": "distribution",
          "comment": "As detected by composer's `getDistUrls()` (type=zip & reference=193ba39cce1ffa2d55ddd5445315e945a63298a2 & sha1=UNDEFINED)"
        },
        {
          "url": "mailto:vearutop@gmail.com",
          "type": "other",
          "comment": "As set via `support.email` in composer package definition."
        },
        {
          "url": "https://github.com/swaggest/php-json-schema/issues",
          "type": "issue-tracker",
          "comment": "As set via `support.issues` in composer package definition."
        },
        {
          "url": "https://github.com/swaggest/php-json-schema/tree/v0.12.39",
          "type": "distribution",
          "comment": "As set via `support.source` in composer package definition."
        }
      ]
    },
    {
      "type": "library",
      "bom-ref": "pkg:composer/symfony/mime@6.0.8",
      "group": "symfony",
      "name": "mime",
      "version": "6.0.8",
      "description": "Allows manipulating MIME messages",
      "licenses": [
        {
          "license": {
            "id": "MIT"
          }
        }
      ],
      "purl": "pkg:composer/symfony/mime@6.0.8",
      "externalReferences": [
        {
          "url": "https://github.com/symfony/mime.git",
          "type": "distribution",
          "comment": "As detected by composer's `getSourceUrls()` (type=git & reference=c1701e88ad0ca49fc6ad6cdf360bc0e1209fb5e1)"
        },
        {
          "url": "https://api.github.com/repos/symfony/mime/zipball/c1701e88ad0ca49fc6ad6cdf360bc0e1209fb5e1",
          "type": "distribution",
          "comment": "As detected by composer's `getDistUrls()` (type=zip & reference=c1701e88ad0ca49fc6ad6cdf360bc0e1209fb5e1 & sha1=UNDEFINED)"
        },
        {
          "url": "https://symfony.com",
          "type": "website",
          "comment": "As set via `homepage` in composer package definition."
        },
        {
          "url": "https://github.com/symfony/mime/tree/v6.0.8",
          "type": "distribution",
          "comment": "As set via `support.source` in composer package definition."
        },
        {
          "url": "https://symfony.com/sponsor",
          "type": "other",
          "comment": "As set via `funding` in composer package definition. (type=custom)"
        },
        {
          "url": "https://github.com/fabpot",
          "type": "other",
          "comment": "As set via `funding` in composer package definition. (type=github)"
        },
        {
          "url": "https://tidelift.com/funding/github/packagist/symfony/symfony",
          "type": "other",
          "comment": "As set via `funding` in composer package definition. (type=tidelift)"
        }
      ]
    },
    {
      "type": "library",
      "bom-ref": "pkg:composer/symfony/password-hasher@6.0.8",
      "group": "symfony",
      "name": "password-hasher",
      "version": "6.0.8",
      "description": "Provides password hashing utilities",
      "licenses": [
        {
          "license": {
            "id": "MIT"
          }
        }
      ],
      "purl": "pkg:composer/symfony/password-hasher@6.0.8",
      "externalReferences": [
        {
          "url": "https://github.com/symfony/password-hasher.git",
          "type": "distribution",
          "comment": "As detected by composer's `getSourceUrls()` (type=git & reference=b51d2155aafd5b03af0391e9e602538f6dc44f15)"
        },
        {
          "url": "https://api.github.com/repos/symfony/password-hasher/zipball/b51d2155aafd5b03af0391e9e602538f6dc44f15",
          "type": "distribution",
          "comment": "As detected by composer's `getDistUrls()` (type=zip & reference=b51d2155aafd5b03af0391e9e602538f6dc44f15 & sha1=UNDEFINED)"
        },
        {
          "url": "https://symfony.com",
          "type": "website",
          "comment": "As set via `homepage` in composer package definition."
        },
        {
          "url": "https://github.com/symfony/password-hasher/tree/v6.0.8",
          "type": "distribution",
          "comment": "As set via `support.source` in composer package definition."
        },
        {
          "url": "https://symfony.com/sponsor",
          "type": "other",
          "comment": "As set via `funding` in composer package definition. (type=custom)"
        },
        {
          "url": "https://github.com/fabpot",
          "type": "other",
          "comment": "As set via `funding` in composer package definition. (type=github)"
        },
        {
          "url": "https://tidelift.com/funding/github/packagist/symfony/symfony",
          "type": "other",
          "comment": "As set via `funding` in composer package definition. (type=tidelift)"
        }
      ]
    },
    {
      "type": "library",
      "bom-ref": "pkg:composer/symfony/phpunit-bridge@6.0.8",
      "group": "symfony",
      "name": "phpunit-bridge",
      "version": "6.0.8",
      "description": "Provides utilities for PHPUnit, especially user deprecation notices management",
      "licenses": [
        {
          "license": {
            "id": "MIT"
          }
        }
      ],
      "purl": "pkg:composer/symfony/phpunit-bridge@6.0.8",
      "externalReferences": [
        {
          "url": "https://github.com/symfony/phpunit-bridge.git",
          "type": "distribution",
          "comment": "As detected by composer's `getSourceUrls()` (type=git & reference=4959a1eedd473bdb3f19db5b1525d5415dfab471)"
        },
        {
          "url": "https://api.github.com/repos/symfony/phpunit-bridge/zipball/4959a1eedd473bdb3f19db5b1525d5415dfab471",
          "type": "distribution",
          "comment": "As detected by composer's `getDistUrls()` (type=zip & reference=4959a1eedd473bdb3f19db5b1525d5415dfab471 & sha1=UNDEFINED)"
        },
        {
          "url": "https://symfony.com",
          "type": "website",
          "comment": "As set via `homepage` in composer package definition."
        },
        {
          "url": "https://github.com/symfony/phpunit-bridge/tree/v6.0.8",
          "type": "distribution",
          "comment": "As set via `support.source` in composer package definition."
        },
        {
          "url": "https://symfony.com/sponsor",
          "type": "other",
          "comment": "As set via `funding` in composer package definition. (type=custom)"
        },
        {
          "url": "https://github.com/fabpot",
          "type": "other",
          "comment": "As set via `funding` in composer package definition. (type=github)"
        },
        {
          "url": "https://tidelift.com/funding/github/packagist/symfony/symfony",
          "type": "other",
          "comment": "As set via `funding` in composer package definition. (type=tidelift)"
        }
      ]
    },
    {
      "type": "library",
      "bom-ref": "pkg:composer/symfony/polyfill-intl-idn@1.25.0",
      "group": "symfony",
      "name": "polyfill-intl-idn",
      "version": "1.25.0",
      "description": "Symfony polyfill for intl's idn_to_ascii and idn_to_utf8 functions",
      "licenses": [
        {
          "license": {
            "id": "MIT"
          }
        }
      ],
      "purl": "pkg:composer/symfony/polyfill-intl-idn@1.25.0",
      "externalReferences": [
        {
          "url": "https://github.com/symfony/polyfill-intl-idn.git",
          "type": "distribution",
          "comment": "As detected by composer's `getSourceUrls()` (type=git & reference=749045c69efb97c70d25d7463abba812e91f3a44)"
        },
        {
          "url": "https://api.github.com/repos/symfony/polyfill-intl-idn/zipball/749045c69efb97c70d25d7463abba812e91f3a44",
          "type": "distribution",
          "comment": "As detected by composer's `getDistUrls()` (type=zip & reference=749045c69efb97c70d25d7463abba812e91f3a44 & sha1=UNDEFINED)"
        },
        {
          "url": "https://symfony.com",
          "type": "website",
          "comment": "As set via `homepage` in composer package definition."
        },
        {
          "url": "https://github.com/symfony/polyfill-intl-idn/tree/v1.25.0",
          "type": "distribution",
          "comment": "As set via `support.source` in composer package definition."
        },
        {
          "url": "https://symfony.com/sponsor",
          "type": "other",
          "comment": "As set via `funding` in composer package definition. (type=custom)"
        },
        {
          "url": "https://github.com/fabpot",
          "type": "other",
          "comment": "As set via `funding` in composer package definition. (type=github)"
        },
        {
          "url": "https://tidelift.com/funding/github/packagist/symfony/symfony",
          "type": "other",
          "comment": "As set via `funding` in composer package definition. (type=tidelift)"
        }
      ]
    },
    {
      "type": "library",
      "bom-ref": "pkg:composer/symfony/polyfill-intl-normalizer@1.25.0",
      "group": "symfony",
      "name": "polyfill-intl-normalizer",
      "version": "1.25.0",
      "description": "Symfony polyfill for intl's Normalizer class and related functions",
      "licenses": [
        {
          "license": {
            "id": "MIT"
          }
        }
      ],
      "purl": "pkg:composer/symfony/polyfill-intl-normalizer@1.25.0",
      "externalReferences": [
        {
          "url": "https://github.com/symfony/polyfill-intl-normalizer.git",
          "type": "distribution",
          "comment": "As detected by composer's `getSourceUrls()` (type=git & reference=8590a5f561694770bdcd3f9b5c69dde6945028e8)"
        },
        {
          "url": "https://api.github.com/repos/symfony/polyfill-intl-normalizer/zipball/8590a5f561694770bdcd3f9b5c69dde6945028e8",
          "type": "distribution",
          "comment": "As detected by composer's `getDistUrls()` (type=zip & reference=8590a5f561694770bdcd3f9b5c69dde6945028e8 & sha1=UNDEFINED)"
        },
        {
          "url": "https://symfony.com",
          "type": "website",
          "comment": "As set via `homepage` in composer package definition."
        },
        {
          "url": "https://github.com/symfony/polyfill-intl-normalizer/tree/v1.25.0",
          "type": "distribution",
          "comment": "As set via `support.source` in composer package definition."
        },
        {
          "url": "https://symfony.com/sponsor",
          "type": "other",
          "comment": "As set via `funding` in composer package definition. (type=custom)"
        },
        {
          "url": "https://github.com/fabpot",
          "type": "other",
          "comment": "As set via `funding` in composer package definition. (type=github)"
        },
        {
          "url": "https://tidelift.com/funding/github/packagist/symfony/symfony",
          "type": "other",
          "comment": "As set via `funding` in composer package definition. (type=tidelift)"
        }
      ]
    },
    {
      "type": "library",
      "bom-ref": "pkg:composer/symfony/polyfill-php72@1.25.0",
      "group": "symfony",
      "name": "polyfill-php72",
      "version": "1.25.0",
      "description": "Symfony polyfill backporting some PHP 7.2+ features to lower PHP versions",
      "licenses": [
        {
          "license": {
            "id": "MIT"
          }
        }
      ],
      "purl": "pkg:composer/symfony/polyfill-php72@1.25.0",
      "externalReferences": [
        {
          "url": "https://github.com/symfony/polyfill-php72.git",
          "type": "distribution",
          "comment": "As detected by composer's `getSourceUrls()` (type=git & reference=9a142215a36a3888e30d0a9eeea9766764e96976)"
        },
        {
          "url": "https://api.github.com/repos/symfony/polyfill-php72/zipball/9a142215a36a3888e30d0a9eeea9766764e96976",
          "type": "distribution",
          "comment": "As detected by composer's `getDistUrls()` (type=zip & reference=9a142215a36a3888e30d0a9eeea9766764e96976 & sha1=UNDEFINED)"
        },
        {
          "url": "https://symfony.com",
          "type": "website",
          "comment": "As set via `homepage` in composer package definition."
        },
        {
          "url": "https://github.com/symfony/polyfill-php72/tree/v1.25.0",
          "type": "distribution",
          "comment": "As set via `support.source` in composer package definition."
        },
        {
          "url": "https://symfony.com/sponsor",
          "type": "other",
          "comment": "As set via `funding` in composer package definition. (type=custom)"
        },
        {
          "url": "https://github.com/fabpot",
          "type": "other",
          "comment": "As set via `funding` in composer package definition. (type=github)"
        },
        {
          "url": "https://tidelift.com/funding/github/packagist/symfony/symfony",
          "type": "other",
          "comment": "As set via `funding` in composer package definition. (type=tidelift)"
        }
      ]
    },
    {
      "type": "library",
      "bom-ref": "pkg:composer/symfony/security-core@6.0.8",
      "group": "symfony",
      "name": "security-core",
      "version": "6.0.8",
      "description": "Symfony Security Component - Core Library",
      "licenses": [
        {
          "license": {
            "id": "MIT"
          }
        }
      ],
      "purl": "pkg:composer/symfony/security-core@6.0.8",
      "externalReferences": [
        {
          "url": "https://github.com/symfony/security-core.git",
          "type": "distribution",
          "comment": "As detected by composer's `getSourceUrls()` (type=git & reference=36d56362f990e3327130af868a9bed608c6e08f9)"
        },
        {
          "url": "https://api.github.com/repos/symfony/security-core/zipball/36d56362f990e3327130af868a9bed608c6e08f9",
          "type": "distribution",
          "comment": "As detected by composer's `getDistUrls()` (type=zip & reference=36d56362f990e3327130af868a9bed608c6e08f9 & sha1=UNDEFINED)"
        },
        {
          "url": "https://symfony.com",
          "type": "website",
          "comment": "As set via `homepage` in composer package definition."
        },
        {
          "url": "https://github.com/symfony/security-core/tree/v6.0.8",
          "type": "distribution",
          "comment": "As set via `support.source` in composer package definition."
        },
        {
          "url": "https://symfony.com/sponsor",
          "type": "other",
          "comment": "As set via `funding` in composer package definition. (type=custom)"
        },
        {
          "url": "https://github.com/fabpot",
          "type": "other",
          "comment": "As set via `funding` in composer package definition. (type=github)"
        },
        {
          "url": "https://tidelift.com/funding/github/packagist/symfony/symfony",
          "type": "other",
          "comment": "As set via `funding` in composer package definition. (type=tidelift)"
        }
      ]
    },
    {
      "type": "library",
      "bom-ref": "pkg:composer/symfony/polyfill-mbstring@1.19.0",
      "group": "symfony",
      "name": "polyfill-mbstring",
      "version": "1.19.0",
      "description": "Symfony polyfill for the Mbstring extension",
      "licenses": [
        {
          "license": {
            "id": "MIT",
            "url": "https://opensource.org/licenses/MIT"
          }
        }
      ],
      "purl": "pkg:composer/symfony/polyfill-mbstring@1.19.0",
      "externalReferences": [
        {
          "url": "https://github.com/symfony/polyfill-mbstring.git",
          "type": "vcs"
        }
      ]
    }
  ],
  "dependencies": [
    {
      "ref": "pkg:composer/behat/transliterator@1.5.0"
    },
    {
      "ref": "pkg:composer/doctrine/annotations@1.13.2",
      "dependsOn": [
        "pkg:composer/doctrine/lexer@1.2.3",
        "pkg:composer/psr/cache@3.0.0"
      ]
    },
    {
      "ref": "pkg:composer/doctrine/cache@2.1.1"
    },
    {
      "ref": "pkg:composer/doctrine/collections@1.6.8"
    },
    {
      "ref": "pkg:composer/doctrine/common@3.3.0",
      "dependsOn": [
        "pkg:composer/doctrine/persistence@2.5.3"
      ]
    },
    {
      "ref": "pkg:composer/doctrine/deprecations@1.0.0"
    },
    {
      "ref": "pkg:composer/doctrine/event-manager@1.1.1"
    },
    {
      "ref": "pkg:composer/doctrine/lexer@1.2.3"
    },
    {
      "ref": "pkg:composer/doctrine/persistence@2.5.3",
      "dependsOn": [
        "pkg:composer/doctrine/cache@2.1.1",
        "pkg:composer/doctrine/collections@1.6.8",
        "pkg:composer/doctrine/deprecations@1.0.0",
        "pkg:composer/doctrine/event-manager@1.1.1",
        "pkg:composer/psr/cache@3.0.0"
      ]
    },
    {
      "ref": "pkg:composer/gedmo/doctrine-extensions@3.6.0",
      "dependsOn": [
        "pkg:composer/behat/transliterator@1.5.0",
        "pkg:composer/doctrine/annotations@1.13.2",
        "pkg:composer/doctrine/cache@2.1.1",
        "pkg:composer/doctrine/collections@1.6.8",
        "pkg:composer/doctrine/common@3.3.0",
        "pkg:composer/doctrine/event-manager@1.1.1",
        "pkg:composer/doctrine/persistence@2.5.3",
        "pkg:composer/psr/cache@3.0.0",
        "pkg:composer/symfony/cache@6.0.8"
      ]
    },
    {
      "ref": "pkg:composer/psr/cache@3.0.0"
    },
    {
      "ref": "pkg:composer/psr/container@2.0.2"
    },
    {
      "ref": "pkg:composer/psr/event-dispatcher@1.0.0"
    },
    {
      "ref": "pkg:composer/psr/log@3.0.0"
    },
    {
      "ref": "pkg:composer/symfony/cache@6.0.8",
      "dependsOn": [
        "pkg:composer/psr/cache@3.0.0",
        "pkg:composer/psr/log@3.0.0",
        "pkg:composer/symfony/cache-contracts@3.0.1",
        "pkg:composer/symfony/service-contracts@3.0.1",
        "pkg:composer/symfony/var-exporter@6.0.8"
      ]
    },
    {
      "ref": "pkg:composer/symfony/cache-contracts@3.0.1",
      "dependsOn": [
        "pkg:composer/psr/cache@3.0.0"
      ]
    },
    {
      "ref": "pkg:composer/symfony/config@6.0.8",
      "dependsOn": [
        "pkg:composer/symfony/deprecation-contracts@3.0.1",
        "pkg:composer/symfony/filesystem@6.0.7",
        "pkg:composer/symfony/polyfill-ctype@1.25.0",
        "pkg:composer/symfony/polyfill-php81@1.25.0"
      ]
    },
    {
      "ref": "pkg:composer/symfony/dependency-injection@6.0.8",
      "dependsOn": [
        "pkg:composer/psr/container@2.0.2",
        "pkg:composer/symfony/deprecation-contracts@3.0.1",
        "pkg:composer/symfony/polyfill-php81@1.25.0",
        "pkg:composer/symfony/service-contracts@3.0.1"
      ]
    },
    {
      "ref": "pkg:composer/symfony/deprecation-contracts@3.0.1"
    },
    {
      "ref": "pkg:composer/symfony/error-handler@6.0.8",
      "dependsOn": [
        "pkg:composer/psr/log@3.0.0",
        "pkg:composer/symfony/var-dumper@6.0.8"
      ]
    },
    {
      "ref": "pkg:composer/symfony/event-dispatcher@6.0.3",
      "dependsOn": [
        "pkg:composer/symfony/event-dispatcher-contracts@3.0.1"
      ]
    },
    {
      "ref": "pkg:composer/symfony/event-dispatcher-contracts@3.0.1",
      "dependsOn": [
        "pkg:composer/psr/event-dispatcher@1.0.0"
      ]
    },
    {
      "ref": "pkg:composer/symfony/filesystem@6.0.7",
      "dependsOn": [
        "pkg:composer/symfony/polyfill-ctype@1.25.0",
        "pkg:composer/symfony/polyfill-mbstring@1.25.0"
      ]
    },
    {
      "ref": "pkg:composer/symfony/http-foundation@6.0.8",
      "dependsOn": [
        "pkg:composer/symfony/deprecation-contracts@3.0.1",
        "pkg:composer/symfony/polyfill-mbstring@1.25.0"
      ]
    },
    {
      "ref": "pkg:composer/symfony/http-kernel@6.0.8",
      "dependsOn": [
        "pkg:composer/psr/log@3.0.0",
        "pkg:composer/symfony/error-handler@6.0.8",
        "pkg:composer/symfony/event-dispatcher@6.0.3",
        "pkg:composer/symfony/http-foundation@6.0.8",
        "pkg:composer/symfony/polyfill-ctype@1.25.0"
      ]
    },
    {
      "ref": "pkg:composer/symfony/polyfill-ctype@1.25.0"
    },
    {
      "ref": "pkg:composer/symfony/polyfill-mbstring@1.25.0"
    },
    {
      "ref": "pkg:composer/symfony/polyfill-php81@1.25.0"
    },
    {
      "ref": "pkg:composer/symfony/service-contracts@3.0.1",
      "dependsOn": [
        "pkg:composer/psr/container@2.0.2"
      ]
    },
    {
      "ref": "pkg:composer/symfony/var-dumper@6.0.8",
      "dependsOn": [
        "pkg:composer/symfony/polyfill-mbstring@1.25.0"
      ]
    },
    {
      "ref": "pkg:composer/symfony/var-exporter@6.0.8"
    },
    {
      "ref": "pkg:composer/cyclonedx/cyclonedx-library@1.5.0",
      "dependsOn": [
        "pkg:composer/package-url/packageurl-php@1.0.4",
        "pkg:composer/swaggest/json-schema@0.12.39"
      ]
    },
    {
      "ref": "pkg:composer/cyclonedx/cyclonedx-php-composer@3.10.0",
      "dependsOn": [
        "pkg:composer/cyclonedx/cyclonedx-library@1.5.0",
        "pkg:composer/package-url/packageurl-php@1.0.4"
      ]
    },
    {
      "ref": "pkg:composer/package-url/packageurl-php@1.0.4"
    },
    {
      "ref": "pkg:composer/phplang/scope-exit@1.0.0"
    },
    {
      "ref": "pkg:composer/swaggest/json-diff@3.8.3"
    },
    {
      "ref": "pkg:composer/swaggest/json-schema@0.12.39",
      "dependsOn": [
        "pkg:composer/phplang/scope-exit@1.0.0",
        "pkg:composer/swaggest/json-diff@3.8.3",
        "pkg:composer/symfony/polyfill-mbstring@1.25.0"
      ]
    },
    {
      "ref": "pkg:composer/symfony/mime@6.0.8",
      "dependsOn": [
        "pkg:composer/symfony/polyfill-intl-idn@1.25.0",
        "pkg:composer/symfony/polyfill-mbstring@1.25.0"
      ]
    },
    {
      "ref": "pkg:composer/symfony/password-hasher@6.0.8"
    },
    {
      "ref": "pkg:composer/symfony/phpunit-bridge@6.0.8"
    },
    {
      "ref": "pkg:composer/symfony/polyfill-intl-idn@1.25.0",
      "dependsOn": [
        "pkg:composer/symfony/polyfill-intl-normalizer@1.25.0",
        "pkg:composer/symfony/polyfill-php72@1.25.0"
      ]
    },
    {
      "ref": "pkg:composer/symfony/polyfill-intl-normalizer@1.25.0"
    },
    {
      "ref": "pkg:composer/symfony/polyfill-php72@1.25.0"
    },
    {
      "ref": "pkg:composer/symfony/security-core@6.0.8",
      "dependsOn": [
        "pkg:composer/symfony/event-dispatcher-contracts@3.0.1",
        "pkg:composer/symfony/password-hasher@6.0.8",
        "pkg:composer/symfony/service-contracts@3.0.1"
      ]
    },
    {
      "ref": "pkg:composer/stof/doctrine-extensions-bundle@1.x-dev",
      "dependsOn": [
        "pkg:composer/symfony/config@6.0.8",
        "pkg:composer/symfony/dependency-injection@6.0.8",
        "pkg:composer/symfony/event-dispatcher@6.0.3",
        "pkg:composer/symfony/http-kernel@6.0.8",
        "pkg:composer/gedmo/doctrine-extensions@3.6.0",
        "pkg:composer/symfony/mime@6.0.8",
        "pkg:composer/symfony/phpunit-bridge@6.0.8",
        "pkg:composer/symfony/security-core@6.0.8",
        "pkg:composer/cyclonedx/cyclonedx-php-composer@3.10.0"
      ]
    }
  ]
}
