{
  "bomFormat": "CycloneDX",
  "specVersion": "1.3",
  "version": 1,
  "metadata": {
    "tools": [
      {
        "vendor": "CycloneDX",
        "name": "Node.js module",
        "version": "3.0.3"
      },
      {
        "vendor": "cyclonedx",
        "name": "cyclonedx-php-composer",
        "version": "3.10.0"
      },
      {
        "vendor": "AppThreat",
        "name": "cdxgen",
        "version": "3.0.10"
      },
      {
        "vendor": "Fortress Information Security",
        "name": "Github Extractor",
        "version": "1.15.1"
      }
    ],
    "authors": [
      {
        "name": "Fortress Information Security",
        "email": "sales@fortressinfosec.com",
        "phone": "1-407-573-6800"
      }
    ],
    "timestamp": "2022-06-01T21:00:00Z",
    "component": {
      "type": "application",
      "name": "elFinder",
      "version": "2.1.61",
      "group": "Studio-42",
      "externalReferences": [
        {
          "url": "https://github.com/Studio-42/elFinder.git",
          "type": "distribution"
        },
        {
          "type": "website",
          "url": "https://studio-42.github.io/elFinder/",
          "comment": "As set via `homepage` in Github API"
        }
      ]
    }
  },
  "components": [
    {
      "type": "library",
      "bom-ref": "pkg:npm/ansi-styles@2.2.1",
      "name": "ansi-styles",
      "version": "2.2.1",
      "description": "ANSI escape codes for styling strings in the terminal",
      "hashes": [
        {
          "alg": "SHA-1",
          "content": "b432dd3358b634cf75e1e4664368240533c1ddbe"
        }
      ],
      "licenses": [
        {
          "license": {
            "id": "MIT"
          }
        }
      ],
      "purl": "pkg:npm/ansi-styles@2.2.1",
      "externalReferences": [
        {
          "url": "https://github.com/chalk/ansi-styles#readme",
          "type": "website"
        },
        {
          "url": "https://github.com/chalk/ansi-styles/issues",
          "type": "issue-tracker"
        },
        {
          "url": "git+https://github.com/chalk/ansi-styles.git",
          "type": "vcs"
        }
      ]
    },
    {
      "type": "library",
      "bom-ref": "pkg:npm/align-text@0.1.4",
      "name": "align-text",
      "version": "0.1.4",
      "description": "Align the text in a string.",
      "hashes": [
        {
          "alg": "SHA-1",
          "content": "0cd90a561093f35d0a99256c22b7069433fad117"
        }
      ],
      "licenses": [
        {
          "license": {
            "id": "MIT"
          }
        }
      ],
      "purl": "pkg:npm/align-text@0.1.4",
      "externalReferences": [
        {
          "url": "https://github.com/jonschlinkert/align-text",
          "type": "website"
        },
        {
          "url": "https://github.com/jonschlinkert/align-text/issues",
          "type": "issue-tracker"
        },
        {
          "url": "git://github.com/jonschlinkert/align-text.git",
          "type": "vcs"
        }
      ]
    },
    {
      "type": "library",
      "bom-ref": "pkg:npm/kind-of@3.2.2",
      "name": "kind-of",
      "version": "3.2.2",
      "description": "Get the native type of a value.",
      "hashes": [
        {
          "alg": "SHA-1",
          "content": "31ea21a734bab9bbb0f32466d893aea51e4a3c64"
        }
      ],
      "licenses": [
        {
          "license": {
            "id": "MIT"
          }
        }
      ],
      "purl": "pkg:npm/kind-of@3.2.2",
      "externalReferences": [
        {
          "url": "https://github.com/jonschlinkert/kind-of",
          "type": "website"
        },
        {
          "url": "https://github.com/jonschlinkert/kind-of/issues",
          "type": "issue-tracker"
        },
        {
          "url": "git+https://github.com/jonschlinkert/kind-of.git",
          "type": "vcs"
        }
      ]
    },
    {
      "type": "library",
      "bom-ref": "pkg:npm/is-buffer@1.1.6",
      "name": "is-buffer",
      "version": "1.1.6",
      "description": "Determine if an object is a Buffer",
      "hashes": [
        {
          "alg": "SHA-1",
          "content": "efaa2ea9daa0d7ab2ea13a97b2b8ad51fefbe8be"
        }
      ],
      "licenses": [
        {
          "license": {
            "id": "MIT"
          }
        }
      ],
      "purl": "pkg:npm/is-buffer@1.1.6",
      "externalReferences": [
        {
          "url": "https://github.com/feross/is-buffer#readme",
          "type": "website"
        },
        {
          "url": "https://github.com/feross/is-buffer/issues",
          "type": "issue-tracker"
        },
        {
          "url": "git://github.com/feross/is-buffer.git",
          "type": "vcs"
        }
      ]
    },
    {
      "type": "library",
      "bom-ref": "pkg:npm/longest@1.0.1",
      "name": "longest",
      "version": "1.0.1",
      "description": "Get the longest item in an array.",
      "hashes": [
        {
          "alg": "SHA-1",
          "content": "30a0b2da38f73770e8294a0d22e6625ed77d0097"
        }
      ],
      "licenses": [
        {
          "license": {
            "id": "MIT"
          }
        }
      ],
      "purl": "pkg:npm/longest@1.0.1",
      "externalReferences": [
        {
          "url": "https://github.com/jonschlinkert/longest",
          "type": "website"
        },
        {
          "url": "https://github.com/jonschlinkert/longest/issues",
          "type": "issue-tracker"
        },
        {
          "url": "git+https://github.com/jonschlinkert/longest.git",
          "type": "vcs"
        }
      ]
    },
    {
      "type": "library",
      "bom-ref": "pkg:npm/repeat-string@1.6.1",
      "name": "repeat-string",
      "version": "1.6.1",
      "description": "Repeat the given string n times. Fastest implementation for repeating a string.",
      "hashes": [
        {
          "alg": "SHA-1",
          "content": "8dcae470e1c88abc2d600fff4a776286da75e637"
        }
      ],
      "licenses": [
        {
          "license": {
            "id": "MIT"
          }
        }
      ],
      "purl": "pkg:npm/repeat-string@1.6.1",
      "externalReferences": [
        {
          "url": "https://github.com/jonschlinkert/repeat-string",
          "type": "website"
        },
        {
          "url": "https://github.com/jonschlinkert/repeat-string/issues",
          "type": "issue-tracker"
        },
        {
          "url": "git+https://github.com/jonschlinkert/repeat-string.git",
          "type": "vcs"
        }
      ]
    },
    {
      "type": "library",
      "bom-ref": "pkg:npm/ansi-regex@2.1.1",
      "name": "ansi-regex",
      "version": "2.1.1",
      "description": "Regular expression for matching ANSI escape codes",
      "hashes": [
        {
          "alg": "SHA-1",
          "content": "c3b33ab5ee360d86e0e628f0468ae7ef27d654df"
        }
      ],
      "licenses": [
        {
          "license": {
            "id": "MIT"
          }
        }
      ],
      "purl": "pkg:npm/ansi-regex@2.1.1",
      "externalReferences": [
        {
          "url": "https://github.com/chalk/ansi-regex#readme",
          "type": "website"
        },
        {
          "url": "https://github.com/chalk/ansi-regex/issues",
          "type": "issue-tracker"
        },
        {
          "url": "git+https://github.com/chalk/ansi-regex.git",
          "type": "vcs"
        }
      ]
    },
    {
      "type": "library",
      "bom-ref": "pkg:npm/brace-expansion@1.1.11",
      "name": "brace-expansion",
      "version": "1.1.11",
      "description": "Brace expansion as known from sh/bash",
      "hashes": [
        {
          "alg": "SHA-1",
          "content": "3c7fcbf529d87226f3d2f52b966ff5271eb441dd"
        }
      ],
      "licenses": [
        {
          "license": {
            "id": "MIT"
          }
        }
      ],
      "purl": "pkg:npm/brace-expansion@1.1.11",
      "externalReferences": [
        {
          "url": "https://github.com/juliangruber/brace-expansion",
          "type": "website"
        },
        {
          "url": "https://github.com/juliangruber/brace-expansion/issues",
          "type": "issue-tracker"
        },
        {
          "url": "git://github.com/juliangruber/brace-expansion.git",
          "type": "vcs"
        }
      ]
    },
    {
      "type": "library",
      "bom-ref": "pkg:npm/balanced-match@1.0.2",
      "name": "balanced-match",
      "version": "1.0.2",
      "description": "Match balanced character pairs, like \"{\" and \"}\"",
      "hashes": [
        {
          "alg": "SHA-1",
          "content": "e83e3a7e3f300b34cb9d87f615fa0cbf357690ee"
        }
      ],
      "licenses": [
        {
          "license": {
            "id": "MIT"
          }
        }
      ],
      "purl": "pkg:npm/balanced-match@1.0.2",
      "externalReferences": [
        {
          "url": "https://github.com/juliangruber/balanced-match",
          "type": "website"
        },
        {
          "url": "https://github.com/juliangruber/balanced-match/issues",
          "type": "issue-tracker"
        },
        {
          "url": "git://github.com/juliangruber/balanced-match.git",
          "type": "vcs"
        }
      ]
    },
    {
      "type": "library",
      "bom-ref": "pkg:npm/concat-map@0.0.1",
      "name": "concat-map",
      "version": "0.0.1",
      "description": "concatenative mapdashery",
      "hashes": [
        {
          "alg": "SHA-1",
          "content": "d8a96bd77fd68df7793a73036a3ba0d5405d477b"
        }
      ],
      "licenses": [
        {
          "license": {
            "id": "MIT"
          }
        }
      ],
      "purl": "pkg:npm/concat-map@0.0.1",
      "externalReferences": [
        {
          "url": "https://github.com/substack/node-concat-map#readme",
          "type": "website"
        },
        {
          "url": "https://github.com/substack/node-concat-map/issues",
          "type": "issue-tracker"
        },
        {
          "url": "git://github.com/substack/node-concat-map.git",
          "type": "vcs"
        }
      ]
    },
    {
      "type": "library",
      "bom-ref": "pkg:npm/async@0.9.2",
      "name": "async",
      "version": "0.9.2",
      "description": "Higher-order functions and common patterns for asynchronous code",
      "hashes": [
        {
          "alg": "SHA-1",
          "content": "aea74d5e61c1f899613bf64bda66d4c78f2fd17d"
        }
      ],
      "licenses": [
        {
          "license": {
            "id": "MIT"
          }
        }
      ],
      "purl": "pkg:npm/async@0.9.2",
      "externalReferences": [
        {
          "url": "https://github.com/caolan/async#readme",
          "type": "website"
        },
        {
          "url": "https://github.com/caolan/async/issues",
          "type": "issue-tracker"
        },
        {
          "url": "git+https://github.com/caolan/async.git",
          "type": "vcs"
        }
      ]
    },
    {
      "type": "library",
      "bom-ref": "pkg:npm/camelcase@1.2.1",
      "name": "camelcase",
      "version": "1.2.1",
      "description": "Convert a dash/dot/underscore/space separated string to camelCase: foo-bar → fooBar",
      "hashes": [
        {
          "alg": "SHA-1",
          "content": "9bb5304d2e0b56698b2c758b08a3eaa9daa58a39"
        }
      ],
      "licenses": [
        {
          "license": {
            "id": "MIT"
          }
        }
      ],
      "purl": "pkg:npm/camelcase@1.2.1",
      "externalReferences": [
        {
          "url": "https://github.com/sindresorhus/camelcase#readme",
          "type": "website"
        },
        {
          "url": "https://github.com/sindresorhus/camelcase/issues",
          "type": "issue-tracker"
        },
        {
          "url": "git+https://github.com/sindresorhus/camelcase.git",
          "type": "vcs"
        }
      ]
    },
    {
      "type": "library",
      "bom-ref": "pkg:npm/clap@1.2.3",
      "name": "clap",
      "version": "1.2.3",
      "description": "Command line argument parser",
      "hashes": [
        {
          "alg": "SHA-1",
          "content": "4f36745b32008492557f46412d66d50cb99bce51"
        }
      ],
      "licenses": [
        {
          "license": {
            "id": "MIT"
          }
        }
      ],
      "purl": "pkg:npm/clap@1.2.3",
      "externalReferences": [
        {
          "url": "https://github.com/lahmatiy/clap",
          "type": "website"
        },
        {
          "url": "https://github.com/lahmatiy/clap/issues",
          "type": "issue-tracker"
        },
        {
          "url": "git+https://github.com/lahmatiy/clap.git",
          "type": "vcs"
        }
      ]
    },
    {
      "type": "library",
      "bom-ref": "pkg:npm/chalk@1.1.3",
      "name": "chalk",
      "version": "1.1.3",
      "description": "Terminal string styling done right. Much color.",
      "hashes": [
        {
          "alg": "SHA-1",
          "content": "a8115c55e4a702fe4d150abd3872822a7e09fc98"
        }
      ],
      "licenses": [
        {
          "license": {
            "id": "MIT"
          }
        }
      ],
      "purl": "pkg:npm/chalk@1.1.3",
      "externalReferences": [
        {
          "url": "https://github.com/chalk/chalk#readme",
          "type": "website"
        },
        {
          "url": "https://github.com/chalk/chalk/issues",
          "type": "issue-tracker"
        },
        {
          "url": "git+https://github.com/chalk/chalk.git",
          "type": "vcs"
        }
      ]
    },
    {
      "type": "library",
      "bom-ref": "pkg:npm/escape-string-regexp@1.0.5",
      "name": "escape-string-regexp",
      "version": "1.0.5",
      "description": "Escape RegExp special characters",
      "hashes": [
        {
          "alg": "SHA-1",
          "content": "1b61c0562190a8dff6ae3bb2cf0200ca130b86d4"
        }
      ],
      "licenses": [
        {
          "license": {
            "id": "MIT"
          }
        }
      ],
      "purl": "pkg:npm/escape-string-regexp@1.0.5",
      "externalReferences": [
        {
          "url": "https://github.com/sindresorhus/escape-string-regexp#readme",
          "type": "website"
        },
        {
          "url": "https://github.com/sindresorhus/escape-string-regexp/issues",
          "type": "issue-tracker"
        },
        {
          "url": "git+https://github.com/sindresorhus/escape-string-regexp.git",
          "type": "vcs"
        }
      ]
    },
    {
      "type": "library",
      "bom-ref": "pkg:npm/has-ansi@2.0.0",
      "name": "has-ansi",
      "version": "2.0.0",
      "description": "Check if a string has ANSI escape codes",
      "hashes": [
        {
          "alg": "SHA-1",
          "content": "34f5049ce1ecdf2b0649af3ef24e45ed35416d91"
        }
      ],
      "licenses": [
        {
          "license": {
            "id": "MIT"
          }
        }
      ],
      "purl": "pkg:npm/has-ansi@2.0.0",
      "externalReferences": [
        {
          "url": "https://github.com/sindresorhus/has-ansi#readme",
          "type": "website"
        },
        {
          "url": "https://github.com/sindresorhus/has-ansi/issues",
          "type": "issue-tracker"
        },
        {
          "url": "git+https://github.com/sindresorhus/has-ansi.git",
          "type": "vcs"
        }
      ]
    },
    {
      "type": "library",
      "bom-ref": "pkg:npm/strip-ansi@3.0.1",
      "name": "strip-ansi",
      "version": "3.0.1",
      "description": "Strip ANSI escape codes",
      "hashes": [
        {
          "alg": "SHA-1",
          "content": "6a385fb8853d952d5ff05d0e8aaf94278dc63dcf"
        }
      ],
      "licenses": [
        {
          "license": {
            "id": "MIT"
          }
        }
      ],
      "purl": "pkg:npm/strip-ansi@3.0.1",
      "externalReferences": [
        {
          "url": "https://github.com/chalk/strip-ansi#readme",
          "type": "website"
        },
        {
          "url": "https://github.com/chalk/strip-ansi/issues",
          "type": "issue-tracker"
        },
        {
          "url": "git+https://github.com/chalk/strip-ansi.git",
          "type": "vcs"
        }
      ]
    },
    {
      "type": "library",
      "bom-ref": "pkg:npm/supports-color@2.0.0",
      "name": "supports-color",
      "version": "2.0.0",
      "description": "Detect whether a terminal supports color",
      "hashes": [
        {
          "alg": "SHA-1",
          "content": "535d045ce6b6363fa40117084629995e9df324c7"
        }
      ],
      "licenses": [
        {
          "license": {
            "id": "MIT"
          }
        }
      ],
      "purl": "pkg:npm/supports-color@2.0.0",
      "externalReferences": [
        {
          "url": "https://github.com/chalk/supports-color#readme",
          "type": "website"
        },
        {
          "url": "https://github.com/chalk/supports-color/issues",
          "type": "issue-tracker"
        },
        {
          "url": "git+https://github.com/chalk/supports-color.git",
          "type": "vcs"
        }
      ]
    },
    {
      "type": "library",
      "bom-ref": "pkg:npm/center-align@0.1.3",
      "name": "center-align",
      "version": "0.1.3",
      "description": "Center-align the text in a string.",
      "hashes": [
        {
          "alg": "SHA-1",
          "content": "aa0d32629b6ee972200411cbd4461c907bc2b7ad"
        }
      ],
      "licenses": [
        {
          "license": {
            "id": "MIT"
          }
        }
      ],
      "purl": "pkg:npm/center-align@0.1.3",
      "externalReferences": [
        {
          "url": "https://github.com/jonschlinkert/center-align",
          "type": "website"
        },
        {
          "url": "https://github.com/jonschlinkert/center-align/issues",
          "type": "issue-tracker"
        },
        {
          "url": "git+https://github.com/jonschlinkert/center-align.git",
          "type": "vcs"
        }
      ]
    },
    {
      "type": "library",
      "bom-ref": "pkg:npm/lazy-cache@1.0.4",
      "name": "lazy-cache",
      "version": "1.0.4",
      "description": "Cache requires to be lazy-loaded when needed.",
      "hashes": [
        {
          "alg": "SHA-1",
          "content": "a1d78fc3a50474cb80845d3b3b6e1da49a446e8e"
        }
      ],
      "licenses": [
        {
          "license": {
            "id": "MIT"
          }
        }
      ],
      "purl": "pkg:npm/lazy-cache@1.0.4",
      "externalReferences": [
        {
          "url": "https://github.com/jonschlinkert/lazy-cache",
          "type": "website"
        },
        {
          "url": "https://github.com/jonschlinkert/lazy-cache/issues",
          "type": "issue-tracker"
        },
        {
          "url": "git+https://github.com/jonschlinkert/lazy-cache.git",
          "type": "vcs"
        }
      ]
    },
    {
      "type": "library",
      "bom-ref": "pkg:npm/cliui@2.1.0",
      "name": "cliui",
      "version": "2.1.0",
      "description": "easily create complex multi-column command-line-interfaces",
      "hashes": [
        {
          "alg": "SHA-1",
          "content": "4b475760ff80264c762c3a1719032e91c7fea0d1"
        }
      ],
      "licenses": [
        {
          "license": {
            "id": "ISC"
          }
        }
      ],
      "purl": "pkg:npm/cliui@2.1.0",
      "externalReferences": [
        {
          "url": "https://github.com/bcoe/cliui#readme",
          "type": "website"
        },
        {
          "url": "https://github.com/bcoe/cliui/issues",
          "type": "issue-tracker"
        },
        {
          "url": "git+ssh://git@github.com/bcoe/cliui.git",
          "type": "vcs"
        }
      ]
    },
    {
      "type": "library",
      "bom-ref": "pkg:npm/right-align@0.1.3",
      "name": "right-align",
      "version": "0.1.3",
      "description": "Right-align the text in a string.",
      "hashes": [
        {
          "alg": "SHA-1",
          "content": "61339b722fe6a3515689210d24e14c96148613ef"
        }
      ],
      "licenses": [
        {
          "license": {
            "id": "MIT"
          }
        }
      ],
      "purl": "pkg:npm/right-align@0.1.3",
      "externalReferences": [
        {
          "url": "https://github.com/jonschlinkert/right-align",
          "type": "website"
        },
        {
          "url": "https://github.com/jonschlinkert/right-align/issues",
          "type": "issue-tracker"
        },
        {
          "url": "git://github.com/jonschlinkert/right-align.git",
          "type": "vcs"
        }
      ]
    },
    {
      "type": "library",
      "bom-ref": "pkg:npm/wordwrap@0.0.2",
      "name": "wordwrap",
      "version": "0.0.2",
      "description": "Wrap those words. Show them at what columns to start and stop.",
      "hashes": [
        {
          "alg": "SHA-1",
          "content": "b79669bb42ecb409f83d583cad52ca17eaa1643f"
        }
      ],
      "licenses": [
        {
          "license": {
            "name": "MIT/X11"
          }
        }
      ],
      "purl": "pkg:npm/wordwrap@0.0.2",
      "externalReferences": [
        {
          "url": "https://github.com/substack/node-wordwrap#readme",
          "type": "website"
        },
        {
          "url": "https://github.com/substack/node-wordwrap/issues",
          "type": "issue-tracker"
        },
        {
          "url": "git://github.com/substack/node-wordwrap.git",
          "type": "vcs"
        }
      ]
    },
    {
      "type": "library",
      "bom-ref": "pkg:npm/decamelize@1.2.0",
      "name": "decamelize",
      "version": "1.2.0",
      "description": "Convert a camelized string into a lowercased one with a custom separator: unicornRainbow → unicorn_rainbow",
      "hashes": [
        {
          "alg": "SHA-1",
          "content": "f6534d15148269b20352e7bee26f501f9a191290"
        }
      ],
      "licenses": [
        {
          "license": {
            "id": "MIT"
          }
        }
      ],
      "purl": "pkg:npm/decamelize@1.2.0",
      "externalReferences": [
        {
          "url": "https://github.com/sindresorhus/decamelize#readme",
          "type": "website"
        },
        {
          "url": "https://github.com/sindresorhus/decamelize/issues",
          "type": "issue-tracker"
        },
        {
          "url": "git+https://github.com/sindresorhus/decamelize.git",
          "type": "vcs"
        }
      ]
    },
    {
      "type": "library",
      "bom-ref": "pkg:npm/has-color@0.1.7",
      "name": "has-color",
      "version": "0.1.7",
      "description": "Detect whether a terminal supports color",
      "hashes": [
        {
          "alg": "SHA-1",
          "content": "67144a5260c34fc3cca677d041daf52fe7b78b2f"
        }
      ],
      "licenses": [
        {
          "license": {
            "id": "MIT"
          }
        }
      ],
      "purl": "pkg:npm/has-color@0.1.7",
      "externalReferences": [
        {
          "url": "https://github.com/sindresorhus/has-color#readme",
          "type": "website"
        },
        {
          "url": "https://github.com/sindresorhus/has-color/issues",
          "type": "issue-tracker"
        },
        {
          "url": "git+https://github.com/sindresorhus/has-color.git",
          "type": "vcs"
        }
      ]
    },
    {
      "type": "library",
      "bom-ref": "pkg:npm/source-map@0.5.7",
      "name": "source-map",
      "version": "0.5.7",
      "description": "Generates and consumes source maps",
      "hashes": [
        {
          "alg": "SHA-1",
          "content": "8a039d2d1021d22d1ea14c80d8ea468ba2ef3fcc"
        }
      ],
      "licenses": [
        {
          "license": {
            "id": "BSD-3-Clause"
          }
        }
      ],
      "purl": "pkg:npm/source-map@0.5.7",
      "externalReferences": [
        {
          "url": "https://github.com/mozilla/source-map",
          "type": "website"
        },
        {
          "url": "https://github.com/mozilla/source-map/issues",
          "type": "issue-tracker"
        },
        {
          "url": "git+ssh://git@github.com/mozilla/source-map.git",
          "type": "vcs"
        }
      ]
    },
    {
      "type": "library",
      "bom-ref": "pkg:npm/uglify-to-browserify@1.0.2",
      "name": "uglify-to-browserify",
      "version": "1.0.2",
      "description": "A transform to make UglifyJS work in browserify.",
      "hashes": [
        {
          "alg": "SHA-1",
          "content": "6e0924d6bda6b5afe349e39a6d632850a0f882b7"
        }
      ],
      "licenses": [
        {
          "license": {
            "id": "MIT"
          }
        }
      ],
      "purl": "pkg:npm/uglify-to-browserify@1.0.2",
      "externalReferences": [
        {
          "url": "https://github.com/ForbesLindesay/uglify-to-browserify#readme",
          "type": "website"
        },
        {
          "url": "https://github.com/ForbesLindesay/uglify-to-browserify/issues",
          "type": "issue-tracker"
        },
        {
          "url": "git+https://github.com/ForbesLindesay/uglify-to-browserify.git",
          "type": "vcs"
        }
      ]
    },
    {
      "type": "library",
      "bom-ref": "pkg:npm/minimatch@3.1.2",
      "name": "minimatch",
      "version": "3.1.2",
      "description": "a glob matcher in javascript",
      "hashes": [
        {
          "alg": "SHA-1",
          "content": "19cd194bfd3e428f049a70817c038d89ab4be35b"
        }
      ],
      "licenses": [
        {
          "license": {
            "id": "ISC"
          }
        }
      ],
      "purl": "pkg:npm/minimatch@3.1.2",
      "externalReferences": [
        {
          "url": "https://github.com/isaacs/minimatch#readme",
          "type": "website"
        },
        {
          "url": "https://github.com/isaacs/minimatch/issues",
          "type": "issue-tracker"
        },
        {
          "url": "git://github.com/isaacs/minimatch.git",
          "type": "vcs"
        }
      ]
    },
    {
      "type": "library",
      "bom-ref": "pkg:npm/utilities@1.0.6",
      "name": "utilities",
      "version": "1.0.6",
      "description": "A classic collection of JavaScript utilities",
      "hashes": [
        {
          "alg": "SHA-1",
          "content": "c7038f3dc61f4041562ce3585f45e8a13189a761"
        }
      ],
      "purl": "pkg:npm/utilities@1.0.6",
      "externalReferences": [
        {
          "url": "https://github.com/mde/utilities#readme",
          "type": "website"
        },
        {
          "url": "https://github.com/mde/utilities/issues",
          "type": "issue-tracker"
        },
        {
          "url": "git://github.com/mde/utilities.git",
          "type": "vcs"
        }
      ]
    },
    {
      "type": "library",
      "bom-ref": "pkg:npm/window-size@0.1.0",
      "name": "window-size",
      "version": "0.1.0",
      "description": "Reliable way to to get the height and width of the terminal/console in a node.js environment.",
      "hashes": [
        {
          "alg": "SHA-1",
          "content": "5438cd2ea93b202efa3a19fe8887aee7c94f9c9d"
        }
      ],
      "purl": "pkg:npm/window-size@0.1.0",
      "externalReferences": [
        {
          "url": "https://github.com/jonschlinkert/window-size",
          "type": "website"
        },
        {
          "url": "https://github.com/jonschlinkert/window-size/issues",
          "type": "issue-tracker"
        },
        {
          "url": "git+https://github.com/jonschlinkert/window-size.git",
          "type": "vcs"
        }
      ]
    },
    {
      "type": "library",
      "bom-ref": "pkg:npm/yargs@3.10.0",
      "name": "yargs",
      "version": "3.10.0",
      "description": "Light-weight option parsing with an argv hash. No optstrings attached.",
      "hashes": [
        {
          "alg": "SHA-1",
          "content": "f7ee7bd857dd7c1d2d38c0e74efbd681d1431fd1"
        }
      ],
      "licenses": [
        {
          "license": {
            "id": "MIT"
          }
        }
      ],
      "purl": "pkg:npm/yargs@3.10.0",
      "externalReferences": [
        {
          "url": "https://github.com/bcoe/yargs#readme",
          "type": "website"
        },
        {
          "url": "https://github.com/bcoe/yargs/issues",
          "type": "issue-tracker"
        },
        {
          "url": "git+ssh://git@github.com/bcoe/yargs.git",
          "type": "vcs"
        }
      ]
    },
    {
      "type": "library",
      "bom-ref": "pkg:npm/csso@1.8.2",
      "name": "csso",
      "version": "1.8.2",
      "description": "CSSO (CSS Optimizer) is a CSS minifier with structural optimisations",
      "hashes": [
        {
          "alg": "SHA-1",
          "content": "d3a060ada5d2a16b75061fad9d916d09dc2f4e50"
        }
      ],
      "licenses": [
        {
          "license": {
            "id": "MIT"
          }
        }
      ],
      "purl": "pkg:npm/csso@1.8.2",
      "externalReferences": [
        {
          "url": "https://github.com/css/csso",
          "type": "website"
        },
        {
          "url": "https://github.com/css/csso/issues",
          "type": "issue-tracker"
        },
        {
          "url": "git+https://github.com/css/csso.git",
          "type": "vcs"
        }
      ]
    },
    {
      "type": "library",
      "bom-ref": "pkg:npm/filelist@0.0.6",
      "name": "filelist",
      "version": "0.0.6",
      "description": "Lazy-evaluating list of files, based on globs or regex patterns",
      "hashes": [
        {
          "alg": "SHA-1",
          "content": "58a641ad1f57574a27fe87a440ef318834b55719"
        }
      ],
      "licenses": [
        {
          "license": {
            "id": "Apache-2.0"
          }
        }
      ],
      "purl": "pkg:npm/filelist@0.0.6",
      "externalReferences": [
        {
          "url": "https://github.com/mde/filelist",
          "type": "website"
        },
        {
          "url": "https://github.com/mde/filelist/issues",
          "type": "issue-tracker"
        },
        {
          "url": "git://github.com/mde/filelist.git",
          "type": "vcs"
        }
      ]
    },
    {
      "type": "library",
      "bom-ref": "pkg:npm/utilities@0.0.37",
      "name": "utilities",
      "version": "0.0.37",
      "description": "A classic collection of JavaScript utilities",
      "hashes": [
        {
          "alg": "SHA-1",
          "content": "a3470d0a7f688142d9e8a57cee1128f12e19e196"
        }
      ],
      "purl": "pkg:npm/utilities@0.0.37",
      "externalReferences": [
        {
          "url": "https://github.com/mde/utilities#readme",
          "type": "website"
        },
        {
          "url": "https://github.com/mde/utilities/issues",
          "type": "issue-tracker"
        },
        {
          "url": "git://github.com/mde/utilities.git",
          "type": "vcs"
        }
      ]
    },
    {
      "type": "library",
      "bom-ref": "pkg:npm/uglify-js@2.6.4",
      "name": "uglify-js",
      "version": "2.6.4",
      "description": "JavaScript parser, mangler/compressor and beautifier toolkit",
      "hashes": [
        {
          "alg": "SHA-1",
          "content": "65ea2fb3059c9394692f15fed87c2b36c16b9adf"
        }
      ],
      "licenses": [
        {
          "license": {
            "id": "BSD-2-Clause"
          }
        }
      ],
      "purl": "pkg:npm/uglify-js@2.6.4",
      "externalReferences": [
        {
          "url": "http://lisperator.net/uglifyjs",
          "type": "website"
        },
        {
          "url": "https://github.com/mishoo/UglifyJS2/issues",
          "type": "issue-tracker"
        },
        {
          "url": "git+https://github.com/mishoo/UglifyJS2.git",
          "type": "vcs"
        }
      ]
    },
    {
      "type": "library",
      "bom-ref": "pkg:npm/async@0.2.10",
      "name": "async",
      "version": "0.2.10",
      "description": "Higher-order functions and common patterns for asynchronous code",
      "hashes": [
        {
          "alg": "SHA-1",
          "content": "b6bbe0b0674b9d719708ca38de8c237cb526c3d1"
        }
      ],
      "purl": "pkg:npm/async@0.2.10",
      "externalReferences": [
        {
          "url": "https://github.com/caolan/async#readme",
          "type": "website"
        },
        {
          "url": "https://github.com/caolan/async/issues",
          "type": "issue-tracker"
        },
        {
          "url": "git+https://github.com/caolan/async.git",
          "type": "vcs"
        }
      ]
    },
    {
      "type": "library",
      "bom-ref": "pkg:npm/jake@8.0.19",
      "name": "jake",
      "version": "8.0.19",
      "description": "JavaScript build tool, similar to Make or Rake",
      "hashes": [
        {
          "alg": "SHA-1",
          "content": "00ef94e4fc05679c580d3934a012093dfb9e2f92"
        }
      ],
      "licenses": [
        {
          "license": {
            "id": "Apache-2.0"
          }
        }
      ],
      "purl": "pkg:npm/jake@8.0.19",
      "externalReferences": [
        {
          "url": "https://github.com/jakejs/jake#readme",
          "type": "website"
        },
        {
          "url": "https://github.com/jakejs/jake/issues",
          "type": "issue-tracker"
        },
        {
          "url": "git://github.com/jakejs/jake.git",
          "type": "vcs"
        }
      ]
    },
    {
      "type": "library",
      "bom-ref": "pkg:npm/chalk@0.4.0",
      "name": "chalk",
      "version": "0.4.0",
      "description": "Terminal string styling done right. Created because the `colors` module does some really horrible things.",
      "hashes": [
        {
          "alg": "SHA-1",
          "content": "5199a3ddcd0c1efe23bc08c1b027b06176e0c64f"
        }
      ],
      "licenses": [
        {
          "license": {
            "id": "MIT"
          }
        }
      ],
      "purl": "pkg:npm/chalk@0.4.0",
      "externalReferences": [
        {
          "url": "https://github.com/sindresorhus/chalk#readme",
          "type": "website"
        },
        {
          "url": "https://github.com/sindresorhus/chalk/issues",
          "type": "issue-tracker"
        },
        {
          "url": "git+https://github.com/sindresorhus/chalk.git",
          "type": "vcs"
        }
      ]
    },
    {
      "type": "library",
      "bom-ref": "pkg:npm/ansi-styles@1.0.0",
      "name": "ansi-styles",
      "version": "1.0.0",
      "description": "ANSI escape codes for colorizing strings in the terminal",
      "hashes": [
        {
          "alg": "SHA-1",
          "content": "cb102df1c56f5123eab8b67cd7b98027a0279178"
        }
      ],
      "licenses": [
        {
          "license": {
            "id": "MIT"
          }
        }
      ],
      "purl": "pkg:npm/ansi-styles@1.0.0",
      "externalReferences": [
        {
          "url": "https://github.com/sindresorhus/ansi-styles",
          "type": "website"
        },
        {
          "url": "https://github.com/sindresorhus/ansi-styles/issues",
          "type": "issue-tracker"
        },
        {
          "url": "git://github.com/sindresorhus/ansi-styles.git",
          "type": "vcs"
        }
      ]
    },
    {
      "type": "library",
      "bom-ref": "pkg:npm/strip-ansi@0.1.1",
      "name": "strip-ansi",
      "version": "0.1.1",
      "description": "Strip ANSI escape codes (used for colorizing strings in the terminal)",
      "hashes": [
        {
          "alg": "SHA-1",
          "content": "39e8a98d044d150660abe4a6808acf70bb7bc991"
        }
      ],
      "licenses": [
        {
          "license": {
            "id": "MIT"
          }
        }
      ],
      "purl": "pkg:npm/strip-ansi@0.1.1",
      "externalReferences": [
        {
          "url": "https://github.com/sindresorhus/strip-ansi#readme",
          "type": "website"
        },
        {
          "url": "https://github.com/sindresorhus/strip-ansi/issues",
          "type": "issue-tracker"
        },
        {
          "url": "git+https://github.com/sindresorhus/strip-ansi.git",
          "type": "vcs"
        }
      ]
    },
    {
      "type": "library",
      "bom-ref": "pkg:composer/cyclonedx/cyclonedx-library@1.5.0",
      "group": "cyclonedx",
      "name": "cyclonedx-library",
      "version": "1.5.0",
      "description": "Work with CycloneDX Software Bill-of-Materials (SBOM)",
      "licenses": [
        {
          "license": {
            "id": "Apache-2.0"
          }
        }
      ],
      "purl": "pkg:composer/cyclonedx/cyclonedx-library@1.5.0",
      "externalReferences": [
        {
          "url": "https://github.com/CycloneDX/cyclonedx-php-library.git",
          "type": "distribution",
          "comment": "As detected by composer's `getSourceUrls()` (type=git & reference=f41632e1d47001700ef93fa899e6dc49779aa784)"
        },
        {
          "url": "https://api.github.com/repos/CycloneDX/cyclonedx-php-library/zipball/f41632e1d47001700ef93fa899e6dc49779aa784",
          "type": "distribution",
          "comment": "As detected by composer's `getDistUrls()` (type=zip & reference=f41632e1d47001700ef93fa899e6dc49779aa784 & sha1=UNDEFINED)"
        },
        {
          "url": "https://github.com/CycloneDX/cyclonedx-php-library/",
          "type": "website",
          "comment": "As set via `homepage` in composer package definition."
        },
        {
          "url": "https://github.com/CycloneDX/cyclonedx-php-library/issues",
          "type": "issue-tracker",
          "comment": "As set via `support.issues` in composer package definition."
        },
        {
          "url": "https://github.com/CycloneDX/cyclonedx-php-library/tree/v1.5.0",
          "type": "distribution",
          "comment": "As set via `support.source` in composer package definition."
        }
      ]
    },
    {
      "type": "application",
      "bom-ref": "pkg:composer/cyclonedx/cyclonedx-php-composer@3.10.0",
      "group": "cyclonedx",
      "name": "cyclonedx-php-composer",
      "version": "3.10.0",
      "description": "Creates CycloneDX Software Bill-of-Materials (SBOM) from PHP Composer projects",
      "licenses": [
        {
          "license": {
            "id": "Apache-2.0"
          }
        }
      ],
      "purl": "pkg:composer/cyclonedx/cyclonedx-php-composer@3.10.0",
      "externalReferences": [
        {
          "url": "https://github.com/CycloneDX/cyclonedx-php-composer.git",
          "type": "distribution",
          "comment": "As detected by composer's `getSourceUrls()` (type=git & reference=341792df609deab6131ffa65f2f3b273f2e6128a)"
        },
        {
          "url": "https://api.github.com/repos/CycloneDX/cyclonedx-php-composer/zipball/341792df609deab6131ffa65f2f3b273f2e6128a",
          "type": "distribution",
          "comment": "As detected by composer's `getDistUrls()` (type=zip & reference=341792df609deab6131ffa65f2f3b273f2e6128a & sha1=UNDEFINED)"
        },
        {
          "url": "https://github.com/CycloneDX/cyclonedx-php-composer/",
          "type": "website",
          "comment": "As set via `homepage` in composer package definition."
        },
        {
          "url": "https://github.com/CycloneDX/cyclonedx-php-composer/issues",
          "type": "issue-tracker",
          "comment": "As set via `support.issues` in composer package definition."
        },
        {
          "url": "https://github.com/CycloneDX/cyclonedx-php-composer/tree/v3.10.0",
          "type": "distribution",
          "comment": "As set via `support.source` in composer package definition."
        }
      ]
    },
    {
      "type": "library",
      "bom-ref": "pkg:composer/package-url/packageurl-php@1.0.4",
      "group": "package-url",
      "name": "packageurl-php",
      "version": "1.0.4",
      "description": "A parser and builder based on the package url spec.",
      "licenses": [
        {
          "license": {
            "id": "MIT"
          }
        }
      ],
      "purl": "pkg:composer/package-url/packageurl-php@1.0.4",
      "externalReferences": [
        {
          "url": "https://github.com/package-url/packageurl-php.git",
          "type": "distribution",
          "comment": "As detected by composer's `getSourceUrls()` (type=git & reference=c45953babed516d27a0cf6c1a2d9f7e883ce214f)"
        },
        {
          "url": "https://api.github.com/repos/package-url/packageurl-php/zipball/c45953babed516d27a0cf6c1a2d9f7e883ce214f",
          "type": "distribution",
          "comment": "As detected by composer's `getDistUrls()` (type=zip & reference=c45953babed516d27a0cf6c1a2d9f7e883ce214f & sha1=UNDEFINED)"
        },
        {
          "url": "https://github.com/package-url/packageurl-php",
          "type": "website",
          "comment": "As set via `homepage` in composer package definition."
        },
        {
          "url": "https://github.com/package-url/packageurl-php/issues",
          "type": "issue-tracker",
          "comment": "As set via `support.issues` in composer package definition."
        },
        {
          "url": "https://github.com/package-url/packageurl-php/tree/1.0.4",
          "type": "distribution",
          "comment": "As set via `support.source` in composer package definition."
        }
      ]
    },
    {
      "type": "library",
      "bom-ref": "pkg:composer/phplang/scope-exit@1.0.0",
      "group": "phplang",
      "name": "scope-exit",
      "version": "1.0.0",
      "description": "Emulation of SCOPE_EXIT construct from C++",
      "licenses": [
        {
          "license": {
            "name": "BSD"
          }
        }
      ],
      "purl": "pkg:composer/phplang/scope-exit@1.0.0",
      "externalReferences": [
        {
          "url": "https://github.com/phplang/scope-exit.git",
          "type": "distribution",
          "comment": "As detected by composer's `getSourceUrls()` (type=git & reference=239b73abe89f9414aa85a7ca075ec9445629192b)"
        },
        {
          "url": "https://api.github.com/repos/phplang/scope-exit/zipball/239b73abe89f9414aa85a7ca075ec9445629192b",
          "type": "distribution",
          "comment": "As detected by composer's `getDistUrls()` (type=zip & reference=239b73abe89f9414aa85a7ca075ec9445629192b & sha1=UNDEFINED)"
        },
        {
          "url": "https://github.com/phplang/scope-exit",
          "type": "website",
          "comment": "As set via `homepage` in composer package definition."
        },
        {
          "url": "https://github.com/phplang/scope-exit/issues",
          "type": "issue-tracker",
          "comment": "As set via `support.issues` in composer package definition."
        },
        {
          "url": "https://github.com/phplang/scope-exit/tree/master",
          "type": "distribution",
          "comment": "As set via `support.source` in composer package definition."
        }
      ]
    },
    {
      "type": "library",
      "bom-ref": "pkg:composer/swaggest/json-diff@3.8.3",
      "group": "swaggest",
      "name": "json-diff",
      "version": "3.8.3",
      "description": "JSON diff/rearrange/patch/pointer library for PHP",
      "licenses": [
        {
          "license": {
            "id": "MIT"
          }
        }
      ],
      "purl": "pkg:composer/swaggest/json-diff@3.8.3",
      "externalReferences": [
        {
          "url": "https://github.com/swaggest/json-diff.git",
          "type": "distribution",
          "comment": "As detected by composer's `getSourceUrls()` (type=git & reference=bb3e3b4e9d842bb2e48f31ea568d0459968d1d42)"
        },
        {
          "url": "https://api.github.com/repos/swaggest/json-diff/zipball/bb3e3b4e9d842bb2e48f31ea568d0459968d1d42",
          "type": "distribution",
          "comment": "As detected by composer's `getDistUrls()` (type=zip & reference=bb3e3b4e9d842bb2e48f31ea568d0459968d1d42 & sha1=UNDEFINED)"
        },
        {
          "url": "https://github.com/swaggest/json-diff/issues",
          "type": "issue-tracker",
          "comment": "As set via `support.issues` in composer package definition."
        },
        {
          "url": "https://github.com/swaggest/json-diff/tree/v3.8.3",
          "type": "distribution",
          "comment": "As set via `support.source` in composer package definition."
        }
      ]
    },
    {
      "type": "library",
      "bom-ref": "pkg:composer/swaggest/json-schema@0.12.39",
      "group": "swaggest",
      "name": "json-schema",
      "version": "0.12.39",
      "description": "High definition PHP structures with JSON-schema based validation",
      "licenses": [
        {
          "license": {
            "id": "MIT"
          }
        }
      ],
      "purl": "pkg:composer/swaggest/json-schema@0.12.39",
      "externalReferences": [
        {
          "url": "https://github.com/swaggest/php-json-schema.git",
          "type": "distribution",
          "comment": "As detected by composer's `getSourceUrls()` (type=git & reference=193ba39cce1ffa2d55ddd5445315e945a63298a2)"
        },
        {
          "url": "https://api.github.com/repos/swaggest/php-json-schema/zipball/193ba39cce1ffa2d55ddd5445315e945a63298a2",
          "type": "distribution",
          "comment": "As detected by composer's `getDistUrls()` (type=zip & reference=193ba39cce1ffa2d55ddd5445315e945a63298a2 & sha1=UNDEFINED)"
        },
        {
          "url": "mailto:vearutop@gmail.com",
          "type": "other",
          "comment": "As set via `support.email` in composer package definition."
        },
        {
          "url": "https://github.com/swaggest/php-json-schema/issues",
          "type": "issue-tracker",
          "comment": "As set via `support.issues` in composer package definition."
        },
        {
          "url": "https://github.com/swaggest/php-json-schema/tree/v0.12.39",
          "type": "distribution",
          "comment": "As set via `support.source` in composer package definition."
        }
      ]
    },
    {
      "type": "library",
      "bom-ref": "pkg:composer/symfony/polyfill-mbstring@1.25.0",
      "group": "symfony",
      "name": "polyfill-mbstring",
      "version": "1.25.0",
      "description": "Symfony polyfill for the Mbstring extension",
      "licenses": [
        {
          "license": {
            "id": "MIT"
          }
        }
      ],
      "purl": "pkg:composer/symfony/polyfill-mbstring@1.25.0",
      "externalReferences": [
        {
          "url": "https://github.com/symfony/polyfill-mbstring.git",
          "type": "distribution",
          "comment": "As detected by composer's `getSourceUrls()` (type=git & reference=0abb51d2f102e00a4eefcf46ba7fec406d245825)"
        },
        {
          "url": "https://api.github.com/repos/symfony/polyfill-mbstring/zipball/0abb51d2f102e00a4eefcf46ba7fec406d245825",
          "type": "distribution",
          "comment": "As detected by composer's `getDistUrls()` (type=zip & reference=0abb51d2f102e00a4eefcf46ba7fec406d245825 & sha1=UNDEFINED)"
        },
        {
          "url": "https://symfony.com",
          "type": "website",
          "comment": "As set via `homepage` in composer package definition."
        },
        {
          "url": "https://github.com/symfony/polyfill-mbstring/tree/v1.25.0",
          "type": "distribution",
          "comment": "As set via `support.source` in composer package definition."
        },
        {
          "url": "https://symfony.com/sponsor",
          "type": "other",
          "comment": "As set via `funding` in composer package definition. (type=custom)"
        },
        {
          "url": "https://github.com/fabpot",
          "type": "other",
          "comment": "As set via `funding` in composer package definition. (type=github)"
        },
        {
          "url": "https://tidelift.com/funding/github/packagist/symfony/symfony",
          "type": "other",
          "comment": "As set via `funding` in composer package definition. (type=tidelift)"
        }
      ]
    }
  ],
  "dependencies": [
    {
      "ref": "pkg:composer/cyclonedx/cyclonedx-library@1.5.0",
      "dependsOn": [
        "pkg:composer/package-url/packageurl-php@1.0.4",
        "pkg:composer/swaggest/json-schema@0.12.39"
      ]
    },
    {
      "ref": "pkg:composer/cyclonedx/cyclonedx-php-composer@3.10.0",
      "dependsOn": [
        "pkg:composer/cyclonedx/cyclonedx-library@1.5.0",
        "pkg:composer/package-url/packageurl-php@1.0.4"
      ]
    },
    {
      "ref": "pkg:composer/package-url/packageurl-php@1.0.4"
    },
    {
      "ref": "pkg:composer/phplang/scope-exit@1.0.0"
    },
    {
      "ref": "pkg:composer/swaggest/json-diff@3.8.3"
    },
    {
      "ref": "pkg:composer/swaggest/json-schema@0.12.39",
      "dependsOn": [
        "pkg:composer/phplang/scope-exit@1.0.0",
        "pkg:composer/swaggest/json-diff@3.8.3",
        "pkg:composer/symfony/polyfill-mbstring@1.25.0"
      ]
    },
    {
      "ref": "pkg:composer/symfony/polyfill-mbstring@1.25.0"
    },
    {
      "ref": "pkg:composer/studio-42/elfinder@dev-master",
      "dependsOn": [
        "pkg:composer/cyclonedx/cyclonedx-php-composer@3.10.0"
      ]
    }
  ]
}
