{
  "bomFormat": "CycloneDX",
  "specVersion": "1.3",
  "version": 2,
  "metadata": {
    "tools": [
      {
        "vendor": "cyclonedx",
        "name": "cyclonedx-php-composer",
        "version": "dev-master"
      },
      {
        "vendor": "AppThreat",
        "name": "cdxgen",
        "version": "3.0.10"
      },
      {
        "vendor": "Fortress Information Security",
        "name": "Github Extractor",
        "version": "1.15.1"
      }
    ],
    "authors": [
      {
        "name": "Fortress Information Security",
        "email": "sales@fortressinfosec.com",
        "phone": "1-407-573-6800"
      }
    ],
    "timestamp": "2022-07-26T23:37:09Z",
    "component": {
      "type": "application",
      "name": "security-guard",
      "version": "v5.4.9",
      "group": "symfony",
      "externalReferences": [
        {
          "url": "https://github.com/symfony/security-guard.git",
          "type": "distribution"
        },
        {
          "type": "website",
          "url": "https://symfony.com/components/Security",
          "comment": "As set via `homepage` in Github API"
        }
      ]
    }
  },
  "components": [
    {
      "type": "library",
      "bom-ref": "pkg:composer/psr/container@dev-master",
      "group": "psr",
      "name": "container",
      "version": "dev-master",
      "description": "Common Container Interface (PHP FIG PSR-11)",
      "licenses": [
        {
          "license": {
            "id": "MIT"
          }
        }
      ],
      "purl": "pkg:composer/psr/container@dev-master",
      "externalReferences": [
        {
          "url": "https://github.com/php-fig/container.git",
          "type": "distribution",
          "comment": "As detected by composer's `getSourceUrls()` (type=git & reference=c71ecc56dfe541dbd90c5360474fbc405f8d5963)"
        },
        {
          "url": "https://api.github.com/repos/php-fig/container/zipball/c71ecc56dfe541dbd90c5360474fbc405f8d5963",
          "type": "distribution",
          "comment": "As detected by composer's `getDistUrls()` (type=zip & reference=c71ecc56dfe541dbd90c5360474fbc405f8d5963 & sha1=UNDEFINED)"
        },
        {
          "url": "https://github.com/php-fig/container",
          "type": "website",
          "comment": "As set via `homepage` in composer package definition."
        },
        {
          "url": "https://github.com/php-fig/container/issues",
          "type": "issue-tracker",
          "comment": "As set via `support.issues` in composer package definition."
        },
        {
          "url": "https://github.com/php-fig/container/tree/2.0.2",
          "type": "distribution",
          "comment": "As set via `support.source` in composer package definition."
        }
      ]
    },
    {
      "type": "library",
      "bom-ref": "pkg:composer/psr/event-dispatcher@dev-master",
      "group": "psr",
      "name": "event-dispatcher",
      "version": "dev-master",
      "description": "Standard interfaces for event handling.",
      "licenses": [
        {
          "license": {
            "id": "MIT"
          }
        }
      ],
      "purl": "pkg:composer/psr/event-dispatcher@dev-master",
      "externalReferences": [
        {
          "url": "https://github.com/php-fig/event-dispatcher.git",
          "type": "distribution",
          "comment": "As detected by composer's `getSourceUrls()` (type=git & reference=aa4f89e91c423b516ff226c50dc83f824011c253)"
        },
        {
          "url": "https://api.github.com/repos/php-fig/event-dispatcher/zipball/aa4f89e91c423b516ff226c50dc83f824011c253",
          "type": "distribution",
          "comment": "As detected by composer's `getDistUrls()` (type=zip & reference=aa4f89e91c423b516ff226c50dc83f824011c253 & sha1=UNDEFINED)"
        },
        {
          "url": "https://github.com/php-fig/event-dispatcher/tree/master",
          "type": "distribution",
          "comment": "As set via `support.source` in composer package definition."
        }
      ]
    },
    {
      "type": "library",
      "bom-ref": "pkg:composer/psr/log@dev-master",
      "group": "psr",
      "name": "log",
      "version": "dev-master",
      "description": "Common interface for logging libraries",
      "licenses": [
        {
          "license": {
            "id": "MIT"
          }
        }
      ],
      "purl": "pkg:composer/psr/log@dev-master",
      "externalReferences": [
        {
          "url": "https://github.com/php-fig/log.git",
          "type": "distribution",
          "comment": "As detected by composer's `getSourceUrls()` (type=git & reference=fe5ea303b0887d5caefd3d431c3e61ad47037001)"
        },
        {
          "url": "https://api.github.com/repos/php-fig/log/zipball/fe5ea303b0887d5caefd3d431c3e61ad47037001",
          "type": "distribution",
          "comment": "As detected by composer's `getDistUrls()` (type=zip & reference=fe5ea303b0887d5caefd3d431c3e61ad47037001 & sha1=UNDEFINED)"
        },
        {
          "url": "https://github.com/php-fig/log",
          "type": "website",
          "comment": "As set via `homepage` in composer package definition."
        },
        {
          "url": "https://github.com/php-fig/log/tree/3.0.0",
          "type": "distribution",
          "comment": "As set via `support.source` in composer package definition."
        }
      ]
    },
    {
      "type": "library",
      "bom-ref": "pkg:composer/symfony/deprecation-contracts@dev-main",
      "group": "symfony",
      "name": "deprecation-contracts",
      "version": "dev-main",
      "description": "A generic function and convention to trigger deprecation notices",
      "licenses": [
        {
          "license": {
            "id": "MIT"
          }
        }
      ],
      "purl": "pkg:composer/symfony/deprecation-contracts@dev-main",
      "externalReferences": [
        {
          "url": "https://github.com/symfony/deprecation-contracts.git",
          "type": "distribution",
          "comment": "As detected by composer's `getSourceUrls()` (type=git & reference=07f1b9cc2ffee6aaafcf4b710fbc38ff736bd918)"
        },
        {
          "url": "https://api.github.com/repos/symfony/deprecation-contracts/zipball/07f1b9cc2ffee6aaafcf4b710fbc38ff736bd918",
          "type": "distribution",
          "comment": "As detected by composer's `getDistUrls()` (type=zip & reference=07f1b9cc2ffee6aaafcf4b710fbc38ff736bd918 & sha1=UNDEFINED)"
        },
        {
          "url": "https://symfony.com",
          "type": "website",
          "comment": "As set via `homepage` in composer package definition."
        },
        {
          "url": "https://github.com/symfony/deprecation-contracts/tree/main",
          "type": "distribution",
          "comment": "As set via `support.source` in composer package definition."
        },
        {
          "url": "https://symfony.com/sponsor",
          "type": "other",
          "comment": "As set via `funding` in composer package definition. (type=custom)"
        },
        {
          "url": "https://github.com/fabpot",
          "type": "other",
          "comment": "As set via `funding` in composer package definition. (type=github)"
        },
        {
          "url": "https://tidelift.com/funding/github/packagist/symfony/symfony",
          "type": "other",
          "comment": "As set via `funding` in composer package definition. (type=tidelift)"
        }
      ]
    },
    {
      "type": "library",
      "bom-ref": "pkg:composer/symfony/error-handler@6.1.x-dev",
      "group": "symfony",
      "name": "error-handler",
      "version": "6.1.x-dev",
      "description": "Provides tools to manage errors and ease debugging PHP code",
      "licenses": [
        {
          "license": {
            "id": "MIT"
          }
        }
      ],
      "purl": "pkg:composer/symfony/error-handler@6.1.x-dev",
      "externalReferences": [
        {
          "url": "https://github.com/symfony/error-handler.git",
          "type": "distribution",
          "comment": "As detected by composer's `getSourceUrls()` (type=git & reference=5ba1bb74e3309e38ace8d78c007487f482bbe750)"
        },
        {
          "url": "https://api.github.com/repos/symfony/error-handler/zipball/5ba1bb74e3309e38ace8d78c007487f482bbe750",
          "type": "distribution",
          "comment": "As detected by composer's `getDistUrls()` (type=zip & reference=5ba1bb74e3309e38ace8d78c007487f482bbe750 & sha1=UNDEFINED)"
        },
        {
          "url": "https://symfony.com",
          "type": "website",
          "comment": "As set via `homepage` in composer package definition."
        },
        {
          "url": "https://github.com/symfony/error-handler/tree/6.1",
          "type": "distribution",
          "comment": "As set via `support.source` in composer package definition."
        },
        {
          "url": "https://symfony.com/sponsor",
          "type": "other",
          "comment": "As set via `funding` in composer package definition. (type=custom)"
        },
        {
          "url": "https://github.com/fabpot",
          "type": "other",
          "comment": "As set via `funding` in composer package definition. (type=github)"
        },
        {
          "url": "https://tidelift.com/funding/github/packagist/symfony/symfony",
          "type": "other",
          "comment": "As set via `funding` in composer package definition. (type=tidelift)"
        }
      ]
    },
    {
      "type": "library",
      "bom-ref": "pkg:composer/symfony/event-dispatcher@6.1.x-dev",
      "group": "symfony",
      "name": "event-dispatcher",
      "version": "6.1.x-dev",
      "description": "Provides tools that allow your application components to communicate with each other by dispatching events and listening to them",
      "licenses": [
        {
          "license": {
            "id": "MIT"
          }
        }
      ],
      "purl": "pkg:composer/symfony/event-dispatcher@6.1.x-dev",
      "externalReferences": [
        {
          "url": "https://github.com/symfony/event-dispatcher.git",
          "type": "distribution",
          "comment": "As detected by composer's `getSourceUrls()` (type=git & reference=a0449a7ad7daa0f7c0acd508259f80544ab5a347)"
        },
        {
          "url": "https://api.github.com/repos/symfony/event-dispatcher/zipball/a0449a7ad7daa0f7c0acd508259f80544ab5a347",
          "type": "distribution",
          "comment": "As detected by composer's `getDistUrls()` (type=zip & reference=a0449a7ad7daa0f7c0acd508259f80544ab5a347 & sha1=UNDEFINED)"
        },
        {
          "url": "https://symfony.com",
          "type": "website",
          "comment": "As set via `homepage` in composer package definition."
        },
        {
          "url": "https://github.com/symfony/event-dispatcher/tree/6.1",
          "type": "distribution",
          "comment": "As set via `support.source` in composer package definition."
        },
        {
          "url": "https://symfony.com/sponsor",
          "type": "other",
          "comment": "As set via `funding` in composer package definition. (type=custom)"
        },
        {
          "url": "https://github.com/fabpot",
          "type": "other",
          "comment": "As set via `funding` in composer package definition. (type=github)"
        },
        {
          "url": "https://tidelift.com/funding/github/packagist/symfony/symfony",
          "type": "other",
          "comment": "As set via `funding` in composer package definition. (type=tidelift)"
        }
      ]
    },
    {
      "type": "library",
      "bom-ref": "pkg:composer/symfony/event-dispatcher-contracts@dev-main",
      "group": "symfony",
      "name": "event-dispatcher-contracts",
      "version": "dev-main",
      "description": "Generic abstractions related to dispatching event",
      "licenses": [
        {
          "license": {
            "id": "MIT"
          }
        }
      ],
      "purl": "pkg:composer/symfony/event-dispatcher-contracts@dev-main",
      "externalReferences": [
        {
          "url": "https://github.com/symfony/event-dispatcher-contracts.git",
          "type": "distribution",
          "comment": "As detected by composer's `getSourceUrls()` (type=git & reference=02ff5eea2f453731cfbc6bc215e456b781480448)"
        },
        {
          "url": "https://api.github.com/repos/symfony/event-dispatcher-contracts/zipball/02ff5eea2f453731cfbc6bc215e456b781480448",
          "type": "distribution",
          "comment": "As detected by composer's `getDistUrls()` (type=zip & reference=02ff5eea2f453731cfbc6bc215e456b781480448 & sha1=UNDEFINED)"
        },
        {
          "url": "https://symfony.com",
          "type": "website",
          "comment": "As set via `homepage` in composer package definition."
        },
        {
          "url": "https://github.com/symfony/event-dispatcher-contracts/tree/main",
          "type": "distribution",
          "comment": "As set via `support.source` in composer package definition."
        },
        {
          "url": "https://symfony.com/sponsor",
          "type": "other",
          "comment": "As set via `funding` in composer package definition. (type=custom)"
        },
        {
          "url": "https://github.com/fabpot",
          "type": "other",
          "comment": "As set via `funding` in composer package definition. (type=github)"
        },
        {
          "url": "https://tidelift.com/funding/github/packagist/symfony/symfony",
          "type": "other",
          "comment": "As set via `funding` in composer package definition. (type=tidelift)"
        }
      ]
    },
    {
      "type": "library",
      "bom-ref": "pkg:composer/symfony/http-foundation@6.1.x-dev",
      "group": "symfony",
      "name": "http-foundation",
      "version": "6.1.x-dev",
      "description": "Defines an object-oriented layer for the HTTP specification",
      "licenses": [
        {
          "license": {
            "id": "MIT"
          }
        }
      ],
      "purl": "pkg:composer/symfony/http-foundation@6.1.x-dev",
      "externalReferences": [
        {
          "url": "https://github.com/symfony/http-foundation.git",
          "type": "distribution",
          "comment": "As detected by composer's `getSourceUrls()` (type=git & reference=73cae795b20b1d3612d8207093282b556d5b7a6f)"
        },
        {
          "url": "https://api.github.com/repos/symfony/http-foundation/zipball/73cae795b20b1d3612d8207093282b556d5b7a6f",
          "type": "distribution",
          "comment": "As detected by composer's `getDistUrls()` (type=zip & reference=73cae795b20b1d3612d8207093282b556d5b7a6f & sha1=UNDEFINED)"
        },
        {
          "url": "https://symfony.com",
          "type": "website",
          "comment": "As set via `homepage` in composer package definition."
        },
        {
          "url": "https://github.com/symfony/http-foundation/tree/6.1",
          "type": "distribution",
          "comment": "As set via `support.source` in composer package definition."
        },
        {
          "url": "https://symfony.com/sponsor",
          "type": "other",
          "comment": "As set via `funding` in composer package definition. (type=custom)"
        },
        {
          "url": "https://github.com/fabpot",
          "type": "other",
          "comment": "As set via `funding` in composer package definition. (type=github)"
        },
        {
          "url": "https://tidelift.com/funding/github/packagist/symfony/symfony",
          "type": "other",
          "comment": "As set via `funding` in composer package definition. (type=tidelift)"
        }
      ]
    },
    {
      "type": "library",
      "bom-ref": "pkg:composer/symfony/http-kernel@6.1.x-dev",
      "group": "symfony",
      "name": "http-kernel",
      "version": "6.1.x-dev",
      "description": "Provides a structured process for converting a Request into a Response",
      "licenses": [
        {
          "license": {
            "id": "MIT"
          }
        }
      ],
      "purl": "pkg:composer/symfony/http-kernel@6.1.x-dev",
      "externalReferences": [
        {
          "url": "https://github.com/symfony/http-kernel.git",
          "type": "distribution",
          "comment": "As detected by composer's `getSourceUrls()` (type=git & reference=5eec3fe6ea623c67993f4992c3900c80d9a9e605)"
        },
        {
          "url": "https://api.github.com/repos/symfony/http-kernel/zipball/5eec3fe6ea623c67993f4992c3900c80d9a9e605",
          "type": "distribution",
          "comment": "As detected by composer's `getDistUrls()` (type=zip & reference=5eec3fe6ea623c67993f4992c3900c80d9a9e605 & sha1=UNDEFINED)"
        },
        {
          "url": "https://symfony.com",
          "type": "website",
          "comment": "As set via `homepage` in composer package definition."
        },
        {
          "url": "https://github.com/symfony/http-kernel/tree/6.1",
          "type": "distribution",
          "comment": "As set via `support.source` in composer package definition."
        },
        {
          "url": "https://symfony.com/sponsor",
          "type": "other",
          "comment": "As set via `funding` in composer package definition. (type=custom)"
        },
        {
          "url": "https://github.com/fabpot",
          "type": "other",
          "comment": "As set via `funding` in composer package definition. (type=github)"
        },
        {
          "url": "https://tidelift.com/funding/github/packagist/symfony/symfony",
          "type": "other",
          "comment": "As set via `funding` in composer package definition. (type=tidelift)"
        }
      ]
    },
    {
      "type": "library",
      "bom-ref": "pkg:composer/symfony/password-hasher@6.1.x-dev",
      "group": "symfony",
      "name": "password-hasher",
      "version": "6.1.x-dev",
      "description": "Provides password hashing utilities",
      "licenses": [
        {
          "license": {
            "id": "MIT"
          }
        }
      ],
      "purl": "pkg:composer/symfony/password-hasher@6.1.x-dev",
      "externalReferences": [
        {
          "url": "https://github.com/symfony/password-hasher.git",
          "type": "distribution",
          "comment": "As detected by composer's `getSourceUrls()` (type=git & reference=655b2b92281977edc880fffbaa3a9ceb176834db)"
        },
        {
          "url": "https://api.github.com/repos/symfony/password-hasher/zipball/655b2b92281977edc880fffbaa3a9ceb176834db",
          "type": "distribution",
          "comment": "As detected by composer's `getDistUrls()` (type=zip & reference=655b2b92281977edc880fffbaa3a9ceb176834db & sha1=UNDEFINED)"
        },
        {
          "url": "https://symfony.com",
          "type": "website",
          "comment": "As set via `homepage` in composer package definition."
        },
        {
          "url": "https://github.com/symfony/password-hasher/tree/6.1",
          "type": "distribution",
          "comment": "As set via `support.source` in composer package definition."
        },
        {
          "url": "https://symfony.com/sponsor",
          "type": "other",
          "comment": "As set via `funding` in composer package definition. (type=custom)"
        },
        {
          "url": "https://github.com/fabpot",
          "type": "other",
          "comment": "As set via `funding` in composer package definition. (type=github)"
        },
        {
          "url": "https://tidelift.com/funding/github/packagist/symfony/symfony",
          "type": "other",
          "comment": "As set via `funding` in composer package definition. (type=tidelift)"
        }
      ]
    },
    {
      "type": "library",
      "bom-ref": "pkg:composer/symfony/polyfill-ctype@dev-main",
      "group": "symfony",
      "name": "polyfill-ctype",
      "version": "dev-main",
      "description": "Symfony polyfill for ctype functions",
      "licenses": [
        {
          "license": {
            "id": "MIT"
          }
        }
      ],
      "purl": "pkg:composer/symfony/polyfill-ctype@dev-main",
      "externalReferences": [
        {
          "url": "https://github.com/symfony/polyfill-ctype.git",
          "type": "distribution",
          "comment": "As detected by composer's `getSourceUrls()` (type=git & reference=9fa980f4c4b0cbf0b6406832e307b9aed839876f)"
        },
        {
          "url": "https://api.github.com/repos/symfony/polyfill-ctype/zipball/9fa980f4c4b0cbf0b6406832e307b9aed839876f",
          "type": "distribution",
          "comment": "As detected by composer's `getDistUrls()` (type=zip & reference=9fa980f4c4b0cbf0b6406832e307b9aed839876f & sha1=UNDEFINED)"
        },
        {
          "url": "https://symfony.com",
          "type": "website",
          "comment": "As set via `homepage` in composer package definition."
        },
        {
          "url": "https://github.com/symfony/polyfill-ctype/tree/main",
          "type": "distribution",
          "comment": "As set via `support.source` in composer package definition."
        },
        {
          "url": "https://symfony.com/sponsor",
          "type": "other",
          "comment": "As set via `funding` in composer package definition. (type=custom)"
        },
        {
          "url": "https://github.com/fabpot",
          "type": "other",
          "comment": "As set via `funding` in composer package definition. (type=github)"
        },
        {
          "url": "https://tidelift.com/funding/github/packagist/symfony/symfony",
          "type": "other",
          "comment": "As set via `funding` in composer package definition. (type=tidelift)"
        }
      ]
    },
    {
      "type": "library",
      "bom-ref": "pkg:composer/symfony/polyfill-intl-grapheme@dev-main",
      "group": "symfony",
      "name": "polyfill-intl-grapheme",
      "version": "dev-main",
      "description": "Symfony polyfill for intl's grapheme_* functions",
      "licenses": [
        {
          "license": {
            "id": "MIT"
          }
        }
      ],
      "purl": "pkg:composer/symfony/polyfill-intl-grapheme@dev-main",
      "externalReferences": [
        {
          "url": "https://github.com/symfony/polyfill-intl-grapheme.git",
          "type": "distribution",
          "comment": "As detected by composer's `getSourceUrls()` (type=git & reference=1dbff59483b45a8e5685ec0568c7fad4d4b18133)"
        },
        {
          "url": "https://api.github.com/repos/symfony/polyfill-intl-grapheme/zipball/1dbff59483b45a8e5685ec0568c7fad4d4b18133",
          "type": "distribution",
          "comment": "As detected by composer's `getDistUrls()` (type=zip & reference=1dbff59483b45a8e5685ec0568c7fad4d4b18133 & sha1=UNDEFINED)"
        },
        {
          "url": "https://symfony.com",
          "type": "website",
          "comment": "As set via `homepage` in composer package definition."
        },
        {
          "url": "https://github.com/symfony/polyfill-intl-grapheme/tree/main",
          "type": "distribution",
          "comment": "As set via `support.source` in composer package definition."
        },
        {
          "url": "https://symfony.com/sponsor",
          "type": "other",
          "comment": "As set via `funding` in composer package definition. (type=custom)"
        },
        {
          "url": "https://github.com/fabpot",
          "type": "other",
          "comment": "As set via `funding` in composer package definition. (type=github)"
        },
        {
          "url": "https://tidelift.com/funding/github/packagist/symfony/symfony",
          "type": "other",
          "comment": "As set via `funding` in composer package definition. (type=tidelift)"
        }
      ]
    },
    {
      "type": "library",
      "bom-ref": "pkg:composer/symfony/polyfill-intl-normalizer@dev-main",
      "group": "symfony",
      "name": "polyfill-intl-normalizer",
      "version": "dev-main",
      "description": "Symfony polyfill for intl's Normalizer class and related functions",
      "licenses": [
        {
          "license": {
            "id": "MIT"
          }
        }
      ],
      "purl": "pkg:composer/symfony/polyfill-intl-normalizer@dev-main",
      "externalReferences": [
        {
          "url": "https://github.com/symfony/polyfill-intl-normalizer.git",
          "type": "distribution",
          "comment": "As detected by composer's `getSourceUrls()` (type=git & reference=cb7c57fcdec70ed4606806bfab35940b64cbaf5d)"
        },
        {
          "url": "https://api.github.com/repos/symfony/polyfill-intl-normalizer/zipball/cb7c57fcdec70ed4606806bfab35940b64cbaf5d",
          "type": "distribution",
          "comment": "As detected by composer's `getDistUrls()` (type=zip & reference=cb7c57fcdec70ed4606806bfab35940b64cbaf5d & sha1=UNDEFINED)"
        },
        {
          "url": "https://symfony.com",
          "type": "website",
          "comment": "As set via `homepage` in composer package definition."
        },
        {
          "url": "https://github.com/symfony/polyfill-intl-normalizer/tree/main",
          "type": "distribution",
          "comment": "As set via `support.source` in composer package definition."
        },
        {
          "url": "https://symfony.com/sponsor",
          "type": "other",
          "comment": "As set via `funding` in composer package definition. (type=custom)"
        },
        {
          "url": "https://github.com/fabpot",
          "type": "other",
          "comment": "As set via `funding` in composer package definition. (type=github)"
        },
        {
          "url": "https://tidelift.com/funding/github/packagist/symfony/symfony",
          "type": "other",
          "comment": "As set via `funding` in composer package definition. (type=tidelift)"
        }
      ]
    },
    {
      "type": "library",
      "bom-ref": "pkg:composer/symfony/polyfill-mbstring@dev-main",
      "group": "symfony",
      "name": "polyfill-mbstring",
      "version": "dev-main",
      "description": "Symfony polyfill for the Mbstring extension",
      "licenses": [
        {
          "license": {
            "id": "MIT"
          }
        }
      ],
      "purl": "pkg:composer/symfony/polyfill-mbstring@dev-main",
      "externalReferences": [
        {
          "url": "https://github.com/symfony/polyfill-mbstring.git",
          "type": "distribution",
          "comment": "As detected by composer's `getSourceUrls()` (type=git & reference=240259a291e16e306dbf46dfe139d50c7fcb2d34)"
        },
        {
          "url": "https://api.github.com/repos/symfony/polyfill-mbstring/zipball/240259a291e16e306dbf46dfe139d50c7fcb2d34",
          "type": "distribution",
          "comment": "As detected by composer's `getDistUrls()` (type=zip & reference=240259a291e16e306dbf46dfe139d50c7fcb2d34 & sha1=UNDEFINED)"
        },
        {
          "url": "https://symfony.com",
          "type": "website",
          "comment": "As set via `homepage` in composer package definition."
        },
        {
          "url": "https://github.com/symfony/polyfill-mbstring/tree/main",
          "type": "distribution",
          "comment": "As set via `support.source` in composer package definition."
        },
        {
          "url": "https://symfony.com/sponsor",
          "type": "other",
          "comment": "As set via `funding` in composer package definition. (type=custom)"
        },
        {
          "url": "https://github.com/fabpot",
          "type": "other",
          "comment": "As set via `funding` in composer package definition. (type=github)"
        },
        {
          "url": "https://tidelift.com/funding/github/packagist/symfony/symfony",
          "type": "other",
          "comment": "As set via `funding` in composer package definition. (type=tidelift)"
        }
      ]
    },
    {
      "type": "library",
      "bom-ref": "pkg:composer/symfony/polyfill-php80@dev-main",
      "group": "symfony",
      "name": "polyfill-php80",
      "version": "dev-main",
      "description": "Symfony polyfill backporting some PHP 8.0+ features to lower PHP versions",
      "licenses": [
        {
          "license": {
            "id": "MIT"
          }
        }
      ],
      "purl": "pkg:composer/symfony/polyfill-php80@dev-main",
      "externalReferences": [
        {
          "url": "https://github.com/symfony/polyfill-php80.git",
          "type": "distribution",
          "comment": "As detected by composer's `getSourceUrls()` (type=git & reference=cfa0ae98841b9e461207c13ab093d76b0fa7bace)"
        },
        {
          "url": "https://api.github.com/repos/symfony/polyfill-php80/zipball/cfa0ae98841b9e461207c13ab093d76b0fa7bace",
          "type": "distribution",
          "comment": "As detected by composer's `getDistUrls()` (type=zip & reference=cfa0ae98841b9e461207c13ab093d76b0fa7bace & sha1=UNDEFINED)"
        },
        {
          "url": "https://symfony.com",
          "type": "website",
          "comment": "As set via `homepage` in composer package definition."
        },
        {
          "url": "https://github.com/symfony/polyfill-php80/tree/main",
          "type": "distribution",
          "comment": "As set via `support.source` in composer package definition."
        },
        {
          "url": "https://symfony.com/sponsor",
          "type": "other",
          "comment": "As set via `funding` in composer package definition. (type=custom)"
        },
        {
          "url": "https://github.com/fabpot",
          "type": "other",
          "comment": "As set via `funding` in composer package definition. (type=github)"
        },
        {
          "url": "https://tidelift.com/funding/github/packagist/symfony/symfony",
          "type": "other",
          "comment": "As set via `funding` in composer package definition. (type=tidelift)"
        }
      ]
    },
    {
      "type": "library",
      "bom-ref": "pkg:composer/symfony/property-access@6.1.x-dev",
      "group": "symfony",
      "name": "property-access",
      "version": "6.1.x-dev",
      "description": "Provides functions to read and write from/to an object or array using a simple string notation",
      "licenses": [
        {
          "license": {
            "id": "MIT"
          }
        }
      ],
      "purl": "pkg:composer/symfony/property-access@6.1.x-dev",
      "externalReferences": [
        {
          "url": "https://github.com/symfony/property-access.git",
          "type": "distribution",
          "comment": "As detected by composer's `getSourceUrls()` (type=git & reference=71a4cab59753349d25dfb1e34a342a6bd6a818cc)"
        },
        {
          "url": "https://api.github.com/repos/symfony/property-access/zipball/71a4cab59753349d25dfb1e34a342a6bd6a818cc",
          "type": "distribution",
          "comment": "As detected by composer's `getDistUrls()` (type=zip & reference=71a4cab59753349d25dfb1e34a342a6bd6a818cc & sha1=UNDEFINED)"
        },
        {
          "url": "https://symfony.com",
          "type": "website",
          "comment": "As set via `homepage` in composer package definition."
        },
        {
          "url": "https://github.com/symfony/property-access/tree/6.1",
          "type": "distribution",
          "comment": "As set via `support.source` in composer package definition."
        },
        {
          "url": "https://symfony.com/sponsor",
          "type": "other",
          "comment": "As set via `funding` in composer package definition. (type=custom)"
        },
        {
          "url": "https://github.com/fabpot",
          "type": "other",
          "comment": "As set via `funding` in composer package definition. (type=github)"
        },
        {
          "url": "https://tidelift.com/funding/github/packagist/symfony/symfony",
          "type": "other",
          "comment": "As set via `funding` in composer package definition. (type=tidelift)"
        }
      ]
    },
    {
      "type": "library",
      "bom-ref": "pkg:composer/symfony/property-info@6.1.x-dev",
      "group": "symfony",
      "name": "property-info",
      "version": "6.1.x-dev",
      "description": "Extracts information about PHP class' properties using metadata of popular sources",
      "licenses": [
        {
          "license": {
            "id": "MIT"
          }
        }
      ],
      "purl": "pkg:composer/symfony/property-info@6.1.x-dev",
      "externalReferences": [
        {
          "url": "https://github.com/symfony/property-info.git",
          "type": "distribution",
          "comment": "As detected by composer's `getSourceUrls()` (type=git & reference=2eb46696b9aa9724ad897113c770c3d66b14cb8b)"
        },
        {
          "url": "https://api.github.com/repos/symfony/property-info/zipball/2eb46696b9aa9724ad897113c770c3d66b14cb8b",
          "type": "distribution",
          "comment": "As detected by composer's `getDistUrls()` (type=zip & reference=2eb46696b9aa9724ad897113c770c3d66b14cb8b & sha1=UNDEFINED)"
        },
        {
          "url": "https://symfony.com",
          "type": "website",
          "comment": "As set via `homepage` in composer package definition."
        },
        {
          "url": "https://github.com/symfony/property-info/tree/6.1",
          "type": "distribution",
          "comment": "As set via `support.source` in composer package definition."
        },
        {
          "url": "https://symfony.com/sponsor",
          "type": "other",
          "comment": "As set via `funding` in composer package definition. (type=custom)"
        },
        {
          "url": "https://github.com/fabpot",
          "type": "other",
          "comment": "As set via `funding` in composer package definition. (type=github)"
        },
        {
          "url": "https://tidelift.com/funding/github/packagist/symfony/symfony",
          "type": "other",
          "comment": "As set via `funding` in composer package definition. (type=tidelift)"
        }
      ]
    },
    {
      "type": "library",
      "bom-ref": "pkg:composer/symfony/security-core@5.4.x-dev",
      "group": "symfony",
      "name": "security-core",
      "version": "5.4.x-dev",
      "description": "Symfony Security Component - Core Library",
      "licenses": [
        {
          "license": {
            "id": "MIT"
          }
        }
      ],
      "purl": "pkg:composer/symfony/security-core@5.4.x-dev",
      "externalReferences": [
        {
          "url": "https://github.com/symfony/security-core.git",
          "type": "distribution",
          "comment": "As detected by composer's `getSourceUrls()` (type=git & reference=4540ecb8ae82cc46d9580672888597f481ff0440)"
        },
        {
          "url": "https://api.github.com/repos/symfony/security-core/zipball/4540ecb8ae82cc46d9580672888597f481ff0440",
          "type": "distribution",
          "comment": "As detected by composer's `getDistUrls()` (type=zip & reference=4540ecb8ae82cc46d9580672888597f481ff0440 & sha1=UNDEFINED)"
        },
        {
          "url": "https://symfony.com",
          "type": "website",
          "comment": "As set via `homepage` in composer package definition."
        },
        {
          "url": "https://github.com/symfony/security-core/tree/v5.4.8",
          "type": "distribution",
          "comment": "As set via `support.source` in composer package definition."
        },
        {
          "url": "https://symfony.com/sponsor",
          "type": "other",
          "comment": "As set via `funding` in composer package definition. (type=custom)"
        },
        {
          "url": "https://github.com/fabpot",
          "type": "other",
          "comment": "As set via `funding` in composer package definition. (type=github)"
        },
        {
          "url": "https://tidelift.com/funding/github/packagist/symfony/symfony",
          "type": "other",
          "comment": "As set via `funding` in composer package definition. (type=tidelift)"
        }
      ]
    },
    {
      "type": "library",
      "bom-ref": "pkg:composer/symfony/security-http@5.4.x-dev",
      "group": "symfony",
      "name": "security-http",
      "version": "5.4.x-dev",
      "description": "Symfony Security Component - HTTP Integration",
      "licenses": [
        {
          "license": {
            "id": "MIT"
          }
        }
      ],
      "purl": "pkg:composer/symfony/security-http@5.4.x-dev",
      "externalReferences": [
        {
          "url": "https://github.com/symfony/security-http.git",
          "type": "distribution",
          "comment": "As detected by composer's `getSourceUrls()` (type=git & reference=b7ee4af3ef717bc68ae949ac3426ad77b9d7e7bc)"
        },
        {
          "url": "https://api.github.com/repos/symfony/security-http/zipball/b7ee4af3ef717bc68ae949ac3426ad77b9d7e7bc",
          "type": "distribution",
          "comment": "As detected by composer's `getDistUrls()` (type=zip & reference=b7ee4af3ef717bc68ae949ac3426ad77b9d7e7bc & sha1=UNDEFINED)"
        },
        {
          "url": "https://symfony.com",
          "type": "website",
          "comment": "As set via `homepage` in composer package definition."
        },
        {
          "url": "https://github.com/symfony/security-http/tree/5.4",
          "type": "distribution",
          "comment": "As set via `support.source` in composer package definition."
        },
        {
          "url": "https://symfony.com/sponsor",
          "type": "other",
          "comment": "As set via `funding` in composer package definition. (type=custom)"
        },
        {
          "url": "https://github.com/fabpot",
          "type": "other",
          "comment": "As set via `funding` in composer package definition. (type=github)"
        },
        {
          "url": "https://tidelift.com/funding/github/packagist/symfony/symfony",
          "type": "other",
          "comment": "As set via `funding` in composer package definition. (type=tidelift)"
        }
      ]
    },
    {
      "type": "library",
      "bom-ref": "pkg:composer/symfony/service-contracts@dev-main",
      "group": "symfony",
      "name": "service-contracts",
      "version": "dev-main",
      "description": "Generic abstractions related to writing services",
      "licenses": [
        {
          "license": {
            "id": "MIT"
          }
        }
      ],
      "purl": "pkg:composer/symfony/service-contracts@dev-main",
      "externalReferences": [
        {
          "url": "https://github.com/symfony/service-contracts.git",
          "type": "distribution",
          "comment": "As detected by composer's `getSourceUrls()` (type=git & reference=d66cd8ab656780f62c4215b903a420eb86358957)"
        },
        {
          "url": "https://api.github.com/repos/symfony/service-contracts/zipball/d66cd8ab656780f62c4215b903a420eb86358957",
          "type": "distribution",
          "comment": "As detected by composer's `getDistUrls()` (type=zip & reference=d66cd8ab656780f62c4215b903a420eb86358957 & sha1=UNDEFINED)"
        },
        {
          "url": "https://symfony.com",
          "type": "website",
          "comment": "As set via `homepage` in composer package definition."
        },
        {
          "url": "https://github.com/symfony/service-contracts/tree/main",
          "type": "distribution",
          "comment": "As set via `support.source` in composer package definition."
        },
        {
          "url": "https://symfony.com/sponsor",
          "type": "other",
          "comment": "As set via `funding` in composer package definition. (type=custom)"
        },
        {
          "url": "https://github.com/fabpot",
          "type": "other",
          "comment": "As set via `funding` in composer package definition. (type=github)"
        },
        {
          "url": "https://tidelift.com/funding/github/packagist/symfony/symfony",
          "type": "other",
          "comment": "As set via `funding` in composer package definition. (type=tidelift)"
        }
      ]
    },
    {
      "type": "library",
      "bom-ref": "pkg:composer/symfony/string@6.1.x-dev",
      "group": "symfony",
      "name": "string",
      "version": "6.1.x-dev",
      "description": "Provides an object-oriented API to strings and deals with bytes, UTF-8 code points and grapheme clusters in a unified way",
      "licenses": [
        {
          "license": {
            "id": "MIT"
          }
        }
      ],
      "purl": "pkg:composer/symfony/string@6.1.x-dev",
      "externalReferences": [
        {
          "url": "https://github.com/symfony/string.git",
          "type": "distribution",
          "comment": "As detected by composer's `getSourceUrls()` (type=git & reference=360e14d2a1588eb525b09898ff37d63509748db5)"
        },
        {
          "url": "https://api.github.com/repos/symfony/string/zipball/360e14d2a1588eb525b09898ff37d63509748db5",
          "type": "distribution",
          "comment": "As detected by composer's `getDistUrls()` (type=zip & reference=360e14d2a1588eb525b09898ff37d63509748db5 & sha1=UNDEFINED)"
        },
        {
          "url": "https://symfony.com",
          "type": "website",
          "comment": "As set via `homepage` in composer package definition."
        },
        {
          "url": "https://github.com/symfony/string/tree/6.1",
          "type": "distribution",
          "comment": "As set via `support.source` in composer package definition."
        },
        {
          "url": "https://symfony.com/sponsor",
          "type": "other",
          "comment": "As set via `funding` in composer package definition. (type=custom)"
        },
        {
          "url": "https://github.com/fabpot",
          "type": "other",
          "comment": "As set via `funding` in composer package definition. (type=github)"
        },
        {
          "url": "https://tidelift.com/funding/github/packagist/symfony/symfony",
          "type": "other",
          "comment": "As set via `funding` in composer package definition. (type=tidelift)"
        }
      ]
    },
    {
      "type": "library",
      "bom-ref": "pkg:composer/symfony/var-dumper@6.1.x-dev",
      "group": "symfony",
      "name": "var-dumper",
      "version": "6.1.x-dev",
      "description": "Provides mechanisms for walking through any arbitrary PHP variable",
      "licenses": [
        {
          "license": {
            "id": "MIT"
          }
        }
      ],
      "purl": "pkg:composer/symfony/var-dumper@6.1.x-dev",
      "externalReferences": [
        {
          "url": "https://github.com/symfony/var-dumper.git",
          "type": "distribution",
          "comment": "As detected by composer's `getSourceUrls()` (type=git & reference=ef234654e3718cb7dace74c7ff5ce563e191fd0f)"
        },
        {
          "url": "https://api.github.com/repos/symfony/var-dumper/zipball/ef234654e3718cb7dace74c7ff5ce563e191fd0f",
          "type": "distribution",
          "comment": "As detected by composer's `getDistUrls()` (type=zip & reference=ef234654e3718cb7dace74c7ff5ce563e191fd0f & sha1=UNDEFINED)"
        },
        {
          "url": "https://symfony.com",
          "type": "website",
          "comment": "As set via `homepage` in composer package definition."
        },
        {
          "url": "https://github.com/symfony/var-dumper/tree/6.1",
          "type": "distribution",
          "comment": "As set via `support.source` in composer package definition."
        },
        {
          "url": "https://symfony.com/sponsor",
          "type": "other",
          "comment": "As set via `funding` in composer package definition. (type=custom)"
        },
        {
          "url": "https://github.com/fabpot",
          "type": "other",
          "comment": "As set via `funding` in composer package definition. (type=github)"
        },
        {
          "url": "https://tidelift.com/funding/github/packagist/symfony/symfony",
          "type": "other",
          "comment": "As set via `funding` in composer package definition. (type=tidelift)"
        }
      ]
    },
    {
      "type": "library",
      "bom-ref": "pkg:composer/cyclonedx/cyclonedx-library@dev-master",
      "group": "cyclonedx",
      "name": "cyclonedx-library",
      "version": "dev-master",
      "description": "Work with CycloneDX Software Bill-of-Materials (SBOM)",
      "licenses": [
        {
          "license": {
            "id": "Apache-2.0"
          }
        }
      ],
      "purl": "pkg:composer/cyclonedx/cyclonedx-library@dev-master",
      "externalReferences": [
        {
          "url": "https://github.com/CycloneDX/cyclonedx-php-library.git",
          "type": "distribution",
          "comment": "As detected by composer's `getSourceUrls()` (type=git & reference=b80df0d2ce140dad374b8887054ce1b86828f40b)"
        },
        {
          "url": "https://api.github.com/repos/CycloneDX/cyclonedx-php-library/zipball/b80df0d2ce140dad374b8887054ce1b86828f40b",
          "type": "distribution",
          "comment": "As detected by composer's `getDistUrls()` (type=zip & reference=b80df0d2ce140dad374b8887054ce1b86828f40b & sha1=UNDEFINED)"
        },
        {
          "url": "https://github.com/CycloneDX/cyclonedx-php-library/",
          "type": "website",
          "comment": "As set via `homepage` in composer package definition."
        },
        {
          "url": "https://github.com/CycloneDX/cyclonedx-php-library/issues",
          "type": "issue-tracker",
          "comment": "As set via `support.issues` in composer package definition."
        },
        {
          "url": "https://github.com/CycloneDX/cyclonedx-php-library/tree/master",
          "type": "distribution",
          "comment": "As set via `support.source` in composer package definition."
        }
      ]
    },
    {
      "type": "application",
      "bom-ref": "pkg:composer/cyclonedx/cyclonedx-php-composer@dev-master",
      "group": "cyclonedx",
      "name": "cyclonedx-php-composer",
      "version": "dev-master",
      "description": "Creates CycloneDX Software Bill-of-Materials (SBOM) from PHP Composer projects",
      "licenses": [
        {
          "license": {
            "id": "Apache-2.0"
          }
        }
      ],
      "purl": "pkg:composer/cyclonedx/cyclonedx-php-composer@dev-master",
      "externalReferences": [
        {
          "url": "https://github.com/CycloneDX/cyclonedx-php-composer.git",
          "type": "distribution",
          "comment": "As detected by composer's `getSourceUrls()` (type=git & reference=6bcb650503f21be764997a0d5c4d82f651a42d10)"
        },
        {
          "url": "https://api.github.com/repos/CycloneDX/cyclonedx-php-composer/zipball/6bcb650503f21be764997a0d5c4d82f651a42d10",
          "type": "distribution",
          "comment": "As detected by composer's `getDistUrls()` (type=zip & reference=6bcb650503f21be764997a0d5c4d82f651a42d10 & sha1=UNDEFINED)"
        },
        {
          "url": "https://github.com/CycloneDX/cyclonedx-php-composer/",
          "type": "website",
          "comment": "As set via `homepage` in composer package definition."
        },
        {
          "url": "https://github.com/CycloneDX/cyclonedx-php-composer/issues",
          "type": "issue-tracker",
          "comment": "As set via `support.issues` in composer package definition."
        },
        {
          "url": "https://github.com/CycloneDX/cyclonedx-php-composer/tree/master",
          "type": "distribution",
          "comment": "As set via `support.source` in composer package definition."
        }
      ]
    },
    {
      "type": "library",
      "bom-ref": "pkg:composer/package-url/packageurl-php@1.0.4",
      "group": "package-url",
      "name": "packageurl-php",
      "version": "1.0.4",
      "description": "A parser and builder based on the package url spec.",
      "licenses": [
        {
          "license": {
            "id": "MIT"
          }
        }
      ],
      "purl": "pkg:composer/package-url/packageurl-php@1.0.4",
      "externalReferences": [
        {
          "url": "https://github.com/package-url/packageurl-php.git",
          "type": "distribution",
          "comment": "As detected by composer's `getSourceUrls()` (type=git & reference=c45953babed516d27a0cf6c1a2d9f7e883ce214f)"
        },
        {
          "url": "https://api.github.com/repos/package-url/packageurl-php/zipball/c45953babed516d27a0cf6c1a2d9f7e883ce214f",
          "type": "distribution",
          "comment": "As detected by composer's `getDistUrls()` (type=zip & reference=c45953babed516d27a0cf6c1a2d9f7e883ce214f & sha1=UNDEFINED)"
        },
        {
          "url": "https://github.com/package-url/packageurl-php",
          "type": "website",
          "comment": "As set via `homepage` in composer package definition."
        },
        {
          "url": "https://github.com/package-url/packageurl-php/issues",
          "type": "issue-tracker",
          "comment": "As set via `support.issues` in composer package definition."
        },
        {
          "url": "https://github.com/package-url/packageurl-php/tree/1.0.4",
          "type": "distribution",
          "comment": "As set via `support.source` in composer package definition."
        }
      ]
    },
    {
      "type": "library",
      "bom-ref": "pkg:composer/phplang/scope-exit@1.0.0",
      "group": "phplang",
      "name": "scope-exit",
      "version": "1.0.0",
      "description": "Emulation of SCOPE_EXIT construct from C++",
      "licenses": [
        {
          "license": {
            "name": "BSD"
          }
        }
      ],
      "purl": "pkg:composer/phplang/scope-exit@1.0.0",
      "externalReferences": [
        {
          "url": "https://github.com/phplang/scope-exit.git",
          "type": "distribution",
          "comment": "As detected by composer's `getSourceUrls()` (type=git & reference=239b73abe89f9414aa85a7ca075ec9445629192b)"
        },
        {
          "url": "https://api.github.com/repos/phplang/scope-exit/zipball/239b73abe89f9414aa85a7ca075ec9445629192b",
          "type": "distribution",
          "comment": "As detected by composer's `getDistUrls()` (type=zip & reference=239b73abe89f9414aa85a7ca075ec9445629192b & sha1=UNDEFINED)"
        },
        {
          "url": "https://github.com/phplang/scope-exit",
          "type": "website",
          "comment": "As set via `homepage` in composer package definition."
        },
        {
          "url": "https://github.com/phplang/scope-exit/issues",
          "type": "issue-tracker",
          "comment": "As set via `support.issues` in composer package definition."
        },
        {
          "url": "https://github.com/phplang/scope-exit/tree/master",
          "type": "distribution",
          "comment": "As set via `support.source` in composer package definition."
        }
      ]
    },
    {
      "type": "library",
      "bom-ref": "pkg:composer/swaggest/json-diff@3.8.3",
      "group": "swaggest",
      "name": "json-diff",
      "version": "3.8.3",
      "description": "JSON diff/rearrange/patch/pointer library for PHP",
      "licenses": [
        {
          "license": {
            "id": "MIT"
          }
        }
      ],
      "purl": "pkg:composer/swaggest/json-diff@3.8.3",
      "externalReferences": [
        {
          "url": "https://github.com/swaggest/json-diff.git",
          "type": "distribution",
          "comment": "As detected by composer's `getSourceUrls()` (type=git & reference=bb3e3b4e9d842bb2e48f31ea568d0459968d1d42)"
        },
        {
          "url": "https://api.github.com/repos/swaggest/json-diff/zipball/bb3e3b4e9d842bb2e48f31ea568d0459968d1d42",
          "type": "distribution",
          "comment": "As detected by composer's `getDistUrls()` (type=zip & reference=bb3e3b4e9d842bb2e48f31ea568d0459968d1d42 & sha1=UNDEFINED)"
        },
        {
          "url": "https://github.com/swaggest/json-diff/issues",
          "type": "issue-tracker",
          "comment": "As set via `support.issues` in composer package definition."
        },
        {
          "url": "https://github.com/swaggest/json-diff/tree/v3.8.3",
          "type": "distribution",
          "comment": "As set via `support.source` in composer package definition."
        }
      ]
    },
    {
      "type": "library",
      "bom-ref": "pkg:composer/swaggest/json-schema@0.12.39",
      "group": "swaggest",
      "name": "json-schema",
      "version": "0.12.39",
      "description": "High definition PHP structures with JSON-schema based validation",
      "licenses": [
        {
          "license": {
            "id": "MIT"
          }
        }
      ],
      "purl": "pkg:composer/swaggest/json-schema@0.12.39",
      "externalReferences": [
        {
          "url": "https://github.com/swaggest/php-json-schema.git",
          "type": "distribution",
          "comment": "As detected by composer's `getSourceUrls()` (type=git & reference=193ba39cce1ffa2d55ddd5445315e945a63298a2)"
        },
        {
          "url": "https://api.github.com/repos/swaggest/php-json-schema/zipball/193ba39cce1ffa2d55ddd5445315e945a63298a2",
          "type": "distribution",
          "comment": "As detected by composer's `getDistUrls()` (type=zip & reference=193ba39cce1ffa2d55ddd5445315e945a63298a2 & sha1=UNDEFINED)"
        },
        {
          "url": "mailto:vearutop@gmail.com",
          "type": "other",
          "comment": "As set via `support.email` in composer package definition."
        },
        {
          "url": "https://github.com/swaggest/php-json-schema/issues",
          "type": "issue-tracker",
          "comment": "As set via `support.issues` in composer package definition."
        },
        {
          "url": "https://github.com/swaggest/php-json-schema/tree/v0.12.39",
          "type": "distribution",
          "comment": "As set via `support.source` in composer package definition."
        }
      ]
    },
    {
      "type": "library",
      "bom-ref": "pkg:composer/psr/container@de-master",
      "group": "psr",
      "name": "container",
      "version": "de-master",
      "description": "Common Container Interface (PHP FIG PSR-11)",
      "licenses": [
        {
          "license": {
            "id": "MIT",
            "url": "https://opensource.org/licenses/MIT"
          }
        }
      ],
      "purl": "pkg:composer/psr/container@de-master",
      "externalReferences": [
        {
          "url": "https://github.com/php-fig/container.git",
          "type": "vcs"
        }
      ]
    },
    {
      "type": "library",
      "bom-ref": "pkg:composer/psr/event-dispatcher@de-master",
      "group": "psr",
      "name": "event-dispatcher",
      "version": "de-master",
      "description": "Standard interfaces for event handling.",
      "licenses": [
        {
          "license": {
            "id": "MIT",
            "url": "https://opensource.org/licenses/MIT"
          }
        }
      ],
      "purl": "pkg:composer/psr/event-dispatcher@de-master",
      "externalReferences": [
        {
          "url": "https://github.com/php-fig/event-dispatcher.git",
          "type": "vcs"
        }
      ]
    },
    {
      "type": "library",
      "bom-ref": "pkg:composer/psr/log@de-master",
      "group": "psr",
      "name": "log",
      "version": "de-master",
      "description": "Common interface for logging libraries",
      "licenses": [
        {
          "license": {
            "id": "MIT",
            "url": "https://opensource.org/licenses/MIT"
          }
        }
      ],
      "purl": "pkg:composer/psr/log@de-master",
      "externalReferences": [
        {
          "url": "https://github.com/php-fig/log.git",
          "type": "vcs"
        }
      ]
    },
    {
      "type": "library",
      "bom-ref": "pkg:composer/symfony/deprecation-contracts@de-main",
      "group": "symfony",
      "name": "deprecation-contracts",
      "version": "de-main",
      "description": "A generic function and convention to trigger deprecation notices",
      "licenses": [
        {
          "license": {
            "id": "MIT",
            "url": "https://opensource.org/licenses/MIT"
          }
        }
      ],
      "purl": "pkg:composer/symfony/deprecation-contracts@de-main",
      "externalReferences": [
        {
          "url": "https://github.com/symfony/deprecation-contracts.git",
          "type": "vcs"
        }
      ]
    },
    {
      "type": "library",
      "bom-ref": "pkg:composer/symfony/error-handler@6.1.x-de",
      "group": "symfony",
      "name": "error-handler",
      "version": "6.1.x-de",
      "description": "Provides tools to manage errors and ease debugging PHP code",
      "licenses": [
        {
          "license": {
            "id": "MIT",
            "url": "https://opensource.org/licenses/MIT"
          }
        }
      ],
      "purl": "pkg:composer/symfony/error-handler@6.1.x-de",
      "externalReferences": [
        {
          "url": "https://github.com/symfony/error-handler.git",
          "type": "vcs"
        }
      ]
    },
    {
      "type": "library",
      "bom-ref": "pkg:composer/symfony/event-dispatcher@6.1.x-de",
      "group": "symfony",
      "name": "event-dispatcher",
      "version": "6.1.x-de",
      "description": "Provides tools that allow your application components to communicate with each other by dispatching events and listening to them",
      "licenses": [
        {
          "license": {
            "id": "MIT",
            "url": "https://opensource.org/licenses/MIT"
          }
        }
      ],
      "purl": "pkg:composer/symfony/event-dispatcher@6.1.x-de",
      "externalReferences": [
        {
          "url": "https://github.com/symfony/event-dispatcher.git",
          "type": "vcs"
        }
      ]
    },
    {
      "type": "library",
      "bom-ref": "pkg:composer/symfony/event-dispatcher-contracts@de-main",
      "group": "symfony",
      "name": "event-dispatcher-contracts",
      "version": "de-main",
      "description": "Generic abstractions related to dispatching event",
      "licenses": [
        {
          "license": {
            "id": "MIT",
            "url": "https://opensource.org/licenses/MIT"
          }
        }
      ],
      "purl": "pkg:composer/symfony/event-dispatcher-contracts@de-main",
      "externalReferences": [
        {
          "url": "https://github.com/symfony/event-dispatcher-contracts.git",
          "type": "vcs"
        }
      ]
    },
    {
      "type": "library",
      "bom-ref": "pkg:composer/symfony/http-foundation@6.1.x-de",
      "group": "symfony",
      "name": "http-foundation",
      "version": "6.1.x-de",
      "description": "Defines an object-oriented layer for the HTTP specification",
      "licenses": [
        {
          "license": {
            "id": "MIT",
            "url": "https://opensource.org/licenses/MIT"
          }
        }
      ],
      "purl": "pkg:composer/symfony/http-foundation@6.1.x-de",
      "externalReferences": [
        {
          "url": "https://github.com/symfony/http-foundation.git",
          "type": "vcs"
        }
      ]
    },
    {
      "type": "library",
      "bom-ref": "pkg:composer/symfony/http-kernel@6.1.x-de",
      "group": "symfony",
      "name": "http-kernel",
      "version": "6.1.x-de",
      "description": "Provides a structured process for converting a Request into a Response",
      "licenses": [
        {
          "license": {
            "id": "MIT",
            "url": "https://opensource.org/licenses/MIT"
          }
        }
      ],
      "purl": "pkg:composer/symfony/http-kernel@6.1.x-de",
      "externalReferences": [
        {
          "url": "https://github.com/symfony/http-kernel.git",
          "type": "vcs"
        }
      ]
    },
    {
      "type": "library",
      "bom-ref": "pkg:composer/symfony/password-hasher@6.1.x-de",
      "group": "symfony",
      "name": "password-hasher",
      "version": "6.1.x-de",
      "description": "Provides password hashing utilities",
      "licenses": [
        {
          "license": {
            "id": "MIT",
            "url": "https://opensource.org/licenses/MIT"
          }
        }
      ],
      "purl": "pkg:composer/symfony/password-hasher@6.1.x-de",
      "externalReferences": [
        {
          "url": "https://github.com/symfony/password-hasher.git",
          "type": "vcs"
        }
      ]
    },
    {
      "type": "library",
      "bom-ref": "pkg:composer/symfony/polyfill-ctype@de-main",
      "group": "symfony",
      "name": "polyfill-ctype",
      "version": "de-main",
      "description": "Symfony polyfill for ctype functions",
      "licenses": [
        {
          "license": {
            "id": "MIT",
            "url": "https://opensource.org/licenses/MIT"
          }
        }
      ],
      "purl": "pkg:composer/symfony/polyfill-ctype@de-main",
      "externalReferences": [
        {
          "url": "https://github.com/symfony/polyfill-ctype.git",
          "type": "vcs"
        }
      ]
    },
    {
      "type": "library",
      "bom-ref": "pkg:composer/symfony/polyfill-intl-grapheme@de-main",
      "group": "symfony",
      "name": "polyfill-intl-grapheme",
      "version": "de-main",
      "description": "Symfony polyfill for intl's grapheme_* functions",
      "licenses": [
        {
          "license": {
            "id": "MIT",
            "url": "https://opensource.org/licenses/MIT"
          }
        }
      ],
      "purl": "pkg:composer/symfony/polyfill-intl-grapheme@de-main",
      "externalReferences": [
        {
          "url": "https://github.com/symfony/polyfill-intl-grapheme.git",
          "type": "vcs"
        }
      ]
    },
    {
      "type": "library",
      "bom-ref": "pkg:composer/symfony/polyfill-intl-normalizer@de-main",
      "group": "symfony",
      "name": "polyfill-intl-normalizer",
      "version": "de-main",
      "description": "Symfony polyfill for intl's Normalizer class and related functions",
      "licenses": [
        {
          "license": {
            "id": "MIT",
            "url": "https://opensource.org/licenses/MIT"
          }
        }
      ],
      "purl": "pkg:composer/symfony/polyfill-intl-normalizer@de-main",
      "externalReferences": [
        {
          "url": "https://github.com/symfony/polyfill-intl-normalizer.git",
          "type": "vcs"
        }
      ]
    },
    {
      "type": "library",
      "bom-ref": "pkg:composer/symfony/polyfill-mbstring@de-main",
      "group": "symfony",
      "name": "polyfill-mbstring",
      "version": "de-main",
      "description": "Symfony polyfill for the Mbstring extension",
      "licenses": [
        {
          "license": {
            "id": "MIT",
            "url": "https://opensource.org/licenses/MIT"
          }
        }
      ],
      "purl": "pkg:composer/symfony/polyfill-mbstring@de-main",
      "externalReferences": [
        {
          "url": "https://github.com/symfony/polyfill-mbstring.git",
          "type": "vcs"
        }
      ]
    },
    {
      "type": "library",
      "bom-ref": "pkg:composer/symfony/polyfill-php80@de-main",
      "group": "symfony",
      "name": "polyfill-php80",
      "version": "de-main",
      "description": "Symfony polyfill backporting some PHP 8.0+ features to lower PHP versions",
      "licenses": [
        {
          "license": {
            "id": "MIT",
            "url": "https://opensource.org/licenses/MIT"
          }
        }
      ],
      "purl": "pkg:composer/symfony/polyfill-php80@de-main",
      "externalReferences": [
        {
          "url": "https://github.com/symfony/polyfill-php80.git",
          "type": "vcs"
        }
      ]
    },
    {
      "type": "library",
      "bom-ref": "pkg:composer/symfony/property-access@6.1.x-de",
      "group": "symfony",
      "name": "property-access",
      "version": "6.1.x-de",
      "description": "Provides functions to read and write from/to an object or array using a simple string notation",
      "licenses": [
        {
          "license": {
            "id": "MIT",
            "url": "https://opensource.org/licenses/MIT"
          }
        }
      ],
      "purl": "pkg:composer/symfony/property-access@6.1.x-de",
      "externalReferences": [
        {
          "url": "https://github.com/symfony/property-access.git",
          "type": "vcs"
        }
      ]
    },
    {
      "type": "library",
      "bom-ref": "pkg:composer/symfony/property-info@6.1.x-de",
      "group": "symfony",
      "name": "property-info",
      "version": "6.1.x-de",
      "description": "Extracts information about PHP class' properties using metadata of popular sources",
      "licenses": [
        {
          "license": {
            "id": "MIT",
            "url": "https://opensource.org/licenses/MIT"
          }
        }
      ],
      "purl": "pkg:composer/symfony/property-info@6.1.x-de",
      "externalReferences": [
        {
          "url": "https://github.com/symfony/property-info.git",
          "type": "vcs"
        }
      ]
    },
    {
      "type": "library",
      "bom-ref": "pkg:composer/symfony/security-core@5.4.x-de",
      "group": "symfony",
      "name": "security-core",
      "version": "5.4.x-de",
      "description": "Symfony Security Component - Core Library",
      "licenses": [
        {
          "license": {
            "id": "MIT",
            "url": "https://opensource.org/licenses/MIT"
          }
        }
      ],
      "purl": "pkg:composer/symfony/security-core@5.4.x-de",
      "externalReferences": [
        {
          "url": "https://github.com/symfony/security-core.git",
          "type": "vcs"
        }
      ]
    },
    {
      "type": "library",
      "bom-ref": "pkg:composer/symfony/security-http@5.4.x-de",
      "group": "symfony",
      "name": "security-http",
      "version": "5.4.x-de",
      "description": "Symfony Security Component - HTTP Integration",
      "licenses": [
        {
          "license": {
            "id": "MIT",
            "url": "https://opensource.org/licenses/MIT"
          }
        }
      ],
      "purl": "pkg:composer/symfony/security-http@5.4.x-de",
      "externalReferences": [
        {
          "url": "https://github.com/symfony/security-http.git",
          "type": "vcs"
        }
      ]
    },
    {
      "type": "library",
      "bom-ref": "pkg:composer/symfony/service-contracts@de-main",
      "group": "symfony",
      "name": "service-contracts",
      "version": "de-main",
      "description": "Generic abstractions related to writing services",
      "licenses": [
        {
          "license": {
            "id": "MIT",
            "url": "https://opensource.org/licenses/MIT"
          }
        }
      ],
      "purl": "pkg:composer/symfony/service-contracts@de-main",
      "externalReferences": [
        {
          "url": "https://github.com/symfony/service-contracts.git",
          "type": "vcs"
        }
      ]
    },
    {
      "type": "library",
      "bom-ref": "pkg:composer/symfony/string@6.1.x-de",
      "group": "symfony",
      "name": "string",
      "version": "6.1.x-de",
      "description": "Provides an object-oriented API to strings and deals with bytes, UTF-8 code points and grapheme clusters in a unified way",
      "licenses": [
        {
          "license": {
            "id": "MIT",
            "url": "https://opensource.org/licenses/MIT"
          }
        }
      ],
      "purl": "pkg:composer/symfony/string@6.1.x-de",
      "externalReferences": [
        {
          "url": "https://github.com/symfony/string.git",
          "type": "vcs"
        }
      ]
    },
    {
      "type": "library",
      "bom-ref": "pkg:composer/symfony/var-dumper@6.1.x-de",
      "group": "symfony",
      "name": "var-dumper",
      "version": "6.1.x-de",
      "description": "Provides mechanisms for walking through any arbitrary PHP variable",
      "licenses": [
        {
          "license": {
            "id": "MIT",
            "url": "https://opensource.org/licenses/MIT"
          }
        }
      ],
      "purl": "pkg:composer/symfony/var-dumper@6.1.x-de",
      "externalReferences": [
        {
          "url": "https://github.com/symfony/var-dumper.git",
          "type": "vcs"
        }
      ]
    },
    {
      "type": "library",
      "bom-ref": "pkg:composer/symfony/polyfill-mbstring@1.19.0",
      "group": "symfony",
      "name": "polyfill-mbstring",
      "version": "1.19.0",
      "description": "Symfony polyfill for the Mbstring extension",
      "licenses": [
        {
          "license": {
            "id": "MIT",
            "url": "https://opensource.org/licenses/MIT"
          }
        }
      ],
      "purl": "pkg:composer/symfony/polyfill-mbstring@1.19.0",
      "externalReferences": [
        {
          "url": "https://github.com/symfony/polyfill-mbstring.git",
          "type": "vcs"
        }
      ]
    }
  ],
  "dependencies": [
    {
      "ref": "pkg:composer/psr/container@dev-master"
    },
    {
      "ref": "pkg:composer/psr/event-dispatcher@dev-master"
    },
    {
      "ref": "pkg:composer/psr/log@dev-master"
    },
    {
      "ref": "pkg:composer/symfony/deprecation-contracts@dev-main"
    },
    {
      "ref": "pkg:composer/symfony/error-handler@6.1.x-dev",
      "dependsOn": [
        "pkg:composer/psr/log@dev-master",
        "pkg:composer/symfony/var-dumper@6.1.x-dev"
      ]
    },
    {
      "ref": "pkg:composer/symfony/event-dispatcher@6.1.x-dev",
      "dependsOn": [
        "pkg:composer/symfony/event-dispatcher-contracts@dev-main"
      ]
    },
    {
      "ref": "pkg:composer/symfony/event-dispatcher-contracts@dev-main",
      "dependsOn": [
        "pkg:composer/psr/event-dispatcher@dev-master"
      ]
    },
    {
      "ref": "pkg:composer/symfony/http-foundation@6.1.x-dev",
      "dependsOn": [
        "pkg:composer/symfony/deprecation-contracts@dev-main",
        "pkg:composer/symfony/polyfill-mbstring@dev-main"
      ]
    },
    {
      "ref": "pkg:composer/symfony/http-kernel@6.1.x-dev",
      "dependsOn": [
        "pkg:composer/psr/log@dev-master",
        "pkg:composer/symfony/error-handler@6.1.x-dev",
        "pkg:composer/symfony/event-dispatcher@6.1.x-dev",
        "pkg:composer/symfony/http-foundation@6.1.x-dev",
        "pkg:composer/symfony/polyfill-ctype@dev-main"
      ]
    },
    {
      "ref": "pkg:composer/symfony/password-hasher@6.1.x-dev"
    },
    {
      "ref": "pkg:composer/symfony/polyfill-ctype@dev-main"
    },
    {
      "ref": "pkg:composer/symfony/polyfill-intl-grapheme@dev-main"
    },
    {
      "ref": "pkg:composer/symfony/polyfill-intl-normalizer@dev-main"
    },
    {
      "ref": "pkg:composer/symfony/polyfill-mbstring@dev-main"
    },
    {
      "ref": "pkg:composer/symfony/polyfill-php80@dev-main"
    },
    {
      "ref": "pkg:composer/symfony/property-access@6.1.x-dev",
      "dependsOn": [
        "pkg:composer/symfony/property-info@6.1.x-dev"
      ]
    },
    {
      "ref": "pkg:composer/symfony/property-info@6.1.x-dev",
      "dependsOn": [
        "pkg:composer/symfony/string@6.1.x-dev"
      ]
    },
    {
      "ref": "pkg:composer/symfony/security-core@5.4.x-dev",
      "dependsOn": [
        "pkg:composer/symfony/deprecation-contracts@dev-main",
        "pkg:composer/symfony/event-dispatcher-contracts@dev-main",
        "pkg:composer/symfony/password-hasher@6.1.x-dev",
        "pkg:composer/symfony/polyfill-php80@dev-main",
        "pkg:composer/symfony/service-contracts@dev-main"
      ]
    },
    {
      "ref": "pkg:composer/symfony/security-http@5.4.x-dev",
      "dependsOn": [
        "pkg:composer/symfony/deprecation-contracts@dev-main",
        "pkg:composer/symfony/http-foundation@6.1.x-dev",
        "pkg:composer/symfony/http-kernel@6.1.x-dev",
        "pkg:composer/symfony/polyfill-mbstring@dev-main",
        "pkg:composer/symfony/polyfill-php80@dev-main",
        "pkg:composer/symfony/property-access@6.1.x-dev",
        "pkg:composer/symfony/security-core@5.4.x-dev"
      ]
    },
    {
      "ref": "pkg:composer/symfony/service-contracts@dev-main",
      "dependsOn": [
        "pkg:composer/psr/container@dev-master"
      ]
    },
    {
      "ref": "pkg:composer/symfony/string@6.1.x-dev",
      "dependsOn": [
        "pkg:composer/symfony/polyfill-ctype@dev-main",
        "pkg:composer/symfony/polyfill-intl-grapheme@dev-main",
        "pkg:composer/symfony/polyfill-intl-normalizer@dev-main",
        "pkg:composer/symfony/polyfill-mbstring@dev-main"
      ]
    },
    {
      "ref": "pkg:composer/symfony/var-dumper@6.1.x-dev",
      "dependsOn": [
        "pkg:composer/symfony/polyfill-mbstring@dev-main"
      ]
    },
    {
      "ref": "pkg:composer/cyclonedx/cyclonedx-library@dev-master",
      "dependsOn": [
        "pkg:composer/package-url/packageurl-php@1.0.4",
        "pkg:composer/swaggest/json-schema@0.12.39"
      ]
    },
    {
      "ref": "pkg:composer/cyclonedx/cyclonedx-php-composer@dev-master",
      "dependsOn": [
        "pkg:composer/cyclonedx/cyclonedx-library@dev-master",
        "pkg:composer/package-url/packageurl-php@1.0.4"
      ]
    },
    {
      "ref": "pkg:composer/package-url/packageurl-php@1.0.4"
    },
    {
      "ref": "pkg:composer/phplang/scope-exit@1.0.0"
    },
    {
      "ref": "pkg:composer/swaggest/json-diff@3.8.3"
    },
    {
      "ref": "pkg:composer/swaggest/json-schema@0.12.39",
      "dependsOn": [
        "pkg:composer/phplang/scope-exit@1.0.0",
        "pkg:composer/swaggest/json-diff@3.8.3",
        "pkg:composer/symfony/polyfill-mbstring@dev-main"
      ]
    },
    {
      "ref": "pkg:composer/symfony/security-guard@5.4.x-dev",
      "dependsOn": [
        "pkg:composer/symfony/security-core@5.4.x-dev",
        "pkg:composer/symfony/security-http@5.4.x-dev",
        "pkg:composer/symfony/polyfill-php80@dev-main",
        "pkg:composer/psr/log@dev-master",
        "pkg:composer/cyclonedx/cyclonedx-php-composer@dev-master"
      ]
    }
  ]
}
