{
  "bomFormat": "CycloneDX",
  "specVersion": "1.3",
  "version": 1,
  "components": [
    {
      "type": "library",
      "publisher": "Python Packaging Authority",
      "name": "setuptools",
      "version": "62.3.2",
      "description": "Easily download, build, install, upgrade, and uninstall Python packages",
      "hashes": [
        {
          "alg": "MD5",
          "content": "8cec5ba9f875efdd8534000c3a0c9b24"
        },
        {
          "alg": "SHA-256",
          "content": "68e45d17c9281ba25dc0104eadd2647172b3472d9e01f911efa57965e8d51a36"
        }
      ],
      "purl": "pkg:pypi/setuptools@62.3.2",
      "modified": false
    },
    {
      "type": "library",
      "publisher": "Mario Vilas",
      "name": "google",
      "version": "3.0.0",
      "description": "Python bindings to the Google search engine.",
      "hashes": [
        {
          "alg": "MD5",
          "content": "30c719790d3e7e57e9482d108eda355c"
        },
        {
          "alg": "SHA-256",
          "content": "889cf695f84e4ae2c55fbc0cfdaf4c1e729417fa52ab1db0485202ba173e4935"
        }
      ],
      "purl": "pkg:pypi/google@3.0.0",
      "modified": false
    },
    {
      "type": "library",
      "publisher": "The gRPC Authors",
      "name": "grpc",
      "version": "1.0.0",
      "description": "Please install the official package with: pip install grpcio",
      "hashes": [
        {
          "alg": "MD5",
          "content": "ce4e2193e5791df9df7e63215f4e87f3"
        },
        {
          "alg": "SHA-256",
          "content": "e1aa035512b1cc8d5ce84685f30eae463dad9123d858f5676b1159a2b80eea86"
        }
      ],
      "licenses": [
        {
          "license": {
            "name": "Apache License 2.0"
          }
        }
      ],
      "purl": "pkg:pypi/grpc@1.0.0",
      "modified": false
    },
    {
      "type": "library",
      "publisher": "Google Inc.",
      "name": "tensorflow",
      "version": "2.9.0",
      "description": "TensorFlow is an open source machine learning framework for everyone.",
      "hashes": [
        {
          "alg": "MD5",
          "content": "1cfa9da9b717760a82efdfc7137b6f6c"
        },
        {
          "alg": "SHA-256",
          "content": "bb17b23d96588c97869b58fd874887ea7e25efa69d80122f5a6d1a26e8cb897e"
        }
      ],
      "licenses": [
        {
          "license": {
            "name": "Apache 2.0"
          }
        }
      ],
      "purl": "pkg:pypi/tensorflow@2.9.0",
      "modified": false
    },
    {
      "type": "library",
      "publisher": "Benjamin Peterson",
      "name": "six",
      "version": "1.16.0",
      "description": "Python 2 and 3 compatibility utilities",
      "hashes": [
        {
          "alg": "MD5",
          "content": "529d7fd7e14612ccde86417b4402d6f3"
        },
        {
          "alg": "SHA-256",
          "content": "8abb2f1d86890a2dfb989f9a77cfcfd3e47c2a354b01111771326f8aa26e0254"
        }
      ],
      "licenses": [
        {
          "license": {
            "name": "MIT"
          }
        }
      ],
      "purl": "pkg:pypi/six@1.16.0",
      "modified": false
    },
    {
      "type": "library",
      "publisher": "Travis E. Oliphant et al.",
      "name": "numpy",
      "version": "1.22.3",
      "description": "NumPy is the fundamental package for array computing with Python.",
      "hashes": [
        {
          "alg": "MD5",
          "content": "99d2dfb943327b108b2c3b923bd42000"
        },
        {
          "alg": "SHA-256",
          "content": "c34ea7e9d13a70bf2ab64a2532fe149a9aced424cd05a2c4ba662fd989e3e45f"
        }
      ],
      "licenses": [
        {
          "license": {
            "name": "BSD"
          }
        }
      ],
      "purl": "pkg:pypi/numpy@1.22.3",
      "modified": false
    },
    {
      "type": "library",
      "name": "io",
      "version": "0.0.1",
      "purl": "pkg:pypi/io@0.0.1",
      "modified": false
    },
    {
      "type": "library",
      "publisher": "Secret Labs AB (PythonWare)",
      "name": "PIL",
      "version": "1.1.6",
      "description": "Python Imaging Library",
      "licenses": [
        {
          "license": {
            "name": "Python (MIT style)"
          }
        }
      ],
      "purl": "pkg:pypi/pil@1.1.6",
      "modified": false
    },
    {
      "type": "library",
      "publisher": "Kenneth Reitz",
      "name": "requests",
      "version": "2.27.1",
      "description": "Python HTTP for Humans.",
      "hashes": [
        {
          "alg": "MD5",
          "content": "435db0f122c83decd27524f690e89650"
        },
        {
          "alg": "SHA-256",
          "content": "f22fa1e554c9ddfd16e6e41ac79759e17be9e492b3587efa038054674760e72d"
        }
      ],
      "licenses": [
        {
          "license": {
            "name": "Apache 2.0"
          }
        }
      ],
      "purl": "pkg:pypi/requests@2.27.1",
      "modified": false
    },
    {
      "type": "library",
      "publisher": "Thomas Waldmann",
      "name": "argparse",
      "version": "1.4.0",
      "description": "Python command-line parsing library",
      "hashes": [
        {
          "alg": "MD5",
          "content": "c37216a954c8669054e2b2c54853dd49"
        },
        {
          "alg": "SHA-256",
          "content": "c31647edb69fd3d465a847ea3157d37bed1f95f19760b11a47aa91c04b666314"
        }
      ],
      "licenses": [
        {
          "license": {
            "name": "Python Software Foundation License"
          }
        }
      ],
      "purl": "pkg:pypi/argparse@1.4.0",
      "modified": false
    }
  ],
  "metadata": {
    "tools": [
      {
        "vendor": "Fortress Information Security",
        "name": "Github Extractor",
        "version": "1.15.1"
      }
    ],
    "authors": [
      {
        "name": "Fortress Information Security",
        "email": "sales@fortressinfosec.com",
        "phone": "1-407-573-6800"
      }
    ],
    "timestamp": "2022-06-01T21:00:00Z",
    "component": {
      "type": "application",
      "name": "serving",
      "version": "2.9.0",
      "group": "tensorflow",
      "externalReferences": [
        {
          "url": "https://github.com/tensorflow/serving.git",
          "type": "distribution"
        },
        {
          "type": "website",
          "url": "https://www.tensorflow.org/serving",
          "comment": "As set via `homepage` in Github API"
        }
      ]
    }
  }
}
