{
  "bomFormat": "CycloneDX",
  "specVersion": "1.3",
  "version": 1,
  "metadata": {
    "tools": [
      {
        "vendor": "CycloneDX",
        "name": "cyclonedx-gomod",
        "version": "v0.0.0-unset",
        "hashes": [
          {
            "alg": "MD5",
            "content": "a35776fc9417e8071d3f1dcfa2f1dd19"
          },
          {
            "alg": "SHA-1",
            "content": "a19a8eed713eff5a2092e5283c201a146f19421d"
          },
          {
            "alg": "SHA-256",
            "content": "17b3b980b9a5d0f48ad52043dee5b31aff3ae6599a36bc94224dc7b6a46759ef"
          },
          {
            "alg": "SHA-512",
            "content": "9d4f06aab20cede94a1aedf11a300ae9de98871235c68c72e421cd6d45495910861b39e743ee0eceb11bbdcd2c9acc3312c19064cfe90177243fb43127fcfa46"
          }
        ]
      },
      {
        "vendor": "CycloneDX",
        "name": "Node.js module",
        "version": "3.0.3"
      },
      {
        "vendor": "cyclonedx",
        "name": "cyclonedx-php-composer",
        "version": "3.10.0"
      },
      {
        "vendor": "AppThreat",
        "name": "cdxgen",
        "version": "3.0.10"
      },
      {
        "vendor": "Fortress Information Security",
        "name": "Github Extractor",
        "version": "1.15.1"
      }
    ],
    "authors": [
      {
        "name": "Fortress Information Security",
        "email": "sales@fortressinfosec.com",
        "phone": "1-407-573-6800"
      }
    ],
    "timestamp": "2022-06-01T21:00:00Z",
    "component": {
      "type": "application",
      "name": "BookStack",
      "version": "v2.10",
      "group": "TruthHun",
      "externalReferences": [
        {
          "url": "https://github.com/TruthHun/BookStack.git",
          "type": "distribution"
        },
        {
          "type": "website",
          "url": "http://www.bookstack.cn",
          "comment": "As set via `homepage` in Github API"
        }
      ]
    }
  },
  "components": [
    {
      "type": "library",
      "bom-ref": "pkg:golang/github.com/PuerkitoBio/goquery@v1.6.0",
      "name": "github.com/PuerkitoBio/goquery",
      "version": "v1.6.0",
      "scope": "required",
      "hashes": [
        {
          "alg": "SHA-256",
          "content": "8fbb5a01b7a5add72c3a519e31e9d9c5cd805970f97e2793d7fce702b767c7de"
        }
      ],
      "purl": "pkg:golang/github.com/PuerkitoBio/goquery@v1.6.0",
      "externalReferences": [
        {
          "url": "https://github.com/PuerkitoBio/goquery",
          "type": "vcs"
        }
      ]
    },
    {
      "type": "library",
      "bom-ref": "pkg:golang/github.com/TruthHun/converter@v0.0.0-20180618131031-80268d67d7a8",
      "name": "github.com/TruthHun/converter",
      "version": "v0.0.0-20180618131031-80268d67d7a8",
      "scope": "required",
      "hashes": [
        {
          "alg": "SHA-256",
          "content": "13ed34e8af9e1f226476f47520fbfc8c5180f73bee2b8ecec6534aa03c4cbd63"
        }
      ],
      "purl": "pkg:golang/github.com/TruthHun/converter@v0.0.0-20180618131031-80268d67d7a8",
      "externalReferences": [
        {
          "url": "https://github.com/TruthHun/converter",
          "type": "vcs"
        }
      ]
    },
    {
      "type": "library",
      "bom-ref": "pkg:golang/github.com/TruthHun/gotil@v0.0.0-20210817134928-d2d642c3c7b7",
      "name": "github.com/TruthHun/gotil",
      "version": "v0.0.0-20210817134928-d2d642c3c7b7",
      "scope": "required",
      "hashes": [
        {
          "alg": "SHA-256",
          "content": "4cbd0b67f7268df5f4b04b32815aee56824d191f64addf148933e54a0e274fea"
        }
      ],
      "purl": "pkg:golang/github.com/TruthHun/gotil@v0.0.0-20210817134928-d2d642c3c7b7",
      "externalReferences": [
        {
          "url": "https://github.com/TruthHun/gotil",
          "type": "vcs"
        }
      ]
    },
    {
      "type": "library",
      "bom-ref": "pkg:golang/github.com/TruthHun/html2article@v0.0.0-20180202140721-67d6ff09647b",
      "name": "github.com/TruthHun/html2article",
      "version": "v0.0.0-20180202140721-67d6ff09647b",
      "scope": "required",
      "hashes": [
        {
          "alg": "SHA-256",
          "content": "2570fbbd62a224646a911ba2b7003c0712551abd72a7685050b40823b45a017a"
        }
      ],
      "purl": "pkg:golang/github.com/TruthHun/html2article@v0.0.0-20180202140721-67d6ff09647b",
      "externalReferences": [
        {
          "url": "https://github.com/TruthHun/html2article",
          "type": "vcs"
        }
      ]
    },
    {
      "type": "library",
      "bom-ref": "pkg:golang/github.com/TruthHun/html2json@v0.0.0-20201228115506-dee0570dffa8",
      "name": "github.com/TruthHun/html2json",
      "version": "v0.0.0-20201228115506-dee0570dffa8",
      "scope": "required",
      "hashes": [
        {
          "alg": "SHA-256",
          "content": "00b24c0366d572c184d5b630627825002bd07e9237334686a11bebabdaeffb23"
        }
      ],
      "purl": "pkg:golang/github.com/TruthHun/html2json@v0.0.0-20201228115506-dee0570dffa8",
      "externalReferences": [
        {
          "url": "https://github.com/TruthHun/html2json",
          "type": "vcs"
        }
      ]
    },
    {
      "type": "library",
      "bom-ref": "pkg:golang/github.com/alexcesaro/mail@v0.0.0-20141015155039-29068ce49a17",
      "name": "github.com/alexcesaro/mail",
      "version": "v0.0.0-20141015155039-29068ce49a17",
      "scope": "required",
      "hashes": [
        {
          "alg": "SHA-256",
          "content": "4b424d609e86bf444699bcfcc36dc111363884bcfcd51b694a2caac379786749"
        }
      ],
      "purl": "pkg:golang/github.com/alexcesaro/mail@v0.0.0-20141015155039-29068ce49a17",
      "externalReferences": [
        {
          "url": "https://github.com/alexcesaro/mail",
          "type": "vcs"
        }
      ]
    },
    {
      "type": "library",
      "bom-ref": "pkg:golang/github.com/aliyun/aliyun-oss-go-sdk@v2.1.0",
      "name": "github.com/aliyun/aliyun-oss-go-sdk",
      "version": "v2.1.0",
      "scope": "required",
      "hashes": [
        {
          "alg": "SHA-256",
          "content": "01a58e0397b81ab5c4ad4bc967671a4ce5ab957fc5a840324513aacb46d2030e"
        }
      ],
      "purl": "pkg:golang/github.com/aliyun/aliyun-oss-go-sdk@v2.1.0",
      "externalReferences": [
        {
          "url": "https://github.com/aliyun/aliyun-oss-go-sdk",
          "type": "vcs"
        }
      ]
    },
    {
      "type": "library",
      "bom-ref": "pkg:golang/github.com/andybalholm/cascadia@v1.2.0",
      "name": "github.com/andybalholm/cascadia",
      "version": "v1.2.0",
      "scope": "required",
      "hashes": [
        {
          "alg": "SHA-256",
          "content": "bee44290ce4ece1fc17e6b1a4e6dba91b8e6d2620e337c92e4493f179875f1a1"
        }
      ],
      "purl": "pkg:golang/github.com/andybalholm/cascadia@v1.2.0",
      "externalReferences": [
        {
          "url": "https://github.com/andybalholm/cascadia",
          "type": "vcs"
        }
      ]
    },
    {
      "type": "library",
      "bom-ref": "pkg:golang/github.com/araddon/dateparse@v0.0.0-20190622164848-0fb0a474d195",
      "name": "github.com/araddon/dateparse",
      "version": "v0.0.0-20190622164848-0fb0a474d195",
      "scope": "required",
      "hashes": [
        {
          "alg": "SHA-256",
          "content": "73898b7de8280f0e8e8522574ddda350442065442e256b6872e75bf7b427f443"
        }
      ],
      "purl": "pkg:golang/github.com/araddon/dateparse@v0.0.0-20190622164848-0fb0a474d195",
      "externalReferences": [
        {
          "url": "https://github.com/araddon/dateparse",
          "type": "vcs"
        }
      ]
    },
    {
      "type": "library",
      "bom-ref": "pkg:golang/github.com/astaxie/beego@v1.12.0",
      "name": "github.com/astaxie/beego",
      "version": "v1.12.0",
      "scope": "required",
      "hashes": [
        {
          "alg": "SHA-256",
          "content": "311855a1e7b27b937e165ba5e4fa157c3f42b257dda07fb1a82ff1bd2439bb66"
        }
      ],
      "purl": "pkg:golang/github.com/astaxie/beego@v1.12.0",
      "externalReferences": [
        {
          "url": "https://github.com/astaxie/beego",
          "type": "vcs"
        }
      ]
    },
    {
      "type": "library",
      "bom-ref": "pkg:golang/github.com/axgle/mahonia@v0.0.0-20180208002826-3358181d7394",
      "name": "github.com/axgle/mahonia",
      "version": "v0.0.0-20180208002826-3358181d7394",
      "scope": "required",
      "hashes": [
        {
          "alg": "SHA-256",
          "content": "39803ee56eb8bf73a00a52fe22b383eb7b788bf456ed1aab01597d2d367d52a4"
        }
      ],
      "purl": "pkg:golang/github.com/axgle/mahonia@v0.0.0-20180208002826-3358181d7394",
      "externalReferences": [
        {
          "url": "https://github.com/axgle/mahonia",
          "type": "vcs"
        }
      ]
    },
    {
      "type": "library",
      "bom-ref": "pkg:golang/github.com/boombuler/barcode@v1.0.0",
      "name": "github.com/boombuler/barcode",
      "version": "v1.0.0",
      "scope": "required",
      "hashes": [
        {
          "alg": "SHA-256",
          "content": "b354ef4675f02f6c4945a71cadd70140c671aba5fb0efb0ca20b6625e1c376b7"
        }
      ],
      "purl": "pkg:golang/github.com/boombuler/barcode@v1.0.0",
      "externalReferences": [
        {
          "url": "https://github.com/boombuler/barcode",
          "type": "vcs"
        }
      ]
    },
    {
      "type": "library",
      "bom-ref": "pkg:golang/github.com/dgrijalva/jwt-go@v3.2.0",
      "name": "github.com/dgrijalva/jwt-go",
      "version": "v3.2.0",
      "scope": "required",
      "hashes": [
        {
          "alg": "SHA-256",
          "content": "d2b9d7df363078b7430fbcdb250dd4d9ee4e0d47558a64736ba797e38e8829dc"
        }
      ],
      "purl": "pkg:golang/github.com/dgrijalva/jwt-go@v3.2.0",
      "externalReferences": [
        {
          "url": "https://github.com/dgrijalva/jwt-go",
          "type": "vcs"
        }
      ]
    },
    {
      "type": "library",
      "bom-ref": "pkg:golang/github.com/disintegration/imaging@v1.6.1",
      "name": "github.com/disintegration/imaging",
      "version": "v1.6.1",
      "scope": "required",
      "hashes": [
        {
          "alg": "SHA-256",
          "content": "26705b2ba1022196f536c5888a43fda5df202254c8471edfb8336953d7ecc4e1"
        }
      ],
      "purl": "pkg:golang/github.com/disintegration/imaging@v1.6.1",
      "externalReferences": [
        {
          "url": "https://github.com/disintegration/imaging",
          "type": "vcs"
        }
      ]
    },
    {
      "type": "library",
      "bom-ref": "pkg:golang/github.com/go-sql-driver/mysql@v1.5.0",
      "name": "github.com/go-sql-driver/mysql",
      "version": "v1.5.0",
      "scope": "required",
      "hashes": [
        {
          "alg": "SHA-256",
          "content": "a33c9960d416df1dc7b6a4f58e2adad3b0cdd8f02bc76bfbfe637aea019c1ceb"
        }
      ],
      "purl": "pkg:golang/github.com/go-sql-driver/mysql@v1.5.0",
      "externalReferences": [
        {
          "url": "https://github.com/go-sql-driver/mysql",
          "type": "vcs"
        }
      ]
    },
    {
      "type": "library",
      "bom-ref": "pkg:golang/github.com/golang/freetype@v0.0.0-20170609003504-e2365dfdc4a0",
      "name": "github.com/golang/freetype",
      "version": "v0.0.0-20170609003504-e2365dfdc4a0",
      "scope": "required",
      "hashes": [
        {
          "alg": "SHA-256",
          "content": "0c00896afbc01e169bac5d3cbd7d0239f70e04946167c9546d1f99588b346398"
        }
      ],
      "purl": "pkg:golang/github.com/golang/freetype@v0.0.0-20170609003504-e2365dfdc4a0",
      "externalReferences": [
        {
          "url": "https://github.com/golang/freetype",
          "type": "vcs"
        }
      ]
    },
    {
      "type": "library",
      "bom-ref": "pkg:golang/github.com/kardianos/service@v1.0.0",
      "name": "github.com/kardianos/service",
      "version": "v1.0.0",
      "scope": "required",
      "hashes": [
        {
          "alg": "SHA-256",
          "content": "1e0412de615f3a5ca7b565fc3a47bdf097092eab750c17074789314a1a5879fd"
        }
      ],
      "purl": "pkg:golang/github.com/kardianos/service@v1.0.0",
      "externalReferences": [
        {
          "url": "https://github.com/kardianos/service",
          "type": "vcs"
        }
      ]
    },
    {
      "type": "library",
      "bom-ref": "pkg:golang/github.com/lifei6671/gocaptcha@v0.0.0-20190301083731-c467a25bc100",
      "name": "github.com/lifei6671/gocaptcha",
      "version": "v0.0.0-20190301083731-c467a25bc100",
      "scope": "required",
      "hashes": [
        {
          "alg": "SHA-256",
          "content": "0e45c10cb287713b5c6bae4103db59a05756319f5826d366e58c82dfab4a5f65"
        }
      ],
      "purl": "pkg:golang/github.com/lifei6671/gocaptcha@v0.0.0-20190301083731-c467a25bc100",
      "externalReferences": [
        {
          "url": "https://github.com/lifei6671/gocaptcha",
          "type": "vcs"
        }
      ]
    },
    {
      "type": "library",
      "bom-ref": "pkg:golang/github.com/mssola/user_agent@v0.5.0",
      "name": "github.com/mssola/user_agent",
      "version": "v0.5.0",
      "scope": "required",
      "hashes": [
        {
          "alg": "SHA-256",
          "content": "81117bff1f1c2adf2acc0a2c606b013728abb5af85f1fbd80e526b817c2cf404"
        }
      ],
      "purl": "pkg:golang/github.com/mssola/user_agent@v0.5.0",
      "externalReferences": [
        {
          "url": "https://github.com/mssola/user_agent",
          "type": "vcs"
        }
      ]
    },
    {
      "type": "library",
      "bom-ref": "pkg:golang/github.com/nfnt/resize@v0.0.0-20180221191011-83c6a9932646",
      "name": "github.com/nfnt/resize",
      "version": "v0.0.0-20180221191011-83c6a9932646",
      "scope": "required",
      "hashes": [
        {
          "alg": "SHA-256",
          "content": "cd8c81903fe4f6c783d80edfb22e8ea362df15901e8638d0304440bd92c40e74"
        }
      ],
      "purl": "pkg:golang/github.com/nfnt/resize@v0.0.0-20180221191011-83c6a9932646",
      "externalReferences": [
        {
          "url": "https://github.com/nfnt/resize",
          "type": "vcs"
        }
      ]
    },
    {
      "type": "library",
      "bom-ref": "pkg:golang/github.com/russross/blackfriday@v2.0.0",
      "name": "github.com/russross/blackfriday",
      "version": "v2.0.0",
      "scope": "required",
      "hashes": [
        {
          "alg": "SHA-256",
          "content": "2fb39cef687bac3a8691b528acdfe7709e0dff2db6d3f6117b31ef06828b3850"
        }
      ],
      "purl": "pkg:golang/github.com/russross/blackfriday@v2.0.0",
      "externalReferences": [
        {
          "url": "https://github.com/russross/blackfriday",
          "type": "vcs"
        }
      ]
    },
    {
      "type": "library",
      "bom-ref": "pkg:golang/github.com/saintfish/chardet@v0.0.0-20120816061221-3af4cd4741ca",
      "name": "github.com/saintfish/chardet",
      "version": "v0.0.0-20120816061221-3af4cd4741ca",
      "scope": "required",
      "hashes": [
        {
          "alg": "SHA-256",
          "content": "36e818a2dd0b2153f14ef37c9fe2af927e93adb332c508aebca744c05751f6f2"
        }
      ],
      "purl": "pkg:golang/github.com/saintfish/chardet@v0.0.0-20120816061221-3af4cd4741ca",
      "externalReferences": [
        {
          "url": "https://github.com/saintfish/chardet",
          "type": "vcs"
        }
      ]
    },
    {
      "type": "library",
      "bom-ref": "pkg:golang/github.com/shiena/ansicolor@v0.0.0-20200904210342-c7312218db18",
      "name": "github.com/shiena/ansicolor",
      "version": "v0.0.0-20200904210342-c7312218db18",
      "scope": "required",
      "hashes": [
        {
          "alg": "SHA-256",
          "content": "0c0614607e7cebdc95f78cef0844bd179d6862d379a069708f1249cfb6429e29"
        }
      ],
      "purl": "pkg:golang/github.com/shiena/ansicolor@v0.0.0-20200904210342-c7312218db18",
      "externalReferences": [
        {
          "url": "https://github.com/shiena/ansicolor",
          "type": "vcs"
        }
      ]
    },
    {
      "type": "library",
      "bom-ref": "pkg:golang/github.com/shurcooL/sanitized_anchor_name@v1.0.0",
      "name": "github.com/shurcooL/sanitized_anchor_name",
      "version": "v1.0.0",
      "scope": "required",
      "hashes": [
        {
          "alg": "SHA-256",
          "content": "3dd9a808eeb0bdbb3eef2ac9c8c391b78fc1998e486322704bf90e896c7c987a"
        }
      ],
      "purl": "pkg:golang/github.com/shurcooL/sanitized_anchor_name@v1.0.0",
      "externalReferences": [
        {
          "url": "https://github.com/shurcooL/sanitized_anchor_name",
          "type": "vcs"
        }
      ]
    },
    {
      "type": "library",
      "bom-ref": "pkg:golang/github.com/unknwon/com@v1.0.1",
      "name": "github.com/unknwon/com",
      "version": "v1.0.1",
      "scope": "required",
      "hashes": [
        {
          "alg": "SHA-256",
          "content": "dddd4b4f10fe2e77f7b284220f80a9ff405107e46c6bff914efcfc18c333217b"
        }
      ],
      "purl": "pkg:golang/github.com/unknwon/com@v1.0.1",
      "externalReferences": [
        {
          "url": "https://github.com/unknwon/com",
          "type": "vcs"
        }
      ]
    },
    {
      "type": "library",
      "bom-ref": "pkg:golang/golang.org/x/crypto@v0.0.0-20201221181555-eec23a3978ad",
      "name": "golang.org/x/crypto",
      "version": "v0.0.0-20201221181555-eec23a3978ad",
      "scope": "required",
      "hashes": [
        {
          "alg": "SHA-256",
          "content": "0cdd1ca7cd5f6779e315cacb0b2b541d149492a0637d3a384f1f512535acd046"
        }
      ],
      "purl": "pkg:golang/golang.org/x/crypto@v0.0.0-20201221181555-eec23a3978ad"
    },
    {
      "type": "library",
      "bom-ref": "pkg:golang/golang.org/x/image@v0.0.0-20190802002840-cff245a6509b",
      "name": "golang.org/x/image",
      "version": "v0.0.0-20190802002840-cff245a6509b",
      "scope": "required",
      "hashes": [
        {
          "alg": "SHA-256",
          "content": "faa1291003e10d9d68d31ded1f365340302b9ce8b13b3183f475097dc83499be"
        }
      ],
      "purl": "pkg:golang/golang.org/x/image@v0.0.0-20190802002840-cff245a6509b"
    },
    {
      "type": "library",
      "bom-ref": "pkg:golang/golang.org/x/net@v0.0.0-20201224014010-6772e930b67b",
      "name": "golang.org/x/net",
      "version": "v0.0.0-20201224014010-6772e930b67b",
      "scope": "required",
      "hashes": [
        {
          "alg": "SHA-256",
          "content": "885c1283bb79199981fd0e538e2100b1da0b0eb749442d51885d9686e576f50c"
        }
      ],
      "purl": "pkg:golang/golang.org/x/net@v0.0.0-20201224014010-6772e930b67b"
    },
    {
      "type": "library",
      "bom-ref": "pkg:golang/golang.org/x/sys@v0.0.0-20201223074533-0d417f636930",
      "name": "golang.org/x/sys",
      "version": "v0.0.0-20201223074533-0d417f636930",
      "scope": "required",
      "hashes": [
        {
          "alg": "SHA-256",
          "content": "bd1808b7e9eea7f07f070212d20da80b485aab48aa6d5dd903ebbafb44e5342a"
        }
      ],
      "purl": "pkg:golang/golang.org/x/sys@v0.0.0-20201223074533-0d417f636930"
    },
    {
      "type": "library",
      "bom-ref": "pkg:golang/golang.org/x/text@v0.3.7",
      "name": "golang.org/x/text",
      "version": "v0.3.7",
      "scope": "required",
      "hashes": [
        {
          "alg": "SHA-256",
          "content": "a25a70bcfd8a69c5b5656bec47bb90868c9362f280ba97d0ad118114cdf9d869"
        }
      ],
      "purl": "pkg:golang/golang.org/x/text@v0.3.7"
    },
    {
      "type": "library",
      "bom-ref": "pkg:golang/golang.org/x/time@v0.0.0-20200416051211-89c76fbcd5d1",
      "name": "golang.org/x/time",
      "version": "v0.0.0-20200416051211-89c76fbcd5d1",
      "scope": "required",
      "hashes": [
        {
          "alg": "SHA-256",
          "content": "36eb1fcf303ac8643eb9ae75724ec4de898d517fc9baa6c549a446a94f0270b2"
        }
      ],
      "purl": "pkg:golang/golang.org/x/time@v0.0.0-20200416051211-89c76fbcd5d1"
    },
    {
      "type": "library",
      "bom-ref": "pkg:golang/gopkg.in/asn1-ber.v1@v1.0.0-20181015200546-f715ec2f112d",
      "name": "gopkg.in/asn1-ber.v1",
      "version": "v1.0.0-20181015200546-f715ec2f112d",
      "scope": "required",
      "hashes": [
        {
          "alg": "SHA-256",
          "content": "4f1c9e948e5c5646d11339cc85fcf2707764a7970b03b0e913e18a8d2b256213"
        }
      ],
      "purl": "pkg:golang/gopkg.in/asn1-ber.v1@v1.0.0-20181015200546-f715ec2f112d",
      "externalReferences": [
        {
          "url": "https://github.com/go-asn1-ber/asn1-ber",
          "type": "vcs"
        }
      ]
    },
    {
      "type": "library",
      "bom-ref": "pkg:golang/gopkg.in/ldap.v2@v2.5.1",
      "name": "gopkg.in/ldap.v2",
      "version": "v2.5.1",
      "scope": "required",
      "hashes": [
        {
          "alg": "SHA-256",
          "content": "c22bb4a2474d7e3941ce0e945af7751e7f18f94c75effbbfe27964e0242bead5"
        }
      ],
      "purl": "pkg:golang/gopkg.in/ldap.v2@v2.5.1",
      "externalReferences": [
        {
          "url": "https://github.com/go-ldap/ldap",
          "type": "vcs"
        }
      ]
    },
    {
      "type": "library",
      "bom-ref": "pkg:golang/gopkg.in/yaml.v2@v2.4.0",
      "name": "gopkg.in/yaml.v2",
      "version": "v2.4.0",
      "scope": "required",
      "hashes": [
        {
          "alg": "SHA-256",
          "content": "0fcc60c04098ec262fc7e6369f8b01cfddc99fd251bf1762cb2a3c0937ee29a6"
        }
      ],
      "purl": "pkg:golang/gopkg.in/yaml.v2@v2.4.0",
      "externalReferences": [
        {
          "url": "https://github.com/go-yaml/yaml",
          "type": "vcs"
        }
      ]
    },
    {
      "type": "library",
      "bom-ref": "pkg:composer/cyclonedx/cyclonedx-library@1.5.0",
      "group": "cyclonedx",
      "name": "cyclonedx-library",
      "version": "1.5.0",
      "description": "Work with CycloneDX Software Bill-of-Materials (SBOM)",
      "licenses": [
        {
          "license": {
            "id": "Apache-2.0"
          }
        }
      ],
      "purl": "pkg:composer/cyclonedx/cyclonedx-library@1.5.0",
      "externalReferences": [
        {
          "url": "https://github.com/CycloneDX/cyclonedx-php-library.git",
          "type": "distribution",
          "comment": "As detected by composer's `getSourceUrls()` (type=git & reference=f41632e1d47001700ef93fa899e6dc49779aa784)"
        },
        {
          "url": "https://api.github.com/repos/CycloneDX/cyclonedx-php-library/zipball/f41632e1d47001700ef93fa899e6dc49779aa784",
          "type": "distribution",
          "comment": "As detected by composer's `getDistUrls()` (type=zip & reference=f41632e1d47001700ef93fa899e6dc49779aa784 & sha1=UNDEFINED)"
        },
        {
          "url": "https://github.com/CycloneDX/cyclonedx-php-library/",
          "type": "website",
          "comment": "As set via `homepage` in composer package definition."
        },
        {
          "url": "https://github.com/CycloneDX/cyclonedx-php-library/issues",
          "type": "issue-tracker",
          "comment": "As set via `support.issues` in composer package definition."
        },
        {
          "url": "https://github.com/CycloneDX/cyclonedx-php-library/tree/v1.5.0",
          "type": "distribution",
          "comment": "As set via `support.source` in composer package definition."
        }
      ]
    },
    {
      "type": "application",
      "bom-ref": "pkg:composer/cyclonedx/cyclonedx-php-composer@3.10.0",
      "group": "cyclonedx",
      "name": "cyclonedx-php-composer",
      "version": "3.10.0",
      "description": "Creates CycloneDX Software Bill-of-Materials (SBOM) from PHP Composer projects",
      "licenses": [
        {
          "license": {
            "id": "Apache-2.0"
          }
        }
      ],
      "purl": "pkg:composer/cyclonedx/cyclonedx-php-composer@3.10.0",
      "externalReferences": [
        {
          "url": "https://github.com/CycloneDX/cyclonedx-php-composer.git",
          "type": "distribution",
          "comment": "As detected by composer's `getSourceUrls()` (type=git & reference=341792df609deab6131ffa65f2f3b273f2e6128a)"
        },
        {
          "url": "https://api.github.com/repos/CycloneDX/cyclonedx-php-composer/zipball/341792df609deab6131ffa65f2f3b273f2e6128a",
          "type": "distribution",
          "comment": "As detected by composer's `getDistUrls()` (type=zip & reference=341792df609deab6131ffa65f2f3b273f2e6128a & sha1=UNDEFINED)"
        },
        {
          "url": "https://github.com/CycloneDX/cyclonedx-php-composer/",
          "type": "website",
          "comment": "As set via `homepage` in composer package definition."
        },
        {
          "url": "https://github.com/CycloneDX/cyclonedx-php-composer/issues",
          "type": "issue-tracker",
          "comment": "As set via `support.issues` in composer package definition."
        },
        {
          "url": "https://github.com/CycloneDX/cyclonedx-php-composer/tree/v3.10.0",
          "type": "distribution",
          "comment": "As set via `support.source` in composer package definition."
        }
      ]
    },
    {
      "type": "library",
      "bom-ref": "pkg:composer/package-url/packageurl-php@1.0.4",
      "group": "package-url",
      "name": "packageurl-php",
      "version": "1.0.4",
      "description": "A parser and builder based on the package url spec.",
      "licenses": [
        {
          "license": {
            "id": "MIT"
          }
        }
      ],
      "purl": "pkg:composer/package-url/packageurl-php@1.0.4",
      "externalReferences": [
        {
          "url": "https://github.com/package-url/packageurl-php.git",
          "type": "distribution",
          "comment": "As detected by composer's `getSourceUrls()` (type=git & reference=c45953babed516d27a0cf6c1a2d9f7e883ce214f)"
        },
        {
          "url": "https://api.github.com/repos/package-url/packageurl-php/zipball/c45953babed516d27a0cf6c1a2d9f7e883ce214f",
          "type": "distribution",
          "comment": "As detected by composer's `getDistUrls()` (type=zip & reference=c45953babed516d27a0cf6c1a2d9f7e883ce214f & sha1=UNDEFINED)"
        },
        {
          "url": "https://github.com/package-url/packageurl-php",
          "type": "website",
          "comment": "As set via `homepage` in composer package definition."
        },
        {
          "url": "https://github.com/package-url/packageurl-php/issues",
          "type": "issue-tracker",
          "comment": "As set via `support.issues` in composer package definition."
        },
        {
          "url": "https://github.com/package-url/packageurl-php/tree/1.0.4",
          "type": "distribution",
          "comment": "As set via `support.source` in composer package definition."
        }
      ]
    },
    {
      "type": "library",
      "bom-ref": "pkg:composer/phplang/scope-exit@1.0.0",
      "group": "phplang",
      "name": "scope-exit",
      "version": "1.0.0",
      "description": "Emulation of SCOPE_EXIT construct from C++",
      "licenses": [
        {
          "license": {
            "name": "BSD"
          }
        }
      ],
      "purl": "pkg:composer/phplang/scope-exit@1.0.0",
      "externalReferences": [
        {
          "url": "https://github.com/phplang/scope-exit.git",
          "type": "distribution",
          "comment": "As detected by composer's `getSourceUrls()` (type=git & reference=239b73abe89f9414aa85a7ca075ec9445629192b)"
        },
        {
          "url": "https://api.github.com/repos/phplang/scope-exit/zipball/239b73abe89f9414aa85a7ca075ec9445629192b",
          "type": "distribution",
          "comment": "As detected by composer's `getDistUrls()` (type=zip & reference=239b73abe89f9414aa85a7ca075ec9445629192b & sha1=UNDEFINED)"
        },
        {
          "url": "https://github.com/phplang/scope-exit",
          "type": "website",
          "comment": "As set via `homepage` in composer package definition."
        },
        {
          "url": "https://github.com/phplang/scope-exit/issues",
          "type": "issue-tracker",
          "comment": "As set via `support.issues` in composer package definition."
        },
        {
          "url": "https://github.com/phplang/scope-exit/tree/master",
          "type": "distribution",
          "comment": "As set via `support.source` in composer package definition."
        }
      ]
    },
    {
      "type": "library",
      "bom-ref": "pkg:composer/swaggest/json-diff@3.8.3",
      "group": "swaggest",
      "name": "json-diff",
      "version": "3.8.3",
      "description": "JSON diff/rearrange/patch/pointer library for PHP",
      "licenses": [
        {
          "license": {
            "id": "MIT"
          }
        }
      ],
      "purl": "pkg:composer/swaggest/json-diff@3.8.3",
      "externalReferences": [
        {
          "url": "https://github.com/swaggest/json-diff.git",
          "type": "distribution",
          "comment": "As detected by composer's `getSourceUrls()` (type=git & reference=bb3e3b4e9d842bb2e48f31ea568d0459968d1d42)"
        },
        {
          "url": "https://api.github.com/repos/swaggest/json-diff/zipball/bb3e3b4e9d842bb2e48f31ea568d0459968d1d42",
          "type": "distribution",
          "comment": "As detected by composer's `getDistUrls()` (type=zip & reference=bb3e3b4e9d842bb2e48f31ea568d0459968d1d42 & sha1=UNDEFINED)"
        },
        {
          "url": "https://github.com/swaggest/json-diff/issues",
          "type": "issue-tracker",
          "comment": "As set via `support.issues` in composer package definition."
        },
        {
          "url": "https://github.com/swaggest/json-diff/tree/v3.8.3",
          "type": "distribution",
          "comment": "As set via `support.source` in composer package definition."
        }
      ]
    },
    {
      "type": "library",
      "bom-ref": "pkg:composer/swaggest/json-schema@0.12.39",
      "group": "swaggest",
      "name": "json-schema",
      "version": "0.12.39",
      "description": "High definition PHP structures with JSON-schema based validation",
      "licenses": [
        {
          "license": {
            "id": "MIT"
          }
        }
      ],
      "purl": "pkg:composer/swaggest/json-schema@0.12.39",
      "externalReferences": [
        {
          "url": "https://github.com/swaggest/php-json-schema.git",
          "type": "distribution",
          "comment": "As detected by composer's `getSourceUrls()` (type=git & reference=193ba39cce1ffa2d55ddd5445315e945a63298a2)"
        },
        {
          "url": "https://api.github.com/repos/swaggest/php-json-schema/zipball/193ba39cce1ffa2d55ddd5445315e945a63298a2",
          "type": "distribution",
          "comment": "As detected by composer's `getDistUrls()` (type=zip & reference=193ba39cce1ffa2d55ddd5445315e945a63298a2 & sha1=UNDEFINED)"
        },
        {
          "url": "mailto:vearutop@gmail.com",
          "type": "other",
          "comment": "As set via `support.email` in composer package definition."
        },
        {
          "url": "https://github.com/swaggest/php-json-schema/issues",
          "type": "issue-tracker",
          "comment": "As set via `support.issues` in composer package definition."
        },
        {
          "url": "https://github.com/swaggest/php-json-schema/tree/v0.12.39",
          "type": "distribution",
          "comment": "As set via `support.source` in composer package definition."
        }
      ]
    },
    {
      "type": "library",
      "bom-ref": "pkg:composer/symfony/polyfill-mbstring@1.25.0",
      "group": "symfony",
      "name": "polyfill-mbstring",
      "version": "1.25.0",
      "description": "Symfony polyfill for the Mbstring extension",
      "licenses": [
        {
          "license": {
            "id": "MIT"
          }
        }
      ],
      "purl": "pkg:composer/symfony/polyfill-mbstring@1.25.0",
      "externalReferences": [
        {
          "url": "https://github.com/symfony/polyfill-mbstring.git",
          "type": "distribution",
          "comment": "As detected by composer's `getSourceUrls()` (type=git & reference=0abb51d2f102e00a4eefcf46ba7fec406d245825)"
        },
        {
          "url": "https://api.github.com/repos/symfony/polyfill-mbstring/zipball/0abb51d2f102e00a4eefcf46ba7fec406d245825",
          "type": "distribution",
          "comment": "As detected by composer's `getDistUrls()` (type=zip & reference=0abb51d2f102e00a4eefcf46ba7fec406d245825 & sha1=UNDEFINED)"
        },
        {
          "url": "https://symfony.com",
          "type": "website",
          "comment": "As set via `homepage` in composer package definition."
        },
        {
          "url": "https://github.com/symfony/polyfill-mbstring/tree/v1.25.0",
          "type": "distribution",
          "comment": "As set via `support.source` in composer package definition."
        },
        {
          "url": "https://symfony.com/sponsor",
          "type": "other",
          "comment": "As set via `funding` in composer package definition. (type=custom)"
        },
        {
          "url": "https://github.com/fabpot",
          "type": "other",
          "comment": "As set via `funding` in composer package definition. (type=github)"
        },
        {
          "url": "https://tidelift.com/funding/github/packagist/symfony/symfony",
          "type": "other",
          "comment": "As set via `funding` in composer package definition. (type=tidelift)"
        }
      ]
    },
    {
      "type": "library",
      "bom-ref": "pkg:golang/github.com/TruthHun/BookStack",
      "group": "github.com/TruthHun",
      "name": "BookStack",
      "version": "",
      "description": "",
      "scope": "required",
      "purl": "pkg:golang/github.com/TruthHun/BookStack"
    },
    {
      "type": "library",
      "bom-ref": "pkg:golang/github.com/aliyun/aliyun-oss-go-sdk@v2.1.0+incompatible",
      "group": "github.com/aliyun",
      "name": "aliyun-oss-go-sdk",
      "version": "v2.1.0+incompatible",
      "description": "",
      "scope": "optional",
      "hashes": [
        {
          "alg": "SHA-256",
          "content": "4ff030b387c47e880413dbfe1cf861c3e0a7b5f7ec04727c9d7402c0aaf4fe0f"
        }
      ],
      "purl": "pkg:golang/github.com/aliyun/aliyun-oss-go-sdk@v2.1.0+incompatible"
    },
    {
      "type": "library",
      "bom-ref": "pkg:golang/github.com/dgrijalva/jwt-go@v3.2.0+incompatible",
      "group": "github.com/dgrijalva",
      "name": "jwt-go",
      "version": "v3.2.0+incompatible",
      "description": "",
      "scope": "required",
      "hashes": [
        {
          "alg": "SHA-256",
          "content": "137aeefb5d64f3148187e84c3e038b666b6bac26e1aac99a3c78cb2989c909a4"
        }
      ],
      "purl": "pkg:golang/github.com/dgrijalva/jwt-go@v3.2.0+incompatible"
    },
    {
      "type": "library",
      "bom-ref": "pkg:golang/github.com/russross/blackfriday@v2.0.0+incompatible",
      "group": "github.com/russross",
      "name": "blackfriday",
      "version": "v2.0.0+incompatible",
      "description": "",
      "scope": "required",
      "hashes": [
        {
          "alg": "SHA-256",
          "content": "24efc3898c517fe1e31edd3a3b2a3047d3d3036eb791c47fadf5b1607055e778"
        }
      ],
      "purl": "pkg:golang/github.com/russross/blackfriday@v2.0.0+incompatible"
    }
  ],
  "dependencies": [
    {
      "ref": "pkg:golang/github.com/PuerkitoBio/goquery@v1.6.0",
      "dependsOn": [
        "pkg:golang/github.com/andybalholm/cascadia@v1.2.0",
        "pkg:golang/golang.org/x/net@v0.0.0-20201224014010-6772e930b67b"
      ]
    },
    {
      "ref": "pkg:golang/github.com/TruthHun/converter@v0.0.0-20180618131031-80268d67d7a8"
    },
    {
      "ref": "pkg:golang/github.com/TruthHun/gotil@v0.0.0-20210817134928-d2d642c3c7b7",
      "dependsOn": [
        "pkg:golang/github.com/astaxie/beego@v1.12.0",
        "pkg:golang/github.com/axgle/mahonia@v0.0.0-20180208002826-3358181d7394",
        "pkg:golang/github.com/russross/blackfriday@v2.0.0",
        "pkg:golang/github.com/saintfish/chardet@v0.0.0-20120816061221-3af4cd4741ca",
        "pkg:golang/github.com/shurcooL/sanitized_anchor_name@v1.0.0",
        "pkg:golang/golang.org/x/net@v0.0.0-20201224014010-6772e930b67b",
        "pkg:golang/golang.org/x/text@v0.3.7"
      ]
    },
    {
      "ref": "pkg:golang/github.com/TruthHun/html2article@v0.0.0-20180202140721-67d6ff09647b"
    },
    {
      "ref": "pkg:golang/github.com/TruthHun/html2json@v0.0.0-20201228115506-dee0570dffa8",
      "dependsOn": [
        "pkg:golang/github.com/PuerkitoBio/goquery@v1.6.0",
        "pkg:golang/github.com/astaxie/beego@v1.12.0",
        "pkg:golang/github.com/russross/blackfriday@v2.0.0",
        "pkg:golang/github.com/shurcooL/sanitized_anchor_name@v1.0.0",
        "pkg:golang/golang.org/x/net@v0.0.0-20201224014010-6772e930b67b"
      ]
    },
    {
      "ref": "pkg:golang/github.com/alexcesaro/mail@v0.0.0-20141015155039-29068ce49a17"
    },
    {
      "ref": "pkg:golang/github.com/aliyun/aliyun-oss-go-sdk@v2.1.0"
    },
    {
      "ref": "pkg:golang/github.com/andybalholm/cascadia@v1.2.0",
      "dependsOn": [
        "pkg:golang/golang.org/x/net@v0.0.0-20201224014010-6772e930b67b"
      ]
    },
    {
      "ref": "pkg:golang/github.com/araddon/dateparse@v0.0.0-20190622164848-0fb0a474d195"
    },
    {
      "ref": "pkg:golang/github.com/astaxie/beego@v1.12.0",
      "dependsOn": [
        "pkg:golang/github.com/go-sql-driver/mysql@v1.5.0",
        "pkg:golang/golang.org/x/crypto@v0.0.0-20201221181555-eec23a3978ad",
        "pkg:golang/golang.org/x/net@v0.0.0-20201224014010-6772e930b67b",
        "pkg:golang/gopkg.in/yaml.v2@v2.4.0"
      ]
    },
    {
      "ref": "pkg:golang/github.com/axgle/mahonia@v0.0.0-20180208002826-3358181d7394"
    },
    {
      "ref": "pkg:golang/github.com/boombuler/barcode@v1.0.0"
    },
    {
      "ref": "pkg:golang/github.com/dgrijalva/jwt-go@v3.2.0"
    },
    {
      "ref": "pkg:golang/github.com/disintegration/imaging@v1.6.1",
      "dependsOn": [
        "pkg:golang/golang.org/x/image@v0.0.0-20190802002840-cff245a6509b"
      ]
    },
    {
      "ref": "pkg:golang/github.com/go-sql-driver/mysql@v1.5.0"
    },
    {
      "ref": "pkg:golang/github.com/golang/freetype@v0.0.0-20170609003504-e2365dfdc4a0"
    },
    {
      "ref": "pkg:golang/github.com/kardianos/service@v1.0.0",
      "dependsOn": [
        "pkg:golang/golang.org/x/sys@v0.0.0-20201223074533-0d417f636930"
      ]
    },
    {
      "ref": "pkg:golang/github.com/lifei6671/gocaptcha@v0.0.0-20190301083731-c467a25bc100",
      "dependsOn": [
        "pkg:golang/github.com/golang/freetype@v0.0.0-20170609003504-e2365dfdc4a0",
        "pkg:golang/golang.org/x/image@v0.0.0-20190802002840-cff245a6509b"
      ]
    },
    {
      "ref": "pkg:golang/github.com/mssola/user_agent@v0.5.0"
    },
    {
      "ref": "pkg:golang/github.com/nfnt/resize@v0.0.0-20180221191011-83c6a9932646"
    },
    {
      "ref": "pkg:golang/github.com/russross/blackfriday@v2.0.0"
    },
    {
      "ref": "pkg:golang/github.com/saintfish/chardet@v0.0.0-20120816061221-3af4cd4741ca"
    },
    {
      "ref": "pkg:golang/github.com/shiena/ansicolor@v0.0.0-20200904210342-c7312218db18"
    },
    {
      "ref": "pkg:golang/github.com/shurcooL/sanitized_anchor_name@v1.0.0"
    },
    {
      "ref": "pkg:golang/github.com/unknwon/com@v1.0.1"
    },
    {
      "ref": "pkg:golang/golang.org/x/crypto@v0.0.0-20201221181555-eec23a3978ad",
      "dependsOn": [
        "pkg:golang/golang.org/x/net@v0.0.0-20201224014010-6772e930b67b",
        "pkg:golang/golang.org/x/sys@v0.0.0-20201223074533-0d417f636930"
      ]
    },
    {
      "ref": "pkg:golang/golang.org/x/image@v0.0.0-20190802002840-cff245a6509b",
      "dependsOn": [
        "pkg:golang/golang.org/x/text@v0.3.7"
      ]
    },
    {
      "ref": "pkg:golang/golang.org/x/net@v0.0.0-20201224014010-6772e930b67b",
      "dependsOn": [
        "pkg:golang/golang.org/x/sys@v0.0.0-20201223074533-0d417f636930",
        "pkg:golang/golang.org/x/text@v0.3.7"
      ]
    },
    {
      "ref": "pkg:golang/golang.org/x/sys@v0.0.0-20201223074533-0d417f636930"
    },
    {
      "ref": "pkg:golang/golang.org/x/text@v0.3.7"
    },
    {
      "ref": "pkg:golang/golang.org/x/time@v0.0.0-20200416051211-89c76fbcd5d1"
    },
    {
      "ref": "pkg:golang/gopkg.in/asn1-ber.v1@v1.0.0-20181015200546-f715ec2f112d"
    },
    {
      "ref": "pkg:golang/gopkg.in/ldap.v2@v2.5.1"
    },
    {
      "ref": "pkg:golang/gopkg.in/yaml.v2@v2.4.0"
    },
    {
      "ref": "pkg:golang/github.com/TruthHun/BookStack@v2.10",
      "dependsOn": [
        "pkg:golang/github.com/PuerkitoBio/goquery@v1.6.0",
        "pkg:golang/github.com/TruthHun/converter@v0.0.0-20180618131031-80268d67d7a8",
        "pkg:golang/github.com/TruthHun/gotil@v0.0.0-20210817134928-d2d642c3c7b7",
        "pkg:golang/github.com/TruthHun/html2article@v0.0.0-20180202140721-67d6ff09647b",
        "pkg:golang/github.com/TruthHun/html2json@v0.0.0-20201228115506-dee0570dffa8",
        "pkg:golang/github.com/alexcesaro/mail@v0.0.0-20141015155039-29068ce49a17",
        "pkg:golang/github.com/aliyun/aliyun-oss-go-sdk@v2.1.0",
        "pkg:golang/github.com/andybalholm/cascadia@v1.2.0",
        "pkg:golang/github.com/araddon/dateparse@v0.0.0-20190622164848-0fb0a474d195",
        "pkg:golang/github.com/astaxie/beego@v1.12.0",
        "pkg:golang/github.com/boombuler/barcode@v1.0.0",
        "pkg:golang/github.com/dgrijalva/jwt-go@v3.2.0",
        "pkg:golang/github.com/disintegration/imaging@v1.6.1",
        "pkg:golang/github.com/go-sql-driver/mysql@v1.5.0",
        "pkg:golang/github.com/kardianos/service@v1.0.0",
        "pkg:golang/github.com/lifei6671/gocaptcha@v0.0.0-20190301083731-c467a25bc100",
        "pkg:golang/github.com/mssola/user_agent@v0.5.0",
        "pkg:golang/github.com/nfnt/resize@v0.0.0-20180221191011-83c6a9932646",
        "pkg:golang/github.com/russross/blackfriday@v2.0.0",
        "pkg:golang/github.com/shiena/ansicolor@v0.0.0-20200904210342-c7312218db18",
        "pkg:golang/github.com/unknwon/com@v1.0.1",
        "pkg:golang/golang.org/x/crypto@v0.0.0-20201221181555-eec23a3978ad",
        "pkg:golang/golang.org/x/image@v0.0.0-20190802002840-cff245a6509b",
        "pkg:golang/golang.org/x/net@v0.0.0-20201224014010-6772e930b67b",
        "pkg:golang/golang.org/x/sys@v0.0.0-20201223074533-0d417f636930",
        "pkg:golang/golang.org/x/time@v0.0.0-20200416051211-89c76fbcd5d1",
        "pkg:golang/gopkg.in/asn1-ber.v1@v1.0.0-20181015200546-f715ec2f112d",
        "pkg:golang/gopkg.in/ldap.v2@v2.5.1",
        "pkg:golang/gopkg.in/yaml.v2@v2.4.0"
      ]
    },
    {
      "ref": "pkg:composer/cyclonedx/cyclonedx-library@1.5.0",
      "dependsOn": [
        "pkg:composer/package-url/packageurl-php@1.0.4",
        "pkg:composer/swaggest/json-schema@0.12.39"
      ]
    },
    {
      "ref": "pkg:composer/cyclonedx/cyclonedx-php-composer@3.10.0",
      "dependsOn": [
        "pkg:composer/cyclonedx/cyclonedx-library@1.5.0",
        "pkg:composer/package-url/packageurl-php@1.0.4"
      ]
    },
    {
      "ref": "pkg:composer/package-url/packageurl-php@1.0.4"
    },
    {
      "ref": "pkg:composer/phplang/scope-exit@1.0.0"
    },
    {
      "ref": "pkg:composer/swaggest/json-diff@3.8.3"
    },
    {
      "ref": "pkg:composer/swaggest/json-schema@0.12.39",
      "dependsOn": [
        "pkg:composer/phplang/scope-exit@1.0.0",
        "pkg:composer/swaggest/json-diff@3.8.3",
        "pkg:composer/symfony/polyfill-mbstring@1.25.0"
      ]
    },
    {
      "ref": "pkg:composer/symfony/polyfill-mbstring@1.25.0"
    },
    {
      "ref": "pkg:composer/__root__@dev-master",
      "dependsOn": [
        "pkg:composer/cyclonedx/cyclonedx-php-composer@3.10.0"
      ]
    }
  ]
}
