{
  "bomFormat": "CycloneDX",
  "specVersion": "1.3",
  "version": 1,
  "metadata": {
    "tools": [
      {
        "vendor": "CycloneDX",
        "name": "Node.js module",
        "version": "3.0.3"
      },
      {
        "vendor": "Fortress Information Security",
        "name": "Github Extractor",
        "version": "1.15.1"
      }
    ],
    "authors": [
      {
        "name": "Fortress Information Security",
        "email": "sales@fortressinfosec.com",
        "phone": "1-407-573-6800"
      }
    ],
    "timestamp": "2022-06-01T21:00:00Z",
    "component": {
      "type": "application",
      "name": "aws-cf-templates",
      "version": "v13.23.1",
      "group": "widdix",
      "externalReferences": [
        {
          "url": "https://github.com/widdix/aws-cf-templates.git",
          "type": "distribution"
        },
        {
          "type": "website",
          "url": "https://templates.cloudonaut.io/",
          "comment": "As set via `homepage` in Github API"
        }
      ]
    }
  },
  "components": [
    {
      "type": "library",
      "publisher": "Python Packaging Authority",
      "name": "setuptools",
      "version": "62.2.0",
      "description": "Easily download, build, install, upgrade, and uninstall Python packages",
      "hashes": [
        {
          "alg": "MD5",
          "content": "64e94e4b5e1133342d3a86e576cf6671"
        },
        {
          "alg": "SHA-256",
          "content": "5534570b9980fc650d45c62877ff603c7aaaf24893371708736cc016bd221c3c"
        }
      ],
      "purl": "pkg:pypi/setuptools@62.2.0",
      "modified": false
    }
  ]
}
