{
  "bomFormat": "CycloneDX",
  "specVersion": "1.3",
  "version": 1,
  "metadata": {
    "tools": [
      {
        "vendor": "CycloneDX",
        "name": "Node.js module",
        "version": "3.0.3"
      },
      {
        "vendor": "AppThreat",
        "name": "cdxgen",
        "version": "3.0.10"
      },
      {
        "vendor": "Fortress Information Security",
        "name": "Github Extractor",
        "version": "1.15.1"
      }
    ],
    "authors": [
      {
        "name": "Fortress Information Security",
        "email": "sales@fortressinfosec.com",
        "phone": "1-407-573-6800"
      }
    ],
    "timestamp": "2022-06-01T21:00:00Z",
    "component": {
      "type": "application",
      "name": "espurna",
      "version": "1.14.1",
      "group": "xoseperez",
      "externalReferences": [
        {
          "url": "https://github.com/xoseperez/espurna.git",
          "type": "distribution"
        },
        {
          "type": "website",
          "url": "http://tinkerman.cat",
          "comment": "As set via `homepage` in Github API"
        }
      ]
    }
  },
  "components": [
    {
      "type": "library",
      "publisher": "Thomas Waldmann",
      "name": "argparse",
      "version": "1.4.0",
      "description": "Python command-line parsing library",
      "hashes": [
        {
          "alg": "MD5",
          "content": "c37216a954c8669054e2b2c54853dd49"
        },
        {
          "alg": "SHA-256",
          "content": "c31647edb69fd3d465a847ea3157d37bed1f95f19760b11a47aa91c04b666314"
        }
      ],
      "licenses": [
        {
          "license": {
            "name": "Python Software Foundation License"
          }
        }
      ],
      "purl": "pkg:pypi/argparse@1.4.0",
      "modified": false
    },
    {
      "type": "library",
      "publisher": "Vinay Sajip",
      "name": "logging",
      "version": "0.4.9.6",
      "description": "A logging module for Python",
      "hashes": [
        {
          "alg": "MD5",
          "content": "dc0a7ebc8b8970263911e11e7b7e1ca8"
        },
        {
          "alg": "SHA-256",
          "content": "26f6b50773f085042d301085bd1bf5d9f3735704db9f37c1ce6d8b85c38f2417"
        }
      ],
      "licenses": [
        {
          "license": {
            "name": "Copyright (C) 2001-2005 by Vinay Sajip. All Rights Reserved. See LICENSE for license."
          }
        }
      ],
      "purl": "pkg:pypi/logging@0.4.9.6",
      "modified": false
    },
    {
      "type": "library",
      "publisher": "Dima Dorfman",
      "name": "functools",
      "version": "0.5",
      "description": "Fast tools for functional programming",
      "hashes": [
        {
          "alg": "MD5",
          "content": "91111c28ee685a2f89f1a41e6f0ce8ea"
        },
        {
          "alg": "SHA-256",
          "content": "596ed8999dee419c0749a41bfdd82e4697e80ea27ee01c716003ef55be9a54c5"
        }
      ],
      "licenses": [
        {
          "license": {
            "name": "BSD"
          }
        }
      ],
      "purl": "pkg:pypi/functools@0.5",
      "modified": false
    },
    {
      "type": "library",
      "publisher": "Paul Scott-Murphy, William McBrine, Jakub Stasiak",
      "name": "zeroconf",
      "version": "0.38.6",
      "description": "Pure Python Multicast DNS Service Discovery Library (Bonjour/Avahi compatible)",
      "hashes": [
        {
          "alg": "MD5",
          "content": "0f9d48ec3baf49c1ddd7f67df13558f8"
        },
        {
          "alg": "SHA-256",
          "content": "849a8a84d1150468a5524ef167a23bb4587cb0499b0943edb677939510eb173c"
        }
      ],
      "licenses": [
        {
          "license": {
            "name": "LGPL"
          }
        }
      ],
      "purl": "pkg:pypi/zeroconf@0.38.6",
      "modified": false
    },
    {
      "type": "library",
      "publisher": "Zope Foundation and Contributors",
      "name": "datetime",
      "version": "4.4",
      "description": "This package provides a DateTime data type, as known from Zope. Unless you need to communicate with Zope APIs, you're probably better off using Python's built-in datetime module.",
      "hashes": [
        {
          "alg": "MD5",
          "content": "ad1e82d858ed7c8cd2ea437b4cb695ed"
        },
        {
          "alg": "SHA-256",
          "content": "4fcca115ddb466a1104df08d5c2a2f5805d14ca317800e1bfcea8f3d69f66e57"
        }
      ],
      "licenses": [
        {
          "license": {
            "name": "ZPL 2.1"
          }
        }
      ],
      "purl": "pkg:pypi/datetime@4.4",
      "modified": false
    },
    {
      "type": "library",
      "publisher": "Antoine Pitrou",
      "name": "pathlib",
      "version": "1.0.1",
      "description": "Object-oriented filesystem paths",
      "hashes": [
        {
          "alg": "MD5",
          "content": "f26b13acf298a15cdb46a3dffc8eb0de"
        },
        {
          "alg": "SHA-256",
          "content": "f35f95ab8b0f59e6d354090350b44a80a80635d22efdedfa84c7ad1cf0a74147"
        }
      ],
      "licenses": [
        {
          "license": {
            "name": "MIT License"
          }
        }
      ],
      "purl": "pkg:pypi/pathlib@1.0.1",
      "modified": false
    },
    {
      "type": "library",
      "publisher": "William Deegan",
      "name": "SCons",
      "version": "4.3.0",
      "description": "Open Source next-generation build tool.",
      "hashes": [
        {
          "alg": "MD5",
          "content": "100e6f7096dd821416f3f523bf37c790"
        },
        {
          "alg": "SHA-256",
          "content": "8c13911a2aa40552553488f7d625af4c0768fc8cdedab4a858d8ce42c8c3664d"
        }
      ],
      "licenses": [
        {
          "license": {
            "name": "MIT"
          }
        }
      ],
      "purl": "pkg:pypi/scons@4.3.0",
      "modified": false
    },
    {
      "type": "library",
      "publisher": "PlatformIO Labs",
      "name": "platformio",
      "version": "6.0.1",
      "description": "A professional collaborative platform for embedded development. Cross-platform IDE and Unified Debugger. Static Code Analyzer and Remote Unit Testing. Multi-platform and Multi-architecture Build System. Firmware File Explorer and Memory Inspection. IoT, Arduino, CMSIS, ESP-IDF, FreeRTOS, libOpenCM3, mbedOS, Pulp OS, SPL, STM32Cube, Zephyr RTOS, ARM, AVR, Espressif (ESP8266/ESP32), FPGA, MCS-51 (8051), MSP430, Nordic (nRF51/nRF52), NXP i.MX RT, PIC32, RISC-V, STMicroelectronics (STM8/STM32), Teensy",
      "hashes": [
        {
          "alg": "MD5",
          "content": "20af45e8ff472d94c75cd71559dc9509"
        },
        {
          "alg": "SHA-256",
          "content": "17b31f189a91d80767031760a923b47cee96f9cf7f2ba361cf386d1b9340b378"
        }
      ],
      "licenses": [
        {
          "license": {
            "name": "Apache Software License"
          }
        }
      ],
      "purl": "pkg:pypi/platformio@6.0.1",
      "modified": false
    },
    {
      "type": "library",
      "publisher": "Łukasz Langa",
      "name": "configparser",
      "version": "5.2.0",
      "description": "Updated configparser from Python 3.8 for Python 2.6+.",
      "hashes": [
        {
          "alg": "MD5",
          "content": "69bab6f43cd4375830a54a53a50129fa"
        },
        {
          "alg": "SHA-256",
          "content": "e8b39238fb6f0153a069aa253d349467c3c4737934f253ef6abac5fe0eca1e5d"
        }
      ],
      "purl": "pkg:pypi/configparser@5.2.0",
      "modified": false
    },
    {
      "type": "library",
      "bom-ref": "pkg:pypi/ifaddr@0.1.6",
      "group": "",
      "name": "ifaddr",
      "version": "0.1.6",
      "description": "Cross-platform network interface and IP address enumeration library",
      "hashes": [
        {
          "alg": "SHA-256",
          "content": "c19c64882a7ad51a394451dabcbbed72e98b5625ec1e79789924d5ea3e3ecb93"
        }
      ],
      "licenses": [
        {
          "license": {
            "id": "MIT",
            "url": "https://opensource.org/licenses/MIT"
          }
        }
      ],
      "purl": "pkg:pypi/ifaddr@0.1.6",
      "externalReferences": [
        {
          "url": "https://github.com/pydron/ifaddr",
          "type": "vcs"
        }
      ]
    },
    {
      "type": "library",
      "bom-ref": "pkg:pypi/zeroconf@0.26.0",
      "group": "",
      "name": "zeroconf",
      "version": "0.26.0",
      "description": "Pure Python Multicast DNS Service Discovery Library (Bonjour/Avahi compatible)",
      "hashes": [
        {
          "alg": "SHA-256",
          "content": "e1e84eb98ce44335190bbb16a237052d07811b1516de69c7983d77162097fdbf"
        }
      ],
      "licenses": [
        {
          "license": {
            "name": "LGPL"
          }
        }
      ],
      "purl": "pkg:pypi/zeroconf@0.26.0",
      "externalReferences": [
        {
          "url": "https://github.com/jstasiak/python-zeroconf",
          "type": "vcs"
        }
      ]
    }
  ]
}
