{
  "bomFormat": "CycloneDX",
  "specVersion": "1.3",
  "version": 1,
  "metadata": {
    "tools": [
      {
        "vendor": "cyclonedx",
        "name": "cyclonedx-php-composer",
        "version": "3.10.0"
      },
      {
        "vendor": "AppThreat",
        "name": "cdxgen",
        "version": "3.0.10"
      },
      {
        "vendor": "Fortress Information Security",
        "name": "Github Extractor",
        "version": "1.15.1"
      }
    ],
    "authors": [
      {
        "name": "Fortress Information Security",
        "email": "sales@fortressinfosec.com",
        "phone": "1-407-573-6800"
      }
    ],
    "timestamp": "2022-06-01T21:00:00Z",
    "component": {
      "type": "application",
      "name": "ZendSkeletonApplication",
      "version": "release-3.1.3",
      "group": "zendframework",
      "externalReferences": [
        {
          "url": "https://github.com/zendframework/ZendSkeletonApplication.git",
          "type": "distribution"
        },
        {
          "type": "website",
          "url": "null",
          "comment": "As set via `homepage` in Github API"
        }
      ]
    }
  },
  "components": [
    {
      "type": "library",
      "bom-ref": "pkg:composer/container-interop/container-interop@1.2.0",
      "group": "container-interop",
      "name": "container-interop",
      "version": "1.2.0",
      "description": "Promoting the interoperability of container objects (DIC, SL, etc.)",
      "licenses": [
        {
          "license": {
            "id": "MIT"
          }
        }
      ],
      "purl": "pkg:composer/container-interop/container-interop@1.2.0",
      "externalReferences": [
        {
          "url": "https://github.com/container-interop/container-interop.git",
          "type": "distribution",
          "comment": "As detected by composer's `getSourceUrls()` (type=git & reference=79cbf1341c22ec75643d841642dd5d6acd83bdb8)"
        },
        {
          "url": "https://api.github.com/repos/container-interop/container-interop/zipball/79cbf1341c22ec75643d841642dd5d6acd83bdb8",
          "type": "distribution",
          "comment": "As detected by composer's `getDistUrls()` (type=zip & reference=79cbf1341c22ec75643d841642dd5d6acd83bdb8 & sha1=UNDEFINED)"
        },
        {
          "url": "https://github.com/container-interop/container-interop",
          "type": "website",
          "comment": "As set via `homepage` in composer package definition."
        },
        {
          "url": "https://github.com/container-interop/container-interop/issues",
          "type": "issue-tracker",
          "comment": "As set via `support.issues` in composer package definition."
        },
        {
          "url": "https://github.com/container-interop/container-interop/tree/master",
          "type": "distribution",
          "comment": "As set via `support.source` in composer package definition."
        }
      ]
    },
    {
      "type": "library",
      "bom-ref": "pkg:composer/psr/container@1.1.2",
      "group": "psr",
      "name": "container",
      "version": "1.1.2",
      "description": "Common Container Interface (PHP FIG PSR-11)",
      "licenses": [
        {
          "license": {
            "id": "MIT"
          }
        }
      ],
      "purl": "pkg:composer/psr/container@1.1.2",
      "externalReferences": [
        {
          "url": "https://github.com/php-fig/container.git",
          "type": "distribution",
          "comment": "As detected by composer's `getSourceUrls()` (type=git & reference=513e0666f7216c7459170d56df27dfcefe1689ea)"
        },
        {
          "url": "https://api.github.com/repos/php-fig/container/zipball/513e0666f7216c7459170d56df27dfcefe1689ea",
          "type": "distribution",
          "comment": "As detected by composer's `getDistUrls()` (type=zip & reference=513e0666f7216c7459170d56df27dfcefe1689ea & sha1=UNDEFINED)"
        },
        {
          "url": "https://github.com/php-fig/container",
          "type": "website",
          "comment": "As set via `homepage` in composer package definition."
        },
        {
          "url": "https://github.com/php-fig/container/issues",
          "type": "issue-tracker",
          "comment": "As set via `support.issues` in composer package definition."
        },
        {
          "url": "https://github.com/php-fig/container/tree/1.1.2",
          "type": "distribution",
          "comment": "As set via `support.source` in composer package definition."
        }
      ]
    },
    {
      "type": "application",
      "bom-ref": "pkg:composer/zendframework/zend-component-installer@2.1.2",
      "group": "zendframework",
      "name": "zend-component-installer",
      "version": "2.1.2",
      "description": "Composer plugin for injecting modules and configuration providers into application configuration",
      "licenses": [
        {
          "license": {
            "id": "BSD-3-Clause"
          }
        }
      ],
      "purl": "pkg:composer/zendframework/zend-component-installer@2.1.2",
      "externalReferences": [
        {
          "url": "https://github.com/zendframework/zend-component-installer.git",
          "type": "distribution",
          "comment": "As detected by composer's `getSourceUrls()` (type=git & reference=56871c43e40f92324b25d5a4d50ff51f9f556910)"
        },
        {
          "url": "https://api.github.com/repos/zendframework/zend-component-installer/zipball/56871c43e40f92324b25d5a4d50ff51f9f556910",
          "type": "distribution",
          "comment": "As detected by composer's `getDistUrls()` (type=zip & reference=56871c43e40f92324b25d5a4d50ff51f9f556910 & sha1=UNDEFINED)"
        },
        {
          "url": "https://zendframework-slack.herokuapp.com",
          "type": "chat",
          "comment": "As set via `support.chat` in composer package definition."
        },
        {
          "url": "https://docs.zendframework.com/zend-component-installer/",
          "type": "documentation",
          "comment": "As set via `support.docs` in composer package definition."
        },
        {
          "url": "https://discourse.zendframework.com/c/questions/components",
          "type": "support",
          "comment": "As set via `support.forum` in composer package definition."
        },
        {
          "url": "https://github.com/zendframework/zend-component-installer/issues",
          "type": "issue-tracker",
          "comment": "As set via `support.issues` in composer package definition."
        },
        {
          "url": "https://github.com/zendframework/zend-component-installer/releases.atom",
          "type": "support",
          "comment": "As set via `support.rss` in composer package definition."
        },
        {
          "url": "https://github.com/zendframework/zend-component-installer",
          "type": "distribution",
          "comment": "As set via `support.source` in composer package definition."
        }
      ]
    },
    {
      "type": "library",
      "bom-ref": "pkg:composer/zendframework/zend-config@3.3.0",
      "group": "zendframework",
      "name": "zend-config",
      "version": "3.3.0",
      "description": "provides a nested object property based user interface for accessing this configuration data within application code",
      "licenses": [
        {
          "license": {
            "id": "BSD-3-Clause"
          }
        }
      ],
      "purl": "pkg:composer/zendframework/zend-config@3.3.0",
      "externalReferences": [
        {
          "url": "https://github.com/zendframework/zend-config.git",
          "type": "distribution",
          "comment": "As detected by composer's `getSourceUrls()` (type=git & reference=012341361ae3cc97a99959e7cb7c9ebd04d49572)"
        },
        {
          "url": "https://api.github.com/repos/zendframework/zend-config/zipball/012341361ae3cc97a99959e7cb7c9ebd04d49572",
          "type": "distribution",
          "comment": "As detected by composer's `getDistUrls()` (type=zip & reference=012341361ae3cc97a99959e7cb7c9ebd04d49572 & sha1=UNDEFINED)"
        },
        {
          "url": "https://zendframework-slack.herokuapp.com",
          "type": "chat",
          "comment": "As set via `support.chat` in composer package definition."
        },
        {
          "url": "https://docs.zendframework.com/zend-config/",
          "type": "documentation",
          "comment": "As set via `support.docs` in composer package definition."
        },
        {
          "url": "https://discourse.zendframework.com/c/questions/components",
          "type": "support",
          "comment": "As set via `support.forum` in composer package definition."
        },
        {
          "url": "https://github.com/zendframework/zend-config/issues",
          "type": "issue-tracker",
          "comment": "As set via `support.issues` in composer package definition."
        },
        {
          "url": "https://github.com/zendframework/zend-config/releases.atom",
          "type": "support",
          "comment": "As set via `support.rss` in composer package definition."
        },
        {
          "url": "https://github.com/zendframework/zend-config",
          "type": "distribution",
          "comment": "As set via `support.source` in composer package definition."
        }
      ]
    },
    {
      "type": "library",
      "bom-ref": "pkg:composer/zendframework/zend-escaper@2.6.1",
      "group": "zendframework",
      "name": "zend-escaper",
      "version": "2.6.1",
      "description": "Securely and safely escape HTML, HTML attributes, JavaScript, CSS, and URLs",
      "licenses": [
        {
          "license": {
            "id": "BSD-3-Clause"
          }
        }
      ],
      "purl": "pkg:composer/zendframework/zend-escaper@2.6.1",
      "externalReferences": [
        {
          "url": "https://github.com/zendframework/zend-escaper.git",
          "type": "distribution",
          "comment": "As detected by composer's `getSourceUrls()` (type=git & reference=3801caa21b0ca6aca57fa1c42b08d35c395ebd5f)"
        },
        {
          "url": "https://api.github.com/repos/zendframework/zend-escaper/zipball/3801caa21b0ca6aca57fa1c42b08d35c395ebd5f",
          "type": "distribution",
          "comment": "As detected by composer's `getDistUrls()` (type=zip & reference=3801caa21b0ca6aca57fa1c42b08d35c395ebd5f & sha1=UNDEFINED)"
        },
        {
          "url": "https://zendframework-slack.herokuapp.com",
          "type": "chat",
          "comment": "As set via `support.chat` in composer package definition."
        },
        {
          "url": "https://docs.zendframework.com/zend-escaper/",
          "type": "documentation",
          "comment": "As set via `support.docs` in composer package definition."
        },
        {
          "url": "https://discourse.zendframework.com/c/questions/components",
          "type": "support",
          "comment": "As set via `support.forum` in composer package definition."
        },
        {
          "url": "https://github.com/zendframework/zend-escaper/issues",
          "type": "issue-tracker",
          "comment": "As set via `support.issues` in composer package definition."
        },
        {
          "url": "https://github.com/zendframework/zend-escaper/releases.atom",
          "type": "support",
          "comment": "As set via `support.rss` in composer package definition."
        },
        {
          "url": "https://github.com/zendframework/zend-escaper",
          "type": "distribution",
          "comment": "As set via `support.source` in composer package definition."
        }
      ]
    },
    {
      "type": "library",
      "bom-ref": "pkg:composer/zendframework/zend-eventmanager@3.2.1",
      "group": "zendframework",
      "name": "zend-eventmanager",
      "version": "3.2.1",
      "description": "Trigger and listen to events within a PHP application",
      "licenses": [
        {
          "license": {
            "id": "BSD-3-Clause"
          }
        }
      ],
      "purl": "pkg:composer/zendframework/zend-eventmanager@3.2.1",
      "externalReferences": [
        {
          "url": "https://github.com/zendframework/zend-eventmanager.git",
          "type": "distribution",
          "comment": "As detected by composer's `getSourceUrls()` (type=git & reference=a5e2583a211f73604691586b8406ff7296a946dd)"
        },
        {
          "url": "https://api.github.com/repos/zendframework/zend-eventmanager/zipball/a5e2583a211f73604691586b8406ff7296a946dd",
          "type": "distribution",
          "comment": "As detected by composer's `getDistUrls()` (type=zip & reference=a5e2583a211f73604691586b8406ff7296a946dd & sha1=UNDEFINED)"
        },
        {
          "url": "https://github.com/zendframework/zend-eventmanager",
          "type": "website",
          "comment": "As set via `homepage` in composer package definition."
        },
        {
          "url": "https://github.com/zendframework/zend-eventmanager/issues",
          "type": "issue-tracker",
          "comment": "As set via `support.issues` in composer package definition."
        },
        {
          "url": "https://github.com/zendframework/zend-eventmanager/tree/master",
          "type": "distribution",
          "comment": "As set via `support.source` in composer package definition."
        }
      ]
    },
    {
      "type": "library",
      "bom-ref": "pkg:composer/zendframework/zend-http@2.11.2",
      "group": "zendframework",
      "name": "zend-http",
      "version": "2.11.2",
      "description": "Provides an easy interface for performing Hyper-Text Transfer Protocol (HTTP) requests",
      "licenses": [
        {
          "license": {
            "id": "BSD-3-Clause"
          }
        }
      ],
      "purl": "pkg:composer/zendframework/zend-http@2.11.2",
      "externalReferences": [
        {
          "url": "https://github.com/zendframework/zend-http.git",
          "type": "distribution",
          "comment": "As detected by composer's `getSourceUrls()` (type=git & reference=e15e0ce45a2a4f642cd0b7b4f4d4d0366b729a1a)"
        },
        {
          "url": "https://api.github.com/repos/zendframework/zend-http/zipball/e15e0ce45a2a4f642cd0b7b4f4d4d0366b729a1a",
          "type": "distribution",
          "comment": "As detected by composer's `getDistUrls()` (type=zip & reference=e15e0ce45a2a4f642cd0b7b4f4d4d0366b729a1a & sha1=UNDEFINED)"
        },
        {
          "url": "https://zendframework-slack.herokuapp.com",
          "type": "chat",
          "comment": "As set via `support.chat` in composer package definition."
        },
        {
          "url": "https://docs.zendframework.com/zend-http/",
          "type": "documentation",
          "comment": "As set via `support.docs` in composer package definition."
        },
        {
          "url": "https://discourse.zendframework.com/c/questions/components",
          "type": "support",
          "comment": "As set via `support.forum` in composer package definition."
        },
        {
          "url": "https://github.com/zendframework/zend-http/issues",
          "type": "issue-tracker",
          "comment": "As set via `support.issues` in composer package definition."
        },
        {
          "url": "https://github.com/zendframework/zend-http/releases.atom",
          "type": "support",
          "comment": "As set via `support.rss` in composer package definition."
        },
        {
          "url": "https://github.com/zendframework/zend-http",
          "type": "distribution",
          "comment": "As set via `support.source` in composer package definition."
        }
      ]
    },
    {
      "type": "library",
      "bom-ref": "pkg:composer/zendframework/zend-json@3.1.2",
      "group": "zendframework",
      "name": "zend-json",
      "version": "3.1.2",
      "description": "provides convenience methods for serializing native PHP to JSON and decoding JSON to native PHP",
      "licenses": [
        {
          "license": {
            "id": "BSD-3-Clause"
          }
        }
      ],
      "purl": "pkg:composer/zendframework/zend-json@3.1.2",
      "externalReferences": [
        {
          "url": "https://github.com/zendframework/zend-json.git",
          "type": "distribution",
          "comment": "As detected by composer's `getSourceUrls()` (type=git & reference=e9ddb1192d93fe7fff846ac895249c39db75132b)"
        },
        {
          "url": "https://api.github.com/repos/zendframework/zend-json/zipball/e9ddb1192d93fe7fff846ac895249c39db75132b",
          "type": "distribution",
          "comment": "As detected by composer's `getDistUrls()` (type=zip & reference=e9ddb1192d93fe7fff846ac895249c39db75132b & sha1=UNDEFINED)"
        },
        {
          "url": "https://zendframework-slack.herokuapp.com",
          "type": "chat",
          "comment": "As set via `support.chat` in composer package definition."
        },
        {
          "url": "https://docs.zendframework.com/zend-json/",
          "type": "documentation",
          "comment": "As set via `support.docs` in composer package definition."
        },
        {
          "url": "https://discourse.zendframework.com/c/questions/components",
          "type": "support",
          "comment": "As set via `support.forum` in composer package definition."
        },
        {
          "url": "https://github.com/zendframework/zend-json/issues",
          "type": "issue-tracker",
          "comment": "As set via `support.issues` in composer package definition."
        },
        {
          "url": "https://github.com/zendframework/zend-json/releases.atom",
          "type": "support",
          "comment": "As set via `support.rss` in composer package definition."
        },
        {
          "url": "https://github.com/zendframework/zend-json",
          "type": "distribution",
          "comment": "As set via `support.source` in composer package definition."
        }
      ]
    },
    {
      "type": "library",
      "bom-ref": "pkg:composer/zendframework/zend-loader@2.6.1",
      "group": "zendframework",
      "name": "zend-loader",
      "version": "2.6.1",
      "description": "Autoloading and plugin loading strategies",
      "licenses": [
        {
          "license": {
            "id": "BSD-3-Clause"
          }
        }
      ],
      "purl": "pkg:composer/zendframework/zend-loader@2.6.1",
      "externalReferences": [
        {
          "url": "https://github.com/zendframework/zend-loader.git",
          "type": "distribution",
          "comment": "As detected by composer's `getSourceUrls()` (type=git & reference=91da574d29b58547385b2298c020b257310898c6)"
        },
        {
          "url": "https://api.github.com/repos/zendframework/zend-loader/zipball/91da574d29b58547385b2298c020b257310898c6",
          "type": "distribution",
          "comment": "As detected by composer's `getDistUrls()` (type=zip & reference=91da574d29b58547385b2298c020b257310898c6 & sha1=UNDEFINED)"
        },
        {
          "url": "https://zendframework-slack.herokuapp.com",
          "type": "chat",
          "comment": "As set via `support.chat` in composer package definition."
        },
        {
          "url": "https://docs.zendframework.com/zend-loader/",
          "type": "documentation",
          "comment": "As set via `support.docs` in composer package definition."
        },
        {
          "url": "https://discourse.zendframework.com/c/questions/components",
          "type": "support",
          "comment": "As set via `support.forum` in composer package definition."
        },
        {
          "url": "https://github.com/zendframework/zend-loader/issues",
          "type": "issue-tracker",
          "comment": "As set via `support.issues` in composer package definition."
        },
        {
          "url": "https://github.com/zendframework/zend-loader/releases.atom",
          "type": "support",
          "comment": "As set via `support.rss` in composer package definition."
        },
        {
          "url": "https://github.com/zendframework/zend-loader",
          "type": "distribution",
          "comment": "As set via `support.source` in composer package definition."
        }
      ]
    },
    {
      "type": "library",
      "bom-ref": "pkg:composer/zendframework/zend-modulemanager@2.8.4",
      "group": "zendframework",
      "name": "zend-modulemanager",
      "version": "2.8.4",
      "description": "Modular application system for zend-mvc applications",
      "licenses": [
        {
          "license": {
            "id": "BSD-3-Clause"
          }
        }
      ],
      "purl": "pkg:composer/zendframework/zend-modulemanager@2.8.4",
      "externalReferences": [
        {
          "url": "https://github.com/zendframework/zend-modulemanager.git",
          "type": "distribution",
          "comment": "As detected by composer's `getSourceUrls()` (type=git & reference=b2596d24b9a4e36a3cd114d35d3ad0918db9a243)"
        },
        {
          "url": "https://api.github.com/repos/zendframework/zend-modulemanager/zipball/b2596d24b9a4e36a3cd114d35d3ad0918db9a243",
          "type": "distribution",
          "comment": "As detected by composer's `getDistUrls()` (type=zip & reference=b2596d24b9a4e36a3cd114d35d3ad0918db9a243 & sha1=UNDEFINED)"
        },
        {
          "url": "https://zendframework-slack.herokuapp.com",
          "type": "chat",
          "comment": "As set via `support.chat` in composer package definition."
        },
        {
          "url": "https://docs.zendframework.com/zend-modulemanager/",
          "type": "documentation",
          "comment": "As set via `support.docs` in composer package definition."
        },
        {
          "url": "https://discourse.zendframework.com/c/questions/components",
          "type": "support",
          "comment": "As set via `support.forum` in composer package definition."
        },
        {
          "url": "https://github.com/zendframework/zend-modulemanager/issues",
          "type": "issue-tracker",
          "comment": "As set via `support.issues` in composer package definition."
        },
        {
          "url": "https://github.com/zendframework/zend-modulemanager/releases.atom",
          "type": "support",
          "comment": "As set via `support.rss` in composer package definition."
        },
        {
          "url": "https://github.com/zendframework/zend-modulemanager",
          "type": "distribution",
          "comment": "As set via `support.source` in composer package definition."
        }
      ]
    },
    {
      "type": "library",
      "bom-ref": "pkg:composer/zendframework/zend-mvc@3.1.1",
      "group": "zendframework",
      "name": "zend-mvc",
      "version": "3.1.1",
      "description": "Zend Framework's event-driven MVC layer, including MVC Applications, Controllers, and Plugins",
      "licenses": [
        {
          "license": {
            "id": "BSD-3-Clause"
          }
        }
      ],
      "purl": "pkg:composer/zendframework/zend-mvc@3.1.1",
      "externalReferences": [
        {
          "url": "https://github.com/zendframework/zend-mvc.git",
          "type": "distribution",
          "comment": "As detected by composer's `getSourceUrls()` (type=git & reference=236e7e1e3757e988fa06530c0a3f96a148858ae8)"
        },
        {
          "url": "https://api.github.com/repos/zendframework/zend-mvc/zipball/236e7e1e3757e988fa06530c0a3f96a148858ae8",
          "type": "distribution",
          "comment": "As detected by composer's `getDistUrls()` (type=zip & reference=236e7e1e3757e988fa06530c0a3f96a148858ae8 & sha1=UNDEFINED)"
        },
        {
          "url": "https://docs.zendframework.com/zend-mvc/",
          "type": "documentation",
          "comment": "As set via `support.docs` in composer package definition."
        },
        {
          "url": "https://discourse.zendframework.com/c/questions/components",
          "type": "support",
          "comment": "As set via `support.forum` in composer package definition."
        },
        {
          "url": "https://github.com/zendframework/zend-mvc/issues",
          "type": "issue-tracker",
          "comment": "As set via `support.issues` in composer package definition."
        },
        {
          "url": "https://github.com/zendframework/zend-mvc/releases.atom",
          "type": "support",
          "comment": "As set via `support.rss` in composer package definition."
        },
        {
          "url": "https://zendframework-slack.herokuapp.com",
          "type": "support",
          "comment": "As set via `support.slack` in composer package definition."
        },
        {
          "url": "https://github.com/zendframework/zend-mvc",
          "type": "distribution",
          "comment": "As set via `support.source` in composer package definition."
        }
      ]
    },
    {
      "type": "library",
      "bom-ref": "pkg:composer/zendframework/zend-router@3.3.0",
      "group": "zendframework",
      "name": "zend-router",
      "version": "3.3.0",
      "description": "Flexible routing system for HTTP and console applications",
      "licenses": [
        {
          "license": {
            "id": "BSD-3-Clause"
          }
        }
      ],
      "purl": "pkg:composer/zendframework/zend-router@3.3.0",
      "externalReferences": [
        {
          "url": "https://github.com/zendframework/zend-router.git",
          "type": "distribution",
          "comment": "As detected by composer's `getSourceUrls()` (type=git & reference=b113a4cfd910ee4723079fa58a9bcf3198631620)"
        },
        {
          "url": "https://api.github.com/repos/zendframework/zend-router/zipball/b113a4cfd910ee4723079fa58a9bcf3198631620",
          "type": "distribution",
          "comment": "As detected by composer's `getDistUrls()` (type=zip & reference=b113a4cfd910ee4723079fa58a9bcf3198631620 & sha1=UNDEFINED)"
        },
        {
          "url": "https://docs.zendframework.com/zend-router/",
          "type": "documentation",
          "comment": "As set via `support.docs` in composer package definition."
        },
        {
          "url": "https://discourse.zendframework.com/c/questions/components",
          "type": "support",
          "comment": "As set via `support.forum` in composer package definition."
        },
        {
          "url": "https://github.com/zendframework/zend-router/issues",
          "type": "issue-tracker",
          "comment": "As set via `support.issues` in composer package definition."
        },
        {
          "url": "https://github.com/zendframework/zend-router/releases.atom",
          "type": "support",
          "comment": "As set via `support.rss` in composer package definition."
        },
        {
          "url": "https://zendframework-slack.herokuapp.com",
          "type": "support",
          "comment": "As set via `support.slack` in composer package definition."
        },
        {
          "url": "https://github.com/zendframework/zend-router",
          "type": "distribution",
          "comment": "As set via `support.source` in composer package definition."
        }
      ]
    },
    {
      "type": "library",
      "bom-ref": "pkg:composer/zendframework/zend-servicemanager@3.4.0",
      "group": "zendframework",
      "name": "zend-servicemanager",
      "version": "3.4.0",
      "description": "Factory-Driven Dependency Injection Container",
      "licenses": [
        {
          "license": {
            "id": "BSD-3-Clause"
          }
        }
      ],
      "purl": "pkg:composer/zendframework/zend-servicemanager@3.4.0",
      "externalReferences": [
        {
          "url": "https://github.com/zendframework/zend-servicemanager.git",
          "type": "distribution",
          "comment": "As detected by composer's `getSourceUrls()` (type=git & reference=a1ed6140d0d3ee803fec96582593ed024950067b)"
        },
        {
          "url": "https://api.github.com/repos/zendframework/zend-servicemanager/zipball/a1ed6140d0d3ee803fec96582593ed024950067b",
          "type": "distribution",
          "comment": "As detected by composer's `getDistUrls()` (type=zip & reference=a1ed6140d0d3ee803fec96582593ed024950067b & sha1=UNDEFINED)"
        },
        {
          "url": "https://docs.zendframework.com/zend-servicemanager/",
          "type": "documentation",
          "comment": "As set via `support.docs` in composer package definition."
        },
        {
          "url": "https://discourse.zendframework.com/c/questions/components",
          "type": "support",
          "comment": "As set via `support.forum` in composer package definition."
        },
        {
          "url": "https://github.com/zendframework/zend-servicemanager/issues",
          "type": "issue-tracker",
          "comment": "As set via `support.issues` in composer package definition."
        },
        {
          "url": "https://github.com/zendframework/zend-servicemanager/releases.atom",
          "type": "support",
          "comment": "As set via `support.rss` in composer package definition."
        },
        {
          "url": "https://zendframework-slack.herokuapp.com",
          "type": "support",
          "comment": "As set via `support.slack` in composer package definition."
        },
        {
          "url": "https://github.com/zendframework/zend-servicemanager",
          "type": "distribution",
          "comment": "As set via `support.source` in composer package definition."
        }
      ]
    },
    {
      "type": "application",
      "bom-ref": "pkg:composer/zendframework/zend-skeleton-installer@0.1.7",
      "group": "zendframework",
      "name": "zend-skeleton-installer",
      "version": "0.1.7",
      "description": "Installer plugin for Zend Framework skeleton application",
      "licenses": [
        {
          "license": {
            "id": "BSD-3-Clause"
          }
        }
      ],
      "purl": "pkg:composer/zendframework/zend-skeleton-installer@0.1.7",
      "externalReferences": [
        {
          "url": "https://github.com/zendframework/zend-skeleton-installer.git",
          "type": "distribution",
          "comment": "As detected by composer's `getSourceUrls()` (type=git & reference=57f48b8793d705de19bc265f34ad6185a7eac3d6)"
        },
        {
          "url": "https://api.github.com/repos/zendframework/zend-skeleton-installer/zipball/57f48b8793d705de19bc265f34ad6185a7eac3d6",
          "type": "distribution",
          "comment": "As detected by composer's `getDistUrls()` (type=zip & reference=57f48b8793d705de19bc265f34ad6185a7eac3d6 & sha1=UNDEFINED)"
        },
        {
          "url": "https://zendframework-slack.herokuapp.com",
          "type": "chat",
          "comment": "As set via `support.chat` in composer package definition."
        },
        {
          "url": "https://docs.zendframework.com/zend-skeleton-installer/",
          "type": "documentation",
          "comment": "As set via `support.docs` in composer package definition."
        },
        {
          "url": "https://discourse.zendframework.com/c/questions/components",
          "type": "support",
          "comment": "As set via `support.forum` in composer package definition."
        },
        {
          "url": "https://github.com/zendframework/zend-skeleton-installer/issues",
          "type": "issue-tracker",
          "comment": "As set via `support.issues` in composer package definition."
        },
        {
          "url": "https://github.com/zendframework/zend-skeleton-installer/releases.atom",
          "type": "support",
          "comment": "As set via `support.rss` in composer package definition."
        },
        {
          "url": "https://github.com/zendframework/zend-skeleton-installer",
          "type": "distribution",
          "comment": "As set via `support.source` in composer package definition."
        }
      ]
    },
    {
      "type": "library",
      "bom-ref": "pkg:composer/zendframework/zend-stdlib@3.2.1",
      "group": "zendframework",
      "name": "zend-stdlib",
      "version": "3.2.1",
      "description": "SPL extensions, array utilities, error handlers, and more",
      "licenses": [
        {
          "license": {
            "id": "BSD-3-Clause"
          }
        }
      ],
      "purl": "pkg:composer/zendframework/zend-stdlib@3.2.1",
      "externalReferences": [
        {
          "url": "https://github.com/zendframework/zend-stdlib.git",
          "type": "distribution",
          "comment": "As detected by composer's `getSourceUrls()` (type=git & reference=66536006722aff9e62d1b331025089b7ec71c065)"
        },
        {
          "url": "https://api.github.com/repos/zendframework/zend-stdlib/zipball/66536006722aff9e62d1b331025089b7ec71c065",
          "type": "distribution",
          "comment": "As detected by composer's `getDistUrls()` (type=zip & reference=66536006722aff9e62d1b331025089b7ec71c065 & sha1=UNDEFINED)"
        },
        {
          "url": "https://docs.zendframework.com/zend-stdlib/",
          "type": "documentation",
          "comment": "As set via `support.docs` in composer package definition."
        },
        {
          "url": "https://discourse.zendframework.com/c/questions/components",
          "type": "support",
          "comment": "As set via `support.forum` in composer package definition."
        },
        {
          "url": "https://github.com/zendframework/zend-stdlib/issues",
          "type": "issue-tracker",
          "comment": "As set via `support.issues` in composer package definition."
        },
        {
          "url": "https://github.com/zendframework/zend-stdlib/releases.atom",
          "type": "support",
          "comment": "As set via `support.rss` in composer package definition."
        },
        {
          "url": "https://zendframework-slack.herokuapp.com",
          "type": "support",
          "comment": "As set via `support.slack` in composer package definition."
        },
        {
          "url": "https://github.com/zendframework/zend-stdlib",
          "type": "distribution",
          "comment": "As set via `support.source` in composer package definition."
        }
      ]
    },
    {
      "type": "library",
      "bom-ref": "pkg:composer/zendframework/zend-uri@2.7.1",
      "group": "zendframework",
      "name": "zend-uri",
      "version": "2.7.1",
      "description": "A component that aids in manipulating and validating » Uniform Resource Identifiers (URIs)",
      "licenses": [
        {
          "license": {
            "id": "BSD-3-Clause"
          }
        }
      ],
      "purl": "pkg:composer/zendframework/zend-uri@2.7.1",
      "externalReferences": [
        {
          "url": "https://github.com/zendframework/zend-uri.git",
          "type": "distribution",
          "comment": "As detected by composer's `getSourceUrls()` (type=git & reference=bfc4a5b9a309711e968d7c72afae4ac50c650083)"
        },
        {
          "url": "https://api.github.com/repos/zendframework/zend-uri/zipball/bfc4a5b9a309711e968d7c72afae4ac50c650083",
          "type": "distribution",
          "comment": "As detected by composer's `getDistUrls()` (type=zip & reference=bfc4a5b9a309711e968d7c72afae4ac50c650083 & sha1=UNDEFINED)"
        },
        {
          "url": "https://zendframework-slack.herokuapp.com",
          "type": "chat",
          "comment": "As set via `support.chat` in composer package definition."
        },
        {
          "url": "https://docs.zendframework.com/zend-uri/",
          "type": "documentation",
          "comment": "As set via `support.docs` in composer package definition."
        },
        {
          "url": "https://discourse.zendframework.com/c/questions/components",
          "type": "support",
          "comment": "As set via `support.forum` in composer package definition."
        },
        {
          "url": "https://github.com/zendframework/zend-uri/issues",
          "type": "issue-tracker",
          "comment": "As set via `support.issues` in composer package definition."
        },
        {
          "url": "https://github.com/zendframework/zend-uri/releases.atom",
          "type": "support",
          "comment": "As set via `support.rss` in composer package definition."
        },
        {
          "url": "https://github.com/zendframework/zend-uri",
          "type": "distribution",
          "comment": "As set via `support.source` in composer package definition."
        }
      ]
    },
    {
      "type": "library",
      "bom-ref": "pkg:composer/zendframework/zend-validator@2.13.0",
      "group": "zendframework",
      "name": "zend-validator",
      "version": "2.13.0",
      "description": "Validation classes for a wide range of domains, and the ability to chain validators to create complex validation criteria",
      "licenses": [
        {
          "license": {
            "id": "BSD-3-Clause"
          }
        }
      ],
      "purl": "pkg:composer/zendframework/zend-validator@2.13.0",
      "externalReferences": [
        {
          "url": "https://github.com/zendframework/zend-validator.git",
          "type": "distribution",
          "comment": "As detected by composer's `getSourceUrls()` (type=git & reference=b54acef1f407741c5347f2a97f899ab21f2229ef)"
        },
        {
          "url": "https://api.github.com/repos/zendframework/zend-validator/zipball/b54acef1f407741c5347f2a97f899ab21f2229ef",
          "type": "distribution",
          "comment": "As detected by composer's `getDistUrls()` (type=zip & reference=b54acef1f407741c5347f2a97f899ab21f2229ef & sha1=UNDEFINED)"
        },
        {
          "url": "https://zendframework-slack.herokuapp.com",
          "type": "chat",
          "comment": "As set via `support.chat` in composer package definition."
        },
        {
          "url": "https://docs.zendframework.com/zend-validator/",
          "type": "documentation",
          "comment": "As set via `support.docs` in composer package definition."
        },
        {
          "url": "https://discourse.zendframework.com/c/questions/components",
          "type": "support",
          "comment": "As set via `support.forum` in composer package definition."
        },
        {
          "url": "https://github.com/zendframework/zend-validator/issues",
          "type": "issue-tracker",
          "comment": "As set via `support.issues` in composer package definition."
        },
        {
          "url": "https://github.com/zendframework/zend-validator/releases.atom",
          "type": "support",
          "comment": "As set via `support.rss` in composer package definition."
        },
        {
          "url": "https://github.com/zendframework/zend-validator",
          "type": "distribution",
          "comment": "As set via `support.source` in composer package definition."
        }
      ]
    },
    {
      "type": "library",
      "bom-ref": "pkg:composer/zendframework/zend-view@2.11.4",
      "group": "zendframework",
      "name": "zend-view",
      "version": "2.11.4",
      "description": "Flexible view layer supporting and providing multiple view layers, helpers, and more",
      "licenses": [
        {
          "license": {
            "id": "BSD-3-Clause"
          }
        }
      ],
      "purl": "pkg:composer/zendframework/zend-view@2.11.4",
      "externalReferences": [
        {
          "url": "https://github.com/zendframework/zend-view.git",
          "type": "distribution",
          "comment": "As detected by composer's `getSourceUrls()` (type=git & reference=a8b1b2d9b52e191539be861a6529f8c8a0c06b9d)"
        },
        {
          "url": "https://api.github.com/repos/zendframework/zend-view/zipball/a8b1b2d9b52e191539be861a6529f8c8a0c06b9d",
          "type": "distribution",
          "comment": "As detected by composer's `getDistUrls()` (type=zip & reference=a8b1b2d9b52e191539be861a6529f8c8a0c06b9d & sha1=UNDEFINED)"
        },
        {
          "url": "https://zendframework-slack.herokuapp.com",
          "type": "chat",
          "comment": "As set via `support.chat` in composer package definition."
        },
        {
          "url": "https://docs.zendframework.com/zend-view/",
          "type": "documentation",
          "comment": "As set via `support.docs` in composer package definition."
        },
        {
          "url": "https://discourse.zendframework.com/c/questions/components",
          "type": "support",
          "comment": "As set via `support.forum` in composer package definition."
        },
        {
          "url": "https://github.com/zendframework/zend-view/issues",
          "type": "issue-tracker",
          "comment": "As set via `support.issues` in composer package definition."
        },
        {
          "url": "https://github.com/zendframework/zend-view/releases.atom",
          "type": "support",
          "comment": "As set via `support.rss` in composer package definition."
        },
        {
          "url": "https://github.com/zendframework/zend-view",
          "type": "distribution",
          "comment": "As set via `support.source` in composer package definition."
        }
      ]
    },
    {
      "type": "library",
      "bom-ref": "pkg:composer/zfcampus/zf-development-mode@3.2.0",
      "group": "zfcampus",
      "name": "zf-development-mode",
      "version": "3.2.0",
      "description": "Zend Framework development mode script",
      "licenses": [
        {
          "license": {
            "id": "BSD-3-Clause"
          }
        }
      ],
      "purl": "pkg:composer/zfcampus/zf-development-mode@3.2.0",
      "externalReferences": [
        {
          "url": "https://github.com/zfcampus/zf-development-mode.git",
          "type": "distribution",
          "comment": "As detected by composer's `getSourceUrls()` (type=git & reference=419004a320bab017d28f2bc5e7857dde7e19aecf)"
        },
        {
          "url": "https://api.github.com/repos/zfcampus/zf-development-mode/zipball/419004a320bab017d28f2bc5e7857dde7e19aecf",
          "type": "distribution",
          "comment": "As detected by composer's `getDistUrls()` (type=zip & reference=419004a320bab017d28f2bc5e7857dde7e19aecf & sha1=UNDEFINED)"
        },
        {
          "url": "https://zendframework-slack.herokuapp.com",
          "type": "chat",
          "comment": "As set via `support.chat` in composer package definition."
        },
        {
          "url": "https://discourse.zendframework.com/c/questions/apigility",
          "type": "support",
          "comment": "As set via `support.forum` in composer package definition."
        },
        {
          "url": "https://github.com/zfcampus/zf-development-mode/issues",
          "type": "issue-tracker",
          "comment": "As set via `support.issues` in composer package definition."
        },
        {
          "url": "https://github.com/zfcampus/zf-development-mode/releases.atom",
          "type": "support",
          "comment": "As set via `support.rss` in composer package definition."
        },
        {
          "url": "https://github.com/zfcampus/zf-development-mode",
          "type": "distribution",
          "comment": "As set via `support.source` in composer package definition."
        }
      ]
    },
    {
      "type": "library",
      "bom-ref": "pkg:composer/cyclonedx/cyclonedx-library@1.5.0",
      "group": "cyclonedx",
      "name": "cyclonedx-library",
      "version": "1.5.0",
      "description": "Work with CycloneDX Software Bill-of-Materials (SBOM)",
      "licenses": [
        {
          "license": {
            "id": "Apache-2.0"
          }
        }
      ],
      "purl": "pkg:composer/cyclonedx/cyclonedx-library@1.5.0",
      "externalReferences": [
        {
          "url": "https://github.com/CycloneDX/cyclonedx-php-library.git",
          "type": "distribution",
          "comment": "As detected by composer's `getSourceUrls()` (type=git & reference=f41632e1d47001700ef93fa899e6dc49779aa784)"
        },
        {
          "url": "https://api.github.com/repos/CycloneDX/cyclonedx-php-library/zipball/f41632e1d47001700ef93fa899e6dc49779aa784",
          "type": "distribution",
          "comment": "As detected by composer's `getDistUrls()` (type=zip & reference=f41632e1d47001700ef93fa899e6dc49779aa784 & sha1=UNDEFINED)"
        },
        {
          "url": "https://github.com/CycloneDX/cyclonedx-php-library/",
          "type": "website",
          "comment": "As set via `homepage` in composer package definition."
        },
        {
          "url": "https://github.com/CycloneDX/cyclonedx-php-library/issues",
          "type": "issue-tracker",
          "comment": "As set via `support.issues` in composer package definition."
        },
        {
          "url": "https://github.com/CycloneDX/cyclonedx-php-library/tree/v1.5.0",
          "type": "distribution",
          "comment": "As set via `support.source` in composer package definition."
        }
      ]
    },
    {
      "type": "application",
      "bom-ref": "pkg:composer/cyclonedx/cyclonedx-php-composer@3.10.0",
      "group": "cyclonedx",
      "name": "cyclonedx-php-composer",
      "version": "3.10.0",
      "description": "Creates CycloneDX Software Bill-of-Materials (SBOM) from PHP Composer projects",
      "licenses": [
        {
          "license": {
            "id": "Apache-2.0"
          }
        }
      ],
      "purl": "pkg:composer/cyclonedx/cyclonedx-php-composer@3.10.0",
      "externalReferences": [
        {
          "url": "https://github.com/CycloneDX/cyclonedx-php-composer.git",
          "type": "distribution",
          "comment": "As detected by composer's `getSourceUrls()` (type=git & reference=341792df609deab6131ffa65f2f3b273f2e6128a)"
        },
        {
          "url": "https://api.github.com/repos/CycloneDX/cyclonedx-php-composer/zipball/341792df609deab6131ffa65f2f3b273f2e6128a",
          "type": "distribution",
          "comment": "As detected by composer's `getDistUrls()` (type=zip & reference=341792df609deab6131ffa65f2f3b273f2e6128a & sha1=UNDEFINED)"
        },
        {
          "url": "https://github.com/CycloneDX/cyclonedx-php-composer/",
          "type": "website",
          "comment": "As set via `homepage` in composer package definition."
        },
        {
          "url": "https://github.com/CycloneDX/cyclonedx-php-composer/issues",
          "type": "issue-tracker",
          "comment": "As set via `support.issues` in composer package definition."
        },
        {
          "url": "https://github.com/CycloneDX/cyclonedx-php-composer/tree/v3.10.0",
          "type": "distribution",
          "comment": "As set via `support.source` in composer package definition."
        }
      ]
    },
    {
      "type": "library",
      "bom-ref": "pkg:composer/package-url/packageurl-php@1.0.4",
      "group": "package-url",
      "name": "packageurl-php",
      "version": "1.0.4",
      "description": "A parser and builder based on the package url spec.",
      "licenses": [
        {
          "license": {
            "id": "MIT"
          }
        }
      ],
      "purl": "pkg:composer/package-url/packageurl-php@1.0.4",
      "externalReferences": [
        {
          "url": "https://github.com/package-url/packageurl-php.git",
          "type": "distribution",
          "comment": "As detected by composer's `getSourceUrls()` (type=git & reference=c45953babed516d27a0cf6c1a2d9f7e883ce214f)"
        },
        {
          "url": "https://api.github.com/repos/package-url/packageurl-php/zipball/c45953babed516d27a0cf6c1a2d9f7e883ce214f",
          "type": "distribution",
          "comment": "As detected by composer's `getDistUrls()` (type=zip & reference=c45953babed516d27a0cf6c1a2d9f7e883ce214f & sha1=UNDEFINED)"
        },
        {
          "url": "https://github.com/package-url/packageurl-php",
          "type": "website",
          "comment": "As set via `homepage` in composer package definition."
        },
        {
          "url": "https://github.com/package-url/packageurl-php/issues",
          "type": "issue-tracker",
          "comment": "As set via `support.issues` in composer package definition."
        },
        {
          "url": "https://github.com/package-url/packageurl-php/tree/1.0.4",
          "type": "distribution",
          "comment": "As set via `support.source` in composer package definition."
        }
      ]
    },
    {
      "type": "library",
      "bom-ref": "pkg:composer/phplang/scope-exit@1.0.0",
      "group": "phplang",
      "name": "scope-exit",
      "version": "1.0.0",
      "description": "Emulation of SCOPE_EXIT construct from C++",
      "licenses": [
        {
          "license": {
            "name": "BSD"
          }
        }
      ],
      "purl": "pkg:composer/phplang/scope-exit@1.0.0",
      "externalReferences": [
        {
          "url": "https://github.com/phplang/scope-exit.git",
          "type": "distribution",
          "comment": "As detected by composer's `getSourceUrls()` (type=git & reference=239b73abe89f9414aa85a7ca075ec9445629192b)"
        },
        {
          "url": "https://api.github.com/repos/phplang/scope-exit/zipball/239b73abe89f9414aa85a7ca075ec9445629192b",
          "type": "distribution",
          "comment": "As detected by composer's `getDistUrls()` (type=zip & reference=239b73abe89f9414aa85a7ca075ec9445629192b & sha1=UNDEFINED)"
        },
        {
          "url": "https://github.com/phplang/scope-exit",
          "type": "website",
          "comment": "As set via `homepage` in composer package definition."
        },
        {
          "url": "https://github.com/phplang/scope-exit/issues",
          "type": "issue-tracker",
          "comment": "As set via `support.issues` in composer package definition."
        },
        {
          "url": "https://github.com/phplang/scope-exit/tree/master",
          "type": "distribution",
          "comment": "As set via `support.source` in composer package definition."
        }
      ]
    },
    {
      "type": "library",
      "bom-ref": "pkg:composer/swaggest/json-diff@3.8.3",
      "group": "swaggest",
      "name": "json-diff",
      "version": "3.8.3",
      "description": "JSON diff/rearrange/patch/pointer library for PHP",
      "licenses": [
        {
          "license": {
            "id": "MIT"
          }
        }
      ],
      "purl": "pkg:composer/swaggest/json-diff@3.8.3",
      "externalReferences": [
        {
          "url": "https://github.com/swaggest/json-diff.git",
          "type": "distribution",
          "comment": "As detected by composer's `getSourceUrls()` (type=git & reference=bb3e3b4e9d842bb2e48f31ea568d0459968d1d42)"
        },
        {
          "url": "https://api.github.com/repos/swaggest/json-diff/zipball/bb3e3b4e9d842bb2e48f31ea568d0459968d1d42",
          "type": "distribution",
          "comment": "As detected by composer's `getDistUrls()` (type=zip & reference=bb3e3b4e9d842bb2e48f31ea568d0459968d1d42 & sha1=UNDEFINED)"
        },
        {
          "url": "https://github.com/swaggest/json-diff/issues",
          "type": "issue-tracker",
          "comment": "As set via `support.issues` in composer package definition."
        },
        {
          "url": "https://github.com/swaggest/json-diff/tree/v3.8.3",
          "type": "distribution",
          "comment": "As set via `support.source` in composer package definition."
        }
      ]
    },
    {
      "type": "library",
      "bom-ref": "pkg:composer/swaggest/json-schema@0.12.39",
      "group": "swaggest",
      "name": "json-schema",
      "version": "0.12.39",
      "description": "High definition PHP structures with JSON-schema based validation",
      "licenses": [
        {
          "license": {
            "id": "MIT"
          }
        }
      ],
      "purl": "pkg:composer/swaggest/json-schema@0.12.39",
      "externalReferences": [
        {
          "url": "https://github.com/swaggest/php-json-schema.git",
          "type": "distribution",
          "comment": "As detected by composer's `getSourceUrls()` (type=git & reference=193ba39cce1ffa2d55ddd5445315e945a63298a2)"
        },
        {
          "url": "https://api.github.com/repos/swaggest/php-json-schema/zipball/193ba39cce1ffa2d55ddd5445315e945a63298a2",
          "type": "distribution",
          "comment": "As detected by composer's `getDistUrls()` (type=zip & reference=193ba39cce1ffa2d55ddd5445315e945a63298a2 & sha1=UNDEFINED)"
        },
        {
          "url": "mailto:vearutop@gmail.com",
          "type": "other",
          "comment": "As set via `support.email` in composer package definition."
        },
        {
          "url": "https://github.com/swaggest/php-json-schema/issues",
          "type": "issue-tracker",
          "comment": "As set via `support.issues` in composer package definition."
        },
        {
          "url": "https://github.com/swaggest/php-json-schema/tree/v0.12.39",
          "type": "distribution",
          "comment": "As set via `support.source` in composer package definition."
        }
      ]
    },
    {
      "type": "library",
      "bom-ref": "pkg:composer/symfony/polyfill-mbstring@1.25.0",
      "group": "symfony",
      "name": "polyfill-mbstring",
      "version": "1.25.0",
      "description": "Symfony polyfill for the Mbstring extension",
      "licenses": [
        {
          "license": {
            "id": "MIT"
          }
        }
      ],
      "purl": "pkg:composer/symfony/polyfill-mbstring@1.25.0",
      "externalReferences": [
        {
          "url": "https://github.com/symfony/polyfill-mbstring.git",
          "type": "distribution",
          "comment": "As detected by composer's `getSourceUrls()` (type=git & reference=0abb51d2f102e00a4eefcf46ba7fec406d245825)"
        },
        {
          "url": "https://api.github.com/repos/symfony/polyfill-mbstring/zipball/0abb51d2f102e00a4eefcf46ba7fec406d245825",
          "type": "distribution",
          "comment": "As detected by composer's `getDistUrls()` (type=zip & reference=0abb51d2f102e00a4eefcf46ba7fec406d245825 & sha1=UNDEFINED)"
        },
        {
          "url": "https://symfony.com",
          "type": "website",
          "comment": "As set via `homepage` in composer package definition."
        },
        {
          "url": "https://github.com/symfony/polyfill-mbstring/tree/v1.25.0",
          "type": "distribution",
          "comment": "As set via `support.source` in composer package definition."
        },
        {
          "url": "https://symfony.com/sponsor",
          "type": "other",
          "comment": "As set via `funding` in composer package definition. (type=custom)"
        },
        {
          "url": "https://github.com/fabpot",
          "type": "other",
          "comment": "As set via `funding` in composer package definition. (type=github)"
        },
        {
          "url": "https://tidelift.com/funding/github/packagist/symfony/symfony",
          "type": "other",
          "comment": "As set via `funding` in composer package definition. (type=tidelift)"
        }
      ]
    },
    {
      "type": "library",
      "bom-ref": "pkg:composer/symfony/polyfill-mbstring@1.19.0",
      "group": "symfony",
      "name": "polyfill-mbstring",
      "version": "1.19.0",
      "description": "Symfony polyfill for the Mbstring extension",
      "licenses": [
        {
          "license": {
            "id": "MIT",
            "url": "https://opensource.org/licenses/MIT"
          }
        }
      ],
      "purl": "pkg:composer/symfony/polyfill-mbstring@1.19.0",
      "externalReferences": [
        {
          "url": "https://github.com/symfony/polyfill-mbstring.git",
          "type": "vcs"
        }
      ]
    }
  ],
  "dependencies": [
    {
      "ref": "pkg:composer/container-interop/container-interop@1.2.0",
      "dependsOn": [
        "pkg:composer/psr/container@1.1.2"
      ]
    },
    {
      "ref": "pkg:composer/psr/container@1.1.2"
    },
    {
      "ref": "pkg:composer/zendframework/zend-component-installer@2.1.2"
    },
    {
      "ref": "pkg:composer/zendframework/zend-config@3.3.0",
      "dependsOn": [
        "pkg:composer/psr/container@1.1.2",
        "pkg:composer/zendframework/zend-stdlib@3.2.1"
      ]
    },
    {
      "ref": "pkg:composer/zendframework/zend-escaper@2.6.1"
    },
    {
      "ref": "pkg:composer/zendframework/zend-eventmanager@3.2.1"
    },
    {
      "ref": "pkg:composer/zendframework/zend-http@2.11.2",
      "dependsOn": [
        "pkg:composer/zendframework/zend-loader@2.6.1",
        "pkg:composer/zendframework/zend-stdlib@3.2.1",
        "pkg:composer/zendframework/zend-uri@2.7.1",
        "pkg:composer/zendframework/zend-validator@2.13.0"
      ]
    },
    {
      "ref": "pkg:composer/zendframework/zend-json@3.1.2"
    },
    {
      "ref": "pkg:composer/zendframework/zend-loader@2.6.1"
    },
    {
      "ref": "pkg:composer/zendframework/zend-modulemanager@2.8.4",
      "dependsOn": [
        "pkg:composer/zendframework/zend-config@3.3.0",
        "pkg:composer/zendframework/zend-eventmanager@3.2.1",
        "pkg:composer/zendframework/zend-stdlib@3.2.1"
      ]
    },
    {
      "ref": "pkg:composer/zendframework/zend-mvc@3.1.1",
      "dependsOn": [
        "pkg:composer/container-interop/container-interop@1.2.0",
        "pkg:composer/zendframework/zend-eventmanager@3.2.1",
        "pkg:composer/zendframework/zend-http@2.11.2",
        "pkg:composer/zendframework/zend-modulemanager@2.8.4",
        "pkg:composer/zendframework/zend-router@3.3.0",
        "pkg:composer/zendframework/zend-servicemanager@3.4.0",
        "pkg:composer/zendframework/zend-stdlib@3.2.1",
        "pkg:composer/zendframework/zend-view@2.11.4"
      ]
    },
    {
      "ref": "pkg:composer/zendframework/zend-router@3.3.0",
      "dependsOn": [
        "pkg:composer/container-interop/container-interop@1.2.0",
        "pkg:composer/zendframework/zend-http@2.11.2",
        "pkg:composer/zendframework/zend-servicemanager@3.4.0",
        "pkg:composer/zendframework/zend-stdlib@3.2.1"
      ]
    },
    {
      "ref": "pkg:composer/zendframework/zend-servicemanager@3.4.0",
      "dependsOn": [
        "pkg:composer/container-interop/container-interop@1.2.0",
        "pkg:composer/psr/container@1.1.2",
        "pkg:composer/zendframework/zend-stdlib@3.2.1"
      ]
    },
    {
      "ref": "pkg:composer/zendframework/zend-skeleton-installer@0.1.7",
      "dependsOn": [
        "pkg:composer/zendframework/zend-component-installer@2.1.2"
      ]
    },
    {
      "ref": "pkg:composer/zendframework/zend-stdlib@3.2.1"
    },
    {
      "ref": "pkg:composer/zendframework/zend-uri@2.7.1",
      "dependsOn": [
        "pkg:composer/zendframework/zend-escaper@2.6.1",
        "pkg:composer/zendframework/zend-validator@2.13.0"
      ]
    },
    {
      "ref": "pkg:composer/zendframework/zend-validator@2.13.0",
      "dependsOn": [
        "pkg:composer/container-interop/container-interop@1.2.0",
        "pkg:composer/zendframework/zend-stdlib@3.2.1"
      ]
    },
    {
      "ref": "pkg:composer/zendframework/zend-view@2.11.4",
      "dependsOn": [
        "pkg:composer/zendframework/zend-eventmanager@3.2.1",
        "pkg:composer/zendframework/zend-json@3.1.2",
        "pkg:composer/zendframework/zend-loader@2.6.1",
        "pkg:composer/zendframework/zend-stdlib@3.2.1"
      ]
    },
    {
      "ref": "pkg:composer/zfcampus/zf-development-mode@3.2.0"
    },
    {
      "ref": "pkg:composer/cyclonedx/cyclonedx-library@1.5.0",
      "dependsOn": [
        "pkg:composer/package-url/packageurl-php@1.0.4",
        "pkg:composer/swaggest/json-schema@0.12.39"
      ]
    },
    {
      "ref": "pkg:composer/cyclonedx/cyclonedx-php-composer@3.10.0",
      "dependsOn": [
        "pkg:composer/cyclonedx/cyclonedx-library@1.5.0",
        "pkg:composer/package-url/packageurl-php@1.0.4"
      ]
    },
    {
      "ref": "pkg:composer/package-url/packageurl-php@1.0.4"
    },
    {
      "ref": "pkg:composer/phplang/scope-exit@1.0.0"
    },
    {
      "ref": "pkg:composer/swaggest/json-diff@3.8.3"
    },
    {
      "ref": "pkg:composer/swaggest/json-schema@0.12.39",
      "dependsOn": [
        "pkg:composer/phplang/scope-exit@1.0.0",
        "pkg:composer/swaggest/json-diff@3.8.3",
        "pkg:composer/symfony/polyfill-mbstring@1.25.0"
      ]
    },
    {
      "ref": "pkg:composer/symfony/polyfill-mbstring@1.25.0"
    },
    {
      "ref": "pkg:composer/zendframework/skeleton-application@dev-master",
      "dependsOn": [
        "pkg:composer/zendframework/zend-component-installer@2.1.2",
        "pkg:composer/zendframework/zend-skeleton-installer@0.1.7",
        "pkg:composer/zendframework/zend-mvc@3.1.1",
        "pkg:composer/zfcampus/zf-development-mode@3.2.0",
        "pkg:composer/cyclonedx/cyclonedx-php-composer@3.10.0"
      ]
    }
  ]
}
