{
  "bomFormat": "CycloneDX",
  "specVersion": "1.3",
  "version": 1,
  "metadata": {
    "tools": [
      {
        "vendor": "CycloneDX",
        "name": "Node.js module",
        "version": "3.0.3"
      },
      {
        "vendor": "AppThreat",
        "name": "cdxgen",
        "version": "3.0.10"
      },
      {
        "vendor": "Fortress Information Security",
        "name": "Github Extractor",
        "version": "1.15.1"
      }
    ],
    "authors": [
      {
        "name": "Fortress Information Security",
        "email": "sales@fortressinfosec.com",
        "phone": "1-407-573-6800"
      }
    ],
    "timestamp": "2022-06-01T21:00:00Z",
    "component": {
      "type": "application",
      "name": "samson",
      "version": "v3351",
      "group": "zendesk",
      "externalReferences": [
        {
          "url": "https://github.com/zendesk/samson.git",
          "type": "distribution"
        },
        {
          "type": "website",
          "url": "null",
          "comment": "As set via `homepage` in Github API"
        }
      ]
    }
  },
  "components": [
    {
      "type": "library",
      "bom-ref": "pkg:npm/balanced-match@1.0.2",
      "name": "balanced-match",
      "version": "1.0.2",
      "description": "Match balanced character pairs, like \"{\" and \"}\"",
      "hashes": [
        {
          "alg": "SHA-1",
          "content": "e83e3a7e3f300b34cb9d87f615fa0cbf357690ee"
        }
      ],
      "licenses": [
        {
          "license": {
            "id": "MIT"
          }
        }
      ],
      "purl": "pkg:npm/balanced-match@1.0.2",
      "externalReferences": [
        {
          "url": "https://github.com/juliangruber/balanced-match",
          "type": "website"
        },
        {
          "url": "https://github.com/juliangruber/balanced-match/issues",
          "type": "issue-tracker"
        },
        {
          "url": "git://github.com/juliangruber/balanced-match.git",
          "type": "vcs"
        }
      ]
    },
    {
      "type": "library",
      "bom-ref": "pkg:npm/brace-expansion@1.1.11",
      "name": "brace-expansion",
      "version": "1.1.11",
      "description": "Brace expansion as known from sh/bash",
      "hashes": [
        {
          "alg": "SHA-1",
          "content": "3c7fcbf529d87226f3d2f52b966ff5271eb441dd"
        }
      ],
      "licenses": [
        {
          "license": {
            "id": "MIT"
          }
        }
      ],
      "purl": "pkg:npm/brace-expansion@1.1.11",
      "externalReferences": [
        {
          "url": "https://github.com/juliangruber/brace-expansion",
          "type": "website"
        },
        {
          "url": "https://github.com/juliangruber/brace-expansion/issues",
          "type": "issue-tracker"
        },
        {
          "url": "git://github.com/juliangruber/brace-expansion.git",
          "type": "vcs"
        }
      ]
    },
    {
      "type": "library",
      "bom-ref": "pkg:npm/concat-map@0.0.1",
      "name": "concat-map",
      "version": "0.0.1",
      "description": "concatenative mapdashery",
      "hashes": [
        {
          "alg": "SHA-1",
          "content": "d8a96bd77fd68df7793a73036a3ba0d5405d477b"
        }
      ],
      "licenses": [
        {
          "license": {
            "id": "MIT"
          }
        }
      ],
      "purl": "pkg:npm/concat-map@0.0.1",
      "externalReferences": [
        {
          "url": "https://github.com/substack/node-concat-map#readme",
          "type": "website"
        },
        {
          "url": "https://github.com/substack/node-concat-map/issues",
          "type": "issue-tracker"
        },
        {
          "url": "git://github.com/substack/node-concat-map.git",
          "type": "vcs"
        }
      ]
    },
    {
      "type": "library",
      "bom-ref": "pkg:npm/cli@1.0.1",
      "name": "cli",
      "version": "1.0.1",
      "description": "A tool for rapidly building command line apps",
      "hashes": [
        {
          "alg": "SHA-1",
          "content": "22817534f24bfa4950c34d532d48ecbc621b8c14"
        }
      ],
      "licenses": [
        {
          "license": {
            "id": "MIT"
          }
        }
      ],
      "purl": "pkg:npm/cli@1.0.1",
      "externalReferences": [
        {
          "url": "http://github.com/node-js-libs/cli",
          "type": "website"
        },
        {
          "url": "http://github.com/node-js-libs/cli/issues",
          "type": "issue-tracker"
        },
        {
          "url": "git+ssh://git@github.com/node-js-libs/cli.git",
          "type": "vcs"
        }
      ]
    },
    {
      "type": "library",
      "bom-ref": "pkg:npm/exit@0.1.2",
      "name": "exit",
      "version": "0.1.2",
      "description": "A replacement for process.exit that ensures stdio are fully drained before exiting.",
      "hashes": [
        {
          "alg": "SHA-1",
          "content": "0632638f8d877cc82107d30a0fff1a17cba1cd0c"
        }
      ],
      "purl": "pkg:npm/exit@0.1.2",
      "externalReferences": [
        {
          "url": "https://github.com/cowboy/node-exit",
          "type": "website"
        },
        {
          "url": "https://github.com/cowboy/node-exit/issues",
          "type": "issue-tracker"
        },
        {
          "url": "git://github.com/cowboy/node-exit.git",
          "type": "vcs"
        }
      ]
    },
    {
      "type": "library",
      "bom-ref": "pkg:npm/glob@7.2.3",
      "name": "glob",
      "version": "7.2.3",
      "description": "a little globber",
      "hashes": [
        {
          "alg": "SHA-1",
          "content": "b8df0fb802bbfa8e89bd1d938b4e16578ed44f2b"
        }
      ],
      "licenses": [
        {
          "license": {
            "id": "ISC"
          }
        }
      ],
      "purl": "pkg:npm/glob@7.2.3",
      "externalReferences": [
        {
          "url": "https://github.com/isaacs/node-glob#readme",
          "type": "website"
        },
        {
          "url": "https://github.com/isaacs/node-glob/issues",
          "type": "issue-tracker"
        },
        {
          "url": "git://github.com/isaacs/node-glob.git",
          "type": "vcs"
        }
      ]
    },
    {
      "type": "library",
      "bom-ref": "pkg:npm/fs.realpath@1.0.0",
      "name": "fs.realpath",
      "version": "1.0.0",
      "description": "Use node's fs.realpath, but fall back to the JS implementation if the native one fails",
      "hashes": [
        {
          "alg": "SHA-1",
          "content": "1504ad2523158caa40db4a2787cb01411994ea4f"
        }
      ],
      "licenses": [
        {
          "license": {
            "id": "ISC"
          }
        }
      ],
      "purl": "pkg:npm/fs.realpath@1.0.0",
      "externalReferences": [
        {
          "url": "https://github.com/isaacs/fs.realpath#readme",
          "type": "website"
        },
        {
          "url": "https://github.com/isaacs/fs.realpath/issues",
          "type": "issue-tracker"
        },
        {
          "url": "git+https://github.com/isaacs/fs.realpath.git",
          "type": "vcs"
        }
      ]
    },
    {
      "type": "library",
      "bom-ref": "pkg:npm/inflight@1.0.6",
      "name": "inflight",
      "version": "1.0.6",
      "description": "Add callbacks to requests in flight to avoid async duplication",
      "hashes": [
        {
          "alg": "SHA-1",
          "content": "49bd6331d7d02d0c09bc910a1075ba8165b56df9"
        }
      ],
      "licenses": [
        {
          "license": {
            "id": "ISC"
          }
        }
      ],
      "purl": "pkg:npm/inflight@1.0.6",
      "externalReferences": [
        {
          "url": "https://github.com/isaacs/inflight",
          "type": "website"
        },
        {
          "url": "https://github.com/isaacs/inflight/issues",
          "type": "issue-tracker"
        },
        {
          "url": "git+https://github.com/npm/inflight.git",
          "type": "vcs"
        }
      ]
    },
    {
      "type": "library",
      "bom-ref": "pkg:npm/once@1.4.0",
      "name": "once",
      "version": "1.4.0",
      "description": "Run a function exactly one time",
      "hashes": [
        {
          "alg": "SHA-1",
          "content": "583b1aa775961d4b113ac17d9c50baef9dd76bd1"
        }
      ],
      "licenses": [
        {
          "license": {
            "id": "ISC"
          }
        }
      ],
      "purl": "pkg:npm/once@1.4.0",
      "externalReferences": [
        {
          "url": "https://github.com/isaacs/once#readme",
          "type": "website"
        },
        {
          "url": "https://github.com/isaacs/once/issues",
          "type": "issue-tracker"
        },
        {
          "url": "git://github.com/isaacs/once.git",
          "type": "vcs"
        }
      ]
    },
    {
      "type": "library",
      "bom-ref": "pkg:npm/wrappy@1.0.2",
      "name": "wrappy",
      "version": "1.0.2",
      "description": "Callback wrapping utility",
      "hashes": [
        {
          "alg": "SHA-1",
          "content": "b5243d8f3ec1aa35f1364605bc0d1036e30ab69f"
        }
      ],
      "licenses": [
        {
          "license": {
            "id": "ISC"
          }
        }
      ],
      "purl": "pkg:npm/wrappy@1.0.2",
      "externalReferences": [
        {
          "url": "https://github.com/npm/wrappy",
          "type": "website"
        },
        {
          "url": "https://github.com/npm/wrappy/issues",
          "type": "issue-tracker"
        },
        {
          "url": "git+https://github.com/npm/wrappy.git",
          "type": "vcs"
        }
      ]
    },
    {
      "type": "library",
      "bom-ref": "pkg:npm/inherits@2.0.4",
      "name": "inherits",
      "version": "2.0.4",
      "description": "Browser-friendly inheritance fully compatible with standard node.js inherits()",
      "hashes": [
        {
          "alg": "SHA-1",
          "content": "0fa2c64f932917c3433a0ded55363aae37416b7c"
        }
      ],
      "licenses": [
        {
          "license": {
            "id": "ISC"
          }
        }
      ],
      "purl": "pkg:npm/inherits@2.0.4",
      "externalReferences": [
        {
          "url": "https://github.com/isaacs/inherits#readme",
          "type": "website"
        },
        {
          "url": "https://github.com/isaacs/inherits/issues",
          "type": "issue-tracker"
        },
        {
          "url": "git://github.com/isaacs/inherits.git",
          "type": "vcs"
        }
      ]
    },
    {
      "type": "library",
      "bom-ref": "pkg:npm/minimatch@3.1.2",
      "name": "minimatch",
      "version": "3.1.2",
      "description": "a glob matcher in javascript",
      "hashes": [
        {
          "alg": "SHA-1",
          "content": "19cd194bfd3e428f049a70817c038d89ab4be35b"
        }
      ],
      "licenses": [
        {
          "license": {
            "id": "ISC"
          }
        }
      ],
      "purl": "pkg:npm/minimatch@3.1.2",
      "externalReferences": [
        {
          "url": "https://github.com/isaacs/minimatch#readme",
          "type": "website"
        },
        {
          "url": "https://github.com/isaacs/minimatch/issues",
          "type": "issue-tracker"
        },
        {
          "url": "git://github.com/isaacs/minimatch.git",
          "type": "vcs"
        }
      ]
    },
    {
      "type": "library",
      "bom-ref": "pkg:npm/path-is-absolute@1.0.1",
      "name": "path-is-absolute",
      "version": "1.0.1",
      "description": "Node.js 0.12 path.isAbsolute() ponyfill",
      "hashes": [
        {
          "alg": "SHA-1",
          "content": "174b9268735534ffbc7ace6bf53a5a9e1b5c5f5f"
        }
      ],
      "licenses": [
        {
          "license": {
            "id": "MIT"
          }
        }
      ],
      "purl": "pkg:npm/path-is-absolute@1.0.1",
      "externalReferences": [
        {
          "url": "https://github.com/sindresorhus/path-is-absolute#readme",
          "type": "website"
        },
        {
          "url": "https://github.com/sindresorhus/path-is-absolute/issues",
          "type": "issue-tracker"
        },
        {
          "url": "git+https://github.com/sindresorhus/path-is-absolute.git",
          "type": "vcs"
        }
      ]
    },
    {
      "type": "library",
      "bom-ref": "pkg:npm/console-browserify@1.1.0",
      "name": "console-browserify",
      "version": "1.1.0",
      "description": "Emulate console for all the browsers",
      "hashes": [
        {
          "alg": "SHA-1",
          "content": "f0241c45730a9fc6323b206dbf38edc741d0bb10"
        }
      ],
      "purl": "pkg:npm/console-browserify@1.1.0",
      "externalReferences": [
        {
          "url": "https://github.com/Raynos/console-browserify",
          "type": "website"
        },
        {
          "url": "https://github.com/Raynos/console-browserify/issues",
          "type": "issue-tracker"
        },
        {
          "url": "git://github.com/Raynos/console-browserify.git",
          "type": "vcs"
        }
      ]
    },
    {
      "type": "library",
      "bom-ref": "pkg:npm/date-now@0.1.4",
      "name": "date-now",
      "version": "0.1.4",
      "description": "A requirable version of Date.now()",
      "hashes": [
        {
          "alg": "SHA-1",
          "content": "eaf439fd4d4848ad74e5cc7dbef200672b9e345b"
        }
      ],
      "purl": "pkg:npm/date-now@0.1.4",
      "externalReferences": [
        {
          "url": "https://github.com/Colingo/date-now",
          "type": "website"
        },
        {
          "url": "https://github.com/Colingo/date-now/issues",
          "type": "issue-tracker"
        },
        {
          "url": "git://github.com/Colingo/date-now.git",
          "type": "vcs"
        }
      ]
    },
    {
      "type": "library",
      "bom-ref": "pkg:npm/core-util-is@1.0.3",
      "name": "core-util-is",
      "version": "1.0.3",
      "description": "The `util.is*` functions introduced in Node v0.12.",
      "hashes": [
        {
          "alg": "SHA-1",
          "content": "a6042d3634c2b27e9328f837b965fac83808db85"
        }
      ],
      "licenses": [
        {
          "license": {
            "id": "MIT"
          }
        }
      ],
      "purl": "pkg:npm/core-util-is@1.0.3",
      "externalReferences": [
        {
          "url": "https://github.com/isaacs/core-util-is#readme",
          "type": "website"
        },
        {
          "url": "https://github.com/isaacs/core-util-is/issues",
          "type": "issue-tracker"
        },
        {
          "url": "git://github.com/isaacs/core-util-is.git",
          "type": "vcs"
        }
      ]
    },
    {
      "type": "library",
      "bom-ref": "pkg:npm/domelementtype@1.3.1",
      "name": "domelementtype",
      "version": "1.3.1",
      "description": "all the types of nodes in htmlparser2's dom",
      "hashes": [
        {
          "alg": "SHA-1",
          "content": "d048c44b37b0d10a7f2a3d5fee3f4333d790481f"
        }
      ],
      "licenses": [
        {
          "license": {
            "id": "BSD-2-Clause"
          }
        }
      ],
      "purl": "pkg:npm/domelementtype@1.3.1",
      "externalReferences": [
        {
          "url": "https://github.com/fb55/domelementtype#readme",
          "type": "website"
        },
        {
          "url": "https://github.com/fb55/domelementtype/issues",
          "type": "issue-tracker"
        },
        {
          "url": "git://github.com/fb55/domelementtype.git",
          "type": "vcs"
        }
      ]
    },
    {
      "type": "library",
      "bom-ref": "pkg:npm/domhandler@2.3.0",
      "name": "domhandler",
      "version": "2.3.0",
      "description": "handler for htmlparser2 that turns pages into a dom",
      "hashes": [
        {
          "alg": "SHA-1",
          "content": "2de59a0822d5027fabff6f032c2b25a2a8abe738"
        }
      ],
      "purl": "pkg:npm/domhandler@2.3.0",
      "externalReferences": [
        {
          "url": "https://github.com/fb55/DomHandler#readme",
          "type": "website"
        },
        {
          "url": "https://github.com/fb55/DomHandler/issues",
          "type": "issue-tracker"
        },
        {
          "url": "git://github.com/fb55/DomHandler.git",
          "type": "vcs"
        }
      ]
    },
    {
      "type": "library",
      "bom-ref": "pkg:npm/domutils@1.5.1",
      "name": "domutils",
      "version": "1.5.1",
      "description": "utilities for working with htmlparser2's dom",
      "hashes": [
        {
          "alg": "SHA-1",
          "content": "dcd8488a26f563d61079e48c9f7b7e32373682cf"
        }
      ],
      "purl": "pkg:npm/domutils@1.5.1",
      "externalReferences": [
        {
          "url": "https://github.com/FB55/domutils#readme",
          "type": "website"
        },
        {
          "url": "https://github.com/FB55/domutils/issues",
          "type": "issue-tracker"
        },
        {
          "url": "git://github.com/FB55/domutils.git",
          "type": "vcs"
        }
      ]
    },
    {
      "type": "library",
      "bom-ref": "pkg:npm/dom-serializer@0.2.2",
      "name": "dom-serializer",
      "version": "0.2.2",
      "description": "render dom nodes to string",
      "hashes": [
        {
          "alg": "SHA-1",
          "content": "1afb81f533717175d478655debc5e332d9f9bb51"
        }
      ],
      "licenses": [
        {
          "license": {
            "id": "MIT"
          }
        }
      ],
      "purl": "pkg:npm/dom-serializer@0.2.2",
      "externalReferences": [
        {
          "url": "https://github.com/cheeriojs/dom-renderer#readme",
          "type": "website"
        },
        {
          "url": "https://github.com/cheeriojs/dom-renderer/issues",
          "type": "issue-tracker"
        },
        {
          "url": "git://github.com/cheeriojs/dom-renderer.git",
          "type": "vcs"
        }
      ]
    },
    {
      "type": "library",
      "bom-ref": "pkg:npm/domelementtype@2.3.0",
      "name": "domelementtype",
      "version": "2.3.0",
      "description": "all the types of nodes in htmlparser2's dom",
      "hashes": [
        {
          "alg": "SHA-1",
          "content": "5c45e8e869952626331d7aab326d01daf65d589d"
        }
      ],
      "licenses": [
        {
          "license": {
            "id": "BSD-2-Clause"
          }
        }
      ],
      "purl": "pkg:npm/domelementtype@2.3.0",
      "externalReferences": [
        {
          "url": "https://github.com/fb55/domelementtype#readme",
          "type": "website"
        },
        {
          "url": "https://github.com/fb55/domelementtype/issues",
          "type": "issue-tracker"
        },
        {
          "url": "git://github.com/fb55/domelementtype.git",
          "type": "vcs"
        }
      ]
    },
    {
      "type": "library",
      "bom-ref": "pkg:npm/entities@2.2.0",
      "name": "entities",
      "version": "2.2.0",
      "description": "Encode & decode XML and HTML entities with ease",
      "hashes": [
        {
          "alg": "SHA-1",
          "content": "098dc90ebb83d8dffa089d55256b351d34c4da55"
        }
      ],
      "licenses": [
        {
          "license": {
            "id": "BSD-2-Clause"
          }
        }
      ],
      "purl": "pkg:npm/entities@2.2.0",
      "externalReferences": [
        {
          "url": "https://github.com/fb55/entities#readme",
          "type": "website"
        },
        {
          "url": "https://github.com/fb55/entities/issues",
          "type": "issue-tracker"
        },
        {
          "url": "git://github.com/fb55/entities.git",
          "type": "vcs"
        }
      ]
    },
    {
      "type": "library",
      "bom-ref": "pkg:npm/entities@1.0.0",
      "name": "entities",
      "version": "1.0.0",
      "description": "Encode & decode XML/HTML entities with ease",
      "hashes": [
        {
          "alg": "SHA-1",
          "content": "b2987aa3821347fcde642b24fdfc9e4fb712bf26"
        }
      ],
      "licenses": [
        {
          "license": {
            "name": "BSD-like"
          }
        }
      ],
      "purl": "pkg:npm/entities@1.0.0",
      "externalReferences": [
        {
          "url": "https://github.com/fb55/node-entities#readme",
          "type": "website"
        },
        {
          "url": "https://github.com/fb55/node-entities/issues",
          "type": "issue-tracker"
        },
        {
          "url": "git://github.com/fb55/node-entities.git",
          "type": "vcs"
        }
      ]
    },
    {
      "type": "library",
      "bom-ref": "pkg:npm/htmlparser2@3.8.3",
      "name": "htmlparser2",
      "version": "3.8.3",
      "description": "Fast & forgiving HTML/XML/RSS parser",
      "hashes": [
        {
          "alg": "SHA-1",
          "content": "996c28b191516a8be86501a7d79757e5c70c1068"
        }
      ],
      "licenses": [
        {
          "license": {
            "id": "MIT"
          }
        }
      ],
      "purl": "pkg:npm/htmlparser2@3.8.3",
      "externalReferences": [
        {
          "url": "https://github.com/fb55/htmlparser2#readme",
          "type": "website"
        },
        {
          "url": "http://github.com/fb55/htmlparser2/issues",
          "type": "issue-tracker"
        },
        {
          "url": "git://github.com/fb55/htmlparser2.git",
          "type": "vcs"
        }
      ]
    },
    {
      "type": "library",
      "bom-ref": "pkg:npm/readable-stream@1.1.14",
      "name": "readable-stream",
      "version": "1.1.14",
      "description": "Streams3, a user-land copy of the stream library from Node.js v0.11.x",
      "hashes": [
        {
          "alg": "SHA-1",
          "content": "7cf4c54ef648e3813084c636dd2079e166c081d9"
        }
      ],
      "licenses": [
        {
          "license": {
            "id": "MIT"
          }
        }
      ],
      "purl": "pkg:npm/readable-stream@1.1.14",
      "externalReferences": [
        {
          "url": "https://github.com/isaacs/readable-stream#readme",
          "type": "website"
        },
        {
          "url": "https://github.com/isaacs/readable-stream/issues",
          "type": "issue-tracker"
        },
        {
          "url": "git://github.com/isaacs/readable-stream.git",
          "type": "vcs"
        }
      ]
    },
    {
      "type": "library",
      "bom-ref": "pkg:npm/isarray@0.0.1",
      "name": "isarray",
      "version": "0.0.1",
      "description": "Array#isArray for older browsers",
      "hashes": [
        {
          "alg": "SHA-1",
          "content": "8a18acfca9a8f4177e09abfc6038939b05d1eedf"
        }
      ],
      "licenses": [
        {
          "license": {
            "id": "MIT"
          }
        }
      ],
      "purl": "pkg:npm/isarray@0.0.1",
      "externalReferences": [
        {
          "url": "https://github.com/juliangruber/isarray",
          "type": "website"
        },
        {
          "url": "https://github.com/juliangruber/isarray/issues",
          "type": "issue-tracker"
        },
        {
          "url": "git://github.com/juliangruber/isarray.git",
          "type": "vcs"
        }
      ]
    },
    {
      "type": "library",
      "bom-ref": "pkg:npm/string_decoder@0.10.31",
      "name": "string_decoder",
      "version": "0.10.31",
      "description": "The string_decoder module from Node core",
      "hashes": [
        {
          "alg": "SHA-1",
          "content": "62e203bc41766c6c28c9fc84301dab1c5310fa94"
        }
      ],
      "licenses": [
        {
          "license": {
            "id": "MIT"
          }
        }
      ],
      "purl": "pkg:npm/string_decoder@0.10.31",
      "externalReferences": [
        {
          "url": "https://github.com/rvagg/string_decoder",
          "type": "website"
        },
        {
          "url": "https://github.com/rvagg/string_decoder/issues",
          "type": "issue-tracker"
        },
        {
          "url": "git://github.com/rvagg/string_decoder.git",
          "type": "vcs"
        }
      ]
    },
    {
      "type": "library",
      "bom-ref": "pkg:npm/lodash@4.17.21",
      "name": "lodash",
      "version": "4.17.21",
      "description": "Lodash modular utilities.",
      "hashes": [
        {
          "alg": "SHA-1",
          "content": "679591c564c3bffaae8454cf0b3df370c3d6911c"
        }
      ],
      "licenses": [
        {
          "license": {
            "id": "MIT"
          }
        }
      ],
      "purl": "pkg:npm/lodash@4.17.21",
      "externalReferences": [
        {
          "url": "https://lodash.com/",
          "type": "website"
        },
        {
          "url": "https://github.com/lodash/lodash/issues",
          "type": "issue-tracker"
        },
        {
          "url": "git+https://github.com/lodash/lodash.git",
          "type": "vcs"
        }
      ]
    },
    {
      "type": "library",
      "bom-ref": "pkg:npm/minimatch@3.0.8",
      "name": "minimatch",
      "version": "3.0.8",
      "description": "a glob matcher in javascript",
      "hashes": [
        {
          "alg": "SHA-1",
          "content": "5e6a59bd11e2ab0de1cfb843eb2d82e546c321c1"
        }
      ],
      "licenses": [
        {
          "license": {
            "id": "ISC"
          }
        }
      ],
      "purl": "pkg:npm/minimatch@3.0.8",
      "externalReferences": [
        {
          "url": "https://github.com/isaacs/minimatch#readme",
          "type": "website"
        },
        {
          "url": "https://github.com/isaacs/minimatch/issues",
          "type": "issue-tracker"
        },
        {
          "url": "git://github.com/isaacs/minimatch.git",
          "type": "vcs"
        }
      ]
    },
    {
      "type": "library",
      "bom-ref": "pkg:npm/jshint@2.9.7",
      "name": "jshint",
      "version": "2.9.7",
      "description": "Static analysis tool for JavaScript",
      "hashes": [
        {
          "alg": "SHA-1",
          "content": "038a3fa5c328fa3ab03ddfd85df88d3d87bedcbd"
        }
      ],
      "licenses": [
        {
          "license": {
            "name": "(MIT AND JSON)"
          }
        }
      ],
      "purl": "pkg:npm/jshint@2.9.7",
      "externalReferences": [
        {
          "url": "http://jshint.com/",
          "type": "website"
        },
        {
          "url": "https://github.com/jshint/jshint/issues",
          "type": "issue-tracker"
        },
        {
          "url": "git+https://github.com/jshint/jshint.git",
          "type": "vcs"
        }
      ]
    },
    {
      "type": "library",
      "bom-ref": "pkg:npm/shelljs@0.3.0",
      "name": "shelljs",
      "version": "0.3.0",
      "description": "Portable Unix shell commands for Node.js",
      "hashes": [
        {
          "alg": "SHA-1",
          "content": "3596e6307a781544f591f37da618360f31db57b1"
        }
      ],
      "licenses": [
        {
          "license": {
            "name": "BSD*"
          }
        }
      ],
      "purl": "pkg:npm/shelljs@0.3.0",
      "externalReferences": [
        {
          "url": "http://github.com/arturadib/shelljs",
          "type": "website"
        },
        {
          "url": "https://github.com/arturadib/shelljs/issues",
          "type": "issue-tracker"
        },
        {
          "url": "git://github.com/arturadib/shelljs.git",
          "type": "vcs"
        }
      ]
    },
    {
      "type": "library",
      "bom-ref": "pkg:npm/strip-json-comments@1.0.4",
      "name": "strip-json-comments",
      "version": "1.0.4",
      "description": "Strip comments from JSON. Lets you use comments in your JSON files!",
      "hashes": [
        {
          "alg": "SHA-1",
          "content": "1e15fbcac97d3ee99bf2d73b4c656b082bbafb91"
        }
      ],
      "licenses": [
        {
          "license": {
            "id": "MIT"
          }
        }
      ],
      "purl": "pkg:npm/strip-json-comments@1.0.4",
      "externalReferences": [
        {
          "url": "https://github.com/sindresorhus/strip-json-comments#readme",
          "type": "website"
        },
        {
          "url": "https://github.com/sindresorhus/strip-json-comments/issues",
          "type": "issue-tracker"
        },
        {
          "url": "git+https://github.com/sindresorhus/strip-json-comments.git",
          "type": "vcs"
        }
      ]
    }
  ]
}
