{
  "bomFormat": "CycloneDX",
  "specVersion": "1.3",
  "version": 1,
  "metadata": {
    "tools": [
      {
        "vendor": "CycloneDX",
        "name": "cyclonedx-gomod",
        "version": "v0.0.0-unset",
        "hashes": [
          {
            "alg": "MD5",
            "content": "a35776fc9417e8071d3f1dcfa2f1dd19"
          },
          {
            "alg": "SHA-1",
            "content": "a19a8eed713eff5a2092e5283c201a146f19421d"
          },
          {
            "alg": "SHA-256",
            "content": "17b3b980b9a5d0f48ad52043dee5b31aff3ae6599a36bc94224dc7b6a46759ef"
          },
          {
            "alg": "SHA-512",
            "content": "9d4f06aab20cede94a1aedf11a300ae9de98871235c68c72e421cd6d45495910861b39e743ee0eceb11bbdcd2c9acc3312c19064cfe90177243fb43127fcfa46"
          }
        ]
      },
      {
        "vendor": "AppThreat",
        "name": "cdxgen",
        "version": "3.0.10"
      },
      {
        "vendor": "Fortress Information Security",
        "name": "Github Extractor",
        "version": "1.15.1"
      }
    ],
    "authors": [
      {
        "name": "Fortress Information Security",
        "email": "sales@fortressinfosec.com",
        "phone": "1-407-573-6800"
      }
    ],
    "timestamp": "2022-06-01T21:00:00Z",
    "component": {
      "type": "application",
      "name": "gitleaks",
      "version": "v8.8.7",
      "group": "zricethezav",
      "externalReferences": [
        {
          "url": "https://github.com/zricethezav/gitleaks.git",
          "type": "distribution"
        },
        {
          "type": "website",
          "url": "https://gitleaks.io",
          "comment": "As set via `homepage` in Github API"
        }
      ]
    }
  },
  "components": [
    {
      "type": "library",
      "bom-ref": "pkg:golang/github.com/fatih/semgroup@v1.2.0",
      "name": "github.com/fatih/semgroup",
      "version": "v1.2.0",
      "scope": "required",
      "hashes": [
        {
          "alg": "SHA-256",
          "content": "87f38b5f010cfb734dc807591293221f53b37e9954d3d8b6a973d54e1199bf28"
        }
      ],
      "purl": "pkg:golang/github.com/fatih/semgroup@v1.2.0",
      "externalReferences": [
        {
          "url": "https://github.com/fatih/semgroup",
          "type": "vcs"
        }
      ]
    },
    {
      "type": "library",
      "bom-ref": "pkg:golang/github.com/fsnotify/fsnotify@v1.4.9",
      "name": "github.com/fsnotify/fsnotify",
      "version": "v1.4.9",
      "scope": "required",
      "hashes": [
        {
          "alg": "SHA-256",
          "content": "86c9acd50caed23827c0d5c8c5afbf57f3c3b14e827cb7fa08d3bc1fb216a12e"
        }
      ],
      "purl": "pkg:golang/github.com/fsnotify/fsnotify@v1.4.9",
      "externalReferences": [
        {
          "url": "https://github.com/fsnotify/fsnotify",
          "type": "vcs"
        }
      ]
    },
    {
      "type": "library",
      "bom-ref": "pkg:golang/github.com/gitleaks/go-gitdiff@v0.7.6",
      "name": "github.com/gitleaks/go-gitdiff",
      "version": "v0.7.6",
      "scope": "required",
      "hashes": [
        {
          "alg": "SHA-256",
          "content": "6ad71fa0d3c3f5eaf33ecf42f3d6be8b663e114991d90281e501c94df0789fad"
        }
      ],
      "purl": "pkg:golang/github.com/gitleaks/go-gitdiff@v0.7.6",
      "externalReferences": [
        {
          "url": "https://github.com/gitleaks/go-gitdiff",
          "type": "vcs"
        }
      ]
    },
    {
      "type": "library",
      "bom-ref": "pkg:golang/github.com/h2non/filetype@v1.1.3",
      "name": "github.com/h2non/filetype",
      "version": "v1.1.3",
      "scope": "required",
      "hashes": [
        {
          "alg": "SHA-256",
          "content": "14a931f506c3ec747fce32b521ae57881b2af7374b8b929fdf31b21530059068"
        }
      ],
      "purl": "pkg:golang/github.com/h2non/filetype@v1.1.3",
      "externalReferences": [
        {
          "url": "https://github.com/h2non/filetype",
          "type": "vcs"
        }
      ]
    },
    {
      "type": "library",
      "bom-ref": "pkg:golang/github.com/hashicorp/hcl@v1.0.0",
      "name": "github.com/hashicorp/hcl",
      "version": "v1.0.0",
      "scope": "required",
      "hashes": [
        {
          "alg": "SHA-256",
          "content": "d009e5ce3a62e2f11ab1378d167da62c98134b0b74fbab1fb224c6f2a7161b1e"
        }
      ],
      "purl": "pkg:golang/github.com/hashicorp/hcl@v1.0.0",
      "externalReferences": [
        {
          "url": "https://github.com/hashicorp/hcl",
          "type": "vcs"
        }
      ]
    },
    {
      "type": "library",
      "bom-ref": "pkg:golang/github.com/inconshreveable/mousetrap@v1.0.0",
      "name": "github.com/inconshreveable/mousetrap",
      "version": "v1.0.0",
      "scope": "required",
      "hashes": [
        {
          "alg": "SHA-256",
          "content": "67cb6ee6cada2d709721c011c41a7ff1c6ef97055aed9d4d1e0f5710a86d4af3"
        }
      ],
      "purl": "pkg:golang/github.com/inconshreveable/mousetrap@v1.0.0",
      "externalReferences": [
        {
          "url": "https://github.com/inconshreveable/mousetrap",
          "type": "vcs"
        }
      ]
    },
    {
      "type": "library",
      "bom-ref": "pkg:golang/github.com/lucasjones/reggen@v0.0.0-20200904144131-37ba4fa293bb",
      "name": "github.com/lucasjones/reggen",
      "version": "v0.0.0-20200904144131-37ba4fa293bb",
      "scope": "required",
      "hashes": [
        {
          "alg": "SHA-256",
          "content": "c3583dc0d0c813fa4749398069486fe13650b8f052e8657798ccf98648338885"
        }
      ],
      "purl": "pkg:golang/github.com/lucasjones/reggen@v0.0.0-20200904144131-37ba4fa293bb",
      "externalReferences": [
        {
          "url": "https://github.com/lucasjones/reggen",
          "type": "vcs"
        }
      ]
    },
    {
      "type": "library",
      "bom-ref": "pkg:golang/github.com/magiconair/properties@v1.8.5",
      "name": "github.com/magiconair/properties",
      "version": "v1.8.5",
      "scope": "required",
      "hashes": [
        {
          "alg": "SHA-256",
          "content": "6fa909b3e1263c53181a4a30f46894c82c8ebc8c187ad609ddf49a59a93f1a5b"
        }
      ],
      "purl": "pkg:golang/github.com/magiconair/properties@v1.8.5",
      "externalReferences": [
        {
          "url": "https://github.com/magiconair/properties",
          "type": "vcs"
        }
      ]
    },
    {
      "type": "library",
      "bom-ref": "pkg:golang/github.com/mitchellh/mapstructure@v1.4.1",
      "name": "github.com/mitchellh/mapstructure",
      "version": "v1.4.1",
      "scope": "required",
      "hashes": [
        {
          "alg": "SHA-256",
          "content": "0a954d11e950099068a083c39fe011dcda62bcafd320a53c6c3c5d01215541a8"
        }
      ],
      "purl": "pkg:golang/github.com/mitchellh/mapstructure@v1.4.1",
      "externalReferences": [
        {
          "url": "https://github.com/mitchellh/mapstructure",
          "type": "vcs"
        }
      ]
    },
    {
      "type": "library",
      "bom-ref": "pkg:golang/github.com/pelletier/go-toml@v1.9.3",
      "name": "github.com/pelletier/go-toml",
      "version": "v1.9.3",
      "scope": "required",
      "hashes": [
        {
          "alg": "SHA-256",
          "content": "cde0b96f51af89153229877a3893ef054fe67150d5a0bd4e853d7b142b797524"
        }
      ],
      "purl": "pkg:golang/github.com/pelletier/go-toml@v1.9.3",
      "externalReferences": [
        {
          "url": "https://github.com/pelletier/go-toml",
          "type": "vcs"
        }
      ]
    },
    {
      "type": "library",
      "bom-ref": "pkg:golang/github.com/petar-dambovaliev/aho-corasick@v0.0.0-20211021192214-5ab2d9280aa9",
      "name": "github.com/petar-dambovaliev/aho-corasick",
      "version": "v0.0.0-20211021192214-5ab2d9280aa9",
      "scope": "required",
      "hashes": [
        {
          "alg": "SHA-256",
          "content": "94bfb2e17bf6d29565086c8bccd1d10b4234ac81e120bd654ef1e2ce84bf754f"
        }
      ],
      "purl": "pkg:golang/github.com/petar-dambovaliev/aho-corasick@v0.0.0-20211021192214-5ab2d9280aa9",
      "externalReferences": [
        {
          "url": "https://github.com/petar-dambovaliev/aho-corasick",
          "type": "vcs"
        }
      ]
    },
    {
      "type": "library",
      "bom-ref": "pkg:golang/github.com/rs/zerolog@v1.26.1",
      "name": "github.com/rs/zerolog",
      "version": "v1.26.1",
      "scope": "required",
      "hashes": [
        {
          "alg": "SHA-256",
          "content": "fe2870c6a1fee33f14c7223bd30335cfdc82be459c7f3fdade68f8f24fd99e07"
        }
      ],
      "purl": "pkg:golang/github.com/rs/zerolog@v1.26.1",
      "externalReferences": [
        {
          "url": "https://github.com/rs/zerolog",
          "type": "vcs"
        }
      ]
    },
    {
      "type": "library",
      "bom-ref": "pkg:golang/github.com/spf13/afero@v1.6.0",
      "name": "github.com/spf13/afero",
      "version": "v1.6.0",
      "scope": "required",
      "hashes": [
        {
          "alg": "SHA-256",
          "content": "c686b1dac2760d3f12f31036a5a3c58c309270235e5ac83be551b40cb46b7a26"
        }
      ],
      "purl": "pkg:golang/github.com/spf13/afero@v1.6.0",
      "externalReferences": [
        {
          "url": "https://github.com/spf13/afero",
          "type": "vcs"
        }
      ]
    },
    {
      "type": "library",
      "bom-ref": "pkg:golang/github.com/spf13/cast@v1.3.1",
      "name": "github.com/spf13/cast",
      "version": "v1.3.1",
      "scope": "required",
      "hashes": [
        {
          "alg": "SHA-256",
          "content": "9c59ba4b448c772cebcdc9938528a9884b9b203cbc5845ca359d143a0891a678"
        }
      ],
      "purl": "pkg:golang/github.com/spf13/cast@v1.3.1",
      "externalReferences": [
        {
          "url": "https://github.com/spf13/cast",
          "type": "vcs"
        }
      ]
    },
    {
      "type": "library",
      "bom-ref": "pkg:golang/github.com/spf13/cobra@v1.2.1",
      "name": "github.com/spf13/cobra",
      "version": "v1.2.1",
      "scope": "required",
      "hashes": [
        {
          "alg": "SHA-256",
          "content": "f8a9a36d4c3586b89234c179e683eb91971bdbb6840b2ae3f15db2b6fee4583c"
        }
      ],
      "purl": "pkg:golang/github.com/spf13/cobra@v1.2.1",
      "externalReferences": [
        {
          "url": "https://github.com/spf13/cobra",
          "type": "vcs"
        }
      ]
    },
    {
      "type": "library",
      "bom-ref": "pkg:golang/github.com/spf13/jwalterweatherman@v1.1.0",
      "name": "github.com/spf13/jwalterweatherman",
      "version": "v1.1.0",
      "scope": "required",
      "hashes": [
        {
          "alg": "SHA-256",
          "content": "b9eeafa02e5b47917c6312394baee3f62e7cd8553842fa366e6aa7a8c6000c59"
        }
      ],
      "purl": "pkg:golang/github.com/spf13/jwalterweatherman@v1.1.0",
      "externalReferences": [
        {
          "url": "https://github.com/spf13/jwalterweatherman",
          "type": "vcs"
        }
      ]
    },
    {
      "type": "library",
      "bom-ref": "pkg:golang/github.com/spf13/pflag@v1.0.5",
      "name": "github.com/spf13/pflag",
      "version": "v1.0.5",
      "scope": "required",
      "hashes": [
        {
          "alg": "SHA-256",
          "content": "8b2f951543823f56bef3216da3f76b836089e6ed3246807b7d9c370cabff2570"
        }
      ],
      "purl": "pkg:golang/github.com/spf13/pflag@v1.0.5",
      "externalReferences": [
        {
          "url": "https://github.com/spf13/pflag",
          "type": "vcs"
        }
      ]
    },
    {
      "type": "library",
      "bom-ref": "pkg:golang/github.com/spf13/viper@v1.8.1",
      "name": "github.com/spf13/viper",
      "version": "v1.8.1",
      "scope": "required",
      "hashes": [
        {
          "alg": "SHA-256",
          "content": "2aad5fc9e79baac05f6e3663e042fb823d883b498c6a2ca361459c52c9763b8e"
        }
      ],
      "purl": "pkg:golang/github.com/spf13/viper@v1.8.1",
      "externalReferences": [
        {
          "url": "https://github.com/spf13/viper",
          "type": "vcs"
        }
      ]
    },
    {
      "type": "library",
      "bom-ref": "pkg:golang/github.com/subosito/gotenv@v1.2.0",
      "name": "github.com/subosito/gotenv",
      "version": "v1.2.0",
      "scope": "required",
      "hashes": [
        {
          "alg": "SHA-256",
          "content": "4a5af547d1f102510a79f82ae639fd53e0e711394851ae877e01338f483977bb"
        }
      ],
      "purl": "pkg:golang/github.com/subosito/gotenv@v1.2.0",
      "externalReferences": [
        {
          "url": "https://github.com/subosito/gotenv",
          "type": "vcs"
        }
      ]
    },
    {
      "type": "library",
      "bom-ref": "pkg:golang/golang.org/x/sync@v0.0.0-20210220032951-036812b2e83c",
      "name": "golang.org/x/sync",
      "version": "v0.0.0-20210220032951-036812b2e83c",
      "scope": "required",
      "hashes": [
        {
          "alg": "SHA-256",
          "content": "e4ab25198c05a6484687e435e9bc0c3f770ea27b47f0539ea7bb4657ce98ed24"
        }
      ],
      "purl": "pkg:golang/golang.org/x/sync@v0.0.0-20210220032951-036812b2e83c"
    },
    {
      "type": "library",
      "bom-ref": "pkg:golang/golang.org/x/sys@v0.0.0-20211110154304-99a53858aa08",
      "name": "golang.org/x/sys",
      "version": "v0.0.0-20211110154304-99a53858aa08",
      "scope": "required",
      "hashes": [
        {
          "alg": "SHA-256",
          "content": "59e7111ea804d3d241921ff9f385c813a3cccf928a13fbc44788b33548b7d004"
        }
      ],
      "purl": "pkg:golang/golang.org/x/sys@v0.0.0-20211110154304-99a53858aa08"
    },
    {
      "type": "library",
      "bom-ref": "pkg:golang/golang.org/x/text@v0.3.6",
      "name": "golang.org/x/text",
      "version": "v0.3.6",
      "scope": "required",
      "hashes": [
        {
          "alg": "SHA-256",
          "content": "691631371bfa886425c956999a4e998181036be260d7c0f179b3d2adde9b8353"
        }
      ],
      "purl": "pkg:golang/golang.org/x/text@v0.3.6"
    },
    {
      "type": "library",
      "bom-ref": "pkg:golang/gopkg.in/ini.v1@v1.62.0",
      "name": "gopkg.in/ini.v1",
      "version": "v1.62.0",
      "scope": "required",
      "hashes": [
        {
          "alg": "SHA-256",
          "content": "76e07393bef5bb1a14b8e97244b907b3282e77dfb996b9468dd1416f89922835"
        }
      ],
      "purl": "pkg:golang/gopkg.in/ini.v1@v1.62.0",
      "externalReferences": [
        {
          "url": "https://github.com/go-ini/ini",
          "type": "vcs"
        }
      ]
    },
    {
      "type": "library",
      "bom-ref": "pkg:golang/gopkg.in/yaml.v2@v2.4.0",
      "name": "gopkg.in/yaml.v2",
      "version": "v2.4.0",
      "scope": "required",
      "hashes": [
        {
          "alg": "SHA-256",
          "content": "0fcc60c04098ec262fc7e6369f8b01cfddc99fd251bf1762cb2a3c0937ee29a6"
        }
      ],
      "purl": "pkg:golang/gopkg.in/yaml.v2@v2.4.0",
      "externalReferences": [
        {
          "url": "https://github.com/go-yaml/yaml",
          "type": "vcs"
        }
      ]
    },
    {
      "type": "library",
      "bom-ref": "pkg:golang/github.com/zricethezav/gitleaks/v8",
      "group": "github.com/zricethezav/gitleaks",
      "name": "v8",
      "version": "",
      "description": "",
      "scope": "required",
      "purl": "pkg:golang/github.com/zricethezav/gitleaks/v8"
    }
  ],
  "dependencies": [
    {
      "ref": "pkg:golang/github.com/fatih/semgroup@v1.2.0",
      "dependsOn": [
        "pkg:golang/golang.org/x/sync@v0.0.0-20210220032951-036812b2e83c"
      ]
    },
    {
      "ref": "pkg:golang/github.com/fsnotify/fsnotify@v1.4.9",
      "dependsOn": [
        "pkg:golang/golang.org/x/sys@v0.0.0-20211110154304-99a53858aa08"
      ]
    },
    {
      "ref": "pkg:golang/github.com/gitleaks/go-gitdiff@v0.7.6"
    },
    {
      "ref": "pkg:golang/github.com/h2non/filetype@v1.1.3"
    },
    {
      "ref": "pkg:golang/github.com/hashicorp/hcl@v1.0.0"
    },
    {
      "ref": "pkg:golang/github.com/inconshreveable/mousetrap@v1.0.0"
    },
    {
      "ref": "pkg:golang/github.com/lucasjones/reggen@v0.0.0-20200904144131-37ba4fa293bb"
    },
    {
      "ref": "pkg:golang/github.com/magiconair/properties@v1.8.5"
    },
    {
      "ref": "pkg:golang/github.com/mitchellh/mapstructure@v1.4.1"
    },
    {
      "ref": "pkg:golang/github.com/pelletier/go-toml@v1.9.3"
    },
    {
      "ref": "pkg:golang/github.com/petar-dambovaliev/aho-corasick@v0.0.0-20211021192214-5ab2d9280aa9"
    },
    {
      "ref": "pkg:golang/github.com/rs/zerolog@v1.26.1"
    },
    {
      "ref": "pkg:golang/github.com/spf13/afero@v1.6.0",
      "dependsOn": [
        "pkg:golang/golang.org/x/text@v0.3.6"
      ]
    },
    {
      "ref": "pkg:golang/github.com/spf13/cast@v1.3.1"
    },
    {
      "ref": "pkg:golang/github.com/spf13/cobra@v1.2.1",
      "dependsOn": [
        "pkg:golang/github.com/inconshreveable/mousetrap@v1.0.0",
        "pkg:golang/github.com/spf13/pflag@v1.0.5",
        "pkg:golang/github.com/spf13/viper@v1.8.1",
        "pkg:golang/gopkg.in/yaml.v2@v2.4.0"
      ]
    },
    {
      "ref": "pkg:golang/github.com/spf13/jwalterweatherman@v1.1.0"
    },
    {
      "ref": "pkg:golang/github.com/spf13/pflag@v1.0.5"
    },
    {
      "ref": "pkg:golang/github.com/spf13/viper@v1.8.1",
      "dependsOn": [
        "pkg:golang/github.com/fsnotify/fsnotify@v1.4.9",
        "pkg:golang/github.com/hashicorp/hcl@v1.0.0",
        "pkg:golang/github.com/magiconair/properties@v1.8.5",
        "pkg:golang/github.com/mitchellh/mapstructure@v1.4.1",
        "pkg:golang/github.com/pelletier/go-toml@v1.9.3",
        "pkg:golang/github.com/spf13/afero@v1.6.0",
        "pkg:golang/github.com/spf13/cast@v1.3.1",
        "pkg:golang/github.com/spf13/jwalterweatherman@v1.1.0",
        "pkg:golang/github.com/spf13/pflag@v1.0.5",
        "pkg:golang/github.com/subosito/gotenv@v1.2.0",
        "pkg:golang/gopkg.in/ini.v1@v1.62.0",
        "pkg:golang/gopkg.in/yaml.v2@v2.4.0"
      ]
    },
    {
      "ref": "pkg:golang/github.com/subosito/gotenv@v1.2.0"
    },
    {
      "ref": "pkg:golang/golang.org/x/sync@v0.0.0-20210220032951-036812b2e83c"
    },
    {
      "ref": "pkg:golang/golang.org/x/sys@v0.0.0-20211110154304-99a53858aa08"
    },
    {
      "ref": "pkg:golang/golang.org/x/text@v0.3.6"
    },
    {
      "ref": "pkg:golang/gopkg.in/ini.v1@v1.62.0"
    },
    {
      "ref": "pkg:golang/gopkg.in/yaml.v2@v2.4.0"
    },
    {
      "ref": "pkg:golang/github.com/zricethezav/gitleaks/v8@v0.0.0-20220502102140-6b7ab73a5298",
      "dependsOn": [
        "pkg:golang/github.com/fatih/semgroup@v1.2.0",
        "pkg:golang/github.com/fsnotify/fsnotify@v1.4.9",
        "pkg:golang/github.com/gitleaks/go-gitdiff@v0.7.6",
        "pkg:golang/github.com/h2non/filetype@v1.1.3",
        "pkg:golang/github.com/hashicorp/hcl@v1.0.0",
        "pkg:golang/github.com/inconshreveable/mousetrap@v1.0.0",
        "pkg:golang/github.com/lucasjones/reggen@v0.0.0-20200904144131-37ba4fa293bb",
        "pkg:golang/github.com/magiconair/properties@v1.8.5",
        "pkg:golang/github.com/mitchellh/mapstructure@v1.4.1",
        "pkg:golang/github.com/pelletier/go-toml@v1.9.3",
        "pkg:golang/github.com/petar-dambovaliev/aho-corasick@v0.0.0-20211021192214-5ab2d9280aa9",
        "pkg:golang/github.com/rs/zerolog@v1.26.1",
        "pkg:golang/github.com/spf13/afero@v1.6.0",
        "pkg:golang/github.com/spf13/cast@v1.3.1",
        "pkg:golang/github.com/spf13/cobra@v1.2.1",
        "pkg:golang/github.com/spf13/jwalterweatherman@v1.1.0",
        "pkg:golang/github.com/spf13/pflag@v1.0.5",
        "pkg:golang/github.com/spf13/viper@v1.8.1",
        "pkg:golang/github.com/subosito/gotenv@v1.2.0",
        "pkg:golang/golang.org/x/sync@v0.0.0-20210220032951-036812b2e83c",
        "pkg:golang/golang.org/x/sys@v0.0.0-20211110154304-99a53858aa08",
        "pkg:golang/golang.org/x/text@v0.3.6",
        "pkg:golang/gopkg.in/ini.v1@v1.62.0",
        "pkg:golang/gopkg.in/yaml.v2@v2.4.0"
      ]
    }
  ]
}
